{"key":"HHH-4576","title":"Tests in MySQL using different case for objects as defined in configuration","description":"The test below uses different case for object names than defined in XML files. In standard MySQL configuration, it causes a failure, as the object names are case sensitive."}
{"key":"HHH-4583","title":"Incorrect handling of empty conjunction and disjunction","description":"Unfortunately Hibernate throws IllegalArgumentException with cause set to SQL syntax exception:"}
{"key":"HHH-4614","title":"(javassist) Instrumented model with abstract MappedSuperclass and field access doesn\u0027t work","description":"- no matter if you use annotation or mapping files, test will fail using javassist (it used to fail with previous version too)"}
{"key":"HHH-4617","title":"Using materialized blobs with Postgresql causes error","description":"I have entity with byte[] property annotated as @Lob and lazy fetch type, when table is createad the created column is of type oid, but when the column is read in application, the Hibernate reads the OID value instead of bytes under given oid.  If i remember well, auto-creating table with Hibernate creates oid column."}
{"key":"HHH-4647","title":"Problems with @JoinColumn referencedColumnName and quoted column and table names","description":"#1: A referencedColumnName that references a quoted target column cannot be found.    #2: An invalid referencedColumnName (including the unquoted version of a valid column) results in an infinite loop in o.h.c.Configuration$MappingsImpl#getPhysicalColumnName()."}
{"key":"HHH-4767","title":"Bug in how Criteria Subquery selections are handled","description":"basically the specified selectio is never applied"}
{"key":"HHH-4775","title":"CriteriaBuilder#notEqual being interpreted oppositely","description":"The NOT gets NOT\u0027ed :?"}
{"key":"HHH-5042","title":"TableGenerator does not increment hibernate_sequences.next_hi_value anymore after having exhausted the current lo-range","description":"The problem in the new code is that only value get\u0027s incremented whilst variable lo is still used to check when a new hiVal must be obtained.   as lo is never incremented, MultipleHiLoPerTableGenerator continues to deliver numbers without ever update hibernate_sequences. next_hi_value on the database (only one unique update is propagates at the first insert) This lead to duplicate keys as soon another session from another sessionfactory tries to insert new objects on the concerning table."}
