{"id":154,"bug_id":"1193683","text":"folding bug, text is in a black hole. Hi, when you have some folded text \\(folding closed\\)   Close it you\u0027ll get  Delete one \\{ You\u0027ll have  and no text fold anymore.  But the weird thing is that the text is not completely lost because you can type another \\{ \\(no need to undo\\) and the fold will reappear magically. So the text was still here but hidden by jEdit\u0027s text area {\\{\\{ test\naaaa\nbbbb\ncccc\n\\}","class_goldset":["org.gjt.sp.jedit.textarea.BufferHandler"],"file_goldset":["org.gjt.sp.jedit.textarea.BufferHandler"],"creation_date":"2005-05-02 09:22:25","resolution_date":"2007-07-31 22:06:01"}
{"id":164,"bug_id":"1571752","text":"\u0027Add Explicit Fold\u0027  in PHP mode - wrong comments. Before \u0027Add Explicit fold\u0027 the content of buffer looks like this \\(\u0027X\u0027 means selection boundaries\\):      After:         {\n\n\\} {\\{\\{  --\u0026gt;\nfunction foo\\(\\) \\{\n\n\\} //\\}\\}\\}","class_goldset":["org.gjt.sp.jedit.textarea.TextArea"],"file_goldset":["org.gjt.sp.jedit.textarea.TextArea"],"creation_date":"2006-10-05 21:26:12","resolution_date":"2007-08-01 22:07:42"}
{"id":165,"bug_id":"1575505","text":"C+j bug. Enter this text:  Select the word \\(solid\\). Press C+j.    Nothing happens r\u0026gt; ;\n\n r\u0026gt; ;","class_goldset":["org.gjt.sp.jedit.textarea.TextArea"],"file_goldset":["org.gjt.sp.jedit.textarea.TextArea"],"creation_date":"2006-10-11 19:54:43","resolution_date":"2006-10-19 12:48:46"}
{"id":169,"bug_id":"1599709","text":"NPE with JEditBuffer and new indenting. To reproduce: Save an empty buffer as test.php. Type: \\--------------- \u0026lt;? php $foo \u003d \u0027\u0026lt;ENTER\u0026gt; \\--------------- When pressing ENTER, after the \"\u0027\", the following exception gets thrown:                                                lt;ENTER\u0026gt;","class_goldset":["org.gjt.sp.jedit.buffer.JEditBuffer"],"file_goldset":["org.gjt.sp.jedit.buffer.JEditBuffer"],"creation_date":"2006-11-20 13:17:56","resolution_date":"2006-11-21 04:08:42"}
{"id":170,"bug_id":"1600401","text":"StringIndexOutOfBoundsException in TokenMarker. After pressing ENTER in a rather long line in a . php file, I got the following exception. The line appeared wrong highlighted in the first place, that why I wanted to see if splitting it would resolve the highlight issue. After this the buffer window is not usable anymore \\(e.g. I cannot enter it, nor does it get repainted\\).                                                                                                                                                                           lt;init\u0026gt; {12,39\\} lt;init\u0026gt; {12,39\\} lt;init\u0026gt; lt;init\u0026gt; lt;init\u0026gt;","class_goldset":["org.gjt.sp.jedit.syntax.TokenMarker"],"file_goldset":["org.gjt.sp.jedit.syntax.TokenMarker"],"creation_date":"2006-11-21 13:16:31","resolution_date":"2015-02-04 17:44:47.541000"}
{"id":174,"bug_id":"1658252","text":"C mode: incorrect bracket matching in multi-line defines. Try this define:  The brackets don\u0027t match. { \\\ncode;                         \\\nmore code;                    \\\neven more code;               \\\n\\}","class_goldset":["org.gjt.sp.jedit.syntax.ParserRule","org.gjt.sp.jedit.syntax.TokenMarker","org.gjt.sp.jedit.syntax.XModeHandler","org.gjt.sp.jedit.syntax.XModeHandler.TagDecl"],"file_goldset":["org.gjt.sp.jedit.syntax.ParserRule","org.gjt.sp.jedit.syntax.TokenMarker","org.gjt.sp.jedit.syntax.XModeHandler","org.gjt.sp.jedit.syntax.XModeHandler.TagDecl"],"creation_date":"2007-02-12 17:48:03","resolution_date":"2007-03-08 08:11:25"}
{"id":178,"bug_id":"1724940","text":"typing in multiple select. If I highlight multiple selections of text in the text area and then begin typing, only the first character of what I type is inserted in the selected areas \\(except for where the cursor ended up after making the selection\\). For example if I have the text:  and I highlight both p\u0027s in the \u0026lt;p\u0026gt; tags and then type \"div\" I end up with:   lt;body\u0026gt;\n lt;p\u0026gt;\n the \u0026lt;p\u0026gt;  lt;body\u0026gt;\n lt;d\u0026gt;","class_goldset":["org.gjt.sp.jedit.textarea.BufferHandler"],"file_goldset":["org.gjt.sp.jedit.textarea.BufferHandler"],"creation_date":"2007-05-24 15:02:18","resolution_date":"2007-09-25 16:08:10"}
{"id":186,"bug_id":"1942313","text":"Expanding a fold twice moves caret unexpectedly. Create the following file, and save it as test.cpp:     Change the folding mode \\(if necessary\\) to \\`indent\u0027. Move the caret to the \\`hij\u0027 line. Press Alt+Backspace to contract the fold.  Press Alt+Enter to expand the fold.  Press Alt+Enter a second time. The caret moves unexpectedly to the \\`bcd\u0027 line.  int a \u003d 1;\n\n {\n//\n\\}\n\n {\n//\n\\}\n\n {\n//\n\\}","class_goldset":["org.gjt.sp.jedit.textarea.DisplayManager"],"file_goldset":["org.gjt.sp.jedit.textarea.DisplayManager"],"creation_date":"2008-04-14 18:08:29","resolution_date":"2008-04-20 23:15:18"}
{"id":188,"bug_id":"1999448","text":"Unnecesarry fold expantion when folded lines are edited. \\(Quoted from Matthieu\u0027s comment for patch \\#1999448\\)\nif I use explicit fold, with this buffer    all folds are folded. I remove one \"l\" from hello.  {\\{\\{ hello\n\nsomething\n\n\\}","class_goldset":["org.gjt.sp.jedit.textarea.BufferHandler","org.gjt.sp.jedit.textarea.DisplayManager","org.gjt.sp.jedit.textarea.TextArea"],"file_goldset":["org.gjt.sp.jedit.textarea.BufferHandler","org.gjt.sp.jedit.textarea.DisplayManager","org.gjt.sp.jedit.textarea.TextArea"],"creation_date":"2008-08-23 10:28:24","resolution_date":"2008-08-23 10:28:24"}
{"id":191,"bug_id":"2129419","text":"NPE in EditPane.setBuffer when quitting jEdit. When trying to quit jEdit, I get the following Null-Pointer-Exception, which is probably related to some files being changed/deleted \\(due to a \"cvs up\" in the background\\).   dialog already failed, so that \"Close\" was the only option that worked. The NPE:                                                                     lt;init\u0026gt;","class_goldset":["org.gjt.sp.jedit.gui.CloseDialog.ListHandler"],"file_goldset":["org.gjt.sp.jedit.gui.CloseDialog.ListHandler"],"creation_date":"2008-09-25 23:53:11","resolution_date":"2008-09-29 21:23:35"}
