{"key":"DATAMONGO-688","title":"There is no precedence between @Id annotation and field named \"id\" - both are attempted to be used","description":"If you have a domain class with an attribute named \"id\", even if you annotate a DIFFERENT field with \"@Id\", spring-data-mongo errors trying to map 2 things to the id. While the error is correct in that you can\u0027t have 2, it surprises me that one doesn\u0027t take precedence over the other."}
{"key":"DATAMONGO-702","title":"Spring Data MongoDB projection search, is not properly configured with respective Java Pojo","description":"If Model Java POJO, is annotated with @Field, then during search with query.fields(). include(field) uning mongoTemplate it does not java property field as field parameter, rather it needs the name declared with name defined with @Field annotation."}
{"key":"DATAMONGO-717","title":"Application context is not properly distributed to persistent entities","description":"The MongoMappingContext does not properly distribute the application context when set to persistent entities that have already been added. Current code:"}
{"key":"DATAMONGO-721","title":"Polymorphic attribute type not persisted on update operations","description":"Here is our situation: we have an entity which have an attribute which is a list of another kind of entity, like the code below.   When using MongoTemplate class with code such as below, the _class attribute is not inserted on the embedded document, so, if one of the items of the list attribute is a subclass of ChildClass, and ChildClass is an abstract class, we begin to face instantiation problems. Here is one example of usage of MongoTemplate in which we found a problem.   If child is a subclass of ChildClass, the _class attribute is not added to the embedded document."}
