{"key":"DATACMNS-228","title":"Mapping sub-system should exclude Groovy introduced properties from persistent properties","description":"When using Groovy classes with the mapping metadata sub-system, the Groovy compiler introduced fields like metaClass should not be considered a persistent property."}
{"key":"DATACMNS-233","title":"DomainClassConverter should gracefully return null for null sources or empty strings","description":"Imagine the use case where you have an Order domain class which has a ManyToOne reference to Customer. When posting a new Order where Order.customer \u003d\u003d \"\" then a converter exception is thrown:       This is the code I used:"}
{"key":"DATACMNS-257","title":"PropertyPath cannot deal with all uppercase fields","description":"Cannot execute MongoOperations.findOne method if my model entity contains @Id field which name is uppercase, like UID. Here an example:       1) create an entity like in example code snippet in MongoDb 2) try to perform find by id operation by calling MongoOperations.findOne 3) at this step you will get an exception"}
