system;bugId;has_ob;has_eb;has_sr;has_other;has_code
eclipse-3.1;78460;x;;x;x;
eclipse-3.1;92451;x;;x;x;x
eclipse-3.1;98256;x;;;x;
eclipse-3.1;83536;x;;x;x;x
swt-3.1;78634;x;x;;x;x
eclipse-3.1;80904;x;;;x;x
eclipse-3.1;76766;x;;;;
eclipse-3.1;87208;x;;;x;
eclipse-3.1;106388;x;;;x;
eclipse-3.1;89814;x;x;x;x;
eclipse-3.1;100137;x;;x;x;x
eclipse-3.1;94540;x;;;x;x
eclipse-3.1;85309;x;;x;x;
eclipse-3.1;126938;x;x;x;x;
eclipse-3.1;95958;x;;x;x;
eclipse-3.1;78466;x;;;x;
eclipse-3.1;94547;x;;x;x;
eclipse-3.1;76779;x;;;x;
eclipse-3.1;100177;x;;x;x;
eclipse-3.1;98272;x;;x;x;
eclipse-3.1;92591;x;;x;;
eclipse-3.1;128931;x;;;x;
eclipse-3.1;87211;x;x;x;x;x
swt-3.1;78854;x;x;;;x
eclipse-3.1;80977;x;;;x;
eclipse-3.1;106454;x;x;x;x;
eclipse-3.1;89835;x;;;x;
eclipse-3.1;85344;x;;x;x;x
eclipse-3.1;83541;x;x;x;x;
eclipse-3.1;96185;x;;;x;
eclipse-3.1;89883;x;;x;x;
eclipse-3.1;129834;x;x;x;x;
eclipse-3.1;94571;x;;;x;
eclipse-3.1;81045;x;;x;x;x
swt-3.1;79268;x;;;x;
eclipse-3.1;106492;x;;x;x;x
eclipse-3.1;85384;x;;;x;
eclipse-3.1;98604;x;;x;x;
eclipse-3.1;100336;x;;x;x;
eclipse-3.1;87419;x;;;;
eclipse-3.1;76837;x;x;x;x;
eclipse-3.1;78548;x;;x;;
eclipse-3.1;83577;x;;x;x;
eclipse-3.1;92602;x;;;x;x
eclipse-3.1;96294;x;;;x;
eclipse-3.1;98605;x;;;x;
eclipse-3.1;78647;x;;;x;x
swt-3.1;80120;x;x;;;
eclipse-3.1;89891;x;;;x;
eclipse-3.1;130404;x;;;x;
eclipse-3.1;106574;x;;x;x;
eclipse-3.1;81049;x;;;x;
eclipse-3.1;85397;x;x;x;x;x
eclipse-3.1;87569;x;;x;x;x
eclipse-3.1;100799;x;x;x;x;
eclipse-3.1;94633;x;;;x;
eclipse-3.1;76854;x;x;x;;
eclipse-3.1;83598;x;;;x;
eclipse-3.1;92776;x;;;x;
eclipse-3.1;78740;x;;x;x;x
eclipse-3.1;96432;x;;;;
eclipse-3.1;98621;x;;x;x;x
swt-3.1;81264;x;x;x;x;x
eclipse-3.1;130424;x;x;;x;
eclipse-3.1;89932;x;;;x;
eclipse-3.1;76860;x;;;x;x
eclipse-3.1;100807;x;;x;x;x
eclipse-3.1;87632;x;;x;x;
eclipse-3.1;85402;x;;x;x;x
eclipse-3.1;94749;x;;x;x;
eclipse-3.1;106725;x;;x;x;x
eclipse-3.1;81199;x;x;x;;
eclipse-3.1;92801;x;;;x;
eclipse-3.1;96440;x;;x;x;x
eclipse-3.1;98686;x;;x;x;x
eclipse-3.1;83699;x;;;x;x
eclipse-3.1;78746;x;;;x;x
swt-3.1;81265;x;;x;x;
eclipse-3.1;94761;x;;;;
eclipse-3.1;81322;x;;;x;
eclipse-3.1;83711;x;;;x;
eclipse-3.1;106789;x;x;x;;
eclipse-3.1;85452;x;x;x;x;
eclipse-3.1;100808;x;;x;x;
eclipse-3.1;87665;x;;x;x;x
eclipse-3.1;96470;x;;x;x;
eclipse-3.1;76869;x;;x;x;
eclipse-3.1;130465;x;;x;x;
eclipse-3.1;89936;x;;x;;
eclipse-3.1;92902;x;;;;
eclipse-3.1;79091;x;x;x;x;x
eclipse-3.1;98692;x;;;x;
swt-3.1;81834;x;;x;x;
eclipse-3.1;94762;x;;;x;
eclipse-3.1;81333;x;;x;x;
eclipse-3.1;76969;x;x;x;x;
eclipse-3.1;79123;x;;x;x;
eclipse-3.1;107031;x;;;x;x
eclipse-3.1;85519;x;x;x;x;
eclipse-3.1;98740;x;x;x;x;x
eclipse-3.1;87676;x;x;;x;
eclipse-3.1;96489;x;x;x;x;x
eclipse-3.1;83992;x;;;x;
eclipse-3.1;89956;x;;;x;
eclipse-3.1;92963;x;x;x;x;
eclipse-3.1;100868;x;;x;x;
swt-3.1;82500;x;x;x;x;
eclipse-3.1;130700;x;;x;x;
eclipse-3.1;94769;x;;x;x;
swt-3.1;83262;x;x;x;x;
eclipse-3.1;81444;x;;;x;
eclipse-3.1;93069;x;;;x;x
eclipse-3.1;79148;x;;;x;
eclipse-3.1;87683;x;x;x;x;
eclipse-3.1;85582;x;;;x;
eclipse-3.1;77034;x;;;x;
eclipse-3.1;107391;x;;x;x;
eclipse-3.1;96527;x;;x;x;
eclipse-3.1;133072;x;;x;x;x
eclipse-3.1;98790;x;;;x;x
eclipse-3.1;84072;x;;;;
eclipse-3.1;101090;x;;x;x;
eclipse-3.1;90281;x;x;;x;
eclipse-3.1;94796;x;;;x;
swt-3.1;83699;x;;;x;x
eclipse-3.1;81449;x;;x;x;
eclipse-3.1;84141;x;x;x;x;
eclipse-3.1;79271;x;x;;x;
eclipse-3.1;85595;x;;;x;
eclipse-3.1;133292;x;;;x;x
eclipse-3.1;96604;x;;;x;x
eclipse-3.1;93119;x;x;x;x;x
eclipse-3.1;101328;x;;x;x;
eclipse-3.1;77036;x;;;x;
eclipse-3.1;87692;x;;;;x
eclipse-3.1;108162;x;;x;x;
swt-3.1;84557;x;;x;x;
eclipse-3.1;98906;x;;x;x;
eclipse-3.1;90283;x;;x;x;x
eclipse-3.1;94836;x;;x;x;
eclipse-3.1;84194;x;;x;x;x
eclipse-3.1;81717;x;;;x;
swt-3.1;84609;x;;x;x;x
eclipse-3.1;101434;x;x;x;x;
eclipse-3.1;93245;x;;x;x;
eclipse-3.1;99059;x;x;;x;
eclipse-3.1;108466;x;;x;x;x
eclipse-3.1;138404;x;x;;x;
eclipse-3.1;94852;x;x;x;x;
eclipse-3.1;85672;x;x;x;x;x
eclipse-3.1;77060;x;;x;x;
eclipse-3.1;79309;x;;;x;x
eclipse-3.1;87796;x;;;x;x
eclipse-3.1;90289;x;;x;x;x
eclipse-3.1;96766;x;;x;x;x
eclipse-3.1;81797;x;;x;x;
eclipse-3.1;84217;x;;x;x;
swt-3.1;86000;x;x;x;x;x
eclipse-3.1;94879;x;x;x;x;
eclipse-3.1;88224;x;;x;x;
eclipse-3.1;79318;x;;x;x;
eclipse-3.1;77184;x;;x;x;
eclipse-3.1;90415;x;;;x;
eclipse-3.1;101644;x;x;x;x;
eclipse-3.1;96820;x;;x;x;x
eclipse-3.1;84234;x;;;x;
eclipse-3.1;108473;x;;x;x;
eclipse-3.1;99235;x;x;x;x;
eclipse-3.1;85696;x;;x;x;
eclipse-3.1;81834;x;;x;x;
eclipse-3.1;93249;x;;x;x;x
eclipse-3.1;138803;x;;;x;
swt-3.1;86294;x;;;x;
eclipse-3.1;88243;x;;x;;
eclipse-3.1;79324;x;;;x;
eclipse-3.1;77234;x;;x;x;x
eclipse-3.1;94883;x;;;x;
eclipse-3.1;90549;x;x;x;;
eclipse-3.1;142881;x;x;x;x;
eclipse-3.1;84257;x;;x;x;
eclipse-3.1;101955;x;;;x;
eclipse-3.1;93449;x;;x;x;
eclipse-3.1;108705;x;x;x;x;
eclipse-3.1;82370;x;;;x;
eclipse-3.1;96859;x;;x;x;
eclipse-3.1;99266;x;;;x;
swt-3.1;87460;x;x;x;x;x
eclipse-3.1;85734;x;;x;x;x
eclipse-3.1;79334;x;;x;x;
eclipse-3.1;77238;x;x;;x;
eclipse-3.1;88295;x;x;;x;x
eclipse-3.1;94972;x;;x;x;
eclipse-3.1;90600;x;x;x;x;x
eclipse-3.1;93567;x;;;x;
eclipse-3.1;147399;x;;;x;
eclipse-3.1;82402;x;;;x;x
eclipse-3.1;97018;x;x;x;x;
eclipse-3.1;85774;x;;;x;
swt-3.1;87676;x;x;;x;
eclipse-3.1;84336;x;;x;x;
eclipse-3.1;99282;x;x;x;x;x
eclipse-3.1;102055;x;;x;;
eclipse-3.1;109104;x;;x;x;
eclipse-3.1;77239;x;;x;x;
eclipse-3.1;95044;x;;x;x;
eclipse-3.1;88328;x;;x;x;
eclipse-3.1;79433;x;;;x;
swt-3.1;87855;x;;x;x;
eclipse-3.1;90714;x;x;x;;
eclipse-3.1;93584;x;x;x;;
eclipse-3.1;99337;x;;;x;
eclipse-3.1;84354;x;;;x;
eclipse-3.1;85964;x;;;x;
eclipse-3.1;82486;x;;x;;
eclipse-3.1;102305;x;;;x;
eclipse-3.1;109254;x;;x;x;
eclipse-3.1;97085;x;x;x;x;
eclipse-3.1;148081;x;;x;x;
eclipse-3.1;79441;x;;x;;
eclipse-3.1;77249;x;x;;x;x
eclipse-3.1;88339;x;;;x;x
eclipse-3.1;95096;x;x;x;x;x
swt-3.1;87997;x;;x;x;x
eclipse-3.1;90759;x;;;x;
eclipse-3.1;85966;x;;x;x;
eclipse-3.1;149506;x;;x;x;
eclipse-3.1;93623;x;;x;x;
eclipse-3.1;102427;x;;x;x;x
eclipse-3.1;82553;x;;;x;
eclipse-3.1;109329;x;x;;x;
eclipse-3.1;99355;x;;x;x;x
eclipse-3.1;97190;x;;;x;x
eclipse-3.1;84546;x;x;x;x;
eclipse-3.1;88532;x;;;x;x
eclipse-3.1;90760;x;;;x;
swt-3.1;88717;x;x;x;x;
eclipse-3.1;79467;x;;;x;
eclipse-3.1;95152;x;;x;x;x
eclipse-3.1;77323;x;;;x;
eclipse-3.1;84557;x;;x;x;
eclipse-3.1;149604;x;x;x;x;
eclipse-3.1;82585;x;;;x;
eclipse-3.1;102473;x;;x;x;
eclipse-3.1;86000;x;x;x;x;x
eclipse-3.1;93658;x;;;x;
eclipse-3.1;99423;x;;;x;x
eclipse-3.1;110837;x;;x;x;x
eclipse-3.1;97199;x;;x;x;
eclipse-3.1;90782;x;;x;x;
eclipse-3.1;88737;x;;x;x;
eclipse-3.1;79544;x;;;x;x
swt-3.1;88829;x;x;x;x;x
eclipse-3.1;102485;x;;x;;
eclipse-3.1;152001;x;;x;;
eclipse-3.1;99526;x;;;x;
eclipse-3.1;97325;x;;;x;
eclipse-3.1;111171;x;;x;x;
eclipse-3.1;77398;x;;x;;
eclipse-3.1;84558;x;;;x;
eclipse-3.1;82617;x;;;x;
eclipse-3.1;95176;x;x;;x;
eclipse-3.1;93727;x;;x;x;x
eclipse-3.1;86174;x;;;x;
eclipse-3.1;90815;x;;;x;
eclipse-3.1;97338;x;;x;x;
eclipse-3.1;95307;x;;x;x;
eclipse-3.1;79545;x;;x;x;x
eclipse-3.1;93849;x;;;x;
eclipse-3.1;82712;x;;x;x;x
eclipse-3.1;102778;x;;x;x;x
eclipse-3.1;99629;x;;x;x;
eclipse-3.1;111259;x;;x;;
eclipse-3.1;84561;x;;x;x;
swt-3.1;90258;x;;x;x;x
eclipse-3.1;77421;x;;x;x;
eclipse-3.1;88925;x;;;x;
eclipse-3.1;156827;x;;x;x;
eclipse-3.1;86268;x;x;x;;
swt-3.1;91159;x;;;;
eclipse-3.1;90935;x;x;x;x;
eclipse-3.1;99631;x;x;x;x;x
eclipse-3.1;82895;x;;;x;
eclipse-3.1;97363;x;x;x;x;
eclipse-3.1;112137;x;;x;x;
eclipse-3.1;93854;x;;;x;x
eclipse-3.1;84573;x;;;x;
eclipse-3.1;157944;x;x;x;x;
eclipse-3.1;102911;x;;x;x;
eclipse-3.1;95352;x;;;x;x
eclipse-3.1;77555;x;;;x;
eclipse-3.1;88963;x;;x;x;
eclipse-3.1;79638;x;x;;x;
eclipse-3.1;86278;x;;;;
swt-3.1;93380;x;;x;x;
eclipse-3.1;91043;x;;x;x;
eclipse-3.1;97367;x;;;x;
eclipse-3.1;79690;x;;;x;x
eclipse-3.1;84617;x;;;x;
eclipse-3.1;103379;x;;x;x;x
eclipse-3.1;99693;x;;x;x;x
eclipse-3.1;95431;x;;x;x;
eclipse-3.1;77573;x;;x;x;x
eclipse-3.1;82908;x;;;x;
eclipse-3.1;164438;x;;x;x;
eclipse-3.1;89014;x;;;x;x
swt-3.1;93724;x;x;x;x;x
eclipse-3.1;113455;x;;x;x;x
eclipse-3.1;93949;x;;;;
eclipse-3.1;86329;x;;;x;
eclipse-3.1;91047;x;;;x;
eclipse-3.1;79754;x;x;x;x;
eclipse-3.1;95486;x;;x;x;
eclipse-3.1;247027;x;;;x;
eclipse-3.1;103553;x;;;;
eclipse-3.1;77703;x;x;;;
eclipse-3.1;99723;x;x;;x;
eclipse-3.1;97421;x;;x;x;
eclipse-3.1;83005;x;;;x;x
swt-3.1;94467;x;;x;x;
eclipse-3.1;84652;x;;x;x;
eclipse-3.1;89259;x;;x;x;
eclipse-3.1;86363;x;;;x;
eclipse-3.1;94007;x;x;;x;
eclipse-3.1;91098;x;;x;x;x
eclipse-3.1;113678;x;;;x;
swt-3.1;94598;x;x;x;x;
eclipse-3.1;79793;x;;x;x;
eclipse-3.1;77727;x;;;x;
eclipse-3.1;83205;x;;x;x;x
eclipse-3.1;97608;x;;x;x;
eclipse-3.1;247198;x;;x;x;
eclipse-3.1;95490;x;;x;x;
eclipse-3.1;84707;x;;;x;
eclipse-3.1;103918;x;;x;x;x
swt-3.1;100040;x;;x;x;
eclipse-3.1;89280;x;;;;
eclipse-3.1;94128;x;;;;
eclipse-3.1;91221;x;;x;x;
eclipse-3.1;86426;x;;;x;
swt-3.1;96053;x;x;x;x;
swt-3.1;100387;x;;;;x
eclipse-3.1;114565;x;x;x;x;
eclipse-3.1;300054;x;;x;x;x
eclipse-3.1;97655;x;;;x;x
eclipse-3.1;84724;x;;x;x;x
eclipse-3.1;79897;x;;;x;
eclipse-3.1;89308;x;;;x;
eclipse-3.1;77893;x;;x;x;
eclipse-3.1;83206;x;x;x;x;x
eclipse-3.1;104114;x;;x;x;
swt-3.1;96916;x;;;x;x
eclipse-3.1;95505;x;;x;x;x
eclipse-3.1;86482;x;;;x;
swt-3.1;102794;x;x;;x;x
eclipse-3.1;32553;x;x;x;x;
eclipse-3.1;115363;x;;x;x;x
eclipse-3.1;91310;x;;;;
eclipse-3.1;79949;x;;;x;
eclipse-3.1;97674;x;;x;x;x
eclipse-3.1;84770;x;;x;x;x
eclipse-3.1;94182;x;;x;x;
swt-3.1;97651;x;x;x;x;x
eclipse-3.1;95580;x;;x;x;
eclipse-3.1;86502;x;x;;x;
eclipse-3.1;89399;x;;x;x;
eclipse-3.1;77973;x;;;x;
eclipse-3.1;83216;x;;x;x;
eclipse-3.1;104657;x;;;x;
swt-3.1;104150;x;x;x;x;x
eclipse-3.1;91332;x;;;;
eclipse-3.1;116908;x;x;;;
eclipse-3.1;84787;x;;;x;
eclipse-3.1;94201;x;;x;x;x
eclipse-3.1;97722;x;x;;x;x
eclipse-3.1;63433;x;x;x;x;
eclipse-3.1;83250;x;;;x;
eclipse-3.1;79957;x;;x;x;x
swt-3.1;99145;x;x;x;x;
eclipse-3.1;86596;x;;x;x;
eclipse-3.1;95598;x;;x;;
eclipse-3.1;89472;x;;;x;
swt-3.1;104545;x;x;x;x;x
eclipse-3.1;78010;x;;;x;
eclipse-3.1;104854;x;;x;x;
eclipse-3.1;84825;x;;x;x;
eclipse-3.1;117890;x;;;x;x
eclipse-3.1;94216;x;;x;x;x
eclipse-3.1;97726;x;x;x;;
eclipse-3.1;91346;x;;x;x;x
eclipse-3.1;80058;x;x;x;x;
eclipse-3.1;86610;x;;;x;x
eclipse-3.1;70238;x;;;x;
swt-3.1;99376;x;;x;x;
eclipse-3.1;83251;x;;;x;
eclipse-3.1;104966;x;;x;x;
eclipse-3.1;95612;x;;x;x;
eclipse-3.1;78013;x;;;x;
eclipse-3.1;89533;x;;;;
swt-3.1;104966;x;;x;x;
eclipse-3.1;97741;x;;x;;
eclipse-3.1;94291;x;;;x;
eclipse-3.1;84834;x;;;x;
eclipse-3.1;118845;x;;x;x;
eclipse-3.1;91670;x;;;x;
eclipse-3.1;83317;x;;x;x;
eclipse-3.1;86614;x;;;x;x
swt-3.1;108813;x;;;x;
eclipse-3.1;75972;x;;;x;
eclipse-3.1;78064;x;;;x;
eclipse-3.1;97792;x;x;x;x;
eclipse-3.1;89601;x;;x;x;
eclipse-3.1;104987;x;;x;x;
eclipse-3.1;80287;x;;;x;
eclipse-3.1;95613;x;;;x;
eclipse-3.1;94366;x;;x;;
eclipse-3.1;91786;x;;x;;x
eclipse-3.1;84881;x;x;x;x;
eclipse-3.1;119617;x;;;x;
swt-3.1;115947;x;x;;;
eclipse-3.1;76208;x;;;x;x
eclipse-3.1;83321;x;;;x;x
eclipse-3.1;86725;x;;x;x;
eclipse-3.1;95679;x;;x;x;
eclipse-3.1;80384;x;;;x;x
eclipse-3.1;94390;x;;;x;
eclipse-3.1;78123;x;x;x;x;
eclipse-3.1;119814;x;;;x;
swt-3.1;117574;x;;x;x;x
eclipse-3.1;92013;x;x;x;;
eclipse-3.1;84906;x;;;x;
eclipse-3.1;104991;x;;x;x;
eclipse-3.1;89608;x;;x;x;
eclipse-3.1;97818;x;;x;x;
eclipse-3.1;86750;x;;x;x;
eclipse-3.1;83383;x;;x;x;x
eclipse-3.1;76217;x;;x;;
eclipse-3.1;78160;x;;x;x;x
eclipse-3.1;80387;x;;x;x;
eclipse-3.1;95710;x;;x;x;
eclipse-3.1;94391;x;;;x;
eclipse-3.1;105665;x;x;;x;
eclipse-3.1;92063;x;x;x;x;
eclipse-3.1;89620;x;;x;x;
swt-3.1;58185;x;;x;x;
eclipse-3.1;84944;x;;x;x;x
eclipse-3.1;120414;x;;x;;
eclipse-3.1;98115;x;;;x;
eclipse-3.1;86847;x;;;x;
eclipse-3.1;76472;x;;x;x;x
eclipse-3.1;83453;x;;;x;
eclipse-3.1;95731;x;;;x;x
eclipse-3.1;78201;x;;x;x;x
eclipse-3.1;94465;x;;x;x;x
eclipse-3.1;89621;x;x;x;x;x
eclipse-3.1;92148;x;;x;x;
eclipse-3.1;84959;x;;;;
eclipse-3.1;105807;x;;;x;
swt-3.1;77948;x;x;x;x;
eclipse-3.1;98147;x;;x;x;x
eclipse-3.1;86917;x;;x;x;
eclipse-3.1;122825;x;;;x;
eclipse-3.1;83489;x;;x;x;x
eclipse-3.1;76496;x;;x;x;
eclipse-3.1;80617;x;;x;;
eclipse-3.1;95795;x;;;x;
eclipse-3.1;78245;x;;x;x;x
eclipse-3.1;94466;x;;;x;
swt-3.1;78548;x;;x;;
eclipse-3.1;105874;x;;;x;
eclipse-3.1;92181;x;;x;x;
eclipse-3.1;89632;x;;x;x;x
eclipse-3.1;85275;x;x;x;;
eclipse-3.1;87039;x;;;;
eclipse-3.1;83507;x;;;x;
eclipse-3.1;98169;x;;x;x;
eclipse-3.1;80672;x;x;x;x;x
eclipse-3.1;125416;x;;;x;
eclipse-3.1;76529;x;;x;;
swt-3.1;78559;x;;x;;
eclipse-3.1;95902;x;;x;x;
eclipse-3.1;78275;x;;;x;x
eclipse-3.1;94516;x;x;;x;
eclipse-3.1;92236;x;;x;x;x
eclipse-3.1;89636;x;;;x;
eclipse-3.1;85277;x;x;x;x;
eclipse-3.1;105936;x;;x;x;
eclipse-3.1;76534;x;;x;x;x
eclipse-3.1;98202;x;;;x;x
eclipse-3.1;87171;x;;x;x;x
eclipse-3.1;125994;x;;;x;
eclipse-3.1;94535;x;;x;;
eclipse-3.1;85291;x;;;x;
eclipse-3.1;89651;x;;;x;
eclipse-3.1;78315;x;x;x;x;x
eclipse-3.1;92291;x;;;x;x
eclipse-3.1;95907;x;;;x;
eclipse-3.1;106157;x;;;x;
eclipse-3.1;98249;x;;;x;
eclipse-3.1;76677;x;;x;x;x
eclipse-3.1;92366;x;;;x;
eclipse-3.1;126392;x;;x;x;
eclipse-3.1;94537;x;x;;x;
eclipse-3.1;87198;x;x;;x;
eclipse-3.1;89682;x;;x;x;
eclipse-3.1;95945;x;;x;x;
eclipse-3.1;126465;x;;x;x;
