system;bugId;has_ob;has_eb;has_sr;has_other;has_code
eclipse-3.1;126938;x;x;x;x;
eclipse-3.1;106454;x;x;x;x;
eclipse-3.1;83541;x;x;x;x;
eclipse-3.1;89814;x;x;x;x;
eclipse-3.1;98740;x;x;x;x;x
swt-3.1;81264;x;x;x;x;x
eclipse-3.1;85397;x;x;x;x;x
eclipse-3.1;76969;x;x;x;x;
eclipse-3.1;100799;x;x;x;x;
eclipse-3.1;93119;x;x;x;x;x
eclipse-3.1;96489;x;x;x;x;x
eclipse-3.1;87683;x;x;x;x;
eclipse-3.1;129834;x;x;x;x;
eclipse-3.1;94852;x;x;x;x;
eclipse-3.1;99235;x;x;x;x;
eclipse-3.1;106789;x;x;x;;
swt-3.1;83262;x;x;x;x;
eclipse-3.1;94879;x;x;x;x;
eclipse-3.1;85452;x;x;x;x;
eclipse-3.1;101434;x;x;x;x;
eclipse-3.1;142881;x;x;x;x;
eclipse-3.1;97018;x;x;x;x;
eclipse-3.1;84546;x;x;x;x;
eclipse-3.1;90600;x;x;x;x;x
eclipse-3.1;99282;x;x;x;x;x
swt-3.1;86000;x;x;x;x;x
eclipse-3.1;93584;x;x;x;;
eclipse-3.1;80058;x;x;x;x;
eclipse-3.1;77703;x;x;;;
eclipse-3.1;97085;x;x;x;x;
eclipse-3.1;95096;x;x;x;x;x
eclipse-3.1;101644;x;x;x;x;
eclipse-3.1;85519;x;x;x;x;
eclipse-3.1;149604;x;x;x;x;
eclipse-3.1;89621;x;x;x;x;x
eclipse-3.1;90714;x;x;x;;
swt-3.1;87460;x;x;x;x;x
eclipse-3.1;108705;x;x;x;x;
eclipse-3.1;99631;x;x;x;x;x
eclipse-3.1;80672;x;x;x;x;x
eclipse-3.1;85672;x;x;x;x;x
eclipse-3.1;90935;x;x;x;x;
swt-3.1;88717;x;x;x;x;
eclipse-3.1;97363;x;x;x;x;
eclipse-3.1;157944;x;x;x;x;
eclipse-3.1;84881;x;x;x;x;
eclipse-3.1;78315;x;x;x;x;x
swt-3.1;88829;x;x;x;x;x
swt-3.1;104150;x;x;x;x;x
eclipse-3.1;114565;x;x;x;x;
eclipse-3.1;86000;x;x;x;x;x
eclipse-3.1;85277;x;x;x;x;
eclipse-3.1;97722;x;x;;x;x
swt-3.1;104545;x;x;x;x;x
eclipse-3.1;32553;x;x;x;x;
swt-3.1;93724;x;x;x;x;x
eclipse-3.1;92063;x;x;x;x;
eclipse-3.1;86268;x;x;x;;
eclipse-3.1;63433;x;x;x;x;
eclipse-3.1;97726;x;x;x;;
swt-3.1;94598;x;x;x;x;
swt-3.1;77948;x;x;x;x;
eclipse-3.1;97792;x;x;x;x;
swt-3.1;97651;x;x;x;x;x
