system;bugId;has_ob;has_eb;has_sr;has_other;has_code
eclipse-3.1;100137;x;;x;x;x
swt-3.1;78634;x;x;;x;x
eclipse-3.1;83536;x;;x;x;x
eclipse-3.1;94540;x;;;x;x
eclipse-3.1;92451;x;;x;x;x
eclipse-3.1;85344;x;;x;x;x
swt-3.1;78854;x;x;;;x
eclipse-3.1;76860;x;;;x;x
eclipse-3.1;78647;x;;;x;x
eclipse-3.1;80904;x;;;x;x
eclipse-3.1;87211;x;x;x;x;x
eclipse-3.1;106492;x;;x;x;x
eclipse-3.1;96440;x;;x;x;x
eclipse-3.1;133072;x;;x;x;x
eclipse-3.1;98621;x;;x;x;x
eclipse-3.1;100807;x;;x;x;x
eclipse-3.1;90283;x;;x;x;x
eclipse-3.1;83699;x;;;x;x
eclipse-3.1;106725;x;;x;x;x
eclipse-3.1;85397;x;x;x;x;x
eclipse-3.1;81045;x;;x;x;x
eclipse-3.1;133292;x;;;x;x
eclipse-3.1;78740;x;;x;x;x
eclipse-3.1;90289;x;;x;x;x
eclipse-3.1;98686;x;;x;x;x
eclipse-3.1;96489;x;x;x;x;x
swt-3.1;81242;;;;x;x
eclipse-3.1;92602;x;;;x;x
eclipse-3.1;87569;x;;x;x;x
eclipse-3.1;77234;x;;x;x;x
eclipse-3.1;85402;x;;x;x;x
eclipse-3.1;95096;x;x;x;x;x
eclipse-3.1;81242;;;;x;x
swt-3.1;81264;x;x;x;x;x
eclipse-3.1;84194;x;;x;x;x
eclipse-3.1;107031;x;;;x;x
eclipse-3.1;102427;x;;x;x;x
eclipse-3.1;96604;x;;;x;x
eclipse-3.1;78746;x;;;x;x
eclipse-3.1;77249;x;x;;x;x
eclipse-3.1;93030;;;x;x;x
eclipse-3.1;90600;x;x;x;x;x
eclipse-3.1;98740;x;x;x;x;x
swt-3.1;83699;x;;;x;x
eclipse-3.1;95152;x;;x;x;x
eclipse-3.1;108466;x;;x;x;x
eclipse-3.1;79091;x;x;x;x;x
eclipse-3.1;96765;;;;x;x
eclipse-3.1;93069;x;;;x;x
eclipse-3.1;85672;x;x;x;x;x
eclipse-3.1;87665;x;;x;x;x
eclipse-3.1;81428;;;;x;x
eclipse-3.1;300054;x;;x;x;x
swt-3.1;84609;x;;x;x;x
eclipse-3.1;102778;x;;x;x;x
eclipse-3.1;98790;x;;;x;x
eclipse-3.1;85734;x;;x;x;x
eclipse-3.1;77573;x;;x;x;x
eclipse-3.1;93119;x;x;x;x;x
swt-3.1;86000;x;x;x;x;x
eclipse-3.1;84724;x;;x;x;x
eclipse-3.1;96766;x;;x;x;x
eclipse-3.1;79309;x;;;x;x
eclipse-3.1;76208;x;;;x;x
eclipse-3.1;95352;x;;;x;x
eclipse-3.1;110837;x;;x;x;x
eclipse-3.1;87692;x;;;;x
eclipse-3.1;103379;x;;x;x;x
eclipse-3.1;93249;x;;x;x;x
eclipse-3.1;91098;x;;x;x;x
eclipse-3.1;84770;x;;x;x;x
eclipse-3.1;82402;x;;;x;x
eclipse-3.1;96820;x;;x;x;x
eclipse-3.1;86000;x;x;x;x;x
eclipse-3.1;99282;x;x;x;x;x
eclipse-3.1;76472;x;;x;x;x
eclipse-3.1;87796;x;;;x;x
swt-3.1;86631;;;;x;x
eclipse-3.1;79544;x;;;x;x
eclipse-3.1;95505;x;;x;x;x
eclipse-3.1;103918;x;;x;x;x
eclipse-3.1;113455;x;;x;x;x
eclipse-3.1;97190;x;;;x;x
eclipse-3.1;91346;x;;x;x;x
eclipse-3.1;99355;x;;x;x;x
eclipse-3.1;88295;x;x;;x;x
eclipse-3.1;78160;x;;x;x;x
swt-3.1;87363;;;x;x;x
eclipse-3.1;76534;x;;x;x;x
eclipse-3.1;84944;x;;x;x;x
eclipse-3.1;82712;x;;x;x;x
eclipse-3.1;79545;x;;x;x;x
eclipse-3.1;93727;x;;x;x;x
eclipse-3.1;86610;x;;;x;x
swt-3.1;87460;x;x;x;x;x
eclipse-3.1;115363;x;;x;x;x
eclipse-3.1;95731;x;;;x;x
eclipse-3.1;86614;x;;;x;x
eclipse-3.1;93854;x;;;x;x
eclipse-3.1;78201;x;;x;x;x
eclipse-3.1;76677;x;;x;x;x
eclipse-3.1;91786;x;;x;;x
eclipse-3.1;117890;x;;;x;x
eclipse-3.1;88339;x;;;x;x
eclipse-3.1;104202;;x;;x;x
eclipse-3.1;99423;x;;;x;x
eclipse-3.1;79690;x;;;x;x
swt-3.1;87997;x;;x;x;x
eclipse-3.1;83005;x;;;x;x
eclipse-3.1;78245;x;;x;x;x
eclipse-3.1;94201;x;;x;x;x
swt-3.1;88829;x;x;x;x;x
eclipse-3.1;88532;x;;;x;x
eclipse-3.1;92236;x;;x;x;x
eclipse-3.1;79957;x;;x;x;x
eclipse-3.1;97655;x;;;x;x
eclipse-3.1;99631;x;x;x;x;x
eclipse-3.1;87171;x;;x;x;x
eclipse-3.1;83205;x;;x;x;x
swt-3.1;90258;x;;x;x;x
eclipse-3.1;99693;x;;x;x;x
eclipse-3.1;92291;x;;;x;x
eclipse-3.1;94216;x;;x;x;x
eclipse-3.1;78275;x;;;x;x
eclipse-3.1;97674;x;;x;x;x
eclipse-3.1;80384;x;;;x;x
eclipse-3.1;83206;x;x;x;x;x
eclipse-3.1;89014;x;;;x;x
swt-3.1;93724;x;x;x;x;x
eclipse-3.1;97722;x;x;;x;x
eclipse-3.1;78315;x;x;x;x;x
swt-3.1;100387;x;;;;x
eclipse-3.1;94465;x;;x;x;x
swt-3.1;96916;x;;;x;x
eclipse-3.1;80672;x;x;x;x;x
swt-3.1;102794;x;x;;x;x
eclipse-3.1;83321;x;;;x;x
eclipse-3.1;98147;x;;x;x;x
swt-3.1;97651;x;x;x;x;x
swt-3.1;104150;x;x;x;x;x
eclipse-3.1;89621;x;x;x;x;x
eclipse-3.1;83383;x;;x;x;x
eclipse-3.1;98202;x;;;x;x
swt-3.1;104545;x;x;x;x;x
eclipse-3.1;89632;x;;x;x;x
eclipse-3.1;83489;x;;x;x;x
swt-3.1;117574;x;;x;x;x
