{"codeSnippets": [], "creation_date": "2012-10-01T11:52:40.000-05:00", "description": "look statefulretryoperationsinterceptorfactorybean state retri oper interceptor factori bean notic setter messagekeygener messag key gener properti misspel setmessagekeygeneretor set messag key generetor messagekeygener messag key gener messagekeygeneretor messag key generetor", "fixed_files": ["org.springframework.amqp.rabbit.config.StatefulRetryOperationsInterceptorFactoryBean"], "key": "AMQP-272", "original_text": "Misspelled accessor for messageKeyGenerator in StatefulRetryOperationsInterceptorFactoryBean In looking at the StatefulRetryOperationsInterceptorFactoryBean from 1.1.2 I noticed that the setter for the MessageKeyGenerator property is misspelled:\n\n\n\n\n\n\npublic void setMessageKeyGeneretor(MessageKeyGenerator messageKeyGeneretor) { ... }\n\n\n\n\n\n", "resolution_date": "2012-10-30T08:32:05.000-05:00", "stackTraces": [], "title": "misspel accessor messagekeygener messag key gener statefulretryoperationsinterceptorfactorybean state retri oper interceptor factori bean"}
{"codeSnippets": [], "creation_date": "2012-10-30T06:18:40.000-05:00", "description": "race condit messag reject requeu contain stop consum cancel messag redeliv block queue cancel cancel consum drain queue reject requeu", "fixed_files": ["org.springframework.amqp.rabbit.connection.RabbitUtils", "org.springframework.amqp.rabbit.listener.BlockingQueueConsumer", "org.springframework.amqp.rabbit.connection.CachingConnectionFactory"], "key": "AMQP-275", "original_text": "Race Condition When Stopping Listener Container Race condition where messages can be rejected/requeued during container stop before the consumer was canceled. The message can be redelivered to the blocking queue before the cancel.\n1. Cancel the consumer first\n2. Drain the queue with reject/requeue", "resolution_date": "2012-11-05T13:56:33.000-06:00", "stackTraces": [], "title": "race condit stop listen contain"}
{"codeSnippets": [], "creation_date": "2012-10-25T13:00:10.000-05:00", "description": "local transact extern manag exposelistenerchannel expos listen channel resourc synchronizedwithtransact transact properti set caus downstream rabbittempl rabbit templat close channel", "fixed_files": ["org.springframework.amqp.rabbit.connection.RabbitResourceHolder", "org.springframework.amqp.rabbit.listener.LocallyTransactedTests", "org.springframework.amqp.rabbit.connection.ConnectionFactoryUtils", "org.springframework.amqp.rabbit.listener.AbstractMessageListenerContainer", "org.springframework.amqp.rabbit.listener.ExternalTxManagerTests"], "key": "AMQP-274", "original_text": "Listener Container Local Transactions Not Properly Set Up When using local transactions (no external tx manager) and exposeListenerChannel is true (default), the synchronized resource does not have the synchronizedWithTransaction property set to true.\nThis causes a downstream RabbitTemplate to close() the channel.\n", "resolution_date": "2012-11-06T06:56:01.000-06:00", "stackTraces": [], "title": "listen contain local transact properli set"}
{"codeSnippets": [], "creation_date": "2012-08-30T05:28:24.000-05:00", "description": "code copi properti mdc suppresswarn suppress warn rawtyp map prop event getproperti properti object key event getproperti properti entryset entri set amqpprop amqp prop sethead set header key tostr string prop key copi properti mdc suppresswarn suppress warn rawtyp map prop event getproperti properti object key event getproperti properti keyset key set amqpprop amqp prop sethead set header key tostr string prop key", "fixed_files": ["org.springframework.amqp.rabbit.log4j.TestListener", "org.springframework.amqp.rabbit.log4j.AmqpAppender", "org.springframework.amqp.rabbit.log4j.AmqpAppenderIntegrationTests"], "key": "AMQP-268", "original_text": "MDC properties are not correctly handled in AmqpAppender the code :\n// Copy properties in from MDC\n\t\t\t\t\t@SuppressWarnings(\"rawtypes\")\n\t\t\t\t\tMap props = event.getProperties();\n\t\t\t\t\tfor (Object key : event.getProperties().entrySet()) \n{\n\t\t\t\t\t\tamqpProps.setHeader(key.toString(), props.get(key));\n\t\t\t\t\t}\n\n\nshould be:\n\n// Copy properties in from MDC\n\t\t\t\t\t@SuppressWarnings(\"rawtypes\")\n\t\t\t\t\tMap props = event.getProperties();\n\t\t\t\t\tfor (Object key : event.getProperties().keySet()) {\t\t\t\t\t\tamqpProps.setHeader(key.toString(), props.get(key));\t\t\t\t\t}", "resolution_date": "2013-02-27T10:02:36.000-06:00", "stackTraces": [], "title": "mdc properti correctli handl amqpappend amqp append"}
{"codeSnippets": [], "creation_date": "2013-01-04T02:26:52.000-06:00", "description": "queue rabbit queue name queue name routag lot recept durabl queue argument defaultqueueargu queue argument rabbit queue name queue name routag lot mail notif durabl queue argument defaultqueueargu queue argument rabbit queue name queue name routag lot mobil notif durabl queue argument defaultqueueargu queue argument util map defaultqueueargumentsmap queue argument map entri key dead letter exchang valu exchang name dead letter util map rabbit queue argument defaultqueueargu queue argument ref defaultqueueargumentsmap queue argument map work queue creat dead letter googl search found http forum springsourc org showthread php dead letter rabbit queue argument defaultqueueargu queue argument entri key dead letter exchang valu exchang name dead letter rabbit queue argument work fine intellij complain element entri allow think way work xsd document say ref bean name map pass broker compon declar", "fixed_files": ["org.springframework.amqp.rabbit.config.AbstractExchangeParser", "org.springframework.amqp.rabbit.config.ExchangeParserTests", "org.springframework.amqp.rabbit.config.QueueParserTests", "org.springframework.amqp.rabbit.config.QueueParser"], "key": "AMQP-290", "original_text": "Rabbit namespace little bug, when using reference to queueArgumentsMap I am using some queues like that:\n\n\n\n\n\n\n  <rabbit:queue name=\"${queue.name.routage.lot.reception}\" durable=\"true\" queue-arguments=\"defaultQueueArguments\"/>\n\n\n\n\n  <rabbit:queue name=\"${queue.name.routage.lot.mail.notification}\" durable=\"true\" queue-arguments=\"defaultQueueArguments\"/>\n\n\n\n\n  <rabbit:queue name=\"${queue.name.routage.lot.mobile.notification}\" durable=\"true\" queue-arguments=\"defaultQueueArguments\"/>\n\n\n\n\n\n\nI wanted to use:\n\n\n\n\n\n\n  <util:map id=\"defaultQueueArgumentsMap\">\n\n\n\n\n    <entry key=\"x-dead-letter-exchange\" value=\"${exchange.name.dead.letters}\"/>\n\n\n\n\n  </util:map>\n\n\n\n\n  <rabbit:queue-arguments id=\"defaultQueueArguments\" ref=\"defaultQueueArgumentsMap\"/>\n\n\n\n\n\n\nBut this doesn't work: my queues are not created with the dead letter.\nWith a little google search I found:\nhttp://forum.springsource.org/showthread.php?125014-Dead-Lettering\nAnd when using:\n\n\n\n\n\n\n  <rabbit:queue-arguments id=\"defaultQueueArguments\">\n\n\n\n\n    <entry key=\"x-dead-letter-exchange\" value=\"${exchange.name.dead.letters}\" />\n\n\n\n\n  </rabbit:queue-arguments>\n\n\n\n\n\n\nIt works fine (but my Intellij complains: element entry not allowed here)\nI think both way should work.\nXSD documentation says: ref = The bean name of the Map to pass to the broker when this component is declared.\n", "resolution_date": "2013-09-25T12:11:46.000-05:00", "stackTraces": [], "title": "rabbit namespac bug refer queueargumentsmap queue argument map"}
