{"key":"DERBY-5251","title":"make ErrorCodeTest pass in non-English locale","description":""}
{"key":"DERBY-5252","title":"make GrantRevokeTest pass in non-English locale","description":""}
{"key":"DERBY-6133","title":"","description":"instead of"}
{"key":"DERBY-6150","title":"","description":"It would be good to clean up all the connections in tearDown()\n."}
{"key":"DERBY-3024","title":"","description":"To investigate whether there was anything in the SQL execution layer that prevented scaling on a multi-CPU machine, I wrote a multi-threaded test which continuously executed \"VALUES 1\" using a PreparedStatement. I ran the test on a machine with 8 CPUs and expected the throughput to be proportional to the number of concurrent clients up to 8 clients (the same as the number of CPUs). However, the throughput only had a small increase from 1 to 2 clients, and adding more clients did not increase the throughput. Looking at the test in a profiler, it seems like the threads are spending a lot of time waiting to enter synchronization blocks in GenericPreparedStatement.upToDate() and BaseActivation.checkStatementValidity() (both of which are synchronized on the a GenericPreparedStatement object).    We should try to find a way to make the scalability the same regardless of whether or not the threads share the same plan."}
{"key":"DERBY-5851","title":"","description":"So this should actually run the test with LogicalPreparedStatement40 statements.   Actually those method calls should go to PreparedStatement40 through LogicalPreparedStatement40."}
{"key":"DERBY-5014","title":"Tests should restore the timeout values to default after they are done running.","description":""}
{"key":"DERBY-5911","title":"","description":"The row (French_Roast,5) should not be there since it is not a result of the first query."}
{"key":"DERBY-6053","title":"Client should use a prepared statement rather than regular statement for Connection.setTransactionIsolation","description":"It would be better for performance and also for avoid possible garbage collection issues, to have a single prepared statement with a parameter marker."}
