{"key":"OPENJPA-2163","title":"","description":"The expected behavior is only the listener registered in the em from which the life cycle events are related should be called."}
{"key":"OPENJPA-2197","title":"MethodComparator in AnnotationPersistenceMetaDataParser should also compare parameters","description":""}
{"key":"OPENJPA-2255","title":"","description":"and it\u0027s length  should be assigned to the default value 255.       The JoinColumn should be set to the default value 255."}
