{"key":"OPENJPA-2007","title":"","description":"It should be adding openjpa.FetchPlan.Isolation instead."}
{"key":"OPENJPA-1752","title":"","description":"There is also inconsistency in reporting exceptions - lock timout or query timeout should be non-fatal; but with Derby the PessimisticLockException is reported  which is considered fatal."}
{"key":"OPENJPA-1918","title":"","description":"However, the code in MetaDataRepository.preload() only uses the context class loader and not the class loader from PersistenceUnitInfo, which leades to ClassNotFoundExpcetions like mentioned at the end of this report."}
{"key":"OPENJPA-1928","title":"","description":"Expected results:\nvalueOf(String) should always be selected."}
{"key":"OPENJPA-1975","title":"Only obtain default schema name when needed (DB2)","description":"The SQL can be delayed until the default schema name is needed, reducing some load on the DB."}
