{"id":1440,"bug_id":"WFCORE-229","text":"server-config operations \"leaks\" to server\u0027s resources. Start a regular domain Any operations on server children with the same names that server-config operations (:start, :stop, :restart, :kill) are executed instead of being rejected because the actual resources at the operation address does not define them. Examples:","file_goldset":["org.jboss.as.controller.registry.ProxyControllerRegistration","org.jboss.as.controller.registry.DelegatingImmutableManagementResourceRegistration","org.jboss.as.subsystem.test.SubsystemTestDelegate","org.jboss.as.controller.registry.NodeSubregistry","org.jboss.as.controller.registry.ImmutableManagementResourceRegistration","org.jboss.as.controller.registry.ConcreteResourceRegistration","org.jboss.as.controller.registry.AbstractResourceRegistration","org.jboss.as.controller.registry.DelegatingManagementResourceRegistration","org.jboss.as.domain.controller.operations.AbstractOperationTestCase","org.jboss.as.controller.extension.ExtensionRegistry","org.jboss.as.controller.registry.AliasResourceRegistration"],"creation_date":"2014-11-07T15:20:11.000-06:00","resolution_date":"2014-12-16T15:37:45.000-06:00"}
{"id":1441,"bug_id":"WFCORE-604","text":" After failed to deploy, remain deployment information in JBOSS_HOME/{standalone|domaine}/data/content directory. 1. Fail to deploy application via jboss-cli 2. Find deployment info in JBOSS_HOME/{standalone|domaine}/data/content, but there are no standalone.xml in \u003cdeployments\u003e tag. 3. Fix deployment and success to deploy. 4. Find \"new\" deployment info in JBOSS_HOME/{standalone|domaine}/data/content, and the old deployment info will be still there.       - The deployment information which created when deploy was failed should be removed if the deploy is failed.","file_goldset":["org.jboss.as.domain.controller.operations.deployment.DeploymentAddHandler","org.jboss.as.host.controller.mgmt.ServerToHostProtocolHandler","org.jboss.as.domain.controller.operations.ApplyRemoteMasterDomainModelHandler","org.jboss.as.host.controller.model.host.HostResourceDefinition","org.jboss.as.repository.LocalDeploymentFileRepository","org.jboss.as.domain.controller.operations.deployment.DeploymentFullReplaceHandler","org.jboss.as.host.controller.DomainModelControllerService","org.jboss.as.domain.controller.operations.deployment.DeploymentRemoveHandler","org.jboss.as.server.deploymentoverlay.DeploymentOverlayContentAdd","org.jboss.as.domain.controller.operations.deployment.ServerGroupDeploymentReplaceHandler","org.jboss.as.host.controller.RemoteDomainConnectionService","org.jboss.as.server.logging.ServerLogger","org.jboss.as.core.model.test.TestModelControllerService","org.jboss.as.server.deployment.DeploymentFullReplaceHandler","org.jboss.as.server.deployment.DeploymentAddHandlerTestCase","org.jboss.as.repository.logging.DeploymentRepositoryLogger","org.jboss.as.management.client.content.ManagedDMRContentTypeResource","org.jboss.as.core.model.test.LegacyKernelServicesImpl","org.jboss.as.domain.controller.operations.deployment.ServerGroupDeploymentAddHandler","org.jboss.as.subsystem.test.TestModelControllerService","org.jboss.as.server.controller.resources.ServerRootResourceDefinition","org.jboss.as.server.deploymentoverlay.DeploymentOverlayContentDefinition","org.jboss.as.repository.DeploymentFileRepository","org.jboss.as.server.test.InterfaceManagementUnitTestCase","org.jboss.as.host.controller.mgmt.MasterDomainControllerOperationHandlerImpl","org.jboss.as.host.controller.HostControllerService","org.jboss.as.domain.controller.operations.deployment.ServerGroupDeploymentRemoveHandler","org.jboss.as.management.client.content.ManagedDMRContentTypeAddHandler","org.jboss.as.repository.LocalFileRepository","org.jboss.as.server.ApplicationServerService","org.jboss.as.test.shared.ModelParserUtils","org.jboss.as.host.controller.ManagedServerOperationsFactory","org.jboss.as.domain.controller.resources.DomainRootDefinition","org.jboss.as.server.deployment.DeploymentRemoveHandler","org.jboss.as.domain.controller.resources.ServerGroupResourceDefinition","org.jboss.as.repository.ContentRepository","org.jboss.as.domain.controller.resources.DomainDeploymentResourceDefinition","org.jboss.as.server.mgmt.domain.RemoteFileRepositoryService","org.jboss.as.server.deployment.DeploymentReplaceHandler","org.jboss.as.server.deployment.DeploymentAddHandler"],"creation_date":"2015-03-18T09:19:35.000-05:00","resolution_date":"2015-03-25T18:39:26.000-05:00"}
{"id":1442,"bug_id":"WFCORE-763","text":"Persisting an empty list [] gets read as a list with empty string [\"\"] resulting in IllegalArgumentException. e.g. if I persist an empty list to xml, and read it back again, using the default parser/marshaller, I should get back an empty list.","file_goldset":["org.jboss.as.controller.AttributeParser","org.jboss.as.controller.SimpleListAttributeDefinitionUnitTestCase"],"creation_date":"2015-06-16T14:59:39.000-05:00","resolution_date":"2015-06-18T20:36:00.000-05:00"}
{"id":1443,"bug_id":"WFCORE-626","text":"Global list-get operation can inadvertently create list elements. Consider the following sequence of operations:      The expected result of #4 is \"test\".","file_goldset":["org.jboss.as.controller.operations.global.MapOperations","org.jboss.as.controller.operations.global.ListOperations"],"creation_date":"2015-04-06T15:53:19.000-05:00","resolution_date":"2015-04-15T13:17:29.000-05:00"}
{"id":1444,"bug_id":"WFCORE-754","text":"EAP fails to start with -bmanagement\u003d option and with specific IP settings. EAP fails to start with -bmanagement\u003d option. IPv4 address is used in this option.          Example on dev98 machine:                                          No errors","file_goldset":["org.jboss.as.host.controller.ServerInventoryService"],"creation_date":"2015-06-02T11:17:26.000-05:00","resolution_date":"2015-06-18T20:37:41.000-05:00"}
