{"id":200,"bug_id":"LUCENE-4182","text":"DocumentsWriterFlushControl.assertMemory tripped by NGramTokenizerTest.testRandomStrings. {noformat}\n\n {0,5}  {0,5} {0,5} {1,5} {0, \u0026 qgbiwn  \u003c vyge acmvidw xbwgrppk \\uf612p\\u05f5^\\u048f\\u056d \\ud6436\\u9cde0\\u274e\\u0592 tamcca \\ufd7b\\ufbf9\\ufb88\\ufbae tusifiwj \\u000f\\u0600\\uef93} {0,5}  @AfterClass {dummy\u003dDFR I(n)3(800.0)} {noformat}","class_goldset":["org.apache.lucene.index.DocumentsWriterFlushControl"],"file_goldset":["org.apache.lucene.index.DocumentsWriterFlushControl"],"creation_date":"2012-06-29T11:45:34.000+0000","resolution_date":"2012-10-18T18:08:47.000+0000"}
{"id":202,"bug_id":"LUCENE-4461","text":"Multiple FacetRequest with the same path creates inconsistent results. Multiple FacetRequest are getting merged into one creating wrong results in this case:    FacetSearchParams facetSearchParams \u003d new FacetSearchParams();\n\t\tfacetSearchParams.addFacetRequest(new CountFacetRequest(new CategoryPath(\"author\"), 10));\n\t\tfacetSearchParams.addFacetRequest(new CountFacetRequest(new CategoryPath(\"author\"), 10));","class_goldset":["org.apache.lucene.facet.search.StandardFacetsAccumulator"],"file_goldset":["org.apache.lucene.facet.search.StandardFacetsAccumulator"],"creation_date":"2012-10-05T15:21:38.000+0000","resolution_date":"2012-12-16T19:15:55.000+0000"}
{"id":204,"bug_id":"LUCENE-4532","text":"The following failure on Jenkins:                                                                                                                                    {noformat}\n {} {noformat}","class_goldset":["org.apache.lucene.facet.taxonomy.directory.DirectoryTaxonomyReader","org.apache.lucene.facet.taxonomy.directory.DirectoryTaxonomyReader.ChildrenArraysImpl","org.apache.lucene.facet.taxonomy.directory.DirectoryTaxonomyWriter","org.apache.lucene.facet.taxonomy.directory.TestDirectoryTaxonomyWriter"],"file_goldset":["org.apache.lucene.facet.taxonomy.directory.DirectoryTaxonomyReader","org.apache.lucene.facet.taxonomy.directory.DirectoryTaxonomyReader.ChildrenArraysImpl","org.apache.lucene.facet.taxonomy.directory.DirectoryTaxonomyWriter","org.apache.lucene.facet.taxonomy.directory.TestDirectoryTaxonomyWriter"],"creation_date":"2012-11-04T08:51:37.000+0000","resolution_date":"2012-11-07T11:33:25.000+0000"}
{"id":205,"bug_id":"LUCENE-4561","text":"DWPT assert tripped again. TestBagOfPositions tripped the spooky DWPT ram used on flush assert in http://jenkins.sd-datasolutions.de/job/Lucene-Solr-4.x-Linux/2472/   Full failure:                                          {noformat}\n {noformat}\n\n {noformat}\n {field\u003dDFR I(ne)1} {noformat}","class_goldset":["org.apache.lucene.index.DocumentsWriterFlushControl"],"file_goldset":["org.apache.lucene.index.DocumentsWriterFlushControl"],"creation_date":"2012-11-15T16:06:09.000+0000","resolution_date":"2012-11-16T13:09:14.000+0000"}
{"id":206,"bug_id":"LUCENE-4567","text":"WFSTCompletionLookup.lookup() NPE when empty fst. the fst Builder.finish() returns null when nothing is accepted, this then results in NPE in lookup(), see patch for extra nullchecks Builder.finish()  lookup()","class_goldset":["org.apache.lucene.search.suggest.fst.WFSTCompletionTest"],"file_goldset":["org.apache.lucene.search.suggest.fst.WFSTCompletionTest"],"creation_date":"2012-11-20T17:11:17.000+0000","resolution_date":"2012-11-20T19:02:12.000+0000"}
{"id":207,"bug_id":"LUCENE-4568","text":"Integer overflow in PagedBytes.PagedBytesData{In,Out}put.getPosition. PagedBytes.PagedBytesData{In,Out}put.getPosition overflow when there are more than Integer.MAX_VALUE bytes. {In,Out}","class_goldset":["org.apache.lucene.util.PagedBytes","org.apache.lucene.util.PagedBytes.PagedBytesDataInput","org.apache.lucene.util.PagedBytes.PagedBytesDataOutput","org.apache.lucene.util.TestPagedBytes"],"file_goldset":["org.apache.lucene.util.PagedBytes","org.apache.lucene.util.PagedBytes.PagedBytesDataInput","org.apache.lucene.util.PagedBytes.PagedBytesDataOutput","org.apache.lucene.util.TestPagedBytes"],"creation_date":"2012-11-21T10:40:57.000+0000","resolution_date":"2012-11-21T14:13:03.000+0000"}
