{"id":1357,"bug_id":"AMQP-290","text":"Rabbit namespace little bug, when using reference to queueArgumentsMap. I am using some queues like that:    I wanted to use:        And when using:     I think both way should work. XSD documentation says: ref \u003d The bean name of the Map to pass to the broker when this component is declared.","file_goldset":["org.springframework.amqp.rabbit.config.AbstractExchangeParser","org.springframework.amqp.rabbit.config.ExchangeParserTests","org.springframework.amqp.rabbit.config.QueueParserTests","org.springframework.amqp.rabbit.config.QueueParser"],"creation_date":"2013-01-04T02:26:52.000-06:00","resolution_date":"2013-09-25T12:11:46.000-05:00"}
{"id":1358,"bug_id":"AMQP-340","text":"Wrong RabbitMQ credentials are not considered as fatal error by SimpleMessageListenerContainer. If I connect an AmqpInboundChannelAdapter to the RabbitMQ (3.1.0) with wrong credentials (wrong password) the SimpleMessageListenerContainer doesn\u0027t detect the real reason and continues to restart the consumer in a seemingly endless loop.  It would be nice to have a notification (exception) about wrong credentials right away (there is a comprehensive rabbit client exception that gets swallowed in SimpleMessageListenerContainer.run())","file_goldset":["org.springframework.amqp.rabbit.listener.MessageListenerContainerLifecycleIntegrationTests","org.springframework.amqp.rabbit.support.RabbitExceptionTranslator","org.springframework.amqp.rabbit.listener.BlockingQueueConsumer"],"creation_date":"2013-11-18T09:41:01.000-06:00","resolution_date":"2013-12-02T12:39:09.000-06:00"}
{"id":1359,"bug_id":"AMQP-516","text":"Setting autoDelete or exclusive to anything, including \"true\" in @Queue without a queue name results in them being disabled. The following queue declaration will result in a queue being declared with auto delete and exclusive set to false:                       Making them exclusive and auto delete by default when using a random name seems like a good idea, but it should probably be changed to something like:","file_goldset":["org.springframework.amqp.rabbit.annotation.RabbitListenerAnnotationBeanPostProcessor","org.springframework.amqp.rabbit.annotation.EnableRabbitIntegrationTests"],"creation_date":"2015-08-06T01:25:34.000-05:00","resolution_date":"2015-08-07T09:46:00.000-05:00"}
