{"key":"126938","title":"","description":"To see one JRE \"jdk1.5.0_04\" and that JRE is configured with the default argument of \"-ea\"."}
{"key":"89814","title":"","description":"The tree should be in single-selection mode, as the (filtered) table already is."}
{"key":"81199","title":"Monitors should not be displayed for resumed threads","description":"However, it should be \nremoved, as the monitor information is stale at this point."}
{"key":"106454","title":"","description":"The build job should not be triggered, since no resource has changed."}
{"key":"85397","title":"","description":"expected: strictfp is not allowed on the enum type actual: no error is reported       expected: the wrong modifier is reported with the type name \u0027Natural\u0027 actual: the error is shown for the constructor_"}
{"key":"83541","title":"","description":"On the other hand, Eclipse 2.1.2 accepted \"\\t\" (or it worked OK if I just pressed tabulation) and \\n in this dialog."}
{"key":"92963","title":"[RCP][WorkbenchAdvisor] Allow workbench advisors to continue to run after the last window has closed.","description":"Our RCP application needs to continue to run after the last workbench window has\nclosed."}
{"key":"100799","title":"[ErrorHandling] \u0027Unable to create view\u0027 error page should link to error log view","description":"Either the view should show the relevant error, or it should contain a link to the Error Log, such that users are aware that other log entries could be relevant for this problem."}
{"key":"76837","title":"[KeyBindings] Ctrl-Shift-L popup should take focus--\u003eeasier to get pref page","description":"This should not be necessary and is inconsistent with the other popups (such"}
{"key":"79091","title":"[compiler] Should report invalid type only on the name","description":"We report an error on Zork[] instead of Zork only."}
{"key":"87211","title":"[PresentationAPI] standalone + movable stacks should remain standalone when dragged","description":""}
{"key":"98740","title":"","description":"The end user will open them by using the open project UI when needed."}
{"key":"96489","title":"","description":"Standalone views should still have their border, just not the title or min/max buttons if showTitle\u003d\u003dfalse."}
{"key":"94852","title":"[ViewMgmt] (regression) Typing space should activate view menu button","description":"The view menu (little \ndown-pointing triangle) button should have focus (it looks a bit raised).   It should drop down the view menu.  For consistency, and to do the expected thing \nwhen used with a screen reader, we should allow space key to work here."}
{"key":"76854","title":"[target] Target platform preferences should not be imported","description":""}
{"key":"129834","title":"","description":"The Reload button should probably be pushed down next to the table viewer.  3. Progress monitor is needed when parsing/reloading features from a new location"}
{"key":"106789","title":"","description":"Compare this with the other possible selection with RadioButton \"Add External Folder\", where -- correctly -- only folders can be chosen! So, the \"Add Folders\" file chooser should become such a folder chooser, too."}
{"key":"93119","title":"","description":"\u003c expected: there are exactly two proposals: \u0027extends\u0027 and \u0027super\u0027  \u003e actual: dozens of type proposals are proposed (and two template proposals, but\nthat is not a jdt-core problem)\n\u003c expected: only \u0027extends\u0027 is proposed."}
{"key":"85452","title":"","description":"- it should have a backdrop with text and button explaining how to open a perspective"}
{"key":"79271","title":"","description":"Expected: false."}
{"key":"84141","title":"[Decorators]  DecoratorScheduler should not lock UI Thread","description":""}
{"key":"99059","title":"","description":"It should not be written to the log."}
{"key":"94879","title":"","description":"- instead of dismissing the dialog, it clears the filter field    Esc is not normally used to clear a field. Esc within a dialog should dismiss it. Suggest not intercepting Esc, and just allowing backspace to clear the field (it\u0027s selected by default anyway)."}
{"key":"87676","title":"","description":"Using the log view as an example, double-clicking on column0 brings up the event dialog as it should."}
{"key":"90281","title":"","description":"The upper block should be right aligned with the Cancel button as should be the list and Deselect All button."}
{"key":"97018","title":"","description":"Since having a one liner manifest file seems to be a legal setup PDE should honor the access restrictions from the plugin.xml file and not generate a ALL forbidden rule only."}
{"key":"101434","title":"","description":"Expected: I see the caret move through the entered text"}
{"key":"97085","title":"(3.1M7) Static import code assist shouldn\u0027t propose \u003cpackage\u003e.*;","description":"Instead, it should propose plain subpackages (\"java.lang\" instead of \"java.lang."}
{"key":"93584","title":"","description":"In the least, it should be done in a modal context."}
{"key":"130424","title":"","description":"1 filter them out, as we have done in the past, OR 2 show them but with the right icon."}
{"key":"99235","title":"","description":"Ctrl clicking on the antfile attribute should open the external antBuildfile.xml"}
{"key":"87683","title":"[Preferences] Preferences hover should show unshortened text","description":""}
{"key":"95096","title":"","description":"-\u003e Instead of constraining the proposals to all members with prefix a, the popup closes"}
{"key":"108705","title":"[Contributions] errors: ObjectActionContributor should safeguard against misbehaving plugins","description":""}
{"key":"90549","title":"Mark Occurrences should work for one position past reference","description":"One space after the occurrence should be considered as well."}
{"key":"84546","title":"Escape on empty commit-comment is yes instead of no","description":"If you press ESC, you\u0027d expect the dialog to be canceled (\u003dno), but \nit still commits."}
{"key":"79638","title":"","description":"In any event, I need a way to get the NavigationHistory to empty itself."}
{"key":"101644","title":"Browse in plugin editor should init with actual value","description":"It should better be initialzied with the actual value of the class file"}
{"key":"76969","title":"","description":"NOTE that the UI does not respond right away (and it should)."}
{"key":"83206","title":"ICodeAssist#codeSelect(..) on implicit methods should not return a java element","description":"ICodeAssist#codeSelect(. .) on implicit methods \u0027valueOf(String)\u0027 and \u0027values()\u0027 of enum Color should not return a java element."}
{"key":"99282","title":"","description":"For example, the following program should print \"1999\" 40 times\n(once from each thread)."}
{"key":"94007","title":"","description":"If a few does not specify a icon it should not get one for free."}
{"key":"84881","title":"[WorkbenchLauncher] Splash screen receives focus after task switch (instead of workspace launcher dialog)","description":""}
{"key":"109329","title":"","description":"The tooltip should be the full text while the text itself may be shortened."}
{"key":"90600","title":"[model] CreateElementInCUOperation.apply: should use project options for rewriter","description":"CreateElementInCUOperation.apply should pass in the current projects options instead of null"}
{"key":"138404","title":"","description":"- note that when openning the quick fix wizard it should not be empty."}
{"key":"97363","title":"","description":"Should export as unjar\u0027ed plugin directories if \"Package plug-ins as individual JAR archives\" is unchecked."}
{"key":"85519","title":"","description":"expected: content of Test2 gets replaced with data in Test1 actual: a second editor with Test2.java is opened, Test1.java is closed, the unsaved changes in Test1.java are lost -\u003e lost data."}
{"key":"77238","title":"","description":"They probably should as this is the general mechanism for disabling/enabling a bunch of breakpoints."}
{"key":"95176","title":"","description":"Jobs should be canceled by the plugin that scheduled them during shutdown: org.eclipse.team.internal.core.BackgroundEventHandler$1"}
{"key":"88295","title":"","description":"When completing in enum case label \u0027R\u003c|\u003e\u0027 only enum constants should be offered."}
{"key":"104202","title":"","description":"i believe the error should be on \"\u003d\" for both lines."}
{"key":"90714","title":"","description":"This is an overkill, as a simple message dialog should be presented to the user saying no results have been found."}
{"key":"97722","title":"","description":"The name text and location combo should be left aligned."}
{"key":"77249","title":"","description":"The org.eclipse.jdt.core.dom.CompilationUnit instance corresponding to the class Foo below has no \"public\" modifier, although it should."}
{"key":"79754","title":"[Change Sets] should show activity affordance","description":""}
{"key":"112576","title":"","description":"The icon for Java-search-participant hits in the Export-Package and Import- Package manifest headers should be indicated with a package icon, not a class icon."}
{"key":"99631","title":"","description":"-\u003e A list of annotations starting with \u0027B\u0027 would be more helpful"}
{"key":"142881","title":"","description":"DEL key should do nothing on such a non-editable model."}
{"key":"90935","title":"","description":"Suggest that the grey area be eliminated completely. Failing that, on resize it should be the first to go."}
{"key":"77703","title":"","description":"Should be able to turn off logical structures of Map$Entry while viewing as an array of Map$Entry."}
{"key":"94516","title":"","description":"We want only plug-in provided settings (and project-specific settings)\nto be taken into account in that case."}
{"key":"85672","title":"","description":"expected: caret is right after the closing brace actual: everything from after the *opening* brace is selected"}
{"key":"85275","title":"Team\u003eDisconnect should make all resources writtable","description":"When the user disconnects a project from CVS control, any read-only resources shoudl be made writtable."}
{"key":"89621","title":"","description":"I would expect:"}
{"key":"97726","title":"Carat location should be updated when user types in Console.","description":"The carat location should be updated whenever a user enters text in a console."}
{"key":"105468","title":"[osgi] PermissionAdmin must override any conditions","description":""}
{"key":"80058","title":"[Wizards] Create folder blocked should avoid locking workspace","description":"Should I not be able to create a new folder at the same time?"}
{"key":"114565","title":"","description":"There should minimally be a busy indicator, and ideally move into a modal context thread to avoid freezing the UI for long periods."}
{"key":"94537","title":"","description":"The early startup code should check if the workbench is still running before starting each extension."}
{"key":"85277","title":"","description":"Expected: The deleted compilation unit is restored from HEAD."}
{"key":"78123","title":"[JFace] Error dialog should be resizable and not print redundant messages","description":"The error dialog that appears on synchronization errors should be resizable (as every dialog with dynamic content). Furthermore, the 2-row message should be shortened."}
{"key":"97792","title":"","description":"It should instead say:"}
{"key":"116908","title":"","description":"There should be an error message saying, that the project is closed, open project to synchronize."}
{"key":"86000","title":"","description":"Many files were tested and the majority \n did produced the proper JPG images as expected."}
{"key":"149604","title":"","description":"expected behavior: the editor opens on tab from #4."}
{"key":"105665","title":"","description":"\"Open resource\" dialog (CTRL-R) should not to forget position and size after closing it."}
{"key":"92013","title":"DCR - Need SWT.VERTICAL style for CoolBar","description":"I wanted to use CoolBar/CoolItem for the intro launch bar so that I can get \nthe OS-specific handle rendering but I need to be able to position CoolBar \nvertically when in the LEFT and RIGHT window trim areas."}
{"key":"99723","title":"","description":"It should be hidden or disabled if the view is non-moveable."}
{"key":"80672","title":"","description":"java should have got a problem due to disallowed\nlocation for use of annotation @Ann."}
{"key":"92063","title":"","description":"Expectation: editor should have refreshed instead"}
{"key":"152229","title":"Up and Down buttons should be disabled when viewer is sorted","description":"When this button is selected, the Up and Down buttons in the tree viewer should be disabled."}
{"key":"86268","title":"","description":"In other views that use this table, the problem also exists, however, properties for cell contents can be achieved using the keyboard and, in the resulting properties dialog, the full cell contents can be read by the screen reader."}
{"key":"78315","title":"","description":"Only when a compare will be done it needs to be loaded and the adapter being registered."}
{"key":"157944","title":"JavaAttributeWizard shouldn\u0027t open with errors when passed an empty string","description":""}
{"key":"86502","title":"","description":"The \"f\" or \"m_\" or \"c_\" prefixes should not be used in code maintained by the Platform/UI team."}
{"key":"32553","title":"","description":"It would be better if the icon was cleared when the project was closed."}
{"key":"63433","title":"","description":"This should say something like \"Deleting resources...\", \"Deleting project...\" or similar."}
{"key":"87198","title":"","description":"You used to be able to create an instance of a MessageDialog outside the UI\nthead so long as open was called from inside the UI thread."}
