{"key":"78634","title":"","description":"The javadoc seems to infer that it would return null in that case."}
{"key":"78854","title":"","description":"However this function copies data so tdata.pValue should be freed using OS.g_free()."}
{"key":"80120","title":"","description":"see the attachment, I have a toolbar on top right and it cuts a pixel out of the top corner, the layout should take into account the border of the CTabFolder."}
{"key":"81264","title":"","description":"Calling setTopIndex(40) should move table item #40 to the top of the table. Calling getTopIndex after should return 40."}
{"key":"82500","title":"TabFolder should not use PtCalcCanvas in getClientArea","description":""}
{"key":"83262","title":"","description":"Since the X clipboard protocol has a string length field, we do not need to be\nnull terminating these strings."}
{"key":"86000","title":"","description":"Many files were tested and the majority \n did produced the proper JPG images as expected."}
{"key":"87460","title":"","description":"I would have expected the on-screen caret location (not the offset) to be adjusted to the change."}
{"key":"87676","title":"","description":"Using the log view as an example, double-clicking on column0 brings up the \nevent dialog as it should."}
{"key":"102794","title":"","description":"The effect I\u0027m trying to achieve is that labels are 1 column wide then text boxes are either 2 or 5 columns wide (so some rows get two labels and text boxes)  The scrolled composite is needed because in the real app the forms are actually within a TabItem, so I need the ability to scroll."}
{"key":"88717","title":"","description":"I would have thought that DND.FEEDBACK_SCROLL enables automatic scrolling, in case the user drags an Item to the bottom but it does\u0027nt."}
{"key":"104150","title":"","description":"No matter which part of the table the user clicks on, the table cursor should follow the table selection as closely as possible if the selection is changed as a result of the click."}
{"key":"88829","title":"","description":"-\u003e but Move should have been fired for all of the columns since the width of the first displayed column changed, and therefore all of the other columns are auto-shifted accordingly"}
{"key":"104545","title":"Make default size of empty composites smaller","description":"Could the following two constants in Widget.java be changed to something smaller?   Anything less than or equal to 16 would work for us, 0 would be OK too."}
{"key":"115947","title":"","description":"To be Section 508 compliant, every image should have an Alt+text tooltip\nassociated with it."}
{"key":"93724","title":"","description":"Rather than converting the names for the signals every time, these signal names should be defined in OS.java so that they can be only created once."}
{"key":"94598","title":"","description":"Expected Result:  IIMF input should be working properly for inputing/key in \nDBCS characters."}
{"key":"77948","title":"","description":"responsible for some buttons not disabling when they should.  I\u0027ll investiage"}
{"key":"96053","title":"Spinner: Pressing buttons should focus spinner and select text","description":"The standard behaviour for Windows spinner widgets is to set focus\nto the text control and select its text when the user clicks on the\nup or down button."}
{"key":"97651","title":"","description":"This line should not go away because it belongs to the \"root\" item, not to the \"child\" item, but if it really wants to go away, then its end tips should not be left"}
{"key":"99145","title":"Link widget only disables link, not text","description":"(e.g. \"Use the \u003ca\u003eXY page\u003c/a\u003e to configure this\"), only the link is disabled, not the text."}
