mean rec. rank;0.6200996253718214;mean precision;0.0;mean recall;0.0;mean f1-score;0.0;mean average precision;0.5063892763947944;% top 1;0.0;% top 5;0.0;% top 10;0.0
system;query ID;query key;rank;rec. rank;true positives;precision;false negatives;recall;f1 score;avg precision
IO;1;IO-83;1.0;1.0;0.0;0.0;0.0;0.0;0.0;0.6666666666666666
IO;2;IO-90;1.0;1.0;0.0;0.0;0.0;0.0;0.0;1.0
IO;3;IO-91;1.0;1.0;0.0;0.0;0.0;0.0;0.0;1.0
IO;4;IO-93;1.0;1.0;0.0;0.0;0.0;0.0;0.0;1.0
IO;5;IO-96;1.0;1.0;0.0;0.0;0.0;0.0;0.0;1.0
IO;6;IO-84;1.0;1.0;0.0;0.0;0.0;0.0;0.0;0.2711383502851147
IO;7;IO-100;1.0;1.0;0.0;0.0;0.0;0.0;0.0;1.0
IO;8;IO-101;1.0;1.0;0.0;0.0;0.0;0.0;0.0;1.0
IO;9;IO-99;1.0;1.0;0.0;0.0;0.0;0.0;0.0;1.0
IO;10;IO-112;1.0;1.0;0.0;0.0;0.0;0.0;0.0;1.0
IO;11;IO-113;1.0;1.0;0.0;0.0;0.0;0.0;0.0;1.0
IO;12;IO-117;1.0;1.0;0.0;0.0;0.0;0.0;0.0;1.0
IO;13;IO-66;25.0;0.04;0.0;0.0;0.0;0.0;0.0;0.04857142857142857
IO;14;IO-74;1.0;1.0;0.0;0.0;0.0;0.0;0.0;0.75
IO;15;IO-136;1.0;1.0;0.0;0.0;0.0;0.0;0.0;1.0
IO;16;IO-150;2.0;0.5;0.0;0.0;0.0;0.0;0.0;0.39285714285714285
IO;17;IO-147;1.0;1.0;0.0;0.0;0.0;0.0;0.0;0.8333333333333333
IO;18;IO-141;1.0;1.0;0.0;0.0;0.0;0.0;0.0;1.0
IO;19;IO-163;1.0;1.0;0.0;0.0;0.0;0.0;0.0;1.0
IO;20;IO-160;1.0;1.0;0.0;0.0;0.0;0.0;0.0;1.0
IO;21;IO-132;0.0;0.0;0.0;0.0;0.0;0.0;0.0;0.0
IO;22;IO-79;0.0;0.0;0.0;0.0;0.0;0.0;0.0;0.0
IO;23;IO-167;7.0;0.14285714285714285;0.0;0.0;0.0;0.0;0.0;0.2878038628038628
IO;24;IO-180;2.0;0.5;0.0;0.0;0.0;0.0;0.0;0.5
IO;25;IO-179;1.0;1.0;0.0;0.0;0.0;0.0;0.0;1.0
IO;26;IO-161;2.0;0.5;0.0;0.0;0.0;0.0;0.0;0.5
IO;27;IO-202;2.0;0.5;0.0;0.0;0.0;0.0;0.0;0.5
IO;28;IO-206;0.0;0.0;0.0;0.0;0.0;0.0;0.0;0.0
IO;29;IO-212;3.0;0.3333333333333333;0.0;0.0;0.0;0.0;0.0;0.3333333333333333
IO;30;IO-223;1.0;1.0;0.0;0.0;0.0;0.0;0.0;1.0
IO;31;IO-231;1.0;1.0;0.0;0.0;0.0;0.0;0.0;0.8333333333333333
IO;32;IO-207;1.0;1.0;0.0;0.0;0.0;0.0;0.0;1.0
IO;33;IO-187;1.0;1.0;0.0;0.0;0.0;0.0;0.0;1.0
IO;34;IO-220;0.0;0.0;0.0;0.0;0.0;0.0;0.0;0.0
IO;35;IO-181;1.0;1.0;0.0;0.0;0.0;0.0;0.0;1.0
IO;36;IO-243;1.0;1.0;0.0;0.0;0.0;0.0;0.0;1.0
IO;37;IO-216;1.0;1.0;0.0;0.0;0.0;0.0;0.0;1.0
IO;38;IO-168;1.0;1.0;0.0;0.0;0.0;0.0;0.0;1.0
IO;39;IO-217;1.0;1.0;0.0;0.0;0.0;0.0;0.0;1.0
IO;40;IO-197;0.0;0.0;0.0;0.0;0.0;0.0;0.0;0.0
IO;41;IO-166;1.0;1.0;0.0;0.0;0.0;0.0;0.0;1.0
IO;42;IO-246;1.0;1.0;0.0;0.0;0.0;0.0;0.0;1.0
IO;43;IO-185;1.0;1.0;0.0;0.0;0.0;0.0;0.0;1.0
IO;44;IO-190;1.0;1.0;0.0;0.0;0.0;0.0;0.0;1.0
IO;45;IO-248;1.0;1.0;0.0;0.0;0.0;0.0;0.0;1.0
IO;46;IO-209;1.0;1.0;0.0;0.0;0.0;0.0;0.0;1.0
IO;47;IO-201;1.0;1.0;0.0;0.0;0.0;0.0;0.0;0.7
IO;48;IO-252;2.0;0.5;0.0;0.0;0.0;0.0;0.0;0.5
IO;49;IO-257;2.0;0.5;0.0;0.0;0.0;0.0;0.0;0.5833333333333333
IO;50;IO-258;1.0;1.0;0.0;0.0;0.0;0.0;0.0;0.75
IO;51;IO-264;3.0;0.3333333333333333;0.0;0.0;0.0;0.0;0.0;0.3333333333333333
IO;52;IO-260;1.0;1.0;0.0;0.0;0.0;0.0;0.0;1.0
IO;53;IO-263;1.0;1.0;0.0;0.0;0.0;0.0;0.0;1.0
IO;54;IO-266;1.0;1.0;0.0;0.0;0.0;0.0;0.0;1.0
IO;55;IO-272;1.0;1.0;0.0;0.0;0.0;0.0;0.0;1.0
IO;56;IO-274;1.0;1.0;0.0;0.0;0.0;0.0;0.0;1.0
IO;57;IO-277;1.0;1.0;0.0;0.0;0.0;0.0;0.0;0.7976190476190477
IO;58;IO-303;1.0;1.0;0.0;0.0;0.0;0.0;0.0;1.0
IO;59;IO-302;1.0;1.0;0.0;0.0;0.0;0.0;0.0;0.8333333333333333
IO;60;IO-304;3.0;0.3333333333333333;0.0;0.0;0.0;0.0;0.0;0.3333333333333333
IO;61;IO-298;1.0;1.0;0.0;0.0;0.0;0.0;0.0;1.0
IO;62;IO-306;1.0;1.0;0.0;0.0;0.0;0.0;0.0;1.0
IO;63;IO-307;2.0;0.5;0.0;0.0;0.0;0.0;0.0;0.5
IO;64;IO-319;2.0;0.5;0.0;0.0;0.0;0.0;0.0;0.5833333333333333
IO;65;IO-329;1.0;1.0;0.0;0.0;0.0;0.0;0.0;1.0
IO;66;IO-331;2.0;0.5;0.0;0.0;0.0;0.0;0.0;0.40029036004645757
IO;67;IO-336;1.0;1.0;0.0;0.0;0.0;0.0;0.0;1.0
IO;68;IO-362;2.0;0.5;0.0;0.0;0.0;0.0;0.0;0.5
IO;69;IO-374;1.0;1.0;0.0;0.0;0.0;0.0;0.0;1.0
IO;70;IO-355;1.0;1.0;0.0;0.0;0.0;0.0;0.0;1.0
IO;71;IO-323;1.0;1.0;0.0;0.0;0.0;0.0;0.0;1.0
IO;72;IO-368;1.0;1.0;0.0;0.0;0.0;0.0;0.0;1.0
IO;73;IO-343;1.0;1.0;0.0;0.0;0.0;0.0;0.0;0.7638884904023314
IO;74;IO-299;1.0;1.0;0.0;0.0;0.0;0.0;0.0;1.0
IO;75;IO-356;1.0;1.0;0.0;0.0;0.0;0.0;0.0;1.0
IO;76;IO-354;1.0;1.0;0.0;0.0;0.0;0.0;0.0;0.75
IO;77;IO-339;2.0;0.5;0.0;0.0;0.0;0.0;0.0;0.5
IO;78;IO-383;1.0;1.0;0.0;0.0;0.0;0.0;0.0;1.0
IO;79;IO-390;1.0;1.0;0.0;0.0;0.0;0.0;0.0;1.0
IO;80;IO-436;1.0;1.0;0.0;0.0;0.0;0.0;0.0;1.0
IO;81;IO-423;3.0;0.3333333333333333;0.0;0.0;0.0;0.0;0.0;0.3333333333333333
IO;82;IO-453;1.0;1.0;0.0;0.0;0.0;0.0;0.0;1.0
IO;83;IO-462;1.0;1.0;0.0;0.0;0.0;0.0;0.0;0.875
IO;84;IO-428;1.0;1.0;0.0;0.0;0.0;0.0;0.0;0.8333333333333333
IO;85;IO-466;3.0;0.3333333333333333;0.0;0.0;0.0;0.0;0.0;0.3333333333333333
IO;86;IO-481;3.0;0.3333333333333333;0.0;0.0;0.0;0.0;0.0;0.3333333333333333
IO;87;IO-484;1.0;1.0;0.0;0.0;0.0;0.0;0.0;1.0
IO;88;IO-492;1.0;1.0;0.0;0.0;0.0;0.0;0.0;1.0
IO;89;IO-494;3.0;0.3333333333333333;0.0;0.0;0.0;0.0;0.0;0.3333333333333333
IO;90;IO-502;1.0;1.0;0.0;0.0;0.0;0.0;0.0;0.505586592178771
IO;91;IO-512;2.0;0.5;0.0;0.0;0.0;0.0;0.0;0.5
COMPRESS;92;COMPRESS-64;2.0;0.5;0.0;0.0;0.0;0.0;0.0;0.5471558363298038
COMPRESS;93;COMPRESS-70;1.0;1.0;0.0;0.0;0.0;0.0;0.0;1.0
COMPRESS;94;COMPRESS-81;1.0;1.0;0.0;0.0;0.0;0.0;0.0;1.0
COMPRESS;95;COMPRESS-86;2.0;0.5;0.0;0.0;0.0;0.0;0.0;0.5
COMPRESS;96;COMPRESS-87;1.0;1.0;0.0;0.0;0.0;0.0;0.0;1.0
COMPRESS;97;COMPRESS-94;1.0;1.0;0.0;0.0;0.0;0.0;0.0;0.5303030303030303
COMPRESS;98;COMPRESS-96;1.0;1.0;0.0;0.0;0.0;0.0;0.0;1.0
COMPRESS;99;COMPRESS-73;9.0;0.1111111111111111;0.0;0.0;0.0;0.0;0.0;0.0982856380143082
COMPRESS;100;COMPRESS-85;1.0;1.0;0.0;0.0;0.0;0.0;0.0;0.5333333333333333
COMPRESS;101;COMPRESS-74;1.0;1.0;0.0;0.0;0.0;0.0;0.0;1.0
COMPRESS;102;COMPRESS-101;1.0;1.0;0.0;0.0;0.0;0.0;0.0;0.6979166666666666
COMPRESS;103;COMPRESS-100;2.0;0.5;0.0;0.0;0.0;0.0;0.0;0.41767473118279563
COMPRESS;104;COMPRESS-105;3.0;0.3333333333333333;0.0;0.0;0.0;0.0;0.0;0.2011494252873563
COMPRESS;105;COMPRESS-110;3.0;0.3333333333333333;0.0;0.0;0.0;0.0;0.0;0.22916666666666666
COMPRESS;106;COMPRESS-107;10.0;0.1;0.0;0.0;0.0;0.0;0.0;0.1
COMPRESS;107;COMPRESS-114;1.0;1.0;0.0;0.0;0.0;0.0;0.0;0.8333333333333333
COMPRESS;108;COMPRESS-75;1.0;1.0;0.0;0.0;0.0;0.0;0.0;1.0
COMPRESS;109;COMPRESS-113;1.0;1.0;0.0;0.0;0.0;0.0;0.0;0.6666666666666666
COMPRESS;110;COMPRESS-119;1.0;1.0;0.0;0.0;0.0;0.0;0.0;1.0
COMPRESS;111;COMPRESS-125;1.0;1.0;0.0;0.0;0.0;0.0;0.0;1.0
COMPRESS;112;COMPRESS-117;2.0;0.5;0.0;0.0;0.0;0.0;0.0;0.5833333333333333
COMPRESS;113;COMPRESS-139;1.0;1.0;0.0;0.0;0.0;0.0;0.0;1.0
COMPRESS;114;COMPRESS-129;1.0;1.0;0.0;0.0;0.0;0.0;0.0;0.5912698412698413
COMPRESS;115;COMPRESS-152;1.0;1.0;0.0;0.0;0.0;0.0;0.0;0.8333333333333333
COMPRESS;116;COMPRESS-160;2.0;0.5;0.0;0.0;0.0;0.0;0.0;0.5
COMPRESS;117;COMPRESS-146;1.0;1.0;0.0;0.0;0.0;0.0;0.0;0.37442348008385745
COMPRESS;118;COMPRESS-162;1.0;1.0;0.0;0.0;0.0;0.0;0.0;0.5833333333333334
COMPRESS;119;COMPRESS-164;1.0;1.0;0.0;0.0;0.0;0.0;0.0;1.0
COMPRESS;120;COMPRESS-163;1.0;1.0;0.0;0.0;0.0;0.0;0.0;0.9166666666666666
COMPRESS;121;COMPRESS-169;1.0;1.0;0.0;0.0;0.0;0.0;0.0;1.0
COMPRESS;122;COMPRESS-173;1.0;1.0;0.0;0.0;0.0;0.0;0.0;1.0
COMPRESS;123;COMPRESS-171;4.0;0.25;0.0;0.0;0.0;0.0;0.0;0.25
COMPRESS;124;COMPRESS-175;1.0;1.0;0.0;0.0;0.0;0.0;0.0;1.0
COMPRESS;125;COMPRESS-177;3.0;0.3333333333333333;0.0;0.0;0.0;0.0;0.0;0.3333333333333333
COMPRESS;126;COMPRESS-178;2.0;0.5;0.0;0.0;0.0;0.0;0.0;0.3333333333333333
COMPRESS;127;COMPRESS-131;2.0;0.5;0.0;0.0;0.0;0.0;0.0;0.5
COMPRESS;128;COMPRESS-176;22.0;0.045454545454545456;0.0;0.0;0.0;0.0;0.0;0.036616161616161616
COMPRESS;129;COMPRESS-181;4.0;0.25;0.0;0.0;0.0;0.0;0.0;0.325
COMPRESS;130;COMPRESS-184;10.0;0.1;0.0;0.0;0.0;0.0;0.0;0.1
COMPRESS;131;COMPRESS-185;1.0;1.0;0.0;0.0;0.0;0.0;0.0;0.7083333333333334
COMPRESS;132;COMPRESS-187;5.0;0.2;0.0;0.0;0.0;0.0;0.0;0.15555555555555556
COMPRESS;133;COMPRESS-191;1.0;1.0;0.0;0.0;0.0;0.0;0.0;0.2753318999008654
COMPRESS;134;COMPRESS-197;3.0;0.3333333333333333;0.0;0.0;0.0;0.0;0.0;0.25757575757575757
COMPRESS;135;COMPRESS-209;25.0;0.04;0.0;0.0;0.0;0.0;0.0;0.04
COMPRESS;136;COMPRESS-200;1.0;1.0;0.0;0.0;0.0;0.0;0.0;0.39376653439153436
COMPRESS;137;COMPRESS-203;1.0;1.0;0.0;0.0;0.0;0.0;0.0;1.0
COMPRESS;138;COMPRESS-189;7.0;0.14285714285714285;0.0;0.0;0.0;0.0;0.0;0.14285714285714285
COMPRESS;139;COMPRESS-201;1.0;1.0;0.0;0.0;0.0;0.0;0.0;0.6666666666666666
COMPRESS;140;COMPRESS-159;1.0;1.0;0.0;0.0;0.0;0.0;0.0;0.8333333333333333
COMPRESS;141;COMPRESS-212;1.0;1.0;0.0;0.0;0.0;0.0;0.0;0.5555555555555556
COMPRESS;142;COMPRESS-206;1.0;1.0;0.0;0.0;0.0;0.0;0.0;0.5625
COMPRESS;143;COMPRESS-205;1.0;1.0;0.0;0.0;0.0;0.0;0.0;0.3709239829335299
COMPRESS;144;COMPRESS-218;1.0;1.0;0.0;0.0;0.0;0.0;0.0;1.0
COMPRESS;145;COMPRESS-219;1.0;1.0;0.0;0.0;0.0;0.0;0.0;0.5136986301369864
COMPRESS;146;COMPRESS-221;1.0;1.0;0.0;0.0;0.0;0.0;0.0;0.5666666666666667
COMPRESS;147;COMPRESS-223;1.0;1.0;0.0;0.0;0.0;0.0;0.0;1.0
COMPRESS;148;COMPRESS-224;1.0;1.0;0.0;0.0;0.0;0.0;0.0;0.5403225806451613
COMPRESS;149;COMPRESS-228;1.0;1.0;0.0;0.0;0.0;0.0;0.0;0.6111111111111112
COMPRESS;150;COMPRESS-229;1.0;1.0;0.0;0.0;0.0;0.0;0.0;0.6916666666666667
COMPRESS;151;COMPRESS-227;1.0;1.0;0.0;0.0;0.0;0.0;0.0;0.5833333333333334
COMPRESS;152;COMPRESS-236;1.0;1.0;0.0;0.0;0.0;0.0;0.0;0.3770646127513907
COMPRESS;153;COMPRESS-237;1.0;1.0;0.0;0.0;0.0;0.0;0.0;1.0
COMPRESS;154;COMPRESS-239;1.0;1.0;0.0;0.0;0.0;0.0;0.0;0.5714285714285714
COMPRESS;155;COMPRESS-240;2.0;0.5;0.0;0.0;0.0;0.0;0.0;0.5
COMPRESS;156;COMPRESS-241;1.0;1.0;0.0;0.0;0.0;0.0;0.0;1.0
COMPRESS;157;COMPRESS-244;2.0;0.5;0.0;0.0;0.0;0.0;0.0;0.5
COMPRESS;158;COMPRESS-245;2.0;0.5;0.0;0.0;0.0;0.0;0.0;0.3125
COMPRESS;159;COMPRESS-249;1.0;1.0;0.0;0.0;0.0;0.0;0.0;0.6666666666666666
COMPRESS;160;COMPRESS-252;6.0;0.16666666666666666;0.0;0.0;0.0;0.0;0.0;0.11904761904761904
COMPRESS;161;COMPRESS-253;2.0;0.5;0.0;0.0;0.0;0.0;0.0;0.5
COMPRESS;162;COMPRESS-256;1.0;1.0;0.0;0.0;0.0;0.0;0.0;0.7
COMPRESS;163;COMPRESS-259;1.0;1.0;0.0;0.0;0.0;0.0;0.0;1.0
COMPRESS;164;COMPRESS-262;2.0;0.5;0.0;0.0;0.0;0.0;0.0;0.5
COMPRESS;165;COMPRESS-264;1.0;1.0;0.0;0.0;0.0;0.0;0.0;0.5435897435897435
COMPRESS;166;COMPRESS-265;3.0;0.3333333333333333;0.0;0.0;0.0;0.0;0.0;0.3333333333333333
COMPRESS;167;COMPRESS-267;1.0;1.0;0.0;0.0;0.0;0.0;0.0;0.35543758043758045
COMPRESS;168;COMPRESS-268;1.0;1.0;0.0;0.0;0.0;0.0;0.0;0.3958048335613315
COMPRESS;169;COMPRESS-270;1.0;1.0;0.0;0.0;0.0;0.0;0.0;0.3527777777777778
COMPRESS;170;COMPRESS-272;1.0;1.0;0.0;0.0;0.0;0.0;0.0;0.3648567119155354
COMPRESS;171;COMPRESS-277;1.0;1.0;0.0;0.0;0.0;0.0;0.0;1.0
COMPRESS;172;COMPRESS-276;3.0;0.3333333333333333;0.0;0.0;0.0;0.0;0.0;0.2156674881621577
COMPRESS;173;COMPRESS-274;1.0;1.0;0.0;0.0;0.0;0.0;0.0;1.0
COMPRESS;174;COMPRESS-273;4.0;0.25;0.0;0.0;0.0;0.0;0.0;0.21543040293040291
COMPRESS;175;COMPRESS-278;3.0;0.3333333333333333;0.0;0.0;0.0;0.0;0.0;0.41666666666666663
COMPRESS;176;COMPRESS-279;1.0;1.0;0.0;0.0;0.0;0.0;0.0;0.5666666666666667
COMPRESS;177;COMPRESS-287;1.0;1.0;0.0;0.0;0.0;0.0;0.0;1.0
COMPRESS;178;COMPRESS-286;1.0;1.0;0.0;0.0;0.0;0.0;0.0;0.4059686394816436
COMPRESS;179;COMPRESS-289;1.0;1.0;0.0;0.0;0.0;0.0;0.0;0.5555555555555556
COMPRESS;180;COMPRESS-297;1.0;1.0;0.0;0.0;0.0;0.0;0.0;1.0
COMPRESS;181;COMPRESS-303;1.0;1.0;0.0;0.0;0.0;0.0;0.0;1.0
COMPRESS;182;COMPRESS-302;1.0;1.0;0.0;0.0;0.0;0.0;0.0;1.0
COMPRESS;183;COMPRESS-306;1.0;1.0;0.0;0.0;0.0;0.0;0.0;0.5191734417344174
COMPRESS;184;COMPRESS-309;2.0;0.5;0.0;0.0;0.0;0.0;0.0;0.5
COMPRESS;185;COMPRESS-312;1.0;1.0;0.0;0.0;0.0;0.0;0.0;1.0
COMPRESS;186;COMPRESS-315;1.0;1.0;0.0;0.0;0.0;0.0;0.0;0.8333333333333333
COMPRESS;187;COMPRESS-314;1.0;1.0;0.0;0.0;0.0;0.0;0.0;0.75
COMPRESS;188;COMPRESS-316;2.0;0.5;0.0;0.0;0.0;0.0;0.0;0.45
COMPRESS;189;COMPRESS-321;1.0;1.0;0.0;0.0;0.0;0.0;0.0;0.6
COMPRESS;190;COMPRESS-332;5.0;0.2;0.0;0.0;0.0;0.0;0.0;0.2
COMPRESS;191;COMPRESS-331;1.0;1.0;0.0;0.0;0.0;0.0;0.0;1.0
COMPRESS;192;COMPRESS-334;1.0;1.0;0.0;0.0;0.0;0.0;0.0;0.5526315789473684
COMPRESS;193;COMPRESS-335;1.0;1.0;0.0;0.0;0.0;0.0;0.0;0.5166666666666667
COMPRESS;194;COMPRESS-336;1.0;1.0;0.0;0.0;0.0;0.0;0.0;0.75
COMPRESS;195;COMPRESS-343;1.0;1.0;0.0;0.0;0.0;0.0;0.0;1.0
COMPRESS;196;COMPRESS-330;6.0;0.16666666666666666;0.0;0.0;0.0;0.0;0.0;0.16666666666666666
COMPRESS;197;COMPRESS-344;1.0;1.0;0.0;0.0;0.0;0.0;0.0;1.0
COMPRESS;198;COMPRESS-348;1.0;1.0;0.0;0.0;0.0;0.0;0.0;0.8333333333333333
COMPRESS;199;COMPRESS-355;1.0;1.0;0.0;0.0;0.0;0.0;0.0;1.0
COMPRESS;200;COMPRESS-356;1.0;1.0;0.0;0.0;0.0;0.0;0.0;0.625
COMPRESS;201;COMPRESS-351;7.0;0.14285714285714285;0.0;0.0;0.0;0.0;0.0;0.09316413204958097
COMPRESS;202;COMPRESS-357;4.0;0.25;0.0;0.0;0.0;0.0;0.0;0.25
COMPRESS;203;COMPRESS-363;1.0;1.0;0.0;0.0;0.0;0.0;0.0;0.75
COMPRESS;204;COMPRESS-366;1.0;1.0;0.0;0.0;0.0;0.0;0.0;1.0
CONFIGURATION;205;CONFIGURATION-214;4.0;0.25;0.0;0.0;0.0;0.0;0.0;0.27777777777777773
CONFIGURATION;206;CONFIGURATION-220;1.0;1.0;0.0;0.0;0.0;0.0;0.0;1.0
CONFIGURATION;207;CONFIGURATION-228;3.0;0.3333333333333333;0.0;0.0;0.0;0.0;0.0;0.2121212121212121
CONFIGURATION;208;CONFIGURATION-230;1.0;1.0;0.0;0.0;0.0;0.0;0.0;0.42740740740740746
CONFIGURATION;209;CONFIGURATION-233;2.0;0.5;0.0;0.0;0.0;0.0;0.0;0.5
CONFIGURATION;210;CONFIGURATION-227;1.0;1.0;0.0;0.0;0.0;0.0;0.0;1.0
CONFIGURATION;211;CONFIGURATION-235;2.0;0.5;0.0;0.0;0.0;0.0;0.0;0.375
CONFIGURATION;212;CONFIGURATION-229;1.0;1.0;0.0;0.0;0.0;0.0;0.0;0.8333333333333333
CONFIGURATION;213;CONFIGURATION-242;5.0;0.2;0.0;0.0;0.0;0.0;0.0;0.20952380952380953
CONFIGURATION;214;CONFIGURATION-241;17.0;0.058823529411764705;0.0;0.0;0.0;0.0;0.0;0.06512605042016806
CONFIGURATION;215;CONFIGURATION-232;1.0;1.0;0.0;0.0;0.0;0.0;0.0;0.7023809523809524
CONFIGURATION;216;CONFIGURATION-252;2.0;0.5;0.0;0.0;0.0;0.0;0.0;0.35
CONFIGURATION;217;CONFIGURATION-254;1.0;1.0;0.0;0.0;0.0;0.0;0.0;0.75
CONFIGURATION;218;CONFIGURATION-255;1.0;1.0;0.0;0.0;0.0;0.0;0.0;1.0
CONFIGURATION;219;CONFIGURATION-256;1.0;1.0;0.0;0.0;0.0;0.0;0.0;0.4661175404031715
CONFIGURATION;220;CONFIGURATION-259;3.0;0.3333333333333333;0.0;0.0;0.0;0.0;0.0;0.3333333333333333
CONFIGURATION;221;CONFIGURATION-263;2.0;0.5;0.0;0.0;0.0;0.0;0.0;0.5833333333333333
CONFIGURATION;222;CONFIGURATION-264;1.0;1.0;0.0;0.0;0.0;0.0;0.0;1.0
CONFIGURATION;223;CONFIGURATION-265;1.0;1.0;0.0;0.0;0.0;0.0;0.0;0.4530400999782656
CONFIGURATION;224;CONFIGURATION-267;1.0;1.0;0.0;0.0;0.0;0.0;0.0;1.0
CONFIGURATION;225;CONFIGURATION-268;3.0;0.3333333333333333;0.0;0.0;0.0;0.0;0.0;0.23562271062271062
CONFIGURATION;226;CONFIGURATION-270;1.0;1.0;0.0;0.0;0.0;0.0;0.0;1.0
CONFIGURATION;227;CONFIGURATION-269;1.0;1.0;0.0;0.0;0.0;0.0;0.0;0.5868055555555555
CONFIGURATION;228;CONFIGURATION-274;1.0;1.0;0.0;0.0;0.0;0.0;0.0;1.0
CONFIGURATION;229;CONFIGURATION-253;1.0;1.0;0.0;0.0;0.0;0.0;0.0;0.75
CONFIGURATION;230;CONFIGURATION-279;1.0;1.0;0.0;0.0;0.0;0.0;0.0;0.75
CONFIGURATION;231;CONFIGURATION-280;1.0;1.0;0.0;0.0;0.0;0.0;0.0;0.6
CONFIGURATION;232;CONFIGURATION-277;1.0;1.0;0.0;0.0;0.0;0.0;0.0;1.0
CONFIGURATION;233;CONFIGURATION-281;1.0;1.0;0.0;0.0;0.0;0.0;0.0;0.75
CONFIGURATION;234;CONFIGURATION-275;5.0;0.2;0.0;0.0;0.0;0.0;0.0;0.2
CONFIGURATION;235;CONFIGURATION-283;11.0;0.09090909090909091;0.0;0.0;0.0;0.0;0.0;0.0699582027168234
CONFIGURATION;236;CONFIGURATION-282;2.0;0.5;0.0;0.0;0.0;0.0;0.0;0.5
CONFIGURATION;237;CONFIGURATION-285;1.0;1.0;0.0;0.0;0.0;0.0;0.0;1.0
CONFIGURATION;238;CONFIGURATION-287;3.0;0.3333333333333333;0.0;0.0;0.0;0.0;0.0;0.36944444444444446
CONFIGURATION;239;CONFIGURATION-291;5.0;0.2;0.0;0.0;0.0;0.0;0.0;0.14
CONFIGURATION;240;CONFIGURATION-272;1.0;1.0;0.0;0.0;0.0;0.0;0.0;0.9166666666666666
CONFIGURATION;241;CONFIGURATION-294;1.0;1.0;0.0;0.0;0.0;0.0;0.0;1.0
CONFIGURATION;242;CONFIGURATION-295;1.0;1.0;0.0;0.0;0.0;0.0;0.0;1.0
CONFIGURATION;243;CONFIGURATION-296;1.0;1.0;0.0;0.0;0.0;0.0;0.0;1.0
CONFIGURATION;244;CONFIGURATION-299;1.0;1.0;0.0;0.0;0.0;0.0;0.0;1.0
CONFIGURATION;245;CONFIGURATION-302;1.0;1.0;0.0;0.0;0.0;0.0;0.0;0.6428571428571428
CONFIGURATION;246;CONFIGURATION-306;1.0;1.0;0.0;0.0;0.0;0.0;0.0;1.0
CONFIGURATION;247;CONFIGURATION-300;1.0;1.0;0.0;0.0;0.0;0.0;0.0;0.8333333333333334
CONFIGURATION;248;CONFIGURATION-315;1.0;1.0;0.0;0.0;0.0;0.0;0.0;0.8333333333333333
CONFIGURATION;249;CONFIGURATION-316;1.0;1.0;0.0;0.0;0.0;0.0;0.0;0.8333333333333333
CONFIGURATION;250;CONFIGURATION-318;1.0;1.0;0.0;0.0;0.0;0.0;0.0;0.7291666666666666
CONFIGURATION;251;CONFIGURATION-320;1.0;1.0;0.0;0.0;0.0;0.0;0.0;1.0
CONFIGURATION;252;CONFIGURATION-322;1.0;1.0;0.0;0.0;0.0;0.0;0.0;0.8666666666666667
CONFIGURATION;253;CONFIGURATION-328;2.0;0.5;0.0;0.0;0.0;0.0;0.0;0.39285714285714285
CONFIGURATION;254;CONFIGURATION-332;3.0;0.3333333333333333;0.0;0.0;0.0;0.0;0.0;0.41666666666666663
CONFIGURATION;255;CONFIGURATION-334;1.0;1.0;0.0;0.0;0.0;0.0;0.0;0.8333333333333333
CONFIGURATION;256;CONFIGURATION-339;1.0;1.0;0.0;0.0;0.0;0.0;0.0;1.0
CONFIGURATION;257;CONFIGURATION-341;3.0;0.3333333333333333;0.0;0.0;0.0;0.0;0.0;0.41666666666666663
CONFIGURATION;258;CONFIGURATION-346;1.0;1.0;0.0;0.0;0.0;0.0;0.0;1.0
CONFIGURATION;259;CONFIGURATION-336;2.0;0.5;0.0;0.0;0.0;0.0;0.0;0.33888888888888885
CONFIGURATION;260;CONFIGURATION-347;11.0;0.09090909090909091;0.0;0.0;0.0;0.0;0.0;0.08391608391608392
CONFIGURATION;261;CONFIGURATION-344;2.0;0.5;0.0;0.0;0.0;0.0;0.0;0.49999999999999994
CONFIGURATION;262;CONFIGURATION-348;1.0;1.0;0.0;0.0;0.0;0.0;0.0;0.7
CONFIGURATION;263;CONFIGURATION-345;1.0;1.0;0.0;0.0;0.0;0.0;0.0;0.6666666666666666
CONFIGURATION;264;CONFIGURATION-349;1.0;1.0;0.0;0.0;0.0;0.0;0.0;0.8333333333333333
CONFIGURATION;265;CONFIGURATION-335;3.0;0.3333333333333333;0.0;0.0;0.0;0.0;0.0;0.3333333333333333
CONFIGURATION;266;CONFIGURATION-321;1.0;1.0;0.0;0.0;0.0;0.0;0.0;0.8333333333333333
CONFIGURATION;267;CONFIGURATION-357;1.0;1.0;0.0;0.0;0.0;0.0;0.0;0.5181818181818182
CONFIGURATION;268;CONFIGURATION-368;2.0;0.5;0.0;0.0;0.0;0.0;0.0;0.5700757575757576
CONFIGURATION;269;CONFIGURATION-369;2.0;0.5;0.0;0.0;0.0;0.0;0.0;0.3769760077944221
CONFIGURATION;270;CONFIGURATION-385;5.0;0.2;0.0;0.0;0.0;0.0;0.0;0.24285714285714285
CONFIGURATION;271;CONFIGURATION-362;1.0;1.0;0.0;0.0;0.0;0.0;0.0;0.7
CONFIGURATION;272;CONFIGURATION-388;3.0;0.3333333333333333;0.0;0.0;0.0;0.0;0.0;0.3666666666666667
CONFIGURATION;273;CONFIGURATION-393;1.0;1.0;0.0;0.0;0.0;0.0;0.0;0.75
CONFIGURATION;274;CONFIGURATION-396;1.0;1.0;0.0;0.0;0.0;0.0;0.0;1.0
CONFIGURATION;275;CONFIGURATION-399;3.0;0.3333333333333333;0.0;0.0;0.0;0.0;0.0;0.18707482993197277
CONFIGURATION;276;CONFIGURATION-403;2.0;0.5;0.0;0.0;0.0;0.0;0.0;0.41666666666666663
CONFIGURATION;277;CONFIGURATION-405;1.0;1.0;0.0;0.0;0.0;0.0;0.0;0.5833333333333334
CONFIGURATION;278;CONFIGURATION-404;4.0;0.25;0.0;0.0;0.0;0.0;0.0;0.2601449275362319
CONFIGURATION;279;CONFIGURATION-407;1.0;1.0;0.0;0.0;0.0;0.0;0.0;1.0
CONFIGURATION;280;CONFIGURATION-409;1.0;1.0;0.0;0.0;0.0;0.0;0.0;1.0
CONFIGURATION;281;CONFIGURATION-408;2.0;0.5;0.0;0.0;0.0;0.0;0.0;0.5
CONFIGURATION;282;CONFIGURATION-413;12.0;0.08333333333333333;0.0;0.0;0.0;0.0;0.0;0.08333333333333333
CONFIGURATION;283;CONFIGURATION-412;1.0;1.0;0.0;0.0;0.0;0.0;0.0;1.0
CONFIGURATION;284;CONFIGURATION-415;1.0;1.0;0.0;0.0;0.0;0.0;0.0;0.6464646464646464
CONFIGURATION;285;CONFIGURATION-423;1.0;1.0;0.0;0.0;0.0;0.0;0.0;1.0
CONFIGURATION;286;CONFIGURATION-428;4.0;0.25;0.0;0.0;0.0;0.0;0.0;0.21058429118773947
CONFIGURATION;287;CONFIGURATION-433;1.0;1.0;0.0;0.0;0.0;0.0;0.0;1.0
CONFIGURATION;288;CONFIGURATION-432;2.0;0.5;0.0;0.0;0.0;0.0;0.0;0.4077568134171907
CONFIGURATION;289;CONFIGURATION-434;1.0;1.0;0.0;0.0;0.0;0.0;0.0;1.0
CONFIGURATION;290;CONFIGURATION-446;1.0;1.0;0.0;0.0;0.0;0.0;0.0;0.7
CONFIGURATION;291;CONFIGURATION-448;4.0;0.25;0.0;0.0;0.0;0.0;0.0;0.26785714285714285
CONFIGURATION;292;CONFIGURATION-458;1.0;1.0;0.0;0.0;0.0;0.0;0.0;0.6111111111111112
CONFIGURATION;293;CONFIGURATION-455;1.0;1.0;0.0;0.0;0.0;0.0;0.0;1.0
CONFIGURATION;294;CONFIGURATION-456;1.0;1.0;0.0;0.0;0.0;0.0;0.0;0.6776556776556776
CONFIGURATION;295;CONFIGURATION-452;6.0;0.16666666666666666;0.0;0.0;0.0;0.0;0.0;0.19444444444444442
CONFIGURATION;296;CONFIGURATION-460;1.0;1.0;0.0;0.0;0.0;0.0;0.0;0.7101449275362319
CONFIGURATION;297;CONFIGURATION-397;1.0;1.0;0.0;0.0;0.0;0.0;0.0;0.5241927767187515
CONFIGURATION;298;CONFIGURATION-476;1.0;1.0;0.0;0.0;0.0;0.0;0.0;0.8333333333333333
CONFIGURATION;299;CONFIGURATION-471;1.0;1.0;0.0;0.0;0.0;0.0;0.0;1.0
CONFIGURATION;300;CONFIGURATION-463;1.0;1.0;0.0;0.0;0.0;0.0;0.0;1.0
CONFIGURATION;301;CONFIGURATION-474;1.0;1.0;0.0;0.0;0.0;0.0;0.0;1.0
CONFIGURATION;302;CONFIGURATION-465;1.0;1.0;0.0;0.0;0.0;0.0;0.0;1.0
CONFIGURATION;303;CONFIGURATION-481;2.0;0.5;0.0;0.0;0.0;0.0;0.0;0.31333333333333335
CONFIGURATION;304;CONFIGURATION-487;2.0;0.5;0.0;0.0;0.0;0.0;0.0;0.6388888888888888
CONFIGURATION;305;CONFIGURATION-495;1.0;1.0;0.0;0.0;0.0;0.0;0.0;0.42777777777777776
CONFIGURATION;306;CONFIGURATION-483;1.0;1.0;0.0;0.0;0.0;0.0;0.0;1.0
CONFIGURATION;307;CONFIGURATION-501;4.0;0.25;0.0;0.0;0.0;0.0;0.0;0.26785714285714285
CONFIGURATION;308;CONFIGURATION-504;1.0;1.0;0.0;0.0;0.0;0.0;0.0;0.7914699627857522
CONFIGURATION;309;CONFIGURATION-521;1.0;1.0;0.0;0.0;0.0;0.0;0.0;0.6428571428571428
CONFIGURATION;310;CONFIGURATION-525;1.0;1.0;0.0;0.0;0.0;0.0;0.0;0.9166666666666666
CONFIGURATION;311;CONFIGURATION-534;1.0;1.0;0.0;0.0;0.0;0.0;0.0;1.0
CONFIGURATION;312;CONFIGURATION-537;1.0;1.0;0.0;0.0;0.0;0.0;0.0;0.8166666666666667
CONFIGURATION;313;CONFIGURATION-516;1.0;1.0;0.0;0.0;0.0;0.0;0.0;0.75
CONFIGURATION;314;CONFIGURATION-540;1.0;1.0;0.0;0.0;0.0;0.0;0.0;0.8333333333333333
CONFIGURATION;315;CONFIGURATION-546;1.0;1.0;0.0;0.0;0.0;0.0;0.0;1.0
CONFIGURATION;316;CONFIGURATION-547;4.0;0.25;0.0;0.0;0.0;0.0;0.0;0.1875
CONFIGURATION;317;CONFIGURATION-418;1.0;1.0;0.0;0.0;0.0;0.0;0.0;0.8333333333333333
CONFIGURATION;318;CONFIGURATION-552;1.0;1.0;0.0;0.0;0.0;0.0;0.0;1.0
CONFIGURATION;319;CONFIGURATION-555;1.0;1.0;0.0;0.0;0.0;0.0;0.0;0.75
CONFIGURATION;320;CONFIGURATION-567;1.0;1.0;0.0;0.0;0.0;0.0;0.0;1.0
CONFIGURATION;321;CONFIGURATION-573;1.0;1.0;0.0;0.0;0.0;0.0;0.0;0.2902011183261183
CONFIGURATION;322;CONFIGURATION-581;2.0;0.5;0.0;0.0;0.0;0.0;0.0;0.375
CONFIGURATION;323;CONFIGURATION-570;1.0;1.0;0.0;0.0;0.0;0.0;0.0;0.7
CONFIGURATION;324;CONFIGURATION-582;1.0;1.0;0.0;0.0;0.0;0.0;0.0;1.0
CONFIGURATION;325;CONFIGURATION-310;0.0;0.0;0.0;0.0;0.0;0.0;0.0;0.0
CONFIGURATION;326;CONFIGURATION-427;0.0;0.0;0.0;0.0;0.0;0.0;0.0;0.0
CONFIGURATION;327;CONFIGURATION-564;0.0;0.0;0.0;0.0;0.0;0.0;0.0;0.0
CONFIGURATION;328;CONFIGURATION-598;0.0;0.0;0.0;0.0;0.0;0.0;0.0;0.0
CONFIGURATION;329;CONFIGURATION-604;0.0;0.0;0.0;0.0;0.0;0.0;0.0;0.0
CONFIGURATION;330;CONFIGURATION-609;15.0;0.06666666666666667;0.0;0.0;0.0;0.0;0.0;0.07333333333333333
CONFIGURATION;331;CONFIGURATION-610;1.0;1.0;0.0;0.0;0.0;0.0;0.0;0.3845238095238095
CONFIGURATION;332;CONFIGURATION-618;1.0;1.0;0.0;0.0;0.0;0.0;0.0;0.5714285714285714
CONFIGURATION;333;CONFIGURATION-622;2.0;0.5;0.0;0.0;0.0;0.0;0.0;0.3611111111111111
CONFIGURATION;334;CONFIGURATION-632;0.0;0.0;0.0;0.0;0.0;0.0;0.0;0.0
CONFIGURATION;335;CONFIGURATION-634;2.0;0.5;0.0;0.0;0.0;0.0;0.0;0.3
CONFIGURATION;336;CONFIGURATION-627;16.0;0.0625;0.0;0.0;0.0;0.0;0.0;0.0625
CONFIGURATION;337;CONFIGURATION-640;1.0;1.0;0.0;0.0;0.0;0.0;0.0;1.0
SWARM;338;SWARM-248;0.0;0.0;0.0;0.0;0.0;0.0;0.0;0.0
SWARM;339;SWARM-249;1.0;1.0;0.0;0.0;0.0;0.0;0.0;0.5347222222222222
SWARM;340;SWARM-276;0.0;0.0;0.0;0.0;0.0;0.0;0.0;0.0
SWARM;341;SWARM-309;2.0;0.5;0.0;0.0;0.0;0.0;0.0;0.2567365898111056
SWARM;342;SWARM-337;0.0;0.0;0.0;0.0;0.0;0.0;0.0;0.0
SWARM;343;SWARM-394;0.0;0.0;0.0;0.0;0.0;0.0;0.0;0.0
SWARM;344;SWARM-385;57.0;0.017543859649122806;0.0;0.0;0.0;0.0;0.0;0.017543859649122806
SWARM;345;SWARM-189;1.0;1.0;0.0;0.0;0.0;0.0;0.0;0.5120805942115598
SWARM;346;SWARM-403;1.0;1.0;0.0;0.0;0.0;0.0;0.0;1.0
SWARM;347;SWARM-445;6.0;0.16666666666666666;0.0;0.0;0.0;0.0;0.0;0.16666666666666666
SWARM;348;SWARM-472;0.0;0.0;0.0;0.0;0.0;0.0;0.0;0.0
SWARM;349;SWARM-493;0.0;0.0;0.0;0.0;0.0;0.0;0.0;0.0
SWARM;350;SWARM-479;10.0;0.1;0.0;0.0;0.0;0.0;0.0;0.1
SWARM;351;SWARM-485;7.0;0.14285714285714285;0.0;0.0;0.0;0.0;0.0;0.14285714285714285
SWARM;352;SWARM-497;1.0;1.0;0.0;0.0;0.0;0.0;0.0;1.0
SWARM;353;SWARM-516;1.0;1.0;0.0;0.0;0.0;0.0;0.0;1.0
SWARM;354;SWARM-500;12.0;0.08333333333333333;0.0;0.0;0.0;0.0;0.0;0.08333333333333333
SWARM;355;SWARM-522;0.0;0.0;0.0;0.0;0.0;0.0;0.0;0.0
SWARM;356;SWARM-544;0.0;0.0;0.0;0.0;0.0;0.0;0.0;0.0
SWARM;357;SWARM-556;130.0;0.007692307692307693;0.0;0.0;0.0;0.0;0.0;0.007692307692307693
SWARM;358;SWARM-528;2.0;0.5;0.0;0.0;0.0;0.0;0.0;0.5
SWARM;359;SWARM-486;4.0;0.25;0.0;0.0;0.0;0.0;0.0;0.25
SWARM;360;SWARM-574;0.0;0.0;0.0;0.0;0.0;0.0;0.0;0.0
SWARM;361;SWARM-553;3.0;0.3333333333333333;0.0;0.0;0.0;0.0;0.0;0.3333333333333333
SWARM;362;SWARM-551;1.0;1.0;0.0;0.0;0.0;0.0;0.0;1.0
SWARM;363;SWARM-587;6.0;0.16666666666666666;0.0;0.0;0.0;0.0;0.0;0.16666666666666666
SWARM;364;SWARM-586;7.0;0.14285714285714285;0.0;0.0;0.0;0.0;0.0;0.14285714285714285
SWARM;365;SWARM-607;2.0;0.5;0.0;0.0;0.0;0.0;0.0;0.5
SWARM;366;SWARM-611;1.0;1.0;0.0;0.0;0.0;0.0;0.0;0.1856643531543634
SWARM;367;SWARM-564;11.0;0.09090909090909091;0.0;0.0;0.0;0.0;0.0;0.09090909090909091
SWARM;368;SWARM-588;0.0;0.0;0.0;0.0;0.0;0.0;0.0;0.0
SWARM;369;SWARM-527;1.0;1.0;0.0;0.0;0.0;0.0;0.0;0.3593157003561627
SWARM;370;SWARM-615;41.0;0.024390243902439025;0.0;0.0;0.0;0.0;0.0;0.024390243902439025
SWARM;371;SWARM-635;3.0;0.3333333333333333;0.0;0.0;0.0;0.0;0.0;0.3333333333333333
SWARM;372;SWARM-571;1.0;1.0;0.0;0.0;0.0;0.0;0.0;1.0
SWARM;373;SWARM-575;6.0;0.16666666666666666;0.0;0.0;0.0;0.0;0.0;0.10020570225794107
SWARM;374;SWARM-657;1.0;1.0;0.0;0.0;0.0;0.0;0.0;1.0
SWARM;375;SWARM-662;66.0;0.015151515151515152;0.0;0.0;0.0;0.0;0.0;0.015151515151515152
SWARM;376;SWARM-667;1.0;1.0;0.0;0.0;0.0;0.0;0.0;0.5555555555555556
SWARM;377;SWARM-681;2.0;0.5;0.0;0.0;0.0;0.0;0.0;0.38785569105691053
SWARM;378;SWARM-690;3.0;0.3333333333333333;0.0;0.0;0.0;0.0;0.0;0.3666666666666667
SWARM;379;SWARM-697;2.0;0.5;0.0;0.0;0.0;0.0;0.0;0.5
SWARM;380;SWARM-700;2.0;0.5;0.0;0.0;0.0;0.0;0.0;0.5
SWARM;381;SWARM-710;2.0;0.5;0.0;0.0;0.0;0.0;0.0;0.3125
SWARM;382;SWARM-705;2.0;0.5;0.0;0.0;0.0;0.0;0.0;0.3026315789473684
SWARM;383;SWARM-543;1.0;1.0;0.0;0.0;0.0;0.0;0.0;0.5138888888888888
SWARM;384;SWARM-691;24.0;0.041666666666666664;0.0;0.0;0.0;0.0;0.0;0.041666666666666664
SWARM;385;SWARM-669;1.0;1.0;0.0;0.0;0.0;0.0;0.0;0.6111111111111112
SWARM;386;SWARM-671;2.0;0.5;0.0;0.0;0.0;0.0;0.0;0.5
SWARM;387;SWARM-757;11.0;0.09090909090909091;0.0;0.0;0.0;0.0;0.0;0.09090909090909091
SWARM;388;SWARM-762;0.0;0.0;0.0;0.0;0.0;0.0;0.0;0.0
SWARM;389;SWARM-844;14.0;0.07142857142857142;0.0;0.0;0.0;0.0;0.0;0.07142857142857142
SWARM;390;SWARM-846;1.0;1.0;0.0;0.0;0.0;0.0;0.0;0.48306010928961746
SWARM;391;SWARM-879;1.0;1.0;0.0;0.0;0.0;0.0;0.0;1.0
SWARM;392;SWARM-751;23.0;0.043478260869565216;0.0;0.0;0.0;0.0;0.0;0.0511512012882892
SWARM;393;SWARM-884;2.0;0.5;0.0;0.0;0.0;0.0;0.0;0.5
SWARM;394;SWARM-793;18.0;0.05555555555555555;0.0;0.0;0.0;0.0;0.0;0.07125603864734299
SWARM;395;SWARM-863;6.0;0.16666666666666666;0.0;0.0;0.0;0.0;0.0;0.16666666666666666
WFCORE;396;WFCORE-5;1.0;1.0;0.0;0.0;0.0;0.0;0.0;1.0
WFCORE;397;WFCORE-7;2.0;0.5;0.0;0.0;0.0;0.0;0.0;0.35
WFCORE;398;WFCORE-8;1.0;1.0;0.0;0.0;0.0;0.0;0.0;1.0
WFCORE;399;WFCORE-50;0.0;0.0;0.0;0.0;0.0;0.0;0.0;0.0
WFCORE;400;WFCORE-67;17.0;0.058823529411764705;0.0;0.0;0.0;0.0;0.0;0.043697478991596636
WFCORE;401;WFCORE-69;1.0;1.0;0.0;0.0;0.0;0.0;0.0;1.0
WFCORE;402;WFCORE-58;29.0;0.034482758620689655;0.0;0.0;0.0;0.0;0.0;0.013573453118932387
WFCORE;403;WFCORE-79;1.0;1.0;0.0;0.0;0.0;0.0;0.0;0.6111111111111112
WFCORE;404;WFCORE-71;5.0;0.2;0.0;0.0;0.0;0.0;0.0;0.22499999999999998
WFCORE;405;WFCORE-64;4.0;0.25;0.0;0.0;0.0;0.0;0.0;0.26785714285714285
WFCORE;406;WFCORE-88;3.0;0.3333333333333333;0.0;0.0;0.0;0.0;0.0;0.08180345427058582
WFCORE;407;WFCORE-82;1.0;1.0;0.0;0.0;0.0;0.0;0.0;0.2088062124374536
WFCORE;408;WFCORE-92;5.0;0.2;0.0;0.0;0.0;0.0;0.0;0.2
WFCORE;409;WFCORE-72;2.0;0.5;0.0;0.0;0.0;0.0;0.0;0.5
WFCORE;410;WFCORE-95;1.0;1.0;0.0;0.0;0.0;0.0;0.0;0.5935185185185184
WFCORE;411;WFCORE-46;7.0;0.14285714285714285;0.0;0.0;0.0;0.0;0.0;0.18715272870824812
WFCORE;412;WFCORE-117;302.0;0.0033112582781456954;0.0;0.0;0.0;0.0;0.0;0.0033112582781456954
WFCORE;413;WFCORE-125;3.0;0.3333333333333333;0.0;0.0;0.0;0.0;0.0;0.3333333333333333
WFCORE;414;WFCORE-128;2.0;0.5;0.0;0.0;0.0;0.0;0.0;0.2199874737784548
WFCORE;415;WFCORE-87;13.0;0.07692307692307693;0.0;0.0;0.0;0.0;0.0;0.04253736470776076
WFCORE;416;WFCORE-132;1.0;1.0;0.0;0.0;0.0;0.0;0.0;1.0
WFCORE;417;WFCORE-140;1.0;1.0;0.0;0.0;0.0;0.0;0.0;0.5232558139534883
WFCORE;418;WFCORE-154;3.0;0.3333333333333333;0.0;0.0;0.0;0.0;0.0;0.3333333333333333
WFCORE;419;WFCORE-205;1.0;1.0;0.0;0.0;0.0;0.0;0.0;1.0
WFCORE;420;WFCORE-191;3.0;0.3333333333333333;0.0;0.0;0.0;0.0;0.0;0.12647616611031245
WFCORE;421;WFCORE-190;1.0;1.0;0.0;0.0;0.0;0.0;0.0;1.0
WFCORE;422;WFCORE-196;2.0;0.5;0.0;0.0;0.0;0.0;0.0;0.4121447028423772
WFCORE;423;WFCORE-207;2.0;0.5;0.0;0.0;0.0;0.0;0.0;0.2916666666666667
WFCORE;424;WFCORE-233;100.0;0.01;0.0;0.0;0.0;0.0;0.0;0.01
WFCORE;425;WFCORE-226;1.0;1.0;0.0;0.0;0.0;0.0;0.0;1.0
WFCORE;426;WFCORE-221;1527.0;6.548788474132286E-4;0.0;0.0;0.0;0.0;0.0;6.548788474132286E-4
WFCORE;427;WFCORE-243;1.0;1.0;0.0;0.0;0.0;0.0;0.0;1.0
WFCORE;428;WFCORE-202;2.0;0.5;0.0;0.0;0.0;0.0;0.0;0.3928258967629046
WFCORE;429;WFCORE-268;17.0;0.058823529411764705;0.0;0.0;0.0;0.0;0.0;0.052667578659370724
WFCORE;430;WFCORE-210;1.0;1.0;0.0;0.0;0.0;0.0;0.0;1.0
WFCORE;431;WFCORE-213;4.0;0.25;0.0;0.0;0.0;0.0;0.0;0.2836579555890387
WFCORE;432;WFCORE-145;5.0;0.2;0.0;0.0;0.0;0.0;0.0;0.13846153846153847
WFCORE;433;WFCORE-283;64.0;0.015625;0.0;0.0;0.0;0.0;0.0;0.03337553861060548
WFCORE;434;WFCORE-286;7.0;0.14285714285714285;0.0;0.0;0.0;0.0;0.0;0.14285714285714285
WFCORE;435;WFCORE-285;6.0;0.16666666666666666;0.0;0.0;0.0;0.0;0.0;0.07023370381978768
WFCORE;436;WFCORE-439;12.0;0.08333333333333333;0.0;0.0;0.0;0.0;0.0;0.07285741372772088
WFCORE;437;WFCORE-449;1.0;1.0;0.0;0.0;0.0;0.0;0.0;1.0
WFCORE;438;WFCORE-267;3.0;0.3333333333333333;0.0;0.0;0.0;0.0;0.0;0.3333333333333333
WFCORE;439;WFCORE-438;2.0;0.5;0.0;0.0;0.0;0.0;0.0;0.5
WFCORE;440;WFCORE-451;1.0;1.0;0.0;0.0;0.0;0.0;0.0;0.6694756554307116
WFCORE;441;WFCORE-229;20.0;0.05;0.0;0.0;0.0;0.0;0.0;0.012374913681275163
WFCORE;442;WFCORE-484;3.0;0.3333333333333333;0.0;0.0;0.0;0.0;0.0;0.3333333333333333
WFCORE;443;WFCORE-492;1.0;1.0;0.0;0.0;0.0;0.0;0.0;0.8333333333333333
WFCORE;444;WFCORE-497;1.0;1.0;0.0;0.0;0.0;0.0;0.0;0.6781609195402298
WFCORE;445;WFCORE-501;1.0;1.0;0.0;0.0;0.0;0.0;0.0;0.5303030303030303
WFCORE;446;WFCORE-507;849.0;0.001177856301531213;0.0;0.0;0.0;0.0;0.0;0.001177856301531213
WFCORE;447;WFCORE-500;88.0;0.011363636363636364;0.0;0.0;0.0;0.0;0.0;0.011363636363636364
WFCORE;448;WFCORE-504;13.0;0.07692307692307693;0.0;0.0;0.0;0.0;0.0;0.04774283552268627
WFCORE;449;WFCORE-503;1.0;1.0;0.0;0.0;0.0;0.0;0.0;0.18080563108908215
WFCORE;450;WFCORE-513;1.0;1.0;0.0;0.0;0.0;0.0;0.0;1.0
WFCORE;451;WFCORE-514;1.0;1.0;0.0;0.0;0.0;0.0;0.0;1.0
WFCORE;452;WFCORE-505;1.0;1.0;0.0;0.0;0.0;0.0;0.0;1.0
WFCORE;453;WFCORE-495;59.0;0.01694915254237288;0.0;0.0;0.0;0.0;0.0;0.01694915254237288
WFCORE;454;WFCORE-499;3.0;0.3333333333333333;0.0;0.0;0.0;0.0;0.0;0.21984588409007014
WFCORE;455;WFCORE-534;10.0;0.1;0.0;0.0;0.0;0.0;0.0;0.07127659574468086
WFCORE;456;WFCORE-522;2.0;0.5;0.0;0.0;0.0;0.0;0.0;0.5
WFCORE;457;WFCORE-540;7.0;0.14285714285714285;0.0;0.0;0.0;0.0;0.0;0.04135485272007696
WFCORE;458;WFCORE-541;2.0;0.5;0.0;0.0;0.0;0.0;0.0;0.5
WFCORE;459;WFCORE-520;5.0;0.2;0.0;0.0;0.0;0.0;0.0;0.2
WFCORE;460;WFCORE-545;3.0;0.3333333333333333;0.0;0.0;0.0;0.0;0.0;0.1703030303030303
WFCORE;461;WFCORE-536;7.0;0.14285714285714285;0.0;0.0;0.0;0.0;0.0;0.1277777777777778
WFCORE;462;WFCORE-566;3.0;0.3333333333333333;0.0;0.0;0.0;0.0;0.0;0.18378392856203893
WFCORE;463;WFCORE-567;2.0;0.5;0.0;0.0;0.0;0.0;0.0;0.5
WFCORE;464;WFCORE-568;2.0;0.5;0.0;0.0;0.0;0.0;0.0;0.6388888888888888
WFCORE;465;WFCORE-564;2.0;0.5;0.0;0.0;0.0;0.0;0.0;0.26515151515151514
WFCORE;466;WFCORE-553;1.0;1.0;0.0;0.0;0.0;0.0;0.0;0.8416666666666666
WFCORE;467;WFCORE-552;1.0;1.0;0.0;0.0;0.0;0.0;0.0;1.0
WFCORE;468;WFCORE-581;9.0;0.1111111111111111;0.0;0.0;0.0;0.0;0.0;0.07553678865154274
WFCORE;469;WFCORE-547;1.0;1.0;0.0;0.0;0.0;0.0;0.0;0.5762108262108262
WFCORE;470;WFCORE-591;6.0;0.16666666666666666;0.0;0.0;0.0;0.0;0.0;0.16666666666666666
WFCORE;471;WFCORE-587;1.0;1.0;0.0;0.0;0.0;0.0;0.0;1.0
WFCORE;472;WFCORE-604;3.0;0.3333333333333333;0.0;0.0;0.0;0.0;0.0;0.28150093029359324
WFCORE;473;WFCORE-623;1.0;1.0;0.0;0.0;0.0;0.0;0.0;1.0
WFCORE;474;WFCORE-65;1.0;1.0;0.0;0.0;0.0;0.0;0.0;0.3508821130560261
WFCORE;475;WFCORE-632;4.0;0.25;0.0;0.0;0.0;0.0;0.0;0.1445869422486729
WFCORE;476;WFCORE-489;4.0;0.25;0.0;0.0;0.0;0.0;0.0;0.25
WFCORE;477;WFCORE-638;32.0;0.03125;0.0;0.0;0.0;0.0;0.0;0.03125
WFCORE;478;WFCORE-232;1.0;1.0;0.0;0.0;0.0;0.0;0.0;0.6129644038124878
WFCORE;479;WFCORE-619;1.0;1.0;0.0;0.0;0.0;0.0;0.0;1.0
WFCORE;480;WFCORE-627;1.0;1.0;0.0;0.0;0.0;0.0;0.0;1.0
WFCORE;481;WFCORE-626;24.0;0.041666666666666664;0.0;0.0;0.0;0.0;0.0;0.02638888888888889
WFCORE;482;WFCORE-580;1.0;1.0;0.0;0.0;0.0;0.0;0.0;0.5138888888888888
WFCORE;483;WFCORE-625;4.0;0.25;0.0;0.0;0.0;0.0;0.0;0.09028773397052968
WFCORE;484;WFCORE-230;19.0;0.05263157894736842;0.0;0.0;0.0;0.0;0.0;0.04044858255384571
WFCORE;485;WFCORE-114;3.0;0.3333333333333333;0.0;0.0;0.0;0.0;0.0;0.19556051587301584
WFCORE;486;WFCORE-677;1.0;1.0;0.0;0.0;0.0;0.0;0.0;0.41166272655634356
WFCORE;487;WFCORE-681;1.0;1.0;0.0;0.0;0.0;0.0;0.0;1.0
WFCORE;488;WFCORE-676;694.0;0.001440922190201729;0.0;0.0;0.0;0.0;0.0;0.0016404242965728055
WFCORE;489;WFCORE-657;2.0;0.5;0.0;0.0;0.0;0.0;0.0;0.5
WFCORE;490;WFCORE-684;1.0;1.0;0.0;0.0;0.0;0.0;0.0;1.0
WFCORE;491;WFCORE-687;2.0;0.5;0.0;0.0;0.0;0.0;0.0;0.36233143046248034
WFCORE;492;WFCORE-694;1.0;1.0;0.0;0.0;0.0;0.0;0.0;1.0
WFCORE;493;WFCORE-692;2.0;0.5;0.0;0.0;0.0;0.0;0.0;0.375
WFCORE;494;WFCORE-697;619.0;0.0016155088852988692;0.0;0.0;0.0;0.0;0.0;0.0016728063457636215
WFCORE;495;WFCORE-172;3.0;0.3333333333333333;0.0;0.0;0.0;0.0;0.0;0.3333333333333333
WFCORE;496;WFCORE-702;3.0;0.3333333333333333;0.0;0.0;0.0;0.0;0.0;0.29166666666666663
WFCORE;497;WFCORE-706;2.0;0.5;0.0;0.0;0.0;0.0;0.0;0.5
WFCORE;498;WFCORE-442;33.0;0.030303030303030304;0.0;0.0;0.0;0.0;0.0;0.030303030303030304
WFCORE;499;WFCORE-731;3.0;0.3333333333333333;0.0;0.0;0.0;0.0;0.0;0.3333333333333333
WFCORE;500;WFCORE-724;11.0;0.09090909090909091;0.0;0.0;0.0;0.0;0.0;0.07670454545454546
WFCORE;501;WFCORE-727;2.0;0.5;0.0;0.0;0.0;0.0;0.0;0.2269595176571921
WFCORE;502;WFCORE-716;343.0;0.0029154518950437317;0.0;0.0;0.0;0.0;0.0;0.0029154518950437317
WFCORE;503;WFCORE-752;64.0;0.015625;0.0;0.0;0.0;0.0;0.0;0.015625
WFCORE;504;WFCORE-763;342.0;0.0029239766081871343;0.0;0.0;0.0;0.0;0.0;0.0029029104942952964
WFCORE;505;WFCORE-765;12.0;0.08333333333333333;0.0;0.0;0.0;0.0;0.0;0.08333333333333333
WFCORE;506;WFCORE-754;108.0;0.009259259259259259;0.0;0.0;0.0;0.0;0.0;0.009259259259259259
WFCORE;507;WFCORE-769;2.0;0.5;0.0;0.0;0.0;0.0;0.0;0.3269230769230769
WFCORE;508;WFCORE-787;1.0;1.0;0.0;0.0;0.0;0.0;0.0;0.5416083916083916
WFCORE;509;WFCORE-779;1.0;1.0;0.0;0.0;0.0;0.0;0.0;0.6742424242424242
WFCORE;510;WFCORE-774;1.0;1.0;0.0;0.0;0.0;0.0;0.0;1.0
WFCORE;511;WFCORE-810;1.0;1.0;0.0;0.0;0.0;0.0;0.0;1.0
WFCORE;512;WFCORE-813;1.0;1.0;0.0;0.0;0.0;0.0;0.0;1.0
WFCORE;513;WFCORE-815;125.0;0.008;0.0;0.0;0.0;0.0;0.0;0.006887354625628052
WFCORE;514;WFCORE-755;2.0;0.5;0.0;0.0;0.0;0.0;0.0;0.5
WFCORE;515;WFCORE-816;10.0;0.1;0.0;0.0;0.0;0.0;0.0;0.047962890878422225
WFCORE;516;WFCORE-691;1.0;1.0;0.0;0.0;0.0;0.0;0.0;0.6257882882882883
WFCORE;517;WFCORE-809;1.0;1.0;0.0;0.0;0.0;0.0;0.0;0.4605280671068696
WFCORE;518;WFCORE-834;2.0;0.5;0.0;0.0;0.0;0.0;0.0;0.3288217117710205
WFCORE;519;WFCORE-849;1.0;1.0;0.0;0.0;0.0;0.0;0.0;1.0
WFCORE;520;WFCORE-870;4.0;0.25;0.0;0.0;0.0;0.0;0.0;0.25
WFCORE;521;WFCORE-858;2.0;0.5;0.0;0.0;0.0;0.0;0.0;0.5833333333333333
WFCORE;522;WFCORE-894;13.0;0.07692307692307693;0.0;0.0;0.0;0.0;0.0;0.0517948717948718
WFCORE;523;WFCORE-881;21.0;0.047619047619047616;0.0;0.0;0.0;0.0;0.0;0.047619047619047616
WFCORE;524;WFCORE-861;102.0;0.00980392156862745;0.0;0.0;0.0;0.0;0.0;0.00980392156862745
WFCORE;525;WFCORE-866;2.0;0.5;0.0;0.0;0.0;0.0;0.0;0.4117324561403508
WFCORE;526;WFCORE-839;1.0;1.0;0.0;0.0;0.0;0.0;0.0;0.28434612999148823
WFCORE;527;WFCORE-798;2.0;0.5;0.0;0.0;0.0;0.0;0.0;0.5
WFCORE;528;WFCORE-921;1.0;1.0;0.0;0.0;0.0;0.0;0.0;0.5015847860538827
WFCORE;529;WFCORE-922;87.0;0.011494252873563218;0.0;0.0;0.0;0.0;0.0;0.011760292229633844
WFCORE;530;WFCORE-907;6.0;0.16666666666666666;0.0;0.0;0.0;0.0;0.0;0.22619047619047616
WFCORE;531;WFCORE-904;2.0;0.5;0.0;0.0;0.0;0.0;0.0;0.22966363976464987
WFCORE;532;WFCORE-942;9.0;0.1111111111111111;0.0;0.0;0.0;0.0;0.0;0.1111111111111111
WFCORE;533;WFCORE-896;10.0;0.1;0.0;0.0;0.0;0.0;0.0;0.09082163920664352
WFCORE;534;WFCORE-955;4.0;0.25;0.0;0.0;0.0;0.0;0.0;0.1099923144488362
WFCORE;535;WFCORE-885;1.0;1.0;0.0;0.0;0.0;0.0;0.0;0.6984126984126983
WFCORE;536;WFCORE-961;1.0;1.0;0.0;0.0;0.0;0.0;0.0;0.7435897435897436
WFCORE;537;WFCORE-967;9.0;0.1111111111111111;0.0;0.0;0.0;0.0;0.0;0.058488106875203644
WFCORE;538;WFCORE-968;11.0;0.09090909090909091;0.0;0.0;0.0;0.0;0.0;0.09090909090909091
WFCORE;539;WFCORE-959;1.0;1.0;0.0;0.0;0.0;0.0;0.0;0.24978261965052098
WFCORE;540;WFCORE-868;325.0;0.003076923076923077;0.0;0.0;0.0;0.0;0.0;0.004705139707738099
WFCORE;541;WFCORE-977;8.0;0.125;0.0;0.0;0.0;0.0;0.0;0.125
WFCORE;542;WFCORE-980;13.0;0.07692307692307693;0.0;0.0;0.0;0.0;0.0;0.04088284596759173
WFCORE;543;WFCORE-579;1.0;1.0;0.0;0.0;0.0;0.0;0.0;1.0
WFCORE;544;WFCORE-876;87.0;0.011494252873563218;0.0;0.0;0.0;0.0;0.0;0.008374983491034228
WFCORE;545;WFCORE-939;29.0;0.034482758620689655;0.0;0.0;0.0;0.0;0.0;0.04889542292188054
WFCORE;546;WFCORE-981;1.0;1.0;0.0;0.0;0.0;0.0;0.0;0.18412819671862624
WFCORE;547;WFCORE-992;3.0;0.3333333333333333;0.0;0.0;0.0;0.0;0.0;0.3333333333333333
WFCORE;548;WFCORE-949;22.0;0.045454545454545456;0.0;0.0;0.0;0.0;0.0;0.05131135486794117
WFCORE;549;WFCORE-933;3.0;0.3333333333333333;0.0;0.0;0.0;0.0;0.0;0.24358974358974358
WFCORE;550;WFCORE-940;5.0;0.2;0.0;0.0;0.0;0.0;0.0;0.2
WFCORE;551;WFCORE-931;182.0;0.005494505494505495;0.0;0.0;0.0;0.0;0.0;0.005494505494505495
WFCORE;552;WFCORE-932;1.0;1.0;0.0;0.0;0.0;0.0;0.0;0.670138888888889
WFCORE;553;WFCORE-1007;8.0;0.125;0.0;0.0;0.0;0.0;0.0;0.1625
WFCORE;554;WFCORE-1014;1.0;1.0;0.0;0.0;0.0;0.0;0.0;0.5625
WFCORE;555;WFCORE-987;183.0;0.00546448087431694;0.0;0.0;0.0;0.0;0.0;0.00546448087431694
WFCORE;556;WFCORE-1020;5.0;0.2;0.0;0.0;0.0;0.0;0.0;0.2
WFCORE;557;WFCORE-1025;2.0;0.5;0.0;0.0;0.0;0.0;0.0;0.4127272727272727
WFCORE;558;WFCORE-948;3.0;0.3333333333333333;0.0;0.0;0.0;0.0;0.0;0.13273001508295626
WFCORE;559;WFCORE-1027;10.0;0.1;0.0;0.0;0.0;0.0;0.0;0.07591485951622932
WFCORE;560;WFCORE-1034;1.0;1.0;0.0;0.0;0.0;0.0;0.0;1.0
WFCORE;561;WFCORE-916;20.0;0.05;0.0;0.0;0.0;0.0;0.0;0.035101010101010105
WFCORE;562;WFCORE-997;182.0;0.005494505494505495;0.0;0.0;0.0;0.0;0.0;0.005973059198865651
WFCORE;563;WFCORE-1033;2.0;0.5;0.0;0.0;0.0;0.0;0.0;0.41666666666666663
WFCORE;564;WFCORE-1046;1.0;1.0;0.0;0.0;0.0;0.0;0.0;1.0
WFCORE;565;WFCORE-1041;1.0;1.0;0.0;0.0;0.0;0.0;0.0;1.0
WFCORE;566;WFCORE-1035;17.0;0.058823529411764705;0.0;0.0;0.0;0.0;0.0;0.058823529411764705
WFCORE;567;WFCORE-1047;16.0;0.0625;0.0;0.0;0.0;0.0;0.0;0.05419401148482363
WFCORE;568;WFCORE-1039;4.0;0.25;0.0;0.0;0.0;0.0;0.0;0.26785714285714285
WFCORE;569;WFCORE-1043;1.0;1.0;0.0;0.0;0.0;0.0;0.0;1.0
WFCORE;570;WFCORE-1063;4.0;0.25;0.0;0.0;0.0;0.0;0.0;0.325
WFCORE;571;WFCORE-1064;1.0;1.0;0.0;0.0;0.0;0.0;0.0;0.6
WFCORE;572;WFCORE-1048;1.0;1.0;0.0;0.0;0.0;0.0;0.0;0.75
WFCORE;573;WFCORE-1062;6.0;0.16666666666666666;0.0;0.0;0.0;0.0;0.0;0.06334142189701075
WFCORE;574;WFCORE-989;16.0;0.0625;0.0;0.0;0.0;0.0;0.0;0.07886904761904762
WFCORE;575;WFCORE-1002;1.0;1.0;0.0;0.0;0.0;0.0;0.0;1.0
WFCORE;576;WFCORE-1016;1.0;1.0;0.0;0.0;0.0;0.0;0.0;1.0
WFCORE;577;WFCORE-1081;1.0;1.0;0.0;0.0;0.0;0.0;0.0;0.5833333333333334
WFCORE;578;WFCORE-993;2.0;0.5;0.0;0.0;0.0;0.0;0.0;0.275
WFCORE;579;WFCORE-1075;1.0;1.0;0.0;0.0;0.0;0.0;0.0;0.5104061688807451
WFCORE;580;WFCORE-1086;1.0;1.0;0.0;0.0;0.0;0.0;0.0;0.5587878787878787
WFCORE;581;WFCORE-1087;1.0;1.0;0.0;0.0;0.0;0.0;0.0;0.4043956043956044
WFCORE;582;WFCORE-1120;16.0;0.0625;0.0;0.0;0.0;0.0;0.0;0.08388157894736842
WFCORE;583;WFCORE-1091;16.0;0.0625;0.0;0.0;0.0;0.0;0.0;0.044763513513513514
WFCORE;584;WFCORE-1077;2.0;0.5;0.0;0.0;0.0;0.0;0.0;0.5
WFCORE;585;WFCORE-1056;2.0;0.5;0.0;0.0;0.0;0.0;0.0;0.3553317053317054
WFCORE;586;WFCORE-1092;1.0;1.0;0.0;0.0;0.0;0.0;0.0;1.0
WFCORE;587;WFCORE-1115;333.0;0.003003003003003003;0.0;0.0;0.0;0.0;0.0;0.003003003003003003
WFCORE;588;WFCORE-1119;3.0;0.3333333333333333;0.0;0.0;0.0;0.0;0.0;0.3666666666666667
WFCORE;589;WFCORE-1127;1.0;1.0;0.0;0.0;0.0;0.0;0.0;0.5745607383639565
WFCORE;590;WFCORE-1138;6.0;0.16666666666666666;0.0;0.0;0.0;0.0;0.0;0.22619047619047616
WFCORE;591;WFCORE-1158;68.0;0.014705882352941176;0.0;0.0;0.0;0.0;0.0;0.011692064964039869
WFCORE;592;WFCORE-1143;37.0;0.02702702702702703;0.0;0.0;0.0;0.0;0.0;0.02702702702702703
WFCORE;593;WFCORE-892;434.0;0.002304147465437788;0.0;0.0;0.0;0.0;0.0;0.002304147465437788
WFCORE;594;WFCORE-1067;33.0;0.030303030303030304;0.0;0.0;0.0;0.0;0.0;0.047123711824286076
WFCORE;595;WFCORE-1168;1.0;1.0;0.0;0.0;0.0;0.0;0.0;1.0
WFCORE;596;WFCORE-1166;4.0;0.25;0.0;0.0;0.0;0.0;0.0;0.165
WFCORE;597;WFCORE-1136;7.0;0.14285714285714285;0.0;0.0;0.0;0.0;0.0;0.0732016210739615
WFCORE;598;WFCORE-1095;284.0;0.0035211267605633804;0.0;0.0;0.0;0.0;0.0;0.0035211267605633804
WFCORE;599;WFCORE-950;3.0;0.3333333333333333;0.0;0.0;0.0;0.0;0.0;0.16036036036036036
WFCORE;600;WFCORE-1188;9.0;0.1111111111111111;0.0;0.0;0.0;0.0;0.0;0.1388888888888889
WFCORE;601;WFCORE-1214;41.0;0.024390243902439025;0.0;0.0;0.0;0.0;0.0;0.03260328521652563
WFCORE;602;WFCORE-1134;13.0;0.07692307692307693;0.0;0.0;0.0;0.0;0.0;0.04509421293260518
WFCORE;603;WFCORE-1212;2.0;0.5;0.0;0.0;0.0;0.0;0.0;0.5
WFCORE;604;WFCORE-1213;1.0;1.0;0.0;0.0;0.0;0.0;0.0;0.625
WFCORE;605;WFCORE-1210;16.0;0.0625;0.0;0.0;0.0;0.0;0.0;0.058211725550435224
WFCORE;606;WFCORE-1240;1.0;1.0;0.0;0.0;0.0;0.0;0.0;1.0
WFCORE;607;WFCORE-1239;1.0;1.0;0.0;0.0;0.0;0.0;0.0;0.6233801362167845
WFCORE;608;WFCORE-1209;9.0;0.1111111111111111;0.0;0.0;0.0;0.0;0.0;0.11764309764309765
WFCORE;609;WFCORE-1198;87.0;0.011494252873563218;0.0;0.0;0.0;0.0;0.0;0.00735226287337872
WFCORE;610;WFCORE-1226;1.0;1.0;0.0;0.0;0.0;0.0;0.0;1.0
WFCORE;611;WFCORE-1296;1.0;1.0;0.0;0.0;0.0;0.0;0.0;1.0
WFCORE;612;WFCORE-1266;1.0;1.0;0.0;0.0;0.0;0.0;0.0;0.8333333333333333
WFCORE;613;WFCORE-1261;91.0;0.01098901098901099;0.0;0.0;0.0;0.0;0.0;0.011904761904761904
WFCORE;614;WFCORE-1292;3.0;0.3333333333333333;0.0;0.0;0.0;0.0;0.0;0.3666666666666667
WFCORE;615;WFCORE-1232;29.0;0.034482758620689655;0.0;0.0;0.0;0.0;0.0;0.02589482206602142
WFCORE;616;WFCORE-1257;1.0;1.0;0.0;0.0;0.0;0.0;0.0;0.7534843205574913
WFCORE;617;WFCORE-1331;4.0;0.25;0.0;0.0;0.0;0.0;0.0;0.16203703703703703
WFCORE;618;WFCORE-1281;1.0;1.0;0.0;0.0;0.0;0.0;0.0;0.5501056710109193
WFCORE;619;WFCORE-1288;23.0;0.043478260869565216;0.0;0.0;0.0;0.0;0.0;0.05906084122732225
WFCORE;620;WFCORE-1297;4.0;0.25;0.0;0.0;0.0;0.0;0.0;0.25
WFCORE;621;WFCORE-1311;20.0;0.05;0.0;0.0;0.0;0.0;0.0;0.05
WFCORE;622;WFCORE-1229;328.0;0.003048780487804878;0.0;0.0;0.0;0.0;0.0;0.003048780487804878
WFCORE;623;WFCORE-1309;16.0;0.0625;0.0;0.0;0.0;0.0;0.0;0.043166945140629354
WFCORE;624;WFCORE-1353;2.0;0.5;0.0;0.0;0.0;0.0;0.0;0.11603613997058661
WFCORE;625;WFCORE-1354;45.0;0.022222222222222223;0.0;0.0;0.0;0.0;0.0;0.024809741248097414
WFCORE;626;WFCORE-1369;1.0;1.0;0.0;0.0;0.0;0.0;0.0;1.0
WFCORE;627;WFCORE-1406;1.0;1.0;0.0;0.0;0.0;0.0;0.0;1.0
WFCORE;628;WFCORE-1418;1.0;1.0;0.0;0.0;0.0;0.0;0.0;0.2309809424809425
WFCORE;629;WFCORE-1432;1.0;1.0;0.0;0.0;0.0;0.0;0.0;1.0
WFCORE;630;WFCORE-1394;13.0;0.07692307692307693;0.0;0.0;0.0;0.0;0.0;0.07692307692307693
WFCORE;631;WFCORE-1114;28.0;0.03571428571428571;0.0;0.0;0.0;0.0;0.0;0.03571428571428571
WFCORE;632;WFCORE-1029;8.0;0.125;0.0;0.0;0.0;0.0;0.0;0.04842378645392504
WFCORE;633;WFCORE-1263;4.0;0.25;0.0;0.0;0.0;0.0;0.0;0.25
WFCORE;634;WFCORE-1042;5.0;0.2;0.0;0.0;0.0;0.0;0.0;0.2
WFCORE;635;WFCORE-1306;0.0;0.0;0.0;0.0;0.0;0.0;0.0;0.0
WFCORE;636;WFCORE-794;1.0;1.0;0.0;0.0;0.0;0.0;0.0;1.0
WFCORE;637;WFCORE-1370;25.0;0.04;0.0;0.0;0.0;0.0;0.0;0.04
WFCORE;638;WFCORE-1397;1.0;1.0;0.0;0.0;0.0;0.0;0.0;0.4983164983164983
WFCORE;639;WFCORE-1426;1.0;1.0;0.0;0.0;0.0;0.0;0.0;1.0
WFCORE;640;WFCORE-1398;2.0;0.5;0.0;0.0;0.0;0.0;0.0;0.5
WFCORE;641;WFCORE-683;1.0;1.0;0.0;0.0;0.0;0.0;0.0;1.0
WFCORE;642;WFCORE-1260;1.0;1.0;0.0;0.0;0.0;0.0;0.0;0.8099999999999999
WFCORE;643;WFCORE-1428;2.0;0.5;0.0;0.0;0.0;0.0;0.0;0.5
WFCORE;644;WFCORE-1430;1.0;1.0;0.0;0.0;0.0;0.0;0.0;1.0
WFCORE;645;WFCORE-1439;105.0;0.009523809523809525;0.0;0.0;0.0;0.0;0.0;0.00569800770350743
WFCORE;646;WFCORE-1171;1.0;1.0;0.0;0.0;0.0;0.0;0.0;0.6666666666666666
WFCORE;647;WFCORE-1170;1.0;1.0;0.0;0.0;0.0;0.0;0.0;0.5679920529381965
WFCORE;648;WFCORE-1347;1.0;1.0;0.0;0.0;0.0;0.0;0.0;0.5255707762557078
WFCORE;649;WFCORE-1420;16.0;0.0625;0.0;0.0;0.0;0.0;0.0;0.04791666666666666
WFCORE;650;WFCORE-1435;17.0;0.058823529411764705;0.0;0.0;0.0;0.0;0.0;0.03590527119938885
WFCORE;651;WFCORE-1437;5.0;0.2;0.0;0.0;0.0;0.0;0.0;0.2
WFCORE;652;WFCORE-1346;14.0;0.07142857142857142;0.0;0.0;0.0;0.0;0.0;0.04045362220717671
WFCORE;653;WFCORE-1399;130.0;0.007692307692307693;0.0;0.0;0.0;0.0;0.0;0.010695468914646997
WFCORE;654;WFCORE-1231;10.0;0.1;0.0;0.0;0.0;0.0;0.0;0.09741765846749972
WFCORE;655;WFCORE-701;9.0;0.1111111111111111;0.0;0.0;0.0;0.0;0.0;0.1111111111111111
WFCORE;656;WFCORE-1452;2.0;0.5;0.0;0.0;0.0;0.0;0.0;0.2008547008547009
WFCORE;657;WFCORE-1448;15.0;0.06666666666666667;0.0;0.0;0.0;0.0;0.0;0.07248224065807414
WFCORE;658;WFCORE-1450;1.0;1.0;0.0;0.0;0.0;0.0;0.0;1.0
WFCORE;659;WFCORE-1453;7.0;0.14285714285714285;0.0;0.0;0.0;0.0;0.0;0.13303727718822062
WFCORE;660;WFCORE-1462;2.0;0.5;0.0;0.0;0.0;0.0;0.0;0.5
WFCORE;661;WFCORE-263;2.0;0.5;0.0;0.0;0.0;0.0;0.0;0.23842408203111448
WFCORE;662;WFCORE-1464;152.0;0.006578947368421052;0.0;0.0;0.0;0.0;0.0;0.006578947368421052
WFCORE;663;WFCORE-1315;1.0;1.0;0.0;0.0;0.0;0.0;0.0;0.5263157894736842
WFCORE;664;WFCORE-1333;6.0;0.16666666666666666;0.0;0.0;0.0;0.0;0.0;0.0992063492063492
WFCORE;665;WFCORE-1373;85.0;0.011764705882352941;0.0;0.0;0.0;0.0;0.0;0.011764705882352941
WFCORE;666;WFCORE-1028;9.0;0.1111111111111111;0.0;0.0;0.0;0.0;0.0;0.06413604242889569
WFCORE;667;WFCORE-1395;31.0;0.03225806451612903;0.0;0.0;0.0;0.0;0.0;0.03612903225806452
WFCORE;668;WFCORE-1456;1.0;1.0;0.0;0.0;0.0;0.0;0.0;0.95
WFCORE;669;WFCORE-1471;1.0;1.0;0.0;0.0;0.0;0.0;0.0;0.335676925409339
WFCORE;670;WFCORE-1486;1.0;1.0;0.0;0.0;0.0;0.0;0.0;1.0
WFCORE;671;WFCORE-1470;2.0;0.5;0.0;0.0;0.0;0.0;0.0;0.5833333333333333
WFCORE;672;WFCORE-1501;3.0;0.3333333333333333;0.0;0.0;0.0;0.0;0.0;0.13726495726495724
WFCORE;673;WFCORE-1522;1.0;1.0;0.0;0.0;0.0;0.0;0.0;1.0
WFCORE;674;WFCORE-1525;1.0;1.0;0.0;0.0;0.0;0.0;0.0;0.5053475935828877
WFCORE;675;WFCORE-1546;44.0;0.022727272727272728;0.0;0.0;0.0;0.0;0.0;0.014245480744039822
WFCORE;676;WFCORE-1490;2650.0;3.773584905660377E-4;0.0;0.0;0.0;0.0;0.0;3.773584905660377E-4
WFCORE;677;WFCORE-1557;1.0;1.0;0.0;0.0;0.0;0.0;0.0;1.0
WFCORE;678;WFCORE-1491;1568.0;6.377551020408163E-4;0.0;0.0;0.0;0.0;0.0;6.377551020408163E-4
WFCORE;679;WFCORE-1493;2.0;0.5;0.0;0.0;0.0;0.0;0.0;0.5
WFCORE;680;WFCORE-1554;1.0;1.0;0.0;0.0;0.0;0.0;0.0;1.0
WFCORE;681;WFCORE-1572;14.0;0.07142857142857142;0.0;0.0;0.0;0.0;0.0;0.09115530762389845
WFCORE;682;WFCORE-1570;6.0;0.16666666666666666;0.0;0.0;0.0;0.0;0.0;0.1652046783625731
WFCORE;683;WFCORE-1474;9.0;0.1111111111111111;0.0;0.0;0.0;0.0;0.0;0.09259259259259259
WFCORE;684;WFCORE-1595;23.0;0.043478260869565216;0.0;0.0;0.0;0.0;0.0;0.043478260869565216
WFCORE;685;WFCORE-1528;57.0;0.017543859649122806;0.0;0.0;0.0;0.0;0.0;0.010656206468326608
WFCORE;686;WFCORE-1611;588.0;0.0017006802721088435;0.0;0.0;0.0;0.0;0.0;0.0017006802721088435
WFCORE;687;WFCORE-1578;16.0;0.0625;0.0;0.0;0.0;0.0;0.0;0.07188027723050942
WFCORE;688;WFCORE-1625;3.0;0.3333333333333333;0.0;0.0;0.0;0.0;0.0;0.10724480384205588
WFCORE;689;WFCORE-1617;92.0;0.010869565217391304;0.0;0.0;0.0;0.0;0.0;0.012526981190255936
WFCORE;690;WFCORE-1607;8.0;0.125;0.0;0.0;0.0;0.0;0.0;0.125
WFCORE;691;WFCORE-1523;1.0;1.0;0.0;0.0;0.0;0.0;0.0;0.5040322580645161
WFCORE;692;WFCORE-1644;1.0;1.0;0.0;0.0;0.0;0.0;0.0;1.0
WFCORE;693;WFCORE-1635;5.0;0.2;0.0;0.0;0.0;0.0;0.0;0.2
WFCORE;694;WFCORE-1627;4.0;0.25;0.0;0.0;0.0;0.0;0.0;0.15833333333333333
WFCORE;695;WFCORE-1647;2.0;0.5;0.0;0.0;0.0;0.0;0.0;0.5
WFCORE;696;WFCORE-1159;9.0;0.1111111111111111;0.0;0.0;0.0;0.0;0.0;0.04472900064061717
WFCORE;697;WFCORE-1640;2.0;0.5;0.0;0.0;0.0;0.0;0.0;0.25238663484486873
WFCORE;698;WFCORE-1481;198.0;0.005050505050505051;0.0;0.0;0.0;0.0;0.0;0.009573300958283236
WFCORE;699;WFCORE-1563;1.0;1.0;0.0;0.0;0.0;0.0;0.0;1.0
WFCORE;700;WFCORE-1592;1.0;1.0;0.0;0.0;0.0;0.0;0.0;0.5181818181818182
WFCORE;701;WFCORE-1699;1.0;1.0;0.0;0.0;0.0;0.0;0.0;1.0
WFCORE;702;WFCORE-1590;29.0;0.034482758620689655;0.0;0.0;0.0;0.0;0.0;0.034535661422071165
WFCORE;703;WFCORE-1706;1.0;1.0;0.0;0.0;0.0;0.0;0.0;1.0
WFCORE;704;WFCORE-1710;2.0;0.5;0.0;0.0;0.0;0.0;0.0;0.5
WFCORE;705;WFCORE-1686;4.0;0.25;0.0;0.0;0.0;0.0;0.0;0.14347032879585825
WFCORE;706;WFCORE-1687;2.0;0.5;0.0;0.0;0.0;0.0;0.0;0.5
WFCORE;707;WFCORE-1579;1.0;1.0;0.0;0.0;0.0;0.0;0.0;0.33210772833723656
WFCORE;708;WFCORE-1718;5.0;0.2;0.0;0.0;0.0;0.0;0.0;0.13696969696969696
WFCORE;709;WFCORE-1715;5.0;0.2;0.0;0.0;0.0;0.0;0.0;0.2
WFCORE;710;WFCORE-1743;1.0;1.0;0.0;0.0;0.0;0.0;0.0;1.0
WFCORE;711;WFCORE-1642;2.0;0.5;0.0;0.0;0.0;0.0;0.0;0.5926190476190476
WFCORE;712;WFCORE-1708;3.0;0.3333333333333333;0.0;0.0;0.0;0.0;0.0;0.3333333333333333
WFCORE;713;WFCORE-1756;18.0;0.05555555555555555;0.0;0.0;0.0;0.0;0.0;0.04316239316239316
WFCORE;714;WFCORE-1714;56.0;0.017857142857142856;0.0;0.0;0.0;0.0;0.0;0.017857142857142856
WFCORE;715;WFCORE-1765;2.0;0.5;0.0;0.0;0.0;0.0;0.0;0.5
WFCORE;716;WFCORE-1771;5.0;0.2;0.0;0.0;0.0;0.0;0.0;0.225
WFCORE;717;WFCORE-1785;1.0;1.0;0.0;0.0;0.0;0.0;0.0;0.5900383141762452
WFCORE;718;WFCORE-1761;3.0;0.3333333333333333;0.0;0.0;0.0;0.0;0.0;0.3333333333333333
WFCORE;719;WFCORE-1807;1.0;1.0;0.0;0.0;0.0;0.0;0.0;1.0
WFCORE;720;WFCORE-1657;17.0;0.058823529411764705;0.0;0.0;0.0;0.0;0.0;0.058823529411764705
WFCORE;721;WFCORE-1793;10.0;0.1;0.0;0.0;0.0;0.0;0.0;0.08448275862068966
WFCORE;722;WFCORE-1799;1.0;1.0;0.0;0.0;0.0;0.0;0.0;1.0
WFCORE;723;WFCORE-1812;11.0;0.09090909090909091;0.0;0.0;0.0;0.0;0.0;0.09090909090909091
WFCORE;724;WFCORE-1821;1.0;1.0;0.0;0.0;0.0;0.0;0.0;1.0
WFCORE;725;WFCORE-1824;1.0;1.0;0.0;0.0;0.0;0.0;0.0;0.6254901960784314
WFCORE;726;WFCORE-1815;7.0;0.14285714285714285;0.0;0.0;0.0;0.0;0.0;0.14285714285714285
WFCORE;727;WFCORE-1805;4.0;0.25;0.0;0.0;0.0;0.0;0.0;0.25
WFCORE;728;WFCORE-1479;3.0;0.3333333333333333;0.0;0.0;0.0;0.0;0.0;0.3333333333333333
WFCORE;729;WFCORE-1846;6.0;0.16666666666666666;0.0;0.0;0.0;0.0;0.0;0.05467398208908131
WFCORE;730;WFCORE-1847;1.0;1.0;0.0;0.0;0.0;0.0;0.0;0.4452380952380952
WFCORE;731;WFCORE-1851;53.0;0.018867924528301886;0.0;0.0;0.0;0.0;0.0;0.027615780445969122
WFCORE;732;WFCORE-1869;1.0;1.0;0.0;0.0;0.0;0.0;0.0;1.0
WFCORE;733;WFCORE-1864;48.0;0.020833333333333332;0.0;0.0;0.0;0.0;0.0;0.024501173708920188
WFCORE;734;WFCORE-1845;1.0;1.0;0.0;0.0;0.0;0.0;0.0;0.6222669449413635
WFCORE;735;WFCORE-1908;7.0;0.14285714285714285;0.0;0.0;0.0;0.0;0.0;0.051760473452798945
WFCORE;736;WFCORE-1915;5.0;0.2;0.0;0.0;0.0;0.0;0.0;0.2
WFCORE;737;WFCORE-1552;129.0;0.007751937984496124;0.0;0.0;0.0;0.0;0.0;0.009557787174066244
WFCORE;738;WFCORE-1936;10.0;0.1;0.0;0.0;0.0;0.0;0.0;0.0696078431372549
WFCORE;739;WFCORE-1896;68.0;0.014705882352941176;0.0;0.0;0.0;0.0;0.0;0.023042550353474727
WFCORE;740;WFCORE-1951;261.0;0.0038314176245210726;0.0;0.0;0.0;0.0;0.0;0.0028531890764091246
WFCORE;741;WFCORE-1928;13.0;0.07692307692307693;0.0;0.0;0.0;0.0;0.0;0.06477732793522267
WFCORE;742;WFCORE-1959;43.0;0.023255813953488372;0.0;0.0;0.0;0.0;0.0;0.023255813953488372
WFCORE;743;WFCORE-1918;1.0;1.0;0.0;0.0;0.0;0.0;0.0;0.5014005602240896
WFCORE;744;WFCORE-1731;1.0;1.0;0.0;0.0;0.0;0.0;0.0;1.0
WFCORE;745;WFCORE-1975;4.0;0.25;0.0;0.0;0.0;0.0;0.0;0.25
WFCORE;746;WFCORE-1980;16.0;0.0625;0.0;0.0;0.0;0.0;0.0;0.025518970858785767
WFCORE;747;WFCORE-1997;33.0;0.030303030303030304;0.0;0.0;0.0;0.0;0.0;0.030303030303030304
WFCORE;748;WFCORE-1992;43.0;0.023255813953488372;0.0;0.0;0.0;0.0;0.0;0.013131666375240426
WFCORE;749;WFCORE-2006;1.0;1.0;0.0;0.0;0.0;0.0;0.0;0.5769230769230769
WFCORE;750;WFCORE-1922;138.0;0.007246376811594203;0.0;0.0;0.0;0.0;0.0;0.0062875008724718375
WFCORE;751;WFCORE-2013;2.0;0.5;0.0;0.0;0.0;0.0;0.0;0.5
WFCORE;752;WFCORE-2008;15.0;0.06666666666666667;0.0;0.0;0.0;0.0;0.0;0.06666666666666667
WFCORE;753;WFCORE-2017;0.0;0.0;0.0;0.0;0.0;0.0;0.0;0.0
WFCORE;754;WFCORE-2026;1.0;1.0;0.0;0.0;0.0;0.0;0.0;1.0
WFCORE;755;WFCORE-2021;2.0;0.5;0.0;0.0;0.0;0.0;0.0;0.5
WFCORE;756;WFCORE-2083;25.0;0.04;0.0;0.0;0.0;0.0;0.0;0.025182534906684706
ENTESB;757;ENTESB-102;0.0;0.0;0.0;0.0;0.0;0.0;0.0;0.0
ENTESB;758;ENTESB-241;0.0;0.0;0.0;0.0;0.0;0.0;0.0;0.0
ENTESB;759;ENTESB-257;0.0;0.0;0.0;0.0;0.0;0.0;0.0;0.0
ENTESB;760;ENTESB-418;0.0;0.0;0.0;0.0;0.0;0.0;0.0;0.0
ENTESB;761;ENTESB-419;0.0;0.0;0.0;0.0;0.0;0.0;0.0;0.0
ENTESB;762;ENTESB-498;0.0;0.0;0.0;0.0;0.0;0.0;0.0;0.0
ENTESB;763;ENTESB-522;0.0;0.0;0.0;0.0;0.0;0.0;0.0;0.0
ENTESB;764;ENTESB-523;0.0;0.0;0.0;0.0;0.0;0.0;0.0;0.0
ENTESB;765;ENTESB-591;0.0;0.0;0.0;0.0;0.0;0.0;0.0;0.0
ENTESB;766;ENTESB-587;0.0;0.0;0.0;0.0;0.0;0.0;0.0;0.0
ENTESB;767;ENTESB-601;0.0;0.0;0.0;0.0;0.0;0.0;0.0;0.0
ENTESB;768;ENTESB-648;0.0;0.0;0.0;0.0;0.0;0.0;0.0;0.0
ENTESB;769;ENTESB-652;0.0;0.0;0.0;0.0;0.0;0.0;0.0;0.0
ENTESB;770;ENTESB-665;0.0;0.0;0.0;0.0;0.0;0.0;0.0;0.0
ENTESB;771;ENTESB-693;0.0;0.0;0.0;0.0;0.0;0.0;0.0;0.0
ENTESB;772;ENTESB-737;0.0;0.0;0.0;0.0;0.0;0.0;0.0;0.0
ENTESB;773;ENTESB-605;0.0;0.0;0.0;0.0;0.0;0.0;0.0;0.0
ENTESB;774;ENTESB-937;0.0;0.0;0.0;0.0;0.0;0.0;0.0;0.0
ENTESB;775;ENTESB-932;0.0;0.0;0.0;0.0;0.0;0.0;0.0;0.0
ENTESB;776;ENTESB-936;0.0;0.0;0.0;0.0;0.0;0.0;0.0;0.0
ENTESB;777;ENTESB-1035;0.0;0.0;0.0;0.0;0.0;0.0;0.0;0.0
ENTESB;778;ENTESB-1150;0.0;0.0;0.0;0.0;0.0;0.0;0.0;0.0
ENTESB;779;ENTESB-1236;0.0;0.0;0.0;0.0;0.0;0.0;0.0;0.0
ENTESB;780;ENTESB-1225;0.0;0.0;0.0;0.0;0.0;0.0;0.0;0.0
ENTESB;781;ENTESB-1249;0.0;0.0;0.0;0.0;0.0;0.0;0.0;0.0
ENTESB;782;ENTESB-1181;0.0;0.0;0.0;0.0;0.0;0.0;0.0;0.0
ENTESB;783;ENTESB-1260;0.0;0.0;0.0;0.0;0.0;0.0;0.0;0.0
ENTESB;784;ENTESB-1154;0.0;0.0;0.0;0.0;0.0;0.0;0.0;0.0
ENTESB;785;ENTESB-2202;6.0;0.16666666666666666;0.0;0.0;0.0;0.0;0.0;0.16666666666666666
ENTESB;786;ENTESB-2305;0.0;0.0;0.0;0.0;0.0;0.0;0.0;0.0
ENTESB;787;ENTESB-2592;2.0;0.5;0.0;0.0;0.0;0.0;0.0;0.2669491525423729
ENTESB;788;ENTESB-2620;2.0;0.5;0.0;0.0;0.0;0.0;0.0;0.5
ENTESB;789;ENTESB-2582;31.0;0.03225806451612903;0.0;0.0;0.0;0.0;0.0;0.041940279719474956
ENTESB;790;ENTESB-2910;40.0;0.025;0.0;0.0;0.0;0.0;0.0;0.025
ENTESB;791;ENTESB-2913;81.0;0.012345679012345678;0.0;0.0;0.0;0.0;0.0;0.04151508668655252
ENTESB;792;ENTESB-2980;1.0;1.0;0.0;0.0;0.0;0.0;0.0;0.5295724693251533
ENTESB;793;ENTESB-3008;42.0;0.023809523809523808;0.0;0.0;0.0;0.0;0.0;0.059489461435738855
ENTESB;794;ENTESB-3072;10.0;0.1;0.0;0.0;0.0;0.0;0.0;0.06175613658372279
ENTESB;795;ENTESB-2787;6.0;0.16666666666666666;0.0;0.0;0.0;0.0;0.0;0.21510388316798051
ENTESB;796;ENTESB-3040;1.0;1.0;0.0;0.0;0.0;0.0;0.0;0.7000000000000001
ENTESB;797;ENTESB-3276;1.0;1.0;0.0;0.0;0.0;0.0;0.0;0.5769230769230769
ENTESB;798;ENTESB-3522;0.0;0.0;0.0;0.0;0.0;0.0;0.0;0.0
ENTESB;799;ENTESB-3457;0.0;0.0;0.0;0.0;0.0;0.0;0.0;0.0
ENTESB;800;ENTESB-3099;9.0;0.1111111111111111;0.0;0.0;0.0;0.0;0.0;0.1111111111111111
ENTESB;801;ENTESB-4961;1.0;1.0;0.0;0.0;0.0;0.0;0.0;0.8041666666666667
ENTESB;802;ENTESB-5213;1.0;1.0;0.0;0.0;0.0;0.0;0.0;0.8998396078559122
ENTESB;803;ENTESB-4622;1.0;1.0;0.0;0.0;0.0;0.0;0.0;0.6999104905119943
AMQP;804;AMQP-38;6.0;0.16666666666666666;0.0;0.0;0.0;0.0;0.0;0.1388888888888889
AMQP;805;AMQP-73;1.0;1.0;0.0;0.0;0.0;0.0;0.0;0.4508297258297258
AMQP;806;AMQP-65;1.0;1.0;0.0;0.0;0.0;0.0;0.0;0.7611111111111111
AMQP;807;AMQP-99;7.0;0.14285714285714285;0.0;0.0;0.0;0.0;0.0;0.14285714285714285
AMQP;808;AMQP-109;3.0;0.3333333333333333;0.0;0.0;0.0;0.0;0.0;0.3333333333333333
AMQP;809;AMQP-121;9.0;0.1111111111111111;0.0;0.0;0.0;0.0;0.0;0.1111111111111111
AMQP;810;AMQP-122;4.0;0.25;0.0;0.0;0.0;0.0;0.0;0.19087151883204515
AMQP;811;AMQP-124;3.0;0.3333333333333333;0.0;0.0;0.0;0.0;0.0;0.41666666666666663
AMQP;812;AMQP-125;1.0;1.0;0.0;0.0;0.0;0.0;0.0;0.5192982456140351
AMQP;813;AMQP-148;1.0;1.0;0.0;0.0;0.0;0.0;0.0;0.7380952380952381
AMQP;814;AMQP-151;20.0;0.05;0.0;0.0;0.0;0.0;0.0;0.05
AMQP;815;AMQP-150;5.0;0.2;0.0;0.0;0.0;0.0;0.0;0.3638095238095238
AMQP;816;AMQP-164;50.0;0.02;0.0;0.0;0.0;0.0;0.0;0.04456304282719377
AMQP;817;AMQP-165;1.0;1.0;0.0;0.0;0.0;0.0;0.0;1.0
AMQP;818;AMQP-168;1.0;1.0;0.0;0.0;0.0;0.0;0.0;0.633372641509434
AMQP;819;AMQP-170;3.0;0.3333333333333333;0.0;0.0;0.0;0.0;0.0;0.3333333333333333
AMQP;820;AMQP-179;1.0;1.0;0.0;0.0;0.0;0.0;0.0;1.0
AMQP;821;AMQP-223;1.0;1.0;0.0;0.0;0.0;0.0;0.0;1.0
AMQP;822;AMQP-231;7.0;0.14285714285714285;0.0;0.0;0.0;0.0;0.0;0.1649436090225564
AMQP;823;AMQP-233;1.0;1.0;0.0;0.0;0.0;0.0;0.0;0.6341698841698842
AMQP;824;AMQP-232;51.0;0.0196078431372549;0.0;0.0;0.0;0.0;0.0;0.03042437632329927
AMQP;825;AMQP-243;1.0;1.0;0.0;0.0;0.0;0.0;0.0;1.0
AMQP;826;AMQP-242;1.0;1.0;0.0;0.0;0.0;0.0;0.0;1.0
AMQP;827;AMQP-190;7.0;0.14285714285714285;0.0;0.0;0.0;0.0;0.0;0.14441798941798942
AMQP;828;AMQP-250;19.0;0.05263157894736842;0.0;0.0;0.0;0.0;0.0;0.06979405034324943
AMQP;829;AMQP-249;1.0;1.0;0.0;0.0;0.0;0.0;0.0;0.510989010989011
AMQP;830;AMQP-252;1.0;1.0;0.0;0.0;0.0;0.0;0.0;1.0
AMQP;831;AMQP-260;3.0;0.3333333333333333;0.0;0.0;0.0;0.0;0.0;0.24801587301587302
AMQP;832;AMQP-262;3.0;0.3333333333333333;0.0;0.0;0.0;0.0;0.0;0.41666666666666663
AMQP;833;AMQP-272;1.0;1.0;0.0;0.0;0.0;0.0;0.0;1.0
AMQP;834;AMQP-275;2.0;0.5;0.0;0.0;0.0;0.0;0.0;0.215034965034965
AMQP;835;AMQP-274;1.0;1.0;0.0;0.0;0.0;0.0;0.0;0.44045454545454543
AMQP;836;AMQP-280;5.0;0.2;0.0;0.0;0.0;0.0;0.0;0.2
AMQP;837;AMQP-268;1.0;1.0;0.0;0.0;0.0;0.0;0.0;0.4175438596491228
AMQP;838;AMQP-281;1.0;1.0;0.0;0.0;0.0;0.0;0.0;0.8333333333333333
AMQP;839;AMQP-282;1.0;1.0;0.0;0.0;0.0;0.0;0.0;0.36924537256763174
AMQP;840;AMQP-304;4.0;0.25;0.0;0.0;0.0;0.0;0.0;0.22235220085294416
AMQP;841;AMQP-307;1.0;1.0;0.0;0.0;0.0;0.0;0.0;0.15020815499759935
AMQP;842;AMQP-309;1.0;1.0;0.0;0.0;0.0;0.0;0.0;0.5916666666666667
AMQP;843;AMQP-286;11.0;0.09090909090909091;0.0;0.0;0.0;0.0;0.0;0.11202229209458
AMQP;844;AMQP-327;1.0;1.0;0.0;0.0;0.0;0.0;0.0;1.0
AMQP;845;AMQP-331;1.0;1.0;0.0;0.0;0.0;0.0;0.0;1.0
AMQP;846;AMQP-330;1.0;1.0;0.0;0.0;0.0;0.0;0.0;0.4446457326892109
AMQP;847;AMQP-332;14.0;0.07142857142857142;0.0;0.0;0.0;0.0;0.0;0.06498211932994542
AMQP;848;AMQP-290;17.0;0.058823529411764705;0.0;0.0;0.0;0.0;0.0;0.08973068394024276
AMQP;849;AMQP-338;1.0;1.0;0.0;0.0;0.0;0.0;0.0;0.8666666666666667
AMQP;850;AMQP-340;4.0;0.25;0.0;0.0;0.0;0.0;0.0;0.1446031746031746
AMQP;851;AMQP-355;2.0;0.5;0.0;0.0;0.0;0.0;0.0;0.5
AMQP;852;AMQP-359;1.0;1.0;0.0;0.0;0.0;0.0;0.0;1.0
AMQP;853;AMQP-363;1.0;1.0;0.0;0.0;0.0;0.0;0.0;1.0
AMQP;854;AMQP-365;2.0;0.5;0.0;0.0;0.0;0.0;0.0;0.3983333333333333
AMQP;855;AMQP-369;2.0;0.5;0.0;0.0;0.0;0.0;0.0;0.38221153846153844
AMQP;856;AMQP-371;12.0;0.08333333333333333;0.0;0.0;0.0;0.0;0.0;0.08333333333333333
AMQP;857;AMQP-383;1.0;1.0;0.0;0.0;0.0;0.0;0.0;0.652027027027027
AMQP;858;AMQP-384;1.0;1.0;0.0;0.0;0.0;0.0;0.0;1.0
AMQP;859;AMQP-385;1.0;1.0;0.0;0.0;0.0;0.0;0.0;0.5909090909090909
AMQP;860;AMQP-396;2.0;0.5;0.0;0.0;0.0;0.0;0.0;0.275
AMQP;861;AMQP-398;1.0;1.0;0.0;0.0;0.0;0.0;0.0;0.5666666666666667
AMQP;862;AMQP-421;2.0;0.5;0.0;0.0;0.0;0.0;0.0;0.5833333333333333
AMQP;863;AMQP-351;2.0;0.5;0.0;0.0;0.0;0.0;0.0;0.5833333333333333
AMQP;864;AMQP-432;2.0;0.5;0.0;0.0;0.0;0.0;0.0;0.5
AMQP;865;AMQP-434;3.0;0.3333333333333333;0.0;0.0;0.0;0.0;0.0;0.3333333333333333
AMQP;866;AMQP-438;2.0;0.5;0.0;0.0;0.0;0.0;0.0;0.5
AMQP;867;AMQP-446;1.0;1.0;0.0;0.0;0.0;0.0;0.0;0.5454545454545454
AMQP;868;AMQP-463;1.0;1.0;0.0;0.0;0.0;0.0;0.0;0.5825825825825826
AMQP;869;AMQP-447;2.0;0.5;0.0;0.0;0.0;0.0;0.0;0.39285714285714285
AMQP;870;AMQP-468;2.0;0.5;0.0;0.0;0.0;0.0;0.0;0.3703703703703704
AMQP;871;AMQP-470;4.0;0.25;0.0;0.0;0.0;0.0;0.0;0.1527777777777778
AMQP;872;AMQP-472;1.0;1.0;0.0;0.0;0.0;0.0;0.0;0.3384607389647712
AMQP;873;AMQP-487;3.0;0.3333333333333333;0.0;0.0;0.0;0.0;0.0;0.22549019607843135
AMQP;874;AMQP-490;2.0;0.5;0.0;0.0;0.0;0.0;0.0;0.375
AMQP;875;AMQP-481;7.0;0.14285714285714285;0.0;0.0;0.0;0.0;0.0;0.10543403964456595
AMQP;876;AMQP-469;1.0;1.0;0.0;0.0;0.0;0.0;0.0;0.6979166666666666
AMQP;877;AMQP-498;1.0;1.0;0.0;0.0;0.0;0.0;0.0;0.6324786324786325
AMQP;878;AMQP-502;38.0;0.02631578947368421;0.0;0.0;0.0;0.0;0.0;0.025353016688061617
AMQP;879;AMQP-496;2.0;0.5;0.0;0.0;0.0;0.0;0.0;0.39285714285714285
AMQP;880;AMQP-506;1.0;1.0;0.0;0.0;0.0;0.0;0.0;1.0
AMQP;881;AMQP-508;1.0;1.0;0.0;0.0;0.0;0.0;0.0;0.5442813765182186
AMQP;882;AMQP-516;4.0;0.25;0.0;0.0;0.0;0.0;0.0;0.1467391304347826
AMQP;883;AMQP-532;1.0;1.0;0.0;0.0;0.0;0.0;0.0;0.8041666666666667
AMQP;884;AMQP-540;1.0;1.0;0.0;0.0;0.0;0.0;0.0;0.625
AMQP;885;AMQP-542;1.0;1.0;0.0;0.0;0.0;0.0;0.0;0.6922722667403517
AMQP;886;AMQP-541;2.0;0.5;0.0;0.0;0.0;0.0;0.0;0.5
AMQP;887;AMQP-479;1.0;1.0;0.0;0.0;0.0;0.0;0.0;0.6666666666666666
AMQP;888;AMQP-546;1.0;1.0;0.0;0.0;0.0;0.0;0.0;1.0
AMQP;889;AMQP-551;1.0;1.0;0.0;0.0;0.0;0.0;0.0;0.2833363526570048
AMQP;890;AMQP-556;1.0;1.0;0.0;0.0;0.0;0.0;0.0;0.6111111111111112
AMQP;891;AMQP-561;1.0;1.0;0.0;0.0;0.0;0.0;0.0;0.5909090909090909
AMQP;892;AMQP-562;1.0;1.0;0.0;0.0;0.0;0.0;0.0;0.6334640522875817
AMQP;893;AMQP-565;20.0;0.05;0.0;0.0;0.0;0.0;0.0;0.062037037037037036
AMQP;894;AMQP-570;1.0;1.0;0.0;0.0;0.0;0.0;0.0;0.75
AMQP;895;AMQP-594;1.0;1.0;0.0;0.0;0.0;0.0;0.0;1.0
AMQP;896;AMQP-591;1.0;1.0;0.0;0.0;0.0;0.0;0.0;0.6441964285714286
AMQP;897;AMQP-598;2.0;0.5;0.0;0.0;0.0;0.0;0.0;0.31666666666666665
AMQP;898;AMQP-572;2.0;0.5;0.0;0.0;0.0;0.0;0.0;0.5833333333333333
AMQP;899;AMQP-621;1.0;1.0;0.0;0.0;0.0;0.0;0.0;0.7222222222222222
AMQP;900;AMQP-625;2.0;0.5;0.0;0.0;0.0;0.0;0.0;0.5833333333333333
AMQP;901;AMQP-633;2.0;0.5;0.0;0.0;0.0;0.0;0.0;0.35
AMQP;902;AMQP-648;1.0;1.0;0.0;0.0;0.0;0.0;0.0;0.532258064516129
AMQP;903;AMQP-653;11.0;0.09090909090909091;0.0;0.0;0.0;0.0;0.0;0.10427807486631016
AMQP;904;AMQP-196;4.0;0.25;0.0;0.0;0.0;0.0;0.0;0.25
AMQP;905;AMQP-656;3.0;0.3333333333333333;0.0;0.0;0.0;0.0;0.0;0.3333333333333333
AMQP;906;AMQP-657;1.0;1.0;0.0;0.0;0.0;0.0;0.0;0.6571428571428571
AMQP;907;AMQP-661;15.0;0.06666666666666667;0.0;0.0;0.0;0.0;0.0;0.08333333333333334
AMQP;908;AMQP-663;22.0;0.045454545454545456;0.0;0.0;0.0;0.0;0.0;0.045454545454545456
AMQP;909;AMQP-660;2.0;0.5;0.0;0.0;0.0;0.0;0.0;0.5416666666666666
AMQP;910;AMQP-668;1.0;1.0;0.0;0.0;0.0;0.0;0.0;1.0
AMQP;911;AMQP-682;6.0;0.16666666666666666;0.0;0.0;0.0;0.0;0.0;0.10119047619047619
DATACMNS;912;DATACMNS-19;16.0;0.0625;0.0;0.0;0.0;0.0;0.0;0.06066176470588235
DATACMNS;913;DATACMNS-23;1.0;1.0;0.0;0.0;0.0;0.0;0.0;0.7555555555555555
DATACMNS;914;DATACMNS-38;1.0;1.0;0.0;0.0;0.0;0.0;0.0;0.5163690476190476
DATACMNS;915;DATACMNS-40;4.0;0.25;0.0;0.0;0.0;0.0;0.0;0.14166666666666666
DATACMNS;916;DATACMNS-42;9.0;0.1111111111111111;0.0;0.0;0.0;0.0;0.0;0.1111111111111111
DATACMNS;917;DATACMNS-44;1.0;1.0;0.0;0.0;0.0;0.0;0.0;1.0
DATACMNS;918;DATACMNS-45;1.0;1.0;0.0;0.0;0.0;0.0;0.0;0.7048611111111112
DATACMNS;919;DATACMNS-52;0.0;0.0;0.0;0.0;0.0;0.0;0.0;0.0
DATACMNS;920;DATACMNS-55;1.0;1.0;0.0;0.0;0.0;0.0;0.0;0.5909090909090909
DATACMNS;921;DATACMNS-57;12.0;0.08333333333333333;0.0;0.0;0.0;0.0;0.0;0.08012820512820512
DATACMNS;922;DATACMNS-65;0.0;0.0;0.0;0.0;0.0;0.0;0.0;0.0
DATACMNS;923;DATACMNS-68;9.0;0.1111111111111111;0.0;0.0;0.0;0.0;0.0;0.1111111111111111
DATACMNS;924;DATACMNS-69;0.0;0.0;0.0;0.0;0.0;0.0;0.0;0.0
DATACMNS;925;DATACMNS-70;0.0;0.0;0.0;0.0;0.0;0.0;0.0;0.0
DATACMNS;926;DATACMNS-81;2.0;0.5;0.0;0.0;0.0;0.0;0.0;0.5
DATACMNS;927;DATACMNS-98;4.0;0.25;0.0;0.0;0.0;0.0;0.0;0.2539491525423728
DATACMNS;928;DATACMNS-99;0.0;0.0;0.0;0.0;0.0;0.0;0.0;0.0
DATACMNS;929;DATACMNS-92;4.0;0.25;0.0;0.0;0.0;0.0;0.0;0.16847826086956522
DATACMNS;930;DATACMNS-108;1.0;1.0;0.0;0.0;0.0;0.0;0.0;0.6756756756756758
DATACMNS;931;DATACMNS-109;87.0;0.011494252873563218;0.0;0.0;0.0;0.0;0.0;0.011494252873563218
DATACMNS;932;DATACMNS-114;18.0;0.05555555555555555;0.0;0.0;0.0;0.0;0.0;0.05555555555555555
DATACMNS;933;DATACMNS-125;1.0;1.0;0.0;0.0;0.0;0.0;0.0;1.0
DATACMNS;934;DATACMNS-120;14.0;0.07142857142857142;0.0;0.0;0.0;0.0;0.0;0.07142857142857142
DATACMNS;935;DATACMNS-132;1.0;1.0;0.0;0.0;0.0;0.0;0.0;0.7
DATACMNS;936;DATACMNS-139;2.0;0.5;0.0;0.0;0.0;0.0;0.0;0.3269230769230769
DATACMNS;937;DATACMNS-154;51.0;0.0196078431372549;0.0;0.0;0.0;0.0;0.0;0.024955436720142603
DATACMNS;938;DATACMNS-153;0.0;0.0;0.0;0.0;0.0;0.0;0.0;0.0
DATACMNS;939;DATACMNS-157;59.0;0.01694915254237288;0.0;0.0;0.0;0.0;0.0;0.017324133793310333
DATACMNS;940;DATACMNS-158;0.0;0.0;0.0;0.0;0.0;0.0;0.0;0.0
DATACMNS;941;DATACMNS-160;28.0;0.03571428571428571;0.0;0.0;0.0;0.0;0.0;0.035098522167487683
DATACMNS;942;DATACMNS-170;0.0;0.0;0.0;0.0;0.0;0.0;0.0;0.0
DATACMNS;943;DATACMNS-133;2.0;0.5;0.0;0.0;0.0;0.0;0.0;0.3985976267529665
DATACMNS;944;DATACMNS-226;1.0;1.0;0.0;0.0;0.0;0.0;0.0;0.7384135677466863
DATACMNS;945;DATACMNS-221;1.0;1.0;0.0;0.0;0.0;0.0;0.0;0.875
DATACMNS;946;DATACMNS-228;3.0;0.3333333333333333;0.0;0.0;0.0;0.0;0.0;0.25757575757575757
DATACMNS;947;DATACMNS-176;3.0;0.3333333333333333;0.0;0.0;0.0;0.0;0.0;0.3333333333333333
DATACMNS;948;DATACMNS-233;3.0;0.3333333333333333;0.0;0.0;0.0;0.0;0.0;0.3666666666666667
DATACMNS;949;DATACMNS-238;1.0;1.0;0.0;0.0;0.0;0.0;0.0;0.8055555555555555
DATACMNS;950;DATACMNS-239;0.0;0.0;0.0;0.0;0.0;0.0;0.0;0.0
DATACMNS;951;DATACMNS-257;36.0;0.027777777777777776;0.0;0.0;0.0;0.0;0.0;0.021762904636920384
DATACMNS;952;DATACMNS-263;1.0;1.0;0.0;0.0;0.0;0.0;0.0;1.0
DATACMNS;953;DATACMNS-272;2.0;0.5;0.0;0.0;0.0;0.0;0.0;0.5
DATACMNS;954;DATACMNS-271;1.0;1.0;0.0;0.0;0.0;0.0;0.0;1.0
DATACMNS;955;DATACMNS-276;2.0;0.5;0.0;0.0;0.0;0.0;0.0;0.5
DATACMNS;956;DATACMNS-117;1.0;1.0;0.0;0.0;0.0;0.0;0.0;0.6666666666666666
DATACMNS;957;DATACMNS-283;7.0;0.14285714285714285;0.0;0.0;0.0;0.0;0.0;0.11540616246498599
DATACMNS;958;DATACMNS-281;1.0;1.0;0.0;0.0;0.0;0.0;0.0;0.8333333333333333
DATACMNS;959;DATACMNS-300;10.0;0.1;0.0;0.0;0.0;0.0;0.0;0.11666666666666667
DATACMNS;960;DATACMNS-309;1.0;1.0;0.0;0.0;0.0;0.0;0.0;1.0
DATACMNS;961;DATACMNS-320;2.0;0.5;0.0;0.0;0.0;0.0;0.0;0.5
DATACMNS;962;DATACMNS-323;1.0;1.0;0.0;0.0;0.0;0.0;0.0;1.0
DATACMNS;963;DATACMNS-333;6.0;0.16666666666666666;0.0;0.0;0.0;0.0;0.0;0.2507936507936508
DATACMNS;964;DATACMNS-327;1.0;1.0;0.0;0.0;0.0;0.0;0.0;1.0
DATACMNS;965;DATACMNS-345;1.0;1.0;0.0;0.0;0.0;0.0;0.0;0.6111111111111112
DATACMNS;966;DATACMNS-343;0.0;0.0;0.0;0.0;0.0;0.0;0.0;0.0
DATACMNS;967;DATACMNS-341;1.0;1.0;0.0;0.0;0.0;0.0;0.0;0.9166666666666666
DATACMNS;968;DATACMNS-352;0.0;0.0;0.0;0.0;0.0;0.0;0.0;0.0
DATACMNS;969;DATACMNS-304;1.0;1.0;0.0;0.0;0.0;0.0;0.0;1.0
DATACMNS;970;DATACMNS-353;0.0;0.0;0.0;0.0;0.0;0.0;0.0;0.0
DATACMNS;971;DATACMNS-359;1.0;1.0;0.0;0.0;0.0;0.0;0.0;1.0
DATACMNS;972;DATACMNS-360;1.0;1.0;0.0;0.0;0.0;0.0;0.0;0.39908103592314115
DATACMNS;973;DATACMNS-362;1.0;1.0;0.0;0.0;0.0;0.0;0.0;1.0
DATACMNS;974;DATACMNS-358;0.0;0.0;0.0;0.0;0.0;0.0;0.0;0.0
DATACMNS;975;DATACMNS-376;2.0;0.5;0.0;0.0;0.0;0.0;0.0;0.28846153846153844
DATACMNS;976;DATACMNS-363;1.0;1.0;0.0;0.0;0.0;0.0;0.0;0.75
DATACMNS;977;DATACMNS-385;1.0;1.0;0.0;0.0;0.0;0.0;0.0;0.8333333333333333
DATACMNS;978;DATACMNS-387;1.0;1.0;0.0;0.0;0.0;0.0;0.0;0.3872455163344352
DATACMNS;979;DATACMNS-390;2.0;0.5;0.0;0.0;0.0;0.0;0.0;0.28448275862068967
DATACMNS;980;DATACMNS-408;1.0;1.0;0.0;0.0;0.0;0.0;0.0;0.6333333333333334
DATACMNS;981;DATACMNS-377;1.0;1.0;0.0;0.0;0.0;0.0;0.0;0.8088235294117647
DATACMNS;982;DATACMNS-366;0.0;0.0;0.0;0.0;0.0;0.0;0.0;0.0
DATACMNS;983;DATACMNS-379;8.0;0.125;0.0;0.0;0.0;0.0;0.0;0.08881578947368421
DATACMNS;984;DATACMNS-410;1.0;1.0;0.0;0.0;0.0;0.0;0.0;0.5166666666666667
DATACMNS;985;DATACMNS-415;16.0;0.0625;0.0;0.0;0.0;0.0;0.0;0.06431159420289854
DATACMNS;986;DATACMNS-419;2.0;0.5;0.0;0.0;0.0;0.0;0.0;0.5
DATACMNS;987;DATACMNS-412;1.0;1.0;0.0;0.0;0.0;0.0;0.0;1.0
DATACMNS;988;DATACMNS-429;1.0;1.0;0.0;0.0;0.0;0.0;0.0;0.54
DATACMNS;989;DATACMNS-432;16.0;0.0625;0.0;0.0;0.0;0.0;0.0;0.03229674796747967
DATACMNS;990;DATACMNS-436;1.0;1.0;0.0;0.0;0.0;0.0;0.0;1.0
DATACMNS;991;DATACMNS-441;10.0;0.1;0.0;0.0;0.0;0.0;0.0;0.12692307692307692
DATACMNS;992;DATACMNS-453;17.0;0.058823529411764705;0.0;0.0;0.0;0.0;0.0;0.08204334365325078
DATACMNS;993;DATACMNS-477;2.0;0.5;0.0;0.0;0.0;0.0;0.0;0.5
DATACMNS;994;DATACMNS-479;1.0;1.0;0.0;0.0;0.0;0.0;0.0;0.8055555555555555
DATACMNS;995;DATACMNS-501;24.0;0.041666666666666664;0.0;0.0;0.0;0.0;0.0;0.0375
DATACMNS;996;DATACMNS-502;3.0;0.3333333333333333;0.0;0.0;0.0;0.0;0.0;0.30952380952380953
DATACMNS;997;DATACMNS-509;35.0;0.02857142857142857;0.0;0.0;0.0;0.0;0.0;0.030208494208494207
DATACMNS;998;DATACMNS-511;216.0;0.004629629629629629;0.0;0.0;0.0;0.0;0.0;0.004629629629629629
DATACMNS;999;DATACMNS-519;1.0;1.0;0.0;0.0;0.0;0.0;0.0;0.7777777777777778
DATACMNS;1000;DATACMNS-518;4.0;0.25;0.0;0.0;0.0;0.0;0.0;0.25
DATACMNS;1001;DATACMNS-562;5.0;0.2;0.0;0.0;0.0;0.0;0.0;0.26666666666666666
DATACMNS;1002;DATACMNS-566;3.0;0.3333333333333333;0.0;0.0;0.0;0.0;0.0;0.30694444444444446
DATACMNS;1003;DATACMNS-565;1.0;1.0;0.0;0.0;0.0;0.0;0.0;0.5396825396825397
DATACMNS;1004;DATACMNS-583;0.0;0.0;0.0;0.0;0.0;0.0;0.0;0.0
DATACMNS;1005;DATACMNS-590;2.0;0.5;0.0;0.0;0.0;0.0;0.0;0.3526676149134865
DATACMNS;1006;DATACMNS-597;1.0;1.0;0.0;0.0;0.0;0.0;0.0;0.6
DATACMNS;1007;DATACMNS-594;2.0;0.5;0.0;0.0;0.0;0.0;0.0;0.4134613698149609
DATACMNS;1008;DATACMNS-609;7.0;0.14285714285714285;0.0;0.0;0.0;0.0;0.0;0.07707828894269572
DATACMNS;1009;DATACMNS-616;2.0;0.5;0.0;0.0;0.0;0.0;0.0;0.5
DATACMNS;1010;DATACMNS-640;2.0;0.5;0.0;0.0;0.0;0.0;0.0;0.5833333333333333
DATACMNS;1011;DATACMNS-663;0.0;0.0;0.0;0.0;0.0;0.0;0.0;0.0
DATACMNS;1012;DATACMNS-683;130.0;0.007692307692307693;0.0;0.0;0.0;0.0;0.0;0.011421911421911422
DATACMNS;1013;DATACMNS-692;1.0;1.0;0.0;0.0;0.0;0.0;0.0;1.0
DATACMNS;1014;DATACMNS-695;6.0;0.16666666666666666;0.0;0.0;0.0;0.0;0.0;0.15476190476190477
DATACMNS;1015;DATACMNS-697;2.0;0.5;0.0;0.0;0.0;0.0;0.0;0.27702702702702703
DATACMNS;1016;DATACMNS-702;1.0;1.0;0.0;0.0;0.0;0.0;0.0;0.8053696303696304
DATACMNS;1017;DATACMNS-705;3.0;0.3333333333333333;0.0;0.0;0.0;0.0;0.0;0.5983333333333333
DATACMNS;1018;DATACMNS-711;1.0;1.0;0.0;0.0;0.0;0.0;0.0;1.0
DATACMNS;1019;DATACMNS-648;1.0;1.0;0.0;0.0;0.0;0.0;0.0;1.0
DATACMNS;1020;DATACMNS-715;9.0;0.1111111111111111;0.0;0.0;0.0;0.0;0.0;0.15170250896057347
DATACMNS;1021;DATACMNS-717;2.0;0.5;0.0;0.0;0.0;0.0;0.0;0.5
DATACMNS;1022;DATACMNS-719;1.0;1.0;0.0;0.0;0.0;0.0;0.0;1.0
DATACMNS;1023;DATACMNS-720;2.0;0.5;0.0;0.0;0.0;0.0;0.0;0.5333333333333333
DATACMNS;1024;DATACMNS-722;0.0;0.0;0.0;0.0;0.0;0.0;0.0;0.0
DATACMNS;1025;DATACMNS-733;1.0;1.0;0.0;0.0;0.0;0.0;0.0;1.0
DATACMNS;1026;DATACMNS-736;1.0;1.0;0.0;0.0;0.0;0.0;0.0;0.5277777777777778
DATACMNS;1027;DATACMNS-748;6.0;0.16666666666666666;0.0;0.0;0.0;0.0;0.0;0.16666666666666666
DATACMNS;1028;DATACMNS-750;1.0;1.0;0.0;0.0;0.0;0.0;0.0;1.0
DATACMNS;1029;DATACMNS-755;1.0;1.0;0.0;0.0;0.0;0.0;0.0;1.0
DATACMNS;1030;DATACMNS-760;0.0;0.0;0.0;0.0;0.0;0.0;0.0;0.0
DATACMNS;1031;DATACMNS-761;1.0;1.0;0.0;0.0;0.0;0.0;0.0;1.0
DATACMNS;1032;DATACMNS-763;3.0;0.3333333333333333;0.0;0.0;0.0;0.0;0.0;0.25
DATACMNS;1033;DATACMNS-772;8.0;0.125;0.0;0.0;0.0;0.0;0.0;0.07652884752531736
DATACMNS;1034;DATACMNS-769;70.0;0.014285714285714285;0.0;0.0;0.0;0.0;0.0;0.01380952380952381
DATACMNS;1035;DATACMNS-773;9.0;0.1111111111111111;0.0;0.0;0.0;0.0;0.0;0.059366560995655744
DATACMNS;1036;DATACMNS-779;0.0;0.0;0.0;0.0;0.0;0.0;0.0;0.0
DATACMNS;1037;DATACMNS-670;2.0;0.5;0.0;0.0;0.0;0.0;0.0;0.7313235294117647
DATACMNS;1038;DATACMNS-789;2.0;0.5;0.0;0.0;0.0;0.0;0.0;0.5
DATACMNS;1039;DATACMNS-799;1.0;1.0;0.0;0.0;0.0;0.0;0.0;1.0
DATACMNS;1040;DATACMNS-804;1.0;1.0;0.0;0.0;0.0;0.0;0.0;0.8333333333333333
DATACMNS;1041;DATACMNS-812;1.0;1.0;0.0;0.0;0.0;0.0;0.0;1.0
DATACMNS;1042;DATACMNS-828;0.0;0.0;0.0;0.0;0.0;0.0;0.0;0.0
DATACMNS;1043;DATACMNS-829;2.0;0.5;0.0;0.0;0.0;0.0;0.0;0.3333333333333333
DATACMNS;1044;DATACMNS-843;4.0;0.25;0.0;0.0;0.0;0.0;0.0;0.26785714285714285
DATACMNS;1045;DATACMNS-854;1.0;1.0;0.0;0.0;0.0;0.0;0.0;0.75
DATACMNS;1046;DATACMNS-859;2.0;0.5;0.0;0.0;0.0;0.0;0.0;0.5833333333333333
DATACMNS;1047;DATACMNS-860;1.0;1.0;0.0;0.0;0.0;0.0;0.0;1.0
DATACMNS;1048;DATACMNS-856;1.0;1.0;0.0;0.0;0.0;0.0;0.0;1.0
DATACMNS;1049;DATACMNS-690;3.0;0.3333333333333333;0.0;0.0;0.0;0.0;0.0;0.29166666666666663
DATACMNS;1050;DATACMNS-831;1.0;1.0;0.0;0.0;0.0;0.0;0.0;1.0
DATACMNS;1051;DATACMNS-862;1.0;1.0;0.0;0.0;0.0;0.0;0.0;0.5769230769230769
DATACMNS;1052;DATACMNS-863;1.0;1.0;0.0;0.0;0.0;0.0;0.0;0.625
DATACMNS;1053;DATACMNS-882;9.0;0.1111111111111111;0.0;0.0;0.0;0.0;0.0;0.09775921831927727
DATACMNS;1054;DATACMNS-874;1.0;1.0;0.0;0.0;0.0;0.0;0.0;1.0
DATACMNS;1055;DATACMNS-883;2.0;0.5;0.0;0.0;0.0;0.0;0.0;0.408939393939394
DATACMNS;1056;DATACMNS-880;1.0;1.0;0.0;0.0;0.0;0.0;0.0;0.6428571428571428
DATACMNS;1057;DATACMNS-896;1.0;1.0;0.0;0.0;0.0;0.0;0.0;0.75
DATACMNS;1058;DATACMNS-906;3.0;0.3333333333333333;0.0;0.0;0.0;0.0;0.0;0.3333333333333333
DATACMNS;1059;DATACMNS-900;2.0;0.5;0.0;0.0;0.0;0.0;0.0;0.34761904761904766
DATACMNS;1060;DATACMNS-909;1.0;1.0;0.0;0.0;0.0;0.0;0.0;1.0
DATACMNS;1061;DATACMNS-912;1.0;1.0;0.0;0.0;0.0;0.0;0.0;1.0
DATACMNS;1062;DATACMNS-916;0.0;0.0;0.0;0.0;0.0;0.0;0.0;0.0
DATACMNS;1063;DATACMNS-921;1.0;1.0;0.0;0.0;0.0;0.0;0.0;1.0
DATACMNS;1064;DATACMNS-939;1.0;1.0;0.0;0.0;0.0;0.0;0.0;1.0
DATACMNS;1065;DATACMNS-943;11.0;0.09090909090909091;0.0;0.0;0.0;0.0;0.0;0.08893280632411067
DATACMNS;1066;DATACMNS-848;1.0;1.0;0.0;0.0;0.0;0.0;0.0;1.0
DATACMNS;1067;DATACMNS-951;1.0;1.0;0.0;0.0;0.0;0.0;0.0;1.0
DATACMNS;1068;DATACMNS-934;1.0;1.0;0.0;0.0;0.0;0.0;0.0;0.8333333333333333
DATACMNS;1069;DATACMNS-963;1.0;1.0;0.0;0.0;0.0;0.0;0.0;0.8333333333333333
DATAMONGO;1070;DATAMONGO-273;0.0;0.0;0.0;0.0;0.0;0.0;0.0;0.0
DATAMONGO;1071;DATAMONGO-294;1.0;1.0;0.0;0.0;0.0;0.0;0.0;1.0
DATAMONGO;1072;DATAMONGO-316;1.0;1.0;0.0;0.0;0.0;0.0;0.0;0.7555555555555555
DATAMONGO;1073;DATAMONGO-306;1.0;1.0;0.0;0.0;0.0;0.0;0.0;0.6428571428571428
DATAMONGO;1074;DATAMONGO-315;3.0;0.3333333333333333;0.0;0.0;0.0;0.0;0.0;0.24358974358974358
DATAMONGO;1075;DATAMONGO-319;2.0;0.5;0.0;0.0;0.0;0.0;0.0;0.34775641025641024
DATAMONGO;1076;DATAMONGO-309;1.0;1.0;0.0;0.0;0.0;0.0;0.0;0.8333333333333333
DATAMONGO;1077;DATAMONGO-312;1.0;1.0;0.0;0.0;0.0;0.0;0.0;0.8333333333333333
DATAMONGO;1078;DATAMONGO-329;1.0;1.0;0.0;0.0;0.0;0.0;0.0;0.7
DATAMONGO;1079;DATAMONGO-331;9.0;0.1111111111111111;0.0;0.0;0.0;0.0;0.0;0.1111111111111111
DATAMONGO;1080;DATAMONGO-325;2.0;0.5;0.0;0.0;0.0;0.0;0.0;0.275
DATAMONGO;1081;DATAMONGO-333;1.0;1.0;0.0;0.0;0.0;0.0;0.0;1.0
DATAMONGO;1082;DATAMONGO-321;4.0;0.25;0.0;0.0;0.0;0.0;0.0;0.19673721340388006
DATAMONGO;1083;DATAMONGO-199;0.0;0.0;0.0;0.0;0.0;0.0;0.0;0.0
DATAMONGO;1084;DATAMONGO-318;1.0;1.0;0.0;0.0;0.0;0.0;0.0;0.75
DATAMONGO;1085;DATAMONGO-322;6.0;0.16666666666666666;0.0;0.0;0.0;0.0;0.0;0.06423466036826508
DATAMONGO;1086;DATAMONGO-298;10.0;0.1;0.0;0.0;0.0;0.0;0.0;0.08088235294117647
DATAMONGO;1087;DATAMONGO-343;1.0;1.0;0.0;0.0;0.0;0.0;0.0;0.6244708994708994
DATAMONGO;1088;DATAMONGO-346;5.0;0.2;0.0;0.0;0.0;0.0;0.0;0.12083333333333333
DATAMONGO;1089;DATAMONGO-260;3.0;0.3333333333333333;0.0;0.0;0.0;0.0;0.0;0.3333333333333333
DATAMONGO;1090;DATAMONGO-336;1.0;1.0;0.0;0.0;0.0;0.0;0.0;1.0
DATAMONGO;1091;DATAMONGO-373;1.0;1.0;0.0;0.0;0.0;0.0;0.0;0.7
DATAMONGO;1092;DATAMONGO-369;1.0;1.0;0.0;0.0;0.0;0.0;0.0;1.0
DATAMONGO;1093;DATAMONGO-376;1.0;1.0;0.0;0.0;0.0;0.0;0.0;1.0
DATAMONGO;1094;DATAMONGO-368;1.0;1.0;0.0;0.0;0.0;0.0;0.0;0.8333333333333333
DATAMONGO;1095;DATAMONGO-359;1.0;1.0;0.0;0.0;0.0;0.0;0.0;0.8333333333333333
DATAMONGO;1096;DATAMONGO-381;2.0;0.5;0.0;0.0;0.0;0.0;0.0;0.45
DATAMONGO;1097;DATAMONGO-387;4.0;0.25;0.0;0.0;0.0;0.0;0.0;0.30941176470588233
DATAMONGO;1098;DATAMONGO-358;2.0;0.5;0.0;0.0;0.0;0.0;0.0;0.5
DATAMONGO;1099;DATAMONGO-385;2.0;0.5;0.0;0.0;0.0;0.0;0.0;0.5
DATAMONGO;1100;DATAMONGO-398;2.0;0.5;0.0;0.0;0.0;0.0;0.0;0.5833333333333333
DATAMONGO;1101;DATAMONGO-401;1.0;1.0;0.0;0.0;0.0;0.0;0.0;0.8333333333333333
DATAMONGO;1102;DATAMONGO-411;1.0;1.0;0.0;0.0;0.0;0.0;0.0;1.0
DATAMONGO;1103;DATAMONGO-382;3.0;0.3333333333333333;0.0;0.0;0.0;0.0;0.0;0.41666666666666663
DATAMONGO;1104;DATAMONGO-360;3.0;0.3333333333333333;0.0;0.0;0.0;0.0;0.0;0.36553459119496856
DATAMONGO;1105;DATAMONGO-412;1.0;1.0;0.0;0.0;0.0;0.0;0.0;0.625
DATAMONGO;1106;DATAMONGO-402;2.0;0.5;0.0;0.0;0.0;0.0;0.0;0.5
DATAMONGO;1107;DATAMONGO-413;7.0;0.14285714285714285;0.0;0.0;0.0;0.0;0.0;0.1232947232947233
DATAMONGO;1108;DATAMONGO-422;1.0;1.0;0.0;0.0;0.0;0.0;0.0;1.0
DATAMONGO;1109;DATAMONGO-425;6.0;0.16666666666666666;0.0;0.0;0.0;0.0;0.0;0.14100160592096073
DATAMONGO;1110;DATAMONGO-423;11.0;0.09090909090909091;0.0;0.0;0.0;0.0;0.0;0.12460127591706538
DATAMONGO;1111;DATAMONGO-430;6.0;0.16666666666666666;0.0;0.0;0.0;0.0;0.0;0.13095238095238093
DATAMONGO;1112;DATAMONGO-429;0.0;0.0;0.0;0.0;0.0;0.0;0.0;0.0
DATAMONGO;1113;DATAMONGO-181;0.0;0.0;0.0;0.0;0.0;0.0;0.0;0.0
DATAMONGO;1114;DATAMONGO-458;1.0;1.0;0.0;0.0;0.0;0.0;0.0;0.8333333333333333
DATAMONGO;1115;DATAMONGO-459;3.0;0.3333333333333333;0.0;0.0;0.0;0.0;0.0;0.30952380952380953
DATAMONGO;1116;DATAMONGO-450;1.0;1.0;0.0;0.0;0.0;0.0;0.0;1.0
DATAMONGO;1117;DATAMONGO-447;1.0;1.0;0.0;0.0;0.0;0.0;0.0;0.6831709956709956
DATAMONGO;1118;DATAMONGO-428;5.0;0.2;0.0;0.0;0.0;0.0;0.0;0.2
DATAMONGO;1119;DATAMONGO-424;2.0;0.5;0.0;0.0;0.0;0.0;0.0;0.3333333333333333
DATAMONGO;1120;DATAMONGO-462;3.0;0.3333333333333333;0.0;0.0;0.0;0.0;0.0;0.13273809523809524
DATAMONGO;1121;DATAMONGO-454;1.0;1.0;0.0;0.0;0.0;0.0;0.0;0.4755162241887905
DATAMONGO;1122;DATAMONGO-467;9.0;0.1111111111111111;0.0;0.0;0.0;0.0;0.0;0.1111111111111111
DATAMONGO;1123;DATAMONGO-475;1.0;1.0;0.0;0.0;0.0;0.0;0.0;1.0
DATAMONGO;1124;DATAMONGO-483;1.0;1.0;0.0;0.0;0.0;0.0;0.0;0.5384615384615384
DATAMONGO;1125;DATAMONGO-480;1.0;1.0;0.0;0.0;0.0;0.0;0.0;0.8333333333333333
DATAMONGO;1126;DATAMONGO-489;1.0;1.0;0.0;0.0;0.0;0.0;0.0;1.0
DATAMONGO;1127;DATAMONGO-474;1.0;1.0;0.0;0.0;0.0;0.0;0.0;0.5454545454545454
DATAMONGO;1128;DATAMONGO-493;0.0;0.0;0.0;0.0;0.0;0.0;0.0;0.0
DATAMONGO;1129;DATAMONGO-495;1.0;1.0;0.0;0.0;0.0;0.0;0.0;1.0
DATAMONGO;1130;DATAMONGO-494;0.0;0.0;0.0;0.0;0.0;0.0;0.0;0.0
DATAMONGO;1131;DATAMONGO-497;2.0;0.5;0.0;0.0;0.0;0.0;0.0;0.5833333333333333
DATAMONGO;1132;DATAMONGO-481;9.0;0.1111111111111111;0.0;0.0;0.0;0.0;0.0;0.10555555555555556
DATAMONGO;1133;DATAMONGO-508;1.0;1.0;0.0;0.0;0.0;0.0;0.0;0.5666666666666667
DATAMONGO;1134;DATAMONGO-505;11.0;0.09090909090909091;0.0;0.0;0.0;0.0;0.0;0.05609284332688588
DATAMONGO;1135;DATAMONGO-517;0.0;0.0;0.0;0.0;0.0;0.0;0.0;0.0
DATAMONGO;1136;DATAMONGO-472;1.0;1.0;0.0;0.0;0.0;0.0;0.0;0.45555555555555555
DATAMONGO;1137;DATAMONGO-469;3.0;0.3333333333333333;0.0;0.0;0.0;0.0;0.0;0.24358974358974358
DATAMONGO;1138;DATAMONGO-523;21.0;0.047619047619047616;0.0;0.0;0.0;0.0;0.0;0.047619047619047616
DATAMONGO;1139;DATAMONGO-521;1.0;1.0;0.0;0.0;0.0;0.0;0.0;0.7023809523809524
DATAMONGO;1140;DATAMONGO-527;1.0;1.0;0.0;0.0;0.0;0.0;0.0;0.5555555555555556
DATAMONGO;1141;DATAMONGO-532;1.0;1.0;0.0;0.0;0.0;0.0;0.0;1.0
DATAMONGO;1142;DATAMONGO-530;2.0;0.5;0.0;0.0;0.0;0.0;0.0;0.3611111111111111
DATAMONGO;1143;DATAMONGO-535;1.0;1.0;0.0;0.0;0.0;0.0;0.0;1.0
DATAMONGO;1144;DATAMONGO-539;1.0;1.0;0.0;0.0;0.0;0.0;0.0;1.0
DATAMONGO;1145;DATAMONGO-549;1.0;1.0;0.0;0.0;0.0;0.0;0.0;1.0
DATAMONGO;1146;DATAMONGO-550;1.0;1.0;0.0;0.0;0.0;0.0;0.0;1.0
DATAMONGO;1147;DATAMONGO-551;1.0;1.0;0.0;0.0;0.0;0.0;0.0;1.0
DATAMONGO;1148;DATAMONGO-553;2.0;0.5;0.0;0.0;0.0;0.0;0.0;0.26135623635623634
DATAMONGO;1149;DATAMONGO-562;1.0;1.0;0.0;0.0;0.0;0.0;0.0;0.8333333333333333
DATAMONGO;1150;DATAMONGO-570;0.0;0.0;0.0;0.0;0.0;0.0;0.0;0.0
DATAMONGO;1151;DATAMONGO-378;1.0;1.0;0.0;0.0;0.0;0.0;0.0;1.0
DATAMONGO;1152;DATAMONGO-585;6.0;0.16666666666666666;0.0;0.0;0.0;0.0;0.0;0.16666666666666666
DATAMONGO;1153;DATAMONGO-588;1.0;1.0;0.0;0.0;0.0;0.0;0.0;1.0
DATAMONGO;1154;DATAMONGO-583;1.0;1.0;0.0;0.0;0.0;0.0;0.0;1.0
DATAMONGO;1155;DATAMONGO-592;1.0;1.0;0.0;0.0;0.0;0.0;0.0;1.0
DATAMONGO;1156;DATAMONGO-601;1.0;1.0;0.0;0.0;0.0;0.0;0.0;1.0
DATAMONGO;1157;DATAMONGO-603;1.0;1.0;0.0;0.0;0.0;0.0;0.0;0.2885115353066437
DATAMONGO;1158;DATAMONGO-380;1.0;1.0;0.0;0.0;0.0;0.0;0.0;1.0
DATAMONGO;1159;DATAMONGO-568;1.0;1.0;0.0;0.0;0.0;0.0;0.0;1.0
DATAMONGO;1160;DATAMONGO-622;1.0;1.0;0.0;0.0;0.0;0.0;0.0;1.0
DATAMONGO;1161;DATAMONGO-621;1.0;1.0;0.0;0.0;0.0;0.0;0.0;0.8333333333333333
DATAMONGO;1162;DATAMONGO-620;1.0;1.0;0.0;0.0;0.0;0.0;0.0;0.7222222222222222
DATAMONGO;1163;DATAMONGO-633;7.0;0.14285714285714285;0.0;0.0;0.0;0.0;0.0;0.14285714285714285
DATAMONGO;1164;DATAMONGO-617;1.0;1.0;0.0;0.0;0.0;0.0;0.0;0.75
DATAMONGO;1165;DATAMONGO-629;2.0;0.5;0.0;0.0;0.0;0.0;0.0;0.3989301801801801
DATAMONGO;1166;DATAMONGO-642;1.0;1.0;0.0;0.0;0.0;0.0;0.0;0.5116279069767442
DATAMONGO;1167;DATAMONGO-594;2.0;0.5;0.0;0.0;0.0;0.0;0.0;0.3214285714285714
DATAMONGO;1168;DATAMONGO-646;1.0;1.0;0.0;0.0;0.0;0.0;0.0;1.0
DATAMONGO;1169;DATAMONGO-571;4.0;0.25;0.0;0.0;0.0;0.0;0.0;0.20833333333333331
DATAMONGO;1170;DATAMONGO-663;7.0;0.14285714285714285;0.0;0.0;0.0;0.0;0.0;0.14285714285714285
DATAMONGO;1171;DATAMONGO-669;3.0;0.3333333333333333;0.0;0.0;0.0;0.0;0.0;0.3333333333333333
DATAMONGO;1172;DATAMONGO-679;1.0;1.0;0.0;0.0;0.0;0.0;0.0;1.0
DATAMONGO;1173;DATAMONGO-683;1.0;1.0;0.0;0.0;0.0;0.0;0.0;1.0
DATAMONGO;1174;DATAMONGO-676;1.0;1.0;0.0;0.0;0.0;0.0;0.0;0.5625
DATAMONGO;1175;DATAMONGO-706;1.0;1.0;0.0;0.0;0.0;0.0;0.0;1.0
DATAMONGO;1176;DATAMONGO-693;1.0;1.0;0.0;0.0;0.0;0.0;0.0;0.45221560846560843
DATAMONGO;1177;DATAMONGO-688;14.0;0.07142857142857142;0.0;0.0;0.0;0.0;0.0;0.06593685300207039
DATAMONGO;1178;DATAMONGO-392;3.0;0.3333333333333333;0.0;0.0;0.0;0.0;0.0;0.30952380952380953
DATAMONGO;1179;DATAMONGO-702;6.0;0.16666666666666666;0.0;0.0;0.0;0.0;0.0;0.19444444444444442
DATAMONGO;1180;DATAMONGO-717;16.0;0.0625;0.0;0.0;0.0;0.0;0.0;0.0625
DATAMONGO;1181;DATAMONGO-721;65.0;0.015384615384615385;0.0;0.0;0.0;0.0;0.0;0.015384615384615385
DATAMONGO;1182;DATAMONGO-741;0.0;0.0;0.0;0.0;0.0;0.0;0.0;0.0
DATAMONGO;1183;DATAMONGO-602;4.0;0.25;0.0;0.0;0.0;0.0;0.0;0.25
DATAMONGO;1184;DATAMONGO-737;1.0;1.0;0.0;0.0;0.0;0.0;0.0;1.0
DATAMONGO;1185;DATAMONGO-540;4.0;0.25;0.0;0.0;0.0;0.0;0.0;0.25
DATAMONGO;1186;DATAMONGO-445;1.0;1.0;0.0;0.0;0.0;0.0;0.0;0.42113200471445417
DATAMONGO;1187;DATAMONGO-753;1.0;1.0;0.0;0.0;0.0;0.0;0.0;0.7784090909090909
DATAMONGO;1188;DATAMONGO-761;2.0;0.5;0.0;0.0;0.0;0.0;0.0;0.5833333333333333
DATAMONGO;1189;DATAMONGO-534;0.0;0.0;0.0;0.0;0.0;0.0;0.0;0.0
DATAMONGO;1190;DATAMONGO-752;1.0;1.0;0.0;0.0;0.0;0.0;0.0;1.0
DATAMONGO;1191;DATAMONGO-746;1.0;1.0;0.0;0.0;0.0;0.0;0.0;0.8333333333333333
DATAMONGO;1192;DATAMONGO-788;1.0;1.0;0.0;0.0;0.0;0.0;0.0;0.4310675883256528
DATAMONGO;1193;DATAMONGO-789;2.0;0.5;0.0;0.0;0.0;0.0;0.0;0.48372438787663696
DATAMONGO;1194;DATAMONGO-804;1.0;1.0;0.0;0.0;0.0;0.0;0.0;1.0
DATAMONGO;1195;DATAMONGO-806;1.0;1.0;0.0;0.0;0.0;0.0;0.0;0.2881524725274725
DATAMONGO;1196;DATAMONGO-805;6.0;0.16666666666666666;0.0;0.0;0.0;0.0;0.0;0.16411238825031926
DATAMONGO;1197;DATAMONGO-816;1.0;1.0;0.0;0.0;0.0;0.0;0.0;0.8333333333333333
DATAMONGO;1198;DATAMONGO-686;2.0;0.5;0.0;0.0;0.0;0.0;0.0;0.6388888888888888
DATAMONGO;1199;DATAMONGO-807;1.0;1.0;0.0;0.0;0.0;0.0;0.0;0.672316384180791
DATAMONGO;1200;DATAMONGO-407;1.0;1.0;0.0;0.0;0.0;0.0;0.0;1.0
DATAMONGO;1201;DATAMONGO-675;1.0;1.0;0.0;0.0;0.0;0.0;0.0;0.6222222222222221
DATAMONGO;1202;DATAMONGO-830;3.0;0.3333333333333333;0.0;0.0;0.0;0.0;0.0;0.3333333333333333
DATAMONGO;1203;DATAMONGO-410;0.0;0.0;0.0;0.0;0.0;0.0;0.0;0.0
DATAMONGO;1204;DATAMONGO-828;1.0;1.0;0.0;0.0;0.0;0.0;0.0;1.0
DATAMONGO;1205;DATAMONGO-354;1.0;1.0;0.0;0.0;0.0;0.0;0.0;0.7222222222222222
DATAMONGO;1206;DATAMONGO-404;1.0;1.0;0.0;0.0;0.0;0.0;0.0;0.6081871345029239
DATAMONGO;1207;DATAMONGO-852;1.0;1.0;0.0;0.0;0.0;0.0;0.0;0.6589285714285714
DATAMONGO;1208;DATAMONGO-833;2.0;0.5;0.0;0.0;0.0;0.0;0.0;0.5
DATAMONGO;1209;DATAMONGO-862;1.0;1.0;0.0;0.0;0.0;0.0;0.0;0.446078431372549
DATAMONGO;1210;DATAMONGO-829;1.0;1.0;0.0;0.0;0.0;0.0;0.0;0.75
DATAMONGO;1211;DATAMONGO-821;1.0;1.0;0.0;0.0;0.0;0.0;0.0;0.5293820558526441
DATAMONGO;1212;DATAMONGO-863;2.0;0.5;0.0;0.0;0.0;0.0;0.0;0.4761904761904762
DATAMONGO;1213;DATAMONGO-868;3.0;0.3333333333333333;0.0;0.0;0.0;0.0;0.0;0.17295597484276728
DATAMONGO;1214;DATAMONGO-843;5.0;0.2;0.0;0.0;0.0;0.0;0.0;0.23484273633041025
DATAMONGO;1215;DATAMONGO-877;1.0;1.0;0.0;0.0;0.0;0.0;0.0;1.0
DATAMONGO;1216;DATAMONGO-880;3.0;0.3333333333333333;0.0;0.0;0.0;0.0;0.0;0.2541289285970137
DATAMONGO;1217;DATAMONGO-887;11.0;0.09090909090909091;0.0;0.0;0.0;0.0;0.0;0.09090909090909091
DATAMONGO;1218;DATAMONGO-884;1.0;1.0;0.0;0.0;0.0;0.0;0.0;0.47076023391812866
DATAMONGO;1219;DATAMONGO-471;1.0;1.0;0.0;0.0;0.0;0.0;0.0;0.6666666666666666
DATAMONGO;1220;DATAMONGO-888;1.0;1.0;0.0;0.0;0.0;0.0;0.0;0.6749999999999999
DATAMONGO;1221;DATAMONGO-901;1.0;1.0;0.0;0.0;0.0;0.0;0.0;0.52
DATAMONGO;1222;DATAMONGO-908;1.0;1.0;0.0;0.0;0.0;0.0;0.0;0.8333333333333333
DATAMONGO;1223;DATAMONGO-897;4.0;0.25;0.0;0.0;0.0;0.0;0.0;0.2361111111111111
DATAMONGO;1224;DATAMONGO-892;5.0;0.2;0.0;0.0;0.0;0.0;0.0;0.17142857142857143
DATAMONGO;1225;DATAMONGO-893;2.0;0.5;0.0;0.0;0.0;0.0;0.0;0.4194139194139194
DATAMONGO;1226;DATAMONGO-912;4.0;0.25;0.0;0.0;0.0;0.0;0.0;0.23290598290598288
DATAMONGO;1227;DATAMONGO-914;2.0;0.5;0.0;0.0;0.0;0.0;0.0;0.5
DATAMONGO;1228;DATAMONGO-913;1.0;1.0;0.0;0.0;0.0;0.0;0.0;0.75
DATAMONGO;1229;DATAMONGO-917;2.0;0.5;0.0;0.0;0.0;0.0;0.0;0.5
DATAMONGO;1230;DATAMONGO-909;0.0;0.0;0.0;0.0;0.0;0.0;0.0;0.0
DATAMONGO;1231;DATAMONGO-924;2.0;0.5;0.0;0.0;0.0;0.0;0.0;0.3494623655913978
DATAMONGO;1232;DATAMONGO-647;9.0;0.1111111111111111;0.0;0.0;0.0;0.0;0.0;0.1111111111111111
DATAMONGO;1233;DATAMONGO-928;1.0;1.0;0.0;0.0;0.0;0.0;0.0;0.8333333333333333
DATAMONGO;1234;DATAMONGO-367;0.0;0.0;0.0;0.0;0.0;0.0;0.0;0.0
DATAMONGO;1235;DATAMONGO-926;0.0;0.0;0.0;0.0;0.0;0.0;0.0;0.0
DATAMONGO;1236;DATAMONGO-745;2.0;0.5;0.0;0.0;0.0;0.0;0.0;0.21980676328502413
DATAMONGO;1237;DATAMONGO-938;3.0;0.3333333333333333;0.0;0.0;0.0;0.0;0.0;0.30952380952380953
DATAMONGO;1238;DATAMONGO-948;1.0;1.0;0.0;0.0;0.0;0.0;0.0;0.5384615384615384
DATAMONGO;1239;DATAMONGO-952;29.0;0.034482758620689655;0.0;0.0;0.0;0.0;0.0;0.034482758620689655
DATAMONGO;1240;DATAMONGO-963;1.0;1.0;0.0;0.0;0.0;0.0;0.0;1.0
DATAMONGO;1241;DATAMONGO-949;0.0;0.0;0.0;0.0;0.0;0.0;0.0;0.0
DATAMONGO;1242;DATAMONGO-970;1.0;1.0;0.0;0.0;0.0;0.0;0.0;0.75
DATAMONGO;1243;DATAMONGO-962;0.0;0.0;0.0;0.0;0.0;0.0;0.0;0.0
DATAMONGO;1244;DATAMONGO-978;3.0;0.3333333333333333;0.0;0.0;0.0;0.0;0.0;0.3333333333333333
DATAMONGO;1245;DATAMONGO-969;4.0;0.25;0.0;0.0;0.0;0.0;0.0;0.09875506160075816
DATAMONGO;1246;DATAMONGO-987;6.0;0.16666666666666666;0.0;0.0;0.0;0.0;0.0;0.10606060606060605
DATAMONGO;1247;DATAMONGO-420;6.0;0.16666666666666666;0.0;0.0;0.0;0.0;0.0;0.16025641025641024
DATAMONGO;1248;DATAMONGO-996;1.0;1.0;0.0;0.0;0.0;0.0;0.0;0.625
DATAMONGO;1249;DATAMONGO-995;1.0;1.0;0.0;0.0;0.0;0.0;0.0;1.0
DATAMONGO;1250;DATAMONGO-1002;9.0;0.1111111111111111;0.0;0.0;0.0;0.0;0.0;0.09401709401709402
DATAMONGO;1251;DATAMONGO-1001;1.0;1.0;0.0;0.0;0.0;0.0;0.0;0.3136459888995386
DATAMONGO;1252;DATAMONGO-1008;3.0;0.3333333333333333;0.0;0.0;0.0;0.0;0.0;0.21666666666666667
DATAMONGO;1253;DATAMONGO-1025;1.0;1.0;0.0;0.0;0.0;0.0;0.0;0.7702020202020202
DATAMONGO;1254;DATAMONGO-1027;2.0;0.5;0.0;0.0;0.0;0.0;0.0;0.3319131161236424
DATAMONGO;1255;DATAMONGO-1030;1.0;1.0;0.0;0.0;0.0;0.0;0.0;0.8333333333333334
DATAMONGO;1256;DATAMONGO-1040;1.0;1.0;0.0;0.0;0.0;0.0;0.0;0.5434782608695652
DATAMONGO;1257;DATAMONGO-1049;2.0;0.5;0.0;0.0;0.0;0.0;0.0;0.2841666666666666
DATAMONGO;1258;DATAMONGO-1062;1.0;1.0;0.0;0.0;0.0;0.0;0.0;1.0
DATAMONGO;1259;DATAMONGO-1058;1.0;1.0;0.0;0.0;0.0;0.0;0.0;0.9166666666666666
DATAMONGO;1260;DATAMONGO-1057;1.0;1.0;0.0;0.0;0.0;0.0;0.0;0.6875
DATAMONGO;1261;DATAMONGO-1053;46.0;0.021739130434782608;0.0;0.0;0.0;0.0;0.0;0.01570048309178744
DATAMONGO;1262;DATAMONGO-1063;2.0;0.5;0.0;0.0;0.0;0.0;0.0;0.3333333333333333
DATAMONGO;1263;DATAMONGO-1070;1.0;1.0;0.0;0.0;0.0;0.0;0.0;0.39625850340136054
DATAMONGO;1264;DATAMONGO-1068;4.0;0.25;0.0;0.0;0.0;0.0;0.0;0.26785714285714285
DATAMONGO;1265;DATAMONGO-1072;6.0;0.16666666666666666;0.0;0.0;0.0;0.0;0.0;0.20491452991452994
DATAMONGO;1266;DATAMONGO-1076;1.0;1.0;0.0;0.0;0.0;0.0;0.0;0.55
DATAMONGO;1267;DATAMONGO-1077;1.0;1.0;0.0;0.0;0.0;0.0;0.0;0.8055555555555555
DATAMONGO;1268;DATAMONGO-1080;1.0;1.0;0.0;0.0;0.0;0.0;0.0;0.5217391304347826
DATAMONGO;1269;DATAMONGO-1050;7.0;0.14285714285714285;0.0;0.0;0.0;0.0;0.0;0.11373293373293374
DATAMONGO;1270;DATAMONGO-1078;5.0;0.2;0.0;0.0;0.0;0.0;0.0;0.19090909090909092
DATAMONGO;1271;DATAMONGO-1088;4.0;0.25;0.0;0.0;0.0;0.0;0.0;0.20833333333333331
DATAMONGO;1272;DATAMONGO-1096;1.0;1.0;0.0;0.0;0.0;0.0;0.0;1.0
DATAMONGO;1273;DATAMONGO-1094;1.0;1.0;0.0;0.0;0.0;0.0;0.0;0.5909090909090909
DATAMONGO;1274;DATAMONGO-1087;1.0;1.0;0.0;0.0;0.0;0.0;0.0;0.8333333333333333
DATAMONGO;1275;DATAMONGO-1043;11.0;0.09090909090909091;0.0;0.0;0.0;0.0;0.0;0.12237762237762238
DATAMONGO;1276;DATAMONGO-1120;1.0;1.0;0.0;0.0;0.0;0.0;0.0;0.3612394851525286
DATAMONGO;1277;DATAMONGO-1118;1.0;1.0;0.0;0.0;0.0;0.0;0.0;0.7222222222222222
DATAMONGO;1278;DATAMONGO-1123;3.0;0.3333333333333333;0.0;0.0;0.0;0.0;0.0;0.3333333333333333
DATAMONGO;1279;DATAMONGO-1139;6.0;0.16666666666666666;0.0;0.0;0.0;0.0;0.0;0.13174603174603175
DATAMONGO;1280;DATAMONGO-1121;1.0;1.0;0.0;0.0;0.0;0.0;0.0;0.7
DATAMONGO;1281;DATAMONGO-1126;3.0;0.3333333333333333;0.0;0.0;0.0;0.0;0.0;0.22723809523809524
DATAMONGO;1282;DATAMONGO-1180;1.0;1.0;0.0;0.0;0.0;0.0;0.0;0.7
DATAMONGO;1283;DATAMONGO-1208;1.0;1.0;0.0;0.0;0.0;0.0;0.0;0.625
DATAMONGO;1284;DATAMONGO-1133;8.0;0.125;0.0;0.0;0.0;0.0;0.0;0.13392857142857142
DATAMONGO;1285;DATAMONGO-1193;1.0;1.0;0.0;0.0;0.0;0.0;0.0;1.0
DATAMONGO;1286;DATAMONGO-1202;7.0;0.14285714285714285;0.0;0.0;0.0;0.0;0.0;0.11374656245476913
DATAMONGO;1287;DATAMONGO-1216;1.0;1.0;0.0;0.0;0.0;0.0;0.0;0.5204081632653061
DATAMONGO;1288;DATAMONGO-1210;2.0;0.5;0.0;0.0;0.0;0.0;0.0;0.46349206349206346
DATAMONGO;1289;DATAMONGO-1229;5.0;0.2;0.0;0.0;0.0;0.0;0.0;0.18333333333333335
DATAMONGO;1290;DATAMONGO-1166;1.0;1.0;0.0;0.0;0.0;0.0;0.0;0.5833333333333334
DATAMONGO;1291;DATAMONGO-1232;2.0;0.5;0.0;0.0;0.0;0.0;0.0;0.39285714285714285
DATAMONGO;1292;DATAMONGO-1250;6.0;0.16666666666666666;0.0;0.0;0.0;0.0;0.0;0.17424242424242425
DATAMONGO;1293;DATAMONGO-1251;3.0;0.3333333333333333;0.0;0.0;0.0;0.0;0.0;0.30952380952380953
DATAMONGO;1294;DATAMONGO-1244;5.0;0.2;0.0;0.0;0.0;0.0;0.0;0.2111111111111111
DATAMONGO;1295;DATAMONGO-1236;8.0;0.125;0.0;0.0;0.0;0.0;0.0;0.1534090909090909
DATAMONGO;1296;DATAMONGO-1257;5.0;0.2;0.0;0.0;0.0;0.0;0.0;0.2111111111111111
DATAMONGO;1297;DATAMONGO-1254;3.0;0.3333333333333333;0.0;0.0;0.0;0.0;0.0;0.3666666666666667
DATAMONGO;1298;DATAMONGO-1269;4.0;0.25;0.0;0.0;0.0;0.0;0.0;0.2601449275362319
DATAMONGO;1299;DATAMONGO-1307;2.0;0.5;0.0;0.0;0.0;0.0;0.0;0.5
DATAMONGO;1300;DATAMONGO-1276;2.0;0.5;0.0;0.0;0.0;0.0;0.0;0.5
DATAMONGO;1301;DATAMONGO-1293;1.0;1.0;0.0;0.0;0.0;0.0;0.0;1.0
DATAMONGO;1302;DATAMONGO-1295;1.0;1.0;0.0;0.0;0.0;0.0;0.0;1.0
DATAMONGO;1303;DATAMONGO-1263;10.0;0.1;0.0;0.0;0.0;0.0;0.0;0.08703703703703704
DATAMONGO;1304;DATAMONGO-1297;2.0;0.5;0.0;0.0;0.0;0.0;0.0;0.5833333333333333
DATAMONGO;1305;DATAMONGO-1204;1.0;1.0;0.0;0.0;0.0;0.0;0.0;0.625
DATAMONGO;1306;DATAMONGO-1290;10.0;0.1;0.0;0.0;0.0;0.0;0.0;0.1
DATAMONGO;1307;DATAMONGO-1335;2.0;0.5;0.0;0.0;0.0;0.0;0.0;0.5
DATAMONGO;1308;DATAMONGO-1190;1.0;1.0;0.0;0.0;0.0;0.0;0.0;0.38573369565217386
DATAMONGO;1309;DATAMONGO-934;7.0;0.14285714285714285;0.0;0.0;0.0;0.0;0.0;0.077713399189463
DATAMONGO;1310;DATAMONGO-1342;1.0;1.0;0.0;0.0;0.0;0.0;0.0;0.6428571428571428
DATAMONGO;1311;DATAMONGO-1289;21.0;0.047619047619047616;0.0;0.0;0.0;0.0;0.0;0.031003768413840355
DATAMONGO;1312;DATAMONGO-1334;1.0;1.0;0.0;0.0;0.0;0.0;0.0;0.6597222222222222
DATAMONGO;1313;DATAMONGO-1360;13.0;0.07692307692307693;0.0;0.0;0.0;0.0;0.0;0.029980580159716972
DATAMONGO;1314;DATAMONGO-1361;1.0;1.0;0.0;0.0;0.0;0.0;0.0;1.0
DATAMONGO;1315;DATAMONGO-1288;3.0;0.3333333333333333;0.0;0.0;0.0;0.0;0.0;0.15012626262626264
DATAMONGO;1316;DATAMONGO-1397;1.0;1.0;0.0;0.0;0.0;0.0;0.0;1.0
DATAMONGO;1317;DATAMONGO-1387;2.0;0.5;0.0;0.0;0.0;0.0;0.0;0.35
DATAMONGO;1318;DATAMONGO-1401;2.0;0.5;0.0;0.0;0.0;0.0;0.0;0.45
DATAMONGO;1319;DATAMONGO-1425;3.0;0.3333333333333333;0.0;0.0;0.0;0.0;0.0;0.34851190476190474
DATAMONGO;1320;DATAMONGO-1436;18.0;0.05555555555555555;0.0;0.0;0.0;0.0;0.0;0.03373015873015873
DATAMONGO;1321;DATAMONGO-1416;7.0;0.14285714285714285;0.0;0.0;0.0;0.0;0.0;0.10084033613445378
DATAMONGO;1322;DATAMONGO-1423;4.0;0.25;0.0;0.0;0.0;0.0;0.0;0.2159090909090909
DATAMONGO;1323;DATAMONGO-1438;35.0;0.02857142857142857;0.0;0.0;0.0;0.0;0.0;0.018872870249017036
DATAMONGO;1324;DATAMONGO-1437;1.0;1.0;0.0;0.0;0.0;0.0;0.0;1.0
DATAMONGO;1325;DATAMONGO-1453;2.0;0.5;0.0;0.0;0.0;0.0;0.0;0.3214285714285714
DATAMONGO;1326;DATAMONGO-1394;53.0;0.018867924528301886;0.0;0.0;0.0;0.0;0.0;0.025827404887101765
DATAMONGO;1327;DATAMONGO-1471;1.0;1.0;0.0;0.0;0.0;0.0;0.0;0.4079004329004329
DATAMONGO;1328;DATAMONGO-1476;2.0;0.5;0.0;0.0;0.0;0.0;0.0;0.5
DATAMONGO;1329;DATAMONGO-1465;1.0;1.0;0.0;0.0;0.0;0.0;0.0;0.75
DATAMONGO;1330;DATAMONGO-1406;4.0;0.25;0.0;0.0;0.0;0.0;0.0;0.2361111111111111
DATAMONGO;1331;DATAMONGO-1486;5.0;0.2;0.0;0.0;0.0;0.0;0.0;0.225
DATAMONGO;1332;DATAMONGO-1485;3.0;0.3333333333333333;0.0;0.0;0.0;0.0;0.0;0.23809523809523808
DATAMONGO;1333;DATAMONGO-1497;1.0;1.0;0.0;0.0;0.0;0.0;0.0;0.6428571428571428
DATAMONGO;1334;DATAMONGO-1498;67.0;0.014925373134328358;0.0;0.0;0.0;0.0;0.0;0.018684650861358565
DATAMONGO;1335;DATAMONGO-1368;3.0;0.3333333333333333;0.0;0.0;0.0;0.0;0.0;0.41666666666666663
DATAMONGO;1336;DATAMONGO-1513;1.0;1.0;0.0;0.0;0.0;0.0;0.0;1.0
DATAMONGO;1337;DATAMONGO-1500;1.0;1.0;0.0;0.0;0.0;0.0;0.0;0.7
DATAMONGO;1338;DATAMONGO-1521;1.0;1.0;0.0;0.0;0.0;0.0;0.0;0.7555555555555555
DATAMONGO;1339;DATAMONGO-1534;3.0;0.3333333333333333;0.0;0.0;0.0;0.0;0.0;0.3666666666666667
DATAMONGO;1340;DATAMONGO-1565;13.0;0.07692307692307693;0.0;0.0;0.0;0.0;0.0;0.045980335454019666
