{"key":"DATACMNS-114","title":"Wrong custom implementation automatically detected","description":"When starting the application context, the contractRepository bean is linked to our anotherContractRepositoryImpl rather than the contractRepositoryImpl.   It might be desirable to scan on getImplementationClassName() before applying the wildcard prefix. AbstractRepositoryConfigDefinitionParser.detectCustomImplementation(...) getImplementationClassName()"}
{"key":"DATACMNS-233","title":"DomainClassConverter should gracefully return null for null sources or empty strings","description":"I think it should not try to convert to Domain class if id is null or empty.       @javax.validation.constraints.NotNull @javax.persistence.ManyToOne"}
{"key":"DATACMNS-441","title":"Analyzing @Query annotated bridge methods lead to NPEs during QueryMethod processing in Java 8","description":"We should skip bridge methods instead considering them for @Query annotation inspection, since we cannot extract the generic type parameter from bridge  methods. @Query"}
