{"codeSnippets": [], "creation_date": "2006-05-26T21:35:46.000-05:00", "description": "beanshel bean shell bsh org apach common configur propertiesconfigur properti configur bsh setproperti set properti foo bsh getlong foo error uncaught method invoc getlong line file unknown file getlong foo target org apach common configur conversionexcept convers foo map object org apach common configur conversionexcept convers foo map object org apach common configur abstractconfigur configur getlong abstractconfigur configur java problem object properti attempt propertyconvert properti convert tolong treat string convert number convert confus behaviour reload properti work fine integ string", "fixed_files": ["org.apache.commons.configuration.TestBaseConfiguration", "org.apache.commons.configuration.PropertyConverter", "org.apache.commons.configuration.TestPropertyConverter"], "key": "CONFIGURATION-214", "original_text": "Adding an integer and getting it as a long causes an exception Try this in a BeanShell:\nbsh % p = new org.apache.commons.configuration.PropertiesConfiguration();\nbsh % p.setProperty(\"foo\", 6);\nbsh % p.getLong(\"foo\");\n// Error: // Uncaught Exception: Method Invocation p.getLong : at Line: 3 : in file: <unknown file> : p .getLong ( \"foo\" )\nTarget exception: org.apache.commons.configuration.ConversionException: 'foo' doesn't map to a Long object\norg.apache.commons.configuration.ConversionException: 'foo' doesn't map to a Long object\n        at org.apache.commons.configuration.AbstractConfiguration.getLong(AbstractConfiguration.java:667)\nThe problem is that when an object in a property is not a Long, the only attempt of PropertyConverter.toLong() is that of treating it as a string. It could try to convert it to a Number first and then try to convert it to a long. It is a very confusing behaviour, because if you save and reload the properties everything works fine (as now the integer is a string).", "resolution_date": "2006-06-02T02:55:45.000-05:00", "stackTraces": [], "title": "integ caus"}
{"codeSnippets": [], "creation_date": "2006-08-14T23:59:22.000-05:00", "description": "getdatearray date array string key date defaultvalu valu string format dataconfigur data configur take format argument call getdatelist date list key call probabl getdatelist date list key format", "fixed_files": ["org.apache.commons.configuration.TestDataConfiguration", "org.apache.commons.configuration.DataConfiguration"], "key": "CONFIGURATION-220", "original_text": "getDateArray(String key, Date[] defaultValue, String format) ignores format argument getDateArray(String key, Date[] defaultValue, String format) in DataConfiguration takes a format argument, but it is not used in the call to getDateList(key). This call should probably be getDateList(key, format).", "resolution_date": "2006-08-15T20:27:44.000-05:00", "stackTraces": [], "title": "getdatearray date array string key date defaultvalu valu string format ignor format argument"}
{"codeSnippets": [], "creation_date": "2006-09-22T11:34:34.000-05:00", "description": "xmlconfigur xml configur subset filechangedreloadingstrategi file chang reload strategi file chang configur xml conf parent item sub item old valu sub item parent item conf xmlconfigur xml configur load config xmlconfigur xml configur conf xml config setreloadingstrategi set reload strategi filechangedreloadingstrategi file chang reload strategi sub item node valu chang valu code configur parentitemconfig parent item config config subset parent item string parentitemconfig parent item config getstr string sub item old valu config getstr string parent item sub item refresh valu bug filechangedreloadingstrategi file chang reload strategi creat subset receiv old valu workaround config user call config reload strategi haschang chang", "fixed_files": ["org.apache.commons.configuration.AbstractHierarchicalFileConfiguration", "org.apache.commons.configuration.TestXMLConfiguration"], "key": "CONFIGURATION-228", "original_text": "XMLConfiguration.subset() with FileChangedReloadingStrategy does *not* 'see' file changes XMLConfiguration.subset() with FileChangedReloadingStrategy does not 'see' file changes\nConfiguration.xml:\n<conf>\n    <parent-item>\n        <sub-item>old_value</sub-item>\n    </parent-item>\n</conf>\n1. XMLConfiguration is loaded:\n            config = new XMLConfiguration(\"c:conf.xml\");\n            config.setReloadingStrategy(new FileChangedReloadingStrategy());\n2. Now, <sub-item> node value changes to \"new_value\",\nand the code:\n            Configuration parentItemConfig = config.subset(\"parent-item\"); [AA]\n            String ss2 = parentItemConfig.getString(\"sub-item\");\nreturns \"old_value\" !!!\nwhile:  config.getString(\"parent-item.sub-item\"); returns new refreshed value.\nIt is a bug, we have FileChangedReloadingStrategy, we create new subset in [AA] but receive old values.\n[for now, workaround for config users is to call config.reload() when strategy.hasChanged()]\n", "resolution_date": "2006-10-16T20:26:45.000-05:00", "stackTraces": [], "title": "xmlconfigur xml configur subset filechangedreloadingstrategi file chang reload strategi file chang"}
{"codeSnippets": [], "creation_date": "2006-09-18T19:53:39.000-05:00", "description": "current implement configurationdynabean configur dyna bean make assumpt underli configur object met configur implement especi set valu index properti call getlist list manipul map properti subset configur work configur deriv hierarchicalconfigur hierarch configur", "fixed_files": ["org.apache.commons.configuration.beanutils.ConfigurationDynaBean"], "key": "CONFIGURATION-227", "original_text": "ConfigurationDynaBean does not work well with all types of configurations The current implementation of ConfigurationDynaBean makes some assumptions about the underlying Configuration object that are not met by all configuration implementations. Especially setting values for indexed properties by calling getList() and manipulating mapped properties through a subset configuration do not work for configurations derived from HierarchicalConfiguration.", "resolution_date": "2006-10-30T20:24:56.000-06:00", "stackTraces": [], "title": "configurationdynabean configur dyna bean work type configur"}
{"codeSnippets": [], "creation_date": "2007-06-20T18:31:05.000-05:00", "description": "cycl context webspher certainli getkey key call jndiconfigur jndi configur eventu recursivegetkey recurs key call call subcontext stop cycl suggest follow chang recursivegetkey recurs key fix check subcontext process don't process addit stack argument recursivegetkey recurs key trick maxdepth max depth attribut jndi maxdepth max depth number subcontext equal maxdepth max depth stop process maxdepth max depth attribut option cours valu stack argument check amount subcontext process abl dump configur debug purpos item test work easili test code think problem exist", "fixed_files": ["org.apache.commons.configuration.TestJNDIConfiguration", "org.apache.commons.configuration.JNDIConfiguration"], "key": "CONFIGURATION-281", "original_text": "JNDIConfiguration::recursiveGetKeys goes out of stack There can be cycles in contexts. Websphere 5.1 certainly does have them.\nWhen getKeys() is called on a JNDIConfiguration, eventually recursiveGetKeys() is called, which calls itself for every subcontext. This will never stop if there is a cycle.\nI would like to suggest the following changes to recursiveGetKeys() to fix this:\n1) check for each subcontext if it has been processed before. If so, don't process it. An additional stack argument to recursiveGetKeys() should do the trick here.\n2) a maxDepth attribute, like <jndi maxDepth=\"4\"/>. If the number of subcontexts is equal to maxDepth, stop processing. The maxDepth attribute should be optional of course, and have a default value like 911or so. The stack argument could be used to check the amount of subcontexts processed.\nBecause I want to be able to dump the configuration for debugging purposes, this item is of somewhat importance to me.\nI tested this in 1.2 at work, so I cannot easily test this against 1.4. But as the code of 1.4 seems to be more or less the same, I think the problem still exists.\n", "resolution_date": "2007-06-21T20:00:56.000-05:00", "stackTraces": [], "title": "jndiconfigur jndi configur recursivegetkey recurs key goe stack"}
{"codeSnippets": [], "creation_date": "2010-03-17T21:39:01.000-05:00", "description": "databaseconfigur databas configur object datasourc autocommit setproperti set properti method fail duplic key error happen setproperti set properti method two call clearproperti clear properti key addproperti add properti key valu retriev two differ connect databas", "fixed_files": ["org.apache.commons.configuration.DatabaseConfiguration", "org.apache.commons.configuration.TestDatabaseConfiguration"], "key": "CONFIGURATION-412", "original_text": "Cannot use DatabaseConfiguration if the datasource has autocommit = false If using a DatabaseConfiguration object with a datasource that has autocommit = false, the setProperty method fails with a duplicate key error.\nThis happens because in the setProperty method the two calls clearProperty(key) and addProperty(key, value) can retrieve two different connections from the database.", "resolution_date": "2010-04-07T20:28:47.000-05:00", "stackTraces": [], "title": "databaseconfigur databas configur datasourc autocommit"}
