{"id":481,"bug_id":"104150","text":"[Patch] Table cursor separated from table selection when clicking on grid lines or empty space. When using a table cursor, there are two kinds of table regions that have the potential to separate the table cursor from the table selection when clicked on: 1) grid lines (table.getLinesVisible() \u003d\u003d true) 2) empty space to the left of the first cell of each row (SWT.FULL_SELECTION)  No matter which part of the table the user clicks on, the table cursor should follow the table selection as closely as possible if the selection is changed as a result of the click. To reproduce the problem, use snippet 96 with an added table.setLinesVisible(true).","file_goldset":["org.eclipse.swt.custom.TableCursor"],"creation_date":"2005-07-16 19:58:00","resolution_date":"2006-03-15 15:21:00"}
{"id":482,"bug_id":"104545","text":"Make default size of empty composites smaller. Could the following two constants in Widget.java be changed to something smaller?   Anything less than or equal to 16 would work for us, 0 would be OK too.  Background: When you write an RCP app and enable the cool bar, the cool bar will initially be empty, but 64x64 pixels in size. On Windows, you cannot see the border of the empty coolbar so the user gets a big empty space at the top of their window and might be confused.","file_goldset":["org.eclipse.swt.widgets.CoolBar"],"creation_date":"2005-07-20 14:21:00","resolution_date":"2009-08-27 04:54:00"}
{"id":488,"bug_id":"77948","text":"NullPointerException in CLabel.findMnemonic. I was creating new simple files in existing projects, and then deleting them.   I was using the keyboard heavily for navigation.  I found the exception below  in the log.   There was no major effect from this null pointer, but it might have been  responsible for some buttons not disabling when they should.  I\u0027ll investiage","file_goldset":["org.eclipse.swt.custom.CLabel"],"creation_date":"2004-11-05 09:53:00","resolution_date":"2004-11-12 08:40:00"}
{"id":496,"bug_id":"81264","text":"Table fails to setTopIndex after new items are added to the table. Here\u0027s my testcase to demonstrate the problem:                   Table.setTopIndex fails to position to the correct table item if new items are added to the table after the shell is opened. The first call to setTopIndex succeeds. The table is correctly positioned at item 20. After adding new table items to the table, calling setTopTable(40) has no effect. Calling getTopIndex continues to return 20.  Calling setTopIndex(40) should move table item #40 to the top of the table. Calling getTopIndex after should return 40.","file_goldset":["org.eclipse.swt.widgets.List","org.eclipse.swt.widgets.Table","org.eclipse.swt.widgets.Tree"],"creation_date":"2004-12-15 13:17:00","resolution_date":"2006-04-12 13:22:00"}
{"id":500,"bug_id":"83262","text":"rxvt pastes null terminator. When pasting using the middle mouse button from StyledText into an rxvt window,\nit contains a null terminator at the end. Pasting from other applications like\ngedit or mozilla into rxvt does not show this behaviour, and this is not\nreproducable when pasting into an xterm.  Since the X clipboard protocol has a string length field, we do not need to be\nnull terminating these strings.","file_goldset":["org.eclipse.swt.dnd.RTFTransfer","org.eclipse.swt.dnd.TextTransfer"],"creation_date":"2005-01-19 17:41:00","resolution_date":"2005-02-16 20:17:00"}
{"id":504,"bug_id":"86000","text":"ImageLoader Save - produces invalid JPEG images. The ImageLoader Save function appears to be producing bad JPG images.  Simple test case below loads\n PNG Files and Saves them as JPEG. Many files were tested and the majority \n did produced the proper JPG images as expected.","file_goldset":["org.eclipse.swt.internal.image.JPEGFileFormat"],"creation_date":"2005-02-21 14:47:00","resolution_date":"2005-02-23 18:02:00"}
{"id":508,"bug_id":"87460","text":"StyledText: Caret location not updated when line style is used. In the snippet below, there is a StyledText with a line style listener. In the line style listener, a bold font style is set, changing the width of the rendered text. I would have expected the on-screen caret location (not the offset) to be adjusted to the change. However, this does not happen.","file_goldset":["org.eclipse.swt.custom.StyledText"],"creation_date":"2005-03-08 21:22:00","resolution_date":"2008-07-29 13:13:00"}
{"id":512,"bug_id":"88717","text":"[DND] Tree is scrolling very slow when dragging an Item to the Bottom. Create a Tree with some items and implement DND support as explained in this Snippet:  Now expand some items so that vertical scrollbars are appearing. When draggin an item to the bottom, the Tree is not scrolling. It is currently not possible to Drag an Item to a position that is out of view. I would have thought that DND.FEEDBACK_SCROLL enables automatic scrolling, in case the user drags an Item to the bottom but it does\u0027nt.","file_goldset":["org.eclipse.swt.dnd.TableDragUnderEffect","org.eclipse.swt.dnd.TreeDragUnderEffect"],"creation_date":"2005-03-22 04:34:00","resolution_date":"2005-04-23 18:19:00"}
{"id":513,"bug_id":"88829","text":"- start with five columns, all different widths - do Table.setColumnOrder(new int[] {4,1,2,3,0}); - SWT.Move events are fired for columns 0 and 4 because they swapped positions -\u003e but Move should have been fired for all of the columns since the width of the first displayed column changed, and therefore all of the other columns are auto-shifted accordingly","file_goldset":["org.eclipse.swt.widgets.Table"],"creation_date":"2005-03-22 20:41:00","resolution_date":"2005-04-06 17:05:00"}
{"id":518,"bug_id":"93724","text":"Drag-and-drop creates signal names every time. Here is an example of some code in DragSource.java for GTK+:       Rather than converting the names for the signals every time, these signal names should be defined in OS.java so that they can be only created once.","file_goldset":["org.eclipse.swt.dnd.DragSource","org.eclipse.swt.dnd.DropTarget"],"creation_date":"2005-05-04 17:35:00","resolution_date":"2005-05-30 15:14:00"}
{"id":520,"bug_id":"94598","text":"DBCS3.1:Eclipse hangs when activate IIMF input in search scope of Help. Summary: DBCS3.1:Eclipse hangs when activate IIMF input in search scope of Help  1 Install Eclipse SDK and NL pack 2 Click \"Help\" from menu -\u003e select \"Help Content\" -\u003e Click \"Search Scope\", a Search Scope dialog pop up. 3 Select \"Search all topics\", Click \"New\", the New Search List dialog pop up. 4 Then try to active IIMF input method by \"CTRL+SPACE\" key in order to input DBCS characters, but Eclipse hangs. No response from Eclipse. Error:  Eclipse hangs and can\u0027t switch or change any input method. Expected Result:  IIMF input should be working properly for inputing/key in \nDBCS characters.","file_goldset":["org.eclipse.swt.browser.Browser","org.eclipse.swt.widgets.Composite"],"creation_date":"2005-05-11 00:01:00","resolution_date":"2005-05-27 04:59:00"}
{"id":523,"bug_id":"97651","text":"- run the snippet below - the insert line is set to be under the \"root\" item - collapse the root item -\u003e problem 1: this makes most of the insert line go away, except for its pointy ends. This line should not go away because it belongs to the \"root\" item, not to the \"child\" item, but if it really wants to go away, then its end tips should not be left - press the button to the right of the Table: this does a Tree.redraw(), and note that the insert line reappears, so I guess it never really meant to go away -\u003e problem 2: now expand the root item again and its insert mark gets copied to below the child item in addition to its initial location. This is cheese, as can be seen by damaging part of this line with another window","file_goldset":["org.eclipse.swt.dnd.TreeDragUnderEffect","org.eclipse.swt.widgets.Tree"],"creation_date":"2005-05-31 14:43:00","resolution_date":"2005-06-03 13:04:00"}
