{"key":"CONFIGURATION-242","title":"The configuration returned by HierarchicalConfiguration.subset() does not globally interpolate","description":""}
{"key":"CONFIGURATION-241","title":"clearProperty() does not generate events","description":""}
{"key":"CONFIGURATION-259","title":"ConfigurationFactory Merge is broken","description":""}
