{"key":"DATACMNS-68","title":"NullPointerException in AbstractPersistentProperty::getComponentType()","description":""}
{"key":"DATACMNS-19","title":"Invalid entity metadata when domain class implements persistable","description":""}
{"key":"DATACMNS-42","title":"MappingContext does not map BigDecimal correctly","description":""}
{"key":"DATACMNS-57","title":"Use of parameterized type in constructor_ arguments is not supported","description":""}
