{"key":"DATAMONGO-1263","title":"Missing indexes in associations involving generic types","description":""}
{"key":"DATAMONGO-1290","title":"@Query annotation with byte[] parameter does not work","description":""}
{"key":"DATAMONGO-1250","title":"Custom converter implementation not used in updates","description":""}
