{"key":"WFCORE-267","title":"CLI prints output twice if using cli client jar","description":""}
{"key":"WFCORE-438","title":"The CLI freezes in phase of requesting username/password","description":""}
{"key":"WFCORE-229","title":"server-config operations \"leaks\" to server\u0027s resources","description":""}
{"key":"WFCORE-752","title":"Only one deployment overlay can be created for each deployment","description":""}
{"key":"WFCORE-507","title":" Unit test FileSystemDeploymentServiceUnitTestCase fails on IBM JDK ","description":""}
{"key":"WFCORE-763","title":"Persisting an empty list [] gets read as a list with empty string [\"\"] resulting in IllegalArgumentException","description":""}
{"key":"WFCORE-500","title":"domain mode: remove a path entry from a server instance fails","description":""}
{"key":"WFCORE-765","title":"Shutdown error in domain mode","description":""}
{"key":"WFCORE-495","title":"WFLY won\u0027t startup due to \"WFLYCTL0212: Duplicate resource [(\\\"deployment\\\" \u003d\u003e \\\"xxx.war\\\")]\"","description":""}
{"key":"WFCORE-754","title":"EAP fails to start with -bmanagement\u003d option and with specific IP settings","description":""}
{"key":"WFCORE-499","title":"System properties are broken in domain mode","description":""}
{"key":"WFCORE-534","title":"Deployment scanner runtime-failure-causes-rollback attribute is not stored to the model","description":""}
{"key":"WFCORE-540","title":"CVE-2014-7849 WildFly Domain Management: Limited RBAC authorization bypass","description":""}
{"key":"WFCORE-604","title":" After failed to deploy, remain deployment information in JBOSS_HOME/{standalone|domaine}/data/content directory","description":""}
{"key":"WFCORE-701","title":"Inconsistent domain server status reports between server-config resource and server resource","description":""}
{"key":"WFCORE-1067","title":" CVE-2015-5304 Missing authorization check for Monitor/Deployer/Auditor role when shutting down server or canceling op","description":""}
{"key":"WFCORE-638","title":"deployment runtime-name mismatch between content repo and server-group and logs","description":""}
{"key":"WFCORE-626","title":"Global list-get operation can inadvertently create list elements","description":""}
{"key":"WFCORE-58","title":"Setting some locales causes missing buttons on console and throws errors.","description":""}
{"key":"WFCORE-625","title":"Error message in CLI if extension existing on the server is not present in the CLI instalaltion","description":""}
{"key":"WFCORE-71","title":"ProtocolLogger is used outside org.jboss.as.protocol module but isn\u0027t available","description":""}
{"key":"WFCORE-230","title":"Failure by ProcessController to launch a server vm is not logged","description":""}
{"key":"WFCORE-72","title":"deploy --force fails in CLI GUI","description":""}
{"key":"WFCORE-676","title":"data-source ..  --new-connection-sql  does not allow double qoutes in the SQL","description":""}
{"key":"WFCORE-154","title":"Patching does not process subdirectories","description":""}
{"key":"WFCORE-657","title":"CLI embedded server does not always clean up properly","description":""}
{"key":"WFCORE-233","title":"Subsystem ordering is lost during marshalling","description":""}
{"key":"WFCORE-687","title":"patches with duplicate element patch-id values should be rejected","description":""}
{"key":"WFCORE-268","title":"CLI GUI fails if connecting to AS7 or EAP6","description":""}
{"key":"WFCORE-213","title":"Clean unreferenced items from the content repository","description":""}
{"key":"WFCORE-702","title":"periodic-size-rotating-file-handler is missing from logging profiles","description":""}
{"key":"WFCORE-145","title":"CLI run-batch command cannot process files with comments or blank lines","description":""}
{"key":"WFCORE-706","title":"Non exploded deployments are incorrectly marked as exploded","description":""}
{"key":"WFCORE-285","title":"cli tab completion gets confused by double slash","description":""}
{"key":"WFCORE-442","title":"AbstractMultiTargetHandler-based handlers do not propagate failures to the top level failure-description","description":""}
