{"key":"WFCORE-1481","title":"list-add operation doesn\u0027t work on login-modules attribute","description":""}
{"key":"WFCORE-1428","title":"log-file.stream attribute is of type LONG but contains a string","description":""}
{"key":"WFCORE-1439","title":"Allow for testsuite to pass on French OS","description":""}
{"key":"WFCORE-1437","title":"Using JKS truststore leads to \"FIPS mode: only SunJSSE TrustManagers may be used\"","description":""}
{"key":"WFCORE-1452","title":"Socket binding resources do not register a requirement for their interface","description":""}
{"key":"WFCORE-1453","title":"module patched in a one-off not included in the next cp is not port-forwarded from the prev cp","description":""}
{"key":"WFCORE-1464","title":"LogContexts are not removed for ear subdeployments","description":""}
{"key":"WFCORE-1373","title":"Unable to specify custom configuration directory via -Djboss.server.config.dir","description":""}
{"key":"WFCORE-1493","title":"org.jboss.as.host.controller.Main.getHostSystemProperties() doesn\u0027t propagate -Djdk.launcher.addexports.%d\u003d%s value properly","description":""}
