{"key":"WFCORE-1120","title":"Launcher sets \"-Djava.net.preferIPv4Stack\u003dtrue\" also with IPv6 profile","description":""}
{"key":"WFCORE-1136","title":"Subsystem parser tests fail when woodstox parser is on classpath","description":""}
{"key":"WFCORE-1134","title":"A java.lang.Error in Stage.DONE can lead to hangs","description":""}
