{"key":"WFCORE-1188","title":"Exiting CLI requires stty sane command to be issued on Linux","description":""}
{"key":"WFCORE-1214","title":"Operation headers not propagated to domain servers when \u0027composite\u0027 op is used","description":""}
{"key":"WFCORE-1212","title":"TestModule does not clean up after itself properly","description":""}
{"key":"WFCORE-1210","title":"Transformations are not triggered for aliases","description":""}
{"key":"WFCORE-1198","title":"CLI does not resolve multiple properties if one property is undefined","description":""}
