{"id":4,"bug_id":"260","text":"Full Screen doesn\u0027t work for Windows aTunes. aTunes v1.11.0\nFull Screen looks like screenshot.\n","title":"Full Screen doesn\u0027t work for Windows aTunes","description":"aTunes v1.11.0\nFull Screen looks like screenshot.\n","method_goldset":["net.sourceforge.atunes.gui.views.dialogs.fullScreen.FullScreenDialog:FullScreenDialog(JFrame)"],"creation_date":"2008-12-1 22:42:01","resolution_date":"2012-10-9 11:17:30"}
{"id":12,"bug_id":"264","text":"Wrong song duration displayed by player. On some longer songs that I bought from Amazon, the player displays the wrong song length when the song is playing.  Example - the song 49:00 by Paul Westerberg is 43:55, but when the song starts playing, the time at the bottom of the player is 86:34.  The time is correct in the info dialog.  Another example is \"In a Silent Way\" by Miles Davis.  It\u0027s two songs are both about 18:00 minutes long but show up as more than 36:00 in the player.  The bit rates for the songs are unusual - 252k for the Westerberg song, so maybe that confuses the player.  The songs sound ok - no problem with the actual playing.","title":"Wrong song duration displayed by player","description":"On some longer songs that I bought from Amazon, the player displays the wrong song length when the song is playing.  Example - the song 49:00 by Paul Westerberg is 43:55, but when the song starts playing, the time at the bottom of the player is 86:34.  The time is correct in the info dialog.  Another example is \"In a Silent Way\" by Miles Davis.  It\u0027s two songs are both about 18:00 minutes long but show up as more than 36:00 in the player.  The bit rates for the songs are unusual - 252k for the Westerberg song, so maybe that confuses the player.  The songs sound ok - no problem with the actual playing.","method_goldset":["net.sourceforge.atunes.kernel.modules.player.mplayer.AudioFileMPlayerOutputReader:AudioFileMPlayerOutputReader(MPlayerHandler, Process, AudioFile)","net.sourceforge.atunes.kernel.modules.player.mplayer.AudioFileMPlayerOutputReader:read(String)"],"creation_date":"2008-12-5 02:02:16","resolution_date":"2012-10-9 11:12:20"}
{"id":33,"bug_id":"276","text":"Will not un-Mute. If I pause music and mute my system, aTunes mutes as well. When I un mute the system, aTunes still shows muted. Manually un mute aTunes and push play, aTunes interface no longer shows muted and the progress bar continues, yet no sound. Perform a full stop then play again and sound returns.\n\n\nMore careful examination reveals that the volume button does not update when system is unmuted (from keyboard at least).","title":"Will not un-Mute","description":"If I pause music and mute my system, aTunes mutes as well. When I un mute the system, aTunes still shows muted. Manually un mute aTunes and push play, aTunes interface no longer shows muted and the progress bar continues, yet no sound. Perform a full stop then play again and sound returns.\n\n\nMore careful examination reveals that the volume button does not update when system is unmuted (from keyboard at least).","method_goldset":["net.sourceforge.atunes.kernel.modules.player.mplayer.MPlayerHandler:applyMuteState(boolean)","net.sourceforge.atunes.kernel.modules.player.mplayer.MPlayerHandler:setVolume(int)","net.sourceforge.atunes.kernel.controllers.playerControls.PlayerControlsListener:actionPerformed(ActionEvent)"],"creation_date":"2008-12-18 18:30:02","resolution_date":"2012-10-9 11:07:01"}
{"id":36,"bug_id":"278","text":"Edit Titles Fails. After importing a CD with no title list available, select the album and right-click | Edit Titles.\n\n\nThe dialog allows me to edit a title, but as soon as I hit enter, tab, or mouse click another title, the change reverts to \"Track n\". \n\n\nAside from this particular bug, this use case needs attention and a means to change both the title in aTunes and the file name on disk in a single step with a minimum of extraneous keying.\n\n\nMarc Thibault\nmarcthibault@tanda.on.ca","title":"Edit Titles Fails","description":"After importing a CD with no title list available, select the album and right-click | Edit Titles.\n\n\nThe dialog allows me to edit a title, but as soon as I hit enter, tab, or mouse click another title, the change reverts to \"Track n\". \n\n\nAside from this particular bug, this use case needs attention and a means to change both the title in aTunes and the file name on disk in a single step with a minimum of extraneous keying.\n\n\nMarc Thibault\nmarcthibault@tanda.on.ca","method_goldset":["net.sourceforge.atunes.kernel.controllers.editTitlesDialog.EditTitlesTableModel:setValueAt(String, int, int)"],"creation_date":"2008-12-22 21:39:02","resolution_date":"2012-10-9 11:04:06"}
{"id":45,"bug_id":"281","text":"Mute button in 1.11.1. I tried to use the tray icon mute but it doesn\u0027t have effect unless I use the main UI\u0027s mute. I mute the OS but the GUI doesn\u0027t display oin the main UI Wondow or the tray icon.\n\n\nLog file\n\u003d\u003d\u003d\u003d\u003d\n\n\nINFO    [START       ] Starting aTunes 1.11.1 Bora  (Build 459 [29/11/2008])\nINFO    [START       ] Running in Java Virtual Machine 1.6.0_11\nINFO    [START       ] Arguments \u003d [-jar, C:\\Program Files\\aTunes\\aTunes.jar]\nINFO    [START       ] Debug mode \u003d false\nINFO    [START       ] Execution path \u003d C:\\Program Files\\aTunes\nINFO    [START       ] Setting language: en\nINFO    [HANDLER     ] Reading serialized favorites cache\nINFO    [HANDLER     ] Reading serialized repository cache\nINFO    [HANDLER     ] Reading repository cache done (0.156 seconds)\nINFO    [HANDLER     ] Play lists loaded (13 playlists)\nINFO    [START       ] Application started (2.437 seconds)\nINFO    isJIntellitypeSupported checking for Windows and DLL in path\nINFO    Loading JIntellitype DLL\nINFO    Initializing JIntellitype library\nINFO    isJIntellitypeSupported \u003d true\nINFO    [PLAYER      ] List of availables engines : {MPlayer}\nINFO    [PLAYER      ] Selected engine : MPlayer\nINFO    [HANDLER     ] Updating index for class net.sourceforge.atunes.kernel.modules.search.searchableobjects.FavoritesSearchableObject\nINFO    [HANDLER     ] update search index\nINFO    [HANDLER     ] Update index for class net.sourceforge.atunes.kernel.modules.search.searchableobjects.FavoritesSearchableObject finished\nINFO    [HANDLER     ] Updating index for class net.sourceforge.atunes.kernel.modules.search.searchableobjects.RepositorySearchableObject\nINFO    [HANDLER     ] update search index\nINFO    [HANDLER     ] Update index for class net.sourceforge.atunes.kernel.modules.search.searchableobjects.RepositorySearchableObject finished\nINFO    [PODCAST     ] Podcast feed entries retrieval done\nINFO    [HANDLER     ] 4 songs added to play list\nINFO    [PLAYER      ] Started play of file 01 - Musuhi no Toki.mp3\nINFO    [PODCAST     ] Podcast feed entries retrieval done\nINFO    [PODCAST     ] Podcast feed entries retrieval done\nINFO    [PLAYER      ] Stop\nINFO    [PLAYER      ] Started play of file 04 - Kioku no Keshiki Instrumental.mp3\nINFO    [PODCAST     ] Podcast feed entries retrieval done\n","title":"Mute button in 1.11.1","description":"I tried to use the tray icon mute but it doesn\u0027t have effect unless I use the main UI\u0027s mute. I mute the OS but the GUI doesn\u0027t display oin the main UI Wondow or the tray icon.\n\n\nLog file\n\u003d\u003d\u003d\u003d\u003d\n\n\nINFO    [START       ] Starting aTunes 1.11.1 Bora  (Build 459 [29/11/2008])\nINFO    [START       ] Running in Java Virtual Machine 1.6.0_11\nINFO    [START       ] Arguments \u003d [-jar, C:\\Program Files\\aTunes\\aTunes.jar]\nINFO    [START       ] Debug mode \u003d false\nINFO    [START       ] Execution path \u003d C:\\Program Files\\aTunes\nINFO    [START       ] Setting language: en\nINFO    [HANDLER     ] Reading serialized favorites cache\nINFO    [HANDLER     ] Reading serialized repository cache\nINFO    [HANDLER     ] Reading repository cache done (0.156 seconds)\nINFO    [HANDLER     ] Play lists loaded (13 playlists)\nINFO    [START       ] Application started (2.437 seconds)\nINFO    isJIntellitypeSupported checking for Windows and DLL in path\nINFO    Loading JIntellitype DLL\nINFO    Initializing JIntellitype library\nINFO    isJIntellitypeSupported \u003d true\nINFO    [PLAYER      ] List of availables engines : {MPlayer}\nINFO    [PLAYER      ] Selected engine : MPlayer\nINFO    [HANDLER     ] Updating index for class net.sourceforge.atunes.kernel.modules.search.searchableobjects.FavoritesSearchableObject\nINFO    [HANDLER     ] update search index\nINFO    [HANDLER     ] Update index for class net.sourceforge.atunes.kernel.modules.search.searchableobjects.FavoritesSearchableObject finished\nINFO    [HANDLER     ] Updating index for class net.sourceforge.atunes.kernel.modules.search.searchableobjects.RepositorySearchableObject\nINFO    [HANDLER     ] update search index\nINFO    [HANDLER     ] Update index for class net.sourceforge.atunes.kernel.modules.search.searchableobjects.RepositorySearchableObject finished\nINFO    [PODCAST     ] Podcast feed entries retrieval done\nINFO    [HANDLER     ] 4 songs added to play list\nINFO    [PLAYER      ] Started play of file 01 - Musuhi no Toki.mp3\nINFO    [PODCAST     ] Podcast feed entries retrieval done\nINFO    [PODCAST     ] Podcast feed entries retrieval done\nINFO    [PLAYER      ] Stop\nINFO    [PLAYER      ] Started play of file 04 - Kioku no Keshiki Instrumental.mp3\nINFO    [PODCAST     ] Podcast feed entries retrieval done\n","method_goldset":["net.sourceforge.atunes.kernel.handlers.SystemTrayHandler:fillMenu(JTrayIconPopupMenu)"],"creation_date":"2008-12-25 02:58:34","resolution_date":"2012-10-9 11:10:20"}
{"id":87,"bug_id":"207","text":"F11 option. Hi, \nwhen I click on \"view -\u003e Full screen\" or F11 the full screen appear for 1 second and after that aTune back to standard view.\n\n\nThanks\nStefania","title":"F11 option","description":"Hi, \nwhen I click on \"view -\u003e Full screen\" or F11 the full screen appear for 1 second and after that aTune back to standard view.\n\n\nThanks\nStefania","method_goldset":["net.sourceforge.atunes.gui.views.dialogs.fullScreen.FullScreenDialog:setFullScreen(boolean)","net.sourceforge.atunes.gui.views.dialogs.fullScreen.FullScreenDialog:setVisible(boolean)"],"creation_date":"2008-9-8 13:46:04","resolution_date":"2012-10-9 11:07:04"}
{"id":88,"bug_id":"212","text":"Context panel. When the artist tab is selected, the picture, biography and album info is correct but very often the name is not.  It is often from a prior song and will often linger for 2-3 songs","title":"Context panel","description":"When the artist tab is selected, the picture, biography and album info is correct but very often the name is not.  It is often from a prior song and will often linger for 2-3 songs","method_goldset":["net.sourceforge.atunes.kernel.controllers.contextInformation.ContextInformationPanelController:clear(boolean)"],"creation_date":"2008-9-12 23:58:46","resolution_date":"2012-10-9 11:08:39"}
{"id":90,"bug_id":"213","text":"Not supported formats are not skipped under Xine. Only for not supported file formats. How to reproduce:\n- Copy a few files (not music) into the repository and rename them to have a supported extension (for example .mp3)\n- Start aTunes, set Xine as engine, refresh repository and try to play the fake files\n\n\nExpected behaviour:\n- aTunes should skip to the next song\n\n\nActual behaviour:\n- aTunes get stuck","title":"Not supported formats are not skipped under Xine","description":"Only for not supported file formats. How to reproduce:\n- Copy a few files (not music) into the repository and rename them to have a supported extension (for example .mp3)\n- Start aTunes, set Xine as engine, refresh repository and try to play the fake files\n\n\nExpected behaviour:\n- aTunes should skip to the next song\n\n\nActual behaviour:\n- aTunes get stuck","method_goldset":["net.sourceforge.atunes.kernel.modules.player.xine.XineHandler:startPlayback(AudioObject, AudioObject)"],"creation_date":"2008-9-14 08:05:44","resolution_date":"2012-10-9 11:06:56"}
{"id":95,"bug_id":"220","text":"OSD not displayed when jumping to next or previous track. OSD only appears when pressing play button (after stop the track)","title":"OSD not displayed when jumping to next or previous track","description":"OSD only appears when pressing play button (after stop the track)","method_goldset":["net.sourceforge.atunes.kernel.handlers.PlayerHandler:playAudioObject(AudioObject)","net.sourceforge.atunes.kernel.handlers.PlayerHandler:playCurrentAudioObject(boolean)"],"creation_date":"2008-9-20 18:53:54","resolution_date":"2012-10-9 11:11:21"}
{"id":99,"bug_id":"221","text":"Multiple window mode does not work. The multiple window mode does not work in 1.10.0.","title":"Multiple window mode does not work","description":"The multiple window mode does not work in 1.10.0.","method_goldset":["net.sourceforge.atunes.kernel.ControllerProxy:getInstance()","net.sourceforge.atunes.gui.MultipleFrame:addContentToFrame()","net.sourceforge.atunes.gui.MultipleFrame:getPlayListPanel()","net.sourceforge.atunes.gui.MultipleFrame:getPlayListTable()"],"creation_date":"2008-9-21 10:31:59","resolution_date":"2012-10-9 11:04:03"}
{"id":116,"bug_id":"227","text":"Request of restarting doesn\u0027t work. When I change some properties in the preferences window and aTunes asks me to restart the application, if i press Yes, aTunes isn\u0027t restarted, but only closed.\nThe aTunes version is 1.10.0.","title":"Request of restarting doesn\u0027t work","description":"When I change some properties in the preferences window and aTunes asks me to restart the application, if i press Yes, aTunes isn\u0027t restarted, but only closed.\nThe aTunes version is 1.10.0.","method_goldset":["net.sourceforge.atunes.kernel.Kernel:startKernel(List\u003cString\u003e)","net.sourceforge.atunes.Main:main(String[])","net.sourceforge.atunes.kernel.handlers.MultipleInstancesHandler:MultipleInstancesHandler()","net.sourceforge.atunes.kernel.handlers.MultipleInstancesHandler:isFirstInstance()","net.sourceforge.atunes.kernel.handlers.MultipleInstancesHandler:sendArgumentsToFirstInstance(List\u003cString\u003e)"],"creation_date":"2008-9-25 20:12:20","resolution_date":"2012-10-9 11:02:05"}
{"id":117,"bug_id":"230","text":" mp3 ID3v2 tag. ref:[ 2129032 ]\n\n\n\nHi!\n\n\nProblem: aTunes does not set tags for some mp3 files. \n\n\nI have investigated that this happens when file has ID3v1 tag, but doesn\u0027t have ID3v2 tag. ID3v1 tag does not, however, support \u0027track number\u0027 property. Subsequently, when aTunes tries to set this property, en exception is thrown. And the tags are not updated. Console output:\n\n\n\nERROR   [FILE WRITE  ] --\u003e TagModifier.setInfo [1] Could not edit tag. File: C:\\Users\\Pawel\\Music\\test.mp3 Error: java.lang.UnsupportedOperationException: ID3v10 cannot store track numbers\n\n\n\nSample mp3 file is uploaded.\n\n\n\nI have made some workaround. It works this way: When mp3 file with ID3v1 and no ID3v2 tag is edited, then, simply, ID3v2 tag is created. \n\n\nI\u0027ll upload the source code, so that you can check if such solution is ok.\n\n\n\nRegards.","title":" mp3 ID3v2 tag","description":"ref:[ 2129032 ]\n\n\n\nHi!\n\n\nProblem: aTunes does not set tags for some mp3 files. \n\n\nI have investigated that this happens when file has ID3v1 tag, but doesn\u0027t have ID3v2 tag. ID3v1 tag does not, however, support \u0027track number\u0027 property. Subsequently, when aTunes tries to set this property, en exception is thrown. And the tags are not updated. Console output:\n\n\n\nERROR   [FILE WRITE  ] --\u003e TagModifier.setInfo [1] Could not edit tag. File: C:\\Users\\Pawel\\Music\\test.mp3 Error: java.lang.UnsupportedOperationException: ID3v10 cannot store track numbers\n\n\n\nSample mp3 file is uploaded.\n\n\n\nI have made some workaround. It works this way: When mp3 file with ID3v1 and no ID3v2 tag is edited, then, simply, ID3v2 tag is created. \n\n\nI\u0027ll upload the source code, so that you can check if such solution is ok.\n\n\n\nRegards.","method_goldset":["net.sourceforge.atunes.kernel.modules.repository.audio.AudioFile:supportsInternalPicture()"],"creation_date":"2008-10-1 22:11:02","resolution_date":"2012-10-9 11:08:37"}
{"id":118,"bug_id":"231","text":"Can\u0027t add image if repository was read by older app version. How to reproduce:\n\n\n1. Read repository by older version of aTunes\n2. Update to latest SVN\n3. Try to add an image (assuming supported file format)\n\n\nResult:\nAdding image not possible.\n\n\nProblem:\npublic boolean isSupportsInternalImage() returns false as was never set to true (as not supported in old versions).","title":"Can\u0027t add image if repository was read by older app version","description":"How to reproduce:\n\n\n1. Read repository by older version of aTunes\n2. Update to latest SVN\n3. Try to add an image (assuming supported file format)\n\n\nResult:\nAdding image not possible.\n\n\nProblem:\npublic boolean isSupportsInternalImage() returns false as was never set to true (as not supported in old versions).","method_goldset":["net.sourceforge.atunes.kernel.modules.repository.audio.AudioFile:supportsInternalPicture()"],"creation_date":"2008-10-4 18:31:26","resolution_date":"2012-10-9 11:07:21"}
{"id":119,"bug_id":"240","text":"\"Set lyrics automatically\" cannot be terminated. A problem can occur when I right-click on a file and select \"Set lyrics automatically\". If I perform that action on an obscure artist whose lyrics will not be found, the \"Performing changes...\" window appears and never goes away. I\u0027ve literally waited for ten minutes on occasion; the lyrics are never found, and the window never closes. Since that window makes it impossible to do anything with aTunes, when this happens, I must forcefully kill the program.\n\n\nThis would not be such a problem if there was an actual way to close the \"Performing changes...\" window before it finishes its task. The window has no cancel button; it _does_  have an \u0027X\u0027 button, but it does not actually do anything.\n\n\nWhile less frequent, I\u0027ve also had perpetual \"Performing changes...\" windows occur while trying to do other tag-related tasks.\n\n\nThis could be fixed either by tracking down why the \"Performing changes...\" window on occasion does not terminate or by adding a way for the user to close the window.","title":"\"Set lyrics automatically\" cannot be terminated","description":"A problem can occur when I right-click on a file and select \"Set lyrics automatically\". If I perform that action on an obscure artist whose lyrics will not be found, the \"Performing changes...\" window appears and never goes away. I\u0027ve literally waited for ten minutes on occasion; the lyrics are never found, and the window never closes. Since that window makes it impossible to do anything with aTunes, when this happens, I must forcefully kill the program.\n\n\nThis would not be such a problem if there was an actual way to close the \"Performing changes...\" window before it finishes its task. The window has no cancel button; it _does_  have an \u0027X\u0027 button, but it does not actually do anything.\n\n\nWhile less frequent, I\u0027ve also had perpetual \"Performing changes...\" windows occur while trying to do other tag-related tasks.\n\n\nThis could be fixed either by tracking down why the \"Performing changes...\" window on occasion does not terminate or by adding a way for the user to close the window.","method_goldset":["net.sourceforge.atunes.kernel.executors.processes.AddLyricsToTagProcess:run()","net.sourceforge.atunes.kernel.modules.contextInformation.Lyrics:setLyrics(String)"],"creation_date":"2008-11-1 23:11:38","resolution_date":"2012-10-9 11:14:13"}
{"id":120,"bug_id":"245","text":"Radio \"Labels\" can not be added to playlist. When trying to add a folder or label of radios to the playlist, this is not possible. For example it is not possible to add all \"Classical\" stations to the playlist by draging the folder icon into it. ","title":"Radio \"Labels\" can not be added to playlist","description":"When trying to add a folder or label of radios to the playlist, this is not possible. For example it is not possible to add all \"Classical\" stations to the playlist by draging the folder icon into it. ","method_goldset":["net.sourceforge.atunes.kernel.modules.draganddrop.TreesToPlayListDragAndDropListener:drop(DropTargetDropEvent)"],"creation_date":"2008-11-12 10:58:31","resolution_date":"2012-10-9 11:08:39"}
{"id":123,"bug_id":"259","text":"Last.fm submission bug. When I\u0027m listening to \"+44\" it is submitted to last.fm as \"44\".","title":"Last.fm submission bug","description":"When I\u0027m listening to \"+44\" it is submitted to last.fm as \"44\".","method_goldset":["net.sourceforge.atunes.kernel.modules.contextInformation.lastfm.LastFmService:LastFmService(Proxy, String, String)"],"creation_date":"2008-11-30 23:41:08","resolution_date":"2012-10-9 11:14:52"}
