{"id":20,"bug_id":"3923","text":"Problem importing Poseidon activity diagrams from XMI. Collection actionStates \u003d getModel().getAllActionStates();\n Iterator iterActionState \u003d actionStates.iterator();\niterActionState.hasNext(); ActionStateFacade actionState \u003d\n(ActionStateFacade) iterActionState.next();","class_goldset":["org.argouml.persistence.XMIParser"],"file_goldset":["org.argouml.persistence.XMIParser"],"creation_date":"2006-02-07 13:17:48","resolution_date":"2006-02-18 15:14:56"}
{"id":36,"bug_id":"4194","text":"Exception: Class PropPanelTaggedValue for Panel not found. TabProps.setTarget()","class_goldset":["org.argouml.uml.ui.TabProps","org.argouml.uml.ui.foundation.core.PropPanelTaggedValue"],"file_goldset":["org.argouml.uml.ui.TabProps","org.argouml.uml.ui.foundation.core.PropPanelTaggedValue"],"creation_date":"2006-05-08 13:55:04","resolution_date":"2006-11-10 07:02:31"}
{"id":37,"bug_id":"4200","text":"Activity diagrams vanish in a new Package. Model folder;","class_goldset":["org.argouml.ui.explorer.PerspectiveManager","org.argouml.ui.explorer.rules.GoModelElementToBehavior"],"file_goldset":["org.argouml.ui.explorer.PerspectiveManager","org.argouml.ui.explorer.rules.GoModelElementToBehavior"],"creation_date":"2006-05-11 23:30:25","resolution_date":"2006-06-19 10:23:30"}
