{"id":247,"bug_id":"OPENJPA-2149","text":"Criteria.function adds wrong casts to parameters making it unsuable. Expression\u003cString\u003e stPointFunc \u003d cb.function(\n\t\t\t\t\"db2gse.st_point\", \n\t\t\t\tString.class,\n\t\t\t\tcb.literal(0.0),\n\t\t\t\tcb.literal(0.0),\n\t\t\t\tcb.literal(1003));\n\t\t\n\t\tExpression\u003cDouble\u003e distanceFunc \u003d cb.function(\n\t\t\t\t\"db2gse.st_distance\", \n\t\t\t\tDouble.class, \n\t\t\t\tstPointFunc, \n\t\t\t\tusersLocations.get(\"location\"));\n\t\t\n\t\tcriteriaQuery.select(usersLocations).where(cb.lessThan(distanceFunc, cb.literal(50.0)));\n\n args.appendTo(sel, ctx, state, sql, 0);\n for (int i \u003d 1; i \u003c vals.length; i++) {\n                sql.addCastForParam(getOperator(), vals[i]);\n            }\n Expression\u003cString\u003e stPointFunc \u003d cb.function(\n\t\t\t\t\"db2gse.st_point\", \n\t\t\t\tString.class,\n\t\t\t\tcb.coalesce(cb.literal(0.0), cb.literal(0.0)),\n\t\t\t\tcb.coalesce(cb.literal(1.0), cb.literal(1.0)),\n\t\t\t\tcb.coalesce(cb.literal(1003), cb.literal(1003)));","class_goldset":["openjpa-jdbc.src.main.java.org.apache.openjpa.jdbc.kernel.exps.Args","openjpa-jdbc.src.main.java.org.apache.openjpa.jdbc.kernel.exps.DatastoreFunction","openjpa-jdbc.src.main.java.org.apache.openjpa.jdbc.kernel.exps.UnaryOp"],"file_goldset":["openjpa-jdbc.src.main.java.org.apache.openjpa.jdbc.kernel.exps.Args","openjpa-jdbc.src.main.java.org.apache.openjpa.jdbc.kernel.exps.DatastoreFunction","openjpa-jdbc.src.main.java.org.apache.openjpa.jdbc.kernel.exps.UnaryOp"],"creation_date":"2012-03-05T07:50:18.000+0000","resolution_date":"2012-08-24T02:34:53.000+0000"}
{"id":248,"bug_id":"OPENJPA-2163","text":"Lifecycle event callback occurs more often than expect. final EntityManager em \u003d factory.createEntityManager();\nfinal EntityManager em2 \u003d factory.createEntityManager();\n MyLifecycleListener l1 \u003d new MyLifecycleListener();\nMyLifecycleListener l2 \u003d new MyLifecycleListener();\n ((OpenJPAEntityManagerSPI)em).addLifecycleListener(l1, null);\n((OpenJPAEntityManagerSPI)em2).addLifecycleListener(l2, null);","class_goldset":["openjpa-kernel.src.main.java.org.apache.openjpa.conf.OpenJPAConfigurationImpl","openjpa-persistence-jdbc.src.test.java.org.apache.openjpa.persistence.validation.TestValidationMode"],"file_goldset":["openjpa-kernel.src.main.java.org.apache.openjpa.conf.OpenJPAConfigurationImpl","openjpa-persistence-jdbc.src.test.java.org.apache.openjpa.persistence.validation.TestValidationMode"],"creation_date":"2012-03-27T20:56:55.000+0000","resolution_date":"2012-04-01T14:42:17.000+0000"}
{"id":250,"bug_id":"OPENJPA-2197","text":"MethodComparator in AnnotationPersistenceMetaDataParser should also compare parameters. @PreUpdate\n    public void updateChangeLog(Object entity)  private void updateChangeLog(BaseEntity he, ChangeLogEntry cle)\n\n @PreUpdate","class_goldset":["openjpa-persistence-jdbc.src.test.java.org.apache.openjpa.persistence.callbacks.ListenerImpl"],"file_goldset":["openjpa-persistence-jdbc.src.test.java.org.apache.openjpa.persistence.callbacks.ListenerImpl"],"creation_date":"2012-05-16T22:10:22.000+0000","resolution_date":"2012-05-17T07:58:07.000+0000"}
{"id":251,"bug_id":"OPENJPA-2227","text":"OpenJPA doesn\u0027t find custom SequenceGenerators. {code}\n @Entity\n@SequenceGenerator(name\u003d\"MySequence\", sequenceName\u003d\"org.apache.openjpa.generator.UIDGenerator()\")\npublic class Customer implements Serializable  @Id\n    @GeneratedValue(strategy\u003dGenerationType.SEQUENCE, generator\u003d\"MySequence\")\n    private long id;\n {code}\n\n JavaTypes.classForName()  Class.forName()","class_goldset":["openjpa-kernel.src.main.java.org.apache.openjpa.meta.SequenceMetaData"],"file_goldset":["openjpa-kernel.src.main.java.org.apache.openjpa.meta.SequenceMetaData"],"creation_date":"2012-07-09T19:24:05.000+0000","resolution_date":"2012-08-24T00:20:59.000+0000"}
{"id":253,"bug_id":"OPENJPA-2247","text":"JoinColumn annotation is ignored when mapping a unidirectional owned OneToOne that is in a SecondaryTable. @Entity\n@SecondaryTable(name \u003d \"ParentSecondaryTable\", pkJoinColumns \u003d \n    { @PrimaryKeyJoinColumn(name \u003d \"idParent\", referencedColumnName \u003d \"idParent\") })\npublic class Parent {\n\n    @Id\n    @GeneratedValue\n    int idParent;\n\n    String child_ref;\n\n    @OneToOne\n    @JoinColumn(name \u003d \"CHILD_REF\", table \u003d \"ParentSecondaryTable\", referencedColumnName \u003d \"idChild\")\n    PChild child;\n\n}","class_goldset":["openjpa-jdbc.src.main.java.org.apache.openjpa.jdbc.meta.MappingRepository"],"file_goldset":["openjpa-jdbc.src.main.java.org.apache.openjpa.jdbc.meta.MappingRepository"],"creation_date":"2012-08-03T15:29:58.000+0000","resolution_date":"2012-10-09T18:18:12.000+0000"}
{"id":254,"bug_id":"OPENJPA-2255","text":"Couldn\u0027t load the referencedColumn definition when create the JoinTable. @Entity \npublic class Student  @Id @Column(name\u003d\"id\", length\u003d128, nullable\u003dfalse) private String id; \n   @Column(name\u003d\"sName\", length\u003d255) private String sName; \n   @ManyToMany \n  @JoinTable( \n    name\u003d\"student_course_map\", \n    joinColumns\u003d{@JoinColumn(name\u003d\"student_id\", referencedColumnName\u003d\"id\", nullable\u003dfalse)}, \n    inverseJoinColumns\u003d{@JoinColumn(name\u003d\"course_id\", referencedColumnName\u003d\"id\", nullable\u003dfalse)} \n  ) \n  public Collection getCourses() \n\n   @Entity \npublic class Courses{ \n  @Id @Column(name\u003d\"id\", length\u003d128, nullable\u003dfalse) private String id; \n  @Column(name\u003d\"cName\", length\u003d255) private String cName; \n\n  ... \n}","class_goldset":["openjpa-jdbc.src.main.java.org.apache.openjpa.jdbc.meta.MappingInfo"],"file_goldset":["openjpa-jdbc.src.main.java.org.apache.openjpa.jdbc.meta.MappingInfo"],"creation_date":"2012-08-31T01:15:52.000+0000","resolution_date":"2012-09-11T15:16:35.000+0000"}
{"id":255,"bug_id":"OPENJPA-428","text":"Bad error message regarding \"openjpa.Id\". @Id @Id @Id @Id @Entity\n@Table(name\u003d\"TAX\", schema\u003d\"JPA_SC\")\npublic class Tax  {\n\t\n\t// Class variables  \n\tprotected double taxamount;\n \n\tpublic Tax(){\n\t\t\n\t}\n\t\n\tpublic Tax(double taxamount){\n\t\tthis.taxamount \u003d taxamount;\n\t}\n//plus getter and setter for taxamount\n\n}","class_goldset":["openjpa-lib.src.main.java.org.apache.openjpa.lib.conf.ConfigurationImpl","openjpa-lib.src.main.java.org.apache.openjpa.lib.conf.Configurations"],"file_goldset":["openjpa-lib.src.main.java.org.apache.openjpa.lib.conf.ConfigurationImpl","openjpa-lib.src.main.java.org.apache.openjpa.lib.conf.Configurations"],"creation_date":"2007-11-01T17:39:40.000+0000","resolution_date":"2012-08-08T18:04:01.000+0000"}
