{"id":321,"bug_id":"SOLR-5107","text":"LukeRequestHandler throws NullPointerException when numTerms\u003d0. {code}\n {code}","class_goldset":["solr.core.src.java.org.apache.solr.handler.admin.LukeRequestHandler","solr.core.src.test.org.apache.solr.handler.admin.LukeRequestHandlerTest"],"file_goldset":["solr.core.src.java.org.apache.solr.handler.admin.LukeRequestHandler","solr.core.src.test.org.apache.solr.handler.admin.LukeRequestHandlerTest"],"creation_date":"2013-08-01T14:48:12.000+0000","resolution_date":"2013-08-06T18:46:10.000+0000"}
{"id":330,"bug_id":"SOLR-5295","text":"The createshard collection API creates maxShardsPerNode number of replicas if replicationFactor is not specified. {quote}\n {quote}","class_goldset":["solr.core.src.java.org.apache.solr.cloud.OverseerCollectionProcessor"],"file_goldset":["solr.core.src.java.org.apache.solr.cloud.OverseerCollectionProcessor"],"creation_date":"2013-10-02T05:09:02.000+0000","resolution_date":"2013-10-02T11:32:34.000+0000"}
{"id":331,"bug_id":"SOLR-5296","text":"Creating a collection with implicit router adds shard ranges to each shard. {quote}\n {quote}","class_goldset":["solr.core.src.java.org.apache.solr.cloud.Overseer"],"file_goldset":["solr.core.src.java.org.apache.solr.cloud.Overseer"],"creation_date":"2013-10-02T05:20:01.000+0000","resolution_date":"2013-10-02T12:23:45.000+0000"}
