{"id":334,"bug_id":"TIKA-1070","text":"StackOverflow error in org.apache.tika.sax.ToXMLContentHandler$ElementInfo.getPrefix(ToXMLContentHandler.java:58). new ElementInfo(currentElement, namespaces);","class_goldset":["tika-core.src.main.java.org.apache.tika.sax.ToXMLContentHandler"],"file_goldset":["tika-core.src.main.java.org.apache.tika.sax.ToXMLContentHandler"],"creation_date":"2013-01-31T11:43:33.000+0000","resolution_date":"2013-06-25T15:00:40.000+0000"}
{"id":336,"bug_id":"TIKA-1152","text":"Process loops infinitely on parsing of a CHM file. {code}\n {code}","class_goldset":["tika-parsers.src.main.java.org.apache.tika.parser.chm.lzx.ChmLzxBlock"],"file_goldset":["tika-parsers.src.main.java.org.apache.tika.parser.chm.lzx.ChmLzxBlock"],"creation_date":"2013-07-23T13:45:11.000+0000","resolution_date":"2013-12-27T03:48:19.000+0000"}
{"id":337,"bug_id":"TIKA-1192","text":"ArrayIndexOutOfBoundsException: 9 parsing RTF. {noformat}\n {noformat}","class_goldset":["tika-parsers.src.main.java.org.apache.tika.parser.rtf.TextExtractor","tika-parsers.src.test.java.org.apache.tika.parser.rtf.RTFParserTest"],"file_goldset":["tika-parsers.src.main.java.org.apache.tika.parser.rtf.TextExtractor","tika-parsers.src.test.java.org.apache.tika.parser.rtf.RTFParserTest"],"creation_date":"2013-11-06T21:31:41.000+0000","resolution_date":"2013-11-09T11:29:04.000+0000"}
