dataset;system;bugId;"ds;sys;bugId";has_ob;has_eb;has_sr;has_other;has_code;is_b5
brt;eclipse-3.1;80904;"brt;eclipse-3.1;80904";1;;;1;1;1
brt;eclipse-3.1;95958;"brt;eclipse-3.1;95958";1;;1;1;;1
brt;eclipse-3.1;87208;"brt;eclipse-3.1;87208";1;;;1;;1
brt;eclipse-3.1;83536;"brt;eclipse-3.1;83536";1;;1;1;1;1
brt;eclipse-3.1;100137;"brt;eclipse-3.1;100137";1;;1;1;1;1
brt;eclipse-3.1;98256;"brt;eclipse-3.1;98256";1;;;1;;1
brt;eclipse-3.1;78460;"brt;eclipse-3.1;78460";1;;1;1;;1
brt;eclipse-3.1;76766;"brt;eclipse-3.1;76766";1;;;;;1
brt;eclipse-3.1;85309;"brt;eclipse-3.1;85309";1;;1;1;;1
brt;swt-3.1;78634;"brt;swt-3.1;78634";1;1;;1;1;1
brt;eclipse-3.1;89814;"brt;eclipse-3.1;89814";1;1;1;1;;1
brt;eclipse-3.1;106388;"brt;eclipse-3.1;106388";1;;;1;;1
brt;eclipse-3.1;92451;"brt;eclipse-3.1;92451";1;;1;1;1;1
brt;eclipse-3.1;126938;"brt;eclipse-3.1;126938";1;1;1;1;;1
brt;eclipse-3.1;94540;"brt;eclipse-3.1;94540";1;;;1;1;1
brt;eclipse-3.1;87211;"brt;eclipse-3.1;87211";1;1;;1;1;1
brt;eclipse-3.1;100177;"brt;eclipse-3.1;100177";1;;1;1;;1
brt;eclipse-3.1;76779;"brt;eclipse-3.1;76779";1;;;1;;1
brt;eclipse-3.1;85344;"brt;eclipse-3.1;85344";1;;1;1;1;1
brt;eclipse-3.1;96185;"brt;eclipse-3.1;96185";1;;;1;;1
brt;eclipse-3.1;94547;"brt;eclipse-3.1;94547";1;;1;1;;1
brt;eclipse-3.1;89835;"brt;eclipse-3.1;89835";1;;;1;;1
brt;eclipse-3.1;92591;"brt;eclipse-3.1;92591";1;;1;;;1
brt;eclipse-3.1;80977;"brt;eclipse-3.1;80977";1;;;1;;1
brt;eclipse-3.1;78466;"brt;eclipse-3.1;78466";1;;;1;;1
brt;eclipse-3.1;83541;"brt;eclipse-3.1;83541";1;1;1;1;;1
brt;eclipse-3.1;98272;"brt;eclipse-3.1;98272";1;;1;1;;1
brt;eclipse-3.1;106454;"brt;eclipse-3.1;106454";1;1;1;1;;1
brt;eclipse-3.1;128931;"brt;eclipse-3.1;128931";1;;;1;;1
brt;swt-3.1;78854;"brt;swt-3.1;78854";1;1;;;1;1
brt;eclipse-3.1;87419;"brt;eclipse-3.1;87419";1;;;;;1
brt;eclipse-3.1;100336;"brt;eclipse-3.1;100336";1;;1;1;;1
brt;eclipse-3.1;96294;"brt;eclipse-3.1;96294";1;;1;1;;1
brt;eclipse-3.1;94571;"brt;eclipse-3.1;94571";1;;;1;;1
brt;eclipse-3.1;78548;"brt;eclipse-3.1;78548";1;;1;;;1
brt;eclipse-3.1;76837;"brt;eclipse-3.1;76837";1;1;;1;;1
brt;eclipse-3.1;85384;"brt;eclipse-3.1;85384";1;;;1;;1
brt;eclipse-3.1;89883;"brt;eclipse-3.1;89883";1;;1;1;;1
brt;eclipse-3.1;81045;"brt;eclipse-3.1;81045";1;;1;1;1;1
brt;eclipse-3.1;92602;"brt;eclipse-3.1;92602";1;;;1;1;1
brt;swt-3.1;79268;"brt;swt-3.1;79268";1;;;1;;1
brt;eclipse-3.1;83577;"brt;eclipse-3.1;83577";1;;1;1;;1
brt;eclipse-3.1;106492;"brt;eclipse-3.1;106492";1;;1;1;1;1
brt;swt-3.1;80120;"brt;swt-3.1;80120";1;1;;;;1
brt;eclipse-3.1;87569;"brt;eclipse-3.1;87569";1;;1;1;1;1
brt;eclipse-3.1;129834;"brt;eclipse-3.1;129834";1;1;1;1;;1
brt;eclipse-3.1;98604;"brt;eclipse-3.1;98604";1;;1;1;;1
brt;eclipse-3.1;89891;"brt;eclipse-3.1;89891";1;;;1;;1
brt;eclipse-3.1;83598;"brt;eclipse-3.1;83598";1;;;1;;1
brt;eclipse-3.1;130404;"brt;eclipse-3.1;130404";1;;;1;;1
brt;eclipse-3.1;98605;"brt;eclipse-3.1;98605";1;;;1;;1
brt;eclipse-3.1;100799;"brt;eclipse-3.1;100799";1;1;1;1;;1
brt;eclipse-3.1;76854;"brt;eclipse-3.1;76854";1;1;;;;1
brt;eclipse-3.1;78647;"brt;eclipse-3.1;78647";1;;;1;1;1
brt;swt-3.1;81242;"brt;swt-3.1;81242";;;;1;1;1
brt;eclipse-3.1;94633;"brt;eclipse-3.1;94633";1;;;1;;1
brt;eclipse-3.1;81049;"brt;eclipse-3.1;81049";1;;;1;;1
brt;eclipse-3.1;96432;"brt;eclipse-3.1;96432";1;;;;;1
brt;eclipse-3.1;89932;"brt;eclipse-3.1;89932";1;;;1;;1
brt;eclipse-3.1;87632;"brt;eclipse-3.1;87632";1;;1;1;;1
brt;eclipse-3.1;85397;"brt;eclipse-3.1;85397";1;1;1;1;1;1
brt;eclipse-3.1;76860;"brt;eclipse-3.1;76860";1;;;1;1;1
brt;swt-3.1;81264;"brt;swt-3.1;81264";1;1;1;1;1;
brt;eclipse-3.1;106574;"brt;eclipse-3.1;106574";1;;1;1;;1
brt;eclipse-3.1;92776;"brt;eclipse-3.1;92776";1;;;1;;1
brt;eclipse-3.1;100807;"brt;eclipse-3.1;100807";1;;1;1;1;1
brt;eclipse-3.1;96440;"brt;eclipse-3.1;96440";1;;1;1;1;1
brt;eclipse-3.1;94749;"brt;eclipse-3.1;94749";1;;1;1;;1
brt;eclipse-3.1;78740;"brt;eclipse-3.1;78740";1;;1;1;1;1
brt;eclipse-3.1;81199;"brt;eclipse-3.1;81199";1;1;;;;1
brt;eclipse-3.1;83699;"brt;eclipse-3.1;83699";1;;;1;1;1
brt;swt-3.1;81265;"brt;swt-3.1;81265";1;;1;1;;1
brt;eclipse-3.1;89936;"brt;eclipse-3.1;89936";1;;1;;;1
brt;eclipse-3.1;85402;"brt;eclipse-3.1;85402";1;;1;1;1;1
brt;eclipse-3.1;81242;"brt;eclipse-3.1;81242";;;;1;1;1
brt;eclipse-3.1;83711;"brt;eclipse-3.1;83711";1;;;1;;1
brt;swt-3.1;81834;"brt;swt-3.1;81834";1;;1;1;;1
brt;eclipse-3.1;130424;"brt;eclipse-3.1;130424";1;1;;1;;1
brt;eclipse-3.1;98621;"brt;eclipse-3.1;98621";1;;1;1;1;1
brt;eclipse-3.1;96470;"brt;eclipse-3.1;96470";1;;1;1;;1
brt;eclipse-3.1;78746;"brt;eclipse-3.1;78746";1;;;1;1;1
brt;eclipse-3.1;92801;"brt;eclipse-3.1;92801";1;;;1;;1
brt;eclipse-3.1;87665;"brt;eclipse-3.1;87665";1;;1;1;1;1
brt;eclipse-3.1;106725;"brt;eclipse-3.1;106725";1;;1;1;1;1
brt;eclipse-3.1;76869;"brt;eclipse-3.1;76869";1;;1;1;;1
brt;eclipse-3.1;100808;"brt;eclipse-3.1;100808";1;;1;1;;1
brt;eclipse-3.1;94761;"brt;eclipse-3.1;94761";1;;;;;1
brt;eclipse-3.1;85452;"brt;eclipse-3.1;85452";1;1;1;1;;1
brt;eclipse-3.1;130465;"brt;eclipse-3.1;130465";1;;1;1;;1
brt;swt-3.1;82500;"brt;swt-3.1;82500";1;1;;1;;1
brt;eclipse-3.1;98686;"brt;eclipse-3.1;98686";1;;1;1;1;1
brt;eclipse-3.1;89956;"brt;eclipse-3.1;89956";1;;;1;;1
brt;eclipse-3.1;81322;"brt;eclipse-3.1;81322";1;;;1;;1
brt;eclipse-3.1;76969;"brt;eclipse-3.1;76969";1;1;1;1;;1
brt;eclipse-3.1;83992;"brt;eclipse-3.1;83992";1;;;1;;1
brt;eclipse-3.1;92902;"brt;eclipse-3.1;92902";1;;;;;1
brt;eclipse-3.1;106789;"brt;eclipse-3.1;106789";1;1;1;;;1
brt;eclipse-3.1;94762;"brt;eclipse-3.1;94762";1;;;1;;1
brt;eclipse-3.1;96489;"brt;eclipse-3.1;96489";1;1;1;1;1;1
brt;eclipse-3.1;79091;"brt;eclipse-3.1;79091";1;1;;1;1;1
brt;eclipse-3.1;87676;"brt;eclipse-3.1;87676";1;1;;1;;1
brt;eclipse-3.1;130700;"brt;eclipse-3.1;130700";1;;1;1;;1
brt;swt-3.1;83262;"brt;swt-3.1;83262";1;1;1;1;;1
brt;eclipse-3.1;85519;"brt;eclipse-3.1;85519";1;1;1;1;;1
brt;eclipse-3.1;81333;"brt;eclipse-3.1;81333";1;;1;1;;1
brt;eclipse-3.1;107031;"brt;eclipse-3.1;107031";1;;;1;1;1
brt;eclipse-3.1;92963;"brt;eclipse-3.1;92963";1;1;;1;;1
brt;eclipse-3.1;100868;"brt;eclipse-3.1;100868";1;;1;1;;1
brt;eclipse-3.1;94769;"brt;eclipse-3.1;94769";1;;1;1;;1
brt;eclipse-3.1;90281;"brt;eclipse-3.1;90281";1;1;;1;;1
brt;eclipse-3.1;98692;"brt;eclipse-3.1;98692";1;;;1;;1
brt;eclipse-3.1;77034;"brt;eclipse-3.1;77034";1;;;1;;1
brt;eclipse-3.1;96527;"brt;eclipse-3.1;96527";1;;1;1;;1
brt;eclipse-3.1;79123;"brt;eclipse-3.1;79123";1;;1;1;;1
brt;eclipse-3.1;133072;"brt;eclipse-3.1;133072";1;;1;1;1;1
brt;eclipse-3.1;84072;"brt;eclipse-3.1;84072";1;;;;;1
brt;eclipse-3.1;87683;"brt;eclipse-3.1;87683";1;1;1;1;;1
brt;eclipse-3.1;94796;"brt;eclipse-3.1;94796";1;;;1;;1
brt;eclipse-3.1;90283;"brt;eclipse-3.1;90283";1;;1;1;1;1
brt;swt-3.1;83699;"brt;swt-3.1;83699";1;;;1;1;1
brt;eclipse-3.1;81428;"brt;eclipse-3.1;81428";;;;1;1;1
brt;eclipse-3.1;107391;"brt;eclipse-3.1;107391";1;;1;1;;1
brt;swt-3.1;84557;"brt;swt-3.1;84557";1;;1;1;;1
brt;eclipse-3.1;93030;"brt;eclipse-3.1;93030";;;1;1;1;1
brt;swt-3.1;84609;"brt;swt-3.1;84609";1;;1;1;1;1
brt;eclipse-3.1;98740;"brt;eclipse-3.1;98740";1;1;1;1;1;1
brt;eclipse-3.1;96604;"brt;eclipse-3.1;96604";1;;;1;1;1
brt;swt-3.1;86000;"brt;swt-3.1;86000";1;1;1;1;1;1
brt;eclipse-3.1;79148;"brt;eclipse-3.1;79148";1;;;1;;1
brt;eclipse-3.1;96765;"brt;eclipse-3.1;96765";;;;1;1;1
brt;eclipse-3.1;77036;"brt;eclipse-3.1;77036";1;;;1;;1
brt;eclipse-3.1;133292;"brt;eclipse-3.1;133292";1;;;1;1;1
brt;eclipse-3.1;85582;"brt;eclipse-3.1;85582";1;;;1;;1
brt;eclipse-3.1;101090;"brt;eclipse-3.1;101090";1;;1;1;;1
brt;eclipse-3.1;98790;"brt;eclipse-3.1;98790";1;;;1;1;1
brt;eclipse-3.1;108162;"brt;eclipse-3.1;108162";1;;1;1;;1
brt;swt-3.1;86294;"brt;swt-3.1;86294";1;;;1;;1
brt;eclipse-3.1;90289;"brt;eclipse-3.1;90289";1;;1;1;1;1
brt;eclipse-3.1;96766;"brt;eclipse-3.1;96766";1;;1;1;1;1
brt;eclipse-3.1;77060;"brt;eclipse-3.1;77060";1;;1;1;;1
brt;swt-3.1;86631;"brt;swt-3.1;86631";;;;1;1;1
brt;eclipse-3.1;98906;"brt;eclipse-3.1;98906";1;;1;1;;1
brt;eclipse-3.1;94836;"brt;eclipse-3.1;94836";1;;1;1;;1
brt;eclipse-3.1;79271;"brt;eclipse-3.1;79271";1;1;;1;;1
brt;eclipse-3.1;101328;"brt;eclipse-3.1;101328";1;;1;1;;1
brt;eclipse-3.1;87692;"brt;eclipse-3.1;87692";1;;;;1;1
brt;eclipse-3.1;85595;"brt;eclipse-3.1;85595";1;;;1;;1
brt;eclipse-3.1;93069;"brt;eclipse-3.1;93069";1;;;1;1;1
brt;eclipse-3.1;138404;"brt;eclipse-3.1;138404";1;1;;1;;1
brt;eclipse-3.1;81444;"brt;eclipse-3.1;81444";1;;;1;;1
brt;eclipse-3.1;84141;"brt;eclipse-3.1;84141";1;1;;1;;1
brt;swt-3.1;87363;"brt;swt-3.1;87363";;;1;1;1;1
brt;eclipse-3.1;99059;"brt;eclipse-3.1;99059";1;1;;1;;1
brt;eclipse-3.1;90415;"brt;eclipse-3.1;90415";1;;;1;;1
brt;eclipse-3.1;77184;"brt;eclipse-3.1;77184";1;;1;1;;1
brt;eclipse-3.1;94852;"brt;eclipse-3.1;94852";1;1;1;1;;1
brt;eclipse-3.1;96820;"brt;eclipse-3.1;96820";1;;1;1;1;1
brt;eclipse-3.1;85672;"brt;eclipse-3.1;85672";1;1;1;1;1;1
brt;eclipse-3.1;101434;"brt;eclipse-3.1;101434";1;1;1;1;;1
brt;eclipse-3.1;87796;"brt;eclipse-3.1;87796";1;;;1;1;1
brt;eclipse-3.1;108466;"brt;eclipse-3.1;108466";1;;1;1;1;1
brt;eclipse-3.1;84194;"brt;eclipse-3.1;84194";1;;1;1;1;1
brt;swt-3.1;87460;"brt;swt-3.1;87460";1;1;1;1;1;
brt;eclipse-3.1;99235;"brt;eclipse-3.1;99235";1;1;1;1;;1
brt;eclipse-3.1;93119;"brt;eclipse-3.1;93119";1;1;1;1;1;1
brt;eclipse-3.1;79309;"brt;eclipse-3.1;79309";1;;;1;1;1
brt;eclipse-3.1;96859;"brt;eclipse-3.1;96859";1;;1;1;;1
brt;eclipse-3.1;138803;"brt;eclipse-3.1;138803";1;;;1;;1
brt;eclipse-3.1;81449;"brt;eclipse-3.1;81449";1;;1;1;;1
brt;eclipse-3.1;94879;"brt;eclipse-3.1;94879";1;1;1;1;;1
brt;eclipse-3.1;77234;"brt;eclipse-3.1;77234";1;;1;1;1;1
brt;eclipse-3.1;90549;"brt;eclipse-3.1;90549";1;1;;;;1
brt;eclipse-3.1;101644;"brt;eclipse-3.1;101644";1;1;1;1;;1
brt;swt-3.1;87676;"brt;swt-3.1;87676";1;1;;1;;1
brt;eclipse-3.1;85696;"brt;eclipse-3.1;85696";1;;1;1;;1
brt;eclipse-3.1;88224;"brt;eclipse-3.1;88224";1;;1;1;;1
brt;eclipse-3.1;85734;"brt;eclipse-3.1;85734";1;;1;1;1;1
brt;eclipse-3.1;94883;"brt;eclipse-3.1;94883";1;;;1;;1
brt;eclipse-3.1;79318;"brt;eclipse-3.1;79318";1;;1;1;;1
brt;eclipse-3.1;97018;"brt;eclipse-3.1;97018";1;1;1;1;;1
brt;eclipse-3.1;99266;"brt;eclipse-3.1;99266";1;;;1;;1
brt;eclipse-3.1;84217;"brt;eclipse-3.1;84217";1;;1;1;;1
brt;eclipse-3.1;90600;"brt;eclipse-3.1;90600";1;1;1;1;1;1
brt;eclipse-3.1;101955;"brt;eclipse-3.1;101955";1;;;1;;1
brt;eclipse-3.1;77238;"brt;eclipse-3.1;77238";1;1;;1;;1
brt;eclipse-3.1;142881;"brt;eclipse-3.1;142881";1;1;1;1;;1
brt;eclipse-3.1;93245;"brt;eclipse-3.1;93245";1;;1;1;;1
brt;eclipse-3.1;108473;"brt;eclipse-3.1;108473";1;;1;1;;1
brt;eclipse-3.1;94972;"brt;eclipse-3.1;94972";1;;1;1;;1
brt;eclipse-3.1;81717;"brt;eclipse-3.1;81717";1;;;1;;1
brt;eclipse-3.1;88243;"brt;eclipse-3.1;88243";1;;1;;;1
brt;eclipse-3.1;85774;"brt;eclipse-3.1;85774";1;;;1;;1
brt;eclipse-3.1;90714;"brt;eclipse-3.1;90714";1;1;1;;;1
brt;eclipse-3.1;79324;"brt;eclipse-3.1;79324";1;;;1;;1
brt;swt-3.1;87855;"brt;swt-3.1;87855";1;;1;1;;1
brt;eclipse-3.1;84234;"brt;eclipse-3.1;84234";1;;;1;;1
brt;eclipse-3.1;147399;"brt;eclipse-3.1;147399";1;;;1;;1
brt;eclipse-3.1;93249;"brt;eclipse-3.1;93249";1;;1;1;1;1
brt;eclipse-3.1;108705;"brt;eclipse-3.1;108705";1;1;1;1;;1
brt;eclipse-3.1;90759;"brt;eclipse-3.1;90759";1;;;1;;1
brt;eclipse-3.1;81797;"brt;eclipse-3.1;81797";1;;1;1;;1
brt;eclipse-3.1;99282;"brt;eclipse-3.1;99282";1;1;1;1;1;1
brt;eclipse-3.1;85964;"brt;eclipse-3.1;85964";1;;;1;;1
brt;eclipse-3.1;102055;"brt;eclipse-3.1;102055";1;;1;;;1
brt;eclipse-3.1;95044;"brt;eclipse-3.1;95044";1;;1;1;;1
brt;eclipse-3.1;88295;"brt;eclipse-3.1;88295";1;1;;1;1;1
brt;eclipse-3.1;77239;"brt;eclipse-3.1;77239";1;;1;1;;1
brt;swt-3.1;87997;"brt;swt-3.1;87997";1;;1;1;1;1
brt;eclipse-3.1;97085;"brt;eclipse-3.1;97085";1;1;1;1;;1
brt;eclipse-3.1;85966;"brt;eclipse-3.1;85966";1;;1;1;;1
brt;eclipse-3.1;102305;"brt;eclipse-3.1;102305";1;;;1;;1
brt;eclipse-3.1;148081;"brt;eclipse-3.1;148081";1;;1;1;;1
brt;eclipse-3.1;90760;"brt;eclipse-3.1;90760";1;;;1;;1
brt;eclipse-3.1;109104;"brt;eclipse-3.1;109104";1;;1;1;;1
brt;eclipse-3.1;99337;"brt;eclipse-3.1;99337";1;;;1;;1
brt;eclipse-3.1;79334;"brt;eclipse-3.1;79334";1;;1;1;;1
brt;eclipse-3.1;81834;"brt;eclipse-3.1;81834";1;;1;1;;1
brt;swt-3.1;88717;"brt;swt-3.1;88717";1;1;1;1;;1
brt;eclipse-3.1;93449;"brt;eclipse-3.1;93449";1;;1;1;;1
brt;eclipse-3.1;88328;"brt;eclipse-3.1;88328";1;;1;1;;1
brt;swt-3.1;88829;"brt;swt-3.1;88829";1;1;1;1;1;1
brt;swt-3.1;89533;"brt;swt-3.1;89533";;;;1;;1
brt;swt-3.1;90258;"brt;swt-3.1;90258";1;;1;1;1;
brt;swt-3.1;91159;"brt;swt-3.1;91159";1;;;;;1
brt;swt-3.1;93380;"brt;swt-3.1;93380";1;;1;1;;1
brt;swt-3.1;93724;"brt;swt-3.1;93724";1;1;1;1;1;
brt;swt-3.1;94467;"brt;swt-3.1;94467";1;;1;1;;1
brt;swt-3.1;94598;"brt;swt-3.1;94598";1;1;1;1;;1
brt;swt-3.1;96053;"brt;swt-3.1;96053";1;1;;1;;1
brt;eclipse-3.1;109254;"brt;eclipse-3.1;109254";1;;1;1;;1
brt;eclipse-3.1;84257;"brt;eclipse-3.1;84257";1;;1;1;;1
brt;eclipse-3.1;99355;"brt;eclipse-3.1;99355";1;;1;1;1;1
brt;swt-3.1;96916;"brt;swt-3.1;96916";1;;;1;1;1
brt;eclipse-3.1;79414;"brt;eclipse-3.1;79414";;;;1;;1
brt;eclipse-3.1;95096;"brt;eclipse-3.1;95096";1;1;1;1;1;1
brt;eclipse-3.1;77249;"brt;eclipse-3.1;77249";1;1;;1;1;1
brt;swt-3.1;97651;"brt;swt-3.1;97651";1;1;1;1;1;1
brt;swt-3.1;99145;"brt;swt-3.1;99145";1;1;;1;;1
brt;swt-3.1;99376;"brt;swt-3.1;99376";1;;1;1;;1
brt;eclipse-3.1;149506;"brt;eclipse-3.1;149506";1;;1;1;;1
brt;eclipse-3.1;90782;"brt;eclipse-3.1;90782";1;;1;1;;1
brt;eclipse-3.1;82370;"brt;eclipse-3.1;82370";1;;;1;;1
brt;eclipse-3.1;88339;"brt;eclipse-3.1;88339";1;;;1;1;1
brt;eclipse-3.1;93567;"brt;eclipse-3.1;93567";1;;;1;;1
brt;eclipse-3.1;99423;"brt;eclipse-3.1;99423";1;;;1;1;1
brt;eclipse-3.1;79433;"brt;eclipse-3.1;79433";1;;;1;;1
brt;eclipse-3.1;97190;"brt;eclipse-3.1;97190";1;;;1;1;1
brt;eclipse-3.1;102427;"brt;eclipse-3.1;102427";1;;1;1;1;1
brt;eclipse-3.1;77323;"brt;eclipse-3.1;77323";1;;;1;;1
brt;eclipse-3.1;86000;"brt;eclipse-3.1;86000";1;1;1;1;1;1
brt;eclipse-3.1;95152;"brt;eclipse-3.1;95152";1;;1;1;1;1
brt;eclipse-3.1;109329;"brt;eclipse-3.1;109329";1;1;;1;;1
brt;eclipse-3.1;84336;"brt;eclipse-3.1;84336";1;;1;1;;1
brt;eclipse-3.1;90815;"brt;eclipse-3.1;90815";1;;;1;;1
brt;eclipse-3.1;82402;"brt;eclipse-3.1;82402";1;;;1;1;1
brt;eclipse-3.1;93584;"brt;eclipse-3.1;93584";1;1;1;;;1
brt;eclipse-3.1;149604;"brt;eclipse-3.1;149604";1;1;1;1;;1
brt;eclipse-3.1;99526;"brt;eclipse-3.1;99526";1;;;1;;1
brt;eclipse-3.1;97199;"brt;eclipse-3.1;97199";1;;1;1;;1
brt;eclipse-3.1;88532;"brt;eclipse-3.1;88532";1;;;1;1;1
brt;eclipse-3.1;79441;"brt;eclipse-3.1;79441";1;;1;;;1
brt;eclipse-3.1;86112;"brt;eclipse-3.1;86112";;;1;1;;1
brt;eclipse-3.1;77398;"brt;eclipse-3.1;77398";1;;1;;;1
brt;eclipse-3.1;102473;"brt;eclipse-3.1;102473";1;;1;1;;1
brt;eclipse-3.1;84354;"brt;eclipse-3.1;84354";1;;;1;;1
brt;eclipse-3.1;110837;"brt;eclipse-3.1;110837";1;;1;1;1;1
brt;eclipse-3.1;152001;"brt;eclipse-3.1;152001";1;;1;;;1
brt;eclipse-3.1;88737;"brt;eclipse-3.1;88737";1;;1;1;;1
brt;eclipse-3.1;99629;"brt;eclipse-3.1;99629";1;;1;1;;1
brt;eclipse-3.1;82486;"brt;eclipse-3.1;82486";1;;1;;;1
brt;eclipse-3.1;90935;"brt;eclipse-3.1;90935";1;1;1;1;;1
brt;eclipse-3.1;79467;"brt;eclipse-3.1;79467";1;;;1;;1
brt;eclipse-3.1;93623;"brt;eclipse-3.1;93623";1;;1;1;;1
brt;eclipse-3.1;86174;"brt;eclipse-3.1;86174";1;;;1;;1
brt;eclipse-3.1;77421;"brt;eclipse-3.1;77421";1;;1;1;;1
brt;eclipse-3.1;95176;"brt;eclipse-3.1;95176";1;1;;1;;1
brt;eclipse-3.1;97325;"brt;eclipse-3.1;97325";1;;;1;;1
brt;eclipse-3.1;102485;"brt;eclipse-3.1;102485";1;;1;;;1
brt;eclipse-3.1;152229;"brt;eclipse-3.1;152229";;1;;1;;1
brt;eclipse-3.1;84546;"brt;eclipse-3.1;84546";1;1;1;1;;1
brt;eclipse-3.1;84557;"brt;eclipse-3.1;84557";1;;1;1;;1
brt;eclipse-3.1;102778;"brt;eclipse-3.1;102778";1;;1;1;1;1
brt;eclipse-3.1;95307;"brt;eclipse-3.1;95307";1;;1;1;;1
brt;eclipse-3.1;79544;"brt;eclipse-3.1;79544";1;;;1;1;1
brt;eclipse-3.1;77555;"brt;eclipse-3.1;77555";1;;;1;;1
brt;eclipse-3.1;91043;"brt;eclipse-3.1;91043";1;;1;1;;1
brt;eclipse-3.1;99631;"brt;eclipse-3.1;99631";1;1;1;1;1;1
brt;eclipse-3.1;93658;"brt;eclipse-3.1;93658";1;;;1;;1
brt;eclipse-3.1;82553;"brt;eclipse-3.1;82553";1;;;1;;1
brt;eclipse-3.1;97338;"brt;eclipse-3.1;97338";1;;1;1;;1
brt;eclipse-3.1;111171;"brt;eclipse-3.1;111171";1;;1;1;;1
brt;eclipse-3.1;156827;"brt;eclipse-3.1;156827";1;;1;1;;1
brt;eclipse-3.1;86268;"brt;eclipse-3.1;86268";1;1;1;;;1
brt;eclipse-3.1;88813;"brt;eclipse-3.1;88813";;;;1;;1
brt;eclipse-3.1;91047;"brt;eclipse-3.1;91047";1;;;1;;1
brt;eclipse-3.1;95352;"brt;eclipse-3.1;95352";1;;;1;1;1
brt;eclipse-3.1;97363;"brt;eclipse-3.1;97363";1;1;1;1;;1
brt;eclipse-3.1;79545;"brt;eclipse-3.1;79545";1;;1;1;1;1
brt;eclipse-3.1;77573;"brt;eclipse-3.1;77573";1;;1;1;1;1
brt;eclipse-3.1;102911;"brt;eclipse-3.1;102911";1;;1;1;;1
brt;eclipse-3.1;99693;"brt;eclipse-3.1;99693";1;;1;1;1;1
brt;eclipse-3.1;84558;"brt;eclipse-3.1;84558";1;;;1;;1
brt;eclipse-3.1;93727;"brt;eclipse-3.1;93727";1;;1;1;1;1
brt;eclipse-3.1;82585;"brt;eclipse-3.1;82585";1;;;1;;1
brt;eclipse-3.1;111259;"brt;eclipse-3.1;111259";1;;1;;;1
brt;eclipse-3.1;157944;"brt;eclipse-3.1;157944";1;1;1;1;;1
brt;eclipse-3.1;97367;"brt;eclipse-3.1;97367";1;;;1;;1
brt;eclipse-3.1;88925;"brt;eclipse-3.1;88925";1;;;1;;1
brt;eclipse-3.1;86278;"brt;eclipse-3.1;86278";1;;;;;1
brt;eclipse-3.1;95431;"brt;eclipse-3.1;95431";1;;1;1;;1
brt;eclipse-3.1;93849;"brt;eclipse-3.1;93849";1;;;1;;1
brt;eclipse-3.1;82617;"brt;eclipse-3.1;82617";1;;;1;;1
brt;eclipse-3.1;103379;"brt;eclipse-3.1;103379";1;;1;1;1;1
brt;eclipse-3.1;84561;"brt;eclipse-3.1;84561";1;;1;1;;1
brt;eclipse-3.1;91098;"brt;eclipse-3.1;91098";1;;1;1;1;1
brt;eclipse-3.1;99723;"brt;eclipse-3.1;99723";1;1;;1;;1
brt;eclipse-3.1;112137;"brt;eclipse-3.1;112137";1;;1;1;;1
brt;eclipse-3.1;79638;"brt;eclipse-3.1;79638";1;1;;1;;1
brt;eclipse-3.1;82712;"brt;eclipse-3.1;82712";1;;1;1;1;1
brt;eclipse-3.1;164438;"brt;eclipse-3.1;164438";1;;1;1;;1
brt;eclipse-3.1;77703;"brt;eclipse-3.1;77703";1;1;1;;;1
brt;eclipse-3.1;95486;"brt;eclipse-3.1;95486";1;;1;1;;1
brt;eclipse-3.1;88963;"brt;eclipse-3.1;88963";1;;1;1;;1
brt;eclipse-3.1;97421;"brt;eclipse-3.1;97421";1;;1;1;;1
brt;eclipse-3.1;103553;"brt;eclipse-3.1;103553";1;;;;;1
brt;eclipse-3.1;86329;"brt;eclipse-3.1;86329";1;;;1;;1
brt;eclipse-3.1;84573;"brt;eclipse-3.1;84573";1;;;1;;1
brt;swt-3.1;100040;"brt;swt-3.1;100040";1;;1;1;;
brt;eclipse-3.1;93854;"brt;eclipse-3.1;93854";1;;;1;1;1
brt;eclipse-3.1;91221;"brt;eclipse-3.1;91221";1;;1;1;;1
brt;eclipse-3.1;79690;"brt;eclipse-3.1;79690";1;;;1;1;1
brt;eclipse-3.1;112576;"brt;eclipse-3.1;112576";;1;;1;;1
brt;eclipse-3.1;89014;"brt;eclipse-3.1;89014";1;;;1;1;1
brt;eclipse-3.1;97608;"brt;eclipse-3.1;97608";1;;1;1;;1
brt;eclipse-3.1;82895;"brt;eclipse-3.1;82895";1;;;1;;1
brt;eclipse-3.1;77727;"brt;eclipse-3.1;77727";1;;;1;;1
brt;eclipse-3.1;247027;"brt;eclipse-3.1;247027";1;;;1;;1
brt;eclipse-3.1;95490;"brt;eclipse-3.1;95490";1;;1;1;;1
brt;eclipse-3.1;79754;"brt;eclipse-3.1;79754";1;1;;1;;1
brt;eclipse-3.1;84617;"brt;eclipse-3.1;84617";1;;;1;;1
brt;eclipse-3.1;93949;"brt;eclipse-3.1;93949";1;;;;;1
brt;eclipse-3.1;86363;"brt;eclipse-3.1;86363";1;;;1;;1
brt;eclipse-3.1;103918;"brt;eclipse-3.1;103918";1;;1;1;1;1
brt;eclipse-3.1;91310;"brt;eclipse-3.1;91310";1;;;;;1
brt;eclipse-3.1;113455;"brt;eclipse-3.1;113455";1;;1;1;1;1
brt;swt-3.1;100387;"brt;swt-3.1;100387";1;;;;1;
brt;eclipse-3.1;95505;"brt;eclipse-3.1;95505";1;;1;1;1;1
brt;eclipse-3.1;97655;"brt;eclipse-3.1;97655";1;;;1;1;1
brt;eclipse-3.1;77893;"brt;eclipse-3.1;77893";1;;1;1;;1
brt;eclipse-3.1;89259;"brt;eclipse-3.1;89259";1;;1;1;;1
brt;eclipse-3.1;82908;"brt;eclipse-3.1;82908";1;;;1;;1
brt;eclipse-3.1;247198;"brt;eclipse-3.1;247198";1;;1;1;;1
brt;eclipse-3.1;84652;"brt;eclipse-3.1;84652";1;;1;1;;1
brt;eclipse-3.1;94007;"brt;eclipse-3.1;94007";1;1;;1;;1
brt;eclipse-3.1;104114;"brt;eclipse-3.1;104114";1;;1;1;;1
brt;eclipse-3.1;86426;"brt;eclipse-3.1;86426";1;;;1;;1
brt;eclipse-3.1;79793;"brt;eclipse-3.1;79793";1;;1;1;;1
brt;eclipse-3.1;113678;"brt;eclipse-3.1;113678";1;;;1;;1
brt;eclipse-3.1;91332;"brt;eclipse-3.1;91332";1;;;;;1
brt;eclipse-3.1;83005;"brt;eclipse-3.1;83005";1;;;1;1;1
brt;eclipse-3.1;84707;"brt;eclipse-3.1;84707";1;;;1;;1
brt;eclipse-3.1;300054;"brt;eclipse-3.1;300054";1;;1;1;1;1
brt;eclipse-3.1;77973;"brt;eclipse-3.1;77973";1;;;1;;1
brt;eclipse-3.1;95580;"brt;eclipse-3.1;95580";1;;1;1;;1
brt;eclipse-3.1;97674;"brt;eclipse-3.1;97674";1;;1;1;1;1
brt;eclipse-3.1;89280;"brt;eclipse-3.1;89280";1;;;;;1
brt;swt-3.1;102794;"brt;swt-3.1;102794";1;1;;1;1;1
brt;eclipse-3.1;104202;"brt;eclipse-3.1;104202";;1;;1;1;1
brt;eclipse-3.1;94128;"brt;eclipse-3.1;94128";1;;;;;1
brt;eclipse-3.1;95598;"brt;eclipse-3.1;95598";1;;1;;;1
brt;eclipse-3.1;84724;"brt;eclipse-3.1;84724";1;;1;1;1;1
brt;eclipse-3.1;32553;"brt;eclipse-3.1;32553";1;1;1;1;;1
brt;eclipse-3.1;83205;"brt;eclipse-3.1;83205";1;;1;1;1;1
brt;eclipse-3.1;79897;"brt;eclipse-3.1;79897";1;;;1;;1
brt;eclipse-3.1;86482;"brt;eclipse-3.1;86482";1;;;1;;1
brt;eclipse-3.1;91346;"brt;eclipse-3.1;91346";1;;1;1;1;1
brt;eclipse-3.1;114565;"brt;eclipse-3.1;114565";1;1;1;1;;1
brt;eclipse-3.1;78010;"brt;eclipse-3.1;78010";1;;;1;;1
brt;eclipse-3.1;97722;"brt;eclipse-3.1;97722";1;1;1;1;1;1
brt;eclipse-3.1;95612;"brt;eclipse-3.1;95612";1;;1;1;;1
brt;swt-3.1;104150;"brt;swt-3.1;104150";1;1;1;1;1;1
brt;eclipse-3.1;89308;"brt;eclipse-3.1;89308";1;;;1;;1
brt;eclipse-3.1;94182;"brt;eclipse-3.1;94182";1;;1;1;;1
brt;eclipse-3.1;104657;"brt;eclipse-3.1;104657";1;;;1;;1
brt;eclipse-3.1;63433;"brt;eclipse-3.1;63433";1;1;1;1;;1
brt;eclipse-3.1;84770;"brt;eclipse-3.1;84770";1;;1;1;1;1
brt;eclipse-3.1;83206;"brt;eclipse-3.1;83206";1;1;;1;1;1
brt;eclipse-3.1;91670;"brt;eclipse-3.1;91670";1;;;1;;1
brt;eclipse-3.1;115363;"brt;eclipse-3.1;115363";1;;1;1;1;1
brt;eclipse-3.1;86502;"brt;eclipse-3.1;86502";1;1;;1;;1
brt;eclipse-3.1;78013;"brt;eclipse-3.1;78013";1;;;1;;1
brt;eclipse-3.1;95613;"brt;eclipse-3.1;95613";1;;;1;;1
brt;eclipse-3.1;79949;"brt;eclipse-3.1;79949";1;;;1;;1
brt;eclipse-3.1;89399;"brt;eclipse-3.1;89399";1;;1;1;;1
brt;eclipse-3.1;70238;"brt;eclipse-3.1;70238";1;;;1;;1
brt;eclipse-3.1;83216;"brt;eclipse-3.1;83216";1;;1;1;;1
brt;swt-3.1;104545;"brt;swt-3.1;104545";1;1;1;1;1;
brt;eclipse-3.1;104854;"brt;eclipse-3.1;104854";1;;1;1;;1
brt;eclipse-3.1;94201;"brt;eclipse-3.1;94201";1;;1;1;1;1
brt;eclipse-3.1;97726;"brt;eclipse-3.1;97726";1;1;1;;;1
brt;eclipse-3.1;84787;"brt;eclipse-3.1;84787";1;;;1;;1
brt;eclipse-3.1;86596;"brt;eclipse-3.1;86596";1;;1;1;;1
brt;eclipse-3.1;94216;"brt;eclipse-3.1;94216";1;;1;1;1;1
brt;eclipse-3.1;79957;"brt;eclipse-3.1;79957";1;;1;1;1;1
brt;eclipse-3.1;75972;"brt;eclipse-3.1;75972";1;;;1;;1
brt;eclipse-3.1;84825;"brt;eclipse-3.1;84825";1;;1;1;;1
brt;eclipse-3.1;116908;"brt;eclipse-3.1;116908";1;1;;;;1
brt;eclipse-3.1;95679;"brt;eclipse-3.1;95679";1;;1;1;;1
brt;eclipse-3.1;91786;"brt;eclipse-3.1;91786";1;;1;;1;1
brt;eclipse-3.1;104966;"brt;eclipse-3.1;104966";1;;1;1;;1
brt;eclipse-3.1;97741;"brt;eclipse-3.1;97741";1;;1;;;1
brt;eclipse-3.1;89472;"brt;eclipse-3.1;89472";1;;;1;;1
brt;eclipse-3.1;83250;"brt;eclipse-3.1;83250";1;;;1;;1
brt;swt-3.1;104966;"brt;swt-3.1;104966";1;;1;1;;1
brt;eclipse-3.1;86610;"brt;eclipse-3.1;86610";1;;;1;1;1
brt;eclipse-3.1;78064;"brt;eclipse-3.1;78064";1;;;1;;1
brt;eclipse-3.1;89533;"brt;eclipse-3.1;89533";1;;;;;1
brt;eclipse-3.1;104987;"brt;eclipse-3.1;104987";1;;1;1;;1
brt;eclipse-3.1;84834;"brt;eclipse-3.1;84834";1;;;1;;1
brt;eclipse-3.1;94291;"brt;eclipse-3.1;94291";1;;;1;;1
brt;eclipse-3.1;92013;"brt;eclipse-3.1;92013";1;1;;;;1
brt;eclipse-3.1;76208;"brt;eclipse-3.1;76208";1;;;1;1;1
brt;eclipse-3.1;95710;"brt;eclipse-3.1;95710";1;;1;1;;1
brt;eclipse-3.1;97792;"brt;eclipse-3.1;97792";1;1;1;1;;1
brt;eclipse-3.1;80058;"brt;eclipse-3.1;80058";1;1;1;1;;1
brt;eclipse-3.1;117890;"brt;eclipse-3.1;117890";1;;;1;1;1
brt;eclipse-3.1;83251;"brt;eclipse-3.1;83251";1;;;1;;1
brt;eclipse-3.1;86614;"brt;eclipse-3.1;86614";1;;;1;1;1
brt;eclipse-3.1;89601;"brt;eclipse-3.1;89601";1;;1;1;;1
brt;eclipse-3.1;104991;"brt;eclipse-3.1;104991";1;;1;1;;1
brt;eclipse-3.1;78123;"brt;eclipse-3.1;78123";1;1;;1;;1
brt;eclipse-3.1;84881;"brt;eclipse-3.1;84881";1;1;1;1;;1
brt;eclipse-3.1;76217;"brt;eclipse-3.1;76217";1;;1;;;1
brt;eclipse-3.1;92063;"brt;eclipse-3.1;92063";1;1;1;1;;1
brt;swt-3.1;108813;"brt;swt-3.1;108813";1;;;1;;1
brt;eclipse-3.1;94366;"brt;eclipse-3.1;94366";1;;1;;;1
brt;eclipse-3.1;80179;"brt;eclipse-3.1;80179";;;;1;;1
brt;eclipse-3.1;118845;"brt;eclipse-3.1;118845";1;;1;1;;1
brt;swt-3.1;115947;"brt;swt-3.1;115947";1;1;;;;1
brt;eclipse-3.1;97818;"brt;eclipse-3.1;97818";1;;1;1;;1
brt;eclipse-3.1;83317;"brt;eclipse-3.1;83317";1;;1;1;;1
brt;eclipse-3.1;94390;"brt;eclipse-3.1;94390";1;;;1;;1
brt;eclipse-3.1;95731;"brt;eclipse-3.1;95731";1;;;1;1;1
brt;eclipse-3.1;78160;"brt;eclipse-3.1;78160";1;;1;1;1;1
brt;eclipse-3.1;105468;"brt;eclipse-3.1;105468";;1;;1;;1
brt;eclipse-3.1;84906;"brt;eclipse-3.1;84906";1;;;1;;1
brt;eclipse-3.1;86725;"brt;eclipse-3.1;86725";1;;1;1;;
brt;eclipse-3.1;89608;"brt;eclipse-3.1;89608";1;;1;1;;1
brt;eclipse-3.1;92148;"brt;eclipse-3.1;92148";1;;1;1;;1
brt;swt-3.1;117574;"brt;swt-3.1;117574";1;;1;1;1;1
brt;eclipse-3.1;80287;"brt;eclipse-3.1;80287";1;;;1;;1
brt;eclipse-3.1;83321;"brt;eclipse-3.1;83321";1;;;1;1;1
brt;eclipse-3.1;119617;"brt;eclipse-3.1;119617";1;;;1;;1
brt;eclipse-3.1;76472;"brt;eclipse-3.1;76472";1;;1;1;1;1
brt;eclipse-3.1;98115;"brt;eclipse-3.1;98115";1;;;1;;1
brt;eclipse-3.1;84944;"brt;eclipse-3.1;84944";1;;1;1;1;1
brt;eclipse-3.1;92181;"brt;eclipse-3.1;92181";1;;1;1;;1
brt;eclipse-3.1;94391;"brt;eclipse-3.1;94391";1;;;1;;1
brt;eclipse-3.1;89620;"brt;eclipse-3.1;89620";1;;1;1;;1
brt;eclipse-3.1;78201;"brt;eclipse-3.1;78201";1;;1;1;1;1
brt;eclipse-3.1;95795;"brt;eclipse-3.1;95795";1;;;1;;1
brt;eclipse-3.1;86750;"brt;eclipse-3.1;86750";1;;1;1;;1
brt;eclipse-3.1;105665;"brt;eclipse-3.1;105665";1;1;;1;;1
brt;swt-3.1;58185;"brt;swt-3.1;58185";1;;1;1;;
brt;eclipse-3.1;80384;"brt;eclipse-3.1;80384";1;;;1;1;1
brt;eclipse-3.1;76496;"brt;eclipse-3.1;76496";1;;1;1;;1
brt;eclipse-3.1;83383;"brt;eclipse-3.1;83383";1;;1;1;1;1
brt;eclipse-3.1;119814;"brt;eclipse-3.1;119814";1;;;1;;1
brt;eclipse-3.1;98147;"brt;eclipse-3.1;98147";1;;1;1;1;1
brt;eclipse-3.1;86847;"brt;eclipse-3.1;86847";1;;;1;;1
brt;eclipse-3.1;89621;"brt;eclipse-3.1;89621";1;1;1;1;1;1
brt;eclipse-3.1;94465;"brt;eclipse-3.1;94465";1;;1;1;1;1
brt;eclipse-3.1;84959;"brt;eclipse-3.1;84959";1;;;;;1
brt;eclipse-3.1;95902;"brt;eclipse-3.1;95902";1;;1;1;;1
brt;eclipse-3.1;78245;"brt;eclipse-3.1;78245";1;;1;1;1;1
brt;eclipse-3.1;92236;"brt;eclipse-3.1;92236";1;;1;1;1;1
brt;eclipse-3.1;105807;"brt;eclipse-3.1;105807";1;;;1;;1
brt;eclipse-3.1;80387;"brt;eclipse-3.1;80387";1;;1;1;;1
brt;swt-3.1;77948;"brt;swt-3.1;77948";1;1;1;1;;1
brt;eclipse-3.1;95907;"brt;eclipse-3.1;95907";1;;;1;;1
brt;eclipse-3.1;98169;"brt;eclipse-3.1;98169";1;;1;1;;1
brt;eclipse-3.1;94466;"brt;eclipse-3.1;94466";1;;;1;;1
brt;eclipse-3.1;89632;"brt;eclipse-3.1;89632";1;;1;1;1;1
brt;eclipse-3.1;78275;"brt;eclipse-3.1;78275";1;;;1;1;1
brt;eclipse-3.1;83453;"brt;eclipse-3.1;83453";1;;;1;;1
brt;eclipse-3.1;120414;"brt;eclipse-3.1;120414";1;;1;;;1
brt;eclipse-3.1;86917;"brt;eclipse-3.1;86917";1;;1;1;;1
brt;eclipse-3.1;85275;"brt;eclipse-3.1;85275";1;1;;;;1
brt;eclipse-3.1;76529;"brt;eclipse-3.1;76529";1;;1;;;1
brt;eclipse-3.1;105874;"brt;eclipse-3.1;105874";1;;;1;;1
brt;eclipse-3.1;92291;"brt;eclipse-3.1;92291";1;;;1;1;1
brt;eclipse-3.1;80493;"brt;eclipse-3.1;80493";;;;1;;1
brt;swt-3.1;78548;"brt;swt-3.1;78548";1;;1;;;1
brt;eclipse-3.1;98202;"brt;eclipse-3.1;98202";1;;;1;1;1
brt;eclipse-3.1;89636;"brt;eclipse-3.1;89636";1;;;1;;1
brt;eclipse-3.1;95945;"brt;eclipse-3.1;95945";1;;1;1;;1
brt;eclipse-3.1;122825;"brt;eclipse-3.1;122825";1;;;1;;1
brt;eclipse-3.1;78315;"brt;eclipse-3.1;78315";1;1;1;1;1;1
brt;eclipse-3.1;87039;"brt;eclipse-3.1;87039";1;;;;;1
brt;eclipse-3.1;83489;"brt;eclipse-3.1;83489";1;;1;1;1;1
brt;eclipse-3.1;92366;"brt;eclipse-3.1;92366";1;;;1;;1
brt;eclipse-3.1;85277;"brt;eclipse-3.1;85277";1;1;1;1;;1
brt;eclipse-3.1;76534;"brt;eclipse-3.1;76534";1;;1;1;1;1
brt;eclipse-3.1;94516;"brt;eclipse-3.1;94516";1;1;;1;;1
brt;swt-3.1;78559;"brt;swt-3.1;78559";1;;1;;;1
brt;eclipse-3.1;80617;"brt;eclipse-3.1;80617";1;;1;;;1
brt;eclipse-3.1;98249;"brt;eclipse-3.1;98249";1;;;1;;1
brt;eclipse-3.1;105936;"brt;eclipse-3.1;105936";1;;1;1;;1
brt;eclipse-3.1;125416;"brt;eclipse-3.1;125416";1;;;1;;1
brt;eclipse-3.1;83507;"brt;eclipse-3.1;83507";1;;;1;;1
brt;eclipse-3.1;87171;"brt;eclipse-3.1;87171";1;;1;1;1;1
brt;eclipse-3.1;78364;"brt;eclipse-3.1;78364";;;;1;;1
brt;eclipse-3.1;85291;"brt;eclipse-3.1;85291";1;;;1;;1
brt;eclipse-3.1;76677;"brt;eclipse-3.1;76677";1;;1;1;1;1
brt;eclipse-3.1;94535;"brt;eclipse-3.1;94535";1;;1;;;1
brt;eclipse-3.1;89651;"brt;eclipse-3.1;89651";1;;;1;;1
brt;eclipse-3.1;80672;"brt;eclipse-3.1;80672";1;1;1;1;1;1
brt;eclipse-3.1;106157;"brt;eclipse-3.1;106157";1;;;1;;1
brt;eclipse-3.1;78366;"brt;eclipse-3.1;78366";;;;1;;1
brt;eclipse-3.1;125994;"brt;eclipse-3.1;125994";1;;;1;;1
brt;eclipse-3.1;87198;"brt;eclipse-3.1;87198";1;1;;1;;1
brt;eclipse-3.1;89682;"brt;eclipse-3.1;89682";1;;1;1;;1
brt;eclipse-3.1;94537;"brt;eclipse-3.1;94537";1;1;;1;;1
brt;eclipse-3.1;126392;"brt;eclipse-3.1;126392";1;;1;1;;1
brt;eclipse-3.1;126465;"brt;eclipse-3.1;126465";1;;1;1;;1
d4j;lang;LANG-477;"d4j;lang;LANG-477";1;;1;1;1;1
d4j;math;MATH-949;"d4j;math;MATH-949";1;;1;1;1;1
d4j;time;43;"d4j;time;43";1;1;;1;;1
d4j;lang;LANG-879;"d4j;lang;LANG-879";1;;1;1;1;1
d4j;math;MATH-727;"d4j;math;MATH-727";1;;;1;;1
d4j;lang;LANG-624;"d4j;lang;LANG-624";1;;;1;1;1
d4j;math;MATH-393;"d4j;math;MATH-393";1;;;1;1;1
d4j;math;MATH-567;"d4j;math;MATH-567";1;;1;1;1;
d4j;math;MATH-867;"d4j;math;MATH-867";1;;;1;;1
d4j;lang;LANG-746;"d4j;lang;LANG-746";1;1;;;1;
d4j;lang;LANG-259;"d4j;lang;LANG-259";1;;;;;
d4j;math;MATH-679;"d4j;math;MATH-679";1;;;1;1;1
d4j;lang;LANG-346;"d4j;lang;LANG-346";1;1;;1;1;
d4j;math;MATH-238;"d4j;math;MATH-238";1;;;1;1;1
d4j;math;MATH-318;"d4j;math;MATH-318";1;;1;1;1;1
d4j;lang;LANG-480;"d4j;lang;LANG-480";1;;1;1;1;1
d4j;math;MATH-326;"d4j;math;MATH-326";1;1;;1;1;
d4j;time;18;"d4j;time;18";1;;1;1;1;1
d4j;math;MATH-482;"d4j;math;MATH-482";1;1;1;1;1;1
d4j;math;MATH-904;"d4j;math;MATH-904";1;;;1;1;1
d4j;time;77;"d4j;time;77";1;;1;1;1;
d4j;math;MATH-273;"d4j;math;MATH-273";1;1;;1;;1
d4j;math;MATH-778;"d4j;math;MATH-778";1;1;;;1;
d4j;math;MATH-691;"d4j;math;MATH-691";1;;1;1;1;1
d4j;math;MATH-60;"d4j;math;MATH-60";1;;1;1;1;
d4j;lang;LANG-292;"d4j;lang;LANG-292";1;1;1;1;1;1
d4j;lang;LANG-788;"d4j;lang;LANG-788";1;1;1;1;1;
d4j;lang;LANG-645;"d4j;lang;LANG-645";1;;1;1;1;1
d4j;lang;LANG-363;"d4j;lang;LANG-363";1;1;1;1;1;1
d4j;math;MATH-1021;"d4j;math;MATH-1021";1;1;1;1;1;1
d4j;lang;LANG-538;"d4j;lang;LANG-538";1;;1;1;1;1
d4j;math;MATH-274;"d4j;math;MATH-274";1;1;1;1;1;
d4j;math;MATH-546;"d4j;math;MATH-546";1;;;1;1;1
d4j;math;MATH-618;"d4j;math;MATH-618";1;;;1;1;
d4j;math;MATH-358;"d4j;math;MATH-358";1;1;1;1;1;1
d4j;time;79;"d4j;time;79";1;;1;1;1;
d4j;math;MATH-836;"d4j;math;MATH-836";1;;1;1;1;
d4j;math;MATH-929;"d4j;math;MATH-929";1;;1;1;1;1
d4j;time;21;"d4j;time;21";1;;1;1;1;1
d4j;math;MATH-704;"d4j;math;MATH-704";1;;;1;;1
d4j;lang;LANG-393;"d4j;lang;LANG-393";1;1;;;;1
d4j;lang;LANG-662;"d4j;lang;LANG-662";1;;1;1;1;1
d4j;lang;LANG-295;"d4j;lang;LANG-295";1;1;;;;
d4j;lang;LANG-552;"d4j;lang;LANG-552";1;1;1;1;1;
d4j;lang;LANG-831;"d4j;lang;LANG-831";1;;;;;1
d4j;math;MATH-167;"d4j;math;MATH-167";1;1;;;1;
d4j;time;22;"d4j;time;22";1;;;1;1;1
d4j;math;MATH-935;"d4j;math;MATH-935";1;1;;1;;
d4j;math;MATH-631;"d4j;math;MATH-631";1;;1;1;1;1
d4j;math;MATH-362;"d4j;math;MATH-362";1;;;1;;
d4j;math;MATH-713;"d4j;math;MATH-713";1;;1;1;1;1
d4j;math;MATH-280;"d4j;math;MATH-280";1;1;1;1;1;1
d4j;math;MATH-552;"d4j;math;MATH-552";1;1;;1;1;1
d4j;math;MATH-844;"d4j;math;MATH-844";1;;;;;1
d4j;lang;LANG-300;"d4j;lang;LANG-300";1;;1;;1;
d4j;lang;LANG-710;"d4j;lang;LANG-710";1;;1;1;1;1
d4j;lang;LANG-432;"d4j;lang;LANG-432";1;;;1;1;1
d4j;lang;LANG-586;"d4j;lang;LANG-586";1;;;1;;1
d4j;math;MATH-209;"d4j;math;MATH-209";1;;;1;1;1
d4j;math;MATH-942;"d4j;math;MATH-942";1;;1;1;1;1
d4j;lang;LANG-832;"d4j;lang;LANG-832";1;1;1;1;1;1
d4j;math;MATH-554;"d4j;math;MATH-554";1;1;;1;1;
d4j;math;MATH-369;"d4j;math;MATH-369";1;;1;1;1;1
d4j;lang;LANG-315;"d4j;lang;LANG-315";1;1;;1;1;
d4j;math;MATH-865;"d4j;math;MATH-865";1;;1;1;;1
d4j;lang;LANG-719;"d4j;lang;LANG-719";1;;;1;;1
d4j;time;88;"d4j;time;88";1;1;1;1;1;1
d4j;math;MATH-645;"d4j;math;MATH-645";1;;1;1;1;
d4j;math;MATH-305;"d4j;math;MATH-305";1;;1;1;1;1
d4j;lang;LANG-457;"d4j;lang;LANG-457";1;;1;;;1
d4j;math;MATH-716;"d4j;math;MATH-716";1;;;1;;
d4j;time;28;"d4j;time;28";1;1;1;1;1;1
d4j;math;MATH-221;"d4j;math;MATH-221";1;1;1;1;1;1
d4j;time;93;"d4j;time;93";1;;1;1;1;1
d4j;lang;LANG-857;"d4j;lang;LANG-857";1;;1;1;1;
lb;argouml-0.22;4354;"lb;argouml-0.22;4354";1;;;1;;1
lb;argouml-0.22;1671;"lb;argouml-0.22;1671";1;1;1;1;;1
lb;derby-10.9.1.0;DERBY-5251;"lb;derby-10.9.1.0;DERBY-5251";1;1;;1;1;1
lb;tika-1.3;TIKA-1192;"lb;tika-1.3;TIKA-1192";1;;;1;1;1
lb;jedit-4.3;1599709;"lb;jedit-4.3;1599709";1;;1;1;1;1
lb;argouml-0.22;4031;"lb;argouml-0.22;4031";1;1;1;1;;
lb;pig-0.8.0;PIG-496;"lb;pig-0.8.0;PIG-496";1;;;1;1;1
lb;derby-10.7.1.1;DERBY-4748;"lb;derby-10.7.1.1;DERBY-4748";1;1;1;1;;1
lb;jabref-2.6;1648789;"lb;jabref-2.6;1648789";1;;;1;;1
lb;mahout-0.8;MAHOUT-1284;"lb;mahout-0.8;MAHOUT-1284";1;;;1;;1
lb;openjpa-2.0.1;OPENJPA-2007;"lb;openjpa-2.0.1;OPENJPA-2007";1;1;1;1;;
lb;pig-0.8.0;PIG-1831;"lb;pig-0.8.0;PIG-1831";1;;1;1;1;1
lb;pig-0.11.1;PIG-3267;"lb;pig-0.11.1;PIG-3267";1;;1;1;1;1
lb;derby-10.9.1.0;DERBY-6092;"lb;derby-10.9.1.0;DERBY-6092";1;;;1;1;1
lb;jedit-4.3;2218621;"lb;jedit-4.3;2218621";1;1;1;1;;1
lb;argouml-0.22;1884;"lb;argouml-0.22;1884";1;;1;1;;
lb;argouml-0.22;4362;"lb;argouml-0.22;4362";1;;1;1;;1
lb;derby-10.7.1.1;DERBY-4755;"lb;derby-10.7.1.1;DERBY-4755";1;;;1;;1
lb;pig-0.8.0;PIG-1837;"lb;pig-0.8.0;PIG-1837";1;;1;1;1;1
lb;jabref-2.6;1709449;"lb;jabref-2.6;1709449";1;1;1;1;;1
lb;pig-0.8.0;PIG-534;"lb;pig-0.8.0;PIG-534";1;;;;;1
lb;derby-10.9.1.0;DERBY-6094;"lb;derby-10.9.1.0;DERBY-6094";1;;;1;;1
lb;argouml-0.22;4037;"lb;argouml-0.22;4037";1;;1;1;;1
lb;openjpa-2.0.1;OPENJPA-2011;"lb;openjpa-2.0.1;OPENJPA-2011";1;;;1;;
lb;derby-10.9.1.0;DERBY-5252;"lb;derby-10.9.1.0;DERBY-5252";;1;;1;;1
lb;mahout-0.8;MAHOUT-1285;"lb;mahout-0.8;MAHOUT-1285";1;;1;1;;
lb;jedit-4.3;1600401;"lb;jedit-4.3;1600401";1;;1;1;1;1
lb;tika-1.3;TIKA-1211;"lb;tika-1.3;TIKA-1211";1;;;1;;1
lb;jedit-4.3;2220033;"lb;jedit-4.3;2220033";1;;1;1;;1
lb;pig-0.11.1;PIG-3290;"lb;pig-0.11.1;PIG-3290";1;;;1;1;1
lb;argouml-0.22;2144;"lb;argouml-0.22;2144";1;;;;;1
lb;argouml-0.22;4364;"lb;argouml-0.22;4364";1;;1;1;;1
lb;jabref-2.6;1711135;"lb;jabref-2.6;1711135";1;1;1;1;;
lb;pig-0.8.0;PIG-730;"lb;pig-0.8.0;PIG-730";1;1;1;1;1;1
lb;derby-10.9.1.0;DERBY-6108;"lb;derby-10.9.1.0;DERBY-6108";1;;;1;1;1
lb;pig-0.8.0;PIG-1843;"lb;pig-0.8.0;PIG-1843";1;;1;1;1;1
lb;derby-10.7.1.1;DERBY-4772;"lb;derby-10.7.1.1;DERBY-4772";1;;;1;;1
lb;openjpa-2.0.1;OPENJPA-2132;"lb;openjpa-2.0.1;OPENJPA-2132";1;;;1;1;1
lb;zookeeper-3.4.5;ZOOKEEPER-1179;"lb;zookeeper-3.4.5;ZOOKEEPER-1179";1;;1;1;;
lb;mahout-0.8;MAHOUT-1314;"lb;mahout-0.8;MAHOUT-1314";1;1;1;1;1;
lb;derby-10.9.1.0;DERBY-5377;"lb;derby-10.9.1.0;DERBY-5377";1;;;1;1;1
lb;argouml-0.22;4043;"lb;argouml-0.22;4043";1;;1;1;;1
lb;pig-0.11.1;PIG-3292;"lb;pig-0.11.1;PIG-3292";1;;1;1;1;1
lb;argouml-0.22;4367;"lb;argouml-0.22;4367";1;;1;1;;1
lb;jedit-4.3;2759434;"lb;jedit-4.3;2759434";1;;;1;1;1
lb;argouml-0.22;2145;"lb;argouml-0.22;2145";1;;;;;1
lb;jabref-2.6;1749613;"lb;jabref-2.6;1749613";1;;;1;;1
lb;pig-0.8.0;PIG-767;"lb;pig-0.8.0;PIG-767";1;1;1;1;1;1
lb;pig-0.8.0;PIG-1850;"lb;pig-0.8.0;PIG-1850";1;;1;1;;1
lb;derby-10.9.1.0;DERBY-6131;"lb;derby-10.9.1.0;DERBY-6131";1;;1;;1;1
lb;jedit-4.3;1620694;"lb;jedit-4.3;1620694";1;;;1;;1
lb;mahout-0.8;MAHOUT-1317;"lb;mahout-0.8;MAHOUT-1317";1;1;;1;1;1
lb;jedit-4.3;2781716;"lb;jedit-4.3;2781716";1;1;1;1;;1
lb;pig-0.11.1;PIG-3310;"lb;pig-0.11.1;PIG-3310";1;1;1;1;1;1
lb;derby-10.9.1.0;DERBY-5407;"lb;derby-10.9.1.0;DERBY-5407";1;;1;1;1;1
lb;jabref-2.6;1827568;"lb;jabref-2.6;1827568";1;;;1;;1
lb;zookeeper-3.4.5;ZOOKEEPER-1474;"lb;zookeeper-3.4.5;ZOOKEEPER-1474";1;;;1;;1
lb;bookkeeper-4.1.0;BOOKKEEPER-291;"lb;bookkeeper-4.1.0;BOOKKEEPER-291";1;1;;;;
lb;jedit-4.3;1630805;"lb;jedit-4.3;1630805";1;;;1;;1
lb;argouml-0.22;2225;"lb;argouml-0.22;2225";1;1;;1;;
lb;openjpa-2.0.1;OPENJPA-2146;"lb;openjpa-2.0.1;OPENJPA-2146";1;;;1;;1
lb;argouml-0.22;4049;"lb;argouml-0.22;4049";1;1;1;;;1
lb;derby-10.7.1.1;DERBY-4786;"lb;derby-10.7.1.1;DERBY-4786";1;1;;1;;
lb;pig-0.8.0;PIG-1854;"lb;pig-0.8.0;PIG-1854";1;;1;1;;1
lb;jedit-4.3;2824045;"lb;jedit-4.3;2824045";1;;1;1;;
lb;derby-10.9.1.0;DERBY-6133;"lb;derby-10.9.1.0;DERBY-6133";1;1;;1;;1
lb;pig-0.8.0;PIG-946;"lb;pig-0.8.0;PIG-946";1;;1;;1;1
lb;mahout-0.8;MAHOUT-1320;"lb;mahout-0.8;MAHOUT-1320";1;;;1;1;
lb;jabref-2.6;2119059;"lb;jabref-2.6;2119059";1;;;1;;1
lb;derby-10.9.1.0;DERBY-5424;"lb;derby-10.9.1.0;DERBY-5424";1;;;1;1;1
lb;jedit-4.3;1641997;"lb;jedit-4.3;1641997";1;;;1;;
lb;jedit-4.3;950961;"lb;jedit-4.3;950961";1;1;1;1;;1
lb;argouml-0.22;4085;"lb;argouml-0.22;4085";1;;1;1;;1
lb;openjpa-2.0.1;OPENJPA-2289;"lb;openjpa-2.0.1;OPENJPA-2289";1;;;1;1;1
lb;bookkeeper-4.1.0;BOOKKEEPER-294;"lb;bookkeeper-4.1.0;BOOKKEEPER-294";1;;;1;1;1
lb;argouml-0.22;2460;"lb;argouml-0.22;2460";1;1;;1;;1
lb;derby-10.7.1.1;DERBY-4803;"lb;derby-10.7.1.1;DERBY-4803";1;;;1;;1
lb;zookeeper-3.4.5;ZOOKEEPER-1499;"lb;zookeeper-3.4.5;ZOOKEEPER-1499";1;;;;;1
lb;mahout-0.8;MAHOUT-1336;"lb;mahout-0.8;MAHOUT-1336";1;;;1;1;
lb;pig-0.8.0;PIG-1856;"lb;pig-0.8.0;PIG-1856";1;;1;1;1;1
lb;derby-10.9.1.0;DERBY-6138;"lb;derby-10.9.1.0;DERBY-6138";1;;;1;1;1
lb;solr-4.4.0;SOLR-4489;"lb;solr-4.4.0;SOLR-4489";1;;1;1;;1
lb;argouml-0.22;2472;"lb;argouml-0.22;2472";;;;1;;
lb;mahout-0.8;MAHOUT-1339;"lb;mahout-0.8;MAHOUT-1339";1;;;1;;1
lb;jedit-4.3;981012;"lb;jedit-4.3;981012";1;;;1;;1
lb;openjpa-2.2.0;OPENJPA-1682;"lb;openjpa-2.2.0;OPENJPA-1682";1;;;1;;1
lb;bookkeeper-4.1.0;BOOKKEEPER-318;"lb;bookkeeper-4.1.0;BOOKKEEPER-318";1;;;1;1;1
lb;zookeeper-3.4.5;ZOOKEEPER-1535;"lb;zookeeper-3.4.5;ZOOKEEPER-1535";1;;1;1;1;
lb;pig-0.11.1;PIG-3316;"lb;pig-0.11.1;PIG-3316";1;;1;1;1;1
lb;jedit-4.3;1658252;"lb;jedit-4.3;1658252";1;;1;1;1;1
lb;jabref-2.6;2207462;"lb;jabref-2.6;2207462";1;1;1;1;;
lb;derby-10.9.1.0;DERBY-5531;"lb;derby-10.9.1.0;DERBY-5531";1;;;1;1;1
lb;derby-10.7.1.1;DERBY-4828;"lb;derby-10.7.1.1;DERBY-4828";1;;;;;1
lb;pig-0.8.0;PIG-1858;"lb;pig-0.8.0;PIG-1858";1;;1;1;1;1
lb;solr-4.4.0;SOLR-4817;"lb;solr-4.4.0;SOLR-4817";1;1;;1;;
lb;jabref-2.6;2904968;"lb;jabref-2.6;2904968";1;1;1;1;;1
lb;derby-10.9.1.0;DERBY-6150;"lb;derby-10.9.1.0;DERBY-6150";1;1;;1;1;1
lb;argouml-0.22;2618;"lb;argouml-0.22;2618";1;1;1;;;
lb;openjpa-2.2.0;OPENJPA-2149;"lb;openjpa-2.2.0;OPENJPA-2149";1;;;1;1;1
lb;pig-0.11.1;PIG-3329;"lb;pig-0.11.1;PIG-3329";1;;1;1;1;1
lb;derby-10.7.1.1;DERBY-4835;"lb;derby-10.7.1.1;DERBY-4835";1;;1;1;1;1
lb;mahout-0.8;MAHOUT-1349;"lb;mahout-0.8;MAHOUT-1349";1;;1;1;1;1
lb;lucene-4.0;LUCENE-4182;"lb;lucene-4.0;LUCENE-4182";1;;;1;1;1
lb;bookkeeper-4.1.0;BOOKKEEPER-326;"lb;bookkeeper-4.1.0;BOOKKEEPER-326";1;;;1;;1
lb;jedit-4.3;1663617;"lb;jedit-4.3;1663617";1;;1;1;;1
lb;zookeeper-3.4.5;ZOOKEEPER-1573;"lb;zookeeper-3.4.5;ZOOKEEPER-1573";1;;1;1;;
lb;pig-0.8.0;PIG-1861;"lb;pig-0.8.0;PIG-1861";1;;;1;1;
lb;jabref-2.6;2938562;"lb;jabref-2.6;2938562";1;;1;1;;
lb;argouml-0.22;3100;"lb;argouml-0.22;3100";1;1;1;1;;1
lb;derby-10.9.1.0;DERBY-5546;"lb;derby-10.9.1.0;DERBY-5546";1;;1;;;
lb;mahout-0.8;MAHOUT-1358;"lb;mahout-0.8;MAHOUT-1358";1;;1;1;1;
lb;openjpa-2.2.0;OPENJPA-2163;"lb;openjpa-2.2.0;OPENJPA-2163";1;1;1;1;1;1
lb;lucene-4.0;LUCENE-4411;"lb;lucene-4.0;LUCENE-4411";1;;;1;;1
lb;jedit-4.3;1193683;"lb;jedit-4.3;1193683";1;;1;1;1;
lb;bookkeeper-4.1.0;BOOKKEEPER-336;"lb;bookkeeper-4.1.0;BOOKKEEPER-336";1;;1;1;;
lb;pig-0.8.0;PIG-1866;"lb;pig-0.8.0;PIG-1866";1;;1;1;1;1
lb;derby-10.7.1.1;DERBY-4873;"lb;derby-10.7.1.1;DERBY-4873";1;;1;1;1;1
lb;argouml-0.22;4100;"lb;argouml-0.22;4100";1;;1;1;;1
lb;mahout-0.8;MAHOUT-1396;"lb;mahout-0.8;MAHOUT-1396";1;;;1;1;1
lb;jedit-4.3;1668893;"lb;jedit-4.3;1668893";1;;1;1;;1
lb;argouml-0.22;3164;"lb;argouml-0.22;3164";;;;1;;
lb;hibernate-3.5.0b2;HHH-4576;"lb;hibernate-3.5.0b2;HHH-4576";1;;;1;;1
lb;openjpa-2.2.0;OPENJPA-2174;"lb;openjpa-2.2.0;OPENJPA-2174";1;;;1;;1
lb;solr-4.4.0;SOLR-5083;"lb;solr-4.4.0;SOLR-5083";1;1;;1;;1
lb;pig-0.11.1;PIG-3355;"lb;pig-0.11.1;PIG-3355";;;1;1;;
lb;mahout-0.8;MAHOUT-1410;"lb;mahout-0.8;MAHOUT-1410";1;;;;;1
lb;bookkeeper-4.1.0;BOOKKEEPER-337;"lb;bookkeeper-4.1.0;BOOKKEEPER-337";1;;1;1;;
lb;argouml-0.22;4103;"lb;argouml-0.22;4103";1;;1;1;;1
lb;jedit-4.3;1723506;"lb;jedit-4.3;1723506";1;1;;1;;1
lb;openjpa-2.2.0;OPENJPA-2197;"lb;openjpa-2.2.0;OPENJPA-2197";1;1;;1;1;1
lb;derby-10.7.1.1;DERBY-4884;"lb;derby-10.7.1.1;DERBY-4884";1;;;;1;
lb;argouml-0.22;3619;"lb;argouml-0.22;3619";1;;1;;;1
lb;zookeeper-3.4.5;ZOOKEEPER-1619;"lb;zookeeper-3.4.5;ZOOKEEPER-1619";1;1;1;1;1;1
lb;jedit-4.3;1382388;"lb;jedit-4.3;1382388";1;;1;1;;1
lb;pig-0.8.0;PIG-1868;"lb;pig-0.8.0;PIG-1868";1;;1;1;1;1
lb;derby-10.9.1.0;DERBY-5567;"lb;derby-10.9.1.0;DERBY-5567";1;;1;1;1;1
lb;lucene-4.0;LUCENE-4461;"lb;lucene-4.0;LUCENE-4461";1;;1;1;1;1
lb;hibernate-3.5.0b2;HHH-4583;"lb;hibernate-3.5.0b2;HHH-4583";1;1;;1;;1
lb;lucene-4.0;LUCENE-4480;"lb;lucene-4.0;LUCENE-4480";1;;;;;
lb;zookeeper-3.4.5;ZOOKEEPER-1629;"lb;zookeeper-3.4.5;ZOOKEEPER-1629";1;;;1;;1
lb;openjpa-2.0.1;OPENJPA-1630;"lb;openjpa-2.0.1;OPENJPA-1630";1;;;1;;
lb;pig-0.11.1;PIG-3360;"lb;pig-0.11.1;PIG-3360";1;;;1;;1
lb;solr-4.4.0;SOLR-5107;"lb;solr-4.4.0;SOLR-5107";1;;;1;1;1
lb;pig-0.8.0;PIG-1892;"lb;pig-0.8.0;PIG-1892";1;;1;1;1;1
lb;bookkeeper-4.1.0;BOOKKEEPER-371;"lb;bookkeeper-4.1.0;BOOKKEEPER-371";1;1;;1;1;
lb;derby-10.9.1.0;DERBY-5638;"lb;derby-10.9.1.0;DERBY-5638";1;;1;1;;
lb;jedit-4.3;1520774;"lb;jedit-4.3;1520774";1;;1;1;;1
lb;argouml-0.22;3631;"lb;argouml-0.22;3631";1;1;;;;1
lb;jedit-4.3;1724940;"lb;jedit-4.3;1724940";1;;1;1;1;1
lb;openjpa-2.0.1;OPENJPA-1752;"lb;openjpa-2.0.1;OPENJPA-1752";1;1;;1;1;1
lb;bookkeeper-4.1.0;BOOKKEEPER-376;"lb;bookkeeper-4.1.0;BOOKKEEPER-376";1;1;;1;1;1
lb;solr-4.4.0;SOLR-5122;"lb;solr-4.4.0;SOLR-5122";1;;;1;;
lb;argouml-0.22;4130;"lb;argouml-0.22;4130";;;;1;;
lb;derby-10.7.1.1;DERBY-4888;"lb;derby-10.7.1.1;DERBY-4888";1;;;1;;1
lb;lucene-4.0;LUCENE-4532;"lb;lucene-4.0;LUCENE-4532";1;;;1;1;1
lb;zookeeper-3.4.5;ZOOKEEPER-1642;"lb;zookeeper-3.4.5;ZOOKEEPER-1642";1;;;1;1;1
lb;pig-0.11.1;PIG-3379;"lb;pig-0.11.1;PIG-3379";1;;1;1;1;1
lb;openjpa-2.2.0;OPENJPA-2227;"lb;openjpa-2.2.0;OPENJPA-2227";1;;1;1;1;1
lb;pig-0.8.0;PIG-1893;"lb;pig-0.8.0;PIG-1893";1;1;1;1;1;
lb;hibernate-3.5.0b2;HHH-4614;"lb;hibernate-3.5.0b2;HHH-4614";1;;1;1;;1
lb;jedit-4.3;1536064;"lb;jedit-4.3;1536064";1;1;1;1;;
lb;jedit-4.3;1739675;"lb;jedit-4.3;1739675";1;;1;1;;1
lb;derby-10.9.1.0;DERBY-5663;"lb;derby-10.9.1.0;DERBY-5663";1;;;1;1;1
lb;bookkeeper-4.1.0;BOOKKEEPER-383;"lb;bookkeeper-4.1.0;BOOKKEEPER-383";1;;;1;;1
lb;zookeeper-3.4.5;ZOOKEEPER-1667;"lb;zookeeper-3.4.5;ZOOKEEPER-1667";1;;1;1;;
lb;argouml-0.22;3665;"lb;argouml-0.22;3665";1;;1;;;1
lb;solr-4.4.0;SOLR-5150;"lb;solr-4.4.0;SOLR-5150";1;1;;;;
lb;derby-10.7.1.1;DERBY-4889;"lb;derby-10.7.1.1;DERBY-4889";1;;1;1;1;1
lb;argouml-0.22;4155;"lb;argouml-0.22;4155";1;;1;;;1
lb;openjpa-2.0.1;OPENJPA-1787;"lb;openjpa-2.0.1;OPENJPA-1787";1;;1;1;1;1
lb;pig-0.8.0;PIG-1910;"lb;pig-0.8.0;PIG-1910";1;1;;1;1;1
lb;derby-10.9.1.0;DERBY-5740;"lb;derby-10.9.1.0;DERBY-5740";1;;;1;1;1
lb;bookkeeper-4.1.0;BOOKKEEPER-491;"lb;bookkeeper-4.1.0;BOOKKEEPER-491";1;;;1;;1
lb;argouml-0.22;3711;"lb;argouml-0.22;3711";1;;1;1;;1
lb;pig-0.11.1;PIG-3424;"lb;pig-0.11.1;PIG-3424";1;1;1;;;
lb;zookeeper-3.4.5;ZOOKEEPER-1691;"lb;zookeeper-3.4.5;ZOOKEEPER-1691";1;1;;1;;1
lb;solr-4.4.0;SOLR-5188;"lb;solr-4.4.0;SOLR-5188";1;;1;1;;1
lb;openjpa-2.2.0;OPENJPA-2229;"lb;openjpa-2.2.0;OPENJPA-2229";1;;;1;;1
lb;hibernate-3.5.0b2;HHH-4617;"lb;hibernate-3.5.0b2;HHH-4617";1;1;1;1;1;
lb;derby-10.7.1.1;DERBY-4892;"lb;derby-10.7.1.1;DERBY-4892";1;;1;1;1;1
lb;pig-0.8.0;PIG-1911;"lb;pig-0.8.0;PIG-1911";1;;1;1;;1
lb;jedit-4.3;1768638;"lb;jedit-4.3;1768638";1;;1;1;;
lb;argouml-0.22;4162;"lb;argouml-0.22;4162";1;1;;1;;1
lb;argouml-0.22;3774;"lb;argouml-0.22;3774";1;1;1;1;;1
lb;derby-10.9.1.0;DERBY-1914;"lb;derby-10.9.1.0;DERBY-1914";1;;1;1;;1
lb;openjpa-2.2.0;OPENJPA-2247;"lb;openjpa-2.2.0;OPENJPA-2247";1;;1;1;1;1
lb;hibernate-3.5.0b2;HHH-4647;"lb;hibernate-3.5.0b2;HHH-4647";1;;;1;1;1
lb;derby-10.9.1.0;DERBY-5750;"lb;derby-10.9.1.0;DERBY-5750";1;;1;1;;1
lb;jedit-4.3;1538051;"lb;jedit-4.3;1538051";1;;1;1;;1
lb;lucene-4.0;LUCENE-4561;"lb;lucene-4.0;LUCENE-4561";1;;1;1;1;1
lb;solr-4.4.0;SOLR-5227;"lb;solr-4.4.0;SOLR-5227";1;1;;;;
lb;openjpa-2.0.1;OPENJPA-1837;"lb;openjpa-2.0.1;OPENJPA-1837";1;;;1;;
lb;pig-0.11.1;PIG-3455;"lb;pig-0.11.1;PIG-3455";1;;;1;;1
lb;pig-0.8.0;PIG-1912;"lb;pig-0.8.0;PIG-1912";1;1;1;1;1;1
lb;zookeeper-3.4.5;ZOOKEEPER-1700;"lb;zookeeper-3.4.5;ZOOKEEPER-1700";1;;1;1;1;1
lb;jedit-4.3;1834620;"lb;jedit-4.3;1834620";1;1;1;1;;
lb;argouml-0.22;4181;"lb;argouml-0.22;4181";1;;1;1;;1
lb;derby-10.9.1.0;DERBY-2141;"lb;derby-10.9.1.0;DERBY-2141";1;;;1;;1
lb;derby-10.9.1.0;DERBY-5816;"lb;derby-10.9.1.0;DERBY-5816";1;;;1;1;1
lb;openjpa-2.2.0;OPENJPA-2255;"lb;openjpa-2.2.0;OPENJPA-2255";1;1;;1;1;1
lb;pig-0.8.0;PIG-1927;"lb;pig-0.8.0;PIG-1927";1;;1;1;1;1
lb;solr-4.4.0;SOLR-5240;"lb;solr-4.4.0;SOLR-5240";1;;;;;1
lb;bookkeeper-4.1.0;BOOKKEEPER-495;"lb;bookkeeper-4.1.0;BOOKKEEPER-495";1;;;1;;1
lb;jedit-4.3;1538743;"lb;jedit-4.3;1538743";;1;1;1;;1
lb;zookeeper-3.4.5;ZOOKEEPER-1732;"lb;zookeeper-3.4.5;ZOOKEEPER-1732";1;;;1;;1
lb;lucene-4.0;LUCENE-4567;"lb;lucene-4.0;LUCENE-4567";1;;;;1;1
lb;pig-0.11.1;PIG-3495;"lb;pig-0.11.1;PIG-3495";1;;1;;1;1
lb;argouml-0.22;3790;"lb;argouml-0.22;3790";1;;1;1;;1
lb;openjpa-2.0.1;OPENJPA-1897;"lb;openjpa-2.0.1;OPENJPA-1897";1;;;1;;
lb;hibernate-3.5.0b2;HHH-4767;"lb;hibernate-3.5.0b2;HHH-4767";1;;;1;;
lb;argouml-0.22;4194;"lb;argouml-0.22;4194";;;;1;1;
lb;jedit-4.3;1866836;"lb;jedit-4.3;1866836";;1;1;;;1
lb;bookkeeper-4.1.0;BOOKKEEPER-524;"lb;bookkeeper-4.1.0;BOOKKEEPER-524";1;;;1;;
lb;derby-10.9.1.0;DERBY-3024;"lb;derby-10.9.1.0;DERBY-3024";1;1;1;1;1;1
lb;pig-0.11.1;PIG-3510;"lb;pig-0.11.1;PIG-3510";1;;1;1;1;1
lb;argouml-0.22;3803;"lb;argouml-0.22;3803";1;;1;1;;1
lb;hibernate-3.5.0b2;HHH-4775;"lb;hibernate-3.5.0b2;HHH-4775";1;;;;;1
lb;openjpa-2.0.1;OPENJPA-1901;"lb;openjpa-2.0.1;OPENJPA-1901";1;;;1;;1
lb;derby-10.9.1.0;DERBY-5838;"lb;derby-10.9.1.0;DERBY-5838";1;;1;1;;1
lb;zookeeper-3.4.5;ZOOKEEPER-1750;"lb;zookeeper-3.4.5;ZOOKEEPER-1750";1;;;1;;
lb;openjpa-2.2.0;OPENJPA-428;"lb;openjpa-2.2.0;OPENJPA-428";1;;1;1;1;1
lb;pig-0.8.0;PIG-1932;"lb;pig-0.8.0;PIG-1932";1;1;;1;;1
lb;argouml-0.22;4200;"lb;argouml-0.22;4200";1;1;1;;1;1
lb;lucene-4.0;LUCENE-4568;"lb;lucene-4.0;LUCENE-4568";1;;;;1;
lb;derby-10.9.1.0;DERBY-3808;"lb;derby-10.9.1.0;DERBY-3808";1;;;1;;1
lb;argouml-0.22;3812;"lb;argouml-0.22;3812";1;;1;1;;1
lb;pig-0.8.0;PIG-1188;"lb;pig-0.8.0;PIG-1188";1;1;1;1;1;1
lb;jedit-4.3;1869978;"lb;jedit-4.3;1869978";1;;1;1;;
lb;zookeeper-3.4.5;ZOOKEEPER-1753;"lb;zookeeper-3.4.5;ZOOKEEPER-1753";1;;;1;1;1
lb;hibernate-3.5.0b2;HHH-5042;"lb;hibernate-3.5.0b2;HHH-5042";1;;1;1;1;
lb;jedit-4.3;1541372;"lb;jedit-4.3;1541372";1;1;;1;;
lb;solr-4.4.0;SOLR-5243;"lb;solr-4.4.0;SOLR-5243";1;;1;;;1
lb;derby-10.7.1.1;DERBY-4624;"lb;derby-10.7.1.1;DERBY-4624";1;;;1;1;1
lb;derby-10.9.1.0;DERBY-5851;"lb;derby-10.9.1.0;DERBY-5851";1;1;1;;;1
lb;openjpa-2.0.1;OPENJPA-1903;"lb;openjpa-2.0.1;OPENJPA-1903";1;;1;1;1;1
lb;pig-0.11.1;PIG-2265;"lb;pig-0.11.1;PIG-2265";1;;;1;;1
lb;pig-0.8.0;PIG-1277;"lb;pig-0.8.0;PIG-1277";1;1;1;1;1;1
lb;lucene-4.0;LUCENE-4629;"lb;lucene-4.0;LUCENE-4629";1;1;;1;;
lb;jabref-2.6;1436014;"lb;jabref-2.6;1436014";1;;1;1;;
lb;zookeeper-3.4.5;ZOOKEEPER-1755;"lb;zookeeper-3.4.5;ZOOKEEPER-1755";1;;;1;1;1
lb;argouml-0.22;4222;"lb;argouml-0.22;4222";1;;1;;;1
lb;openjpa-2.0.1;OPENJPA-1911;"lb;openjpa-2.0.1;OPENJPA-1911";1;;;1;;1
lb;derby-10.9.1.0;DERBY-5911;"lb;derby-10.9.1.0;DERBY-5911";1;1;1;1;;1
lb;argouml-0.22;3882;"lb;argouml-0.22;3882";1;;1;;;1
lb;solr-4.4.0;SOLR-5246;"lb;solr-4.4.0;SOLR-5246";1;1;;1;;1
lb;pig-0.8.0;PIG-1935;"lb;pig-0.8.0;PIG-1935";1;1;1;1;1;1
lb;jedit-4.3;1542026;"lb;jedit-4.3;1542026";1;;1;1;;1
lb;derby-10.9.1.0;DERBY-4269;"lb;derby-10.9.1.0;DERBY-4269";1;;;1;1;1
lb;pig-0.8.0;PIG-1680;"lb;pig-0.8.0;PIG-1680";1;;;1;;
lb;derby-10.7.1.1;DERBY-4654;"lb;derby-10.7.1.1;DERBY-4654";1;1;;1;1;
lb;zookeeper-3.4.5;ZOOKEEPER-1769;"lb;zookeeper-3.4.5;ZOOKEEPER-1769";1;;;1;;
lb;jabref-2.6;1503956;"lb;jabref-2.6;1503956";1;1;1;1;;
lb;argouml-0.22;4231;"lb;argouml-0.22;4231";1;;;1;;1
lb;jedit-4.3;1906288;"lb;jedit-4.3;1906288";1;;1;1;;1
lb;jedit-4.3;1548902;"lb;jedit-4.3;1548902";1;;;1;;1
lb;openjpa-2.0.1;OPENJPA-1912;"lb;openjpa-2.0.1;OPENJPA-1912";1;;1;1;1;
lb;lucene-4.0;LUCENE-4653;"lb;lucene-4.0;LUCENE-4653";1;;;1;;1
lb;jabref-2.6;1538769;"lb;jabref-2.6;1538769";1;;1;1;;1
lb;pig-0.11.1;PIG-2606;"lb;pig-0.11.1;PIG-2606";1;;;1;;1
lb;argouml-0.22;3923;"lb;argouml-0.22;3923";1;;1;1;1;
lb;solr-4.4.0;SOLR-5291;"lb;solr-4.4.0;SOLR-5291";1;;;;;1
lb;zookeeper-3.4.5;ZOOKEEPER-1774;"lb;zookeeper-3.4.5;ZOOKEEPER-1774";1;;;1;1;1
lb;derby-10.7.1.1;DERBY-4664;"lb;derby-10.7.1.1;DERBY-4664";1;;;1;1;1
lb;derby-10.9.1.0;DERBY-4279;"lb;derby-10.9.1.0;DERBY-4279";1;;1;1;;
lb;pig-0.8.0;PIG-1955;"lb;pig-0.8.0;PIG-1955";1;;;1;1;
lb;derby-10.9.1.0;DERBY-5912;"lb;derby-10.9.1.0;DERBY-5912";1;;;1;1;1
lb;jedit-4.3;1913979;"lb;jedit-4.3;1913979";1;;1;1;;1
lb;argouml-0.22;4245;"lb;argouml-0.22;4245";1;;1;1;;1
lb;pig-0.8.0;PIG-1717;"lb;pig-0.8.0;PIG-1717";1;1;;1;;1
lb;jedit-4.3;1549282;"lb;jedit-4.3;1549282";1;;1;1;;
lb;zookeeper-3.4.5;ZOOKEEPER-1781;"lb;zookeeper-3.4.5;ZOOKEEPER-1781";1;1;1;1;1;
lb;solr-4.4.0;SOLR-5295;"lb;solr-4.4.0;SOLR-5295";1;;1;1;1;
lb;pig-0.8.0;PIG-1963;"lb;pig-0.8.0;PIG-1963";1;;1;1;1;1
lb;argouml-0.22;4272;"lb;argouml-0.22;4272";1;;1;1;;1
lb;argouml-0.22;3945;"lb;argouml-0.22;3945";1;;1;1;;1
lb;jedit-4.3;1942313;"lb;jedit-4.3;1942313";1;1;1;1;1;1
lb;derby-10.9.1.0;DERBY-4647;"lb;derby-10.9.1.0;DERBY-4647";1;;1;1;1;1
lb;derby-10.9.1.0;DERBY-5916;"lb;derby-10.9.1.0;DERBY-5916";1;;1;1;1;1
lb;pig-0.8.0;PIG-1771;"lb;pig-0.8.0;PIG-1771";1;;1;1;1;1
lb;pig-0.8.0;PIG-1977;"lb;pig-0.8.0;PIG-1977";1;;;1;1;1
lb;argouml-0.22;3947;"lb;argouml-0.22;3947";1;;1;1;;1
lb;argouml-0.22;4276;"lb;argouml-0.22;4276";1;;1;1;;1
lb;solr-4.4.0;SOLR-5296;"lb;solr-4.4.0;SOLR-5296";1;1;1;1;1;1
lb;derby-10.9.1.0;DERBY-4669;"lb;derby-10.9.1.0;DERBY-4669";1;;;1;1;1
lb;zookeeper-3.4.5;ZOOKEEPER-1783;"lb;zookeeper-3.4.5;ZOOKEEPER-1783";1;1;;1;;1
lb;openjpa-2.0.1;OPENJPA-1918;"lb;openjpa-2.0.1;OPENJPA-1918";1;1;1;1;1;1
lb;lucene-4.0;LUCENE-4656;"lb;lucene-4.0;LUCENE-4656";1;;;1;;1
lb;jedit-4.3;1984000;"lb;jedit-4.3;1984000";1;;1;1;;
lb;pig-0.11.1;PIG-2767;"lb;pig-0.11.1;PIG-2767";1;1;1;1;1;1
lb;derby-10.7.1.1;DERBY-4665;"lb;derby-10.7.1.1;DERBY-4665";1;;;1;1;1
lb;jedit-4.3;1571752;"lb;jedit-4.3;1571752";1;;1;1;1;
lb;jabref-2.6;1540646;"lb;jabref-2.6;1540646";1;1;;1;;
lb;lucene-4.0;LUCENE-4657;"lb;lucene-4.0;LUCENE-4657";;;;1;;1
lb;tika-1.3;TIKA-1014;"lb;tika-1.3;TIKA-1014";1;1;;1;;1
lb;jedit-4.3;1999448;"lb;jedit-4.3;1999448";1;1;1;1;1;
lb;zookeeper-3.4.5;ZOOKEEPER-1815;"lb;zookeeper-3.4.5;ZOOKEEPER-1815";1;1;;;;1
lb;openjpa-2.0.1;OPENJPA-1928;"lb;openjpa-2.0.1;OPENJPA-1928";1;1;1;1;1;1
lb;derby-10.7.1.1;DERBY-4671;"lb;derby-10.7.1.1;DERBY-4671";1;;;1;;1
lb;argouml-0.22;4279;"lb;argouml-0.22;4279";1;;1;1;;1
lb;pig-0.8.0;PIG-1776;"lb;pig-0.8.0;PIG-1776";1;;1;1;1;1
lb;argouml-0.22;3974;"lb;argouml-0.22;3974";1;;1;1;;1
lb;derby-10.9.1.0;DERBY-5933;"lb;derby-10.9.1.0;DERBY-5933";1;;;1;;1
lb;derby-10.9.1.0;DERBY-4873;"lb;derby-10.9.1.0;DERBY-4873";1;;1;1;1;1
lb;pig-0.11.1;PIG-2828;"lb;pig-0.11.1;PIG-2828";1;1;1;1;1;
lb;jabref-2.6;1548875;"lb;jabref-2.6;1548875";1;1;;1;;1
lb;pig-0.8.0;PIG-1979;"lb;pig-0.8.0;PIG-1979";1;;1;1;1;1
lb;lucene-4.0;LUCENE-4660;"lb;lucene-4.0;LUCENE-4660";1;1;1;;;1
lb;tika-1.3;TIKA-1047;"lb;tika-1.3;TIKA-1047";1;1;;1;;1
lb;openjpa-2.0.1;OPENJPA-1975;"lb;openjpa-2.0.1;OPENJPA-1975";1;1;;;1;1
lb;pig-0.8.0;PIG-1785;"lb;pig-0.8.0;PIG-1785";1;1;1;1;1;1
lb;zookeeper-3.4.5;ZOOKEEPER-1837;"lb;zookeeper-3.4.5;ZOOKEEPER-1837";1;;;1;;
lb;argouml-0.22;4281;"lb;argouml-0.22;4281";1;1;1;;;1
lb;derby-10.9.1.0;DERBY-5937;"lb;derby-10.9.1.0;DERBY-5937";1;;;1;;1
lb;openjpa-2.0.1;OPENJPA-1986;"lb;openjpa-2.0.1;OPENJPA-1986";1;;1;1;1;1
lb;pig-0.11.1;PIG-2956;"lb;pig-0.11.1;PIG-2956";1;;;1;;1
lb;argouml-0.22;4007;"lb;argouml-0.22;4007";;;;1;;
lb;pig-0.8.0;PIG-1993;"lb;pig-0.8.0;PIG-1993";1;;1;1;1;
lb;lucene-4.0;LUCENE-4671;"lb;lucene-4.0;LUCENE-4671";;1;;1;1;
lb;jedit-4.3;1575505;"lb;jedit-4.3;1575505";1;;1;1;1;1
lb;jabref-2.6;1553552;"lb;jabref-2.6;1553552";1;;1;1;;
lb;tika-1.3;TIKA-1070;"lb;tika-1.3;TIKA-1070";1;;1;1;1;
lb;zookeeper-3.4.5;ZOOKEEPER-876;"lb;zookeeper-3.4.5;ZOOKEEPER-876";1;1;;1;;1
lb;derby-10.9.1.0;DERBY-5014;"lb;derby-10.9.1.0;DERBY-5014";1;1;;1;;1
lb;pig-0.8.0;PIG-313;"lb;pig-0.8.0;PIG-313";1;;1;1;1;1
lb;pig-0.8.0;PIG-1808;"lb;pig-0.8.0;PIG-1808";1;;1;1;1;
lb;derby-10.7.1.1;DERBY-4684;"lb;derby-10.7.1.1;DERBY-4684";1;1;1;1;;1
lb;lucene-4.0;LUCENE-4899;"lb;lucene-4.0;LUCENE-4899";1;1;;1;;1
lb;argouml-0.22;4324;"lb;argouml-0.22;4324";1;1;1;1;;
lb;jedit-4.3;2015210;"lb;jedit-4.3;2015210";1;;1;1;;1
lb;derby-10.9.1.0;DERBY-6053;"lb;derby-10.9.1.0;DERBY-6053";1;1;1;1;1;1
lb;derby-10.9.1.0;DERBY-5040;"lb;derby-10.9.1.0;DERBY-5040";1;;;1;;1
lb;tika-1.3;TIKA-1074;"lb;tika-1.3;TIKA-1074";1;1;;1;;1
lb;jedit-4.3;1584436;"lb;jedit-4.3;1584436";1;;1;1;;1
lb;jabref-2.6;1594169;"lb;jabref-2.6;1594169";1;;;1;;1
lb;pig-0.11.1;PIG-2970;"lb;pig-0.11.1;PIG-2970";1;;;1;1;1
lb;derby-10.7.1.1;DERBY-4693;"lb;derby-10.7.1.1;DERBY-4693";1;;1;1;;1
lb;argouml-0.22;4330;"lb;argouml-0.22;4330";1;;1;1;;1
lb;pig-0.8.0;PIG-1812;"lb;pig-0.8.0;PIG-1812";1;;1;1;1;1
lb;derby-10.9.1.0;DERBY-6058;"lb;derby-10.9.1.0;DERBY-6058";1;;;1;1;1
lb;jedit-4.3;2017514;"lb;jedit-4.3;2017514";1;;1;1;;1
lb;mahout-0.8;MAHOUT-1030;"lb;mahout-0.8;MAHOUT-1030";1;1;;1;;
lb;derby-10.9.1.0;DERBY-5045;"lb;derby-10.9.1.0;DERBY-5045";1;;1;1;;1
lb;pig-0.11.1;PIG-3060;"lb;pig-0.11.1;PIG-3060";1;;;1;1;1
lb;jabref-2.6;1601651;"lb;jabref-2.6;1601651";1;;1;1;;
lb;jedit-4.3;1593359;"lb;jedit-4.3;1593359";1;;1;1;;
lb;tika-1.3;TIKA-1152;"lb;tika-1.3;TIKA-1152";1;;1;1;1;1
lb;argouml-0.22;4342;"lb;argouml-0.22;4342";1;;1;;;1
lb;derby-10.7.1.1;DERBY-4718;"lb;derby-10.7.1.1;DERBY-4718";1;;;1;1;
lb;pig-0.8.0;PIG-1813;"lb;pig-0.8.0;PIG-1813";1;;1;1;1;1
lb;jedit-4.3;2129419;"lb;jedit-4.3;2129419";1;;1;1;1;1
lb;mahout-0.8;MAHOUT-1261;"lb;mahout-0.8;MAHOUT-1261";1;;;1;1;1
lb;derby-10.9.1.0;DERBY-6065;"lb;derby-10.9.1.0;DERBY-6065";1;;;1;;1
lb;jabref-2.6;1631548;"lb;jabref-2.6;1631548";1;;1;1;1;1
lb;jedit-4.3;1593523;"lb;jedit-4.3;1593523";1;;1;1;;1
lb;pig-0.11.1;PIG-3114;"lb;pig-0.11.1;PIG-3114";1;;1;1;1;
lb;argouml-0.22;4349;"lb;argouml-0.22;4349";1;;1;1;;1
lb;pig-0.8.0;PIG-1815;"lb;pig-0.8.0;PIG-1815";1;;;1;;1
lb;jedit-4.3;2173112;"lb;jedit-4.3;2173112";1;;1;1;;
lb;derby-10.9.1.0;DERBY-6079;"lb;derby-10.9.1.0;DERBY-6079";1;;;1;1;
lb;pig-0.11.1;PIG-3204;"lb;pig-0.11.1;PIG-3204";1;1;;1;;
qq;commons-math-3-3.0;MATH-915;"qq;commons-math-3-3.0;MATH-915";1;;;1;1;
qq;mahout-0.4;MAHOUT-561;"qq;mahout-0.4;MAHOUT-561";;;;1;;
qq;eclipse-2.0;31779;"qq;eclipse-2.0;31779";1;1;1;1;1;
qq;bookkeeper-4.1.0;BOOKKEEPER-318;"qq;bookkeeper-4.1.0;BOOKKEEPER-318";;;;1;1;1
qq;atunes-1.10.0;220;"qq;atunes-1.10.0;220";1;;1;;;
qq;mahout-0.8;MAHOUT-1345;"qq;mahout-0.8;MAHOUT-1345";1;;;1;;1
qq;openjpa-2.0.1;OPENJPA-1784;"qq;openjpa-2.0.1;OPENJPA-1784";1;;1;1;1;1
qq;openjpa-2.0.1;OPENJPA-526;"qq;openjpa-2.0.1;OPENJPA-526";1;;1;1;1;1
qq;bookkeeper-4.1.0;BOOKKEEPER-514;"qq;bookkeeper-4.1.0;BOOKKEEPER-514";1;;;1;;1
qq;mahout-0.8;MAHOUT-1030;"qq;mahout-0.8;MAHOUT-1030";1;1;;1;;1
qq;eclipse-2.0;15277;"qq;eclipse-2.0;15277";1;;;1;1;1
qq;derby-10.9.1.0;DERBY-6009;"qq;derby-10.9.1.0;DERBY-6009";1;1;1;1;;1
qq;adempiere-3.1.0;106;"qq;adempiere-3.1.0;106";1;;;1;;1
qq;apache-nutch-1.8;NUTCH-1262;"qq;apache-nutch-1.8;NUTCH-1262";1;1;;1;1;1
qq;derby-10.9.1.0;DERBY-4279;"qq;derby-10.9.1.0;DERBY-4279";1;;;1;;1
qq;bookkeeper-4.1.0;BOOKKEEPER-326;"qq;bookkeeper-4.1.0;BOOKKEEPER-326";1;;;1;;1
qq;atunes-1.10.0;230;"qq;atunes-1.10.0;230";1;;;1;;1
qq;mahout-0.4;MAHOUT-564;"qq;mahout-0.4;MAHOUT-564";1;;;;;
qq;bookkeeper-4.1.0;BOOKKEEPER-524;"qq;bookkeeper-4.1.0;BOOKKEEPER-524";1;;;1;;1
qq;derby-10.9.1.0;DERBY-6027;"qq;derby-10.9.1.0;DERBY-6027";1;;1;1;;1
qq;eclipse-2.0;16787;"qq;eclipse-2.0;16787";1;;;1;1;1
qq;adempiere-3.1.0;109;"qq;adempiere-3.1.0;109";1;;1;1;;
qq;jedit-4.2;2459;"qq;jedit-4.2;2459";1;;1;1;;1
qq;mahout-0.8;MAHOUT-1349;"qq;mahout-0.8;MAHOUT-1349";1;;1;1;1;
qq;openjpa-2.0.1;OPENJPA-1793;"qq;openjpa-2.0.1;OPENJPA-1793";1;;;1;1;1
qq;tika-1.3;TIKA-1109;"qq;tika-1.3;TIKA-1109";1;1;1;1;;1
qq;mahout-0.8;MAHOUT-1261;"qq;mahout-0.8;MAHOUT-1261";1;;;1;1;1
qq;apache-nutch-1.8;NUTCH-1399;"qq;apache-nutch-1.8;NUTCH-1399";1;;;;;
qq;bookkeeper-4.1.0;BOOKKEEPER-327;"qq;bookkeeper-4.1.0;BOOKKEEPER-327";1;;;1;1;1
qq;atunes-1.10.0;231;"qq;atunes-1.10.0;231";1;;1;1;1;
qq;bookkeeper-4.1.0;BOOKKEEPER-55;"qq;bookkeeper-4.1.0;BOOKKEEPER-55";1;;;1;1;1
qq;derby-10.9.1.0;DERBY-5424;"qq;derby-10.9.1.0;DERBY-5424";1;;;1;1;1
qq;mahout-0.4;MAHOUT-565;"qq;mahout-0.4;MAHOUT-565";1;;;1;;
qq;eclipse-2.0;17707;"qq;eclipse-2.0;17707";1;1;1;;;1
qq;jedit-4.2;2542;"qq;jedit-4.2;2542";1;1;1;1;;1
qq;adempiere-3.1.0;113;"qq;adempiere-3.1.0;113";1;;;1;;1
qq;apache-nutch-2.1;NUTCH-1393;"qq;apache-nutch-2.1;NUTCH-1393";1;1;1;1;1;
qq;derby-10.9.1.0;DERBY-6064;"qq;derby-10.9.1.0;DERBY-6064";1;;;1;;1
qq;tika-1.3;TIKA-1110;"qq;tika-1.3;TIKA-1110";1;;;1;;1
qq;mahout-0.8;MAHOUT-1285;"qq;mahout-0.8;MAHOUT-1285";1;;;1;;1
qq;mahout-0.4;MAHOUT-569;"qq;mahout-0.4;MAHOUT-569";1;;1;1;;
qq;mahout-0.8;MAHOUT-1358;"qq;mahout-0.8;MAHOUT-1358";1;;1;1;1;1
qq;commons-math-3-3.0;MATH-718;"qq;commons-math-3-3.0;MATH-718";1;1;1;1;1;1
qq;atunes-1.10.0;240;"qq;atunes-1.10.0;240";1;;1;1;;1
qq;derby-10.9.1.0;DERBY-5561;"qq;derby-10.9.1.0;DERBY-5561";1;;;1;;
qq;bookkeeper-4.1.0;BOOKKEEPER-337;"qq;bookkeeper-4.1.0;BOOKKEEPER-337";1;;1;1;;
qq;adempiere-3.1.0;114;"qq;adempiere-3.1.0;114";1;;;1;;1
qq;eclipse-2.0;19307;"qq;eclipse-2.0;19307";1;1;;1;;1
qq;openjpa-2.0.1;OPENJPA-1810;"qq;openjpa-2.0.1;OPENJPA-1810";1;;;1;;1
qq;jedit-4.2;2560;"qq;jedit-4.2;2560";1;;1;1;;1
qq;apache-nutch-2.1;NUTCH-1484;"qq;apache-nutch-2.1;NUTCH-1484";1;;;1;1;1
qq;tika-1.3;TIKA-1124;"qq;tika-1.3;TIKA-1124";1;;;1;;1
qq;derby-10.9.1.0;DERBY-6073;"qq;derby-10.9.1.0;DERBY-6073";1;;;1;1;
qq;mahout-0.4;MAHOUT-604;"qq;mahout-0.4;MAHOUT-604";1;;;;;1
qq;mahout-0.8;MAHOUT-1301;"qq;mahout-0.8;MAHOUT-1301";1;;1;1;1;1
qq;apache-nutch-2.1;NUTCH-1552;"qq;apache-nutch-2.1;NUTCH-1552";1;;1;;;
qq;jedit-4.2;2571;"qq;jedit-4.2;2571";1;1;1;1;;1
qq;derby-10.9.1.0;DERBY-5663;"qq;derby-10.9.1.0;DERBY-5663";1;;;1;1;1
qq;adempiere-3.1.0;116;"qq;adempiere-3.1.0;116";1;;;1;;1
qq;mahout-0.8;MAHOUT-1368;"qq;mahout-0.8;MAHOUT-1368";1;;;1;;1
qq;bookkeeper-4.1.0;BOOKKEEPER-355;"qq;bookkeeper-4.1.0;BOOKKEEPER-355";1;;;1;1;1
qq;tika-1.3;TIKA-1130;"qq;tika-1.3;TIKA-1130";1;;;1;;1
qq;openjpa-2.0.1;OPENJPA-1830;"qq;openjpa-2.0.1;OPENJPA-1830";1;;;1;1;1
qq;eclipse-2.0;19686;"qq;eclipse-2.0;19686";1;1;1;1;;1
qq;atunes-1.10.0;245;"qq;atunes-1.10.0;245";1;;1;;;1
qq;commons-math-3-3.0;MATH-775;"qq;commons-math-3-3.0;MATH-775";1;1;;;;
qq;mahout-0.4;MAHOUT-610;"qq;mahout-0.4;MAHOUT-610";1;;;1;;
qq;derby-10.9.1.0;DERBY-6089;"qq;derby-10.9.1.0;DERBY-6089";1;;;1;1;
qq;mahout-0.8;MAHOUT-1308;"qq;mahout-0.8;MAHOUT-1308";;;;1;1;1
qq;apache-nutch-2.1;NUTCH-1563;"qq;apache-nutch-2.1;NUTCH-1563";1;;;;;1
qq;eclipse-2.0;19691;"qq;eclipse-2.0;19691";1;;;1;;1
qq;derby-10.9.1.0;DERBY-5816;"qq;derby-10.9.1.0;DERBY-5816";1;;;1;1;1
qq;mahout-0.8;MAHOUT-1409;"qq;mahout-0.8;MAHOUT-1409";1;1;;1;;
qq;adempiere-3.1.0;1240;"qq;adempiere-3.1.0;1240";1;;1;1;1;
qq;jedit-4.2;2595;"qq;jedit-4.2;2595";1;;1;1;;1
qq;bookkeeper-4.1.0;BOOKKEEPER-371;"qq;bookkeeper-4.1.0;BOOKKEEPER-371";1;;;1;1;1
qq;tika-1.3;TIKA-1152;"qq;tika-1.3;TIKA-1152";1;;;1;1;1
qq;atunes-1.10.0;260;"qq;atunes-1.10.0;260";1;;;1;;1
qq;derby-10.9.1.0;DERBY-6092;"qq;derby-10.9.1.0;DERBY-6092";1;;;1;1;1
qq;mahout-0.4;MAHOUT-625;"qq;mahout-0.4;MAHOUT-625";1;1;1;1;;1
qq;openjpa-2.0.1;OPENJPA-1837;"qq;openjpa-2.0.1;OPENJPA-1837";1;;;1;;1
qq;commons-math-3-3.0;MATH-778;"qq;commons-math-3-3.0;MATH-778";1;1;;;1;1
qq;atunes-1.10.0;264;"qq;atunes-1.10.0;264";1;;;1;;1
qq;bookkeeper-4.1.0;BOOKKEEPER-387;"qq;bookkeeper-4.1.0;BOOKKEEPER-387";1;;1;1;1;
qq;tika-1.3;TIKA-1192;"qq;tika-1.3;TIKA-1192";1;;;1;1;1
qq;eclipse-2.0;19976;"qq;eclipse-2.0;19976";1;1;1;1;;1
qq;adempiere-3.1.0;37;"qq;adempiere-3.1.0;37";1;;;1;;1
qq;jedit-4.2;2636;"qq;jedit-4.2;2636";1;;;1;;1
qq;openjpa-2.0.1;OPENJPA-1613;"qq;openjpa-2.0.1;OPENJPA-1613";1;;;1;1;1
qq;derby-10.9.1.0;DERBY-5911;"qq;derby-10.9.1.0;DERBY-5911";1;1;1;1;;1
qq;apache-nutch-2.1;NUTCH-956;"qq;apache-nutch-2.1;NUTCH-956";;;;1;;1
qq;mahout-0.8;MAHOUT-1314;"qq;mahout-0.8;MAHOUT-1314";1;;1;1;1;1
qq;commons-math-3-3.0;MATH-779;"qq;commons-math-3-3.0;MATH-779";1;1;1;;;
qq;mahout-0.4;MAHOUT-632;"qq;mahout-0.4;MAHOUT-632";1;;;1;;1
qq;derby-10.9.1.0;DERBY-6094;"qq;derby-10.9.1.0;DERBY-6094";1;;;1;;1
qq;openjpa-2.0.1;OPENJPA-1865;"qq;openjpa-2.0.1;OPENJPA-1865";1;;;1;;1
qq;mahout-0.8;MAHOUT-1317;"qq;mahout-0.8;MAHOUT-1317";1;1;;1;1;1
qq;adempiere-3.1.0;814;"qq;adempiere-3.1.0;814";1;;1;;;
qq;bookkeeper-4.1.0;BOOKKEEPER-447;"qq;bookkeeper-4.1.0;BOOKKEEPER-447";1;1;;1;;
qq;jedit-4.2;2720;"qq;jedit-4.2;2720";1;1;;1;;1
qq;atunes-1.10.0;278;"qq;atunes-1.10.0;278";1;;1;1;;1
qq;openjpa-2.0.1;OPENJPA-1627;"qq;openjpa-2.0.1;OPENJPA-1627";1;1;1;1;1;1
qq;commons-math-3-3.0;MATH-782;"qq;commons-math-3-3.0;MATH-782";1;1;;;;1
qq;eclipse-2.0;22809;"qq;eclipse-2.0;22809";1;;1;1;;1
qq;atunes-1.10.0;207;"qq;atunes-1.10.0;207";1;;1;1;;
qq;openjpa-2.0.1;OPENJPA-1896;"qq;openjpa-2.0.1;OPENJPA-1896";1;1;;1;1;1
qq;adempiere-3.1.0;815;"qq;adempiere-3.1.0;815";1;;;1;;1
qq;derby-10.9.1.0;DERBY-5912;"qq;derby-10.9.1.0;DERBY-5912";1;;;1;1;
qq;derby-10.9.1.0;DERBY-6147;"qq;derby-10.9.1.0;DERBY-6147";1;;;1;;1
qq;bookkeeper-4.1.0;BOOKKEEPER-491;"qq;bookkeeper-4.1.0;BOOKKEEPER-491";1;;;1;;1
qq;mahout-0.8;MAHOUT-1319;"qq;mahout-0.8;MAHOUT-1319";1;;1;;;1
qq;eclipse-2.0;23140;"qq;eclipse-2.0;23140";1;1;1;1;;1
qq;openjpa-2.0.1;OPENJPA-1743;"qq;openjpa-2.0.1;OPENJPA-1743";1;;;1;;1
qq;tika-1.3;TIKA-1211;"qq;tika-1.3;TIKA-1211";1;;;1;;1
qq;mahout-0.4;MAHOUT-641;"qq;mahout-0.4;MAHOUT-641";1;;;;1;
qq;commons-math-3-3.0;MATH-841;"qq;commons-math-3-3.0;MATH-841";1;;1;1;1;
qq;atunes-1.10.0;281;"qq;atunes-1.10.0;281";1;;;1;1;1
qq;derby-10.9.1.0;DERBY-6150;"qq;derby-10.9.1.0;DERBY-6150";1;1;;1;1;
qq;derby-10.9.1.0;DERBY-5951;"qq;derby-10.9.1.0;DERBY-5951";1;;1;1;1;1
qq;atunes-1.10.0;212;"qq;atunes-1.10.0;212";1;;1;1;;1
qq;eclipse-2.0;30644;"qq;eclipse-2.0;30644";1;;;1;;1
qq;openjpa-2.0.1;OPENJPA-1904;"qq;openjpa-2.0.1;OPENJPA-1904";1;;;1;;1
qq;mahout-0.8;MAHOUT-1320;"qq;mahout-0.8;MAHOUT-1320";1;;;1;1;1
qq;jedit-4.2;2752;"qq;jedit-4.2;2752";1;;1;1;;1
qq;openjpa-2.0.1;OPENJPA-1762;"qq;openjpa-2.0.1;OPENJPA-1762";1;1;1;1;;1
qq;bookkeeper-4.1.0;BOOKKEEPER-498;"qq;bookkeeper-4.1.0;BOOKKEEPER-498";1;;;1;;1
qq;adempiere-3.1.0;820;"qq;adempiere-3.1.0;820";1;;;1;;1
qq;commons-math-3-3.0;MATH-905;"qq;commons-math-3-3.0;MATH-905";1;1;;1;1;1
qq;mahout-0.4;MAHOUT-678;"qq;mahout-0.4;MAHOUT-678";1;;;1;;1
qq;openjpa-2.0.1;OPENJPA-1765;"qq;openjpa-2.0.1;OPENJPA-1765";1;;;1;;1
qq;openjpa-2.0.1;OPENJPA-1918;"qq;openjpa-2.0.1;OPENJPA-1918";1;1;;1;1;1
qq;atunes-1.10.0;213;"qq;atunes-1.10.0;213";1;1;1;1;;1
qq;derby-10.9.1.0;DERBY-6008;"qq;derby-10.9.1.0;DERBY-6008";1;1;;1;;1
qq;eclipse-2.0;13926;"qq;eclipse-2.0;13926";1;;;1;1;1
qq;bookkeeper-4.1.0;BOOKKEEPER-294;"qq;bookkeeper-4.1.0;BOOKKEEPER-294";1;;;1;1;1
qq;mahout-0.4;MAHOUT-526;"qq;mahout-0.4;MAHOUT-526";1;;;;;1
qq;mahout-0.8;MAHOUT-1336;"qq;mahout-0.8;MAHOUT-1336";1;;;1;1;1
qq;openjpa-2.0.1;OPENJPA-1943;"qq;openjpa-2.0.1;OPENJPA-1943";1;;;1;;1
b4bl;DATAMONGO;DATAMONGO-430;"b4bl;DATAMONGO;DATAMONGO-430";1;;1;1;;1
b4bl;WFCORE;WFCORE-727;"b4bl;WFCORE;WFCORE-727";1;;1;1;;1
b4bl;WFCORE;WFCORE-1611;"b4bl;WFCORE;WFCORE-1611";1;;1;1;;1
b4bl;IO;IO-180;"b4bl;IO;IO-180";1;1;;1;1;
b4bl;WFCORE;WFCORE-1229;"b4bl;WFCORE;WFCORE-1229";1;;1;1;;1
b4bl;WFCORE;WFCORE-1027;"b4bl;WFCORE;WFCORE-1027";1;1;1;1;1;1
b4bl;AMQP;AMQP-170;"b4bl;AMQP;AMQP-170";1;1;;1;;1
b4bl;SWARM;SWARM-586;"b4bl;SWARM;SWARM-586";1;;;1;;1
b4bl;DATACMNS;DATACMNS-594;"b4bl;DATACMNS;DATACMNS-594";1;;1;1;;1
b4bl;DATAMONGO;DATAMONGO-1263;"b4bl;DATAMONGO;DATAMONGO-1263";1;1;1;1;1;1
b4bl;DATACMNS;DATACMNS-68;"b4bl;DATACMNS;DATACMNS-68";1;;1;1;1;1
b4bl;DATAMONGO;DATAMONGO-938;"b4bl;DATAMONGO;DATAMONGO-938";1;;1;1;1;1
b4bl;WFCORE;WFCORE-1908;"b4bl;WFCORE;WFCORE-1908";1;1;1;1;1;1
b4bl;WFCORE;WFCORE-267;"b4bl;WFCORE;WFCORE-267";1;;1;1;1;1
b4bl;COMPRESS;COMPRESS-309;"b4bl;COMPRESS;COMPRESS-309";1;;1;1;1;1
b4bl;WFCORE;WFCORE-1309;"b4bl;WFCORE;WFCORE-1309";1;1;;1;;1
b4bl;DATAMONGO;DATAMONGO-1290;"b4bl;DATAMONGO;DATAMONGO-1290";1;1;1;1;1;1
b4bl;SWARM;SWARM-564;"b4bl;SWARM;SWARM-564";1;;;1;;1
b4bl;DATACMNS;DATACMNS-609;"b4bl;DATACMNS;DATACMNS-609";1;;1;;1;1
b4bl;WFCORE;WFCORE-1578;"b4bl;WFCORE;WFCORE-1578";1;1;1;1;1;1
b4bl;WFCORE;WFCORE-916;"b4bl;WFCORE;WFCORE-916";1;;1;1;;1
b4bl;DATACMNS;DATACMNS-114;"b4bl;DATACMNS;DATACMNS-114";1;1;1;1;1;1
b4bl;AMQP;AMQP-190;"b4bl;AMQP;AMQP-190";1;;1;1;1;1
b4bl;DATAMONGO;DATAMONGO-952;"b4bl;DATAMONGO;DATAMONGO-952";1;;1;1;1;1
b4bl;DATAMONGO;DATAMONGO-462;"b4bl;DATAMONGO;DATAMONGO-462";1;;;1;1;1
b4bl;COMPRESS;COMPRESS-332;"b4bl;COMPRESS;COMPRESS-332";1;1;;1;1;
b4bl;WFCORE;WFCORE-1915;"b4bl;WFCORE;WFCORE-1915";1;1;;1;;1
b4bl;WFCORE;WFCORE-716;"b4bl;WFCORE;WFCORE-716";1;;1;1;1;1
b4bl;WFCORE;WFCORE-438;"b4bl;WFCORE;WFCORE-438";1;;;;;1
b4bl;IO;IO-252;"b4bl;IO;IO-252";1;;1;1;;
b4bl;WFCORE;WFCORE-1607;"b4bl;WFCORE;WFCORE-1607";1;1;;1;1;1
b4bl;WFCORE;WFCORE-1354;"b4bl;WFCORE;WFCORE-1354";1;1;;1;1;1
b4bl;SWARM;SWARM-635;"b4bl;SWARM;SWARM-635";;;;1;;1
b4bl;DATAMONGO;DATAMONGO-969;"b4bl;DATAMONGO;DATAMONGO-969";1;;;1;1;1
b4bl;DATAMONGO;DATAMONGO-1289;"b4bl;DATAMONGO;DATAMONGO-1289";1;1;1;1;1;1
b4bl;IO;IO-307;"b4bl;IO;IO-307";1;1;;;;
b4bl;DATAMONGO;DATAMONGO-467;"b4bl;DATAMONGO;DATAMONGO-467";1;;1;1;1;1
b4bl;AMQP;AMQP-250;"b4bl;AMQP;AMQP-250";;;;1;;1
b4bl;WFCORE;WFCORE-752;"b4bl;WFCORE;WFCORE-752";1;;;;;1
b4bl;WFCORE;WFCORE-997;"b4bl;WFCORE;WFCORE-997";1;;1;1;;1
b4bl;COMPRESS;COMPRESS-357;"b4bl;COMPRESS;COMPRESS-357";1;1;;1;1;1
b4bl;DATACMNS;DATACMNS-154;"b4bl;DATACMNS;DATACMNS-154";1;;;1;1;1
b4bl;WFCORE;WFCORE-1552;"b4bl;WFCORE;WFCORE-1552";1;1;;1;;1
b4bl;WFCORE;WFCORE-1114;"b4bl;WFCORE;WFCORE-1114";1;;;1;1;1
b4bl;DATAMONGO;DATAMONGO-987;"b4bl;DATAMONGO;DATAMONGO-987";1;1;1;1;1;1
b4bl;SWARM;SWARM-662;"b4bl;SWARM;SWARM-662";1;;;1;;1
b4bl;WFCORE;WFCORE-229;"b4bl;WFCORE;WFCORE-229";1;1;1;1;;1
b4bl;IO;IO-481;"b4bl;IO;IO-481";1;;1;1;1;
b4bl;DATACMNS;DATACMNS-616;"b4bl;DATACMNS;DATACMNS-616";1;;1;1;1;
b4bl;DATACMNS;DATACMNS-157;"b4bl;DATACMNS;DATACMNS-157";1;;1;1;1;1
b4bl;SWARM;SWARM-705;"b4bl;SWARM;SWARM-705";1;;;1;;1
b4bl;WFCORE;WFCORE-1635;"b4bl;WFCORE;WFCORE-1635";1;;1;1;1;1
b4bl;DATAMONGO;DATAMONGO-420;"b4bl;DATAMONGO;DATAMONGO-420";1;1;;1;1;1
b4bl;WFCORE;WFCORE-763;"b4bl;WFCORE;WFCORE-763";1;1;1;1;;1
b4bl;DATAMONGO;DATAMONGO-505;"b4bl;DATAMONGO;DATAMONGO-505";1;1;1;1;1;1
b4bl;CONFIGURATION;CONFIGURATION-214;"b4bl;CONFIGURATION;CONFIGURATION-214";1;1;1;1;1;1
b4bl;WFCORE;WFCORE-1035;"b4bl;WFCORE;WFCORE-1035";1;;;1;;1
b4bl;AMQP;AMQP-280;"b4bl;AMQP;AMQP-280";1;;;1;1;1
b4bl;DATAMONGO;DATAMONGO-1360;"b4bl;DATAMONGO;DATAMONGO-1360";1;;1;1;1;1
b4bl;COMPRESS;COMPRESS-73;"b4bl;COMPRESS;COMPRESS-73";;;;1;;1
b4bl;WFCORE;WFCORE-1263;"b4bl;WFCORE;WFCORE-1263";1;;;1;;1
b4bl;DATACMNS;DATACMNS-683;"b4bl;DATACMNS;DATACMNS-683";1;;1;1;1;1
b4bl;WFCORE;WFCORE-1936;"b4bl;WFCORE;WFCORE-1936";1;1;1;1;1;1
b4bl;SWARM;SWARM-691;"b4bl;SWARM;SWARM-691";1;;;;1;1
b4bl;DATACMNS;DATACMNS-160;"b4bl;DATACMNS;DATACMNS-160";1;;1;1;1;1
b4bl;CONFIGURATION;CONFIGURATION-242;"b4bl;CONFIGURATION;CONFIGURATION-242";1;1;;;;1
b4bl;DATAMONGO;DATAMONGO-1027;"b4bl;DATAMONGO;DATAMONGO-1027";1;;1;1;;
b4bl;DATAMONGO;DATAMONGO-1288;"b4bl;DATAMONGO;DATAMONGO-1288";1;;1;;1;1
b4bl;WFCORE;WFCORE-507;"b4bl;WFCORE;WFCORE-507";1;;;1;;1
b4bl;WFCORE;WFCORE-765;"b4bl;WFCORE;WFCORE-765";1;;1;1;;1
b4bl;COMPRESS;COMPRESS-107;"b4bl;COMPRESS;COMPRESS-107";1;;;1;;1
b4bl;DATACMNS;DATACMNS-695;"b4bl;DATACMNS;DATACMNS-695";1;;1;1;1;1
b4bl;DATAMONGO;DATAMONGO-523;"b4bl;DATAMONGO;DATAMONGO-523";1;;1;1;1;1
b4bl;AMQP;AMQP-332;"b4bl;AMQP;AMQP-332";1;;1;1;;1
b4bl;DATACMNS;DATACMNS-228;"b4bl;DATACMNS;DATACMNS-228";1;1;1;;;1
b4bl;WFCORE;WFCORE-1039;"b4bl;WFCORE;WFCORE-1039";1;;;1;;1
b4bl;DATAMONGO;DATAMONGO-1053;"b4bl;DATAMONGO;DATAMONGO-1053";1;;;1;1;1
b4bl;COMPRESS;COMPRESS-171;"b4bl;COMPRESS;COMPRESS-171";1;1;;;1;1
b4bl;SWARM;SWARM-757;"b4bl;SWARM;SWARM-757";1;;1;1;;1
b4bl;CONFIGURATION;CONFIGURATION-241;"b4bl;CONFIGURATION;CONFIGURATION-241";1;;1;1;1;1
b4bl;WFCORE;WFCORE-1896;"b4bl;WFCORE;WFCORE-1896";1;;;1;1;1
b4bl;WFCORE;WFCORE-1428;"b4bl;WFCORE;WFCORE-1428";1;;;1;1;1
b4bl;WFCORE;WFCORE-1481;"b4bl;WFCORE;WFCORE-1481";1;1;;1;;1
b4bl;DATAMONGO;DATAMONGO-585;"b4bl;DATAMONGO;DATAMONGO-585";1;;1;1;1;1
b4bl;WFCORE;WFCORE-754;"b4bl;WFCORE;WFCORE-754";1;1;1;1;;1
b4bl;DATAMONGO;DATAMONGO-1068;"b4bl;DATAMONGO;DATAMONGO-1068";1;;1;1;1;
b4bl;AMQP;AMQP-290;"b4bl;AMQP;AMQP-290";1;1;1;1;;1
b4bl;DATAMONGO;DATAMONGO-629;"b4bl;DATAMONGO;DATAMONGO-629";1;;1;1;1;
b4bl;CONFIGURATION;CONFIGURATION-259;"b4bl;CONFIGURATION;CONFIGURATION-259";1;;1;1;1;1
b4bl;DATAMONGO;DATAMONGO-1050;"b4bl;DATAMONGO;DATAMONGO-1050";1;;1;1;1;1
b4bl;WFCORE;WFCORE-815;"b4bl;WFCORE;WFCORE-815";1;1;1;1;1;1
b4bl;WFCORE;WFCORE-1590;"b4bl;WFCORE;WFCORE-1590";1;;1;1;1;1
b4bl;SWARM;SWARM-844;"b4bl;SWARM;SWARM-844";1;;;;;1
b4bl;COMPRESS;COMPRESS-178;"b4bl;COMPRESS;COMPRESS-178";1;1;;1;;1
b4bl;WFCORE;WFCORE-1959;"b4bl;WFCORE;WFCORE-1959";1;;1;1;1;1
b4bl;WFCORE;WFCORE-500;"b4bl;WFCORE;WFCORE-500";1;;1;1;;1
b4bl;DATACMNS;DATACMNS-176;"b4bl;DATACMNS;DATACMNS-176";1;;1;1;1;1
b4bl;WFCORE;WFCORE-1062;"b4bl;WFCORE;WFCORE-1062";1;1;1;1;;1
b4bl;DATACMNS;DATACMNS-748;"b4bl;DATACMNS;DATACMNS-748";1;;;1;1;1
b4bl;COMPRESS;COMPRESS-131;"b4bl;COMPRESS;COMPRESS-131";1;;1;1;1;1
b4bl;WFCORE;WFCORE-1439;"b4bl;WFCORE;WFCORE-1439";1;;;1;;1
b4bl;WFCORE;WFCORE-989;"b4bl;WFCORE;WFCORE-989";1;;1;1;1;1
b4bl;DATAMONGO;DATAMONGO-571;"b4bl;DATAMONGO;DATAMONGO-571";1;;1;1;1;1
b4bl;CONFIGURATION;CONFIGURATION-275;"b4bl;CONFIGURATION;CONFIGURATION-275";1;1;;;1;1
b4bl;WFCORE;WFCORE-834;"b4bl;WFCORE;WFCORE-834";1;;;1;;1
b4bl;WFCORE;WFCORE-1980;"b4bl;WFCORE;WFCORE-1980";1;;;;;1
b4bl;DATAMONGO;DATAMONGO-663;"b4bl;DATAMONGO;DATAMONGO-663";1;1;;1;1;1
b4bl;DATAMONGO;DATAMONGO-1078;"b4bl;DATAMONGO;DATAMONGO-1078";1;1;1;1;1;1
b4bl;AMQP;AMQP-340;"b4bl;AMQP;AMQP-340";1;1;1;;1;1
b4bl;SWARM;SWARM-751;"b4bl;SWARM;SWARM-751";1;;1;1;;1
b4bl;CONFIGURATION;CONFIGURATION-283;"b4bl;CONFIGURATION;CONFIGURATION-283";1;;;1;1;1
b4bl;WFCORE;WFCORE-1120;"b4bl;WFCORE;WFCORE-1120";1;1;;1;;1
b4bl;DATACMNS;DATACMNS-769;"b4bl;DATACMNS;DATACMNS-769";;;;1;1;1
b4bl;WFCORE;WFCORE-1710;"b4bl;WFCORE;WFCORE-1710";1;;;1;;1
b4bl;DATACMNS;DATACMNS-233;"b4bl;DATACMNS;DATACMNS-233";1;1;1;1;1;1
b4bl;WFCORE;WFCORE-495;"b4bl;WFCORE;WFCORE-495";1;;1;1;1;1
b4bl;DATAMONGO;DATAMONGO-1425;"b4bl;DATAMONGO;DATAMONGO-1425";1;;;;;1
b4bl;WFCORE;WFCORE-1992;"b4bl;WFCORE;WFCORE-1992";1;;;1;1;1
b4bl;COMPRESS;COMPRESS-176;"b4bl;COMPRESS;COMPRESS-176";1;;1;1;;1
b4bl;DATAMONGO;DATAMONGO-688;"b4bl;DATAMONGO;DATAMONGO-688";1;;1;1;1;1
b4bl;CONFIGURATION;CONFIGURATION-332;"b4bl;CONFIGURATION;CONFIGURATION-332";1;;1;1;1;1
b4bl;DATAMONGO;DATAMONGO-1088;"b4bl;DATAMONGO;DATAMONGO-1088";1;1;1;1;1;1
b4bl;AMQP;AMQP-434;"b4bl;AMQP;AMQP-434";1;1;;;1;1
b4bl;WFCORE;WFCORE-894;"b4bl;WFCORE;WFCORE-894";1;;;1;;1
b4bl;WFCORE;WFCORE-499;"b4bl;WFCORE;WFCORE-499";1;;1;1;;1
b4bl;WFCORE;WFCORE-1437;"b4bl;WFCORE;WFCORE-1437";1;;;1;;1
b4bl;WFCORE;WFCORE-1687;"b4bl;WFCORE;WFCORE-1687";1;;;1;;1
b4bl;DATACMNS;DATACMNS-257;"b4bl;DATACMNS;DATACMNS-257";1;;1;1;1;1
b4bl;DATACMNS;DATACMNS-859;"b4bl;DATACMNS;DATACMNS-859";;;;1;;
b4bl;CONFIGURATION;CONFIGURATION-347;"b4bl;CONFIGURATION;CONFIGURATION-347";1;;1;1;1;1
b4bl;DATAMONGO;DATAMONGO-1043;"b4bl;DATAMONGO;DATAMONGO-1043";1;;;1;1;1
b4bl;DATAMONGO;DATAMONGO-1436;"b4bl;DATAMONGO;DATAMONGO-1436";1;;1;1;;1
b4bl;WFCORE;WFCORE-2013;"b4bl;WFCORE;WFCORE-2013";1;;;1;;1
b4bl;AMQP;AMQP-481;"b4bl;AMQP;AMQP-481";1;;;1;1;1
b4bl;SWARM;SWARM-884;"b4bl;SWARM;SWARM-884";1;;;1;;
b4bl;COMPRESS;COMPRESS-184;"b4bl;COMPRESS;COMPRESS-184";1;;1;1;;1
b4bl;DATAMONGO;DATAMONGO-392;"b4bl;DATAMONGO;DATAMONGO-392";1;1;1;1;1;
b4bl;WFCORE;WFCORE-798;"b4bl;WFCORE;WFCORE-798";1;;1;1;;1
b4bl;WFCORE;WFCORE-534;"b4bl;WFCORE;WFCORE-534";1;;;;;1
b4bl;WFCORE;WFCORE-1115;"b4bl;WFCORE;WFCORE-1115";1;;1;1;;1
b4bl;DATACMNS;DATACMNS-276;"b4bl;DATACMNS;DATACMNS-276";1;;;;;
b4bl;DATAMONGO;DATAMONGO-1123;"b4bl;DATAMONGO;DATAMONGO-1123";1;1;1;1;1;1
b4bl;WFCORE;WFCORE-1718;"b4bl;WFCORE;WFCORE-1718";1;;1;1;1;1
b4bl;WFCORE;WFCORE-1346;"b4bl;WFCORE;WFCORE-1346";1;;1;1;1;1
b4bl;CONFIGURATION;CONFIGURATION-408;"b4bl;CONFIGURATION;CONFIGURATION-408";1;;1;1;1;1
b4bl;AMQP;AMQP-502;"b4bl;AMQP;AMQP-502";1;;1;1;1;1
b4bl;DATAMONGO;DATAMONGO-702;"b4bl;DATAMONGO;DATAMONGO-702";1;;1;;1;1
b4bl;DATAMONGO;DATAMONGO-1416;"b4bl;DATAMONGO;DATAMONGO-1416";1;;;1;;1
b4bl;WFCORE;WFCORE-2008;"b4bl;WFCORE;WFCORE-2008";1;1;;;;1
b4bl;WFCORE;WFCORE-922;"b4bl;WFCORE;WFCORE-922";1;;;1;1;1
b4bl;DATACMNS;DATACMNS-943;"b4bl;DATACMNS;DATACMNS-943";1;;1;1;1;1
b4bl;SWARM;SWARM-793;"b4bl;SWARM;SWARM-793";1;;1;1;;1
b4bl;WFCORE;WFCORE-701;"b4bl;WFCORE;WFCORE-701";1;;1;1;1;1
b4bl;WFCORE;WFCORE-1715;"b4bl;WFCORE;WFCORE-1715";1;1;;1;1;1
b4bl;WFCORE;WFCORE-892;"b4bl;WFCORE;WFCORE-892";1;;1;1;;1
b4bl;WFCORE;WFCORE-540;"b4bl;WFCORE;WFCORE-540";1;;;1;;1
b4bl;COMPRESS;COMPRESS-187;"b4bl;COMPRESS;COMPRESS-187";1;;1;1;;1
b4bl;CONFIGURATION;CONFIGURATION-481;"b4bl;CONFIGURATION;CONFIGURATION-481";1;1;1;1;1;1
b4bl;WFCORE;WFCORE-2021;"b4bl;WFCORE;WFCORE-2021";;1;;1;1;1
b4bl;WFCORE;WFCORE-942;"b4bl;WFCORE;WFCORE-942";1;;1;1;;1
b4bl;DATAMONGO;DATAMONGO-315;"b4bl;DATAMONGO;DATAMONGO-315";1;;;1;1;1
b4bl;WFCORE;WFCORE-1452;"b4bl;WFCORE;WFCORE-1452";1;;;;;1
b4bl;DATAMONGO;DATAMONGO-1126;"b4bl;DATAMONGO;DATAMONGO-1126";1;1;1;1;1;1
b4bl;COMPRESS;COMPRESS-209;"b4bl;COMPRESS;COMPRESS-209";1;;;;1;1
b4bl;WFCORE;WFCORE-896;"b4bl;WFCORE;WFCORE-896";1;;1;1;;1
b4bl;AMQP;AMQP-496;"b4bl;AMQP;AMQP-496";1;;;1;;1
b4bl;SWARM;SWARM-863;"b4bl;SWARM;SWARM-863";1;1;1;1;1;1
b4bl;CONFIGURATION;CONFIGURATION-487;"b4bl;CONFIGURATION;CONFIGURATION-487";1;;;1;1;
b4bl;WFCORE;WFCORE-1453;"b4bl;WFCORE;WFCORE-1453";1;;;;;1
b4bl;WFCORE;WFCORE-1642;"b4bl;WFCORE;WFCORE-1642";1;;;1;;1
b4bl;DATACMNS;DATACMNS-390;"b4bl;DATACMNS;DATACMNS-390";1;;;1;1;1
b4bl;AMQP;AMQP-516;"b4bl;AMQP;AMQP-516";1;1;1;1;1;1
b4bl;COMPRESS;COMPRESS-189;"b4bl;COMPRESS;COMPRESS-189";1;;1;1;1;1
b4bl;DATAMONGO;DATAMONGO-1438;"b4bl;DATAMONGO;DATAMONGO-1438";1;;1;1;1;1
b4bl;WFCORE;WFCORE-1067;"b4bl;WFCORE;WFCORE-1067";1;;;1;1;1
b4bl;WFCORE;WFCORE-955;"b4bl;WFCORE;WFCORE-955";1;;1;1;1;1
b4bl;DATAMONGO;DATAMONGO-717;"b4bl;DATAMONGO;DATAMONGO-717";1;;1;1;1;1
b4bl;WFCORE;WFCORE-58;"b4bl;WFCORE;WFCORE-58";1;;1;1;;1
b4bl;COMPRESS;COMPRESS-244;"b4bl;COMPRESS;COMPRESS-244";1;1;;1;;
b4bl;DATAMONGO;DATAMONGO-1133;"b4bl;DATAMONGO;DATAMONGO-1133";1;1;;1;1;1
b4bl;WFCORE;WFCORE-2083;"b4bl;WFCORE;WFCORE-2083";1;1;;;;1
b4bl;AMQP;AMQP-541;"b4bl;AMQP;AMQP-541";1;;;1;;1
b4bl;WFCORE;WFCORE-604;"b4bl;WFCORE;WFCORE-604";1;1;1;1;1;1
b4bl;DATAMONGO;DATAMONGO-321;"b4bl;DATAMONGO;DATAMONGO-321";1;1;;;;1
b4bl;DATAMONGO;DATAMONGO-721;"b4bl;DATAMONGO;DATAMONGO-721";1;;1;1;1;1
b4bl;WFCORE;WFCORE-1464;"b4bl;WFCORE;WFCORE-1464";1;;;;;1
b4bl;COMPRESS;COMPRESS-245;"b4bl;COMPRESS;COMPRESS-245";1;1;;1;1;1
b4bl;DATACMNS;DATACMNS-379;"b4bl;DATACMNS;DATACMNS-379";1;;1;1;;1
b4bl;CONFIGURATION;CONFIGURATION-627;"b4bl;CONFIGURATION;CONFIGURATION-627";1;;1;1;1;1
b4bl;WFCORE;WFCORE-638;"b4bl;WFCORE;WFCORE-638";1;;1;1;;1
b4bl;ENTESB;ENTESB-2582;"b4bl;ENTESB;ENTESB-2582";1;;;;;1
b4bl;WFCORE;WFCORE-1333;"b4bl;WFCORE;WFCORE-1333";1;;1;;;1
b4bl;WFCORE;WFCORE-868;"b4bl;WFCORE;WFCORE-868";1;;1;1;;1
b4bl;WFCORE;WFCORE-71;"b4bl;WFCORE;WFCORE-71";1;;;1;;1
b4bl;DATAMONGO;DATAMONGO-1394;"b4bl;DATAMONGO;DATAMONGO-1394";1;;1;1;1;1
b4bl;AMQP;AMQP-565;"b4bl;AMQP;AMQP-565";1;;;1;;1
b4bl;SWARM;SWARM-479;"b4bl;SWARM;SWARM-479";1;;;;;1
b4bl;WFCORE;WFCORE-1708;"b4bl;WFCORE;WFCORE-1708";1;;;1;;
b4bl;COMPRESS;COMPRESS-252;"b4bl;COMPRESS;COMPRESS-252";1;;1;1;;1
b4bl;DATAMONGO;DATAMONGO-1202;"b4bl;DATAMONGO;DATAMONGO-1202";1;;1;1;1;1
b4bl;WFCORE;WFCORE-626;"b4bl;WFCORE;WFCORE-626";1;1;1;1;1;1
b4bl;AMQP;AMQP-633;"b4bl;AMQP;AMQP-633";1;1;;1;1;1
b4bl;ENTESB;ENTESB-2913;"b4bl;ENTESB;ENTESB-2913";;;;1;;1
b4bl;COMPRESS;COMPRESS-253;"b4bl;COMPRESS;COMPRESS-253";1;;;1;;1
b4bl;WFCORE;WFCORE-980;"b4bl;WFCORE;WFCORE-980";1;;1;1;;1
b4bl;DATAMONGO;DATAMONGO-322;"b4bl;DATAMONGO;DATAMONGO-322";1;1;;;;1
b4bl;DATACMNS;DATACMNS-415;"b4bl;DATACMNS;DATACMNS-415";1;;;1;;1
b4bl;ENTESB;ENTESB-3008;"b4bl;ENTESB;ENTESB-3008";1;;;1;;1
b4bl;SWARM;SWARM-485;"b4bl;SWARM;SWARM-485";1;;1;1;;
b4bl;WFCORE;WFCORE-1136;"b4bl;WFCORE;WFCORE-1136";1;;;1;;1
b4bl;DATAMONGO;DATAMONGO-602;"b4bl;DATAMONGO;DATAMONGO-602";1;;1;1;1;1
b4bl;DATAMONGO;DATAMONGO-1406;"b4bl;DATAMONGO;DATAMONGO-1406";1;1;1;1;1;
b4bl;DATAMONGO;DATAMONGO-1232;"b4bl;DATAMONGO;DATAMONGO-1232";1;1;1;;;
b4bl;WFCORE;WFCORE-72;"b4bl;WFCORE;WFCORE-72";1;;;;;1
b4bl;WFCORE;WFCORE-1756;"b4bl;WFCORE;WFCORE-1756";;1;1;;;1
b4bl;WFCORE;WFCORE-1373;"b4bl;WFCORE;WFCORE-1373";1;;;1;;1
b4bl;DATACMNS;DATACMNS-419;"b4bl;DATACMNS;DATACMNS-419";;;;1;;
b4bl;COMPRESS;COMPRESS-276;"b4bl;COMPRESS;COMPRESS-276";1;;;1;1;1
b4bl;WFCORE;WFCORE-1188;"b4bl;WFCORE;WFCORE-1188";1;;;1;;1
b4bl;WFCORE;WFCORE-876;"b4bl;WFCORE;WFCORE-876";1;;1;1;1;1
b4bl;DATAMONGO;DATAMONGO-346;"b4bl;DATAMONGO;DATAMONGO-346";;;;1;1;1
b4bl;AMQP;AMQP-653;"b4bl;AMQP;AMQP-653";1;;1;1;1;1
b4bl;SWARM;SWARM-500;"b4bl;SWARM;SWARM-500";;;;1;;1
b4bl;WFCORE;WFCORE-625;"b4bl;WFCORE;WFCORE-625";1;;;1;;1
b4bl;DATAMONGO;DATAMONGO-805;"b4bl;DATAMONGO;DATAMONGO-805";1;;1;1;1;1
b4bl;ENTESB;ENTESB-3072;"b4bl;ENTESB;ENTESB-3072";1;;;;;1
b4bl;COMPRESS;COMPRESS-273;"b4bl;COMPRESS;COMPRESS-273";1;1;1;1;1;
b4bl;SWARM;SWARM-528;"b4bl;SWARM;SWARM-528";1;;1;1;1;1
b4bl;DATAMONGO;DATAMONGO-1250;"b4bl;DATAMONGO;DATAMONGO-1250";1;;1;1;1;1
b4bl;ENTESB;ENTESB-2787;"b4bl;ENTESB;ENTESB-2787";1;;;1;;1
b4bl;COMPRESS;COMPRESS-278;"b4bl;COMPRESS;COMPRESS-278";1;;1;1;1;1
b4bl;WFCORE;WFCORE-154;"b4bl;WFCORE;WFCORE-154";1;;;;;1
b4bl;DATAMONGO;DATAMONGO-1486;"b4bl;DATAMONGO;DATAMONGO-1486";1;;1;1;1;
b4bl;DATACMNS;DATACMNS-441;"b4bl;DATACMNS;DATACMNS-441";1;1;;;1;1
b4bl;WFCORE;WFCORE-1214;"b4bl;WFCORE;WFCORE-1214";1;;1;1;1;1
b4bl;DATAMONGO;DATAMONGO-887;"b4bl;DATAMONGO;DATAMONGO-887";1;;;1;1;1
b4bl;SWARM;SWARM-486;"b4bl;SWARM;SWARM-486";1;;1;1;1;
b4bl;AMQP;AMQP-196;"b4bl;AMQP;AMQP-196";1;;;1;1;1
b4bl;WFCORE;WFCORE-949;"b4bl;WFCORE;WFCORE-949";1;;1;1;1;1
b4bl;WFCORE;WFCORE-230;"b4bl;WFCORE;WFCORE-230";1;;1;1;;1
b4bl;AMQP;AMQP-656;"b4bl;AMQP;AMQP-656";1;;1;1;1;1
b4bl;DATAMONGO;DATAMONGO-1236;"b4bl;DATAMONGO;DATAMONGO-1236";1;1;1;;;1
b4bl;WFCORE;WFCORE-1134;"b4bl;WFCORE;WFCORE-1134";1;;;1;;1
b4bl;WFCORE;WFCORE-940;"b4bl;WFCORE;WFCORE-940";1;;1;1;;1
b4bl;WFCORE;WFCORE-233;"b4bl;WFCORE;WFCORE-233";1;;;1;;1
b4bl;DATAMONGO;DATAMONGO-1498;"b4bl;DATAMONGO;DATAMONGO-1498";1;;;1;1;1
b4bl;DATAMONGO;DATAMONGO-897;"b4bl;DATAMONGO;DATAMONGO-897";1;;1;1;1;1
b4bl;ENTESB;ENTESB-3099;"b4bl;ENTESB;ENTESB-3099";1;1;1;1;;1
b4bl;WFCORE;WFCORE-1714;"b4bl;WFCORE;WFCORE-1714";1;1;1;1;;1
b4bl;DATACMNS;DATACMNS-453;"b4bl;DATACMNS;DATACMNS-453";1;;;;;1
b4bl;WFCORE;WFCORE-1028;"b4bl;WFCORE;WFCORE-1028";1;1;;1;1;1
b4bl;DATACMNS;DATACMNS-19;"b4bl;DATACMNS;DATACMNS-19";1;;;1;;1
b4bl;DATAMONGO;DATAMONGO-260;"b4bl;DATAMONGO;DATAMONGO-260";1;;;1;1;
b4bl;SWARM;SWARM-553;"b4bl;SWARM;SWARM-553";1;;1;1;;
b4bl;WFCORE;WFCORE-931;"b4bl;WFCORE;WFCORE-931";1;;1;1;;1
b4bl;WFCORE;WFCORE-1212;"b4bl;WFCORE;WFCORE-1212";1;1;;1;1;1
b4bl;DATACMNS;DATACMNS-42;"b4bl;DATACMNS;DATACMNS-42";1;;;;;1
b4bl;DATAMONGO;DATAMONGO-1269;"b4bl;DATAMONGO;DATAMONGO-1269";1;;;1;1;1
b4bl;AMQP;AMQP-121;"b4bl;AMQP;AMQP-121";1;;;;;1
b4bl;DATAMONGO;DATAMONGO-892;"b4bl;DATAMONGO;DATAMONGO-892";1;;1;1;1;1
b4bl;WFCORE;WFCORE-268;"b4bl;WFCORE;WFCORE-268";1;;1;1;;1
b4bl;WFCORE;WFCORE-1765;"b4bl;WFCORE;WFCORE-1765";1;;1;1;1;
b4bl;WFCORE;WFCORE-676;"b4bl;WFCORE;WFCORE-676";1;;;1;;1
b4bl;WFCORE;WFCORE-1007;"b4bl;WFCORE;WFCORE-1007";1;1;1;1;1;1
b4bl;WFCORE;WFCORE-1546;"b4bl;WFCORE;WFCORE-1546";1;;;1;1;1
b4bl;DATACMNS;DATACMNS-57;"b4bl;DATACMNS;DATACMNS-57";1;;;1;1;1
b4bl;DATAMONGO;DATAMONGO-647;"b4bl;DATAMONGO;DATAMONGO-647";1;1;1;1;1;1
b4bl;DATAMONGO;DATAMONGO-1307;"b4bl;DATAMONGO;DATAMONGO-1307";1;1;;1;1;1
b4bl;WFCORE;WFCORE-1210;"b4bl;WFCORE;WFCORE-1210";1;1;;;;1
b4bl;WFCORE;WFCORE-657;"b4bl;WFCORE;WFCORE-657";1;;;1;;
b4bl;AMQP;AMQP-122;"b4bl;AMQP;AMQP-122";1;1;;1;;1
b4bl;WFCORE;WFCORE-213;"b4bl;WFCORE;WFCORE-213";1;;;1;;1
b4bl;WFCORE;WFCORE-1657;"b4bl;WFCORE;WFCORE-1657";1;1;1;1;;1
b4bl;DATAMONGO;DATAMONGO-387;"b4bl;DATAMONGO;DATAMONGO-387";1;;;1;;
b4bl;DATAMONGO;DATAMONGO-745;"b4bl;DATAMONGO;DATAMONGO-745";1;;1;1;1;
b4bl;WFCORE;WFCORE-1198;"b4bl;WFCORE;WFCORE-1198";1;;1;1;1;1
b4bl;WFCORE;WFCORE-687;"b4bl;WFCORE;WFCORE-687";1;1;;1;1;1
b4bl;WFCORE;WFCORE-1493;"b4bl;WFCORE;WFCORE-1493";1;;;1;1;1
b4bl;AMQP;AMQP-164;"b4bl;AMQP;AMQP-164";1;;;1;1;1
b4bl;DATACMNS;DATACMNS-509;"b4bl;DATACMNS;DATACMNS-509";1;;1;1;1;1
b4bl;WFCORE;WFCORE-145;"b4bl;WFCORE;WFCORE-145";1;;1;1;;1
b4bl;DATAMONGO;DATAMONGO-385;"b4bl;DATAMONGO;DATAMONGO-385";1;;;1;1;
b4bl;WFCORE;WFCORE-1261;"b4bl;WFCORE;WFCORE-1261";1;;;1;1;1
b4bl;WFCORE;WFCORE-1572;"b4bl;WFCORE;WFCORE-1572";1;1;1;;1;1
b4bl;WFCORE;WFCORE-172;"b4bl;WFCORE;WFCORE-172";1;1;;1;;1
b4bl;WFCORE;WFCORE-1793;"b4bl;WFCORE;WFCORE-1793";1;;1;1;1;1
b4bl;DATACMNS;DATACMNS-511;"b4bl;DATACMNS;DATACMNS-511";1;;1;1;1;1
b4bl;WFCORE;WFCORE-1570;"b4bl;WFCORE;WFCORE-1570";1;1;1;1;1;1
b4bl;WFCORE;WFCORE-1288;"b4bl;WFCORE;WFCORE-1288";1;;1;1;;1
b4bl;DATAMONGO;DATAMONGO-398;"b4bl;DATAMONGO;DATAMONGO-398";1;;1;1;;1
b4bl;WFCORE;WFCORE-285;"b4bl;WFCORE;WFCORE-285";1;;1;1;;1
b4bl;WFCORE;WFCORE-702;"b4bl;WFCORE;WFCORE-702";1;;;;;1
b4bl;DATACMNS;DATACMNS-518;"b4bl;DATACMNS;DATACMNS-518";1;;;1;;
b4bl;DATAMONGO;DATAMONGO-402;"b4bl;DATAMONGO;DATAMONGO-402";1;;;1;;1
b4bl;WFCORE;WFCORE-1311;"b4bl;WFCORE;WFCORE-1311";1;;;1;;1
b4bl;WFCORE;WFCORE-1595;"b4bl;WFCORE;WFCORE-1595";1;1;;1;;1
b4bl;WFCORE;WFCORE-1815;"b4bl;WFCORE;WFCORE-1815";1;;;1;;1
b4bl;WFCORE;WFCORE-706;"b4bl;WFCORE;WFCORE-706";1;;;;;1
b4bl;DATACMNS;DATACMNS-562;"b4bl;DATACMNS;DATACMNS-562";1;;1;1;1;1
b4bl;DATAMONGO;DATAMONGO-413;"b4bl;DATAMONGO;DATAMONGO-413";1;;1;1;1;1
b4bl;WFCORE;WFCORE-1479;"b4bl;WFCORE;WFCORE-1479";1;;;1;;1
b4bl;WFCORE;WFCORE-442;"b4bl;WFCORE;WFCORE-442";1;;1;1;1;1
b4bl;DATACMNS;DATACMNS-590;"b4bl;DATACMNS;DATACMNS-590";1;;;1;;1
b4bl;DATAMONGO;DATAMONGO-425;"b4bl;DATAMONGO;DATAMONGO-425";;;;1;;1
b4bl;WFCORE;WFCORE-1851;"b4bl;WFCORE;WFCORE-1851";1;;;1;1;1
b4bl;DATAMONGO;DATAMONGO-423;"b4bl;DATAMONGO;DATAMONGO-423";1;1;1;1;1;1
b4bl;WFCORE;WFCORE-1864;"b4bl;WFCORE;WFCORE-1864";1;1;1;1;1;1
