{"id":1,"bug_id":"1671","text":"extra \u003csearchpath\u003e added every time project is saved. ","class_goldset":["org.argouml.kernel.Project","org.argouml.kernel.TestProject"],"file_goldset":["org.argouml.kernel.Project","org.argouml.kernel.TestProject"],"creation_date":"2003-02-26 02:12:06","resolution_date":"2006-06-24 05:54:34"}
{"id":2,"bug_id":"1884","text":"view todo-items by poster: selected item deselected by argo. ","class_goldset":["org.argouml.cognitive.ui.ToDoByOffender","org.argouml.cognitive.ui.ToDoByPoster"],"file_goldset":["org.argouml.cognitive.ui.ToDoByOffender","org.argouml.cognitive.ui.ToDoByPoster"],"creation_date":"2003-05-15 02:43:05","resolution_date":"2006-07-09 12:30:20"}
{"id":3,"bug_id":"2144","text":"Use Case property tab: Operations are not listed. ","class_goldset":["org.argouml.ui.targetmanager.TargetManager","org.argouml.uml.ui.behavior.use_cases.ActionNewExtensionPoint","org.argouml.uml.ui.behavior.use_cases.PropPanelUseCase","org.argouml.uml.ui.foundation.core.PropPanelClassifier"],"file_goldset":["org.argouml.ui.targetmanager.TargetManager","org.argouml.uml.ui.behavior.use_cases.ActionNewExtensionPoint","org.argouml.uml.ui.behavior.use_cases.PropPanelUseCase","org.argouml.uml.ui.foundation.core.PropPanelClassifier"],"creation_date":"2003-08-10 01:18:36","resolution_date":"2006-04-23 11:10:08"}
{"id":4,"bug_id":"2145","text":"Use Case Property Tab: Attributes are not listed. ","class_goldset":["org.argouml.ui.targetmanager.TargetManager","org.argouml.uml.ui.behavior.use_cases.ActionNewExtensionPoint","org.argouml.uml.ui.behavior.use_cases.PropPanelUseCase","org.argouml.uml.ui.foundation.core.PropPanelClassifier"],"file_goldset":["org.argouml.ui.targetmanager.TargetManager","org.argouml.uml.ui.behavior.use_cases.ActionNewExtensionPoint","org.argouml.uml.ui.behavior.use_cases.PropPanelUseCase","org.argouml.uml.ui.foundation.core.PropPanelClassifier"],"creation_date":"2003-08-10 01:19:42","resolution_date":"2006-04-23 11:10:35"}
{"id":5,"bug_id":"2225","text":"Allow the user to create diagrams without selecting a classifier/operation. ","class_goldset":["org.argouml.ui.explorer.PerspectiveManager","org.argouml.ui.explorer.rules.GoCollaborationToDiagram","org.argouml.ui.explorer.rules.GoModelElementToContainedDiagrams","org.argouml.ui.explorer.rules.GoModelElementToContainedLostElements","org.argouml.ui.explorer.rules.GoModelElementToContents","org.argouml.ui.explorer.rules.GoNamespaceToOwnedElements","org.argouml.uml.diagram.DiagramFactory","org.argouml.uml.diagram.activity.ui.UMLActivityDiagram","org.argouml.uml.diagram.sequence.SequenceDiagramGraphModel","org.argouml.uml.diagram.state.ui.UMLStateDiagram","org.argouml.uml.ui.ActionActivityDiagram","org.argouml.uml.ui.ActionCollaborationDiagram","org.argouml.uml.ui.ActionNewDiagram","org.argouml.uml.ui.ActionSequenceDiagram","org.argouml.uml.ui.ActionStateDiagram","org.argouml.uml.ui.behavior.collaborations.ActionSetRepresentedClassifierCollaboration","org.argouml.uml.ui.behavior.collaborations.ActionSetRepresentedOperationCollaboration","org.argouml.uml.ui.behavior.collaborations.PropPanelCollaboration","org.argouml.uml.ui.behavior.collaborations.TestUMLCollaborationRepresentedClassifierComboBoxModel","org.argouml.uml.ui.behavior.collaborations.TestUMLCollaborationRepresentedOperationComboBoxModel","org.argouml.uml.ui.behavior.collaborations.UMLCollaborationRepresentedClassifierComboBoxModel","org.argouml.uml.ui.behavior.collaborations.UMLCollaborationRepresentedOperationComboBoxModel"],"file_goldset":["org.argouml.ui.explorer.PerspectiveManager","org.argouml.ui.explorer.rules.GoCollaborationToDiagram","org.argouml.ui.explorer.rules.GoModelElementToContainedDiagrams","org.argouml.ui.explorer.rules.GoModelElementToContainedLostElements","org.argouml.ui.explorer.rules.GoModelElementToContents","org.argouml.ui.explorer.rules.GoNamespaceToOwnedElements","org.argouml.uml.diagram.DiagramFactory","org.argouml.uml.diagram.activity.ui.UMLActivityDiagram","org.argouml.uml.diagram.sequence.SequenceDiagramGraphModel","org.argouml.uml.diagram.state.ui.UMLStateDiagram","org.argouml.uml.ui.ActionActivityDiagram","org.argouml.uml.ui.ActionCollaborationDiagram","org.argouml.uml.ui.ActionNewDiagram","org.argouml.uml.ui.ActionSequenceDiagram","org.argouml.uml.ui.ActionStateDiagram","org.argouml.uml.ui.behavior.collaborations.ActionSetRepresentedClassifierCollaboration","org.argouml.uml.ui.behavior.collaborations.ActionSetRepresentedOperationCollaboration","org.argouml.uml.ui.behavior.collaborations.PropPanelCollaboration","org.argouml.uml.ui.behavior.collaborations.TestUMLCollaborationRepresentedClassifierComboBoxModel","org.argouml.uml.ui.behavior.collaborations.TestUMLCollaborationRepresentedOperationComboBoxModel","org.argouml.uml.ui.behavior.collaborations.UMLCollaborationRepresentedClassifierComboBoxModel","org.argouml.uml.ui.behavior.collaborations.UMLCollaborationRepresentedOperationComboBoxModel"],"creation_date":"2003-09-10 09:24:09","resolution_date":"2006-04-12 14:26:05"}
{"id":6,"bug_id":"2460","text":"[Java] Missing label on radiobuttons in Import Sources -\u003e Java. ","class_goldset":["org.argouml.uml.reveng.FileImportSupport"],"file_goldset":["org.argouml.uml.reveng.FileImportSupport"],"creation_date":"2004-01-03 01:11:55","resolution_date":"2006-06-04 12:22:04"}
{"id":7,"bug_id":"2472","text":"Wrong keyboard focus in Settings dialog after close \u0026 reopen. ","class_goldset":["org.argouml.ui.ActionSettings","org.argouml.ui.SettingsDialog"],"file_goldset":["org.argouml.ui.ActionSettings","org.argouml.ui.SettingsDialog"],"creation_date":"2004-01-03 13:38:16","resolution_date":"2006-04-08 16:55:25"}
{"id":8,"bug_id":"2618","text":"Editing association rolename adds +, ++, +++. ","class_goldset":["org.argouml.uml.diagram.ui.FigAssociation","org.argouml.uml.notation.AssociationRoleNotation","org.argouml.uml.notation.uml.AssociationRoleNotationUml","org.argouml.uml.notation.uml.InitNotationUml","org.argouml.uml.notation.uml.NotationUtilityUml"],"file_goldset":["org.argouml.uml.diagram.ui.FigAssociation","org.argouml.uml.notation.AssociationRoleNotation","org.argouml.uml.notation.uml.AssociationRoleNotationUml","org.argouml.uml.notation.uml.InitNotationUml","org.argouml.uml.notation.uml.NotationUtilityUml"],"creation_date":"2004-05-21 11:07:40","resolution_date":"2006-05-06 06:20:23"}
{"id":9,"bug_id":"3100","text":"new package or class shown with funny name in explorer. ","class_goldset":["org.argouml.ui.DisplayTextTree","org.argouml.uml.ui.UMLListCellRenderer2"],"file_goldset":["org.argouml.ui.DisplayTextTree","org.argouml.uml.ui.UMLListCellRenderer2"],"creation_date":"2005-02-22 00:28:44","resolution_date":"2006-03-23 07:25:40"}
{"id":10,"bug_id":"3164","text":"Entering an internal transition via PropPanel does not update state. ","class_goldset":["org.argouml.uml.diagram.state.ui.FigState","org.argouml.uml.diagram.ui.FigEdgeModelElement","org.argouml.uml.diagram.ui.FigNodeModelElement","org.argouml.uml.diagram.ui.UMLDiagram","org.argouml.uml.ui.TabProps","org.argouml.uml.ui.behavior.state_machines.AbstractPropPanelState","org.argouml.uml.ui.behavior.state_machines.ActionNewTransition","org.argouml.uml.ui.behavior.state_machines.PropPanelCompositeState","org.argouml.uml.ui.behavior.state_machines.PropPanelSimpleState"],"file_goldset":["org.argouml.uml.diagram.state.ui.FigState","org.argouml.uml.diagram.ui.FigEdgeModelElement","org.argouml.uml.diagram.ui.FigNodeModelElement","org.argouml.uml.diagram.ui.UMLDiagram","org.argouml.uml.ui.TabProps","org.argouml.uml.ui.behavior.state_machines.AbstractPropPanelState","org.argouml.uml.ui.behavior.state_machines.ActionNewTransition","org.argouml.uml.ui.behavior.state_machines.PropPanelCompositeState","org.argouml.uml.ui.behavior.state_machines.PropPanelSimpleState"],"creation_date":"2005-03-18 00:43:58","resolution_date":"2006-02-20 08:45:49"}
{"id":11,"bug_id":"3619","text":"Self association invisible after Add to Diagram. ","class_goldset":["org.argouml.uml.diagram.ui.FigAssociation"],"file_goldset":["org.argouml.uml.diagram.ui.FigAssociation"],"creation_date":"2005-10-29 13:06:55","resolution_date":"2006-07-20 09:58:12"}
{"id":12,"bug_id":"3631","text":"Perspectives settings should be included in settings menu. ","class_goldset":["org.argouml.ui.cmd.GenericArgoMenuBar"],"file_goldset":["org.argouml.ui.cmd.GenericArgoMenuBar"],"creation_date":"2005-11-02 00:40:56","resolution_date":"2006-05-24 11:52:44"}
{"id":13,"bug_id":"3665","text":"Activity Diagram drop not properly constrained. ","class_goldset":["org.argouml.uml.diagram.state.StateDiagramGraphModel"],"file_goldset":["org.argouml.uml.diagram.state.StateDiagramGraphModel"],"creation_date":"2005-11-07 10:38:48","resolution_date":"2006-02-24 13:59:03"}
{"id":14,"bug_id":"3711","text":"Strip diagrams from poseidon *.xmi file. ","class_goldset":["org.argouml.persistence.XMIParser","org.argouml.ui.SettingsTabPreferences"],"file_goldset":["org.argouml.persistence.XMIParser","org.argouml.ui.SettingsTabPreferences"],"creation_date":"2005-11-16 11:53:59","resolution_date":"2006-02-27 23:23:02"}
{"id":15,"bug_id":"3774","text":"Do not set namespace of Model when adding to diagram. ","class_goldset":["org.argouml.uml.diagram.static_structure.ClassDiagramGraphModel"],"file_goldset":["org.argouml.uml.diagram.static_structure.ClassDiagramGraphModel"],"creation_date":"2005-12-03 06:33:15","resolution_date":"2006-02-24 07:30:35"}
{"id":16,"bug_id":"3790","text":"Exception when saving to a readonly directory. ","class_goldset":["org.argouml.ui.ProjectBrowser"],"file_goldset":["org.argouml.ui.ProjectBrowser"],"creation_date":"2005-12-14 05:37:52","resolution_date":"2006-07-07 10:46:42"}
{"id":17,"bug_id":"3803","text":"Direct entry into text fields on drawings results in doubled first character. ","class_goldset":["org.argouml.uml.diagram.ui.FigNodeModelElement"],"file_goldset":["org.argouml.uml.diagram.ui.FigNodeModelElement"],"creation_date":"2005-12-15 17:25:48","resolution_date":"2006-02-12 07:57:36"}
{"id":18,"bug_id":"3812","text":"Exception opening project - FigCommentPort class not found. ","class_goldset":["org.argouml.persistence.PGMLStackParser"],"file_goldset":["org.argouml.persistence.PGMLStackParser"],"creation_date":"2005-12-17 05:02:42","resolution_date":"2006-05-04 15:53:27"}
{"id":19,"bug_id":"3882","text":"Transitions names are not refreshed. ","class_goldset":["org.argouml.ui.DisplayTextTree"],"file_goldset":["org.argouml.ui.DisplayTextTree"],"creation_date":"2006-01-24 09:28:35","resolution_date":"2006-03-23 09:31:13"}
{"id":20,"bug_id":"3923","text":"Problem importing Poseidon activity diagrams from XMI. ","class_goldset":["org.argouml.persistence.XMIParser"],"file_goldset":["org.argouml.persistence.XMIParser"],"creation_date":"2006-02-07 13:17:48","resolution_date":"2006-02-18 15:14:56"}
{"id":21,"bug_id":"3945","text":"Exception assigning an operation to a callevent. ","class_goldset":["org.argouml.uml.ui.behavior.state_machines.UMLCallEventOperationComboBox2"],"file_goldset":["org.argouml.uml.ui.behavior.state_machines.UMLCallEventOperationComboBox2"],"creation_date":"2006-02-13 04:04:40","resolution_date":"2006-02-20 04:42:37"}
{"id":22,"bug_id":"3947","text":"bad behaviour in sequence diagrams when remove simple states or call actions. ","class_goldset":["org.argouml.model.mdr.CommonBehaviorFactoryMDRImpl"],"file_goldset":["org.argouml.model.mdr.CommonBehaviorFactoryMDRImpl"],"creation_date":"2006-02-13 08:19:43","resolution_date":"2006-06-04 13:26:18"}
{"id":23,"bug_id":"3974","text":"Methods and properties not updated in class diagrams. ","class_goldset":["org.argouml.uml.diagram.static_structure.ui.FigClass"],"file_goldset":["org.argouml.uml.diagram.static_structure.ui.FigClass"],"creation_date":"2006-02-19 03:58:40","resolution_date":"2006-02-19 11:47:21"}
{"id":24,"bug_id":"4007","text":"Exception when deleting other diagram. ","class_goldset":["org.argouml.uml.diagram.state.ui.UMLStateDiagram","org.argouml.uml.diagram.ui.FigNodeModelElement"],"file_goldset":["org.argouml.uml.diagram.state.ui.UMLStateDiagram","org.argouml.uml.diagram.ui.FigNodeModelElement"],"creation_date":"2006-02-26 11:44:11","resolution_date":"2006-04-20 13:57:02"}
{"id":25,"bug_id":"4031","text":"TagDefinition of type Enumeration problem - AndroMDA profile. ","class_goldset":["org.argouml.model.AbstractExtensionMechanismsHelperDecorator","org.argouml.model.mdr.DataTypesHelperMDRImpl","org.argouml.model.mdr.ExtensionMechanismsHelperMDRImpl","org.argouml.model.mdr.FacadeMDRImpl","org.argouml.uml.reveng.java.Modeller","org.argouml.uml.ui.foundation.extension_mechanisms.PropPanelTagDefinition","org.argouml.uml.ui.foundation.extension_mechanisms.PropPanelTaggedValue","org.argouml.uml.ui.foundation.extension_mechanisms.PropPanelTaggedValue.ActionSetTaggedValueModelElement","org.argouml.uml.ui.foundation.extension_mechanisms.PropPanelTaggedValue.ActionSetTaggedValueType","org.argouml.uml.ui.foundation.extension_mechanisms.PropPanelTaggedValue.UMLDataValueListModel","org.argouml.uml.ui.foundation.extension_mechanisms.PropPanelTaggedValue.UMLReferenceValueListModel","org.argouml.uml.ui.foundation.extension_mechanisms.PropPanelTaggedValue.UMLTaggedValueModelElementComboBoxModel","org.argouml.uml.ui.foundation.extension_mechanisms.PropPanelTaggedValue.UMLTaggedValueTypeComboBoxModel","org.argouml.uml.ui.foundation.extension_mechanisms.UMLStereotypeTagDefinitionListModel","org.argouml.uml.ui.foundation.extension_mechanisms.UMLTagDefinitionOwnerComboBoxModel"],"file_goldset":["org.argouml.model.AbstractExtensionMechanismsHelperDecorator","org.argouml.model.mdr.DataTypesHelperMDRImpl","org.argouml.model.mdr.ExtensionMechanismsHelperMDRImpl","org.argouml.model.mdr.FacadeMDRImpl","org.argouml.uml.reveng.java.Modeller","org.argouml.uml.ui.foundation.extension_mechanisms.PropPanelTagDefinition","org.argouml.uml.ui.foundation.extension_mechanisms.PropPanelTaggedValue","org.argouml.uml.ui.foundation.extension_mechanisms.PropPanelTaggedValue.ActionSetTaggedValueModelElement","org.argouml.uml.ui.foundation.extension_mechanisms.PropPanelTaggedValue.ActionSetTaggedValueType","org.argouml.uml.ui.foundation.extension_mechanisms.PropPanelTaggedValue.UMLDataValueListModel","org.argouml.uml.ui.foundation.extension_mechanisms.PropPanelTaggedValue.UMLReferenceValueListModel","org.argouml.uml.ui.foundation.extension_mechanisms.PropPanelTaggedValue.UMLTaggedValueModelElementComboBoxModel","org.argouml.uml.ui.foundation.extension_mechanisms.PropPanelTaggedValue.UMLTaggedValueTypeComboBoxModel","org.argouml.uml.ui.foundation.extension_mechanisms.UMLStereotypeTagDefinitionListModel","org.argouml.uml.ui.foundation.extension_mechanisms.UMLTagDefinitionOwnerComboBoxModel"],"creation_date":"2006-03-03 09:18:11"}
{"id":26,"bug_id":"4037","text":"Excessive redraws in some diagrams in CVS version (regression from 0.20). ","class_goldset":["org.argouml.uml.diagram.ui.FigAssociation"],"file_goldset":["org.argouml.uml.diagram.ui.FigAssociation"],"creation_date":"2006-03-06 11:33:42","resolution_date":"2006-03-07 09:29:52"}
{"id":27,"bug_id":"4043","text":"Names of states disappear when project is loaded. ","class_goldset":["org.argouml.uml.diagram.state.ui.FigState"],"file_goldset":["org.argouml.uml.diagram.state.ui.FigState"],"creation_date":"2006-03-07 11:05:10","resolution_date":"2006-03-07 14:02:19"}
{"id":28,"bug_id":"4049","text":"Updating the role phrase of an association on a diagram does not update the connections pane. ","class_goldset":["org.argouml.uml.ui.UMLModelElementListModel2","org.argouml.uml.ui.foundation.core.UMLAssociationConnectionListModel"],"file_goldset":["org.argouml.uml.ui.UMLModelElementListModel2","org.argouml.uml.ui.foundation.core.UMLAssociationConnectionListModel"],"creation_date":"2006-03-08 11:50:37","resolution_date":"2006-03-09 09:22:55"}
{"id":29,"bug_id":"4085","text":"Exception adding deferrable event in Action State. ","class_goldset":["org.argouml.uml.ui.behavior.state_machines.PopupMenuNewEvent"],"file_goldset":["org.argouml.uml.ui.behavior.state_machines.PopupMenuNewEvent"],"creation_date":"2006-03-13 10:43:14","resolution_date":"2006-03-13 12:21:39"}
{"id":30,"bug_id":"4100","text":"Exception in UMLModelElementListModel2 when deleting. ","class_goldset":["org.argouml.ui.explorer.NameOrder"],"file_goldset":["org.argouml.ui.explorer.NameOrder"],"creation_date":"2006-03-18 07:33:41","resolution_date":"2006-05-09 11:36:42"}
{"id":31,"bug_id":"4103","text":"Exception when deleting transition. ","class_goldset":["org.argouml.ui.DisplayTextTree"],"file_goldset":["org.argouml.ui.DisplayTextTree"],"creation_date":"2006-03-19 08:42:23","resolution_date":"2006-05-09 10:52:04"}
{"id":32,"bug_id":"4130","text":"Exception when startng new project with Node selected. ","class_goldset":["org.argouml.model.mdr.ModelEventPumpMDRImpl","org.argouml.ui.cmd.ActionNew"],"file_goldset":["org.argouml.model.mdr.ModelEventPumpMDRImpl","org.argouml.ui.cmd.ActionNew"],"creation_date":"2006-03-26 13:14:42","resolution_date":"2006-04-20 12:05:10"}
{"id":33,"bug_id":"4155","text":"File Save overwrites without confirmation. ","class_goldset":["org.argouml.uml.ui.ActionSaveProject"],"file_goldset":["org.argouml.uml.ui.ActionSaveProject"],"creation_date":"2006-04-10 17:03:04","resolution_date":"2006-06-16 14:07:31"}
{"id":34,"bug_id":"4162","text":"checklist uses \u003cattribute\u003e where it should use \u003cclass\u003e. ","class_goldset":["org.argouml.ocl.CriticOclEvaluator"],"file_goldset":["org.argouml.ocl.CriticOclEvaluator"],"creation_date":"2006-04-13 09:33:06","resolution_date":"2006-04-13 10:15:53"}
{"id":35,"bug_id":"4181","text":"Drawing associationclass broken. ","class_goldset":["org.argouml.uml.diagram.static_structure.ui.ClassDiagramRenderer"],"file_goldset":["org.argouml.uml.diagram.static_structure.ui.ClassDiagramRenderer"],"creation_date":"2006-04-24 13:50:20","resolution_date":"2006-07-17 16:09:33"}
{"id":36,"bug_id":"4194","text":"Exception: Class PropPanelTaggedValue for Panel not found. ","class_goldset":["org.argouml.uml.ui.TabProps","org.argouml.uml.ui.foundation.core.PropPanelTaggedValue"],"file_goldset":["org.argouml.uml.ui.TabProps","org.argouml.uml.ui.foundation.core.PropPanelTaggedValue"],"creation_date":"2006-05-08 13:55:04","resolution_date":"2006-11-10 07:02:31"}
{"id":37,"bug_id":"4200","text":"Activity diagrams vanish in a new Package. ","class_goldset":["org.argouml.ui.explorer.PerspectiveManager","org.argouml.ui.explorer.rules.GoModelElementToBehavior"],"file_goldset":["org.argouml.ui.explorer.PerspectiveManager","org.argouml.ui.explorer.rules.GoModelElementToBehavior"],"creation_date":"2006-05-11 23:30:25","resolution_date":"2006-06-19 10:23:30"}
{"id":38,"bug_id":"4222","text":"Operation and argument names refresh incorrectly. ","class_goldset":["org.argouml.uml.ui.UMLComboBoxModel2","org.argouml.uml.ui.foundation.core.UMLStructuralFeatureTypeComboBoxModel"],"file_goldset":["org.argouml.uml.ui.UMLComboBoxModel2","org.argouml.uml.ui.foundation.core.UMLStructuralFeatureTypeComboBoxModel"],"creation_date":"2006-05-23 06:06:10","resolution_date":"2006-06-14 18:47:31"}
{"id":39,"bug_id":"4231","text":"Open exception - Cannot find context namespace while initializing activity diagram. ","class_goldset":["org.argouml.uml.diagram.activity.ui.UMLActivityDiagram"],"file_goldset":["org.argouml.uml.diagram.activity.ui.UMLActivityDiagram"],"creation_date":"2006-05-29 00:15:56","resolution_date":"2006-05-31 11:42:49"}
{"id":40,"bug_id":"4245","text":"Repaint exception when creating sequence diagram. ","class_goldset":["org.argouml.uml.diagram.ui.TabDiagram"],"file_goldset":["org.argouml.uml.diagram.ui.TabDiagram"],"creation_date":"2006-06-04 13:09:07","resolution_date":"2006-06-14 08:00:05"}
{"id":41,"bug_id":"4272","text":"InvalidElementException in Checklist. ","class_goldset":["org.argouml.uml.cognitive.checklist.UMLCheckItem"],"file_goldset":["org.argouml.uml.cognitive.checklist.UMLCheckItem"],"creation_date":"2006-06-14 11:56:08","resolution_date":"2006-06-15 12:40:59"}
{"id":42,"bug_id":"4276","text":"InvalidObjectException when deleting 2 classes at once. ","class_goldset":["org.argouml.uml.ui.ActionDeleteModelElements"],"file_goldset":["org.argouml.uml.ui.ActionDeleteModelElements"],"creation_date":"2006-06-15 08:47:25","resolution_date":"2006-06-17 14:08:45"}
{"id":43,"bug_id":"4279","text":"InvalidElementException when setting notation language on project load. ","class_goldset":["org.argouml.uml.notation.java.AssociationEndNameNotationJava","org.argouml.uml.notation.java.InitNotationJava"],"file_goldset":["org.argouml.uml.notation.java.AssociationEndNameNotationJava","org.argouml.uml.notation.java.InitNotationJava"],"creation_date":"2006-06-16 10:38:30","resolution_date":"2006-06-17 11:08:23"}
{"id":44,"bug_id":"4281","text":"Deleting the context of a StateMachine should not delete the StateMachine. ","class_goldset":["org.argouml.kernel.TestProject","org.argouml.model.mdr.CoreFactoryMDRImpl","org.argouml.uml.ui.ActionDeleteModelElements"],"file_goldset":["org.argouml.kernel.TestProject","org.argouml.model.mdr.CoreFactoryMDRImpl","org.argouml.uml.ui.ActionDeleteModelElements"],"creation_date":"2006-06-17 13:52:25","resolution_date":"2006-07-06 13:47:20"}
{"id":45,"bug_id":"4324","text":"Wrong default extension while saving. ","class_goldset":["org.argouml.persistence.PersistenceManager","org.argouml.persistence.TestPersistenceManager","org.argouml.ui.ProjectBrowser"],"file_goldset":["org.argouml.persistence.PersistenceManager","org.argouml.persistence.TestPersistenceManager","org.argouml.ui.ProjectBrowser"],"creation_date":"2006-07-08 02:30:22","resolution_date":"2006-07-13 12:38:07"}
{"id":46,"bug_id":"4330","text":"Exception in \"Send email to expert\". ","class_goldset":["org.argouml.cognitive.ui.TabToDo"],"file_goldset":["org.argouml.cognitive.ui.TabToDo"],"creation_date":"2006-07-11 06:48:26","resolution_date":"2006-07-15 05:27:05"}
{"id":47,"bug_id":"4342","text":"Delete from model does not enable \"Save Project\". ","class_goldset":["org.argouml.model.mdr.UmlFactoryMDRImpl"],"file_goldset":["org.argouml.model.mdr.UmlFactoryMDRImpl"],"creation_date":"2006-07-13 16:17:34","resolution_date":"2006-07-18 14:12:40"}
{"id":48,"bug_id":"4349","text":"Activity Diagram not refreshed after deletion of a Action State. ","class_goldset":["org.argouml.uml.diagram.activity.ui.FigActionState","org.argouml.uml.diagram.activity.ui.FigCallState","org.argouml.uml.diagram.activity.ui.FigObjectFlowState","org.argouml.uml.diagram.collaboration.ui.FigClassifierRole","org.argouml.uml.diagram.sequence.ui.FigClassifierRole","org.argouml.uml.diagram.state.ui.FigSubmachineState"],"file_goldset":["org.argouml.uml.diagram.activity.ui.FigActionState","org.argouml.uml.diagram.activity.ui.FigCallState","org.argouml.uml.diagram.activity.ui.FigObjectFlowState","org.argouml.uml.diagram.collaboration.ui.FigClassifierRole","org.argouml.uml.diagram.sequence.ui.FigClassifierRole","org.argouml.uml.diagram.state.ui.FigSubmachineState"],"creation_date":"2006-07-15 12:49:43","resolution_date":"2006-07-16 10:28:14"}
{"id":49,"bug_id":"4354","text":"Errors on Deployment Diagram. ","class_goldset":["org.argouml.uml.diagram.deployment.ui.DeploymentDiagramRenderer"],"file_goldset":["org.argouml.uml.diagram.deployment.ui.DeploymentDiagramRenderer"],"creation_date":"2006-07-16 16:17:39","resolution_date":"2006-07-17 23:41:54"}
{"id":50,"bug_id":"4362","text":"Exception thrown drawing generalization. ","class_goldset":["org.argouml.uml.diagram.collaboration.ui.CollabDiagramRenderer"],"file_goldset":["org.argouml.uml.diagram.collaboration.ui.CollabDiagramRenderer"],"creation_date":"2006-07-18 12:07:56","resolution_date":"2006-07-18 13:17:38"}
{"id":51,"bug_id":"4364","text":"Dragging association onto diagram creates n-ary diamond. ","class_goldset":["org.argouml.uml.diagram.collaboration.CollabDiagramGraphModel","org.argouml.uml.diagram.deployment.DeploymentDiagramGraphModel","org.argouml.uml.diagram.static_structure.ClassDiagramGraphModel","org.argouml.uml.diagram.use_case.UseCaseDiagramGraphModel"],"file_goldset":["org.argouml.uml.diagram.collaboration.CollabDiagramGraphModel","org.argouml.uml.diagram.deployment.DeploymentDiagramGraphModel","org.argouml.uml.diagram.static_structure.ClassDiagramGraphModel","org.argouml.uml.diagram.use_case.UseCaseDiagramGraphModel"],"creation_date":"2006-07-18 15:30:05","resolution_date":"2006-07-19 17:09:59"}
{"id":52,"bug_id":"4367","text":"deleting call self action throws InvalidElementException and makes Argo unstable. ","class_goldset":["org.argouml.uml.diagram.sequence.ui.FigClassifierRole","org.argouml.uml.diagram.sequence.ui.SequenceDiagramLayer"],"file_goldset":["org.argouml.uml.diagram.sequence.ui.FigClassifierRole","org.argouml.uml.diagram.sequence.ui.SequenceDiagramLayer"],"creation_date":"2006-07-19 19:00:56","resolution_date":"2006-07-25 16:26:21"}
