{"id":128,"bug_id":"HHH-4576","text":"Tests in MySQL using different case for objects as defined in configuration. ","class_goldset":["org.hibernate.test.hql.BulkManipulationTest"],"file_goldset":["org.hibernate.test.hql.BulkManipulationTest"],"creation_date":"2009-11-16T07:41:50.000-0800","resolution_date":"2009-11-16T08:12:40.000-0800"}
{"id":129,"bug_id":"HHH-4583","text":"Incorrect handling of empty conjunction and disjunction. ","class_goldset":["org.hibernate.ejb.criteria.CriteriaBuilderImpl","org.hibernate.ejb.criteria.predicate.CompoundPredicate"],"file_goldset":["org.hibernate.ejb.criteria.CriteriaBuilderImpl","org.hibernate.ejb.criteria.predicate.CompoundPredicate"],"creation_date":"2009-11-17T10:25:15.000-0800","resolution_date":"2010-02-18T11:00:58.000-0800"}
{"id":130,"bug_id":"HHH-4614","text":"(javassist) Instrumented model with abstract MappedSuperclass and field access doesn\u0027t work. ","class_goldset":["org.hibernate.bytecode.javassist.FieldTransformer"],"file_goldset":["org.hibernate.bytecode.javassist.FieldTransformer"],"creation_date":"2009-11-27T07:32:18.000-0800","resolution_date":"2009-12-16T13:05:02.000-0800"}
{"id":131,"bug_id":"HHH-4617","text":"Using materialized blobs with Postgresql causes error. ","class_goldset":["org.hibernate.Hibernate","org.hibernate.cfg.annotations.SimpleValueBinder","org.hibernate.dialect.Dialect","org.hibernate.dialect.PostgreSQLDialect","org.hibernate.test.lob.ClobLocatorTest","org.hibernate.test.lob.MaterializedBlobTest","org.hibernate.type.BlobType","org.hibernate.type.CharacterArrayClobType","org.hibernate.type.ClobType","org.hibernate.type.MaterializedBlobType","org.hibernate.type.MaterializedClobType","org.hibernate.type.PrimitiveCharacterArrayClobType","org.hibernate.type.WrappedMaterializedBlobType"],"file_goldset":["org.hibernate.Hibernate","org.hibernate.cfg.annotations.SimpleValueBinder","org.hibernate.dialect.Dialect","org.hibernate.dialect.PostgreSQLDialect","org.hibernate.test.lob.ClobLocatorTest","org.hibernate.test.lob.MaterializedBlobTest","org.hibernate.type.BlobType","org.hibernate.type.CharacterArrayClobType","org.hibernate.type.ClobType","org.hibernate.type.MaterializedBlobType","org.hibernate.type.MaterializedClobType","org.hibernate.type.PrimitiveCharacterArrayClobType","org.hibernate.type.WrappedMaterializedBlobType"],"creation_date":"2009-11-28T09:42:08.000-0800","resolution_date":"2011-02-02T20:09:36.000-0800"}
{"id":132,"bug_id":"HHH-4647","text":"Problems with @JoinColumn referencedColumnName and quoted column and table names. ","class_goldset":["org.hibernate.cfg.Configuration.MappingsImpl","org.hibernate.test.annotations.backquotes.BackquoteTest"],"file_goldset":["org.hibernate.cfg.Configuration.MappingsImpl","org.hibernate.test.annotations.backquotes.BackquoteTest"],"creation_date":"2009-12-07T17:52:36.000-0800","resolution_date":"2010-07-03T10:18:23.000-0700"}
{"id":133,"bug_id":"HHH-4767","text":"Bug in how Criteria Subquery selections are handled. ","class_goldset":["org.hibernate.ejb.criteria.CriteriaSubqueryImpl"],"file_goldset":["org.hibernate.ejb.criteria.CriteriaSubqueryImpl"],"creation_date":"2010-01-08T00:53:38.000-0800","resolution_date":"2010-01-08T00:55:51.000-0800"}
{"id":134,"bug_id":"HHH-4775","text":"CriteriaBuilder#notEqual being interpreted oppositely. ","class_goldset":["org.hibernate.ejb.criteria.CriteriaBuilderImpl"],"file_goldset":["org.hibernate.ejb.criteria.CriteriaBuilderImpl"],"creation_date":"2010-01-09T11:31:31.000-0800","resolution_date":"2010-01-09T11:32:42.000-0800"}
{"id":135,"bug_id":"HHH-5042","text":"TableGenerator does not increment hibernate_sequences.next_hi_value anymore after having exhausted the current lo-range. ","class_goldset":["org.hibernate.id.MultipleHiLoPerTableGenerator","org.hibernate.id.SequenceGenerator","org.hibernate.id.SequenceHiLoGenerator","org.hibernate.id.enhanced.OptimizerFactory"],"file_goldset":["org.hibernate.id.MultipleHiLoPerTableGenerator","org.hibernate.id.SequenceGenerator","org.hibernate.id.SequenceHiLoGenerator","org.hibernate.id.enhanced.OptimizerFactory"],"creation_date":"2010-03-26T03:06:09.000-0700","resolution_date":"2010-05-11T14:27:32.000-0700"}
