{"id":278,"bug_id":"PIG-1188","text":"Padding nulls to the input tuple according to input schema. ","class_goldset":["src.org.apache.pig.newplan.logical.rules.TypeCastInserter","test.org.apache.pig.test.TestEvalPipeline2","test.org.apache.pig.test.TestMergeForEachOptimization","test.org.apache.pig.test.TestMultiQueryCompiler","test.org.apache.pig.test.TestNewPlanFilterAboveForeach","test.org.apache.pig.test.TestNewPlanFilterRule","test.org.apache.pig.test.TestNewPlanLogicalOptimizer","test.org.apache.pig.test.TestNewPlanPushDownForeachFlatten","test.org.apache.pig.test.TestPartitionFilterPushDown"],"file_goldset":["src.org.apache.pig.newplan.logical.rules.TypeCastInserter","test.org.apache.pig.test.TestEvalPipeline2","test.org.apache.pig.test.TestMergeForEachOptimization","test.org.apache.pig.test.TestMultiQueryCompiler","test.org.apache.pig.test.TestNewPlanFilterAboveForeach","test.org.apache.pig.test.TestNewPlanFilterRule","test.org.apache.pig.test.TestNewPlanLogicalOptimizer","test.org.apache.pig.test.TestNewPlanPushDownForeachFlatten","test.org.apache.pig.test.TestPartitionFilterPushDown"],"creation_date":"2010-01-14T19:32:46.000+0000","resolution_date":"2011-03-09T22:58:11.000+0000"}
{"id":279,"bug_id":"PIG-1277","text":"Pig should give error message when cogroup on tuple keys of different inner type. ","class_goldset":["src.org.apache.pig.backend.hadoop.HDataType","src.org.apache.pig.backend.hadoop.executionengine.mapReduceLayer.PigBytesRawComparator","src.org.apache.pig.backend.hadoop.executionengine.mapReduceLayer.PigMapReduce","src.org.apache.pig.backend.hadoop.executionengine.physicalLayer.relationalOperators.POMultiQueryPackage","src.org.apache.pig.impl.io.NullableBytesWritable","src.org.apache.pig.newplan.logical.relational.LOUnion","test.org.apache.pig.test.TestEvalPipeline2","test.org.apache.pig.test.TestPackage","test.org.apache.pig.test.TestSecondarySort"],"file_goldset":["src.org.apache.pig.backend.hadoop.HDataType","src.org.apache.pig.backend.hadoop.executionengine.mapReduceLayer.PigBytesRawComparator","src.org.apache.pig.backend.hadoop.executionengine.mapReduceLayer.PigMapReduce","src.org.apache.pig.backend.hadoop.executionengine.physicalLayer.relationalOperators.POMultiQueryPackage","src.org.apache.pig.impl.io.NullableBytesWritable","src.org.apache.pig.newplan.logical.relational.LOUnion","test.org.apache.pig.test.TestEvalPipeline2","test.org.apache.pig.test.TestPackage","test.org.apache.pig.test.TestSecondarySort"],"creation_date":"2010-03-05T19:02:03.000+0000","resolution_date":"2010-12-24T01:32:27.000+0000"}
{"id":280,"bug_id":"PIG-1680","text":"Pig 0.8 HBaseStorage may not against HBase 0.89. ","class_goldset":["src.org.apache.pig.backend.hadoop.hbase.HBaseStorage","src.org.apache.pig.backend.hadoop.hbase.HBaseTableInputFormat"],"file_goldset":["src.org.apache.pig.backend.hadoop.hbase.HBaseStorage","src.org.apache.pig.backend.hadoop.hbase.HBaseTableInputFormat"],"creation_date":"2010-10-14T16:07:47.000+0000","resolution_date":"2011-03-05T23:47:17.000+0000"}
{"id":281,"bug_id":"PIG-1717","text":"pig needs to call setPartitionFilter if schema is null but getPartitionKeys is not. ","class_goldset":["src.org.apache.pig.impl.logicalLayer.LOLoad","src.org.apache.pig.impl.util.Utils","src.org.apache.pig.newplan.logical.relational.LOLoad"],"file_goldset":["src.org.apache.pig.impl.logicalLayer.LOLoad","src.org.apache.pig.impl.util.Utils","src.org.apache.pig.newplan.logical.relational.LOLoad"],"creation_date":"2010-11-11T15:41:37.000+0000","resolution_date":"2011-02-03T20:03:28.000+0000"}
{"id":282,"bug_id":"PIG-1771","text":"New logical plan: Merge schema fail if LoadFunc.getSchema return different schema with \"Load...AS\". ","class_goldset":["src.org.apache.pig.newplan.logical.relational.LogicalSchema","test.org.apache.pig.test.TestEvalPipeline2"],"file_goldset":["src.org.apache.pig.newplan.logical.relational.LogicalSchema","test.org.apache.pig.test.TestEvalPipeline2"],"creation_date":"2010-12-16T20:45:37.000+0000","resolution_date":"2010-12-20T18:41:56.000+0000"}
{"id":283,"bug_id":"PIG-1776","text":"changing statement corresponding to alias after explain , then doing dump gives incorrect result. ","class_goldset":["src.org.apache.pig.PigServer","src.org.apache.pig.newplan.logical.relational.LOLoad","test.org.apache.pig.test.TestUDFContext"],"file_goldset":["src.org.apache.pig.PigServer","src.org.apache.pig.newplan.logical.relational.LOLoad","test.org.apache.pig.test.TestUDFContext"],"creation_date":"2010-12-17T22:28:09.000+0000","resolution_date":"2011-01-28T00:47:37.000+0000"}
{"id":284,"bug_id":"PIG-1785","text":"New logical plan: uid conflict in flattened fields. ","class_goldset":["src.org.apache.pig.newplan.logical.rules.DuplicateForEachColumnRewrite","src.org.apache.pig.newplan.logical.rules.ImplicitSplitInserter","src.org.apache.pig.newplan.optimizer.PlanOptimizer","src.org.apache.pig.newplan.optimizer.Rule","test.org.apache.pig.test.TestEvalPipeline2"],"file_goldset":["src.org.apache.pig.newplan.logical.rules.DuplicateForEachColumnRewrite","src.org.apache.pig.newplan.logical.rules.ImplicitSplitInserter","src.org.apache.pig.newplan.optimizer.PlanOptimizer","src.org.apache.pig.newplan.optimizer.Rule","test.org.apache.pig.test.TestEvalPipeline2"],"creation_date":"2011-01-04T23:20:28.000+0000","resolution_date":"2011-01-12T02:30:59.000+0000"}
{"id":285,"bug_id":"PIG-1808","text":"Error message in 0.8 not much helpful as compared to 0.7. ","class_goldset":["src.org.apache.pig.newplan.logical.rules.PushUpFilter","test.org.apache.pig.test.TestPushUpFilter"],"file_goldset":["src.org.apache.pig.newplan.logical.rules.PushUpFilter","test.org.apache.pig.test.TestPushUpFilter"],"creation_date":"2011-01-17T14:50:48.000+0000","resolution_date":"2011-03-15T02:00:51.000+0000"}
{"id":286,"bug_id":"PIG-1812","text":"Problem with DID_NOT_FIND_LOAD_ONLY_MAP_PLAN. ","class_goldset":["src.org.apache.pig.backend.hadoop.executionengine.mapReduceLayer.KeyTypeDiscoveryVisitor","src.org.apache.pig.backend.hadoop.executionengine.mapReduceLayer.MRCompiler","src.org.apache.pig.backend.hadoop.executionengine.mapReduceLayer.MRCompiler.RearrangeAdjuster","src.org.apache.pig.backend.hadoop.executionengine.mapReduceLayer.MRCompiler.LimitAdjuster","test.org.apache.pig.test.TestEvalPipeline2","test.org.apache.pig.test.TestMRCompiler"],"file_goldset":["src.org.apache.pig.backend.hadoop.executionengine.mapReduceLayer.KeyTypeDiscoveryVisitor","src.org.apache.pig.backend.hadoop.executionengine.mapReduceLayer.MRCompiler","src.org.apache.pig.backend.hadoop.executionengine.mapReduceLayer.MRCompiler.RearrangeAdjuster","src.org.apache.pig.backend.hadoop.executionengine.mapReduceLayer.MRCompiler.LimitAdjuster","test.org.apache.pig.test.TestEvalPipeline2","test.org.apache.pig.test.TestMRCompiler"],"creation_date":"2011-01-20T02:06:36.000+0000","resolution_date":"2011-01-31T22:01:10.000+0000"}
{"id":287,"bug_id":"PIG-1813","text":"Pig 0.8 throws ERROR 1075 while trying to refer a map in the result of  eval udf.Works with 0.7. ","class_goldset":["src.org.apache.pig.backend.hadoop.executionengine.physicalLayer.expressionOperators.POUserFunc","src.org.apache.pig.newplan.logical.relational.LOGenerate","test.org.apache.pig.test.TestEvalPipeline2"],"file_goldset":["src.org.apache.pig.backend.hadoop.executionengine.physicalLayer.expressionOperators.POUserFunc","src.org.apache.pig.newplan.logical.relational.LOGenerate","test.org.apache.pig.test.TestEvalPipeline2"],"creation_date":"2011-01-20T16:25:01.000+0000","resolution_date":"2011-01-27T07:12:03.000+0000"}
{"id":288,"bug_id":"PIG-1815","text":"pig task retains used instances of PhysicalPlan. ","class_goldset":["src.org.apache.pig.backend.hadoop.executionengine.mapReduceLayer.PigCombiner"],"file_goldset":["src.org.apache.pig.backend.hadoop.executionengine.mapReduceLayer.PigCombiner"],"creation_date":"2011-01-20T23:53:05.000+0000","resolution_date":"2011-01-21T21:10:21.000+0000"}
{"id":289,"bug_id":"PIG-1831","text":"Indeterministic behavior in local mode due to static variable PigMapReduce.sJobConf. ","class_goldset":["src.org.apache.pig.backend.hadoop.executionengine.mapReduceLayer.PigMapBase","src.org.apache.pig.backend.hadoop.executionengine.mapReduceLayer.PigMapReduce","src.org.apache.pig.backend.hadoop.executionengine.mapReduceLayer.PigMapReduce.Map","src.org.apache.pig.backend.hadoop.executionengine.mapReduceLayer.partitioners.SkewedPartitioner","src.org.apache.pig.backend.hadoop.executionengine.physicalLayer.relationalOperators.POCollectedGroup","src.org.apache.pig.backend.hadoop.executionengine.physicalLayer.relationalOperators.POCombinerPackage","src.org.apache.pig.backend.hadoop.executionengine.physicalLayer.relationalOperators.PODistinct","src.org.apache.pig.backend.hadoop.executionengine.physicalLayer.relationalOperators.POJoinPackage","src.org.apache.pig.backend.hadoop.executionengine.physicalLayer.relationalOperators.POMergeCogroup","src.org.apache.pig.backend.hadoop.executionengine.physicalLayer.relationalOperators.POMergeJoin","src.org.apache.pig.backend.hadoop.executionengine.physicalLayer.relationalOperators.POPackage","src.org.apache.pig.backend.hadoop.executionengine.physicalLayer.relationalOperators.POPartitionRearrange","src.org.apache.pig.backend.hadoop.executionengine.physicalLayer.relationalOperators.POSort","src.org.apache.pig.backend.hadoop.executionengine.util.MapRedUtil","src.org.apache.pig.backend.hadoop.streaming.HadoopExecutableManager","src.org.apache.pig.builtin.Distinct","src.org.apache.pig.data.InternalCachedBag","src.org.apache.pig.data.InternalDistinctBag","src.org.apache.pig.data.InternalSortedBag","src.org.apache.pig.impl.builtin.DefaultIndexableLoader","src.org.apache.pig.impl.io.FileLocalizer","test.org.apache.pig.test.TestFRJoin","test.org.apache.pig.test.TestFinish","test.org.apache.pig.test.TestPruneColumn","test.org.apache.pig.test.utils.FILTERFROMFILE"],"file_goldset":["src.org.apache.pig.backend.hadoop.executionengine.mapReduceLayer.PigMapBase","src.org.apache.pig.backend.hadoop.executionengine.mapReduceLayer.PigMapReduce","src.org.apache.pig.backend.hadoop.executionengine.mapReduceLayer.PigMapReduce.Map","src.org.apache.pig.backend.hadoop.executionengine.mapReduceLayer.partitioners.SkewedPartitioner","src.org.apache.pig.backend.hadoop.executionengine.physicalLayer.relationalOperators.POCollectedGroup","src.org.apache.pig.backend.hadoop.executionengine.physicalLayer.relationalOperators.POCombinerPackage","src.org.apache.pig.backend.hadoop.executionengine.physicalLayer.relationalOperators.PODistinct","src.org.apache.pig.backend.hadoop.executionengine.physicalLayer.relationalOperators.POJoinPackage","src.org.apache.pig.backend.hadoop.executionengine.physicalLayer.relationalOperators.POMergeCogroup","src.org.apache.pig.backend.hadoop.executionengine.physicalLayer.relationalOperators.POMergeJoin","src.org.apache.pig.backend.hadoop.executionengine.physicalLayer.relationalOperators.POPackage","src.org.apache.pig.backend.hadoop.executionengine.physicalLayer.relationalOperators.POPartitionRearrange","src.org.apache.pig.backend.hadoop.executionengine.physicalLayer.relationalOperators.POSort","src.org.apache.pig.backend.hadoop.executionengine.util.MapRedUtil","src.org.apache.pig.backend.hadoop.streaming.HadoopExecutableManager","src.org.apache.pig.builtin.Distinct","src.org.apache.pig.data.InternalCachedBag","src.org.apache.pig.data.InternalDistinctBag","src.org.apache.pig.data.InternalSortedBag","src.org.apache.pig.impl.builtin.DefaultIndexableLoader","src.org.apache.pig.impl.io.FileLocalizer","test.org.apache.pig.test.TestFRJoin","test.org.apache.pig.test.TestFinish","test.org.apache.pig.test.TestPruneColumn","test.org.apache.pig.test.utils.FILTERFROMFILE"],"creation_date":"2011-01-28T10:02:31.000+0000","resolution_date":"2011-02-18T02:16:58.000+0000"}
{"id":290,"bug_id":"PIG-1837","text":"Error while using IsEmpty function. ","class_goldset":["src.org.apache.pig.backend.hadoop.executionengine.mapReduceLayer.AccumulatorOptimizer","test.org.apache.pig.test.TestAccumulator"],"file_goldset":["src.org.apache.pig.backend.hadoop.executionengine.mapReduceLayer.AccumulatorOptimizer","test.org.apache.pig.test.TestAccumulator"],"creation_date":"2011-02-01T23:57:48.000+0000","resolution_date":"2011-03-07T20:06:58.000+0000"}
{"id":291,"bug_id":"PIG-1843","text":"NPE in schema generation. ","class_goldset":["src.org.apache.pig.EvalFunc","test.org.apache.pig.test.TestEvalPipeline2"],"file_goldset":["src.org.apache.pig.EvalFunc","test.org.apache.pig.test.TestEvalPipeline2"],"creation_date":"2011-02-05T02:42:39.000+0000","resolution_date":"2011-02-18T01:48:25.000+0000"}
{"id":292,"bug_id":"PIG-1850","text":"Order by is failing with ClassCastException if schema is undefined for new logical plan in 0.8. ","class_goldset":["src.org.apache.pig.newplan.logical.expression.ProjectExpression","src.org.apache.pig.newplan.logical.relational.LOInnerLoad","test.org.apache.pig.test.TestEvalPipeline2"],"file_goldset":["src.org.apache.pig.newplan.logical.expression.ProjectExpression","src.org.apache.pig.newplan.logical.relational.LOInnerLoad","test.org.apache.pig.test.TestEvalPipeline2"],"creation_date":"2011-02-11T13:50:43.000+0000","resolution_date":"2011-02-18T06:16:43.000+0000"}
{"id":293,"bug_id":"PIG-1854","text":"Pig returns exit code 0 for the failed Pig script .. ","class_goldset":["src.org.apache.pig.impl.util.LogUtils","src.org.apache.pig.tools.grunt.GruntParser","test.org.apache.pig.test.TestPigRunner"],"file_goldset":["src.org.apache.pig.impl.util.LogUtils","src.org.apache.pig.tools.grunt.GruntParser","test.org.apache.pig.test.TestPigRunner"],"creation_date":"2011-02-14T09:03:15.000+0000","resolution_date":"2011-02-18T22:08:37.000+0000"}
{"id":294,"bug_id":"PIG-1856","text":"Custom jar is not packaged with the new job created by LimitAdjuster . ","class_goldset":["src.org.apache.pig.backend.hadoop.executionengine.mapReduceLayer.MRCompiler","test.org.apache.pig.test.TestMRCompiler"],"file_goldset":["src.org.apache.pig.backend.hadoop.executionengine.mapReduceLayer.MRCompiler","test.org.apache.pig.test.TestMRCompiler"],"creation_date":"2011-02-15T23:26:16.000+0000","resolution_date":"2011-03-01T19:52:14.000+0000"}
{"id":295,"bug_id":"PIG-1858","text":"UDF in nested plan results frontend exception. ","class_goldset":["test.org.apache.pig.test.TestEvalPipeline2"],"file_goldset":["test.org.apache.pig.test.TestEvalPipeline2"],"creation_date":"2011-02-17T08:27:48.000+0000","resolution_date":"2011-04-12T00:45:13.000+0000"}
{"id":296,"bug_id":"PIG-1861","text":"The pig script stored in the Hadoop History logs is stored as a concatenated string without whitespace this causes problems when attempting to extract and execute the script. ","class_goldset":["src.org.apache.pig.tools.pigstats.ScriptState","test.org.apache.pig.test.TestPigStats"],"file_goldset":["src.org.apache.pig.tools.pigstats.ScriptState","test.org.apache.pig.test.TestPigStats"],"creation_date":"2011-02-18T18:39:53.000+0000","resolution_date":"2011-03-07T18:09:47.000+0000"}
{"id":297,"bug_id":"PIG-1866","text":"Dereference a bag within a tuple does not work. ","class_goldset":["src.org.apache.pig.backend.hadoop.executionengine.mapReduceLayer.MRCompiler","src.org.apache.pig.backend.hadoop.executionengine.physicalLayer.expressionOperators.POProject","src.org.apache.pig.newplan.logical.relational.LogToPhyTranslationVisitor","test.org.apache.pig.test.TestEvalPipeline2"],"file_goldset":["src.org.apache.pig.backend.hadoop.executionengine.mapReduceLayer.MRCompiler","src.org.apache.pig.backend.hadoop.executionengine.physicalLayer.expressionOperators.POProject","src.org.apache.pig.newplan.logical.relational.LogToPhyTranslationVisitor","test.org.apache.pig.test.TestEvalPipeline2"],"creation_date":"2011-02-23T20:01:13.000+0000","resolution_date":"2011-04-21T00:50:44.000+0000"}
{"id":298,"bug_id":"PIG-1868","text":"New logical plan fails when I have complex data types from udf. ","class_goldset":["src.org.apache.pig.newplan.logical.relational.LogicalSchema","test.org.apache.pig.test.TestSchema"],"file_goldset":["src.org.apache.pig.newplan.logical.relational.LogicalSchema","test.org.apache.pig.test.TestSchema"],"creation_date":"2011-02-24T06:42:05.000+0000","resolution_date":"2011-03-27T05:57:44.000+0000"}
{"id":299,"bug_id":"PIG-1892","text":"Bug in new logical plan : No output generated even though there are valid records. ","class_goldset":["src.org.apache.pig.newplan.logical.rules.MapKeysPruneHelper","test.org.apache.pig.test.TestPruneColumn","test.org.apache.pig.test.TestPruneColumn.PigStorageWithTrace"],"file_goldset":["src.org.apache.pig.newplan.logical.rules.MapKeysPruneHelper","test.org.apache.pig.test.TestPruneColumn","test.org.apache.pig.test.TestPruneColumn.PigStorageWithTrace"],"creation_date":"2011-03-10T08:44:12.000+0000","resolution_date":"2011-03-20T23:30:06.000+0000"}
{"id":300,"bug_id":"PIG-1893","text":"Pig report input size -1 for empty input file. ","class_goldset":["src.org.apache.pig.tools.pigstats.JobStats","test.org.apache.pig.test.TestPigRunner"],"file_goldset":["src.org.apache.pig.tools.pigstats.JobStats","test.org.apache.pig.test.TestPigRunner"],"creation_date":"2011-03-11T02:43:13.000+0000","resolution_date":"2011-03-29T19:07:35.000+0000"}
{"id":301,"bug_id":"PIG-1910","text":"incorrect schema shown when project-star is used with other projections. ","class_goldset":["src.org.apache.pig.newplan.logical.expression.DereferenceExpression","src.org.apache.pig.newplan.logical.expression.ExpToPhyTranslationVisitor","src.org.apache.pig.newplan.logical.expression.ProjectExpression","src.org.apache.pig.newplan.logical.relational.LOCogroup","test.org.apache.pig.test.TestPigServer","test.org.apache.pig.test.Util"],"file_goldset":["src.org.apache.pig.newplan.logical.expression.DereferenceExpression","src.org.apache.pig.newplan.logical.expression.ExpToPhyTranslationVisitor","src.org.apache.pig.newplan.logical.expression.ProjectExpression","src.org.apache.pig.newplan.logical.relational.LOCogroup","test.org.apache.pig.test.TestPigServer","test.org.apache.pig.test.Util"],"creation_date":"2011-03-16T17:50:00.000+0000","resolution_date":"2011-04-22T17:32:07.000+0000"}
{"id":302,"bug_id":"PIG-1911","text":"Infinite loop with accumulator function in nested foreach. ","class_goldset":["src.org.apache.pig.backend.hadoop.executionengine.physicalLayer.expressionOperators.POUserFunc","src.org.apache.pig.backend.hadoop.executionengine.physicalLayer.relationalOperators.POForEach","test.org.apache.pig.test.TestAccumulator"],"file_goldset":["src.org.apache.pig.backend.hadoop.executionengine.physicalLayer.expressionOperators.POUserFunc","src.org.apache.pig.backend.hadoop.executionengine.physicalLayer.relationalOperators.POForEach","test.org.apache.pig.test.TestAccumulator"],"creation_date":"2011-03-16T21:06:11.000+0000","resolution_date":"2011-04-08T19:13:35.000+0000"}
{"id":303,"bug_id":"PIG-1912","text":"non-deterministic output when a file is loaded multiple times. ","class_goldset":["src.org.apache.pig.backend.hadoop.executionengine.HExecutionEngine","src.org.apache.pig.newplan.logical.relational.LOLoad","src.org.apache.pig.newplan.logical.relational.LogToPhyTranslationVisitor","test.org.apache.pig.test.TestEvalPipeline2"],"file_goldset":["src.org.apache.pig.backend.hadoop.executionengine.HExecutionEngine","src.org.apache.pig.newplan.logical.relational.LOLoad","src.org.apache.pig.newplan.logical.relational.LogToPhyTranslationVisitor","test.org.apache.pig.test.TestEvalPipeline2"],"creation_date":"2011-03-16T21:11:46.000+0000","resolution_date":"2011-03-23T00:50:59.000+0000"}
{"id":304,"bug_id":"PIG-1927","text":"Dereference partial name failed. ","class_goldset":["src.org.apache.pig.PigServer","src.org.apache.pig.newplan.logical.expression.DereferenceExpression","src.org.apache.pig.newplan.logical.relational.LogicalSchema","test.org.apache.pig.test.TestEvalPipeline2","test.org.apache.pig.test.TestUnionOnSchema"],"file_goldset":["src.org.apache.pig.PigServer","src.org.apache.pig.newplan.logical.expression.DereferenceExpression","src.org.apache.pig.newplan.logical.relational.LogicalSchema","test.org.apache.pig.test.TestEvalPipeline2","test.org.apache.pig.test.TestUnionOnSchema"],"creation_date":"2011-03-22T00:23:54.000+0000","resolution_date":"2011-03-27T05:16:04.000+0000"}
{"id":305,"bug_id":"PIG-1932","text":"GFCross should allow the user to set the DEFAULT_PARALLELISM value. ","class_goldset":["src.org.apache.pig.impl.builtin.GFCross"],"file_goldset":["src.org.apache.pig.impl.builtin.GFCross"],"creation_date":"2011-03-23T00:53:04.000+0000","resolution_date":"2011-03-30T21:16:44.000+0000"}
{"id":306,"bug_id":"PIG-1935","text":"New logical plan: Should not push up filter in front of Bincond. ","class_goldset":["src.org.apache.pig.newplan.logical.expression.BinCondExpression","test.org.apache.pig.test.TestNewPlanFilterAboveForeach"],"file_goldset":["src.org.apache.pig.newplan.logical.expression.BinCondExpression","test.org.apache.pig.test.TestNewPlanFilterAboveForeach"],"creation_date":"2011-03-25T01:33:38.000+0000","resolution_date":"2011-04-04T20:46:38.000+0000"}
{"id":307,"bug_id":"PIG-1955","text":"PhysicalOperator has a member variable (non-static) Log object that is non-transient, this causes serialization errors. ","class_goldset":["src.org.apache.pig.backend.hadoop.executionengine.physicalLayer.PhysicalOperator","src.org.apache.pig.backend.hadoop.executionengine.physicalLayer.expressionOperators.ExpressionOperator","src.org.apache.pig.backend.hadoop.executionengine.physicalLayer.expressionOperators.POCast","src.org.apache.pig.backend.hadoop.executionengine.physicalLayer.expressionOperators.POUserComparisonFunc","src.org.apache.pig.backend.hadoop.executionengine.physicalLayer.expressionOperators.POUserFunc","src.org.apache.pig.backend.hadoop.executionengine.physicalLayer.relationalOperators.POCollectedGroup","src.org.apache.pig.backend.hadoop.executionengine.physicalLayer.relationalOperators.POCombinerPackage","src.org.apache.pig.backend.hadoop.executionengine.physicalLayer.relationalOperators.PODemux","src.org.apache.pig.backend.hadoop.executionengine.physicalLayer.relationalOperators.PODistinct","src.org.apache.pig.backend.hadoop.executionengine.physicalLayer.relationalOperators.POFRJoin","src.org.apache.pig.backend.hadoop.executionengine.physicalLayer.relationalOperators.POFilter","src.org.apache.pig.backend.hadoop.executionengine.physicalLayer.relationalOperators.POForEach","src.org.apache.pig.backend.hadoop.executionengine.physicalLayer.relationalOperators.POLimit","src.org.apache.pig.backend.hadoop.executionengine.physicalLayer.relationalOperators.POLoad","src.org.apache.pig.backend.hadoop.executionengine.physicalLayer.relationalOperators.POLocalRearrange","src.org.apache.pig.backend.hadoop.executionengine.physicalLayer.relationalOperators.POMergeJoin","src.org.apache.pig.backend.hadoop.executionengine.physicalLayer.relationalOperators.POMultiQueryPackage","src.org.apache.pig.backend.hadoop.executionengine.physicalLayer.relationalOperators.POPreCombinerLocalRearrange","src.org.apache.pig.backend.hadoop.executionengine.physicalLayer.relationalOperators.POSkewedJoin","src.org.apache.pig.backend.hadoop.executionengine.physicalLayer.relationalOperators.POSort","src.org.apache.pig.backend.hadoop.executionengine.physicalLayer.relationalOperators.POSplit"],"file_goldset":["src.org.apache.pig.backend.hadoop.executionengine.physicalLayer.PhysicalOperator","src.org.apache.pig.backend.hadoop.executionengine.physicalLayer.expressionOperators.ExpressionOperator","src.org.apache.pig.backend.hadoop.executionengine.physicalLayer.expressionOperators.POCast","src.org.apache.pig.backend.hadoop.executionengine.physicalLayer.expressionOperators.POUserComparisonFunc","src.org.apache.pig.backend.hadoop.executionengine.physicalLayer.expressionOperators.POUserFunc","src.org.apache.pig.backend.hadoop.executionengine.physicalLayer.relationalOperators.POCollectedGroup","src.org.apache.pig.backend.hadoop.executionengine.physicalLayer.relationalOperators.POCombinerPackage","src.org.apache.pig.backend.hadoop.executionengine.physicalLayer.relationalOperators.PODemux","src.org.apache.pig.backend.hadoop.executionengine.physicalLayer.relationalOperators.PODistinct","src.org.apache.pig.backend.hadoop.executionengine.physicalLayer.relationalOperators.POFRJoin","src.org.apache.pig.backend.hadoop.executionengine.physicalLayer.relationalOperators.POFilter","src.org.apache.pig.backend.hadoop.executionengine.physicalLayer.relationalOperators.POForEach","src.org.apache.pig.backend.hadoop.executionengine.physicalLayer.relationalOperators.POLimit","src.org.apache.pig.backend.hadoop.executionengine.physicalLayer.relationalOperators.POLoad","src.org.apache.pig.backend.hadoop.executionengine.physicalLayer.relationalOperators.POLocalRearrange","src.org.apache.pig.backend.hadoop.executionengine.physicalLayer.relationalOperators.POMergeJoin","src.org.apache.pig.backend.hadoop.executionengine.physicalLayer.relationalOperators.POMultiQueryPackage","src.org.apache.pig.backend.hadoop.executionengine.physicalLayer.relationalOperators.POPreCombinerLocalRearrange","src.org.apache.pig.backend.hadoop.executionengine.physicalLayer.relationalOperators.POSkewedJoin","src.org.apache.pig.backend.hadoop.executionengine.physicalLayer.relationalOperators.POSort","src.org.apache.pig.backend.hadoop.executionengine.physicalLayer.relationalOperators.POSplit"],"creation_date":"2011-03-31T18:26:15.000+0000","resolution_date":"2011-04-06T17:11:52.000+0000"}
{"id":308,"bug_id":"PIG-1963","text":"in nested foreach, accumutive udf taking input from order-by does not get results in order. ","class_goldset":["src.org.apache.pig.backend.hadoop.executionengine.mapReduceLayer.AccumulatorOptimizer","test.org.apache.pig.test.TestAccumulator"],"file_goldset":["src.org.apache.pig.backend.hadoop.executionengine.mapReduceLayer.AccumulatorOptimizer","test.org.apache.pig.test.TestAccumulator"],"creation_date":"2011-04-04T22:18:24.000+0000","resolution_date":"2011-04-08T19:30:23.000+0000"}
{"id":309,"bug_id":"PIG-1977","text":"\"Stream closed\" error while reading Pig temp files (results of intermediate jobs). ","class_goldset":["src.org.apache.pig.impl.io.TFileRecordReader","test.org.apache.pig.test.TestTmpFileCompression"],"file_goldset":["src.org.apache.pig.impl.io.TFileRecordReader","test.org.apache.pig.test.TestTmpFileCompression"],"creation_date":"2011-04-07T22:27:11.000+0000","resolution_date":"2011-04-11T16:52:59.000+0000"}
{"id":310,"bug_id":"PIG-1979","text":"New logical plan failing with ERROR 2229: Couldn\u0027t find matching uid -1 . ","class_goldset":["src.org.apache.pig.newplan.logical.expression.DereferenceExpression","test.org.apache.pig.test.TestEvalPipeline2"],"file_goldset":["src.org.apache.pig.newplan.logical.expression.DereferenceExpression","test.org.apache.pig.test.TestEvalPipeline2"],"creation_date":"2011-04-08T07:24:01.000+0000","resolution_date":"2011-04-15T00:25:13.000+0000"}
{"id":311,"bug_id":"PIG-1993","text":"PigStorageSchema throw NPE with ColumnPruning. ","class_goldset":["contrib.piggybank.java.src.main.java.org.apache.pig.piggybank.storage.PigStorageSchema","contrib.piggybank.java.src.test.java.org.apache.pig.piggybank.test.TestPigStorageSchema"],"file_goldset":["contrib.piggybank.java.src.main.java.org.apache.pig.piggybank.storage.PigStorageSchema","contrib.piggybank.java.src.test.java.org.apache.pig.piggybank.test.TestPigStorageSchema"],"creation_date":"2011-04-13T00:47:41.000+0000","resolution_date":"2011-04-14T01:48:42.000+0000"}
{"id":312,"bug_id":"PIG-313","text":"Error handling aggregate of a computation. ","class_goldset":["test.org.apache.pig.test.TestEvalPipeline2"],"file_goldset":["test.org.apache.pig.test.TestEvalPipeline2"],"creation_date":"2008-07-15T00:20:04.000+0000","resolution_date":"2011-01-24T18:45:32.000+0000"}
{"id":313,"bug_id":"PIG-496","text":"project of bags from complex data causes failures. ","class_goldset":["src.org.apache.pig.builtin.Utf8StorageConverter","test.org.apache.pig.test.TestConversions"],"file_goldset":["src.org.apache.pig.builtin.Utf8StorageConverter","test.org.apache.pig.test.TestConversions"],"creation_date":"2008-10-15T00:37:44.000+0000","resolution_date":"2011-01-24T18:42:54.000+0000"}
{"id":314,"bug_id":"PIG-534","text":"Illustrate can\u0027t handle Map\u0027s or NULLs. ","class_goldset":["src.org.apache.pig.pen.util.DisplayExamples"],"file_goldset":["src.org.apache.pig.pen.util.DisplayExamples"],"creation_date":"2008-11-17T00:46:39.000+0000","resolution_date":"2011-02-12T00:49:24.000+0000"}
{"id":315,"bug_id":"PIG-730","text":"problem combining schema from a union of several LOAD expressions, with a nested bag inside the schema.. ","class_goldset":["src.org.apache.pig.impl.logicalLayer.schema.Schema","src.org.apache.pig.newplan.logical.expression.DereferenceExpression","src.org.apache.pig.newplan.logical.relational.LogicalSchema","test.org.apache.pig.test.TestSchema"],"file_goldset":["src.org.apache.pig.impl.logicalLayer.schema.Schema","src.org.apache.pig.newplan.logical.expression.DereferenceExpression","src.org.apache.pig.newplan.logical.relational.LogicalSchema","test.org.apache.pig.test.TestSchema"],"creation_date":"2009-03-24T19:36:45.000+0000","resolution_date":"2011-01-24T18:41:02.000+0000"}
{"id":316,"bug_id":"PIG-767","text":"Schema reported from DESCRIBE and actual schema of inner bags are different.. ","class_goldset":["src.org.apache.pig.newplan.logical.expression.DereferenceExpression","src.org.apache.pig.newplan.logical.relational.LOCogroup","src.org.apache.pig.newplan.logical.relational.LOGenerate","src.org.apache.pig.newplan.logical.relational.LOInnerLoad","src.org.apache.pig.newplan.logical.rules.DuplicateForEachColumnRewrite","test.org.apache.pig.test.TestLogicalPlanMigrationVisitor","test.org.apache.pig.test.TestNewPlanLogToPhyTranslationVisitor","test.org.apache.pig.test.TestSchema"],"file_goldset":["src.org.apache.pig.newplan.logical.expression.DereferenceExpression","src.org.apache.pig.newplan.logical.relational.LOCogroup","src.org.apache.pig.newplan.logical.relational.LOGenerate","src.org.apache.pig.newplan.logical.relational.LOInnerLoad","src.org.apache.pig.newplan.logical.rules.DuplicateForEachColumnRewrite","test.org.apache.pig.test.TestLogicalPlanMigrationVisitor","test.org.apache.pig.test.TestNewPlanLogToPhyTranslationVisitor","test.org.apache.pig.test.TestSchema"],"creation_date":"2009-04-16T04:43:29.000+0000","resolution_date":"2011-01-24T18:28:39.000+0000"}
{"id":317,"bug_id":"PIG-946","text":"Combiner optimizer does not optimize when limit follow group, foreach. ","class_goldset":["src.org.apache.pig.backend.hadoop.executionengine.mapReduceLayer.CombinerOptimizer","test.org.apache.pig.test.TestCombiner"],"file_goldset":["src.org.apache.pig.backend.hadoop.executionengine.mapReduceLayer.CombinerOptimizer","test.org.apache.pig.test.TestCombiner"],"creation_date":"2009-09-04T22:51:37.000+0000","resolution_date":"2011-01-05T16:52:32.000+0000"}
