{"id":67,"bug_id":"18","text":"Here follows a test case:         PrecalculatedZone.create() ZoneInfoCompiler.verbose() static {\n cVerbose.set(Boolean.FALSE);\n }\n public static boolean verbose() {\n return cVerbose.get();\n }\n public static boolean verbose(){\n Boolean verbose \u003d cVerbose.get();\n return (verbose !\u003d null) ? verbose : false;\n}\n @Test\n public void testDateTimeZoneBuilder() throws Exception {\n getTestDataTimeZoneBuilder().toDateTimeZone(\"TestDTZ1\", true);\n Thread t \u003d new Thread(new Runnable() {\n @Override\n public void run() {\n getTestDataTimeZoneBuilder().toDateTimeZone(\"TestDTZ2\", true);\n }\n });\n t.start();\n t.join();\n }\n\n  private DateTimeZoneBuilder getTestDataTimeZoneBuilder() {\n return new DateTimeZoneBuilder()\n .addCutover(1601, \u0027w\u0027, 1, 1, 1, false, 7200000)\n .setStandardOffset(3600000)\n .addRecurringSavings(\"\", 3600000, 1601, Integer.MAX_VALUE, \u0027w\u0027, 3, -1, 1, false, 7200000)\n .addRecurringSavings(\"\", 0, 1601, Integer.MAX_VALUE, \u0027w\u0027, 10, -1, 1, false, 10800000);\n }","class_goldset":["org.joda.time.tz.ZoneInfoCompiler"],"method_goldset":["org.joda.time.tz.ZoneInfoCompiler:\u003cclinit0\u003e"],"creation_date":"2013-4-19 08:28:47","resolution_date":"2013-4-19 14:48:33"}
{"id":68,"bug_id":"21","text":"The following code (which can be added to org.joda.time.format.TestDateTimeFormatter) breaks, because the input mutable date time\u0027s millis appear to be mishandled and the year for the parse is changed to 1999:   public void testParseInto_monthDay_feb29_startOfYear() {\n DateTimeFormatter f \u003d DateTimeFormat.forPattern(\"M d\").withLocale(Locale.UK);\n MutableDateTime result \u003d new MutableDateTime(2000, 1, 1, 0, 0, 0, 0, NEWYORK);\n assertEquals(4, f.parseInto(result, \"2 29\", 0));\n assertEquals(new MutableDateTime(2000, 2, 29, 0, 0, 0, 0, NEWYORK), result);\n }","class_goldset":["org.joda.time.format.DateTimeFormatter"],"method_goldset":["org.joda.time.format.DateTimeFormatter:parseInto(ReadWritableInstant, String, int)"],"creation_date":"2013-5-3 21:03:46","resolution_date":"2013-7-21 00:13:03"}
{"id":70,"bug_id":"28","text":"I expect the following test to pass:       Chronology chronology \u003d GJChronology.getInstance();\n\nLocalDate start \u003d new LocalDate(2013, 5, 31, chronology);\nLocalDate expectedEnd \u003d new LocalDate(-1, 5, 31, chronology); // 1 BC\nassertThat(start.minusYears(2013), is(equalTo(expectedEnd)));\nassertThat(start.plus(Period.years(-2013)), is(equalTo(expectedEnd)));","class_goldset":["org.joda.time.chrono.GJChronology"],"method_goldset":["org.joda.time.chrono.GJChronology:getInstance(DateTimeZone, ReadableInstant, int)","org.joda.time.chrono.GJChronology:add(long, long)","org.joda.time.chrono.GJChronology:add(long, int)"],"creation_date":"2013-5-31 00:52:24","resolution_date":"2013-8-16 13:42:26"}
{"id":72,"bug_id":"77","text":"The code                     final MutableDateTime mdt \u003d new MutableDateTime(2011, 10, 30, 3, 0, 0, 0, DateTimeZone.forID(\"Europe/Berlin\"));\nSystem.out.println(\"Start date: \" + mdt + \" (\" + mdt.toInstant().getMillis() + \")\");\nmdt.addHours(-1);\nSystem.out.println(\"addHours(-1): \" + mdt + \" (\" + mdt.toInstant().getMillis() + \")\");\nmdt.addHours(0);\nSystem.out.println(\"addHours(0): \" + mdt + \" (\" + mdt.toInstant().getMillis() + \")\");\nmdt.addDays(0);\nSystem.out.println(\"addDays(0): \" + mdt + \" (\" + mdt.toInstant().getMillis() + \")\");\n addHours(-1) addHours(0) addDays(0) addDays(0)","class_goldset":["org.joda.time.MutableDateTime"],"method_goldset":["org.joda.time.MutableDateTime:add(DurationFieldType, int)","org.joda.time.MutableDateTime:addWeeks(int)","org.joda.time.MutableDateTime:addYears(int)","org.joda.time.MutableDateTime:addMonths(int)","org.joda.time.MutableDateTime:addMinutes(int)","org.joda.time.MutableDateTime:addHours(int)","org.joda.time.MutableDateTime:addWeekyears(int)","org.joda.time.MutableDateTime:addDays(int)","org.joda.time.MutableDateTime:addSeconds(int)","org.joda.time.MutableDateTime:addMillis(int)"],"creation_date":"2013-10-16 15:36:22","resolution_date":"2013-11-27 12:50:47"}
{"id":73,"bug_id":"79","text":"I tried to get a Period only for months and weeks with following code:                             Period p \u003d new Period(new DateTime(startDate.getTime()), new DateTime(endDate.getTime()), PeriodType.forFields(new DurationFieldType[]{DurationFieldType.months(), DurationFieldType.weeks()})).normalizedStandard(PeriodType.forFields(new DurationFieldType[]{DurationFieldType.months(), DurationFieldType.weeks()}));\nreturn p.getMonths();\n withYearsRemoved() throws the  Period p \u003d new Period(new DateTime(startDate.getTime()), new DateTime(endDate.getTime()), PeriodType.standard()).normalizedStandard(PeriodType.standard());\nreturn p.getMonths();\n Period p \u003d new Period(new DateTime(startDate.getTime()), new DateTime(endDate.getTime()), PeriodType.standard().withYearsRemoved()).normalizedStandard(PeriodType.standard().withYearsRemoved());\nreturn p.getMonths();","class_goldset":["org.joda.time.Period"],"method_goldset":["org.joda.time.Period:normalizedStandard(PeriodType)"],"creation_date":"2013-10-17 20:36:31","resolution_date":"2013-11-1 14:07:10"}
{"id":74,"bug_id":"88","text":"However, the above doesn\u0027t work in all cases:          Partial a \u003d new Partial(new DateTimeFieldType[] { year(), hourOfDay() }, new int[] { 1, 1});\nPartial b \u003d new Partial(year(), 1).with(hourOfDay(), 1);\nassert(a \u003d\u003d b);\n new Partial(new DateTimeFieldType[] { clockhourOfDay(), hourOfDay() }, new int[] { 1, 1}); // throws Types array must not contain duplicate\nnew Partial(clockhourOfDay(), 1).with(hourOfDay(), 1); // #\u003cPartial [clockhourOfDay\u003d1, hourOfDay\u003d1]\u003e\n new Partial(clockhourOfDay(), 1) with(hourOfDay(), 1) isEqual(new Partial(hourOfDay() ,1).with(clockhourOfDay(), 1)) // throws objects must have matching field types","class_goldset":["org.joda.time.Partial"],"method_goldset":["org.joda.time.Partial:with(DateTimeFieldType, int)"],"creation_date":"2013-11-25 19:15:46","resolution_date":"2013-11-27 12:50:47"}
{"id":75,"bug_id":"93","text":"With the latest master:     new Partial(yearOfCentury(), 1) with(weekyear(), 1);\n// NullPointerException\n// org.joda.time.Partial.with (Partial.java:447)","class_goldset":["org.joda.time.Partial;org.joda.time.field.UnsupportedDurationField"],"method_goldset":["org.joda.time.Partial:Partial(DateTimeFieldType[], int[], Chronology)","org.joda.time.field.UnsupportedDurationField:compareTo(DurationField)"],"creation_date":"2013-12-1 09:33:58","resolution_date":"2013-12-2 19:14:54"}
