{"key":"COMPRESS-178","title":"TarArchiveInputStream throws IllegalArgumentException instead of IOException","description":"TarArchiveInputStream is throwing  IllegalArgumentException instead of IOException on corrupt files, in direct contradiction to the Javadoc. Here is a stack-trace:"}
{"key":"COMPRESS-176","title":"","description":"the ArchiveEntry for a directory containing an umlaut is not marked as a directory and the file names for the directory and all files contained in that directory contain backslashes instead of slashes (i.e. completely different to all other files in directories with no umlaut in their path)."}
{"key":"COMPRESS-184","title":"","description":"The current logic parsing PAX extension headers fails if the number of bytes used to encode an entry is different from the number of characters - i.e. for any character outside of the ASCII range as the headers are UTF-8 encoded.   takes 11 bytes (one has to account for the trailing newline) for 10 characters and the parser fails with \"Expected 3 chars, read 2\""}
