{"key":"DATAMONGO-462","title":"findAll() fails with NPE - discovering the root cause","description":""}
{"key":"DATAMONGO-420","title":"Extra quotes being added to @Query values and fields","description":"Quotes are being added to values passed into @Query annotations.         Whatever I pass into \"values\" or \"fields\" gets wrapped in quotes when inserted into the query sent to MongoDB.  -\u003e rendered as -  -\u003e This is not a valid query - the double quotes around it break it.  -\u003e rendered as -  -\u003e This is not a valid projection - the double quotes around it break it.    -\u003e This is not a valid projection - the double quotes around zero turn it into a string so it renders as \"true\" instead of 0/undefined."}
{"key":"DATAMONGO-402","title":"Inner class not supported","description":"Inner class not supported in 1.0.1."}
{"key":"DATAMONGO-413","title":"Using \"Or\" in repository query yields a ClassCastException","description":"Gives:"}
{"key":"DATAMONGO-423","title":"Criteria.regex should use java.util.Pattern instead of $regex","description":"throws this exception:"}
