{"key":"DATACMNS-154","title":"","description":"During initialization of the following repository an exception occurs for these two methods."}
{"key":"DATACMNS-157","title":"@Query in extending interface is not picked up correctly","description":"Results in                                    It looks like Spring Data does not use the @Query annotation in the sub interface."}
{"key":"DATACMNS-160","title":"","description":"A repository which only defines delete methods is not created by the Spring Data code with the exception:"}
{"key":"DATACMNS-176","title":"StackOverflowError when inserted object is a CGLIB proxy","description":"M1)] that is in \"session\" scope and using a CGLIB proxy (ie: \"@Scope(value\u003d\"session\", proxyMode \u003d ScopedProxyMode.TARGET_CLASS)\") I receive a StackOverflowError."}
