{"key":"DATAMONGO-1202","title":"","description":"Under simple scenarios with reflexive DBRef relations works as expected, but if used in conjunction with generics it doesn\u0027t create the index expected.      If you run Application it will just create indexes and put some data in customer collection assuming a MongoD is running locally at 27017"}
{"key":"DATAMONGO-1232","title":"","description":"The IgnoreCase query generator is subject to a sort of \"regex injection\" attack, because the query generator simply slaps ^. . $ around the string and passes it directly to MongoDB. This fails when the string contains any sort of special characters. In my case, I\u0027m trying to perform a case-insensitive find on an e-mail address with the + sign, a legal character, but the regex interprets this as 1. . *."}
{"key":"DATAMONGO-1236","title":"MongoOperations findAndModify and updateFirst do not include the _class in Map values","description":"When a map of type LinkedHashMap\u003cString, Object\u003e  is updated via MongoOperations findAndModify or updateFirst, the _class field is not saved for the map values. Therefore, later reads of the data do not convert the value to the correct type, instead leaving it as LinkedHashMap."}
