{"key":"WFCORE-1611","title":"CLI could stuck if SIGINT is send during authentication dialogue","description":"Interruption a CLI session with Ctrl+C during authentication dialogue could get CLI into unresponsive state.               Could not connect message is printed, but process is not terminated and stuck at this point."}
{"key":"WFCORE-1908","title":"Tab completion suggest writing attribute which has access type metric and is not writable","description":"CLI tab completion suggests attributes that are not writable and their access-type is metric     On attempt to write metric attribute, for example message-count, non writable error is printed"}
{"key":"WFCORE-1578","title":"","description":"Then when I create some /socket-binding-group\u003dstandard-sockets/remote-destination-outbound-socket-binding or /socket-binding-group\u003dstandard-sockets/local-destination-outbound-socket-binding using same name as of already existing socket-binding resource, add operation is successful but when I perform server reload, it crashes as it is not able to parse configuration.        server crashes with following stacktrace in console log:"}
{"key":"WFCORE-1915","title":"","description":"The task of ParseUtils.parseAttributeValue is to convert a string into a ModelNode.  And, it is not the job of this method to do validation; there is other code that does that."}
{"key":"WFCORE-1635","title":"Write attribute on a new deployment scanner fails in batch","description":"Creating a new deployment-scanner and altering it\u0027s attribute fails if done in single batch. Running the commands without batch or running batch on CLI embed-server works fine."}
{"key":"WFCORE-1936","title":"","description":"If you tries to change such attributes you are informed that reload is necessary."}
{"key":"WFCORE-1590","title":"Default parameter length validating ignores setMinSize(0)","description":"The following error is reported if an empty string is used as a parameter: -"}
{"key":"WFCORE-1896","title":"Deployment operation browse-content(archive\u003dtrue) does not return archives in archived deployments","description":"Deployment operation browse-content(archive\u003dtrue) does not return archives in archived deployments:"}
{"key":"WFCORE-1959","title":"Deploying an empty managed exploded deployment to server group in domain fails","description":"Deploying an empty exploded deployment created on domain controller fails with the following:"}
{"key":"WFCORE-1710","title":"","description":"The WFCORE-1106 work for checking the runtime status of a capability assumes that only CapabilityScope.GLOBAL should be relevant when the check is performed. But this omits HostCapabilityScope which comes into play when host controller subsystems are used."}
{"key":"WFCORE-1687","title":"WFLYCTL0357 warning upon undeploying any deployment","description":"EAP produces following warning upon undeployment:"}
{"key":"WFCORE-1980","title":"Property file passed via CLI does not resolve expressions with relative path value in vault attributes","description":"Property file passed via CLI with --properties option does not resolve expressions in EAP 7, where in EAP 6 it works fine."}
{"key":"WFCORE-1992","title":"CLI inconsistently parse {} in another object as UNDEFINED","description":"CLI interprets {} as blank object in resource attribute (correct), but as UNDEFINED in object attribute. (in model parameter of performRuntime of ADD operation)"}
{"key":"WFCORE-1718","title":"","description":"If Audit Logger is removed, destination handlers (i.e. its child nodes) are not removed properly. They are not present in the config file. They seem to be not removed \"internally\" though.  1. It is not possible to remove referenced File/Syslog handlers. If user tries to remove them the NullPointerException is given as a result.    Their output is:      2. AuditLog continues to send auditable events to previously referenced File/Syslog handlers.  See log in the file (WILDFLY_HOME/standalone/data/audit-log.log) See log in the syslog (/var/log/messages)"}
{"key":"WFCORE-1115","title":"Intermittent failures of CompositeOperationTestCase \u0026 CoreResourceManagementTestCase","description":"org.jboss.as.test.integration.domain.suites.CompositeOperationTestCase and org.jboss.as.test.integration.domain.suites.CoreResourceManagementTestCase from wildfly-core testsuite domain module starts to intermittently fail since 7.0.0. DR13 (2.0.0. CR8). Tests fails only once I run the whole Domain Mode Integration Tests module, running only these two tests in isolation never fails."}
{"key":"WFCORE-2013","title":"Unable to access http management interface secured by legacy ldap realm","description":"When http management interface is secured with legacy security realm using ldap, user is not prompted to provide credentials as should be in case of BASIC http authentication mechanism. Instead 403 http status is returned directly."}
{"key":"WFCORE-2008","title":"Unable to use path in input-stream-index argument in /core-service\u003dpatching:patch","description":""}
{"key":"WFCORE-1642","title":"","description":"The configuration changes feature is broken in domain mode: the propagation to managed servers / slaves HC doesn\u0027t work properly. Once set it will fail on restarting the DC."}
{"key":"WFCORE-2083","title":"","description":"Profiler shows that we lots of duplicate object allocations with empty arrays It also shows that lots of our builder objects are kept in memory even after builder did its job and created the object."}
{"key":"WFCORE-1708","title":"ReconnectSyslogServerTestCase from wf-core fails intermittently","description":"ReconnectSyslogServerTestCase from wf-core fails intermittently."}
{"key":"WFCORE-1714","title":"","description":"Tab completion for CLI variables doesn\u0027t offer more values once the variable to be completed match some value.    actual"}
{"key":"WFCORE-1793","title":"add-content operation fails to overwrite existing content with overwrite\u003dtrue set when passing content by file path","description":"Upon overwriting content in managed exploded deployments on wildfly-core, the following errors are produced:"}
{"key":"WFCORE-172","title":"","description":"The auditlog code uses \"WildFly Full\" value as an application name (APP-NAME header field) for syslog logging."}
{"key":"WFCORE-1815","title":"It\u0027s not possible to re-add extension ","description":""}
{"key":"WFCORE-1479","title":"","description":"Jar file included in ear main directory is resolved as sub deployment with parent ear as first dependency. Therefore jar files contained in ear/lib directory have priority before implicit modules when class is created inside jar file."}
{"key":"WFCORE-1572","title":"Suggestion list for argument value is not generated if the value contains a whitespace","description":"war --all-server-groups --headers\u003d{rollout id\u003dfoo}) and if user hits tab after the whitespace, suggestions are generated based on the command, rather than the current argument\u0027s name."}
{"key":"WFCORE-1851","title":"Inconsistent behaviour with browse-content(depth\u003d1) operation between archived and exploded deployments","description":"/deployment\u003djboss-kitchensink-ear. ear:browse-content(depth\u003d1) operation returns inconsistent result depending on whether the deployment is exploded or not.  Archived:                     Exploded:"}
{"key":"WFCORE-1570","title":"","description":"When using rollout plans for EAP deployment scenarios I can create my own named rollout-plan for ease of use.     see --name attribute given to name my rollout plan    see id attribute given to rollout header operation"}
{"key":"WFCORE-1864","title":"Whitespaces are not removed from dependencies in module add command","description":"Running module add --name\u003dfoo.bar --resources\u003dfoo.jar --dependencies\u003d[org.a, org.b ] will result in following dependencies in module.xml"}
{"key":"WFCORE-1595","title":"CLI doesn\u0027t autocomplete for unalias command","description":"Tab completion for CLI unalias commend doesn\u0027t seem to work. CLI will suggest available option, but doesn\u0027t autocomplete. actual"}
