{"key":"WFCORE-1552","title":"","description":"Setting up the mixed domain tests for an EAP7 slave, I get the following error :"}
{"key":"WFCORE-1715","title":"HostProcessReloadHandler does not reset the HostRunningModeControl\u0027s restartMode","description":"The ReloadContext created by HostProcessReloadHandler sets the HostRunningModeControl\u0027s restartMode but then it never gets restored to the default value.   A concern here is that ServerInventoryService only goes into its \"shutdownServers\" logic if the restartMode \u003d\u003d RestartMode.SERVERS."}
{"key":"WFCORE-1657","title":"","description":"Using tab completion for adding a module dependencies with module add command could lead to invalid module.xml as CLI prompt user to use module name with \"system.layers.base\" prefix, which is not a part of module name.           this way something like following is generated in module.xml file"}
{"key":"WFCORE-1546","title":"Whitespaces in the middle of the value are siletly ignored","description":"Whitespace in the middle of value (e.g. adding a system property with a value like \"my property\") is silently ignored."}
