{"key":"WFCORE-1481","title":"","description":"Executing list-add operation on login-modules results in the modules being replaced instead of appending new module."}
{"key":"WFCORE-1428","title":"log-file.stream attribute is of type LONG but contains a string","description":"The stream attribute of the log-file resource is of type LONG, but contains a UUID (string). This leads to an error in the console where I rely on proper attribute data types."}
{"key":"WFCORE-1439","title":"","description":"Some tests are checking failure message or exception message as if the Locale is always English."}
{"key":"WFCORE-1437","title":"Using JKS truststore leads to \"FIPS mode: only SunJSSE TrustManagers may be used\"","description":"User can\u0027t start domain in FIPS mode when JKS truststore is used in master \u003c-\u003e slave host controllers communication."}
{"key":"WFCORE-1452","title":"Socket binding resources do not register a requirement for their interface","description":"BindingAddHandler doesn\u0027t pass it\u0027s attributes into the superclass constructor, so the capability references don\u0027t get registered by the default AbstractAddStepHandler.recordCapabilitiesAndRequirements. And BindingAddHandler also doesn\u0027t override recordCapabilitiesAndRequirements to do the registration itself."}
{"key":"WFCORE-1453","title":"module patched in a one-off not included in the next cp is not port-forwarded from the prev cp","description":"If CP1 patches module M, a one-off patch later patches the same module M and the following CP2 does not include M at all, module M will not be port-forwarded from CP1.M will be loaded from the original base instead."}
{"key":"WFCORE-1464","title":"LogContexts are not removed for ear subdeployments","description":"If an ear does not have its own LogContext created, but a subdeployment in it does, the subdeployment never has its LogContext cleaned up upon undeploy, leading to PermGen leaks."}
{"key":"WFCORE-1373","title":"Unable to specify custom configuration directory via -Djboss.server.config.dir","description":"Error:"}
{"key":"WFCORE-1493","title":"org.jboss.as.host.controller.Main.getHostSystemProperties() doesn\u0027t propagate -Djdk.launcher.addexports.%d\u003d%s value properly","description":"But method org.jboss.as.host.controller.Main.getHostSystemProperties() has problems with its values. The format of -XaddExports (and thus for -Djdk.launcher.addexports. %d\u003d%s too) is:"}
