{"key":"WFCORE-1188","title":"Exiting CLI requires stty sane command to be issued on Linux","description":"The PR https://github.com/wildfly/wildfly-core/pull/1268/ seemed to have introduced a regression where some times (seems to be most in my case) stty sane is required to get a shell back to normal. My guess is it\u0027s the aesh upgrade, but I\u0027m not certain on that so I\u0027ll start the JIRA here and it can be moved to AESH if necessary.","creation_date":"2015-12-04T23:12:51.000-06:00","resolution_date":"2015-12-16T22:46:12.000-06:00","fixed_files":["org.jboss.as.cli.impl.CommandContextImpl","org.jboss.as.cli.impl.Console"]}
{"key":"WFCORE-1214","title":"Operation headers not propagated to domain servers when \u0027composite\u0027 op is used","description":"When the user adds request headers to an op, they are not propagated to the servers during domain rollout if the \u0027composite\u0027 op is involved.\nFor example, if I add some stdout printing of what the headers are on the various processes and invoke this:\n\n\n\n\n\n\n[domain@localhost:9990 /] deploy ~/tmp/helloworld.war --headers\u003d{blocking-timeout\u003d5;rollback-on-runtime-failure\u003dfalse} --all-server-groups\n\n\n\n\n\n\nThen on a HC with two servers, this is logged:\n[Host Controller] 10:53:40,697 INFO  [stdout] (management-handler-thread - 3) \"composite\" headers: \n{\n\n[Host Controller] 10:53:40,697 INFO  [stdout] (management-handler-thread - 3)     \"blocking-timeout\" \u003d\u003e \"5\",\n\n[Host Controller] 10:53:40,698 INFO  [stdout] (management-handler-thread - 3)     \"rollback-on-runtime-failure\" \u003d\u003e \"false\",\n\n[Host Controller] 10:53:40,698 INFO  [stdout] (management-handler-thread - 3)     \"caller-type\" \u003d\u003e \"user\",\n\n[Host Controller] 10:53:40,698 INFO  [stdout] (management-handler-thread - 3)     \"access-mechanism\" \u003d\u003e \"NATIVE\"\n\n[Host Controller] 10:53:40,698 INFO  [stdout] (management-handler-thread - 3) }\n[Host Controller] 10:53:40,727 INFO  [org.jboss.as.repository] (management-handler-thread - 3) WFLYDR0001: Content added at location /Users/bstansberry/dev/wildfly/wildfly-core/dist/target/wildfly-core-2.0.5.Final-SNAPSHOT/domain/data/content/6f/cd9eae343ed6d5aa9fffa83012d155b1ef911c/content\n[Server:server-one] 10:53:40,772 INFO  [stdout] (ServerService Thread Pool  11) \"composite\" headers: null\n[Server:server-two] 10:53:40,772 INFO  [stdout] (ServerService Thread Pool  11) \"composite\" headers: null\nThe HC logs, then the servers report. The user-specified headers are not included.\nInvoke the same op without the batch and this is logged:\n\n\n\n\n\n\n[Host Controller] 10:43:50,400 INFO  [stdout] (management-handler-thread - 4) \"composite\" headers: {\n\n\n\n\n[Host Controller] 10:43:50,401 INFO  [stdout] (management-handler-thread - 4)     \"blocking-timeout\" \u003d\u003e \"5\",\n\n\n\n\n[Host Controller] 10:43:50,401 INFO  [stdout] (management-handler-thread - 4)     \"rollback-on-runtime-failure\" \u003d\u003e \"false\",\n\n\n\n\n[Host Controller] 10:43:50,401 INFO  [stdout] (management-handler-thread - 4)     \"caller-type\" \u003d\u003e \"user\",\n\n\n\n\n[Host Controller] 10:43:50,401 INFO  [stdout] (management-handler-thread - 4)     \"access-mechanism\" \u003d\u003e \"NATIVE\"\n\n\n\n\n[Host Controller] 10:43:50,401 INFO  [stdout] (management-handler-thread - 4) }\n\n\n\n\n[Host Controller] 10:43:50,425 INFO  [org.jboss.as.repository] (management-handler-thread - 4) WFLYDR0001: Content added at location /Users/bstansberry/dev/wildfly/wildfly-core/dist/target/wildfly-core-2.0.5.Final-SNAPSHOT/domain/data/content/6f/cd9eae343ed6d5aa9fffa83012d155b1ef911c/content\n\n\n\n\n[Server:server-two] 10:43:50,464 INFO  [stdout] (ServerService Thread Pool -- 11) \"composite\" headers: {\n\n\n\n\n[Server:server-two] 10:43:50,464 INFO  [stdout] (ServerService Thread Pool -- 11)     \"blocking-timeout\" \u003d\u003e \"5\",\n\n\n\n\n[Server:server-two] 10:43:50,464 INFO  [stdout] (ServerService Thread Pool -- 11)     \"rollback-on-runtime-failure\" \u003d\u003e \"false\",\n\n\n\n\n[Server:server-one] 10:43:50,464 INFO  [stdout] (ServerService Thread Pool -- 11) \"composite\" headers: {\n\n\n\n\n[Server:server-two] 10:43:50,464 INFO  [stdout] (ServerService Thread Pool -- 11)     \"access-mechanism\" \u003d\u003e \"NATIVE\",\n\n\n\n\n[Server:server-one] 10:43:50,465 INFO  [stdout] (ServerService Thread Pool -- 11)     \"blocking-timeout\" \u003d\u003e \"5\",\n\n\n\n\n[Server:server-two] 10:43:50,465 INFO  [stdout] (ServerService Thread Pool -- 11)     \"domain-uuid\" \u003d\u003e \"216d2e99-dba5-4c89-8020-b0c16bd553c5\"\n\n\n\n\n[Server:server-one] 10:43:50,465 INFO  [stdout] (ServerService Thread Pool -- 11)     \"rollback-on-runtime-failure\" \u003d\u003e \"false\",\n\n\n\n\n[Server:server-two] 10:43:50,465 INFO  [stdout] (ServerService Thread Pool -- 11) }\n\n\n\n\n[Server:server-one] 10:43:50,465 INFO  [stdout] (ServerService Thread Pool -- 11)     \"access-mechanism\" \u003d\u003e \"NATIVE\",\n\n\n\n\n[Server:server-one] 10:43:50,465 INFO  [stdout] (ServerService Thread Pool -- 11)     \"domain-uuid\" \u003d\u003e \"216d2e99-dba5-4c89-8020-b0c16bd553c5\"\n\n\n\n\n[Server:server-one] 10:43:50,465 INFO  [stdout] (ServerService Thread Pool -- 11) }\n\n\n\n\n\n\nExpected headers are present.\nNote the CLI \u0027deploy\u0027 is far from the only time the \u0027composite\u0027 op is used. Among other places, the high level CLI \u0027batch\u0027 command in a domain involves use of \u0027composite\u0027.","creation_date":"2015-12-11T23:17:45.000-06:00","resolution_date":"2015-12-16T22:48:39.000-06:00","fixed_files":["org.jboss.as.domain.controller.operations.coordination.OperationCoordinatorStepHandler","org.jboss.as.domain.controller.operations.coordination.DomainRolloutStepHandler"]}
{"key":"WFCORE-1212","title":"TestModule does not clean up after itself properly","description":"TestModule.create() calls mkdirs() to create its filesystem structure, but remove() only removes the dir above \u0027main\u0027 and below, leaving behind intermediate dirs.\nThe result of this is if you run the full testsuite with -Dts.basic, the dist/target/wildflyxxx/modules dir ends up with child dir \u0027test\u0027 in addition to the proper \u0027system\u0027.\nI\u0027m not sure why this spurious dir doesn\u0027t end up in the final dists we publish. Perhaps its just luck due to the release process not running the testsuite when the final build with the \u0027deploy\u0027 target is invoked. I know my process for releasing WildFly Core doesn\u0027t re-run tests in that step.\nOnce remove() does its current work it should walk up the filesystem tree until it gets to the file returned by getModulesDir(). For each level in the tree it should check if that file is a dir with no children and if it is it should remove the dir. \nhttps://issues.jboss.org/browse/JBEAP-2374","creation_date":"2015-12-11T18:04:50.000-06:00","resolution_date":"2015-12-16T22:55:15.000-06:00","fixed_files":["org.jboss.as.test.module.util.TestModule"]}
{"key":"WFCORE-1213","title":"Graceful shutdown is interfering with the \u0027kill\u0027 and \u0027destroy\u0027 operations","description":"The \u0027kill\u0027 and \u0027destroy\u0027 operations on the HC are meant to force shutdown of misbehaving servers. But the graceful shutdown work ([1]) has introduced a management op into the mix. I believe that should be removed, as its not the intent of these operations to try and be graceful; the regular \u0027stop\u0027 ops are for that.\nWhen experimenting with how domains react to OOME servers as part of my WFCORE-378 work I\u0027m seeing \u0027kill\u0027 and \u0027destroy\u0027 no longer function because the OOME on the server means the graceful shutdown management op hangs.\n[1] https://github.com/wildfly/wildfly-core/commit/6e95b5#diff-ecdfa997cd57af67393e4962b54ead64","creation_date":"2015-12-11T22:27:53.000-06:00","resolution_date":"2015-12-16T22:56:19.000-06:00","fixed_files":["org.jboss.as.host.controller.ServerInventoryImpl","org.jboss.as.host.controller.ManagedServer"]}
{"key":"WFCORE-1210","title":"Transformations are not triggered for aliases","description":"Currently only operations passed in to the controller by the client are passed over to the transformers. So if you have an alias /an\u003dalias mapping to /some\u003dresource, and a transformer mapped for /some\u003dresource:\n    /some\u003dresource:add gets transformed\n   /an\u003dalias:add does not get transformed.\nBehind the scenes /an\u003dalias:add ends up in AliasStepHandler, which adds the step to invoke the real /some\u003dresource:add. Unfortunately the /some\u003dresource:add does not get passed to the transformers.\nThe transformer framework should use the same logic as AliasStepHandler to map the alias to the real address and the transform that.","creation_date":"2015-12-11T14:47:25.000-06:00","resolution_date":"2015-12-16T22:57:43.000-06:00","fixed_files":["org.jboss.as.controller.registry.AliasEntry","org.jboss.as.controller.transform.TransformersImpl","org.jboss.as.controller.transform.CompositeOperationTransformer"]}
{"key":"WFCORE-1239","title":"Embedded API is confusing re process types","description":"The embedded API has gotten a bit confusing with respect to names and types, primarily the use of the word \"server\" in a number of placing where the relevant thing could either be an embedded standalone server or an embedded host controller. \nOriginally I saw this module as just being an internal implementation detail for the CLI, used by the offline CLI feature, but now we\u0027ve opened it up for use by things like Arquillian\u0027s WildFly integration, so I want to clean this API up a bit.\nI see two minor breaking changes needed:\n1) The HostController interface has an odd \"public HostController getHostController()\" method that logically would only return \u0027this\u0027. I could keep this but it\u0027s not needed and I\u0027d rather get rid of it.\n2) The HostController interface\u0027s start() method does not throw a checked exception, while the equivalent start() on StandaloneServer does. To do anything coherent I need to unify the exception handling. HostController is extremely unlikely to be used outside wf core, while StandaloneServer is used, and removing a checked exception from StandaloneServer would be a breaking change or any user that catches it, so instead I will add the exception to HostController.start().","creation_date":"2015-12-18T17:53:24.000-06:00","resolution_date":"2015-12-21T18:02:45.000-06:00","fixed_files":["org.wildfly.core.embedded.InitialModuleLoaderFactory","org.wildfly.core.embedded.ServerEnvironment","org.jboss.as.cli.handlers.ReloadHandler","org.wildfly.core.embedded.EmbeddedHostControllerFactory","org.jboss.as.cli.embedded.EmbeddedServerLaunch","org.jboss.as.cli.impl.CommandContextImpl","org.wildfly.core.embedded.ServerStartException","org.wildfly.core.embedded.HostController","org.wildfly.core.embedded.EmbeddedServerReference","org.wildfly.core.embedded.logging.EmbeddedLogger","org.jboss.as.cli.embedded.StopEmbeddedServerHandler","org.wildfly.core.embedded.EmbeddedStandaloneServerFactory","org.wildfly.core.embedded.EmbeddedServerFactory","org.jboss.as.cli.handlers.ShutdownHandler","org.jboss.as.cli.embedded.EmbedHostControllerHandler","org.jboss.as.cli.embedded.StopEmbeddedHostControllerHandler","org.jboss.as.cli.embedded.EmbeddedControllerHandlerRegistrar","org.jboss.as.cli.embedded.EmbedServerHandler","org.wildfly.core.embedded.StandaloneServer"]}
{"key":"WFCORE-1209","title":"jboss-cli.sh ignoring invalid attribute when used in batch mode","description":"CLI did not throw any error message and just ignored the invalid attribute while using in batch mode.If we use same CLI command in non-batch mode it throws exception.","creation_date":"2015-12-10T05:28:33.000-06:00","resolution_date":"2015-12-23T05:02:22.000-06:00","fixed_files":["org.jboss.as.cli.Util","org.jboss.as.cli.handlers.OperationRequestHandler","org.jboss.as.cli.handlers.batch.BatchRunHandler"]}
{"key":"WFCORE-1198","title":"CLI does not resolve multiple properties if one property is undefined","description":"https://bugzilla.redhat.com/show_bug.cgi?id\u003d1289316 description:\n\n\n\n\n\n\nMultiple property substitution is working with EAP 6.4.3+, however, if a variable amongst the multiple variables is empty or has no value, then the subsequent property in the CLI command is not substituted. \n\n\n\n\n\n\n\n\n\nFor example : \n\n\n\n\ncat props.properties \n\n\n\n\n-----------------------------------------\n\n\n\n\nPROFILE-NAME\u003dTestProfile\n\n\n\n\nSERVER-INSTANCE-NUMBER\u003dTestInstance\n\n\n\n\nAPP-VERSION\u003d\n\n\n\n\nVAR\u003dtest\n\n\n\n\n-----------------------------------------\n\n\n\n\n\n\n\n\n\ncat test.cli :\n\n\n\n\n---------------------------------------\n\n\n\n\n/host\u003dmaster/server-config\u003d${PROFILE-NAME}${APP-VERSION}${SERVER-INSTANCE-NUMBER}${VAR}:add(auto-start\u003dtrue, group\u003d\"${PROFILE-NAME}${APP-VERSION}-server-group\")\n\n\n\n\n---------------------------------------\n\n\n\n\n\n\n\n\n\nand if I execute \"./jboss-cli.sh --connect --file\u003dtest.cli --properties\u003dprops.properties\" then I have the following in the host.xml \": \n\n\n\n\n\n\n\n\n\n----------\n\n\n\n\n...\n\n\n\n\n\u003cserver name\u003d\"TestProfile${SERVER-INSTANCE-NUMBER}test\" group\u003d\"TestProfile-server-group\" auto-start\u003d\"true\"/\u003e\n\n\n\n\n...\n\n\n\n\n-----------\n\n\n\n\n\n\n\n\n\nNote APP-VERSION had no value, and so the subsequent SERVER-INSTANCE-NUMBER was not properly resolved\n\n\n\n\n\n","creation_date":"2015-12-09T09:30:00.000-06:00","resolution_date":"2015-12-23T05:08:33.000-06:00","fixed_files":["org.jboss.as.cli.parsing.ExpressionBaseState","org.jboss.as.cli.parsing.test.PropertyReplacementTestCase"]}
{"key":"WFCORE-1226","title":"undeploying disabled deployment stops service for same runtime-name in DeploymentUndeployHandler ","description":"\n\n\n\n\n\n1. Start EAP 6.4.4 in domain mode and deploy application using following CLI command:\n\n\n\n\n~~\n\n\n\n\n[domain@localhost:9999 /] deploy /Applications/WebApp-1.war --server-groups\u003dmain-server-group --name\u003dWebApp-1.war --runtime-name\u003dWebApp-1.war\n\n\n\n\n~~~\n\n\n\n\n2. Deploy next version of application in \"disabled\" state with same \"runtime-name\"  \n\n\n\n\n~~~\n\n\n\n\n[domain@localhost:9999 /] deploy /Applications/WebApp-2.war --disabled --name\u003dWebApp-2.war --runtime-name\u003dWebApp-1.war \n\n\n\n\n~~~\n\n\n\n\n\n\n\n\n\n3. Now use replace-deployment command to access latest version of application:\n\n\n\n\n~~~\n\n\n\n\n[domain@localhost:9999 /] /server-group\u003dmain-server-group:replace-deployment(name\u003dWebApp-2.war,to-replace\u003dWebApp-1.war)\n\n\n\n\n~~~\n\n\n\n\nits working fine,laest version of application is accessable.\n\n\n\n\n\n\n\n\n\n4. Now try to undeploy old version of application\n\n\n\n\n~~~\n\n\n\n\n/server-group\u003dmain-server-group/deployment\u003dWebApp-1.war:undeploy()\n\n\n\n\n~~~\n\n\n\n\nAfter undploying older version, we are not able to access(404) latest version of application(WebApp-2.war) as well.To access it we have to redeploy it. \n\n\n\n\nSame steps are working fine in Standalone mode.\n\n\n\n\n\n","creation_date":"2015-12-15T08:35:28.000-06:00","resolution_date":"2016-01-08T05:54:36.000-06:00","fixed_files":["org.jboss.as.server.deployment.DeploymentUndeployHandler"]}
{"key":"WFCORE-1232","title":"Adjust patching tests to use merged patches","description":"WFCORE-838 introduced a new way of joining multiple patches together - merging them into one. This needs some test coverage in patching TS.","creation_date":"2015-12-16T08:34:12.000-06:00","resolution_date":"2016-01-23T00:39:02.000-06:00","fixed_files":["org.jboss.as.test.integration.management.util.CLIWrapper","org.jboss.as.test.patching.CliUtilsForPatching","org.jboss.as.test.patching.PatchingTestUtil"]}
{"key":"WFCORE-1231","title":"Remove OSGi bundle related patching tests","description":"OSGi is no longer supported, there\u0027s no point in keeping these tests.\nThis affects unit tests in the \u0027patching\u0027 module and the patching module of integration TS.","creation_date":"2015-12-16T08:16:38.000-06:00","resolution_date":"2016-03-30T14:42:12.000-05:00","fixed_files":["org.jboss.as.patching.cli.PatchInspectUnitTestCase","org.jboss.as.test.patching.PatchingTestUtil","org.jboss.as.test.patching.RemotePatchInfoUnitTestCase","org.jboss.as.test.patching.RemotePatchInfoPatchIdUnitTestCase","org.jboss.as.patching.cli.ContentConflictsUnitTestCase","org.jboss.as.patching.cli.RollbackLastUnitTestCase","org.jboss.as.patching.runner.TestUtils","org.jboss.as.test.patching.RollbackLastUnitTestCase","org.jboss.as.patching.cli.LocalPatchInfoPatchIdUnitTestCase","org.jboss.as.test.patching.ContentModificationUtils","org.jboss.as.patching.runner.BundlePatchingTestCase","org.jboss.as.patching.runner.ContentModificationUtils"]}
