{"id":1847,"bug_id":"COMPRESS-276","text":"NullPointerException in ZipArchiveOutputStream with invalid entries. Writing raw data seems to cause problems in multiple ways, because an internal field is not set.","file_goldset":["org.apache.commons.compress.archivers.sevenz.SevenZFile","org.apache.commons.compress.archivers.sevenz.SevenZOutputFile","org.apache.commons.compress.archivers.dump.DumpArchiveInputStream","org.apache.commons.compress.archivers.tar.TarArchiveInputStream","org.apache.commons.compress.archivers.tar.TarArchiveOutputStream","org.apache.commons.compress.archivers.arj.ArjArchiveInputStream","org.apache.commons.compress.archivers.zip.ZipArchiveOutputStream"],"creation_date":"2014-04-11T05:03:17.000-05:00","resolution_date":"2014-04-13T08:33:29.000-05:00"}
{"id":1848,"bug_id":"COMPRESS-273","text":"NullPointerException when creation fields/entries from scratch. However, when these 0-argument constructors are used, certain internal references are null, resulting in a NullPointerException soon after.","file_goldset":["org.apache.commons.compress.archivers.cpio.CpioArchiveEntry","org.apache.commons.compress.archivers.zip.UnrecognizedExtraField","org.apache.commons.compress.archivers.zip.ExtraFieldUtils","org.apache.commons.compress.archivers.zip.AbstractUnicodeExtraField"],"creation_date":"2014-04-11T04:13:32.000-05:00","resolution_date":"2014-04-18T14:14:16.000-05:00"}
{"id":1849,"bug_id":"COMPRESS-278","text":"With version 1.8 of commons-compress it\u0027s no longer possible to decompress  files from an archive if the archive contains entries having null (or being empty?) set as username and/or usergroup. With version 1.7 this still worked now I get this exception:                                                       With 1.7 the TestCase outputed this:       With 1.8 it\u0027s failing once it reaches the null valued entry, which is the first.","file_goldset":["org.apache.commons.compress.archivers.tar.TarUtilsTest","org.apache.commons.compress.archivers.tar.TarUtils"],"creation_date":"2014-04-18T16:09:05.000-05:00","resolution_date":"2014-04-19T06:01:10.000-05:00"}
