{"id":1844,"bug_id":"COMPRESS-244","text":"Brief description large values with a first byte indicating at least 4 additional bytes shift an integer by at least 32bits thus leading to an overflow and an incorrect value - the value needs to be casted to long before the bitshift!","file_goldset":["org.apache.commons.compress.archivers.sevenz.SevenZFile"],"creation_date":"2013-11-25T12:36:51.000-06:00","resolution_date":"2013-11-27T05:36:33.000-06:00"}
{"id":1845,"bug_id":"COMPRESS-245","text":"TarArchiveInputStream#getNextTarEntry returns null prematurely. The attached archive decompressed with 1.6 only extracts part of the archive.                                                                                    with commons-compress-1.6 it looks like this:","file_goldset":["org.apache.commons.compress.archivers.tar.TarArchiveInputStreamTest","org.apache.commons.compress.archivers.tar.TarArchiveInputStream"],"creation_date":"2013-12-05T11:01:39.000-06:00","resolution_date":"2013-12-06T05:23:51.000-06:00"}
{"id":1846,"bug_id":"COMPRESS-252","text":"Writing 7z empty entries produces incorrect or corrupt archive. Result: The created archive contains a single folder entry with the name of the archive (no matter which was the name of the file)  Result: The created archive contains a folder entry with the name of the archive and a number of file entries also with the name of the archive. The number of the entries is equal to the number of non empty files.      Result: archive is corrupt, the following message is received: \"Cannot open file \u0027archivename.7z\u0027 as archive\" (7Zip Manager does not crash).","file_goldset":["org.apache.commons.compress.archivers.sevenz.SevenZOutputFileTest","org.apache.commons.compress.archivers.sevenz.SevenZOutputFile"],"creation_date":"2013-12-18T16:12:34.000-06:00","resolution_date":"2014-01-08T05:19:52.000-06:00"}
