{"id":1909,"bug_id":"DATACMNS-228","text":"When using Groovy classes with the mapping metadata sub-system, the Groovy compiler introduced fields like metaClass should not be considered a persistent property.","file_goldset":["org.springframework.data.mapping.context.AbstractMappingContextUnitTests","org.springframework.data.mapping.context.AbstractMappingContext"],"creation_date":"2012-09-10T02:05:09.000-05:00","resolution_date":"2012-09-10T06:29:13.000-05:00"}
{"id":1910,"bug_id":"DATACMNS-233","text":"When posting a new Order where Order.customer \u003d\u003d \"\" then a converter exception is thrown:","file_goldset":["org.springframework.data.repository.support.DomainClassConverter","org.springframework.data.repository.support.DomainClassConverterUnitTests"],"creation_date":"2012-09-14T07:38:12.000-05:00","resolution_date":"2012-09-17T01:05:34.000-05:00"}
{"id":1911,"bug_id":"DATACMNS-257","text":"Cannot execute MongoOperations.findOne method if my model entity contains @Id field which name is uppercase, like UID.          3) at this step you will get an exception","file_goldset":["org.springframework.data.mapping.PropertyPath","org.springframework.data.mapping.PropertyPathUnitTests"],"creation_date":"2012-11-29T02:29:27.000-06:00","resolution_date":"2012-12-12T23:20:27.000-06:00"}
{"id":1912,"bug_id":"DATACMNS-276","text":"ParameterizedTypeInformation is missing hashCode() method. ","file_goldset":["org.springframework.data.util.ParameterizedTypeInformation"],"creation_date":"2013-01-29T04:06:23.000-06:00","resolution_date":"2013-01-29T06:06:19.000-06:00"}
