{"id":2050,"bug_id":"DATAMONGO-938","text":"Exception when creating geo within Criteria using MapReduce. I am getting an IllegalArgumentException when I try to query a MongoDB collection using a Criteria.within and a Box.   The exception reads:","file_goldset":["org.springframework.data.mongodb.core.mapreduce.MapReduceTests","org.springframework.data.mongodb.core.MongoTemplate"],"creation_date":"2014-05-21T06:09:48.000-05:00","resolution_date":"2014-06-17T22:56:12.000-05:00"}
{"id":2051,"bug_id":"DATAMONGO-969","text":"String @id field is not mapped to ObjectId when using QueryDSL .id.in(Collection\u003cString\u003e). This is translating to $in clause with empty collection","file_goldset":["org.springframework.data.mongodb.repository.support.SpringDataMongodbSerializerUnitTests","org.springframework.data.mongodb.repository.support.SpringDataMongodbSerializer","org.springframework.data.mongodb.repository.AbstractPersonRepositoryIntegrationTests"],"creation_date":"2014-06-26T16:28:13.000-05:00","resolution_date":"2014-07-09T12:48:45.000-05:00"}
{"id":2052,"bug_id":"DATAMONGO-987","text":"assertNull(persisted.getChild()); // it fails    I attached a project with the JUnit test which reproduces the problem for you.","file_goldset":["org.springframework.data.mongodb.core.convert.MappingMongoConverter","org.springframework.data.mongodb.core.convert.DbRefMappingMongoConverterUnitTests"],"creation_date":"2014-07-14T12:01:52.000-05:00","resolution_date":"2014-07-17T06:20:13.000-05:00"}
