{"id":2290,"bug_id":"WFCORE-1552","text":"Setting up the mixed domain tests for an EAP7 slave, I get the following error :","file_goldset":["org.jboss.as.domain.controller.operations.SyncModelServerStateTestCase","org.jboss.as.domain.controller.operations.SyncModelOperationHandler"],"creation_date":"2016-05-13T14:57:20.000-05:00","resolution_date":"2016-11-04T22:26:25.000-05:00"}
{"id":2291,"bug_id":"WFCORE-1715","text":"HostProcessReloadHandler does not reset the HostRunningModeControl\u0027s restartMode. The ReloadContext created by HostProcessReloadHandler sets the HostRunningModeControl\u0027s restartMode but then it never gets restored to the default value.   A concern here is that ServerInventoryService only goes into its \"shutdownServers\" logic if the restartMode \u003d\u003d RestartMode.SERVERS.","file_goldset":["org.jboss.as.host.controller.operations.StartServersHandler"],"creation_date":"2016-08-15T19:04:54.000-05:00","resolution_date":"2016-08-31T21:55:37.000-05:00"}
{"id":2292,"bug_id":"WFCORE-1657","text":"Using tab completion for adding a module dependencies with module add command could lead to invalid module.xml as CLI prompt user to use module name with \"system.layers.base\" prefix, which is not a part of module name.           this way something like following is generated in module.xml file","file_goldset":["org.jboss.as.cli.handlers.module.ASModuleHandler"],"creation_date":"2016-07-15T11:51:17.000-05:00","resolution_date":"2016-09-19T17:13:58.000-05:00"}
{"id":2293,"bug_id":"WFCORE-1546","text":"Whitespaces in the middle of the value are siletly ignored. Whitespace in the middle of value (e.g. adding a system property with a value like \"my property\") is silently ignored.","file_goldset":["org.jboss.as.cli.parsing.test.OperationParsingTestCase","org.jboss.as.cli.parsing.operation.PropertyValueState"],"creation_date":"2016-05-11T07:07:27.000-05:00","resolution_date":"2016-05-17T21:10:47.000-05:00"}
