{"key":"DERBY-5251","title":"make ErrorCodeTest pass in non-English locale","description":""}
{"key":"DERBY-6092","title":"testPositionAgressive(org.apache.derbyTesting.functionTests.tests.jdbcapi.BlobClob4BlobTest)j fails with : \u0027The handle is invalid.: java.io.IOException\u0027.","description":""}
{"key":"DERBY-5252","title":"make GrantRevokeTest pass in non-English locale","description":""}
{"key":"DERBY-6094","title":"Derby ignores DriverManager.setLoginTimeout()","description":""}
{"key":"DERBY-5377","title":"AssertionFailedError in testCaseCS4595B_NonUniqueIndex in AccessTest","description":""}
{"key":"DERBY-6108","title":"suites.All no longer runs with weme 6.2 ","description":""}
{"key":"DERBY-5407","title":"When run across the network, dblook produces unusable DDL for VARCHAR FOR BIT DATA columns.","description":""}
{"key":"DERBY-6131","title":"select from view with \"upper\" and \"in\" list throws a ClassCastException","description":""}
{"key":"DERBY-5424","title":"On z/OS testConnectWrongSubprotocolWithSystemProperty(org.apache.derbyTesting.functionTests.tests.tools.ConnectWrongSubprotocolTest)junit.framework.Asserti ailedError","description":""}
{"key":"DERBY-6133","title":"simple array index typo","description":""}
{"key":"DERBY-5531","title":"Assert failure when inserting NULL into indexed column with territory-based collation","description":""}
{"key":"DERBY-6138","title":"org.apache.derbyTesting.functionTests.tests.store.ClassLoaderBootTest fails with  sealing violation: package org.apache.derby.iapi.services.sanity is sealed depending on classpath order","description":""}
{"key":"DERBY-5546","title":"ResultSet#updateBigDecimal on a REAL column does not do underflow checking","description":""}
{"key":"DERBY-6150","title":"Add automatic cleanup of connections opened with openDefaultConnection()","description":""}
{"key":"DERBY-5567","title":"AlterTableTest#testDropColumn fails: drop view cannot be performed due to dependency","description":""}
{"key":"DERBY-5638","title":"intermittent test failure in test_05_ClobNegative when running full largedata._Suite; LobLimitsTestjava.sql.SQLException: Table/View \u0027BLOBTBL\u0027 already exists in Schema \u0027APP\u0027.","description":""}
{"key":"DERBY-5663","title":"Getting NPE when trying to set derby.language.logStatementText property to true inside a junit suite.","description":""}
{"key":"DERBY-5740","title":"Remove unsued code in AlterTableConstantaction.columnDroppedAndTriggerDependencies","description":""}
{"key":"DERBY-5750","title":"Sending an empty string as table name to compress table procedure or empty string as index name to update statistics procedure makes the parser throw an exception.","description":""}
{"key":"DERBY-5816","title":"store.ServicePropertiesFileTest fails on z/OS","description":""}
{"key":"DERBY-1914","title":"test lang/wisconsin gives garbage output on zOS.","description":""}
{"key":"DERBY-5838","title":"By using syscs_set_database_property, you can set the database version to a garbage string which prevents you from booting the database.","description":""}
{"key":"DERBY-5851","title":"Inconsistent code coverage shown for LogicalPreparedStatement40","description":""}
{"key":"DERBY-2141","title":"BlobClob4BlobTest.testPositionBlob() fails with NullPointerException","description":""}
{"key":"DERBY-5911","title":"WHERE condition getting pushed into sub-query with FETCH","description":""}
{"key":"DERBY-3024","title":"Validation of shared plans hurts scalability","description":""}
{"key":"DERBY-3808","title":"Convert subquery.sql to junit","description":""}
{"key":"DERBY-5912","title":"testIsValidImplemented fails for NetworkServer in some slow running machines/configurations","description":""}
{"key":"DERBY-4269","title":"Failover did not succeed in 2 min.: testReplication_Local_3_p6_autocommit_OK","description":""}
{"key":"DERBY-5916","title":"java.lang.NullPointerException org.apache.derby.impl.store.raw.data.BaseDataFileFactory.stop() connecting to network server","description":""}
{"key":"DERBY-4279","title":"Statement cache deadlock","description":""}
{"key":"DERBY-5933","title":"SQL sorting error","description":""}
{"key":"DERBY-4647","title":"BaseTestCase.execJavaCmd() does not work with weme 6.2","description":""}
{"key":"DERBY-5937","title":"File handle is leaked when a Slave replication is shutdown with failover\u003dtrue","description":""}
{"key":"DERBY-4669","title":"ClassLoaderBootTest fails if derbyclient.jar comes before derby.jar on the classpath","description":""}
{"key":"DERBY-6053","title":"Client should use a prepared statement rather than regular statement for Connection.setTransactionIsolation","description":""}
{"key":"DERBY-4873","title":"NullPointerException in testBoundaries with ibm jvm 1.6 ","description":""}
{"key":"DERBY-6058","title":"2 ClassNotFoundException failures on trunk with ibm\u0027s weme6.2 since build 1433263","description":""}
{"key":"DERBY-5014","title":"Tests should restore the timeout values to default after they are done running.","description":""}
{"key":"DERBY-6065","title":"LockTable API link in the documentation is broken","description":""}
{"key":"DERBY-5040","title":"On Windows, cascade of errors after failed test AutomaticIndexStatisticsTest","description":""}
{"key":"DERBY-6079","title":"100\u0027s of errors in nightly test run on weme after jacoco property/priviledges checkin","description":""}
{"key":"DERBY-5045","title":"Assert failures in UpdateStatisticsTest","description":""}
