{"key":"DERBY-4748","title":"StringIndexOutOfBoundsException on syntax error (invalid COMMIT)","description":""}
{"key":"DERBY-4755","title":"DERBY-4601 added a new message to derby.log during engine shutdown and it changed the database shutdown message. Need to update docs with that information","description":""}
{"key":"DERBY-4772","title":"Data truncation error with XPLAIN-functionality enabled","description":""}
{"key":"DERBY-4786","title":"Shutdown command without username and password should work with mixed client and network server releases.","description":""}
{"key":"DERBY-4803","title":"Sequences do not work in INSERT/SELECT","description":""}
{"key":"DERBY-4828","title":"Import fails if column names contain double quotes","description":""}
{"key":"DERBY-4835","title":"Trigger plan does not recompile with upgrade from 10.5.3.0 to 10.6.1.0 causing  java.lang.NoSuchMethodError","description":""}
{"key":"DERBY-4873","title":"NullPointerException in testBoundaries with ibm jvm 1.6 ","description":""}
{"key":"DERBY-4884","title":"DatabasePropertyTestSetup cannot change static properties in encrypted databases","description":""}
{"key":"DERBY-4888","title":"ClassCastException when calling boolean meta-data functions with 10.7 client against 10.6 server","description":""}
{"key":"DERBY-4889","title":"Different byte to boolean conversion on embedded and client","description":""}
{"key":"DERBY-4892","title":"Unsafe use of BigDecimal constructors","description":""}
{"key":"DERBY-4624","title":"Broken logic for avoiding testing across midnight in TimestampArithTest","description":""}
{"key":"DERBY-4654","title":"Restriction.toSQL() doesn\u0027t escape special characters","description":""}
{"key":"DERBY-4664","title":"Change Derby internal stored procedures to avoid DriverManager.getConnection(\"jdbc:default:connection\") as it may be recognized by other Drivers","description":""}
{"key":"DERBY-4665","title":"Unidiomatic error handling in TimestampArithTest","description":""}
{"key":"DERBY-4671","title":"Embedded driver does not work with jbossCache","description":""}
{"key":"DERBY-4684","title":"Correct the implicit casting of other types to BOOLEAN","description":""}
{"key":"DERBY-4693","title":"column rename looses \u0027identity\u0027 attribute.","description":""}
{"key":"DERBY-4718","title":" Correct wrong main() method in LocalizedDisplayScriptTest and LocalizedAttributeScriptTest","description":""}
