{"key":"MAHOUT-1284","title":"DummyRecordWriter\u0027s bug with reused Writables","description":""}
{"key":"MAHOUT-1285","title":"Arff loader can misparse string data as double","description":""}
{"key":"MAHOUT-1314","title":"StreamingKMeansReducer throws NullPointerException when REDUCE_STREAMING_KMEANS is set to true","description":""}
{"key":"MAHOUT-1317","title":"Clarify some of the messages in Preconditions.checkArgument","description":""}
{"key":"MAHOUT-1320","title":"BallKMeansTest.testClustering is unstable","description":""}
{"key":"MAHOUT-1336","title":"HighDFWordsPrunerTest is failing silently","description":""}
{"key":"MAHOUT-1339","title":"Add RAT check; fix copyright headers","description":""}
{"key":"MAHOUT-1349","title":"Clusterdumper/loadTermDictionary crashes when highest index in (sparse) dictionary vector is larger than dictionary vector size?","description":""}
{"key":"MAHOUT-1358","title":"StreamingKMeansThread throws IllegalArgumentException when REDUCE_STREAMING_KMEANS is set to true","description":""}
{"key":"MAHOUT-1396","title":"Accidental use of commons-math won\u0027t work with next Hadoop 2 release","description":""}
{"key":"MAHOUT-1410","title":"clusteredPoints do not contain a vector id","description":""}
{"key":"MAHOUT-1030","title":"Regression: Clustered Points Should be WeightedPropertyVectorWritable not WeightedVectorWritable","description":""}
{"key":"MAHOUT-1261","title":"TasteHadoopUtils.idToIndex can return an int that has size Integer.MAX_VALUE","description":""}
