{"key":"OPENJPA-2007","title":"Setting query hint \"openjpa.FetchPlan.Isolation\" results in misleading warning","description":""}
{"key":"OPENJPA-2011","title":"Prevent reparsing annotation metadata for queries","description":""}
{"key":"OPENJPA-2132","title":"Traversal of a OneToMany relationship returns an empty list when InheritanceType.JOINED or SINGLE_TABLE is used.","description":""}
{"key":"OPENJPA-2146","title":"StateManager for Embeddable may throw Exception while initializing","description":""}
{"key":"OPENJPA-2289","title":"Additional SQL alias generated for query with subquery causes incorrect # of rows returned - Oracle only","description":""}
{"key":"OPENJPA-1630","title":"NPE in MetaDataRepository when preloading is enabled under heavy stress.","description":""}
{"key":"OPENJPA-1752","title":"TestPessimisticLocks JUNIT test produced inconsistent behavior with various backends","description":""}
{"key":"OPENJPA-1787","title":"Bean validation fails merging a new entity","description":""}
{"key":"OPENJPA-1837","title":"ElementCollection contains Embeddable with blob value fails in Oracle","description":""}
{"key":"OPENJPA-1897","title":"Sybase reserved words may not be used as column names","description":""}
{"key":"OPENJPA-1901","title":"QueryCacheStoreQuery$CachedObjectId that is not Serializable","description":""}
{"key":"OPENJPA-1903","title":"Some queries only work the first time they are executed","description":""}
{"key":"OPENJPA-1911","title":"InvalidStateException is thrown when merge an entity with derived identiy","description":""}
{"key":"OPENJPA-1912","title":"enhancer generates invalid code if fetch-groups is activated","description":""}
{"key":"OPENJPA-1918","title":"MetaDataRepository.preload() ignores class loader returned by PersistenceUnitInfo.getClassLoader()","description":""}
{"key":"OPENJPA-1928","title":"Resolving factory method does not allow method overriding","description":""}
{"key":"OPENJPA-1975","title":"Only obtain default schema name when needed (DB2)","description":""}
{"key":"OPENJPA-1986","title":"Extra queries being generated when cascading a persist","description":""}
