{"id":7329,"bug_id":"DATAMONGO-663","text":"org.springframework.data.mongodb.core.query.Field needs an equals method. class Field  equals()  boolean fieldsEqual \u003d this.fieldSpec \u003d\u003d null ? that.fieldSpec \u003d\u003d null : this.fieldSpec.equals(that.fieldSpec);","file_goldset":["org.springframework.data.mongodb.core.query.Field"],"creation_date":"2013-04-24T03:21:19.000-05:00","resolution_date":"2013-04-26T06:47:53.000-05:00"}
{"id":7330,"bug_id":"DATAMONGO-688","text":"There is no precedence between @Id annotation and field named \"id\" - both are attempted to be used. @Id","file_goldset":["org.springframework.data.mongodb.core.mapping.MongoPersistentProperty","org.springframework.data.mongodb.core.mapping.MongoMappingContextUnitTests","org.springframework.data.mongodb.core.mapping.BasicMongoPersistentEntity","org.springframework.data.mongodb.core.mapping.BasicMongoPersistentProperty"],"creation_date":"2013-06-03T14:11:53.000-05:00","resolution_date":"2013-07-08T03:12:11.000-05:00"}
{"id":7331,"bug_id":"DATAMONGO-702","text":"Spring Data MongoDB projection search, is not properly configured with respective Java Pojo. @Field query.fields() @Field","file_goldset":["org.springframework.data.mongodb.core.MongoTemplateTests","org.springframework.data.mongodb.core.MongoTemplate"],"creation_date":"2013-06-20T00:12:30.000-05:00","resolution_date":"2013-07-09T02:35:34.000-05:00"}
{"id":7332,"bug_id":"DATAMONGO-717","text":"Application context is not properly distributed to persistent entities. @Override\n\n\n\n\n\tprotected \u003cT\u003e BasicMongoPersistentEntity\u003cT\u003e createPersistentEntity(TypeInformation\u003cT\u003e typeInformation) {\n\n\n\n\n\n\n\n\n\n\t\tBasicMongoPersistentEntity\u003cT\u003e entity \u003d new BasicMongoPersistentEntity\u003cT\u003e(typeInformation);\n\n\n\n\n\n\n\n\n\n\t\tif (context !\u003d null) {\n\n\n\n\n\t\t\tentity.setApplicationContext(context);\n\n\n\n\n\t\t}\n\n\n\n\n\n\n\n\n\n\t\treturn entity;\n\n\n\n\n\t}\n\n\n\n\n\n\n\n\n\n\t\n\n\n\n\n\t @Override\n\n\n\n\n\tpublic void setApplicationContext(ApplicationContext applicationContext) throws BeansException {\n\n\n\n\n\n\n\n\n\n\t\tthis.context \u003d applicationContext;\n\n\n\n\n\t\tsuper.setApplicationContext(applicationContext);\n\n\n\n\n\t}\n\n\n\n\n\n\n @Override\n\n\n\n\n\tpublic void setApplicationContext(ApplicationContext applicationContext) throws BeansException {\n\n\n\n\n\n\n\n\n\n\t\tthis.context \u003d applicationContext;\n\n\n\n\n\t\tsuper.setApplicationContext(applicationContext);\n\n\n\n\n                // Send the application context to ALL the PersistentEntities, not just ones created after this point\n\n\n\n\n               for (BasicMongoPersistentEntity entity : getPersistentEntities()) {\n\n\n\n\n                   entity.setApplicationContext(applicationContext);\n\n\n\n\n               }\n\n\n\n\n\t}\n\n\n\n\n\n\n testMultiTenantSave()  initialize()  @Bean\n\n\n\n\n\tpublic MongoMappingContext mongoMappingContext() throws ClassNotFoundException {\n\n\n\n\n\n\n\n\n\n\t\tMongoMappingContext mappingContext \u003d new MongoMappingContext();\n\n\n\n\n\t\tmappingContext.setInitialEntitySet(getInitialEntitySet());\n\n\n\n\n\t\tmappingContext.setSimpleTypeHolder(customConversions().getSimpleTypeHolder());\n\n\n\n\n\t\tmappingContext.initialize(); // \u003c----\n\n\n\n\n\n\n\n\n\n\t\treturn mappingContext;\n\n\n\n\n\t}","file_goldset":["org.springframework.data.mongodb.config.AbstractMongoConfigurationUnitTests"],"creation_date":"2013-07-10T11:13:46.000-05:00","resolution_date":"2013-07-10T14:09:31.000-05:00"}
{"id":7333,"bug_id":"DATAMONGO-721","text":"Polymorphic attribute type not persisted on update operations. @Document\npublic class ParentClass {\n   private List\u003cChildClass\u003e list;\n}\n @Document mongoTemplate.updateFirst(Query.query(criteria), \n  new Update().push(\"list\", child));","file_goldset":["org.springframework.data.mongodb.core.convert.QueryMapper"],"creation_date":"2013-07-11T11:36:06.000-05:00","resolution_date":"2013-07-16T04:40:15.000-05:00"}
