{"id":7442,"bug_id":"WFCORE-1214","text":"Operation headers not propagated to domain servers when \u0027composite\u0027 op is used. {blocking-timeout\u003d5;rollback-on-runtime-failure\u003dfalse}  {\n\n[Host Controller] 10:53:40,697 INFO  [stdout] (management-handler-thread - 3)     \"blocking-timeout\" \u003d\u003e \"5\",\n\n[Host Controller] 10:53:40,698 INFO  [stdout] (management-handler-thread - 3)     \"rollback-on-runtime-failure\" \u003d\u003e \"false\",\n\n[Host Controller] 10:53:40,698 INFO  [stdout] (management-handler-thread - 3)     \"caller-type\" \u003d\u003e \"user\",\n\n[Host Controller] 10:53:40,698 INFO  [stdout] (management-handler-thread - 3)     \"access-mechanism\" \u003d\u003e \"NATIVE\"\n\n[Host Controller] 10:53:40,698 INFO  [stdout] (management-handler-thread - 3) }","file_goldset":["org.jboss.as.domain.controller.operations.coordination.OperationCoordinatorStepHandler","org.jboss.as.domain.controller.operations.coordination.DomainRolloutStepHandler"],"creation_date":"2015-12-11T23:17:45.000-06:00","resolution_date":"2015-12-16T22:48:39.000-06:00"}
{"id":7443,"bug_id":"WFCORE-1212","text":"TestModule does not clean up after itself properly. TestModule.create()  mkdirs()  remove()  Once remove()  getModulesDir()","file_goldset":["org.jboss.as.test.module.util.TestModule"],"creation_date":"2015-12-11T18:04:50.000-06:00","resolution_date":"2015-12-16T22:55:15.000-06:00"}
{"id":7444,"bug_id":"WFCORE-1198","text":"CLI does not resolve multiple properties if one property is undefined. {PROFILE-NAME} {APP-VERSION} {VAR} add(auto-start\u003dtrue, group\u003d\"${PROFILE-NAME}${APP-VERSION}-server-group\")","file_goldset":["org.jboss.as.cli.parsing.ExpressionBaseState","org.jboss.as.cli.parsing.test.PropertyReplacementTestCase"],"creation_date":"2015-12-09T09:30:00.000-06:00","resolution_date":"2015-12-23T05:08:33.000-06:00"}
