{"id":157,"bug_id":"1536064","text":"When I try to open a file \\(Ctrl-O\\) the focus in the filesystembrowser is on the Commands menu instead of the filename field.","class_goldset":["org.gjt.sp.jedit.GUIUtilities"],"file_goldset":["org.gjt.sp.jedit.GUIUtilities"],"creation_date":"2006-08-07 15:14:23","resolution_date":"2006-08-26 05:11:17"}
{"id":159,"bug_id":"1538743","text":"While editing ToolBar, the category should be remembered. While editing ToolBar, the category of actions should \nbe remembered when adding actions to the toolbar.","class_goldset":["org.gjt.sp.jedit.options.ToolBarEditDialog"],"file_goldset":["org.gjt.sp.jedit.options.ToolBarEditDialog"],"creation_date":"2006-08-11 14:34:44","resolution_date":"2007-09-21 10:29:59"}
{"id":160,"bug_id":"1541372","text":"move caret on collapsing a fold. If the caret is in a fold that gets collapsed, the \ncaret should be placed at first line of that fold, i. \ne. the remaining visible line, otherwise it reexpands \nthe fold on direction key press.","class_goldset":["org.gjt.sp.jedit.textarea.Gutter.MouseHandler","org.gjt.sp.jedit.textarea.JEditTextArea"],"file_goldset":["org.gjt.sp.jedit.textarea.Gutter.MouseHandler","org.gjt.sp.jedit.textarea.JEditTextArea"],"creation_date":"2006-08-16 15:32:58","resolution_date":"2006-09-08 09:14:38"}
{"id":177,"bug_id":"1723506","text":"Normally, the context menu key has the same effect as a mouse right click; in jEdit, however, it has no effect.","class_goldset":["org.gjt.sp.jedit.textarea.JEditTextArea"],"file_goldset":["org.gjt.sp.jedit.textarea.JEditTextArea"],"creation_date":"2007-05-22 14:18:30","resolution_date":"2007-06-15 04:46:44"}
{"id":181,"bug_id":"1834620","text":"Expected output: 123456789abc","class_goldset":["org.gjt.sp.jedit.search.SearchAndReplace"],"file_goldset":["org.gjt.sp.jedit.search.SearchAndReplace"],"creation_date":"2007-11-19 16:13:11","resolution_date":"2008-02-22 23:19:06"}
{"id":182,"bug_id":"1866836","text":"After completion column cursor should be kept. Hi, when typing in a column cursor, after using the completion popup it would be better if the cursor would still be column cursor","class_goldset":["org.gjt.sp.jedit.gui.CompleteWord","org.gjt.sp.jedit.gui.CompleteWord.Words"],"file_goldset":["org.gjt.sp.jedit.gui.CompleteWord","org.gjt.sp.jedit.gui.CompleteWord.Words"],"creation_date":"2008-01-08 14:05:42","resolution_date":"2008-01-10 14:47:57"}
{"id":186,"bug_id":"1942313","text":"I think this is a bug: I think the caret should stay where it is, and jEdit should either do nothing or print an error message.","class_goldset":["org.gjt.sp.jedit.textarea.DisplayManager"],"file_goldset":["org.gjt.sp.jedit.textarea.DisplayManager"],"creation_date":"2008-04-14 18:08:29","resolution_date":"2008-04-20 23:15:18"}
{"id":188,"bug_id":"1999448","text":"I\nthink it should not expand folds since the fold level\nis not changed.","class_goldset":["org.gjt.sp.jedit.textarea.BufferHandler","org.gjt.sp.jedit.textarea.DisplayManager","org.gjt.sp.jedit.textarea.TextArea"],"file_goldset":["org.gjt.sp.jedit.textarea.BufferHandler","org.gjt.sp.jedit.textarea.DisplayManager","org.gjt.sp.jedit.textarea.TextArea"],"creation_date":"2008-08-23 10:28:24","resolution_date":"2008-08-23 10:28:24"}
{"id":193,"bug_id":"2218621","text":"When I type \"-\" \\(minus\\) in FileBrowser\u0027s Path dropdown and press enter, minus is appended to the path instead of changing path to current buffer.   There is also small inconsistency, because in search and replace dialog to current buffer points empty dropdown, not minus. Maybe in FileBrowser it should as well, but for now neither minus nor empty field points to current directory.","class_goldset":["org.gjt.sp.jedit.MiscUtilities"],"file_goldset":["org.gjt.sp.jedit.MiscUtilities"],"creation_date":"2008-11-03 10:05:46","resolution_date":"2009-05-06 15:09:47"}
{"id":196,"bug_id":"2781716","text":"The line number shouldn\u0027t be highlighted.","class_goldset":["org.gjt.sp.jedit.search.HyperSearchResults.HighlightingTree"],"file_goldset":["org.gjt.sp.jedit.search.HyperSearchResults.HighlightingTree"],"creation_date":"2009-04-26 16:42:52","resolution_date":"2009-04-26 19:47:08"}
{"id":198,"bug_id":"950961","text":"To display the \ncontents of the fold you have to close the fold and open \nit again which then would display the expected text:\n1| //\\{\\{\\{\n2| New text entered\n3| Folding\n4| Test\n5| Case\n6| //\\}\\}\\}\n7| Other text","class_goldset":["org.gjt.sp.jedit.buffer.BufferAdapter","org.gjt.sp.jedit.buffer.BufferChangeListener.Adapter","org.gjt.sp.jedit.buffer.JEditBuffer","org.gjt.sp.jedit.textarea.BufferHandler","org.gjt.sp.jedit.textarea.RangeMap"],"file_goldset":["org.gjt.sp.jedit.buffer.BufferAdapter","org.gjt.sp.jedit.buffer.BufferChangeListener.Adapter","org.gjt.sp.jedit.buffer.JEditBuffer","org.gjt.sp.jedit.textarea.BufferHandler","org.gjt.sp.jedit.textarea.RangeMap"],"creation_date":"2004-05-09 21:37:09","resolution_date":"2007-09-21 19:41:04"}
