{"id":208,"bug_id":"LUCENE-4629","text":"Given the fact that we allow an Iterable on IW we should be prepared for RT exceptions since these documents might be created in a stream fashing rather than already build up.","class_goldset":["org.apache.lucene.index.DocumentsWriterPerThread"],"file_goldset":["org.apache.lucene.index.DocumentsWriterPerThread"],"creation_date":"2012-12-13T22:57:50.000+0000","resolution_date":"2012-12-14T11:26:34.000+0000"}
{"id":212,"bug_id":"LUCENE-4660","text":"Then we wait ... and we are supposed to resume the threads when the merge count drops back to 2, but instead we are only resuming when merge count gets to 1.","class_goldset":["org.apache.lucene.index.ConcurrentMergeScheduler.MergeThread"],"file_goldset":["org.apache.lucene.index.ConcurrentMergeScheduler.MergeThread"],"creation_date":"2013-01-04T14:21:54.000+0000","resolution_date":"2013-01-04T16:13:35.000+0000"}
{"id":213,"bug_id":"LUCENE-4671","text":"Since CharsRef constructor_ is (char[] chars, int offset, int length), Should Be:","class_goldset":["org.apache.lucene.util.TestCharsRef"],"file_goldset":["org.apache.lucene.util.TestCharsRef"],"creation_date":"2013-01-09T18:32:07.000+0000","resolution_date":"2013-01-09T19:54:48.000+0000"}
{"id":214,"bug_id":"LUCENE-4899","text":"The reason is that the current code expects the fragCharSize \u003e matchLength which is not necessarily true if you use phrases or if you have very long terms like URLs or so.","class_goldset":["org.apache.lucene.search.vectorhighlight.BaseFragListBuilder","org.apache.lucene.search.vectorhighlight.FieldPhraseList","org.apache.lucene.search.vectorhighlight.SimpleFragListBuilderTest"],"file_goldset":["org.apache.lucene.search.vectorhighlight.BaseFragListBuilder","org.apache.lucene.search.vectorhighlight.FieldPhraseList","org.apache.lucene.search.vectorhighlight.SimpleFragListBuilderTest"],"creation_date":"2013-04-03T08:54:00.000+0000","resolution_date":"2013-04-05T16:57:00.000+0000"}
