{"id":248,"bug_id":"OPENJPA-2163","text":"The expected behavior is only the listener registered in the em from which the life cycle events are related should be called.","class_goldset":["openjpa-kernel.src.main.java.org.apache.openjpa.conf.OpenJPAConfigurationImpl","openjpa-persistence-jdbc.src.test.java.org.apache.openjpa.persistence.validation.TestValidationMode"],"file_goldset":["openjpa-kernel.src.main.java.org.apache.openjpa.conf.OpenJPAConfigurationImpl","openjpa-persistence-jdbc.src.test.java.org.apache.openjpa.persistence.validation.TestValidationMode"],"creation_date":"2012-03-27T20:56:55.000+0000","resolution_date":"2012-04-01T14:42:17.000+0000"}
{"id":250,"bug_id":"OPENJPA-2197","text":"MethodComparator in AnnotationPersistenceMetaDataParser should also compare parameters. ","class_goldset":["openjpa-persistence-jdbc.src.test.java.org.apache.openjpa.persistence.callbacks.ListenerImpl"],"file_goldset":["openjpa-persistence-jdbc.src.test.java.org.apache.openjpa.persistence.callbacks.ListenerImpl"],"creation_date":"2012-05-16T22:10:22.000+0000","resolution_date":"2012-05-17T07:58:07.000+0000"}
{"id":254,"bug_id":"OPENJPA-2255","text":"and it\u0027s length  should be assigned to the default value 255.       The JoinColumn should be set to the default value 255.","class_goldset":["openjpa-jdbc.src.main.java.org.apache.openjpa.jdbc.meta.MappingInfo"],"file_goldset":["openjpa-jdbc.src.main.java.org.apache.openjpa.jdbc.meta.MappingInfo"],"creation_date":"2012-08-31T01:15:52.000+0000","resolution_date":"2012-09-11T15:16:35.000+0000"}
