{"id":344,"bug_id":"ZOOKEEPER-1619","text":"Allow spaces in URL. Please add a trim to both the port and the hostname parsing.","class_goldset":["src.java.main.org.apache.zookeeper.client.ConnectStringParser"],"file_goldset":["src.java.main.org.apache.zookeeper.client.ConnectStringParser"],"creation_date":"2013-01-11T15:57:16.000+0000","resolution_date":"2013-01-25T06:55:00.000+0000"}
{"id":348,"bug_id":"ZOOKEEPER-1691","text":"Add a flag to disable standalone mode. ","class_goldset":["src.java.main.org.apache.zookeeper.server.PrepRequestProcessor","src.java.main.org.apache.zookeeper.server.quorum.FastLeaderElection","src.java.main.org.apache.zookeeper.server.quorum.FollowerZooKeeperServer","src.java.main.org.apache.zookeeper.server.quorum.LeaderZooKeeperServer","src.java.main.org.apache.zookeeper.server.quorum.QuorumPeer","src.java.main.org.apache.zookeeper.server.quorum.QuorumPeerConfig","src.java.test.org.apache.zookeeper.server.quorum.QuorumPeerTestBase","src.java.test.org.apache.zookeeper.test.StandaloneTest"],"file_goldset":["src.java.main.org.apache.zookeeper.server.PrepRequestProcessor","src.java.main.org.apache.zookeeper.server.quorum.FastLeaderElection","src.java.main.org.apache.zookeeper.server.quorum.FollowerZooKeeperServer","src.java.main.org.apache.zookeeper.server.quorum.LeaderZooKeeperServer","src.java.main.org.apache.zookeeper.server.quorum.QuorumPeer","src.java.main.org.apache.zookeeper.server.quorum.QuorumPeerConfig","src.java.test.org.apache.zookeeper.server.quorum.QuorumPeerTestBase","src.java.test.org.apache.zookeeper.test.StandaloneTest"],"creation_date":"2013-04-15T19:41:40.000+0000","resolution_date":"2014-01-21T04:46:32.000+0000"}
{"id":356,"bug_id":"ZOOKEEPER-1781","text":"In source code,  it maybe be supposed that snapCount must be 2 or more:","class_goldset":["src.java.main.org.apache.zookeeper.server.ZooKeeperServer"],"file_goldset":["src.java.main.org.apache.zookeeper.server.ZooKeeperServer"],"creation_date":"2013-10-04T01:19:27.000+0000","resolution_date":"2013-10-07T23:38:49.000+0000"}
{"id":357,"bug_id":"ZOOKEEPER-1783","text":"Distinguish initial configuration from first established configuration. ","class_goldset":["src.java.main.org.apache.zookeeper.server.quorum.FastLeaderElection","src.java.main.org.apache.zookeeper.server.quorum.Leader","src.java.main.org.apache.zookeeper.server.quorum.QuorumPeer","src.java.test.org.apache.zookeeper.server.quorum.Zab1_0Test"],"file_goldset":["src.java.main.org.apache.zookeeper.server.quorum.FastLeaderElection","src.java.main.org.apache.zookeeper.server.quorum.Leader","src.java.main.org.apache.zookeeper.server.quorum.QuorumPeer","src.java.test.org.apache.zookeeper.server.quorum.Zab1_0Test"],"creation_date":"2013-10-07T18:01:56.000+0000","resolution_date":"2013-11-07T17:07:53.000+0000"}
{"id":358,"bug_id":"ZOOKEEPER-1815","text":"Tolerate incorrectly set system hostname in tests. ","class_goldset":["src.java.test.org.apache.zookeeper.ClientReconnectTest","src.java.test.org.apache.zookeeper.server.quorum.Zab1_0Test","src.java.test.org.apache.zookeeper.test.CnxManagerTest","src.java.test.org.apache.zookeeper.test.FLEBackwardElectionRoundTest","src.java.test.org.apache.zookeeper.test.FLELostMessageTest","src.java.test.org.apache.zookeeper.test.FLENewEpochTest","src.java.test.org.apache.zookeeper.test.FLEPredicateTest","src.java.test.org.apache.zookeeper.test.FLERestartTest","src.java.test.org.apache.zookeeper.test.FLETest","src.java.test.org.apache.zookeeper.test.JMXEnv"],"file_goldset":["src.java.test.org.apache.zookeeper.ClientReconnectTest","src.java.test.org.apache.zookeeper.server.quorum.Zab1_0Test","src.java.test.org.apache.zookeeper.test.CnxManagerTest","src.java.test.org.apache.zookeeper.test.FLEBackwardElectionRoundTest","src.java.test.org.apache.zookeeper.test.FLELostMessageTest","src.java.test.org.apache.zookeeper.test.FLENewEpochTest","src.java.test.org.apache.zookeeper.test.FLEPredicateTest","src.java.test.org.apache.zookeeper.test.FLERestartTest","src.java.test.org.apache.zookeeper.test.FLETest","src.java.test.org.apache.zookeeper.test.JMXEnv"],"creation_date":"2013-11-15T21:14:25.000+0000","resolution_date":"2013-11-19T02:12:39.000+0000"}
{"id":360,"bug_id":"ZOOKEEPER-876","text":"1 the comparison of zxids is done based on a new proposal, instead of the last logged zxid.","class_goldset":["src.java.main.org.apache.zookeeper.server.quorum.QuorumPeer"],"file_goldset":["src.java.main.org.apache.zookeeper.server.quorum.QuorumPeer"],"creation_date":"2010-09-21T13:37:41.000+0000","resolution_date":"2013-07-01T17:28:50.000+0000"}
