{"id":4,"bug_id":"100799","text":"[ErrorHandling] \u0027Unable to create view\u0027 error page should link to error log view. I compiled a plug-in with a view against a 5.0 JRE. When I ran this plugin in a run-time eclipse with a 1.4 VM, startup passed without any error message. When I opened the view, I got a view with an embedded error dialog showing a    Either the view should show the relevant error, or it should contain a link to the Error Log, such that users are aware that other log entries could be relevant for this problem.","file_goldset":["org.eclipse.ui.internal.WorkbenchMessages","org.eclipse.ui.internal.part.StatusPart"],"creation_date":"2005-06-20 08:40:00","resolution_date":"2010-09-15 06:29:00"}
{"id":10,"bug_id":"101434","text":"[Contexts] performance: Slow cursor navigation in Text fields. - open the Find dialog (alternatively: open the preference dialog, or the Team\u003eCreate Patch wizard) - in a text field, enter some text, at least 20 characters - press and hold the ARROW_LEFT / _RIGHT keys Expected: I see the caret move through the entered text","file_goldset":["org.eclipse.ui.internal.contexts.ContextAuthority","org.eclipse.ui.internal.contexts.ContextService","org.eclipse.ui.internal.handlers.HandlerAuthority","org.eclipse.ui.internal.handlers.HandlerService"],"creation_date":"2005-06-23 09:08:00","resolution_date":"2005-09-26 13:45:00"}
{"id":11,"bug_id":"101644","text":"Browse in plugin editor should init with actual value. Click on the \u0027Browse\u0027 button in the Overview page of the plugin editor.  It should better be initialzied with the actual value of the class file","file_goldset":["org.eclipse.pde.internal.ui.editor.plugin.PluginGeneralInfoSection","org.eclipse.pde.internal.ui.editor.plugin.rows.ClassAttributeRow"],"creation_date":"2005-06-24 10:19:00","resolution_date":"2006-08-25 01:03:00"}
{"id":37,"bug_id":"106454","text":"Unbound linked resource causes workspace refresh to start auto-build job. - Create a Java project and add a linked folder to a location that does not exist (e.g. \u0027/xxx\u0027) - Enable Preferences \u003e General \u003e Workspace \u003e Refresh automatically  The build job should not be triggered, since no resource has changed.","file_goldset":["org.eclipse.core.internal.refresh.PollingMonitor"],"creation_date":"2005-08-09 06:45:00","resolution_date":"2005-12-14 15:55:00"}
{"id":41,"bug_id":"106789","text":"Run menu: Folder selector shows files, too. Select \"Run...\" from the Run menu and choose \"Java Application\". When editing the Classpath (\"Classpath\" tab) of a configuration by trying to add a folder (Button \"Advanced\" -\u003e RadioButton \"Add Folders\"), a file chooser pops up, showing not only folders, but normal files, too, which is not very nice. Compare this with the other possible selection with RadioButton \"Add External Folder\", where -- correctly -- only folders can be chosen! So, the \"Add Folders\" file chooser should become such a folder chooser, too.","file_goldset":["org.eclipse.jdt.internal.debug.ui.actions.AddFolderAction"],"creation_date":"2005-08-11 15:57:00","resolution_date":"2006-02-24 12:10:00"}
{"id":47,"bug_id":"108705","text":"[Contributions] errors: ObjectActionContributor should safeguard against misbehaving plugins. If I right-click on a project that is open (which does show the menu) and then try to right-click on a closed project again, the menu now shows up.","file_goldset":["org.eclipse.ui.internal.ObjectPluginAction"],"creation_date":"2005-09-02 11:48:00","resolution_date":"2005-11-02 11:27:00"}
{"id":58,"bug_id":"114565","text":"[Markers] Quick fix computation done in UI thread with no progress. 1) Configure the problems view to be showing several warnings of the same type (say about 100). 2) Ctrl+A to select all problems 3) Right click in problems view, and select \"Quick Fix\"  There should minimally be a busy indicator, and ideally move into a modal context thread to avoid freezing the UI for long periods.","file_goldset":["org.eclipse.ui.views.markers.internal.ActionResolveMarker"],"creation_date":"2005-11-01 11:56:00","resolution_date":"2005-12-13 10:02:00"}
{"id":71,"bug_id":"126938","text":"Cannot import Installed JREs from preference file. Below are the contents of the preferences file I am trying to import. To reproduce, you may need to change the location of the JRE since you probably don\u0027t have it installed in the directory I do.            1. Create a new workspace. 2. Import a preference file. 3. Open the preference window and view the JRE\u0027s  To see one JRE \"jdk1.5.0_04\" and that JRE is configured with the default argument of \"-ea\".","file_goldset":["org.eclipse.jdt.internal.launching.JREPreferenceModifyListener"],"creation_date":"2006-02-08 12:20:00","resolution_date":"2006-03-06 11:09:00"}
{"id":73,"bug_id":"129834","text":"Glitches in feature import wizard. The Reload button should probably be pushed down next to the table viewer.  3. Progress monitor is needed when parsing/reloading features from a new location 4. If you enter a location in the combo box, check the top checkbox and then uncheck it, you lose the location you had entered.","file_goldset":["org.eclipse.pde.internal.ui.PDEUIMessages","org.eclipse.pde.internal.ui.wizards.imports.FeatureImportWizard"],"creation_date":"2006-02-28 14:22:00","resolution_date":"2006-03-01 10:11:00"}
{"id":82,"bug_id":"142881","text":"DEL works on non-editable editor. 1. Open Plug-ins View 2. Double-click on any plug-in with a blue/purple icon (e.g. org.eclipse.core.runtime.compatibility.auth.  3. On the Overview page, select an item in the Execution Environments table.    DEL key should do nothing on such a non-editable model.","file_goldset":["org.eclipse.pde.internal.ui.editor.plugin.ExportPackageSection","org.eclipse.pde.internal.ui.editor.plugin.ExtensionPointsSection","org.eclipse.pde.internal.ui.editor.plugin.ImportPackageSection","org.eclipse.pde.internal.ui.editor.plugin.RequiresSection"],"creation_date":"2006-05-20 00:02:00","resolution_date":"2006-06-22 18:25:00"}
{"id":86,"bug_id":"149604","text":"Amnesia when opening manifest of a JARd plug-in. 1 Go to plug-ins view 2 double-click on any plug-in represented by a blue icon (without children).   4 Turn to a tab other than the first tab. 5 close the editor. 6 repeat #2.  expected behavior: the editor opens on tab from #4.","file_goldset":["org.eclipse.pde.internal.ui.editor.PDEFormEditor"],"creation_date":"2006-07-04 18:17:00","resolution_date":"2006-07-05 11:33:00"}
{"id":90,"bug_id":"157944","text":"JavaAttributeWizard shouldn\u0027t open with errors when passed an empty string. 1. On the overview page of the plugin editor, make sure the Activator field is empty. 2. Click the Activator link.","file_goldset":["org.eclipse.pde.internal.ui.editor.plugin.JavaAttributeWizardPage"],"creation_date":"2006-09-20 01:11:00","resolution_date":"2006-09-20 18:04:00"}
{"id":95,"bug_id":"32553","text":"[Viewers] Closing a project does not remove [+] icon. I just launched I20030220 and imported a couple of existing projects into the workspace, with the [+] icon by each project (denoting contents). I then closed a couple of the projects that I was not looking at, and the [+] icon remained after closing the projects. Of course clicking on this icon resulted in nothing happening, except the [+] disappeared. It would be better if the icon was cleared when the project was closed.","file_goldset":["org.eclipse.ui.model.WorkbenchContentProvider"],"creation_date":"2003-02-22 10:31:00","resolution_date":"2006-02-14 20:22:00"}
{"id":96,"bug_id":"63433","text":"[Progress] [Dialogs] Poor message during project deletion.. 1) delete any project from you workspace.   This should say something like \"Deleting resources...\", \"Deleting project...\" or similar.","file_goldset":["org.eclipse.core.internal.localstore.FileSystemResourceManager"],"creation_date":"2004-05-21 11:31:00","resolution_date":"2005-02-16 13:56:00"}
{"id":112,"bug_id":"76969","text":"Preference change not propegated.. - open the workbench - popup a menu over the perspective switcher and choose Dock On \u003e Left NOTE that the UI does not respond right away (and it should).","file_goldset":["org.eclipse.help.ui.internal.views.HelpView","org.eclipse.ui.internal.UIPreferenceInitializer","org.eclipse.ui.internal.WorkbenchPreferenceInitializer"],"creation_date":"2004-10-25 15:49:00","resolution_date":"2004-10-25 17:20:00"}
{"id":126,"bug_id":"77703","text":"Deselecting Map$Entry/Show As\u003e/Key And Value Deselects Map/Show As\u003e/Map Entries. Should be able to turn off logical structures of Map$Entry while viewing as an array of Map$Entry.","file_goldset":["org.eclipse.debug.internal.ui.views.variables.AvailableLogicalStructuresAction","org.eclipse.debug.internal.ui.views.variables.SelectLogicalStructureAction"],"creation_date":"2004-11-03 12:40:00","resolution_date":"2004-11-03 20:04:00"}
{"id":138,"bug_id":"78315","text":"org.eclipes.team.ui plugin\u0027s startup code forces compare to be loaded. Only when a compare will be done it needs to be loaded and the adapter being registered.  1. add startup() method to CompareUIPlugin 2. put a breakpoint there","file_goldset":["org.eclipse.team.internal.ui.TeamUIPlugin"],"creation_date":"2004-11-10 12:53:00","resolution_date":"2004-12-15 10:19:00"}
{"id":168,"bug_id":"80058","text":"[Wizards] Create folder blocked should avoid locking workspace. - In the Resource perspective, I did a Team/CVS Update on a large Java project and sent it to the background. - I then went into a different project, and tried to create a new directory from the Navigation pane.  Should I not be able to create a new folder at the same time?","file_goldset":["org.eclipse.ui.dialogs.WizardNewFolderMainPage"],"creation_date":"2004-12-02 15:32:00","resolution_date":"2005-02-16 15:11:00"}
{"id":175,"bug_id":"80672","text":"[1.5] Annotation change does not trigger recompilation. Define 2 files:\np/Use.    Build - all is fine Now incrementally change q/Ann. java to:\npackage q;\nimport java.lang.annotation. *;\n@Target(ElementType.METHOD)\npublic @interface Ann {\n}\n \nBuild - still fine though p/Use. java should have got a problem due to disallowed\nlocation for use of annotation @Ann.","file_goldset":["org.eclipse.jdt.internal.compiler.classfmt.ClassFileReader"],"creation_date":"2004-12-10 04:44:00","resolution_date":"2004-12-15 12:33:00"}
{"id":212,"bug_id":"83541","text":"Cannot  find a way to change char value to special character. For character array element I open Change Primitive Value dialog and try to change current value to \\t or \\n. Dialog does not enable OK button either I input \\t, or 0x09 or \\\\u0009 or press tabulation key. On the other hand, Eclipse 2.1.2 accepted \"\\t\" (or it worked OK if I just pressed tabulation) and \\n in this dialog.","file_goldset":["org.eclipse.jdt.internal.debug.ui.actions.JavaPrimitiveValueEditor"],"creation_date":"2005-01-24 10:42:00","resolution_date":"2005-01-31 15:05:00"}
{"id":226,"bug_id":"84546","text":"Escape on empty commit-comment is yes instead of no. When you commit something with an empty commit comment, you\u0027ll get the \nfollowing dialog:    Now, when you press No, you\u0027ll go back to the commit dialog. Pressing Yes \ncommits. If you press ESC, you\u0027d expect the dialog to be canceled (\u003dno), but \nit still commits.","file_goldset":["org.eclipse.team.internal.ccvs.ui.CommitCommentArea"],"creation_date":"2005-02-07 04:31:00","resolution_date":"2005-02-07 14:18:00"}
{"id":239,"bug_id":"84881","text":"[WorkbenchLauncher] Splash screen receives focus after task switch (instead of workspace launcher dialog). If you then switch to another task and switch\nback to eclipse using ALT+Tab (MS Windows), the Splash-Screen receives the focus\nwhile the \"Select a workspace\" dialog stays in front but is inactive.  I\u0027ve not found any workaround to\nthis problem (closing the splash-screen via ALT+F4 removes the task from the\ntask bar, while the dialog stays in front without focus).","file_goldset":["org.eclipse.ui.internal.Workbench","org.eclipse.ui.internal.ide.ChooseWorkspaceDialog","org.eclipse.ui.internal.ide.IDEApplication"],"creation_date":"2005-02-10 07:19:00","resolution_date":"2005-09-20 13:18:00"}
{"id":244,"bug_id":"85277","text":"\u0027Replace With \u003e Latest from HEAD\u0027 does not restore deleted CUs in a package. In a build where bug 85267 is fixed (JDT/UI from HEAD or I20050215-1600), delete\na compilation unit (*. java file) from a package in a java project. Then choose\n\u0027Replace With \u003e Latest from HEAD\u0027 from the package\u0027s context menu. Expected: The deleted compilation unit is restored from HEAD.","file_goldset":["org.eclipse.team.internal.ccvs.ui.operations.ReplaceOperation"],"creation_date":"2005-02-15 10:53:00","resolution_date":"2005-02-15 11:42:00"}
{"id":249,"bug_id":"85397","text":"[1.5][enum] erroneous strictfp keyword on enum type produces error on constructor_. - have this code:    expected: strictfp is not allowed on the enum type actual: no error is reported - alternatively, have this code:      expected: the wrong modifier is reported with the type name \u0027Natural\u0027 actual: the error is shown for the constructor_","file_goldset":["org.eclipse.jdt.internal.compiler.lookup.MethodScope","org.eclipse.jdt.internal.compiler.lookup.SyntheticMethodBinding","org.eclipse.jdt.internal.ui.typehierarchy.TypeHierarchyViewPart"],"creation_date":"2005-02-16 08:20:00","resolution_date":"2005-03-30 22:56:00"}
{"id":251,"bug_id":"85452","text":"[IDE] (regression) Backdrop missing when all perspectives closed. - close all perspectives  - it should have a backdrop with text and button explaining how to open a perspective","file_goldset":["org.eclipse.jdt.internal.ui.JavaUIMessages","org.eclipse.jdt.internal.ui.dialogs.PackageSelectionDialog","org.eclipse.ui.internal.ide.IDEWorkbenchAdvisor","org.eclipse.ui.internal.ide.IDEWorkbenchWindowAdvisor"],"creation_date":"2005-02-16 11:47:00","resolution_date":"2005-02-17 21:40:00"}
{"id":252,"bug_id":"85519","text":"[implementation] saveAs existing file fails - content replaced with original content. - have pkg/Test1.java open - have pkg/Test2.java open - dirty Test1.java - save Test1.java as Test2.java expected: content of Test2 gets replaced with data in Test1 actual: a second editor with Test2.java is opened, Test1.java is closed, the unsaved changes in Test1.java are lost -\u003e lost data.","file_goldset":["org.eclipse.jdt.internal.ui.javaeditor.CompilationUnitDocumentProvider","org.eclipse.ui.editors.text.TextFileDocumentProvider"],"creation_date":"2005-02-16 14:10:00","resolution_date":"2005-04-01 04:47:00"}
{"id":255,"bug_id":"85672","text":"[projection] Unfolding a folded region with no line delimiter on the last line selects too much. Have this code:    Put the caret right after the closing brace and fold the region.  Put the caret on the last line and unfold the type. expected: caret is right after the closing brace actual: everything from after the *opening* brace is selected","file_goldset":["org.eclipse.jface.text.source.projection.ProjectionViewer"],"creation_date":"2005-02-17 05:53:00","resolution_date":"2005-03-24 11:31:00"}
{"id":261,"bug_id":"86000","text":"ImageLoader Save - produces invalid JPEG images. Simple test case below loads\n PNG Files and Saves them as JPEG. Many files were tested and the majority \n did produced the proper JPG images as expected.","file_goldset":["org.eclipse.swt.internal.image.JPEGFileFormat","org.eclipse.ui.internal.WorkbenchIntroManager"],"creation_date":"2005-02-21 14:47:00","resolution_date":"2005-02-23 18:02:00"}
{"id":264,"bug_id":"86268","text":"[About] About dialog plug-ins and features tables do not meet accessibility requirements. 1. Choose Help \u003e About Eclipse Platform 2. Choose Feature Details or Plug-in Details   In other views that use this table, the problem also exists, however, properties for cell contents can be achieved using the keyboard and, in the resulting properties dialog, the full cell contents can be read by the screen reader.","file_goldset":["org.eclipse.ui.internal.WorkbenchMessages","org.eclipse.ui.internal.dialogs.AboutFeaturesDialog","org.eclipse.ui.internal.dialogs.AboutPluginsDialog"],"creation_date":"2005-02-23 10:10:00","resolution_date":"2008-04-29 13:11:00"}
{"id":288,"bug_id":"87683","text":"[Preferences] Preferences hover should show unshortened text. On the menu bar from the main Workbench panel, click Window \u003e Preferences \u003e Java\n\u003e Editor Select Hovers tab in the right panel Enable all the text hovers, an error message will display.","file_goldset":["org.eclipse.jface.dialogs.DialogMessageArea"],"creation_date":"2005-03-10 13:36:00","resolution_date":"2005-09-20 14:14:00"}
{"id":311,"bug_id":"89621","text":"[code assist] the caret position is wrong after code assist. Select addWindowListener in the list of proposal.   I would expect:","file_goldset":["org.eclipse.jdt.internal.ui.text.java.ExperimentalResultCollector","org.eclipse.jdt.internal.ui.text.java.GenericJavaTypeProposal","org.eclipse.jdt.ui.text.java.CompletionProposalCollector"],"creation_date":"2005-03-30 12:41:00","resolution_date":"2005-04-01 04:39:00"}
{"id":316,"bug_id":"89814","text":"Replace With \u003e Another Branch or Version: tree allows multi-selection. Replace With \u003e Another Branch or Version: The tree allows multi-selection, but the operation only considers one of the selected items. The tree should be in single-selection mode, as the (filtered) table already is.","file_goldset":["org.eclipse.team.internal.ccvs.ui.tags.TagSelectionArea"],"creation_date":"2005-03-31 07:29:00","resolution_date":"2005-05-10 10:36:00"}
{"id":328,"bug_id":"90600","text":"[model] CreateElementInCUOperation.apply: should use project options for rewriter. When executing the rewriter, (rewriter.rewriteAST(document, null)) CreateElementInCUOperation.apply should pass in the current projects options instead of null","file_goldset":["org.eclipse.jdt.internal.core.CreateElementInCUOperation","org.eclipse.jface.text.source.OverviewRuler","org.eclipse.jface.text.source.SourceViewer"],"creation_date":"2005-04-07 09:32:00","resolution_date":"2006-10-30 03:32:00"}
{"id":329,"bug_id":"90714","text":"When no features are found, the second install wizard is still shown. The second install wizard shows empty results after an unsuccessful search. This is an overkill, as a simple message dialog should be presented to the user saying no results have been found.","file_goldset":["org.eclipse.update.internal.ui.wizards.InstallWizardOperation","org.eclipse.update.internal.ui.wizards.ReviewPage"],"creation_date":"2005-04-07 16:07:00","resolution_date":"2005-04-07 19:56:00"}
{"id":334,"bug_id":"90935","text":"Feature details dialog resize is strange. open the feature details dialog and notice there is a large area of grey at towards the bottom. Resize vertically and notice that the feature list gets smaller but the large grey area remains the same. Suggest that the grey area be eliminated completely. Failing that, on resize it should be the first to go.","file_goldset":["org.eclipse.ui.internal.dialogs.AboutFeaturesDialog"],"creation_date":"2005-04-10 14:03:00","resolution_date":"2005-05-26 15:45:00"}
{"id":345,"bug_id":"92063","text":"Editor closed while replacing corresponding file with HEAD contents. In order to do so, I selected unit in package explorer, and did \"replace with HEAD\" action.  Expectation: editor should have refreshed instead","file_goldset":["org.eclipse.team.internal.ccvs.ui.operations.ReplaceOperation"],"creation_date":"2005-04-20 09:30:00","resolution_date":"2005-05-10 10:56:00"}
{"id":360,"bug_id":"93119","text":"code assist: proposals for wildcard types. - have this code (caret at |):     - invoke code assist  \u003c expected: there are exactly two proposals: \u0027extends\u0027 and \u0027super\u0027 - alternatively, press \u0027e\u0027 and invoke code assist \u003e actual: dozens of type proposals are proposed (and two template proposals, but\nthat is not a jdt-core problem)\n\u003c expected: only \u0027extends\u0027 is proposed.","file_goldset":["org.eclipse.jdt.internal.codeassist.complete.CompletionParser"],"creation_date":"2005-04-28 10:10:00","resolution_date":"2005-05-27 09:06:00"}
{"id":365,"bug_id":"93584","text":"Fetching Revisions from Revision Compare done in UI thread. If you perform a Get Sticky Revision from a Compare Revisions editor, the fetch is performed in the UI thread. In the least, it should be done in a modal context.","file_goldset":["org.eclipse.team.internal.ccvs.ui.CVSCompareRevisionsInput"],"creation_date":"2005-05-03 15:23:00","resolution_date":"2005-05-10 11:01:00"}
{"id":396,"bug_id":"94852","text":"[ViewMgmt] (regression) Typing space should activate view menu button. Give focus to a view menu button. For example, in the Package Explorer view, \ngive focus to the tree, and type shift+tab, shift+tab. The view menu (little \ndown-pointing triangle) button should have focus (it looks a bit raised).   It should drop down the view menu. I realize that pressing Ctrl+F10 does drop down the menu, therefore typing \nspace is not technically needed for accessibility, however it is really \nstrange that here is a button (in a toolbar) that does nothing when \"pressed\" \nusing the keyboard space key. For consistency, and to do the expected thing \nwhen used with a screen reader, we should allow space key to work here. (Note \nthat all of our other toolbar buttons do activate when they have focus and \nspace is pressed - including the very similar \"Open Perspective\" menu toolbar \nbutton).","file_goldset":["org.eclipse.ui.internal.presentations.defaultpresentation.DefaultTabFolder"],"creation_date":"2005-05-11 17:17:00","resolution_date":"2005-06-10 13:21:00"}
{"id":397,"bug_id":"94879","text":"[PropertiesDialog] [Preferences] Esc does not dismiss properties or preferences dialog. - select a file in the Navigator and choose Properties - after looking at the properties, press Esc to dismiss the dialog - instead of dismissing the dialog, it clears the filter field    Esc is not normally used to clear a field. Esc within a dialog should dismiss it. Suggest not intercepting Esc, and just allowing backspace to clear the field (it\u0027s selected by default anyway).","file_goldset":["org.eclipse.ui.internal.dialogs.FilteredComboTree"],"creation_date":"2005-05-11 22:13:00","resolution_date":"2005-05-27 12:55:00"}
{"id":401,"bug_id":"95096","text":"[5.0][content assist] Content assist popup disappears while completing the statically imported method name. - Create a new Class \"Foo\" - Type \"import static java.lang.Math.\" - Press Ctrl+Space - Type \"a\" -\u003e Instead of constraining the proposals to all members with prefix a, the popup closes","file_goldset":["org.eclipse.jdt.internal.ui.text.java.JavaMethodCompletionProposal","org.eclipse.jdt.internal.ui.text.java.LazyJavaCompletionProposal"],"creation_date":"2005-05-13 06:16:00","resolution_date":"2005-09-02 11:38:00"}
{"id":427,"bug_id":"96489","text":"[Presentations] (regression) Standalone view without title has no border. - change the browser example\u0027s BrowserPerspectiveFactory to have the following instead of the regular addView layout.addStandaloneView(BrowserApp.BROWSER_VIEW_ID, false,  - run the example, and show the history view   Standalone views should still have their border, just not the title or min/max buttons if showTitle\u003d\u003dfalse.","file_goldset":["org.eclipse.ui.internal.presentations.defaultpresentation.EmptyTabFolder","org.eclipse.ui.presentations.WorkbenchPresentationFactory"],"creation_date":"2005-05-24 14:40:00","resolution_date":"2005-06-10 10:51:00"}
{"id":434,"bug_id":"97018","text":"PDE generates to strict access restrictions. - download EMF using the update manager (don\u0027t know if this is necessary) - observe: the install plug-in has a manifest file which only contains one line:  - it also contains a plugin.xml file which exports the following entries:          Since having a one liner manifest file seems to be a legal setup PDE should honor the access restrictions from the plugin.xml file and not generate a ALL forbidden rule only.","file_goldset":["org.eclipse.pde.internal.core.ClasspathUtilCore","org.eclipse.pde.internal.core.MinimalState"],"creation_date":"2005-05-27 11:47:00","resolution_date":"2005-05-27 12:24:00"}
{"id":435,"bug_id":"97085","text":"(3.1M7) Static import code assist shouldn\u0027t propose \u003cpackage\u003e.*;. With J2SE 5.0 compliance enabled, type the following into a new Java file:    Instead, it should propose plain subpackages (\"java.lang\" instead of \"java.lang.","file_goldset":["org.eclipse.jdt.internal.codeassist.CompletionEngine"],"creation_date":"2005-05-27 17:10:00","resolution_date":"2006-04-27 22:48:00"}
{"id":440,"bug_id":"97363","text":"Export deployable plug-ins always JARs. - org.eclipse.sdk loaded from CVS - File \u003e Export \u003e Deployable plug-ins and fragments - Ensure \"Package plug-ins as individual JAR archives\" is unchecked - pick a dest dir, e.g. d:\\temp\\export   Should export as unjar\u0027ed plugin directories if \"Package plug-ins as individual JAR archives\" is unchecked.","file_goldset":["org.eclipse.pde.internal.core.util.CoreUtility"],"creation_date":"2005-05-30 17:14:00","resolution_date":"2005-06-07 01:03:00"}
{"id":446,"bug_id":"97722","text":"Pref Page Ant/Runtime/Tasks/Add Task dialog problems. The name text and location combo should be left aligned.","file_goldset":["org.eclipse.ant.internal.ui.preferences.AddCustomDialog"],"creation_date":"2005-05-31 16:41:00","resolution_date":"2005-06-16 17:26:00"}
{"id":447,"bug_id":"97726","text":"Carat location should be updated when user types in Console.. The carat location should be updated whenever a user enters text in a console.","file_goldset":["org.eclipse.ui.internal.console.IOConsoleViewer"],"creation_date":"2005-05-31 16:47:00","resolution_date":"2005-06-20 09:42:00"}
{"id":449,"bug_id":"97792","text":"Misleading message in error log view for optional plugins. When a plugin has an optional plugin, (ie see attached sample from o.e.jem.util) with an optional\u003dtrue (ie non OSGI manifest), the pde runtime error log view shows a warning but the message says:  It should instead say:","file_goldset":["org.eclipse.pde.internal.core.MinimalState"],"creation_date":"2005-06-01 02:39:00","resolution_date":"2005-06-05 01:07:00"}
{"id":463,"bug_id":"98740","text":"Container attempts to refresh children on project that is not open. Take an existing simple project on disk and import the project into the workspace by performing a simple create with code like:           Do not open the project with the project.open() API.  Now create a project either by API or UI and open it. Or simply switch to the Java perspective.         Our particular use case is that we are loading existing Java projects on disk by performing a create, but never an open. On the next UI gesture, we get refresh infinite loops, one for each closed project.  The end user will open them by using the open project UI when needed.","file_goldset":["org.eclipse.core.internal.resources.Container","org.eclipse.core.internal.resources.Resource"],"creation_date":"2005-06-07 13:25:00","resolution_date":"2005-06-21 09:55:00"}
{"id":467,"bug_id":"99235","text":"Fully qualified paths in antfile attribute do not open file. Ctrl clicking on the antfile attribute should open the external antBuildfile.xml","file_goldset":["org.eclipse.ant.internal.ui.editor.AntEditor","org.eclipse.ant.internal.ui.model.AntAntNode"],"creation_date":"2005-06-09 14:51:00","resolution_date":"2005-06-09 17:26:00"}
{"id":469,"bug_id":"99282","text":"[1.5][compiler] Enum / Switch method is not initialized in a thread safe way. For example, the following program should print \"1999\" 40 times\n(once from each thread).","file_goldset":["org.eclipse.jdt.internal.compiler.codegen.CodeStream","org.eclipse.jdt.internal.compiler.lookup.SourceTypeBinding"],"creation_date":"2005-06-09 19:46:00","resolution_date":"2005-06-16 13:55:00"}
{"id":475,"bug_id":"99631","text":"[assist][5.0] Unnecessary proposals on annotation completion. @B\u003cCtrl+Space\u003e\npublic class Test {}  -\u003e A list of annotations starting with \u0027B\u0027 would be more helpful","file_goldset":["org.eclipse.jdt.internal.codeassist.CompletionEngine","org.eclipse.jdt.internal.corext.refactoring.reorg.JavaMoveProcessor"],"creation_date":"2005-06-13 09:21:00","resolution_date":"2007-08-03 05:41:00"}
