{"key":"DATAMONGO-1436","title":"CustomConversions complains about built-in converters","description":"When registering any custom converters for MongoDB, the CustomConversions constructor adds a whole slew of hard-coded converters to the list. These include NumberToNumberConverterFactory, which apparently converts java.lang.Number-\u003ejava.lang.Number and causes warnings to be logged.","creation_date":"2016-05-24T02:53:21.000-05:00","resolution_date":"2016-05-24T12:06:13.000-05:00","fixed_files":["org.springframework.data.mongodb.core.convert.MongoConvertersUnitTests","org.springframework.data.mongodb.core.convert.MongoConverters"]}
{"key":"DATAMONGO-1416","title":"Standard bootstrap issues warning in converter registration","description":"I just upgraded to 1.9.1 from 1.8.4 and keep getting these warnings. \n\n\n\n\n\n\norg.springframework.data.mongodb.core.convert.CustomConversions:229 - Registering converter from class java.lang.Number to class java.lang.Number as writing converter although it doesn\u0027t convert to a Mongo supported type! You might wanna check you annotation setup at the converter implementation\n\n\n\n\n\n\n I have NO custom converters configured.  Not sure where this is coming from or how to fix.","creation_date":"2016-04-10T15:43:11.000-05:00","resolution_date":"2016-05-24T16:25:27.000-05:00","fixed_files":["org.springframework.data.mongodb.core.convert.MongoConvertersUnitTests","org.springframework.data.mongodb.core.convert.MongoConverters"]}
{"key":"DATAMONGO-1438","title":"I get a warning in my logs since switched to Spring Data MongoDB Hopper-SR1 Release Train in Spring Boot 1.3.5","description":"When I start my Spring Boot 1.3.5 application with no custom conversions and with Spring Data MongoDB Release Train Hopper-SR1 I get following warning in my logs:\n\n\n\n\n\n\nRegistering converter from class java.lang.Number to class java.lang.Number as writing converter although it doesn\u0027t convert to a Mongo supported type! You might wanna check you annotation setup at the converter implementation.\n\n\n\n\n\n\nWith the in Spring Boot 1.3.5 integrated version the warning is not exists..\nI have alle my Domain classes they are saved in MongoDB annotated with @Document (see DATAMONGO-1413)","creation_date":"2016-05-26T14:01:14.000-05:00","resolution_date":"2016-05-26T14:03:47.000-05:00","fixed_files":["org.springframework.data.mongodb.core.convert.MongoConvertersUnitTests","org.springframework.data.mongodb.core.convert.MongoConverters"]}
