{"codeSnippets": [], "creation_date": "2015-06-19T03:02:33.000-05:00", "description": "current spring cloud starter amqp term refer spring amqp declar rabbitlisten rabbitlisten rabbit listen bind queuebind queue bind valu queue autodelet auto delet exchang exchang type fanout valu mytest broadcast autodelet auto delet key processbroadcast process broadcast string data error bind creat exchang type bind work edit work omit key follow debug logout stacktrac debug org springframework amqp rabbit core rabbitadmin rabbit admin initi declar info org springframework amqp rabbit core rabbitadmin rabbit admin auto declar non durabl auto delet exchang mytest broadcast durabl auto delet delet broker shut redeclar close reopen connect info org springframework amqp rabbit core rabbitadmin rabbit admin auto declar non durabl auto delet queue 4aab a0ff durabl auto delet redeclar broker stop restart connect factori aliv messag lost debug rabbit connect cachingconnectionfactori cach connect factori creat cach rabbit channel amqchannel amq channel amqp stinger debug springframework amqp rabbit core rabbittempl rabbit templat execut callback rabbitmq rabbit channel cach rabbit channel amqchannel amq channel amqp stinger debug org springframework amqp rabbit core rabbitadmin rabbit admin declar exchang mytest broadcast debug org springframework amqp rabbit core rabbitadmin rabbit admin declar queue 4aab a0ff debug org springframework amqp rabbit core rabbitadmin rabbit admin bind destin 4aab a0ff queue exchang mytest broadcast rout key debug listen simplemessagelistenercontain simpl messag listen contain recov consum debug listen simplemessagelistenercontain simpl messag listen contain start rabbit listen contain debug amqp rabbit listen blockingqueueconsum block queue consum start consum consum tag channel acknowledgemod acknowledg mode auto local queue size debug amqp rabbit listen blockingqueueconsum block queue consum start queue 4aab a0ff tag amq ctag gai8uo2q0syyjdbsopntla gai8 syyj sop consum tag amq ctag gai8uo2q0syyjdbsopntla gai8 syyj sop 4aab a0ff channel cach rabbit channel amqchannel amq channel amqp stinger acknowledgemod acknowledg mode auto local queue size debug amqp rabbit listen blockingqueueconsum block queue consum consumeok consum consum tag amq ctag gai8uo2q0syyjdbsopntla gai8 syyj sop 4aab a0ff channel cach rabbit channel amqchannel amq channel amqp stinger acknowledgemod acknowledg mode auto local queue size debug amqp rabbit listen blockingqueueconsum block queue consum retriev deliveri consum tag amq ctag gai8uo2q0syyjdbsopntla gai8 syyj sop 4aab a0ff channel cach rabbit channel amqchannel amq channel amqp stinger acknowledgemod acknowledg mode auto local queue size info mytest server server start server second jvm run debug amqp rabbit listen blockingqueueconsum block queue consum retriev deliveri consum tag amq ctag gai8uo2q0syyjdbsopntla gai8 syyj sop 4aab a0ff channel cach rabbit channel amqchannel amq channel amqp stinger acknowledgemod acknowledg mode auto local queue size debug amqp rabbit listen blockingqueueconsum block queue consum retriev deliveri consum tag amq ctag gai8uo2q0syyjdbsopntla gai8 syyj sop 4aab a0ff channel cach rabbit channel amqchannel amq channel amqp stinger acknowledgemod acknowledg mode auto local queue size debug amqp rabbit listen blockingqueueconsum block queue consum retriev deliveri consum tag amq ctag gai8uo2q0syyjdbsopntla gai8 syyj sop 4aab a0ff channel cach rabbit channel amqchannel amq channel amqp stinger acknowledgemod acknowledg mode auto local queue size debug amqp rabbit listen blockingqueueconsum block queue consum retriev deliveri consum tag amq ctag gai8uo2q0syyjdbsopntla gai8 syyj sop 4aab a0ff channel cach rabbit channel amqchannel amq channel amqp stinger acknowledgemod acknowledg mode auto local queue size debug amqp rabbit listen blockingqueueconsum block queue consum retriev deliveri consum tag amq ctag gai8uo2q0syyjdbsopntla gai8 syyj sop 4aab a0ff channel cach rabbit channel amqchannel amq channel amqp stinger acknowledgemod acknowledg mode auto local queue size warn listen simplemessagelistenercontain simpl messag listen contain consum rais process restart connect factori support org springframework amqp uncategorizedamqpexcept uncategor amqp java lang illegalstateexcept illeg state invalid configur routingkey rout key non org springframework amqp rabbit support rabbitexceptiontransl rabbit translat convertrabbitaccessexcept convert rabbit access rabbitexceptiontransl rabbit translat java spring rabbit jar org springframework amqp rabbit connect rabbitaccessor rabbit accessor convertrabbitaccessexcept convert rabbit access rabbitaccessor rabbit accessor java spring rabbit jar org springframework amqp rabbit core rabbittempl rabbit templat doexecut execut rabbittempl rabbit templat java spring rabbit jar org springframework amqp rabbit core rabbittempl rabbit templat execut rabbittempl rabbit templat java spring rabbit jar org springframework amqp rabbit core rabbittempl rabbit templat execut rabbittempl rabbit templat java spring rabbit jar org springframework amqp rabbit core rabbitadmin rabbit admin initi rabbitadmin rabbit admin java spring rabbit jar org springframework amqp rabbit core rabbitadmin rabbit admin oncreat creat rabbitadmin rabbit admin java spring rabbit jar org springframework amqp rabbit connect compositeconnectionlisten composit connect listen oncreat creat compositeconnectionlisten composit connect listen java spring rabbit jar org springframework amqp rabbit connect cachingconnectionfactori cach connect factori createconnect creat connect cachingconnectionfactori cach connect factori java spring rabbit jar org springframework amqp rabbit connect connectionfactoryutil connect factori util createconnect creat connect connectionfactoryutil connect factori util java spring rabbit jar org springframework amqp rabbit connect connectionfactoryutil connect factori util dogettransactionalresourcehold transact resourc holder connectionfactoryutil connect factori util java spring rabbit jar org springframework amqp rabbit connect connectionfactoryutil connect factori util gettransactionalresourcehold transact resourc holder connectionfactoryutil connect factori util java spring rabbit jar org springframework amqp rabbit listen blockingqueueconsum block queue consum start blockingqueueconsum block queue consum java spring rabbit jar org springframework amqp rabbit listen simplemessagelistenercontain simpl messag listen contain asyncmessageprocessingconsum async messag process consum run simplemessagelistenercontain simpl messag listen contain java spring rabbit jar java lang thread run thread java caus java lang illegalstateexcept illeg state invalid configur routingkey rout key non com rabbitmq client impl amqimpl amq impl queue bind init amqimpl amq impl java amqp client jar com rabbitmq client amqp queue bind builder build amqp java amqp client jar com rabbitmq client impl channeln channel queuebind queue bind channeln channel java amqp client jar com rabbitmq client impl channeln channel queuebind queue bind channeln channel java amqp client jar sun reflect nativemethodaccessorimpl method accessor impl invoke0 method sun reflect nativemethodaccessorimpl method accessor impl invok nativemethodaccessorimpl method accessor impl java sun reflect delegatingmethodaccessorimpl deleg method accessor impl invok delegatingmethodaccessorimpl deleg method accessor impl java java lang reflect method invok method java org springframework amqp rabbit connect cachingconnectionfactori cach connect factori cachedchannelinvocationhandl cach channel invoc handler invok cachingconnectionfactori cach connect factori java spring rabbit jar com sun proxi proxy0 queuebind queue bind unknown sourc org springframework amqp rabbit core rabbitadmin rabbit admin declarebind declar bind rabbitadmin rabbit admin java spring rabbit jar org springframework amqp rabbit core rabbitadmin rabbit admin access rabbitadmin rabbit admin java spring rabbit jar org springframework amqp rabbit core rabbitadmin rabbit admin doinrabbit rabbit rabbitadmin rabbit admin java spring rabbit jar org springframework amqp rabbit core rabbittempl rabbit templat doexecut execut rabbittempl rabbit templat java spring rabbit jar common frame omit info listen simplemessagelistenercontain simpl messag listen contain restart consum tag channel acknowledgemod acknowledg mode auto local queue size debug amqp rabbit listen blockingqueueconsum block queue consum close rabbit channel debug springframework amqp rabbit core rabbittempl rabbit templat execut callback rabbitmq rabbit channel cach rabbit channel amqchannel amq channel amqp stinger debug springframework amqp rabbit core rabbittempl rabbit templat publish messag exchang error routingkey rout key org springframework amqp rabbit listen simplemessagelistenercontain simpl messag listen contain warn debug amqp rabbit listen blockingqueueconsum block queue consum start consum consum tag channel acknowledgemod acknowledg mode auto local queue size debug rabbit connect cachingconnectionfactori cach connect factori creat cach rabbit channel amqchannel amq channel amqp stinger debug rabbit connect cachingconnectionfactori cach connect factori channel shutdown channel error protocol method method channel close repli code repli text found queue vhost method debug rabbit connect cachingconnectionfactori cach connect factori detect close channel initi warn amqp rabbit listen blockingqueueconsum block queue consum fail declar queue debug springframework amqp rabbit core rabbittempl rabbit templat execut callback rabbitmq rabbit channel cach rabbit channel amqchannel amq channel amqp stinger debug springframework amqp rabbit core rabbittempl rabbit templat publish messag exchang error routingkey rout key org springframework amqp rabbit listen blockingqueueconsum block queue consum warn warn amqp rabbit listen blockingqueueconsum block queue consum queue declar fail retri left org springframework amqp rabbit listen blockingqueueconsum block queue consum declarationexcept declar fail declar queue org springframework amqp rabbit listen blockingqueueconsum block queue consum attemptpassivedeclar attempt passiv declar blockingqueueconsum block queue consum java spring rabbit jar org springframework amqp rabbit listen blockingqueueconsum block queue consum start blockingqueueconsum block queue consum java spring rabbit jar org springframework amqp rabbit listen simplemessagelistenercontain simpl messag listen contain asyncmessageprocessingconsum async messag process consum run simplemessagelistenercontain simpl messag listen contain java spring rabbit jar java lang thread run thread java caus java ioexcept com rabbitmq client impl amqchannel amq channel wrap amqchannel amq channel java amqp client jar com rabbitmq client impl amqchannel amq channel wrap amqchannel amq channel java amqp client jar com rabbitmq client impl amqchannel amq channel exnwrappingrpc exn wrap rpc amqchannel amq channel java amqp client jar com rabbitmq client impl channeln channel queuedeclarepass queue declar passiv channeln channel java amqp client jar com rabbitmq client impl channeln channel queuedeclarepass queue declar passiv channeln channel java amqp client jar sun reflect nativemethodaccessorimpl method accessor impl invoke0 method sun reflect nativemethodaccessorimpl method accessor impl invok nativemethodaccessorimpl method accessor impl java sun reflect delegatingmethodaccessorimpl deleg method accessor impl invok delegatingmethodaccessorimpl deleg method accessor impl java java lang reflect method invok method java org springframework amqp rabbit connect cachingconnectionfactori cach connect factori cachedchannelinvocationhandl cach channel invoc handler invok cachingconnectionfactori cach connect factori java spring rabbit jar com sun proxi proxy0 queuedeclarepass queue declar passiv unknown sourc org springframework amqp rabbit listen blockingqueueconsum block queue consum attemptpassivedeclar attempt passiv declar blockingqueueconsum block queue consum java spring rabbit jar common frame omit caus com rabbitmq client shutdownsignalexcept shutdown signal channel error protocol method method channel close repli code repli text found queue vhost method com rabbitmq util valueorexcept valu getvalu valu valueorexcept valu java amqp client jar com rabbitmq util blockingvalueorexcept block valu uninterruptiblegetvalu uninterrupt valu blockingvalueorexcept block valu java amqp client jar com rabbitmq client impl amqchannel amq channel blockingrpccontinu block rpc continu getrepli repli amqchannel amq channel java amqp client jar com rabbitmq client impl amqchannel amq channel privaterpc rpc amqchannel amq channel java amqp client jar com rabbitmq client impl amqchannel amq channel exnwrappingrpc exn wrap rpc amqchannel amq channel java amqp client jar common frame omit caus com rabbitmq client shutdownsignalexcept shutdown signal channel error protocol method method channel close repli code repli text found queue vhost method com rabbitmq client impl channeln channel asyncshutdown async shutdown channeln channel java amqp client jar com rabbitmq client impl channeln channel processasync process async channeln channel java amqp client jar com rabbitmq client impl amqchannel amq channel handlecompleteinboundcommand handl complet inbound command amqchannel amq channel java amqp client jar com rabbitmq client impl amqchannel amq channel handlefram handl frame amqchannel amq channel java amqp client jar com rabbitmq client impl amqconnect amq connect mainloop main loop run amqconnect amq connect java amqp client jar common frame omit debug springframework amqp rabbit core rabbittempl rabbit templat execut callback rabbitmq rabbit channel cach rabbit channel amqchannel amq channel amqp stinger debug springframework amqp rabbit core rabbittempl rabbit templat publish messag exchang error routingkey rout key org springframework amqp rabbit listen blockingqueueconsum block queue consum warn debug amqp rabbit listen blockingqueueconsum block queue consum retriev deliveri consum tag amq ctag gai8uo2q0syyjdbsopntla gai8 syyj sop 4aab a0ff channel cach rabbit channel amqchannel amq channel amqp stinger acknowledgemod acknowledg mode auto local queue size debug amqp rabbit listen blockingqueueconsum block queue consum retriev deliveri consum tag amq ctag gai8uo2q0syyjdbsopntla gai8 syyj sop 4aab a0ff channel cach rabbit channel amqchannel amq channel amqp stinger acknowledgemod acknowledg mode auto local queue size debug amqp rabbit listen blockingqueueconsum block queue consum retriev deliveri consum tag amq ctag gai8uo2q0syyjdbsopntla gai8 syyj sop 4aab a0ff channel cach rabbit channel amqchannel amq channel amqp stinger acknowledgemod acknowledg mode auto local queue size debug amqp rabbit listen blockingqueueconsum block queue consum retriev deliveri consum tag amq ctag gai8uo2q0syyjdbsopntla gai8 syyj sop 4aab a0ff channel cach rabbit channel amqchannel amq channel amqp stinger acknowledgemod acknowledg mode auto local queue size debug amqp rabbit listen blockingqueueconsum block queue consum retriev deliveri consum tag amq ctag gai8uo2q0syyjdbsopntla gai8 syyj sop 4aab a0ff channel cach rabbit channel amqchannel amq channel amqp stinger acknowledgemod acknowledg mode auto local queue size debug rabbit connect cachingconnectionfactori cach connect factori channel shutdown channel error protocol method method channel close repli code repli text found queue vhost method debug rabbit connect cachingconnectionfactori cach connect factori detect close channel initi warn amqp rabbit listen blockingqueueconsum block queue consum fail declar queue debug springframework amqp rabbit core rabbittempl rabbit templat execut callback rabbitmq rabbit channel cach rabbit channel amqchannel amq channel amqp stinger debug springframework amqp rabbit core rabbittempl rabbit templat publish messag exchang error routingkey rout key org springframework amqp rabbit listen blockingqueueconsum block queue consum warn warn amqp rabbit listen blockingqueueconsum block queue consum queue declar fail retri left org springframework amqp rabbit listen blockingqueueconsum block queue consum declarationexcept declar fail declar queue org springframework amqp rabbit listen blockingqueueconsum block queue consum attemptpassivedeclar attempt passiv declar blockingqueueconsum block queue consum java spring rabbit jar org springframework amqp rabbit listen blockingqueueconsum block queue consum start blockingqueueconsum block queue consum java spring rabbit jar org springframework amqp rabbit listen simplemessagelistenercontain simpl messag listen contain asyncmessageprocessingconsum async messag process consum run simplemessagelistenercontain simpl messag listen contain java spring rabbit jar java lang thread run thread java caus java ioexcept com rabbitmq client impl amqchannel amq channel wrap amqchannel amq channel java amqp client jar com rabbitmq client impl amqchannel amq channel wrap amqchannel amq channel java amqp client jar com rabbitmq client impl amqchannel amq channel exnwrappingrpc exn wrap rpc amqchannel amq channel java amqp client jar com rabbitmq client impl channeln channel queuedeclarepass queue declar passiv channeln channel java amqp client jar com rabbitmq client impl channeln channel queuedeclarepass queue declar passiv channeln channel java amqp client jar sun reflect nativemethodaccessorimpl method accessor impl invoke0 method sun reflect nativemethodaccessorimpl method accessor impl invok nativemethodaccessorimpl method accessor impl java sun reflect delegatingmethodaccessorimpl deleg method accessor impl invok delegatingmethodaccessorimpl deleg method accessor impl java java lang reflect method invok method java org springframework amqp rabbit connect cachingconnectionfactori cach connect factori cachedchannelinvocationhandl cach channel invoc handler invok cachingconnectionfactori cach connect factori java spring rabbit jar com sun proxi proxy0 queuedeclarepass queue declar passiv unknown sourc org springframework amqp rabbit listen blockingqueueconsum block queue consum attemptpassivedeclar attempt passiv declar blockingqueueconsum block queue consum java spring rabbit jar common frame omit caus com rabbitmq client shutdownsignalexcept shutdown signal channel error protocol method method channel close repli code repli text found queue vhost method com rabbitmq util valueorexcept valu getvalu valu valueorexcept valu java amqp client jar com rabbitmq util blockingvalueorexcept block valu uninterruptiblegetvalu uninterrupt valu blockingvalueorexcept block valu java amqp client jar com rabbitmq client impl amqchannel amq channel blockingrpccontinu block rpc continu getrepli repli amqchannel amq channel java amqp client jar com rabbitmq client impl amqchannel amq channel privaterpc rpc amqchannel amq channel java amqp client jar com rabbitmq client impl amqchannel amq channel exnwrappingrpc exn wrap rpc amqchannel amq channel java amqp client jar common frame omit caus com rabbitmq client shutdownsignalexcept shutdown signal channel error protocol method method channel close repli code repli text found queue vhost method com rabbitmq client impl channeln channel asyncshutdown async shutdown channeln channel java amqp client jar com rabbitmq client impl channeln channel processasync process async channeln channel java amqp client jar com rabbitmq client impl amqchannel amq channel handlecompleteinboundcommand handl complet inbound command amqchannel amq channel java amqp client jar com rabbitmq client impl amqchannel amq channel handlefram handl frame amqchannel amq channel java amqp client jar com rabbitmq client impl amqconnect amq connect mainloop main loop run amqconnect amq connect java amqp client jar common frame omit", "fixed_files": ["org.springframework.amqp.rabbit.annotation.RabbitListenerAnnotationBeanPostProcessor", "org.springframework.amqp.rabbit.annotation.EnableRabbitIntegrationTests"], "key": "AMQP-502", "original_text": "Fanout binding is not created due to missing routing key Currently i am using spring-cloud-starter-bus-amqp which in terms references spring-amqp 1.4.3.\nwhen i declare a rabbitlistener like this:\n\n\n\n\n\n\n  @RabbitListener(\n\n\n\n\n      bindings = @QueueBinding(\n\n\n\n\n          value = @Queue(\n\n\n\n\n              autoDelete = \"true\"\n\n\n\n\n          ),\n\n\n\n\n          exchange = @Exchange(\n\n\n\n\n              type = \"fanout\",\n\n\n\n\n              value = \"mytest.broadcast\",\n\n\n\n\n              autoDelete = \"true\"\n\n\n\n\n          ),\n\n\n\n\n          key = \"#\"\n\n\n\n\n      )\n\n\n\n\n  )\n\n\n\n\n  public void processBroadcast(String data) {\n\n\n\n\n    int i = 0;\n\n\n\n\n  }\n\n\n\n\n\n\nI will get an error, that the binding can not be created.\nIf i try another exchange type, the binding works.\nEdit: It also does not work if omit the key.\nThe following is the debug logout and the stacktrace:\n\n\n\n\n\n\n11:53:20.977 DEBUG   org.springframework.amqp.rabbit.core.RabbitAdmin - Initializing declarations \n\n\n\n\n11:53:20.980  INFO   org.springframework.amqp.rabbit.core.RabbitAdmin - Auto-declaring a non-durable or auto-delete Exchange (mytest.broadcast) durable:false, auto-delete:true. It will be deleted by the broker if it shuts down, and can be redeclared by closing and reopening the connection. \n\n\n\n\n11:53:20.980  INFO   org.springframework.amqp.rabbit.core.RabbitAdmin - Auto-declaring a non-durable, auto-delete, or exclusive Queue (5df237ec-13d4-4aab-a0ff-772707bd7d03) durable:false, auto-delete:false, exclusive:true. It will be redeclared if the broker stops and is restarted while the connection factory is alive, but all messages will be lost. \n\n\n\n\n11:53:20.982 DEBUG   o.s.a.rabbit.connection.CachingConnectionFactory - Creating cached Rabbit Channel from AMQChannel(amqp://stinger@10.0.10.34:5672/,1) \n\n\n\n\n11:53:20.982 DEBUG  o.springframework.amqp.rabbit.core.RabbitTemplate - Executing callback on RabbitMQ Channel: Cached Rabbit Channel: AMQChannel(amqp://stinger@10.0.10.34:5672/,1) \n\n\n\n\n11:53:20.982 DEBUG   org.springframework.amqp.rabbit.core.RabbitAdmin - declaring Exchange 'mytest.broadcast' \n\n\n\n\n11:53:20.984 DEBUG   org.springframework.amqp.rabbit.core.RabbitAdmin - declaring Queue '5df237ec-13d4-4aab-a0ff-772707bd7d03' \n\n\n\n\n11:53:20.989 DEBUG   org.springframework.amqp.rabbit.core.RabbitAdmin - Binding destination [5df237ec-13d4-4aab-a0ff-772707bd7d03 (QUEUE)] to exchange [mytest.broadcast] with routing key [null] \n\n\n\n\n11:53:20.991 DEBUG    o.s.a.r.listener.SimpleMessageListenerContainer - Recovering consumer in 5000 ms. \n\n\n\n\n11:53:20.991 DEBUG    o.s.a.r.listener.SimpleMessageListenerContainer - Starting Rabbit listener container. \n\n\n\n\n11:53:20.992 DEBUG     o.s.amqp.rabbit.listener.BlockingQueueConsumer - Starting consumer Consumer: tags=[{}], channel=null, acknowledgeMode=AUTO local queue size=0 \n\n\n\n\n11:53:20.998 DEBUG     o.s.amqp.rabbit.listener.BlockingQueueConsumer - Started on queue '5df237ec-13d4-4aab-a0ff-772707bd7d03' with tag amq.ctag-Gai8Uo2Q0SYYJDbSopNtLA: Consumer: tags=[{amq.ctag-Gai8Uo2Q0SYYJDbSopNtLA=5df237ec-13d4-4aab-a0ff-772707bd7d03}], channel=Cached Rabbit Channel: AMQChannel(amqp://stinger@10.0.10.34:5672/,1), acknowledgeMode=AUTO local queue size=0 \n\n\n\n\n11:53:20.998 DEBUG     o.s.amqp.rabbit.listener.BlockingQueueConsumer - ConsumeOK : Consumer: tags=[{amq.ctag-Gai8Uo2Q0SYYJDbSopNtLA=5df237ec-13d4-4aab-a0ff-772707bd7d03}], channel=Cached Rabbit Channel: AMQChannel(amqp://stinger@10.0.10.34:5672/,1), acknowledgeMode=AUTO local queue size=0 \n\n\n\n\n11:53:20.999 DEBUG     o.s.amqp.rabbit.listener.BlockingQueueConsumer - Retrieving delivery for Consumer: tags=[{amq.ctag-Gai8Uo2Q0SYYJDbSopNtLA=5df237ec-13d4-4aab-a0ff-772707bd7d03}], channel=Cached Rabbit Channel: AMQChannel(amqp://stinger@10.0.10.34:5672/,1), acknowledgeMode=AUTO local queue size=0 \n\n\n\n\n11:53:21.093  INFO             mytest.server.Server - Started Server in 16.957 seconds (JVM running for 18.151) \n\n\n\n\n11:53:22.003 DEBUG     o.s.amqp.rabbit.listener.BlockingQueueConsumer - Retrieving delivery for Consumer: tags=[{amq.ctag-Gai8Uo2Q0SYYJDbSopNtLA=5df237ec-13d4-4aab-a0ff-772707bd7d03}], channel=Cached Rabbit Channel: AMQChannel(amqp://stinger@10.0.10.34:5672/,1), acknowledgeMode=AUTO local queue size=0 \n\n\n\n\n11:53:23.004 DEBUG     o.s.amqp.rabbit.listener.BlockingQueueConsumer - Retrieving delivery for Consumer: tags=[{amq.ctag-Gai8Uo2Q0SYYJDbSopNtLA=5df237ec-13d4-4aab-a0ff-772707bd7d03}], channel=Cached Rabbit Channel: AMQChannel(amqp://stinger@10.0.10.34:5672/,1), acknowledgeMode=AUTO local queue size=0 \n\n\n\n\n11:53:24.009 DEBUG     o.s.amqp.rabbit.listener.BlockingQueueConsumer - Retrieving delivery for Consumer: tags=[{amq.ctag-Gai8Uo2Q0SYYJDbSopNtLA=5df237ec-13d4-4aab-a0ff-772707bd7d03}], channel=Cached Rabbit Channel: AMQChannel(amqp://stinger@10.0.10.34:5672/,1), acknowledgeMode=AUTO local queue size=0 \n\n\n\n\n11:53:25.013 DEBUG     o.s.amqp.rabbit.listener.BlockingQueueConsumer - Retrieving delivery for Consumer: tags=[{amq.ctag-Gai8Uo2Q0SYYJDbSopNtLA=5df237ec-13d4-4aab-a0ff-772707bd7d03}], channel=Cached Rabbit Channel: AMQChannel(amqp://stinger@10.0.10.34:5672/,1), acknowledgeMode=AUTO local queue size=0 \n\n\n\n\n11:53:26.017 DEBUG     o.s.amqp.rabbit.listener.BlockingQueueConsumer - Retrieving delivery for Consumer: tags=[{amq.ctag-Gai8Uo2Q0SYYJDbSopNtLA=5df237ec-13d4-4aab-a0ff-772707bd7d03}], channel=Cached Rabbit Channel: AMQChannel(amqp://stinger@10.0.10.34:5672/,1), acknowledgeMode=AUTO local queue size=0 \n\n\n\n\n11:53:26.071  WARN    o.s.a.r.listener.SimpleMessageListenerContainer - Consumer raised exception, processing can restart if the connection factory supports it \n\n\n\n\norg.springframework.amqp.UncategorizedAmqpException: java.lang.IllegalStateException: Invalid configuration: 'routingKey' must be non-null.\n\n\n\n\n\tat org.springframework.amqp.rabbit.support.RabbitExceptionTranslator.convertRabbitAccessException(RabbitExceptionTranslator.java:66) ~[spring-rabbit-1.5.0.M1.jar:na]\n\n\n\n\n\tat org.springframework.amqp.rabbit.connection.RabbitAccessor.convertRabbitAccessException(RabbitAccessor.java:110) ~[spring-rabbit-1.5.0.M1.jar:na]\n\n\n\n\n\tat org.springframework.amqp.rabbit.core.RabbitTemplate.doExecute(RabbitTemplate.java:1124) ~[spring-rabbit-1.5.0.M1.jar:na]\n\n\n\n\n\tat org.springframework.amqp.rabbit.core.RabbitTemplate.execute(RabbitTemplate.java:1101) ~[spring-rabbit-1.5.0.M1.jar:na]\n\n\n\n\n\tat org.springframework.amqp.rabbit.core.RabbitTemplate.execute(RabbitTemplate.java:1077) ~[spring-rabbit-1.5.0.M1.jar:na]\n\n\n\n\n\tat org.springframework.amqp.rabbit.core.RabbitAdmin.initialize(RabbitAdmin.java:381) ~[spring-rabbit-1.5.0.M1.jar:na]\n\n\n\n\n\tat org.springframework.amqp.rabbit.core.RabbitAdmin$11.onCreate(RabbitAdmin.java:323) ~[spring-rabbit-1.5.0.M1.jar:na]\n\n\n\n\n\tat org.springframework.amqp.rabbit.connection.CompositeConnectionListener.onCreate(CompositeConnectionListener.java:32) ~[spring-rabbit-1.5.0.M1.jar:na]\n\n\n\n\n\tat org.springframework.amqp.rabbit.connection.CachingConnectionFactory.createConnection(CachingConnectionFactory.java:446) ~[spring-rabbit-1.5.0.M1.jar:na]\n\n\n\n\n\tat org.springframework.amqp.rabbit.connection.ConnectionFactoryUtils$1.createConnection(ConnectionFactoryUtils.java:80) ~[spring-rabbit-1.5.0.M1.jar:na]\n\n\n\n\n\tat org.springframework.amqp.rabbit.connection.ConnectionFactoryUtils.doGetTransactionalResourceHolder(ConnectionFactoryUtils.java:130) ~[spring-rabbit-1.5.0.M1.jar:na]\n\n\n\n\n\tat org.springframework.amqp.rabbit.connection.ConnectionFactoryUtils.getTransactionalResourceHolder(ConnectionFactoryUtils.java:67) ~[spring-rabbit-1.5.0.M1.jar:na]\n\n\n\n\n\tat org.springframework.amqp.rabbit.listener.BlockingQueueConsumer.start(BlockingQueueConsumer.java:451) ~[spring-rabbit-1.5.0.M1.jar:na]\n\n\n\n\n\tat org.springframework.amqp.rabbit.listener.SimpleMessageListenerContainer$AsyncMessageProcessingConsumer.run(SimpleMessageListenerContainer.java:1107) ~[spring-rabbit-1.5.0.M1.jar:na]\n\n\n\n\n\tat java.lang.Thread.run(Thread.java:745) [na:1.8.0_20-ea]\n\n\n\n\nCaused by: java.lang.IllegalStateException: Invalid configuration: 'routingKey' must be non-null.\n\n\n\n\n\tat com.rabbitmq.client.impl.AMQImpl$Queue$Bind.<init>(AMQImpl.java:1577) ~[amqp-client-3.5.1.jar:na]\n\n\n\n\n\tat com.rabbitmq.client.AMQP$Queue$Bind$Builder.build(AMQP.java:870) ~[amqp-client-3.5.1.jar:na]\n\n\n\n\n\tat com.rabbitmq.client.impl.ChannelN.queueBind(ChannelN.java:918) ~[amqp-client-3.5.1.jar:na]\n\n\n\n\n\tat com.rabbitmq.client.impl.ChannelN.queueBind(ChannelN.java:61) ~[amqp-client-3.5.1.jar:na]\n\n\n\n\n\tat sun.reflect.NativeMethodAccessorImpl.invoke0(Native Method) ~[na:1.8.0_20-ea]\n\n\n\n\n\tat sun.reflect.NativeMethodAccessorImpl.invoke(NativeMethodAccessorImpl.java:62) ~[na:1.8.0_20-ea]\n\n\n\n\n\tat sun.reflect.DelegatingMethodAccessorImpl.invoke(DelegatingMethodAccessorImpl.java:43) ~[na:1.8.0_20-ea]\n\n\n\n\n\tat java.lang.reflect.Method.invoke(Method.java:483) ~[na:1.8.0_20-ea]\n\n\n\n\n\tat org.springframework.amqp.rabbit.connection.CachingConnectionFactory$CachedChannelInvocationHandler.invoke(CachingConnectionFactory.java:633) ~[spring-rabbit-1.5.0.M1.jar:na]\n\n\n\n\n\tat com.sun.proxy.$Proxy0.queueBind(Unknown Source) ~[na:na]\n\n\n\n\n\tat org.springframework.amqp.rabbit.core.RabbitAdmin.declareBindings(RabbitAdmin.java:480) ~[spring-rabbit-1.5.0.M1.jar:na]\n\n\n\n\n\tat org.springframework.amqp.rabbit.core.RabbitAdmin.access$300(RabbitAdmin.java:54) ~[spring-rabbit-1.5.0.M1.jar:na]\n\n\n\n\n\tat org.springframework.amqp.rabbit.core.RabbitAdmin$12.doInRabbit(RabbitAdmin.java:386) ~[spring-rabbit-1.5.0.M1.jar:na]\n\n\n\n\n\tat org.springframework.amqp.rabbit.core.RabbitTemplate.doExecute(RabbitTemplate.java:1118) ~[spring-rabbit-1.5.0.M1.jar:na]\n\n\n\n\n\t... 12 common frames omitted\n\n\n\n\n11:53:26.071  INFO    o.s.a.r.listener.SimpleMessageListenerContainer - Restarting Consumer: tags=[{}], channel=null, acknowledgeMode=AUTO local queue size=0 \n\n\n\n\n11:53:26.071 DEBUG     o.s.amqp.rabbit.listener.BlockingQueueConsumer - Closing Rabbit Channel: null \n\n\n\n\n11:53:26.072 DEBUG  o.springframework.amqp.rabbit.core.RabbitTemplate - Executing callback on RabbitMQ Channel: Cached Rabbit Channel: AMQChannel(amqp://stinger@10.0.10.34:5672/,1) \n\n\n\n\n11:53:26.072 DEBUG  o.springframework.amqp.rabbit.core.RabbitTemplate - Publishing message on exchange [errors], routingKey = [org.springframework.amqp.rabbit.listener.SimpleMessageListenerContainer.WARN] \n\n\n\n\n11:53:26.072 DEBUG     o.s.amqp.rabbit.listener.BlockingQueueConsumer - Starting consumer Consumer: tags=[{}], channel=null, acknowledgeMode=AUTO local queue size=0 \n\n\n\n\n11:53:26.075 DEBUG   o.s.a.rabbit.connection.CachingConnectionFactory - Creating cached Rabbit Channel from AMQChannel(amqp://stinger@10.0.10.34:5672/,2) \n\n\n\n\n11:53:26.077 DEBUG   o.s.a.rabbit.connection.CachingConnectionFactory - Channel shutdown: channel error; protocol method: #method<channel.close>(reply-code=404, reply-text=NOT_FOUND - no queue '493eb6d6-8340-44a8-b73f-ab93446407dc' in vhost '/', class-id=50, method-id=10) \n\n\n\n\n11:53:26.079 DEBUG   o.s.a.rabbit.connection.CachingConnectionFactory - Detected closed channel on exception.  Re-initializing: null \n\n\n\n\n11:53:26.080  WARN     o.s.amqp.rabbit.listener.BlockingQueueConsumer - Failed to declare queue:493eb6d6-8340-44a8-b73f-ab93446407dc \n\n\n\n\n11:53:26.081 DEBUG  o.springframework.amqp.rabbit.core.RabbitTemplate - Executing callback on RabbitMQ Channel: Cached Rabbit Channel: AMQChannel(amqp://stinger@10.0.10.34:5672/,1) \n\n\n\n\n11:53:26.081 DEBUG  o.springframework.amqp.rabbit.core.RabbitTemplate - Publishing message on exchange [errors], routingKey = [org.springframework.amqp.rabbit.listener.BlockingQueueConsumer.WARN] \n\n\n\n\n11:53:26.081  WARN     o.s.amqp.rabbit.listener.BlockingQueueConsumer - Queue declaration failed; retries left=3 \n\n\n\n\norg.springframework.amqp.rabbit.listener.BlockingQueueConsumer$DeclarationException: Failed to declare queue(s):[493eb6d6-8340-44a8-b73f-ab93446407dc]\n\n\n\n\n\tat org.springframework.amqp.rabbit.listener.BlockingQueueConsumer.attemptPassiveDeclarations(BlockingQueueConsumer.java:554) ~[spring-rabbit-1.5.0.M1.jar:na]\n\n\n\n\n\tat org.springframework.amqp.rabbit.listener.BlockingQueueConsumer.start(BlockingQueueConsumer.java:465) ~[spring-rabbit-1.5.0.M1.jar:na]\n\n\n\n\n\tat org.springframework.amqp.rabbit.listener.SimpleMessageListenerContainer$AsyncMessageProcessingConsumer.run(SimpleMessageListenerContainer.java:1107) [spring-rabbit-1.5.0.M1.jar:na]\n\n\n\n\n\tat java.lang.Thread.run(Thread.java:745) [na:1.8.0_20-ea]\n\n\n\n\nCaused by: java.io.IOException: null\n\n\n\n\n\tat com.rabbitmq.client.impl.AMQChannel.wrap(AMQChannel.java:106) ~[amqp-client-3.5.1.jar:na]\n\n\n\n\n\tat com.rabbitmq.client.impl.AMQChannel.wrap(AMQChannel.java:102) ~[amqp-client-3.5.1.jar:na]\n\n\n\n\n\tat com.rabbitmq.client.impl.AMQChannel.exnWrappingRpc(AMQChannel.java:124) ~[amqp-client-3.5.1.jar:na]\n\n\n\n\n\tat com.rabbitmq.client.impl.ChannelN.queueDeclarePassive(ChannelN.java:873) ~[amqp-client-3.5.1.jar:na]\n\n\n\n\n\tat com.rabbitmq.client.impl.ChannelN.queueDeclarePassive(ChannelN.java:61) ~[amqp-client-3.5.1.jar:na]\n\n\n\n\n\tat sun.reflect.NativeMethodAccessorImpl.invoke0(Native Method) ~[na:1.8.0_20-ea]\n\n\n\n\n\tat sun.reflect.NativeMethodAccessorImpl.invoke(NativeMethodAccessorImpl.java:62) ~[na:1.8.0_20-ea]\n\n\n\n\n\tat sun.reflect.DelegatingMethodAccessorImpl.invoke(DelegatingMethodAccessorImpl.java:43) ~[na:1.8.0_20-ea]\n\n\n\n\n\tat java.lang.reflect.Method.invoke(Method.java:483) ~[na:1.8.0_20-ea]\n\n\n\n\n\tat org.springframework.amqp.rabbit.connection.CachingConnectionFactory$CachedChannelInvocationHandler.invoke(CachingConnectionFactory.java:633) ~[spring-rabbit-1.5.0.M1.jar:na]\n\n\n\n\n\tat com.sun.proxy.$Proxy0.queueDeclarePassive(Unknown Source) ~[na:na]\n\n\n\n\n\tat org.springframework.amqp.rabbit.listener.BlockingQueueConsumer.attemptPassiveDeclarations(BlockingQueueConsumer.java:544) ~[spring-rabbit-1.5.0.M1.jar:na]\n\n\n\n\n\t... 3 common frames omitted\n\n\n\n\nCaused by: com.rabbitmq.client.ShutdownSignalException: channel error; protocol method: #method<channel.close>(reply-code=404, reply-text=NOT_FOUND - no queue '493eb6d6-8340-44a8-b73f-ab93446407dc' in vhost '/', class-id=50, method-id=10)\n\n\n\n\n\tat com.rabbitmq.utility.ValueOrException.getValue(ValueOrException.java:67) ~[amqp-client-3.5.1.jar:na]\n\n\n\n\n\tat com.rabbitmq.utility.BlockingValueOrException.uninterruptibleGetValue(BlockingValueOrException.java:33) ~[amqp-client-3.5.1.jar:na]\n\n\n\n\n\tat com.rabbitmq.client.impl.AMQChannel$BlockingRpcContinuation.getReply(AMQChannel.java:348) ~[amqp-client-3.5.1.jar:na]\n\n\n\n\n\tat com.rabbitmq.client.impl.AMQChannel.privateRpc(AMQChannel.java:221) ~[amqp-client-3.5.1.jar:na]\n\n\n\n\n\tat com.rabbitmq.client.impl.AMQChannel.exnWrappingRpc(AMQChannel.java:118) ~[amqp-client-3.5.1.jar:na]\n\n\n\n\n\t... 12 common frames omitted\n\n\n\n\nCaused by: com.rabbitmq.client.ShutdownSignalException: channel error; protocol method: #method<channel.close>(reply-code=404, reply-text=NOT_FOUND - no queue '493eb6d6-8340-44a8-b73f-ab93446407dc' in vhost '/', class-id=50, method-id=10)\n\n\n\n\n\tat com.rabbitmq.client.impl.ChannelN.asyncShutdown(ChannelN.java:478) ~[amqp-client-3.5.1.jar:na]\n\n\n\n\n\tat com.rabbitmq.client.impl.ChannelN.processAsync(ChannelN.java:315) ~[amqp-client-3.5.1.jar:na]\n\n\n\n\n\tat com.rabbitmq.client.impl.AMQChannel.handleCompleteInboundCommand(AMQChannel.java:144) ~[amqp-client-3.5.1.jar:na]\n\n\n\n\n\tat com.rabbitmq.client.impl.AMQChannel.handleFrame(AMQChannel.java:91) ~[amqp-client-3.5.1.jar:na]\n\n\n\n\n\tat com.rabbitmq.client.impl.AMQConnection$MainLoop.run(AMQConnection.java:552) ~[amqp-client-3.5.1.jar:na]\n\n\n\n\n\t... 1 common frames omitted\n\n\n\n\n11:53:26.081 DEBUG  o.springframework.amqp.rabbit.core.RabbitTemplate - Executing callback on RabbitMQ Channel: Cached Rabbit Channel: AMQChannel(amqp://stinger@10.0.10.34:5672/,1) \n\n\n\n\n11:53:26.081 DEBUG  o.springframework.amqp.rabbit.core.RabbitTemplate - Publishing message on exchange [errors], routingKey = [org.springframework.amqp.rabbit.listener.BlockingQueueConsumer.WARN] \n\n\n\n\n11:53:27.018 DEBUG     o.s.amqp.rabbit.listener.BlockingQueueConsumer - Retrieving delivery for Consumer: tags=[{amq.ctag-Gai8Uo2Q0SYYJDbSopNtLA=5df237ec-13d4-4aab-a0ff-772707bd7d03}], channel=Cached Rabbit Channel: AMQChannel(amqp://stinger@10.0.10.34:5672/,1), acknowledgeMode=AUTO local queue size=0 \n\n\n\n\n11:53:28.022 DEBUG     o.s.amqp.rabbit.listener.BlockingQueueConsumer - Retrieving delivery for Consumer: tags=[{amq.ctag-Gai8Uo2Q0SYYJDbSopNtLA=5df237ec-13d4-4aab-a0ff-772707bd7d03}], channel=Cached Rabbit Channel: AMQChannel(amqp://stinger@10.0.10.34:5672/,1), acknowledgeMode=AUTO local queue size=0 \n\n\n\n\n11:53:29.025 DEBUG     o.s.amqp.rabbit.listener.BlockingQueueConsumer - Retrieving delivery for Consumer: tags=[{amq.ctag-Gai8Uo2Q0SYYJDbSopNtLA=5df237ec-13d4-4aab-a0ff-772707bd7d03}], channel=Cached Rabbit Channel: AMQChannel(amqp://stinger@10.0.10.34:5672/,1), acknowledgeMode=AUTO local queue size=0 \n\n\n\n\n11:53:30.030 DEBUG     o.s.amqp.rabbit.listener.BlockingQueueConsumer - Retrieving delivery for Consumer: tags=[{amq.ctag-Gai8Uo2Q0SYYJDbSopNtLA=5df237ec-13d4-4aab-a0ff-772707bd7d03}], channel=Cached Rabbit Channel: AMQChannel(amqp://stinger@10.0.10.34:5672/,1), acknowledgeMode=AUTO local queue size=0 \n\n\n\n\n11:53:31.034 DEBUG     o.s.amqp.rabbit.listener.BlockingQueueConsumer - Retrieving delivery for Consumer: tags=[{amq.ctag-Gai8Uo2Q0SYYJDbSopNtLA=5df237ec-13d4-4aab-a0ff-772707bd7d03}], channel=Cached Rabbit Channel: AMQChannel(amqp://stinger@10.0.10.34:5672/,1), acknowledgeMode=AUTO local queue size=0 \n\n\n\n\n11:53:31.086 DEBUG   o.s.a.rabbit.connection.CachingConnectionFactory - Channel shutdown: channel error; protocol method: #method<channel.close>(reply-code=404, reply-text=NOT_FOUND - no queue '493eb6d6-8340-44a8-b73f-ab93446407dc' in vhost '/', class-id=50, method-id=10) \n\n\n\n\n11:53:31.086 DEBUG   o.s.a.rabbit.connection.CachingConnectionFactory - Detected closed channel on exception.  Re-initializing: null \n\n\n\n\n11:53:31.088  WARN     o.s.amqp.rabbit.listener.BlockingQueueConsumer - Failed to declare queue:493eb6d6-8340-44a8-b73f-ab93446407dc \n\n\n\n\n11:53:31.089 DEBUG  o.springframework.amqp.rabbit.core.RabbitTemplate - Executing callback on RabbitMQ Channel: Cached Rabbit Channel: AMQChannel(amqp://stinger@10.0.10.34:5672/,1) \n\n\n\n\n11:53:31.089 DEBUG  o.springframework.amqp.rabbit.core.RabbitTemplate - Publishing message on exchange [errors], routingKey = [org.springframework.amqp.rabbit.listener.BlockingQueueConsumer.WARN] \n\n\n\n\n11:53:31.089  WARN     o.s.amqp.rabbit.listener.BlockingQueueConsumer - Queue declaration failed; retries left=2 \n\n\n\n\norg.springframework.amqp.rabbit.listener.BlockingQueueConsumer$DeclarationException: Failed to declare queue(s):[493eb6d6-8340-44a8-b73f-ab93446407dc]\n\n\n\n\n\tat org.springframework.amqp.rabbit.listener.BlockingQueueConsumer.attemptPassiveDeclarations(BlockingQueueConsumer.java:554) ~[spring-rabbit-1.5.0.M1.jar:na]\n\n\n\n\n\tat org.springframework.amqp.rabbit.listener.BlockingQueueConsumer.start(BlockingQueueConsumer.java:465) ~[spring-rabbit-1.5.0.M1.jar:na]\n\n\n\n\n\tat org.springframework.amqp.rabbit.listener.SimpleMessageListenerContainer$AsyncMessageProcessingConsumer.run(SimpleMessageListenerContainer.java:1107) [spring-rabbit-1.5.0.M1.jar:na]\n\n\n\n\n\tat java.lang.Thread.run(Thread.java:745) [na:1.8.0_20-ea]\n\n\n\n\nCaused by: java.io.IOException: null\n\n\n\n\n\tat com.rabbitmq.client.impl.AMQChannel.wrap(AMQChannel.java:106) ~[amqp-client-3.5.1.jar:na]\n\n\n\n\n\tat com.rabbitmq.client.impl.AMQChannel.wrap(AMQChannel.java:102) ~[amqp-client-3.5.1.jar:na]\n\n\n\n\n\tat com.rabbitmq.client.impl.AMQChannel.exnWrappingRpc(AMQChannel.java:124) ~[amqp-client-3.5.1.jar:na]\n\n\n\n\n\tat com.rabbitmq.client.impl.ChannelN.queueDeclarePassive(ChannelN.java:873) ~[amqp-client-3.5.1.jar:na]\n\n\n\n\n\tat com.rabbitmq.client.impl.ChannelN.queueDeclarePassive(ChannelN.java:61) ~[amqp-client-3.5.1.jar:na]\n\n\n\n\n\tat sun.reflect.NativeMethodAccessorImpl.invoke0(Native Method) ~[na:1.8.0_20-ea]\n\n\n\n\n\tat sun.reflect.NativeMethodAccessorImpl.invoke(NativeMethodAccessorImpl.java:62) ~[na:1.8.0_20-ea]\n\n\n\n\n\tat sun.reflect.DelegatingMethodAccessorImpl.invoke(DelegatingMethodAccessorImpl.java:43) ~[na:1.8.0_20-ea]\n\n\n\n\n\tat java.lang.reflect.Method.invoke(Method.java:483) ~[na:1.8.0_20-ea]\n\n\n\n\n\tat org.springframework.amqp.rabbit.connection.CachingConnectionFactory$CachedChannelInvocationHandler.invoke(CachingConnectionFactory.java:633) ~[spring-rabbit-1.5.0.M1.jar:na]\n\n\n\n\n\tat com.sun.proxy.$Proxy0.queueDeclarePassive(Unknown Source) ~[na:na]\n\n\n\n\n\tat org.springframework.amqp.rabbit.listener.BlockingQueueConsumer.attemptPassiveDeclarations(BlockingQueueConsumer.java:544) ~[spring-rabbit-1.5.0.M1.jar:na]\n\n\n\n\n\t... 3 common frames omitted\n\n\n\n\nCaused by: com.rabbitmq.client.ShutdownSignalException: channel error; protocol method: #method<channel.close>(reply-code=404, reply-text=NOT_FOUND - no queue '493eb6d6-8340-44a8-b73f-ab93446407dc' in vhost '/', class-id=50, method-id=10)\n\n\n\n\n\tat com.rabbitmq.utility.ValueOrException.getValue(ValueOrException.java:67) ~[amqp-client-3.5.1.jar:na]\n\n\n\n\n\tat com.rabbitmq.utility.BlockingValueOrException.uninterruptibleGetValue(BlockingValueOrException.java:33) ~[amqp-client-3.5.1.jar:na]\n\n\n\n\n\tat com.rabbitmq.client.impl.AMQChannel$BlockingRpcContinuation.getReply(AMQChannel.java:348) ~[amqp-client-3.5.1.jar:na]\n\n\n\n\n\tat com.rabbitmq.client.impl.AMQChannel.privateRpc(AMQChannel.java:221) ~[amqp-client-3.5.1.jar:na]\n\n\n\n\n\tat com.rabbitmq.client.impl.AMQChannel.exnWrappingRpc(AMQChannel.java:118) ~[amqp-client-3.5.1.jar:na]\n\n\n\n\n\t... 12 common frames omitted\n\n\n\n\nCaused by: com.rabbitmq.client.ShutdownSignalException: channel error; protocol method: #method<channel.close>(reply-code=404, reply-text=NOT_FOUND - no queue '493eb6d6-8340-44a8-b73f-ab93446407dc' in vhost '/', class-id=50, method-id=10)\n\n\n\n\n\tat com.rabbitmq.client.impl.ChannelN.asyncShutdown(ChannelN.java:478) ~[amqp-client-3.5.1.jar:na]\n\n\n\n\n\tat com.rabbitmq.client.impl.ChannelN.processAsync(ChannelN.java:315) ~[amqp-client-3.5.1.jar:na]\n\n\n\n\n\tat com.rabbitmq.client.impl.AMQChannel.handleCompleteInboundCommand(AMQChannel.java:144) ~[amqp-client-3.5.1.jar:na]\n\n\n\n\n\tat com.rabbitmq.client.impl.AMQChannel.handleFrame(AMQChannel.java:91) ~[amqp-client-3.5.1.jar:na]\n\n\n\n\n\tat com.rabbitmq.client.impl.AMQConnection$MainLoop.run(AMQConnection.java:552) ~[amqp-client-3.5.1.jar:na]\n\n\n\n\n\t... 1 common frames omitted\n\n\n\n\n\n", "resolution_date": "2015-06-19T11:11:55.000-05:00", "stackTraces": [], "title": "fanout bind creat due miss rout key"}
{"codeSnippets": [], "creation_date": "2015-08-06T01:25:34.000-05:00", "description": "follow queue declar result queue declar auto delet set rabbitlisten rabbit listen bind queuebind queue bind valu queue autodelet auto delet exchang exchang valu myfanout fanout type exchangetyp exchang type fanout durabl due follow code rabbitlistenerannotationbeanprocessor rabbit listen annot bean processor stringutil string util hastext text queuenam queue name queuenam queue name uuid randomuuid random uuid tostr string stringutil string util hastext text bindingqueu bind queue stringutil string util hastext text bindingqueu bind queue autodelet auto delet autodelet auto delet resolveexpressionasboolean resolv express bindingqueu bind queue autodelet auto delet resolveexpressionasboolean resolv express bindingqueu bind queue autodelet auto delet make auto delet random name good idea probabl chang string bindingqueu bind queue stringutil string util hastext text resolveexpressionasboolean resolv express", "fixed_files": ["org.springframework.amqp.rabbit.annotation.RabbitListenerAnnotationBeanPostProcessor", "org.springframework.amqp.rabbit.annotation.EnableRabbitIntegrationTests"], "key": "AMQP-516", "original_text": "Setting autoDelete or exclusive to anything, including \"true\" in @Queue without a queue name results in them being disabled The following queue declaration will result in a queue being declared with auto delete and exclusive set to false:\n\n\n\n\n\n\n@RabbitListener(bindings = @QueueBinding(\n\n\n\n\n    value = @Queue(autoDelete = \"true\", exclusive = \"true\"),\n\n\n\n\n    exchange = @Exchange(value = \"myFanout\", type = ExchangeTypes.FANOUT, durable = \"true\")\n\n\n\n\n))\n\n\n\n\n\n\ndue to the following code in RabbitListenerAnnotationBeanProcessor:\n\n\n\n\n\n\nif (!StringUtils.hasText(queueName)) {\n\n\n\n\n    queueName = UUID.randomUUID().toString();\n\n\n\n\n    if (!StringUtils.hasText(bindingQueue.exclusive())) {\n\n\n\n\n        exclusive = true;\n\n\n\n\n    }\n\n\n\n\n    if (!StringUtils.hasText(bindingQueue.autoDelete())) {\n\n\n\n\n        autoDelete = true;\n\n\n\n\n    }\n\n\n\n\n}\n\n\n\n\nelse {\n\n\n\n\n    exclusive = resolveExpressionAsBoolean(bindingQueue.exclusive());\n\n\n\n\n    autoDelete = resolveExpressionAsBoolean(bindingQueue.autoDelete());\n\n\n\n\n}\n\n\n\n\n\n\nMaking them exclusive and auto delete by default when using a random name seems like a good idea, but it should probably be changed to something like:\n\n\n\n\n\n\nString e = bindingQueue.exclusive();\n\n\n\n\nif (!StringUtils.hasText(e) || resolveExpressionAsBoolean(e)) {\n\n\n\n\n    exclusive = true\n\n\n\n\n}\n\n\n\n\n\n", "resolution_date": "2015-08-07T09:46:00.000-05:00", "stackTraces": [], "title": "set autodelet auto delet queue queue name result disabl"}
{"codeSnippets": [], "creation_date": "2015-11-14T00:54:00.000-06:00", "description": "version onward cachingconnectionfactori cach connect factori allow connect creat applic context close implement close connect factori soon close applic context initi contextclosedev context close event fire abrupt caus problem code process request publish messag applic context close stage exampl spring integr amqp compon amqpinboundchanneladapt amqp inbound channel adapt consum inbound messag compon implement spring smartlifecycl smart life cycl mean messag consum stop reach life cycl process stage applic context close happen contextclosedev context close event fire caus problem easili prevent incom messag arriv send outbound messag connect factori close major issu limit possibl perform grace shutdown applic work prior version close requir think make sens defer later stage implement spring smartlifecycl smart life cycl stop method combin configur phase give possibl ordin close compon stop applic context start destroy bean", "fixed_files": ["org.springframework.amqp.rabbit.connection.CachingConnectionFactory"], "key": "AMQP-546", "original_text": "Closing the CachingConnectionFactory at application context close is too abrupt From version 1.5 and onwards the CachingConnectionFactory will not allow any connections to be created once the application context has been closed. This is implemented by closing the connection factory as soon as closing of the application context is initiated (when the ContextClosedEvent is fired).\nThis is quite abrupt and causes problems for code that may want to process requests and publish messages while the application context is still in it's closing stage.\nAs an example we use spring-integration AMQP components (AmqpInboundChannelAdapter) for consuming inbound messages and these components implement the Spring SmartLifeCycle. This means that message consumers are not stopped until you reach the life-cycle processing stage in the application context closing (which happens after the ContextClosedEvent is fired). This causes problems as you cannot easily prevent incoming messages from arriving but you cannot send any outbound messages (since the connection factory is already closed). \nFor us this is major issue since it now limits our possibility to perform a graceful shutdown of our application, which worked well with prior versions.\nIf closing is really required then I think it could make sense to defer it to a later stage by e.g. implementing Spring SmartLifeCycle and use the stop() method. Combined with a configurable phase that would give us the possibility to co-ordinate the closing with other components that should be stopped before we let the application context start destroying beans.", "resolution_date": "2015-11-18T15:57:24.000-06:00", "stackTraces": [], "title": "close cachingconnectionfactori cach connect factori applic context close abrupt"}
