Configuration;Mean rec. rank
CG-CG-argouml-0.22-0.9-3-C-D;0.28636354174790163
CG-CG-bookkeeper-4.1.0-0.9-3-C-D;0.6830555555555555
CG-CG-derby-10.7.1.1-0.9-3-C-D;0.38864358729532855
CG-CG-derby-10.9.1.0-0.9-3-C-D;0.35899948697739864
CG-CG-hibernate-3.5.0b2-0.9-3-C-D;0.6702508960573477
CG-CG-jabref-2.6-0.9-3-C-D;0.0
CG-CG-jedit-4.3-0.9-3-C-D;0.0
CG-CG-lucene-4.0-0.9-3-C-D;0.4732142857142857
CG-CG-mahout-0.8-0.9-3-C-D;0.5992063492063492
CG-CG-openjpa-2.0.1-0.9-3-C-D;0.4503367003367003
CG-CG-openjpa-2.2.0-0.9-3-C-D;0.5134124087591241
CG-CG-pig-0.11.1-0.9-3-C-D;0.4602260813622861
CG-CG-pig-0.8.0-0.9-3-C-D;0.36069047350178834
CG-CG-solr-4.4.0-0.9-3-C-D;0.5
CG-CG-tika-1.3-0.9-3-C-D;0.55
CG-CG-zookeeper-3.4.5-0.9-3-C-D;0.7849264705882353
