{"key":"AMQP-340","title":"","description":"It would be nice to have a notification (exception) about wrong credentials right away (there is a comprehensive rabbit client exception that gets swallowed in SimpleMessageListenerContainer.run()) start()  SimpleMessageListenerContainer.run()"}
{"key":"AMQP-434","title":"","description":"This exception should be either added to the throws clause OR caught and wrapped in convertMessageIfNecessary() convertMessageIfNecessary()"}
{"key":"AMQP-516","title":"","description":"Making them exclusive and auto delete by default when using a random name seems like a good idea, but it should probably be changed to something like:      @RabbitListener(bindings \u003d @QueueBinding(\n\n\n\n\n    value \u003d @Queue(autoDelete \u003d \"true\", exclusive \u003d \"true\"),\n\n\n\n\n    exchange \u003d @Exchange(value \u003d \"myFanout\", type \u003d ExchangeTypes.FANOUT, durable \u003d \"true\")\n\n\n\n\n))\n\n\n\n\n\n\n if (!StringUtils.hasText(queueName)) {\n\n\n\n\n    queueName \u003d UUID.randomUUID().toString();\n\n\n\n\n    if (!StringUtils.hasText(bindingQueue.exclusive())) {\n\n\n\n\n        exclusive \u003d true;\n\n\n\n\n    }\n\n\n\n\n    if (!StringUtils.hasText(bindingQueue.autoDelete())) {\n\n\n\n\n        autoDelete \u003d true;\n\n\n\n\n    }\n\n\n\n\n}\n\n\n\n\nelse {\n\n\n\n\n    exclusive \u003d resolveExpressionAsBoolean(bindingQueue.exclusive());\n\n\n\n\n    autoDelete \u003d resolveExpressionAsBoolean(bindingQueue.autoDelete());\n\n\n\n\n}\n\n\n\n\n\n\n String e \u003d bindingQueue.exclusive();\n\n\n\n\nif (!StringUtils.hasText(e) || resolveExpressionAsBoolean(e)) {\n\n\n\n\n    exclusive \u003d true\n\n\n\n\n}"}
{"key":"AMQP-633","title":"","description":"We should never return the resourceHolder if the resourceFactory.isSynchedLocalTransactionAllowed() is false. RabbitResourceHolder resourceHolder \u003d (RabbitResourceHolder) TransactionSynchronizationManager\n\n\n\n\n\t\t.getResource(connectionFactory);\n\n\n\n\nif (resourceHolder !\u003d null) {\n\n\n\n\n\tChannel channel \u003d resourceFactory.getChannel(resourceHolder);\n\n\n\n\n\tif (channel !\u003d null) {\n\n\n\n\n\t\treturn resourceHolder;\n\n\n\n\n\t}\n\n\n\n\n}\n\n\n\n\n\n\n resourceFactory.isSynchedLocalTransactionAllowed()"}
