{"id":87,"bug_id":"DERBY-3024","text":"Validation of shared plans hurts scalability. To investigate whether there was anything in the SQL execution layer that prevented scaling on a multi-CPU machine, I wrote a multi-threaded test which continuously executed \"VALUES 1\" using a PreparedStatement. I ran the test on a machine with 8 CPUs and expected the throughput to be proportional to the number of concurrent clients up to 8 clients (the same as the number of CPUs). However, the throughput only had a small increase from 1 to 2 clients, and adding more clients did not increase the throughput. Looking at the test in a profiler, it seems like the threads are spending a lot of time waiting to enter synchronization blocks in GenericPreparedStatement.upToDate() and BaseActivation.checkStatementValidity() (both of which are synchronized on the a GenericPreparedStatement object).   When I made that change, the test scaled more or less perfectly up to 8 concurrent threads. We should try to find a way to make the scalability the same regardless of whether or not the threads share the same plan.","class_goldset":["java.engine.org.apache.derby.impl.store.access.btree.index.B2IFactory","java.engine.org.apache.derby.impl.store.access.heap.HeapConglomerateFactory","java.engine.org.apache.derby.impl.store.raw.data.FileContainer","java.engine.org.apache.derby.impl.store.raw.data.InputStreamContainer","java.engine.org.apache.derby.impl.store.raw.data.RAFContainer","java.engine.org.apache.derby.impl.store.raw.data.TempRAFContainer","java.testing.org.apache.derbyTesting.functionTests.tests.lang.DBInJarTest"],"file_goldset":["java.engine.org.apache.derby.impl.store.access.btree.index.B2IFactory","java.engine.org.apache.derby.impl.store.access.heap.HeapConglomerateFactory","java.engine.org.apache.derby.impl.store.raw.data.FileContainer","java.engine.org.apache.derby.impl.store.raw.data.InputStreamContainer","java.engine.org.apache.derby.impl.store.raw.data.RAFContainer","java.engine.org.apache.derby.impl.store.raw.data.TempRAFContainer","java.testing.org.apache.derbyTesting.functionTests.tests.lang.DBInJarTest"],"creation_date":"2007-08-23T10:24:31.000+0000","resolution_date":"2012-10-02T08:45:01.000+0000"}
{"id":94,"bug_id":"DERBY-5014","text":"Tests should restore the timeout values to default after they are done running.. There are still couple more tests that change the lock time out during the test run but don\u0027t restore it to the default at the end of the test.","class_goldset":["java.testing.org.apache.derbyTesting.functionTests.tests.derbynet.SysinfoTest","java.testing.org.apache.derbyTesting.functionTests.tests.lang.ResultSetsFromPreparedStatementTest","java.testing.org.apache.derbyTesting.junit.DatabasePropertyTestSetup"],"file_goldset":["java.testing.org.apache.derbyTesting.functionTests.tests.derbynet.SysinfoTest","java.testing.org.apache.derbyTesting.functionTests.tests.lang.ResultSetsFromPreparedStatementTest","java.testing.org.apache.derbyTesting.junit.DatabasePropertyTestSetup"],"creation_date":"2011-02-08T22:57:12.000+0000","resolution_date":"2012-09-12T23:20:04.000+0000"}
{"id":97,"bug_id":"DERBY-5251","text":"make ErrorCodeTest pass in non-English locale. lang.ErrorCodeTest will fail in Chinese Locale:","class_goldset":["java.testing.org.apache.derbyTesting.functionTests.tests.lang.ErrorCodeTest"],"file_goldset":["java.testing.org.apache.derbyTesting.functionTests.tests.lang.ErrorCodeTest"],"creation_date":"2011-05-29T09:27:15.000+0000","resolution_date":"2012-09-12T23:20:05.000+0000"}
{"id":111,"bug_id":"DERBY-5851","text":"Inconsistent code coverage shown for LogicalPreparedStatement40. So this should actually run the test with LogicalPreparedStatement40 statements. But in code coverage report methods such as setNClob show no coverage in LogicalPreparedStatement40 class. But in PreparedStatement40 class all these methods are shown as covered. Actually those method calls should go to PreparedStatement40 through LogicalPreparedStatement40. But it is not shown in emma code coverage report.","class_goldset":["java.testing.org.apache.derbyTesting.functionTests.tests.jdbc4.PreparedStatementTest"],"file_goldset":["java.testing.org.apache.derbyTesting.functionTests.tests.jdbc4.PreparedStatementTest"],"creation_date":"2012-07-08T17:28:49.000+0000","resolution_date":"2012-07-19T13:33:15.000+0000"}
{"id":112,"bug_id":"DERBY-5911","text":"WHERE condition getting pushed into sub-query with FETCH. Derby pushes query conditions down into subqueries with FETCH limits, thus creating wrong results.   The first query correctly returns the rows (Colombian,5), (Colombian_Decaf,20). The second query (which filters the result of the first one) returns (Colombian,5), (French_Roast,5). The row (French_Roast,5) should not be there since it is not a result of the first query. It shows up because (supposedly) the filter condition has been evaluated before the fetch limit.","class_goldset":["java.engine.org.apache.derby.impl.sql.compile.ProjectRestrictNode","java.engine.org.apache.derby.impl.sql.compile.SelectNode","java.testing.org.apache.derbyTesting.functionTests.tests.lang.OrderByAndOffsetFetchInSubqueries"],"file_goldset":["java.engine.org.apache.derby.impl.sql.compile.ProjectRestrictNode","java.engine.org.apache.derby.impl.sql.compile.SelectNode","java.testing.org.apache.derbyTesting.functionTests.tests.lang.OrderByAndOffsetFetchInSubqueries"],"creation_date":"2012-08-28T11:18:36.000+0000","resolution_date":"2012-09-12T22:53:44.000+0000"}
{"id":117,"bug_id":"DERBY-6053","text":"Client should use a prepared statement rather than regular statement for Connection.setTransactionIsolation. It would be better for performance and also for avoid possible garbage collection issues, to have a single prepared statement with a parameter marker.","class_goldset":["java.client.org.apache.derby.client.am.Connection"],"file_goldset":["java.client.org.apache.derby.client.am.Connection"],"creation_date":"2013-01-25T15:02:53.000+0000","resolution_date":"2013-02-28T22:43:45.000+0000"}
{"id":125,"bug_id":"DERBY-6133","text":"simple array index typo. code does   instead of","class_goldset":["java.engine.org.apache.derby.impl.sql.execute.HashTableResultSet"],"file_goldset":["java.engine.org.apache.derby.impl.sql.execute.HashTableResultSet"],"creation_date":"2013-04-01T01:37:39.000+0000","resolution_date":"2013-04-02T04:43:34.000+0000"}
{"id":127,"bug_id":"DERBY-6150","text":"Add automatic cleanup of connections opened with openDefaultConnection(). In JDBCBaseTestCase, the default connection is automatically rolled back and closed but connections opened with openDefaultConnection() can stay open and hold locks and affect other tests if the database can not be cleaned because locks are held. It would be good to clean up all the connections in tearDown()\n.","class_goldset":["java.testing.org.apache.derbyTesting.junit.BaseJDBCTestCase"],"file_goldset":["java.testing.org.apache.derbyTesting.junit.BaseJDBCTestCase"],"creation_date":"2013-04-04T00:58:03.000+0000","resolution_date":"2013-04-07T13:41:09.000+0000"}
