{"key":"COMPRESS-332","title":"FramedSnappyCompressorInputStream.read returns invalid value at end of stream.","description":"FramedSnappyCompressorInputStream.read() returns 0 when the end of stream has been reached rather than -1.\nIt appears that this may be caused by SnappyCompressorInputStream.read(byte[], int, int) returning 0 instead of -1 at the end of stream when the exact number of bytes have been read.","creation_date":"2016-01-26T14:12:44.000-06:00","resolution_date":"2016-01-29T20:38:24.000-06:00","fixed_files":["org.apache.commons.compress.compressors.snappy.SnappyCompressorInputStream"]}
{"key":"COMPRESS-331","title":"Some non TAR files are recognized by ArchiveStreamFactory","description":"I ran into a case where a PNG file is being recognized as TAR because TarUtils.verifyCheckSum reports it as having a valid checksum (in this case the code thinks the stored checksum is 36936, unsigned is 31155 and signed is 19635). Because the stored checksum value is larger then the unsigned checksum it is treated as a valid TAR.\nI haven\u0027t spent enough time digging into the problem to see if there is a good alternative to the existing check that doesn\u0027t have false positives like this PNG file (which, if anyone is interested comes from an Android download).\nAlso, I noticed a minor thing in the code: the comment in TarUtils.verifyCheckSum has the wrong bug number listed (it says 177 instead of 117).","creation_date":"2016-01-23T20:40:07.000-06:00","resolution_date":"2016-01-31T12:14:50.000-06:00","fixed_files":["org.apache.commons.compress.archivers.tar.TarUtilsTest","org.apache.commons.compress.archivers.tar.TarUtils"]}
{"key":"COMPRESS-334","title":"ArArchiveInputStream.getBSDLongName does increment offset","description":"I have an AR archive which uses the BSD long name convention and I cannot read past the first entry without failing.\nI dug into the issue and it appears the problem is with getBSDLongName which calls readFully with the underlying stream:\n\n\n\nint read \u003d IOUtils.readFully(input, name);\n\ncount(read);\n\n\n\nThis does not increment the offset which is later used by read(byte[], int, int) to compute the value of toRead. Since offset is too small, toRead ends up too big and the first entry contents end up pulling in the first n bytes of the next entry header (n is the BSD long name length).\nI think this can be addressed by adding offset +\u003d read or changing the above code to just:\n\n\n\nint read \u003d IOUtils.readFully(this, name);\n\n\n\n(Sorry for posting code in the ticket, I will try and get an environment set up so I can start submitting patches).","creation_date":"2016-02-04T20:24:22.000-06:00","resolution_date":"2016-02-05T19:44:02.000-06:00","fixed_files":["org.apache.commons.compress.archivers.ar.ArArchiveInputStreamTest","org.apache.commons.compress.archivers.ar.ArArchiveInputStream"]}
{"key":"COMPRESS-335","title":"TAR checksum fails when checksum is right aligned","description":"The linked TAR has a checksum with zero padding on the left instead of the expected NULL-SPACE terminator on the right. As a result the last two digits of the stored checksum are lost and the otherwise valid checksum is treated as invalid.\nGiven that the code already checks for digits being in range before adding them to the stored sum, is it necessary to only look at the first 6 octal digits instead of the whole field?","creation_date":"2016-02-05T19:38:17.000-06:00","resolution_date":"2016-02-05T20:21:32.000-06:00","fixed_files":["org.apache.commons.compress.archivers.tar.TarUtils","org.apache.commons.compress.DetectArchiverTestCase"]}
{"key":"COMPRESS-336","title":"Extended Standard TAR format prefix is 130 characters","description":"A TAR archive created with star having an artype of \"xstar\" apparently limits the PREFIX to 130 characters to accommodate an access time and a creation time (this much I was able to learn from the star man page). I wasn\u0027t able to track down any specifics about the format, but in at least the first example I found, it appears that the access and creation time are stored as two space terminated ASCII numbers at the end of what would otherwise be the prefix.\nCurrently, the code will read this type of archive and assume the prefix is 131 NULs followed by the two ASCII time stamps. Needless to say, it makes a mess of the entry names.\nI\u0027m not 100% sure of the implementation, but perhaps something like (with XSTAR_PREFIXLEN \u003d\u003d 130):\n\n\n\ndefault: {\n\n  final int prefixlen \u003d header[offset + XSTAR_PREFIXLEN + 1] \u003d\u003d 0 ? XSTAR_PREFIXLEN : PREFIXLEN;\n\n  String prefix \u003d oldStyle\n\n    ? TarUtils.parseName(header, offset, prefixlen)\n\n    : TarUtils.parseName(header, offset, prefixlen, encoding);\n\n  // ...\n\n}\n\n\n\nMaybe a separate feature request would be appropriate for capturing and exposing the additional timestamps?","creation_date":"2016-02-08T17:12:47.000-06:00","resolution_date":"2016-02-14T11:04:27.000-06:00","fixed_files":["org.apache.commons.compress.archivers.tar.TarArchiveEntry","org.apache.commons.compress.archivers.tar.TarConstants"]}
{"key":"COMPRESS-343","title":"Native Memory Leak in Sevenz-DeflateDecoder","description":"The class ...sevenz.Coders.DeflateDecoder does not close (end()) the Deflater and Inflater. This can lead to native memory issues: see https://bugs.openjdk.java.net/browse/JDK-8074108.\nIn our case we create a zip archive with \u003e100000 files. The Java heap is around 300MB (with 2GB max). The native memory is increasing to 8GB and above. Because the Java heap has no pressure - no GC is triggered, therefore the Deflaters are not collected and the native memory is not freed.  \n","creation_date":"2016-03-16T16:25:56.000-05:00","resolution_date":"2016-03-17T09:35:40.000-05:00","fixed_files":["org.apache.commons.compress.archivers.sevenz.Coders"]}
{"key":"COMPRESS-330","title":"Tar UnArchive Fails when archive contains directory sizes which are non-zero.","description":"Tar UnArchive Fails when archive contains directory sizes which are non-zero. I recently came across a set of files which failed to extract with commons-compress but I was able to successfully extract the files with GNU tar. \nThe problem is TarArchiveInputStream.java gets the size of each entry in a tar archive to determine how many bytes to read ahead. Directories are always sized 0 bytes, however its technically possible a tar archive contains a size for a directory. This causes the Input Stream to loose it\u0027s place and eventually results in an exception being thrown.\nI was able to implement a proof-of-concept fix by checking if an entity is a directory and setting the directory size to 0. (A directory with Files in a Tar Archive still has a size of 0 as the directory itself does not have size in the archive.)","creation_date":"2016-01-19T18:55:44.000-06:00","resolution_date":"2016-03-20T19:44:11.000-05:00","fixed_files":["org.apache.commons.compress.archivers.tar.TarArchiveInputStream"]}
{"key":"COMPRESS-344","title":"Handle NULL terminated GNU AR extended name","description":"We have an AR archive (a .lib file) whose extended name is terminated by a NULL instead of a line feed which causes an IOException (\"Failed to read entry: 0\"). It looks like ArArchiveInputStream.getExtendedName just needs to check namebuffer[i] for \u0027\\012\u0027 or 0.\nThe ar tool in latest GNU binutils seems to be able to handle this.\nI don\u0027t know what to make of the archive itself: it seems to contain 291 different copies of a file with the same name; but it is a Windows lib file and I am not going to pretend like I understand if this is supposed to be normal or not.\nThe file in question is part of the SIGAR project, the sigar-bin/lib/sigar-x86-winnt.lib archive from the 1.6.3 distribution exhibits this behavior. The NULL terminated string only appears in the first file, all subsequent files seem to use the expected line feed terminator.","creation_date":"2016-03-22T14:03:05.000-05:00","resolution_date":"2016-03-22T17:17:04.000-05:00","fixed_files":["org.apache.commons.compress.archivers.ar.ArArchiveInputStream"]}
