{"key":"DATACMNS-387","title":"Potential NullPointerExceptions in PartTree area","description":"When creating a PartTree for an empty predicate (e.g. findAllByOrderByFooAsc) we create a Part with a null PropertyPath. This causes issues later on when this path is consumed excepting it not to be null at any time.\nWe should reject the invalid parameters handed around in the value objects more aggressively and even prevent the creation of a Part in the PartTree if the string is empty at this point.","creation_date":"2013-10-27T08:15:15.000-05:00","resolution_date":"2013-10-27T08:35:35.000-05:00","fixed_files":["org.springframework.data.domain.PageImpl","org.springframework.data.repository.query.QueryMethodUnitTests","org.springframework.data.repository.query.QueryMethod","org.springframework.data.domain.Page","org.springframework.data.web.PagedResourcesAssembler","org.springframework.data.domain.PageImplUnitTests","org.springframework.data.util.ClassTypeInformation","org.springframework.data.mapping.PropertyPathUnitTests","org.springframework.data.repository.query.parser.PartTree","org.springframework.data.repository.query.parser.Part","org.springframework.data.util.ClassTypeInformationUnitTests","org.springframework.data.mapping.PropertyPath","org.springframework.data.repository.query.parser.PartTreeUnitTests"]}
{"key":"DATACMNS-410","title":"ReflectionRepositoryInvoker not working properly","description":"The ReflectionRepositoryInvoker is not invoking the findOne method correctly on a non-CrudRepository implementation. Specifically, the:\n\n\n\n\n\n\n \n\n\n\n\npublic T invokeFindOne(Serializable id) {\n\n\n\n\n  return (T) ReflectionUtils.invokeMethod(methods.getFindOneMethod(), id);\n\n\n\n\n}\n\n\n\n\n\n\nshould be fixed to: \n\n\n\n\n\n\n \n\n\n\n\npublic T invokeFindOne (Serializable id) {\n\n\n\n\n  return (T) ReflectionUtils.invokeMethod (methods.getFindOneMethod (), repository, id);\n\n\n\n\n}\n\n\n\n\n\n\n","creation_date":"2013-12-04T11:14:35.000-06:00","resolution_date":"2013-12-13T05:24:00.000-06:00","fixed_files":["org.springframework.data.repository.support.ReflectionRepositoryInvokerUnitTests","org.springframework.data.repository.support.ReflectionRepositoryInvoker","org.springframework.data.repository.support.RepositoriesIntegrationTests"]}
{"key":"DATACMNS-518","title":"Spring Data Infinite Loop in HashMap in PreferredConstructor and CustomConversions","description":"See also post at newsgroup:\nhttp://forum.spring.io/forum/spring-projects/data/750072-spring-data-infinite-loop-in-hashmap-in-preferredconstructor-and-customconversions\nSpring Data Infinite Loops in Production\nThis post is related to an issue we have started seeing in production at the company where I work. I am trying to figure out where to take this next. Should I proceed to filing a bug report, or do I need to try and collect more information?\nIt started happening a few weeks ago. We would see a box CPU suddenly go to 100% indefinitely until the app was redeployed. Fortunately, we did take thread dumps, and in one case a heap dump. We were able to see that there is a recurring infinite loop in two places in Spring Data.\nThis has happened a total of 3 times now. Given the number of nodes we run in PROD, INT and QA (some number \u003e 30), and the length of time we have been in production on this stack, we would characterize it as a rare occurrence. But it worries us.\nOne could ask \"what changed in the application to make this start happening?\". Ack. We are in our busy season right now, so a lot of commits went into our application for the weeks prior to the first occurrence. And given the rare nature of the problem, it would be difficult to really identify even the time range of commits that we would need to evaluate. Root Cause\nIn all 3 cases, the infinite loop is coming from concurrent updates to the thread-unsafe HashMap class. We see it happening within two Spring Data classes:\n\norg.springframework.data.mapping.PreferredConstructor\norg.springframework.data.mongodb.core.convert.CustomConversions\n\nI could explain why HashMap is getting stuck in infinite loops, but several others have already done a great job doing it, so I refer you there:\n\nhttp://mailinator.blogspot.dk/2009/06/beautiful-race-condition.html\nhttps://code.google.com/p/javasimon/issues/detail?id\u003d115\n\nStack Trace Snippets\nThese stack traces come from our thread dumps. Each stack is seen multiple times when the problem occurs. \nPreferredConstructor\n\"http-bio-8080-exec-235\" daemon prio\u003d10 tid\u003d0x00007fb19c0a9800 nid\u003d0x5337 runnable [0x00007fb228953000]\njava.lang.Thread.State: RUNNABLE\nat java.util.HashMap.getEntry(HashMap.java:469)\nat java.util.HashMap.get(HashMap.java:421)\nat org.springframework.data.mapping.PreferredConstruc tor.isConstructorParameter(PreferredConstructor.ja va:120)\nat org.springframework.data.mapping.model.BasicPersis tentEntity.isConstructorArgument(BasicPersistentEn tity.java:98)\nat org.springframework.data.mongodb.core.convert.Mapp ingMongoConverter$1.doWithPersistentProperty(Mappi ngMongoConverter.java:252)\nat org.springframework.data.mongodb.core.convert.Mapp ingMongoConverter$1.doWithPersistentProperty(Mappi ngMongoConverter.java:249)\nat org.springframework.data.mapping.model.BasicPersis tentEntity.doWithProperties(BasicPersistentEntity. java:257)\nat \nCustomConversions\n\"http-bio-8080-exec-75\" daemon prio\u003d10 tid\u003d0x00007f3688018000 nid\u003d0x6c2e runnable [0x00007f376e9ef000]\njava.lang.Thread.State: RUNNABLE\nat java.util.HashMap.getEntry(HashMap.java:469)\nat java.util.HashMap.get(HashMap.java:421)\nat org.springframework.data.mongodb.core.convert.Cust omConversions.getCustomReadTarget(CustomConversion s.java:317)\nat org.springframework.data.mongodb.core.convert.Cust omConversions.hasCustomReadTarget(CustomConversion s.java:281)\nat org.springframework.data.mongodb.core.convert.Mapp ingMongoConverter.read(MappingMongoConverter.java: 200)\nat org.springframework.data.mongodb.core.convert.Mapp ingMongoConverter.readCollectionOrArray(MappingMon goConverter.java:791)\nat \nMore Information\nI posted a lot more information about this issue here:\n\nhttp://peterlairdtech.blogspot.com/2014/06/spring-data-infinite-loop-in-hashmap-in.html\n\nPlease let me know if there are things I can do to help diagnose this further. Thanks!","creation_date":"2014-06-10T10:08:36.000-05:00","resolution_date":"2014-06-26T05:12:06.000-05:00","fixed_files":["org.springframework.data.mapping.PreferredConstructor"]}
