{"key":"106","title":"Only due invoices in Payment Selection","description":"Compiere  bug: 1542707 Only due invoices in Payment Selection I see a problem in the window Payment Selection (manual). The \"Only Due Invoices\" checkbox does not function\ncorrectly for invoices with payment terms using the\n\"Fixed Date\" form. The batch version of generating\nPayment Selections does function correctly! I\u0027ve tracked the problem down to the class\norg.compiere.apps.form.VPaySelect It doesn\u0027t use the\noracle function paymentTermDueDate in determining the\n\"Due Date\" of the invoices (as it does in the batch\nversion of this function). Both the SQL selection and the column display of the\nDueDate need to changed."}
{"key":"109","title":"Print Invoices process - draft \u0026 selection","description":"Compiere Bug: [ 1529707 ] Print Invoices process - includes drafted documents. http://sourceforge.net/tracker/index.php?func\u003ddetail\u0026aid\u003d1529707\u0026group_id\u003d29057\u0026atid\u003d410215 Using Garden World, if you select a date range from somewhere in 2001 to today then ALL invoices are selected regardless of document status OR client!!! Not so bad if you are printing them and posting them to customers but if you use the email option then drafted (and potentially cancelled) invoices are sent too!"}
{"key":"113","title":"Consolidated shipments are not invoiced","description":"Compiere Bug: [ 1255772 ] Consolidated shipments are not invoiced\nhttp://sourceforge.net/tracker/index.php?func\u003ddetail\u0026aid\u003d1255772\u0026group_id\u003d29057\u0026atid\u003d410215 Only the first order in a consolidated shipment is invoiced."}
{"key":"114","title":"Voiding/reversal of consolidated Invoices","description":"Compiere Bug: [ 1477014 ] Generate Invoices for Consolidated Shipments\nhttp://sourceforge.net/tracker/index.php?func\u003ddetail\u0026aid\u003d1477014\u0026group_id\u003d29057\u0026atid\u003d410215 This bug is closely related to compiere bug http://sourceforge.net/tracker/index.php?func\u003ddetail\u0026aid\u003d1255772\u0026group_id\u003d29057\u0026atid\u003d410215 This is the same functional/logic issue as with the consolidated orders bug but related to consolidated Invoices. When consolidated invoiced is voided or reversed only the first order (which is referenced on the  document header) is voided/reversed."}
{"key":"116","title":"Organization: Update Location/Address","description":"The inital organization address of System is a US address. When changing the address users would enter the information in the sequence given (Address 1-4, City, State, ZIP, Country. However, you can only enter a STATE depending on the COUNTRY. When you then change the Country ALL PREVIOUS ENTRIES are reverted back to the initial settings. While this is nothing crucial, it is not very user friendly!"}
{"key":"1240","title":"Posting not balanced when is producing more than 1 produc","description":"The accounting is not balanced  when more that 1 product BOM is produced. when is necesary serialize, then the line must be put 1 each line. in this case the production  cant  apply. Step reproduce 1. En Gardenworld , Production windows , create a row in the tab Production Header for  \"Production 2 Patio  set\". 2. in the tab Production Plan create a row for the Patio Furniture Set product, Production Quantity\u003d 2 3. Then click on  \"Create/post Production\" button in the Production header tab, this create the production line. verify in the production line tab. 4. the first line is necesary divide in two for give a serial each one. then in the Patio Furniture Set product set in movement quantity 1 and give a serial  in the attribute set instance field, then create other row similar but the other serial 5. then click on  \"Create/post Production\" button in the Production header tab 6. click on \"Not Postet\" Button, then there the botton label is changed to \"Dont Balanced\" Regards, Layda Salas - globalqss http://globalqss.com"}
{"key":"37","title":"Report viewer scrolling broken","description":"See Compiere Bug Tracker: http://sourceforge.net/tracker/index.php?func\u003ddetail\u0026aid\u003d1468312\u0026group_id\u003d29057\u0026atid\u003d410215 Basically, the report viewer always jumps from the top\nof a page to the top of the next page when you attempt\nto scroll. If your screen is too small/ resolution too\nlow you can never see the bottom of the page. I posted a patch to Compiere ages ago -- no response,\nof course. Perhaps Adempiere can do better ;)  I\u0027ll\npost my patch over on the patch tracker, and link to it\nhere. Let me know if its good, bad or indifferent. Regards, Paul"}
{"key":"814","title":"In Production fractional Qty becomes zero on production","description":"If we have quantity of BOM products in fractions then when we create production that automatically generates the ProductionLines for the product shows 0 for the items that have quantities in fractions."}
{"key":"815","title":"In LandedCost Cost Distribution for type \"Cost\" is not work.","description":"In landed cost form if we select the \"Costs\" as our cost distribution type then it is not working i.e. it is not generating any Landed cost allocation records."}
{"key":"820","title":"ProductNotOnPriceList Error when creating PO From Requisitio","description":"Hi all, When we try to create a Purchase Order from using \"Create PO from Requisition\" process then it shows product not on price list exception, this is due as in \"RequisitionPOCreate.java\" we have not set the PriceList of order from Requisition and it choose the default price list and if that product is not on that pricelist than it throws exception."}
