{"key":"MAHOUT-561","title":"TestClassifier does not correctly handle \u0027type\u0027 and \u0027source\u0027 command line parameters","description":"TestClassifier does not correctly handle \u0027type\u0027 and \u0027source\u0027 command line parameters"}
{"key":"MAHOUT-564","title":"KMeansClusterer does not use distanceThreshold parameter in testConvergence(Iterable\u003cCluster\u003e clusters, double distanceThreshold) method","description":"While running KMeansClusterer#runKMeansIteration sequentially I noticed that the distanceThreshold parameter is not used. The convergenceDelta field is used instead. However, it\u0027s initialized at 0 and only set when creating a KMeansClusterer with a Configuration object, which is only used in a MapReduce setting."}
{"key":"MAHOUT-565","title":"Features incorrectly hashed in Minhash","description":"Given a feature vector for which minhash signature is desired, each feature id (an integer) is converted to a byte array through a series of bit shift operations. Current implementation of these operations doesn\u0027t mask the bits being shifted resulting in sign bit being shifted."}
{"key":"MAHOUT-569","title":"Category names with spaces cause NullPointerException in ConfusionMatrix when testing classifier","description":"If you try to perform classification using categories with spaces in their names then the classifier will happily train and create a model for you, but when you go to test the model you get: Exception in thread \"main\" java.lang.NullPointerException \tat org.apache.mahout.classifier.ConfusionMatrix.getCount(ConfusionMatrix.java:102) \tat org.apache.mahout.classifier.ConfusionMatrix.incrementCount(ConfusionMatrix.java:118) \tat org.apache.mahout.classifier.ConfusionMatrix.incrementCount(ConfusionMatrix.java:122) \tat org.apache.mahout.classifier.ConfusionMatrix.addInstance(ConfusionMatrix.java:90) \tat org.apache.mahout.classifier.ResultAnalyzer.addInstance(ResultAnalyzer.java:69) \tat org.apache.mahout.classifier.bayes.TestClassifier.classifySequential(TestClassifier.java:266) \tat org.apache.mahout.classifier.bayes.TestClassifier.main(TestClassifier.java:186) \tat sun.reflect.NativeMethodAccessorImpl.invoke0(Native Method) \tat sun.reflect.NativeMethodAccessorImpl.invoke(NativeMethodAccessorImpl.java:39) \tat sun.reflect.DelegatingMethodAccessorImpl.invoke(DelegatingMethodAccessorImpl.java:25) \tat java.lang.reflect.Method.invoke(Method.java:597) \tat org.apache.hadoop.util.ProgramDriver$ProgramDescription.invoke(ProgramDriver.java:68) \tat org.apache.hadoop.util.ProgramDriver.driver(ProgramDriver.java:139) \tat org.apache.mahout.driver.MahoutDriver.main(MahoutDriver.java:182)"}
{"key":"MAHOUT-604","title":"Bayes Classifier fails on data other than training data","description":"The Bayes Classifier throws an exception when tested with different data than the training data."}
{"key":"MAHOUT-610","title":"Not all Coocurrences provided to SimilarityReducer","description":"While doing some tests with the RecommenderJob, and more specifically the RowSimilarityJob, I noticed that in some cases not all cooccurences are used in the similarity calculations ( done in the SimilarityReducer class ). A RowPair object with (RowA\u003d1,RowB\u003d2) isn\u0027t considered the same as (RowA\u003d2,RowB\u003d1). This causes problems as CoocurencesMapper sometimes emits rowpairs in the first form and sometimes in the second form thus separating the cooccurences. If I\u0027m right, this is due to the fact that ordering of the WeightedCoocurrenceArray for one column isn\u0027t guaranteed to be the same as for another column. The solution is very simple, either you can change the compare method of the RowPair class or you can adapt the CooccurencesMapper to enforce that RowA \u003c RowB. Hope I\u0027ve not missed something obvious, and that this is intended behavior. If this is the case, please enlighten me :-) Also, slightly off topic. While doing these tests, I\u0027ve noticed that the predictions are all remarkably high and the RMSE on the movielens 100k dataset lies around 1,6. A bit to high if you ask me. Are these normal values or am I doing something wrong?"}
{"key":"MAHOUT-625","title":"Some of generated patterns have support higher than in reality","description":"It turnes out that some of generated patterns have incorrect support. The returned support is slightly higher than the true one. I attached the test, which proves that FPGrowth has a bug. Test is using data (retail) found here: http://fimi.ua.ac.be/data/\nThe pattern (36, 39, 41) occurs in the transactions 572 times (this is also calculated in test), but the FPGrowth returns pattern (36, 39, 41) with support 573. Please note that mentioned pattern is not the only one with incorrect support - the test only point out one example to hace something to focus on. There is plenty more patterns with support higher than the real one. The biggest difference I noticed was support 8 higher than the real one for one of patterns. Please find attached failing unit test - it\u0027s actually a maven project, which contains test data and is ready to run."}
{"key":"MAHOUT-632","title":" PFPGrowth : Exceeded max jobconf size","description":"I\u0027m getting this error right after startParallelCounting finishes :  11/03/21 19:06:40 INFO mapred.JobClient:     Map output records\u003d164272900 11/03/21 19:06:40 INFO mapred.JobClient:     SPLIT_RAW_BYTES\u003d2860 11/03/21 19:06:40 INFO mapred.JobClient:     Reduce input records\u003d67087840 11/03/21 19:07:02 INFO pfpgrowth.PFPGrowth: No of Features: 1788471 11/03/21 19:07:09 WARN mapred.JobClient: Use GenericOptionsParser for parsing the arguments. Applications should implement Tool for the same. 11/03/21 19:07:12 INFO input.FileInputFormat: Total input paths to process : 20 11/03/21 19:07:17 INFO mapred.JobClient: Cleaning up the staging area hdfs://nccc001:54310/mnt/analytics/data/hadoop/tmp/mapred/staging/isapps/.staging/job_201103101218_0287 Exception in thread \"main\" org.apache.hadoop.ipc.RemoteException: java.io.IOException: java.io.IOException: Exceeded max jobconf size: 72276915 limit: 52428800 at org.apache.hadoop.mapred.JobTracker.submitJob(JobTracker.java:3759) at sun.reflect.GeneratedMethodAccessor18.invoke(Unknown Source) at sun.reflect.DelegatingMethodAccessorImpl.invoke(DelegatingMethodAccessorImpl.java:25) at java.lang.reflect.Method.invoke(Method.java:597) at org.apache.hadoop.ipc.RPC$Server.call(RPC.java:557) at org.apache.hadoop.ipc.Server$Handler$1.run(Server.java:1416) at org.apache.hadoop.ipc.Server$Handler$1.run(Server.java:1412) Quoting Robin :  \"I guess we just hit the limit of storing flist in the conf. Moving it do the distributed cache should fix this.\""}
{"key":"MAHOUT-641","title":"DistributedRowMatrix hadoop jobs ignore Configuration set via setConf()","description":"I am using the Distributed Lanczos solver which uses the DistributedRowMatrix class for it\u0027s internal calculation. In our environment, I need to set some Configuration properties (specifically hadoop.job.ugi \u0026 hadoop.queue.name), which are when set via the setConf() method on DistributedLanczosSolver. These are correctly passed to DistributedRowMatrix via its setConf() method, but are not passed into the Hadoop JobConfs created by the various static routines in MatrixMultiplicationJob, TimesSquaredJob, and TransposeJob."}
{"key":"MAHOUT-678","title":"NullPointerException while using MixedGradient with SGD algorithm","description":"I am trying to use the MixedGradient in OnlineLogisticRegression algorithm. But I will get an NullPointerException randomly if I set the alpha larger than 0. I checked the code and found that in the RankingGradient used by MixedGradient, it assume that the target category should be only 2, rather than multiple. And the rank gradient should only be used once the Gradient object knew both the positive and negative targets. I created a simple patch to make it workable, but I am not really understand the MixedGradient method deeply, please check the patch carefully to see if it really works correctly."}
{"key":"MAHOUT-526","title":"Infinite Recursion in DefaultTreeBuilder","description":"In some cases, building a random forest with a dataset that contains many numerical attributes, the DefaultTreeBuilder enters in an infinite recursion and throws a StackOverflowError."}
