{"id":27,"bug_id":"MATH-1021","text":"HypergeometricDistribution.sample suffers from integer overflow. It looks like the HypergeometricDistribution.sample() method doesn\u0027t work as well as it used to with large integer values -- the example code below should return a sample between 0 and 50, but usually returns -50.","class_goldset":["org.apache.commons.math3.distribution.HypergeometricDistribution"],"method_goldset":["org.apache.commons.math3.distribution.HypergeometricDistribution:getNumericalMean()"],"creation_date":"2013-8-10 00:00:22","resolution_date":"2013-8-29 21:35:32"}
{"id":30,"bug_id":"MATH-221","text":"Result of multiplying and equals for complex numbers is wrong. little java program + output that shows the bug:                 I think the \"equals\" should return \"true\".","class_goldset":["org.apache.commons.math.complex.Complex"],"method_goldset":["org.apache.commons.math.complex.Complex:equals(Object)"],"creation_date":"2008-8-29 13:31:56","resolution_date":"2008-8-29 15:52:38"}
{"id":33,"bug_id":"MATH-274","text":"testing for symmetric positive definite matrix in CholeskyDecomposition. I used this matrix:        I tried this matrix:       And it should throw an exception but it does not.    If you are going to force the use to try and catch these exceptions at least provide methods  to test the conditions prior to the possibility of the exception.","class_goldset":["org.apache.commons.math.linear.CholeskyDecompositionImpl"],"method_goldset":["org.apache.commons.math.linear.CholeskyDecompositionImpl:CholeskyDecompositionImpl(RealMatrix, double, double)"],"creation_date":"2009-6-4 19:24:12","resolution_date":"2009-6-4 20:11:26"}
{"id":34,"bug_id":"MATH-280","text":"bug in inverseCumulativeProbability() for Normal Distribution. This code:   It should return (approx) 2.0000... normal.inverseCumulativeProbability(0.977249868051820); works fine  0 9986501019683698 (should return 3.0000...) 0 9999683287581673 (should return 4.0000...)","class_goldset":["org.apache.commons.math.analysis.solvers.UnivariateRealSolverUtils"],"method_goldset":["org.apache.commons.math.analysis.solvers.UnivariateRealSolverUtils:bracket(UnivariateRealFunction, double, double, double, int)"],"creation_date":"2009-7-6 21:26:57","resolution_date":"2009-7-7 09:21:22"}
{"id":38,"bug_id":"MATH-358","text":"ODE integrator goes past specified end of integration range. The following test case shows the end event is not handled properly and an integration that should cover a 60s range in fact covers a 160s range, more than twice the specified range.","class_goldset":["org.apache.commons.math.ode.nonstiff.RungeKuttaIntegrator;org.apache.commons.math.ode.nonstiff.EmbeddedRungeKuttaIntegrator"],"method_goldset":["org.apache.commons.math.ode.nonstiff.EmbeddedRungeKuttaIntegrator:integrate(FirstOrderDifferentialEquations, double, double[], double, double[])","org.apache.commons.math.ode.nonstiff.RungeKuttaIntegrator:integrate(FirstOrderDifferentialEquations, double, double[], double, double[])"],"creation_date":"2010-3-24 17:25:37","resolution_date":"2010-3-24 22:13:19"}
{"id":42,"bug_id":"MATH-482","text":"FastMath.max(50.0f, -50.0f) \u003d\u003e -50.0f; should be +50.0f. FastMath.max(50.0f, -50.0f) \u003d\u003e -50.0f; should be +50.0f.  The bug was not detected by the test case \"testMinMaxFloat()\" because that has a bug too - it tests doubles, not floats.","class_goldset":["org.apache.commons.math.util.FastMath"],"method_goldset":["org.apache.commons.math.util.FastMath:max(float, float)"],"creation_date":"2011-1-17 19:52:10","resolution_date":"2011-1-17 20:01:32"}
