{"id":117,"bug_id":"OPENJPA-1627","text":"ORderBy with @ElementJoinColumn and EmbeddedId uses wrong columns in SQL. The problem is that the order by in the generated SQL is for columns mapped in the transaction entity NOT the TransacionId as expected. So the Account class has the following fragment....          However the generated SQL is doing order by on columns mapped in Transaction:       @OneToMany(fetch \u003d FetchType.LAZY, cascade \u003d {CascadeType.PERSIST})\n\t@ElementJoinColumn(name\u003d\"maccno\", referencedColumnName\u003d\"maccno\")\n\t@OrderBy(value \u003d \"_id._processDate ASC, _id._tranSequenceNumber ASC\")\n\tprivate LinkedList\u003cTransaction\u003e _transactions;\n\n\n\n @EmbeddedId\n\tprivate TransactionId _id;\n\t\n\t @Column(name \u003d \"mtrancde\")\n\tprivate int _transactionCode;\n\t\n\t @Column(name \u003d \"mamount\")\n\tprivate BigDecimal _amount;\n\t\n\t @Column(name \u003d \"mdesc\")\n\tprivate String _description;\n\t\n\n\n\t @Column(name \u003d \"mactdate\")\n\tprivate Date _actualDate;\n\t\n\t @Column(name \u003d \"mbranch\")\n\tprivate int _branch;\n\n\n\n @Embeddable\npublic class TransactionId  @Column(name \u003d \"maccno\")\n\tprivate String _accountNumber;\n\t\n\t @Column(name \u003d \"mprocdate\")\n\tprivate Date _processDate;\n\t\n\t @Column(name \u003d \"mtranseqno\")\n\tprivate int _tranSequenceNumber;","method_goldset":["org.apache.openjpa.jdbc.meta.JDBCRelatedFieldOrder:order(Select, ClassMapping, Joins)"],"creation_date":"2010-4-12 05:21:13","resolution_date":"2011-1-12 16:41:26"}
{"id":121,"bug_id":"OPENJPA-1784","text":"Map value updates not flushed. I have an entity with a map element collection where the map value is an Embeddable.       Given a persistent instance m of my entity, I update a member of a given map value and then merge the modified entity:     commit();\n   \nThe problem is, the state change of the map does not get saved to the database. With DEBUG logging on, I can see that the flush on commit does not trigger any SQL UPDATE.      After this change, I do see the expected UPDATE.   @Embeddable\npublic class LocalizedString {\n\n\n    private String language;\n    private String string;\n\n\n    // getters and setters omitted\n}\n\n\n \n\n\n @Entity\npublic class MultilingualString {\n\n\n    @Id\n    private long id;\n\n\n    @ElementCollection(fetch\u003dFetchType.EAGER)\n    private Map\u003cString, LocalizedString\u003e map \u003d new HashMap\u003cString, LocalizedString\u003e();\n}\n\n\n\n ;\n    em.getTransaction().begin();\n    m.getMap().get(\"en\").setString(\"foo\");\n     em.merge(m)\n     em.getTransaction() commit();\n   \n ;\n    em.getTransaction().begin();\n     m.getMap() put(\"en\") new LocalizedString(\"en\", \"foo\") em.merge(m)\n     em.getTransaction() commit();\n\n\n hashCode()  equals()  equal()","method_goldset":["org.apache.openjpa.util.ProxyMaps:beforePut(ProxyMap, Object, Object)"],"creation_date":"2010-9-8 08:31:29","resolution_date":"2010-9-10 10:36:48"}
{"id":131,"bug_id":"OPENJPA-526","text":"Insert text more than 4K bytes to Clob column causes SQLException: Exhausted Resultset. Here\u0027s the persistence class:\npublic class Exam... {\n    @Lob\n    @Column(name \u003d \"text\", nullable \u003d false) ***** NOTE: set nullable \u003d true will fix the problem but it leads to bug OPENJPA-525 *****\n    private String text;\n}                                                                                                                                                                                   public class Exam @Lob @Column(name \u003d \"text\", nullable \u003d false)  private String text;\n With nullable \u003d false","method_goldset":["org.apache.openjpa.jdbc.sql.OracleDictionary:setNull(PreparedStatement, int, int, Column)","org.apache.openjpa.persistence.kernel.common.apps.Lobs:Lobs(String, int)","org.apache.openjpa.persistence.kernel.common.apps.Lobs:getId()","org.apache.openjpa.persistence.kernel.common.apps.Lobs:getLob()","org.apache.openjpa.persistence.kernel.common.apps.Lobs:setLob(String)"],"creation_date":"2008-2-27 13:28:05","resolution_date":"2010-9-20 07:36:31"}
