{"key":"4031","title":"TagDefinition of type Enumeration problem - AndroMDA profile","description":"Open the ArgoUML compatible (single file version) AndroMDA profile and look for the TagDefinition @andromda. hibernate.generator.class which is owned by the stereotype \u003c\u003cEntity\u003e\u003e. The type of the TagDefinition should be HibernateGeneratorClass but instead it shows up as what looks like an internal xmi.id and is greyed out."}
{"key":"1671","title":"extra \u003csearchpath\u003e added every time project is saved","description":"1 start argouml 0.13.2 2 create a class and name it \u0027A\u0027 3 create an attr \u0027newAttr\u0027 by doubleclicking in the attr compartment 4 create an oper by doubleclicking in the attr compartment 5 save project as \u0027test.zargo\u0027 6 make a copy of test.zargo 7 make new project (important!) 8 open test.zargo 9 save Theoretically, the two . zargo files should be identically since there\nwere made no changes. The following analysis reveals differences in the 5 files contained in\nthe zip file test.zargo.     The line\n  \u003csearchpath href\u003d\"PROJECT_DIR\" /\u003e\nwas added.       a strange empty FigGroup is added:\n  \u003cgroup name\u003d\"Fig1\"\n       description\u003d\"org.tigris.gef.presentation.FigGroup[0, 0, 0, 0]\"\n       fill\u003d\"1\"\n       fillcolor\u003d\"-1\"\n       stroke\u003d\"1\"\n       strokecolor\u003d\"-16777216\"\n  \u003e\n    \u003cprivate\u003e\n    \u003c/private\u003e\n    \n  \u003c/group\u003e"}
{"key":"4049","title":"Updating the role phrase of an association on a diagram does not update the connections pane","description":"Changing the role phrase of an association end does not change the connections\npanel until you change tabs and back again. This should happen immediately."}
{"key":"2618","title":"Editing association rolename adds +, ++, +++","description":"When I first create an association I see + and +, one for each role. If I double click on a \"+\" and type in a role name \"foo\", I now see \"++foo\", and the role name property is recorded as \"+foo\". To fix, the parsing of the in-diagram user-entered text must process and strip off any visibility characters (+, -, #)."}
{"key":"3100","title":"new package or class shown with funny name in explorer","description":"After adding a new package, the package is shown in the explorer with a funny \nname: \"(anon Package)\" or \"(anon Class)\".   Why not write the \nwhole string, there\u0027s plenty of room."}
{"key":"4200","title":"Activity diagrams vanish in a new Package","description":"Activity diagrams vanish in a Package. That is how you can get the defect: stand on the main Model folder; right mouse click and choose from droped meniu \"Add Package\"; new package appears; rename the package; there are some diagrams below, so i jus drag them one by one using right mouse button and releasing over the package; the package remains unchanged (i expected it should become expandable like a\ndiagram in the tree); in selected package Properties Owned Elements I can see my diagrams, but\ndouble click does not allow me to review them."}
{"key":"3774","title":"Do not set namespace of Model when adding to diagram","description":"To repeat:\nStart argouml. Drag the created defaultmodel into the class diagram. Here is the backtrace:"}
{"key":"4281","title":"Deleting the context of a StateMachine should not delete the StateMachine","description":"If you currently delete an operation, then its StateMachine and\nStatechartDiagram are deleted too. That is not necessary - the namespace that owns the StateMachine still exists."}
{"key":"4324","title":"Wrong default extension while saving","description":"- Create a new project, add a component, save it with name \"foo\" and extension \". uml\" - Now, do some changes, and resave the project. The default file name is \"foo.uml\" (correct) but the default extension is \". zargo\"! If I press \"save\", I get a foo.uml.zargo file.  Maybe we should alreaedy save the chosen extension, or just deduce it from the file name. Moreover, the file name gets cancelled when the extension is changed."}
