{"key":"1709449","title":"Clicking a DOI from context menu fails","description":"Now: Clicking the DOI icon fails, since the default DOI server is not prepended, i.e. Firefox says       A suggestion: You should use a 3rd icon in the document list if both, the hyperlink and the DOI, are available to show this to the user."}
{"key":"1711135","title":"BibTeX export error; missing space before line breaks","description":"I noticed that the bib file saved by JabRef has line breaks in long lines.  If the line is broken right after a constant part of the string, this part may not have a space after it.  In JabRef, I type in the author field:  The exported string looks like this:   Notice how the last \"and\" has no space \\(should s/\\{ and\\}/\\{ and \\}/\\). This results in a concatonation for BibTeX that reads \"andContentsOfFooBarString\" as opposed to the correct \"and ContentsOfFooBarString\"."}
{"key":"1503956","title":"Help text instead of Help icon","description":"In Options -\u003e Preferences -\u003e Entry preview, the help button contains the text \"help\" instead of the usual help icon"}
{"key":"2207462","title":"Web search results hidden behind JabRef window","description":"When searching for a string with the \"Web Search \u003e Search ACM Digital Library\" function, the following happens \\(e.g. searching \"sql injection\" in The Guide\\): \\* A new window opens with progress bar where the results will later be shown \\(yet empty\\). \\* The new window disappears \\(behind the main JabRef window\\) and a message box opens: \"444 entries found. To reduce server load, only 50 will be downloaded.\" \\* Hitting ok: Message box closes, but the result window stays in the background \\(invisible\\).  I would expect that the focus moves to the results window again."}
{"key":"2904968","title":"Entry Editor does not open","description":"Usually, double-clicking on an entry opens the entry editor. Typing Return does the same thing. I have just noticed that in JabRef 6.2Beta2 \\(rev 3140\\), this does not always work \\(in fact, nothing happens after a double-click\\).  I have no idea if it is related to this issue, but the following message is displayed several times in the exceptions list:"}
