{"id":4108,"bug_id":"DATACMNS-157","text":"@Query in extending interface is not picked up correctly. I try to define an interface method in a super repository interface and \u0027implement\u0027 this in an extending interface with @Query.  Tested in the latest nightly build:           Results in                                    It looks like Spring Data does not use the @Query annotation in the sub interface.","file_goldset":["org.springframework.data.repository.core.support.DefaultRepositoryInformationUnitTests","org.springframework.data.repository.core.support.DefaultRepositoryInformation"],"creation_date":"2012-04-20T01:24:38.000-05:00","resolution_date":"2012-04-20T05:15:54.000-05:00"}
{"id":4109,"bug_id":"DATACMNS-160","text":"Regression of Repository instances with only delete* methods. A repository which only defines delete methods is not created by the Spring Data code with the exception:                                                                       I attach a sample Maven project to reproduce the issue","file_goldset":["org.springframework.data.repository.core.support.DefaultRepositoryInformationUnitTests","org.springframework.data.repository.core.support.DefaultRepositoryInformation"],"creation_date":"2012-04-21T08:47:35.000-05:00","resolution_date":"2012-04-26T09:13:19.000-05:00"}
{"id":4110,"bug_id":"DATACMNS-176","text":"StackOverflowError when inserted object is a CGLIB proxy. When trying to persist an object [to MongoDB (spring-data-mongodb v1.1.0. M1)] that is in \"session\" scope and using a CGLIB proxy (ie: \"@Scope(value\u003d\"session\", proxyMode \u003d ScopedProxyMode.TARGET_CLASS)\") I receive a StackOverflowError.","file_goldset":["org.springframework.data.util.ClassTypeInformation"],"creation_date":"2012-05-21T11:47:05.000-05:00","resolution_date":"2012-09-13T10:21:33.000-05:00"}
