{"id":4170,"bug_id":"DATAMONGO-430","text":"Query criteria is not considered in the query. When I perform a query that includes more than one criteria, only the first criteria is being considered, others are discarded. An example is attached; When the query is performed by MongoDB driver it works fine, but with Spring, the problem occurs.","file_goldset":["org.springframework.data.mongodb.core.QueryMapper","org.springframework.data.mongodb.core.query.QueryMapperUnitTests"],"creation_date":"2012-04-10T03:35:56.000-05:00","resolution_date":"2012-04-10T07:38:52.000-05:00"}
{"id":4171,"bug_id":"DATAMONGO-398","text":"Fails to store org.osgi.service.event.Event. When I attempt to save an object from org.apache.felix\u0027s versions of org.osgi.service.event.Event, the stack trace below occurs. This appears to be due to the system attempting to save the topic field in Event as event.topics.  I am using the following dependency versions","file_goldset":["org.springframework.data.mongodb.core.convert.MappingMongoConverterUnitTests","org.springframework.data.mongodb.core.convert.MappingMongoConverter"],"creation_date":"2012-02-10T07:11:53.000-06:00","resolution_date":"2012-02-10T07:22:05.000-06:00"}
{"id":4172,"bug_id":"DATAMONGO-392","text":"Updating an object does not write type information for objects to be updated. I\u0027m using quite complex domain model, that consist of instantiable domain classes as well as of abstract ones. I used 1.0.0. M5 version, and the type information (under _class key) was stored with object when it was necessary to be able to read it from database later.  RELEASE version that broke my application as it saves the objects without type information and later it is impossible to read it back to java model. What I found is that MappingMongoConverter.writeInternal(...) method that in turn calls addCustomTypeIfNecessary(...) (line 330) which puts type information into DBObject. During execution of convertToMongoType(...) (at line 851) removeTypeInfoRecursively(...) is called which clears type data saved earlier under _class key.","file_goldset":["org.springframework.data.mongodb.core.MongoTemplateTests","org.springframework.data.mongodb.core.MongoTemplate"],"creation_date":"2012-02-07T04:28:15.000-06:00","resolution_date":"2013-07-08T06:13:48.000-05:00"}
