{"id":4206,"bug_id":"DATAMONGO-1263","text":"Missing indexes in associations involving generic types. When an association between documents involves generic types, the type information is not correctly inferred at startup time resulting in missing indexes.  Given:  When defining a class Catalog with a list of \"wrapped\" books:  The index \"name\" inherited from AbstractProduct is created (book2.content.name) inside \"catalog\" , but the index defined on the Book class itself (isbn) is not created as Spring Data Mongo is only inferring type infromation from the ProductWrapper class definition (ProductWrapper \u003cT extends AbstractProduct\u003e).  If the wrapper class is defined as ProductWrapper\u003cT\u003e, then no indexes are created at all on Catalog.books2.content.","file_goldset":["org.springframework.data.mongodb.core.index.MongoPersistentEntityIndexResolverUnitTests","org.springframework.data.mongodb.core.index.MongoPersistentEntityIndexResolver"],"creation_date":"2015-07-30T09:03:41.000-05:00","resolution_date":"2015-11-09T19:09:44.000-06:00"}
{"id":4207,"bug_id":"DATAMONGO-1290","text":"@Query annotation with byte[] parameter does not work. ... but only the first works. Please find an example project with test attached!","file_goldset":["org.springframework.data.mongodb.repository.query.StringBasedMongoQuery","org.springframework.data.mongodb.repository.query.StringBasedMongoQueryUnitTests"],"creation_date":"2015-09-17T15:30:23.000-05:00","resolution_date":"2015-11-20T12:25:32.000-06:00"}
{"id":4208,"bug_id":"DATAMONGO-1250","text":"Custom converter implementation not used in updates. I have a custom (de)serialiser for an enumerated type, and it works perfectly when saving and loading a @Document annotated POJO. It also works when building and executing a Query object. However when used in an Update, it is either ignored, or called in situations where it shouldn\u0027t. Please clone https://github.com/patrickherrera/converter_test.git for a full test application. In brief there is a POJO and for the purposes of the test it has a static enum with the desired converters:                                                 There is a unit test that drives a few scenarios:                                                By use of a positive and negative case, it appears that the converter is being called correctly when used in the Query builder. When it comes to an Update, the Enum is unable to be serialised correctly, and an exception is thrown to that effect.  So it appears that the customer converter for converting from my Enum is not called in this situation.  The BigDecimal is converted to a String by an existing converter I assume, but then my customer converter is called to try and convert the numeric String into an Allocation Enum which of course fails.  That second variant never seems to be called in MappingMongoConverter, but perhaps if that type information was passed then it would not use my Allocation converter. Without type information it seems the default is just to use the first converter that can handle the input type, in this case a String.","file_goldset":["org.springframework.data.mongodb.core.convert.UpdateMapper","org.springframework.data.mongodb.core.convert.UpdateMapperUnitTests"],"creation_date":"2015-07-03T21:07:44.000-05:00","resolution_date":"2015-07-04T10:10:16.000-05:00"}
