{"key":"COMPRESS-287","title":"Support for 7z archives using \"kDummy\"","description":"When Commons Compress 1.8.1 parse the attachment file:Archive.7z, the following error occurred.\norg.apache.tika.exception.TikaException: TIKA-198: Illegal IOException from org.apache.tika.parser.pkg.PackageParser@886b178\nEndTime:\t1407899886604\nat org.apache.tika.parser.CompositeParser.parse(CompositeParser.java:248)\nat org.apache.tika.parser.CompositeParser.parse(CompositeParser.java:242)\nat org.apache.tika.parser.AutoDetectParser.parse(AutoDetectParser.java:148)\nat org.apache.tika.Tika.parseToString(Tika.java:381)\nat fileparser.fileparser_jsonstring(fileparser.java:116)\nat test.main(test.java:26)\nCaused by: java.io.IOException: kDummy is unsupported, please report\nat org.apache.commons.compress.archivers.sevenz.SevenZFile.readFilesInfo(SevenZFile.java:711)\nat org.apache.commons.compress.archivers.sevenz.SevenZFile.readHeader(SevenZFile.java:242)\nat org.apache.commons.compress.archivers.sevenz.SevenZFile.readHeaders(SevenZFile.java:198)\nat org.apache.commons.compress.archivers.sevenz.SevenZFile.\u003cinit\u003e(SevenZFile.java:95)\nat org.apache.commons.compress.archivers.sevenz.SevenZFile.\u003cinit\u003e(SevenZFile.java:117)\nat org.apache.tika.parser.pkg.PackageParser.parse(PackageParser.java:133)\nat org.apache.tika.parser.CompositeParser.parse(CompositeParser.java:242)\n... 5 more","creation_date":"2014-08-13T15:00:53.000-05:00","resolution_date":"2014-08-14T05:41:58.000-05:00","fixed_files":["org.apache.commons.compress.archivers.sevenz.SevenZFile"]}
{"key":"COMPRESS-289","title":"TarArchiveOutputStream includes timestamp in long link headers","description":"When I create a Tar Archive Entry with a long name, the Long Link Entry contains a default modification date of the current Date.\nThis results in two archives with the same contents having different MD5 checksums.\n","creation_date":"2014-09-17T19:48:19.000-05:00","resolution_date":"2014-09-19T18:10:24.000-05:00","fixed_files":["org.apache.commons.compress.archivers.tar.TarArchiveOutputStreamTest","org.apache.commons.compress.archivers.tar.TarArchiveOutputStream"]}
{"key":"COMPRESS-297","title":"Cleaning up unclosed ZipFile for archive","description":"If you try to create a ZipFile from a non-existent file, then it throws a FileNotFoundException, which is fine. The problem is that the constructor appears to leave behind objects that the caller cannot close. So, later on when the garbage collector runs, a message is printed to stdout that says \"Cleaning up unclosed ZipFile for archive\". Here is a failing unit test:\nTCommonCompressZipFileConstructor.java\n\n\nimport org.apache.commons.compress.archivers.zip.ZipFile;\n\nimport org.junit.Test;\n\n\n\nimport java.io.File;\n\nimport java.io.IOException;\n\n\n\npublic final class TCommonCompressZipFileConstructor {\n\n    @Test\n\n    public void constructorThatThrowsExceptionLeavesBehindObjects() {\n\n        final File file \u003d new File(\"\");\n\n        try {\n\n            new ZipFile(file);\n\n        } catch (final IOException e) {\n\n            e.printStackTrace();\n\n            System.gc();\n\n        }\n\n    }\n\n}\n\n\n\nAnd here is the test output:\n\njava.io.FileNotFoundException: \n\tat java.io.RandomAccessFile.open(Native Method)\n\tat java.io.RandomAccessFile.\u003cinit\u003e(RandomAccessFile.java:241)\n\tat org.apache.commons.compress.archivers.zip.ZipFile.\u003cinit\u003e(ZipFile.java:213)\n\tat org.apache.commons.compress.archivers.zip.ZipFile.\u003cinit\u003e(ZipFile.java:192)\n\tat org.apache.commons.compress.archivers.zip.ZipFile.\u003cinit\u003e(ZipFile.java:153)\n\tat com.mathworks.mlwidgets.explorer.unittest.TCommonCompressZipFileConstructor.constructorThatThrowsExceptionLeavesBehindObjects(TCommonCompressZipFileConstructor.java:14)\n...\ncom.intellij.rt.execution.application.AppMain.main(AppMain.java:134)\nCleaning up unclosed ZipFile for archive L:\\IntelliJ projects\\foo","creation_date":"2014-12-19T16:37:13.000-06:00","resolution_date":"2014-12-22T16:37:01.000-06:00","fixed_files":["org.apache.commons.compress.archivers.zip.ZipFile"]}
