{"id":4235,"bug_id":"WFCORE-727","text":"Some commands throws NPE on tab completion once disconnected. Some commands throws NullPointerException when CLI is disconnected from controller and user tries to use tab completion (so far I found these: ls, read-attribute, read-operation).","file_goldset":["org.jboss.as.cli.impl.CommandCandidatesProvider","org.jboss.as.cli.handlers.ReadAttributeHandler","org.jboss.as.cli.handlers.LsHandler"],"creation_date":"2015-06-02T06:44:33.000-05:00","resolution_date":"2015-06-10T10:10:11.000-05:00"}
{"id":4236,"bug_id":"WFCORE-1229","text":"Reloading the embed host controller logs ERROR messages. Embed host controller sometime logs ERROR message while booting up after the reload (\u0027reload --host\u003dmaster --admin-only\u003dtrue\u0027).","file_goldset":["org.jboss.as.domain.controller.operations.coordination.PrepareStepHandler"],"creation_date":"2015-12-15T22:24:13.000-06:00","resolution_date":"2016-01-29T22:35:27.000-06:00"}
{"id":4237,"bug_id":"WFCORE-1027","text":"Inconsistent read-resource results with host scoped roles. Setting up host scoped roles as follows https://gist.github.com/heiko-braun/0dc810ed04db8739defd there are inconsistent results in the filtering. When using a role which only selects the master there is no access-control response header showing the filtered resources, and the slave wrongly appears in the results:                                                              When using a role that only selects the slave we get a proper access-control header","file_goldset":["org.jboss.as.test.integration.domain.rbac.ListRoleNamesTestCase","org.jboss.as.test.integration.domain.rbac.WildcardReadsTestCase","org.jboss.as.test.integration.domain.rbac.JmxRBACProviderHostScopedRolesTestCase","org.jboss.as.test.integration.domain.rbac.RBACProviderHostScopedRolesTestCase","org.jboss.as.test.integration.domain.rbac.AbstractHostScopedRolesTestCase","org.jboss.as.controller.operations.global.GlobalOperationHandlers"],"creation_date":"2015-10-01T18:16:10.000-05:00","resolution_date":"2015-10-06T16:00:01.000-05:00"}
{"id":4238,"bug_id":"WFCORE-1611","text":"CLI could stuck if SIGINT is send during authentication dialogue. Interruption a CLI session with Ctrl+C during authentication dialogue could get CLI into unresponsive state.  Either use a remote server, --no-local-auth cli script arg or remove a local element from ManagementRealm configuration     start a standalone server and launch a CLI       Username: \u003cPress Ctrl+C here\u003e Could not connect message is printed, but process is not terminated and stuck at this point.","file_goldset":["org.jboss.as.cli.impl.CliShutdownHook"],"creation_date":"2016-06-22T08:49:33.000-05:00","resolution_date":"2016-06-28T10:23:55.000-05:00"}
{"id":4239,"bug_id":"WFCORE-1908","text":"Tab completion suggest writing attribute which has access type metric and is not writable. CLI tab completion suggests attributes that are not writable and their access-type is metric Example    On attempt to write metric attribute, for example message-count, non writable error is printed","file_goldset":["org.jboss.as.cli.Util","org.jboss.as.cli.impl.AttributeNamePathCompleter","org.jboss.as.cli.parsing.test.AttributeNamePathCompletionTestCase"],"creation_date":"2016-10-31T08:13:57.000-05:00","resolution_date":"2016-11-02T21:27:51.000-05:00"}
{"id":4240,"bug_id":"WFCORE-267","text":"CLI prints output twice if using cli client jar. If you are using the CLI client jar, all output is printed twice. This is because JBoss logging is not set up and by default CommandContextImpl is printing log messages to standard out. The output will look something like this:","file_goldset":["org.jboss.as.cli.CommandLineMain"],"creation_date":"2014-11-19T19:47:31.000-06:00","resolution_date":"2014-12-05T23:16:30.000-06:00"}
{"id":4241,"bug_id":"WFCORE-716","text":"Once server in reload-required state capabilities no longer checked at stage Model.. Once a server is in the state reload-required capabilities and requirements are no longer checked e.g.: -          The following command is referencing a non-existent capability: -          When I execute :reload it will fail: -","file_goldset":["org.jboss.as.controller.CapabilityReferenceRecorder"],"creation_date":"2015-05-27T10:21:36.000-05:00","resolution_date":"2015-06-10T13:09:19.000-05:00"}
{"id":4242,"bug_id":"WFCORE-916","text":" Kerberos authentication into Management Console does not fallback correctly. Fallback management realm is not taken into account for Kerberos authentication into Management Console. In cases when Kerberos authentication to Management Console is configured also with fallback mechanism (properties, security-domain...) and one of: realm in principal is not set correctly path to keytab is not set correctly is set in EAP configuration and when user with valid kerberos ticket tries to access Management Console then fallback is not taken into account and user cant access management console.","file_goldset":["org.jboss.as.domain.management.logging.DomainManagementLogger","org.jboss.as.domain.management.security.KeytabService"],"creation_date":"2015-08-18T05:52:06.000-05:00","resolution_date":"2015-10-08T09:51:45.000-05:00"}
{"id":4243,"bug_id":"WFCORE-1346","text":"extension remove reports sucess even if the extension does not exist. e.g.:","file_goldset":["org.jboss.as.controller.extension.ExtensionRemoveHandler","org.wildfly.core.test.standalone.extension.remove.ExtensionRemoveTestCase"],"creation_date":"2016-02-02T07:24:08.000-06:00","resolution_date":"2016-03-22T01:00:41.000-05:00"}
{"id":4244,"bug_id":"WFCORE-229","text":"server-config operations \"leaks\" to server\u0027s resources. Start a regular domain Any operations on server children with the same names that server-config operations (:start, :stop, :restart, :kill) are executed instead of being rejected because the actual resources at the operation address does not define them. Examples:                                                     If the corresponding server-config resource is actually stopped, the operations fail because there is no resource at the operation\u0027s address.","file_goldset":["org.jboss.as.controller.registry.ProxyControllerRegistration","org.jboss.as.controller.registry.DelegatingImmutableManagementResourceRegistration","org.jboss.as.subsystem.test.SubsystemTestDelegate","org.jboss.as.controller.registry.NodeSubregistry","org.jboss.as.controller.registry.ImmutableManagementResourceRegistration","org.jboss.as.controller.registry.ConcreteResourceRegistration","org.jboss.as.controller.registry.AbstractResourceRegistration","org.jboss.as.controller.registry.DelegatingManagementResourceRegistration","org.jboss.as.domain.controller.operations.AbstractOperationTestCase","org.jboss.as.controller.extension.ExtensionRegistry","org.jboss.as.controller.registry.AliasResourceRegistration"],"creation_date":"2014-11-07T15:20:11.000-06:00","resolution_date":"2014-12-16T15:37:45.000-06:00"}
{"id":4245,"bug_id":"WFCORE-1578","text":"Better check of names of existing resources when adding \u0027{local|remote-destination-outbound-socket-binding\u0027. Lets have some /socket-binding-group\u003dstandard-sockets/socket-binding with particular name. Then when I create some /socket-binding-group\u003dstandard-sockets/remote-destination-outbound-socket-binding or /socket-binding-group\u003dstandard-sockets/local-destination-outbound-socket-binding using same name as of already existing socket-binding resource, add operation is successful but when I perform server reload, it crashes as it is not able to parse configuration.  Start EAP and log to CLI create your own socket-binding resource and {remote|local}-destination-outbound-socket-binding resource with same names and perform reload      server crashes with following stacktrace in console log:","file_goldset":["org.jboss.as.server.services.net.SocketBindingAddHandler","org.jboss.as.controller.logging.ControllerLogger","org.jboss.as.server.services.net.RemoteDestinationOutboundSocketBindingAddHandler","org.jboss.as.server.services.net.LocalDestinationOutboundSocketBindingAddHandler"],"creation_date":"2016-06-07T05:13:13.000-05:00","resolution_date":"2016-06-30T22:42:01.000-05:00"}
{"id":4246,"bug_id":"WFCORE-1936","text":"Value of parameters \"restart-required\" for fixed-*port attributes does not match reality for socket-binding and *-destination-outbound-socket-binding in CLI. If you tries to change such attributes you are informed that reload is necessary.","file_goldset":["org.jboss.as.server.services.net.OutboundSocketBindingResourceDefinition","org.jboss.as.controller.resource.AbstractSocketBindingResourceDefinition"],"creation_date":"2016-11-04T10:57:06.000-05:00","resolution_date":"2016-11-07T18:40:35.000-06:00"}
{"id":4247,"bug_id":"WFCORE-763","text":"Persisting an empty list [] gets read as a list with empty string [\"\"] resulting in IllegalArgumentException. e.g. if I persist an empty list to xml, and read it back again, using the default parser/marshaller, I should get back an empty list. Instead I get back a list of size 1 containing an empty string.","file_goldset":["org.jboss.as.controller.AttributeParser","org.jboss.as.controller.SimpleListAttributeDefinitionUnitTestCase"],"creation_date":"2015-06-16T14:59:39.000-05:00","resolution_date":"2015-06-18T20:36:00.000-05:00"}
{"id":4248,"bug_id":"WFCORE-997","text":"Security realm using ldaps hangs forever during SSL handshake, when ldap server is killed. When ldap server is killed in particular time of ssl handshake EAP hangs and waits forever on response, which will never come. Causing thread to block forever.","file_goldset":["org.jboss.as.domain.management.connections.ldap.ThreadLocalSSLSocketFactory","org.jboss.as.domain.management.security.WrapperSSLContext"],"creation_date":"2015-09-22T03:53:31.000-05:00","resolution_date":"2015-10-08T12:06:14.000-05:00"}
{"id":4249,"bug_id":"WFCORE-500","text":"domain mode: remove a path entry from a server instance fails. Adding a \"path\" to a \"server-config\" in domain mode (works fine) and then remove it again results in a NullPointerException","file_goldset":["org.jboss.as.controller.services.path.PathRemoveHandler"],"creation_date":"2015-01-13T13:10:50.000-06:00","resolution_date":"2015-01-22T01:53:22.000-06:00"}
{"id":4250,"bug_id":"WFCORE-1635","text":"Write attribute on a new deployment scanner fails in batch. Creating a new deployment-scanner and altering it\u0027s attribute fails if done in single batch. Running the commands without batch or running batch on CLI embed-server works fine.","file_goldset":["org.jboss.as.server.deployment.scanner.AbstractWriteAttributeHandler"],"creation_date":"2016-07-05T07:04:51.000-05:00","resolution_date":"2016-07-08T23:36:17.000-05:00"}
{"id":4251,"bug_id":"WFCORE-701","text":"Inconsistent domain server status reports between server-config resource and server resource. When a managed server fails in some way, the server status reporting is inconsistent between the /host\u003d\u003chost\u003e/server-config\u003d\u003cserver\u003e resources and the /host\u003d\u003chost\u003e/server\u003d\u003cserver\u003e resource. To reproduce, run domain.sh, find the pid of a server process, and kill -9 \u003cthepid\u003e. Then with the CLI:","file_goldset":["org.jboss.as.host.controller.ManagedServer"],"creation_date":"2015-05-19T15:06:17.000-05:00","resolution_date":"2016-03-30T14:44:00.000-05:00"}
{"id":4252,"bug_id":"WFCORE-1959","text":"Deploying an empty managed exploded deployment to server group in domain fails. Deploying an empty exploded deployment created on domain controller fails with the following:","file_goldset":["org.jboss.as.domain.controller.operations.coordination.ServerOperationResolver"],"creation_date":"2016-11-08T16:28:30.000-06:00","resolution_date":"2016-11-09T01:18:14.000-06:00"}
{"id":4253,"bug_id":"WFCORE-765","text":"Shutdown error in domain mode. Download and unpack wildfly-dist-9.0.0.CR2.zip. Run bin/domain.sh and wait for servers to start. Hit Ctrl-C.  The following error message appears for each configured server:","file_goldset":["org.jboss.as.server.operations.ServerDomainProcessShutdownHandler"],"creation_date":"2015-06-16T11:16:33.000-05:00","resolution_date":"2015-06-18T20:36:51.000-05:00"}
{"id":4254,"bug_id":"WFCORE-495","text":"WFLY won\u0027t startup due to \"WFLYCTL0212: Duplicate resource [(\\\"deployment\\\" \u003d\u003e \\\"xxx.war\\\")]\". WFLY won\u0027t startup due to \"WFLYCTL0212: Duplicate resource [(\\\"deployment\\\" \u003d\u003e \\\"xxx.war\\\")]\" If you firstly deploy a . war application by CLI command, then deploy 2nd time same . war application by copying it to /depolyment directory. After server restart, it shows:          1. start wildfly and deploy a . war application by CLI. 2. copy same . war application to /deployment directory 3. restart wildfly to see the error message. This happens because step 2 does a \"full-replace-deployment\" operation which does not remove content from standalone/data/content/aa/2d0425dd53572294d591b56efdee2680539eaf/content and deployment info from configuration file(standalone.xml). Therefore, you will have xxx.war in standalone/data/content and configuration file(standalone.xml), also a xxx.war and xxx.war.deployed file inside /standalone/deployments. A second time server restart will cause a duplicate resource error.","file_goldset":["org.jboss.as.server.deployment.DeploymentFullReplaceHandler"],"creation_date":"2015-01-12T08:48:29.000-06:00","resolution_date":"2015-01-23T22:27:07.000-06:00"}
{"id":4255,"bug_id":"WFCORE-1062","text":"Deployments from the domain/data/content folder goes missing after few minutes if the Host controller is started with --backup option.. Host controller started with --backup option deletes the deployments from the domain/data/content folder after approximately 10 mins. The deployment is restored or recreated if the HostController is started.     1. Setup domaincontroller 2. Setup hostcontroller 3. Start domaincontroller 4. Start hostcontroller with --backup option. 5. deploy an application using cli or admin console    6. deployments are available under $JBOSS_HOME/domain/data/content 7. Wait for approximately 10 minutes 8. Cached deployments are deleted on hostcontroller (domain/data/content is empty). Following is the logging seen on the console :     9. After restarting the Host Controller, the deployment is restored and the cached deployment can now be seen under the Host Controller\u0027s domain/data/content folder. Actual results: Deployment folder form domain/data/content folder gets deleted after approx 10 mins and are restored if the Host Controller is restarted","file_goldset":["org.jboss.as.domain.controller.resources.DomainDeploymentResourceDefinition","org.jboss.as.domain.controller.operations.deployment.DeploymentAddHandler","org.jboss.as.controller.persistence.FilePersistenceUtils","org.jboss.as.server.deployment.ContentCleanerService","org.jboss.as.repository.ContentRepository"],"creation_date":"2015-10-20T09:33:46.000-05:00","resolution_date":"2015-10-22T13:43:41.000-05:00"}
{"id":4256,"bug_id":"WFCORE-754","text":"EAP fails to start with -bmanagement\u003d option and with specific IP settings. EAP fails to start with -bmanagement\u003d option. IPv4 address is used in this option. Host Controller starts to listening on IPv4:9999 Server:server-one probably resolve IPv4 address to host name. Server-one tries to connect to this host name. Hostname is resolved by ping ($ ping dev98) to IPv6 address, where host controller is not listening.      Example on dev98 machine:                      Actual results:","file_goldset":["org.jboss.as.host.controller.ServerInventoryService"],"creation_date":"2015-06-02T11:17:26.000-05:00","resolution_date":"2015-06-18T20:37:41.000-05:00"}
{"id":4257,"bug_id":"WFCORE-58","text":"Setting some locales causes missing buttons on console and throws errors.. When WildFly 9 Alpha1 is started with the following system properties in the \"standalone.conf\" then the admin console behaves abnormally and shows some missing buttons in the console.   Also it throws following Error while accessing the console URL like [1]","file_goldset":["org.jboss.as.remoting.Protocol","org.jboss.as.test.integration.management.rbac.PermissionsCoverageTestUtil","org.jboss.as.domain.management.security.password.PasswordCheckUtil","org.jboss.as.host.controller.discovery.S3Util","org.jboss.as.controller.access.rbac.StandardRoleMapper","org.jboss.as.test.integration.management.interfaces.JmxInterfaceStringUtils","org.jboss.as.controller.operations.global.ReadResourceDescriptionHandler","org.jboss.as.threads.ThreadPoolManagementUtils","org.jboss.as.host.controller.DirectoryGrouping"],"creation_date":"2014-08-18T05:18:45.000-05:00","resolution_date":"2014-09-01T18:26:22.000-05:00"}
{"id":4258,"bug_id":"WFCORE-1333","text":"Editing of default deployment scanner\u0027s relative-to attribute can cause server crash. Setting value of relative-to attribute of default deployment scanner on standalone server to a path which does not exists in file system causes server crash.","file_goldset":["org.jboss.as.server.deployment.scanner.DeploymentScannerDefinition","org.jboss.as.server.deployment.scanner.logging.DeploymentScannerLogger"],"creation_date":"2016-01-27T03:12:39.000-06:00","resolution_date":"2016-04-07T00:21:18.000-05:00"}
{"id":4259,"bug_id":"WFCORE-1590","text":"Default parameter length validating ignores setMinSize(0). With the following attribute definition: -          The following error is reported if an empty string is used as a parameter: -","file_goldset":["org.jboss.as.controller.AbstractAttributeDefinitionBuilder","org.jboss.as.controller.test.WriteAttributeOperationTestCase","org.jboss.as.controller.AttributeDefinition","org.jboss.as.controller.SimpleAttributeDefinitionUnitTestCase","org.jboss.as.controller.operations.validation.BytesValidator"],"creation_date":"2016-06-12T14:18:43.000-05:00","resolution_date":"2016-08-11T15:17:26.000-05:00"}
{"id":4260,"bug_id":"WFCORE-815","text":"One profile can have more ancestors with same submodules. One profile can have more ancestors with same submodules. It leads to WFLYCTL0212: Duplicate resource [(\"subsystem\" \u003d\u003e \"subsystem_name\")] .     get fresh EAP","file_goldset":["org.jboss.as.host.controller.logging.HostControllerLogger","org.jboss.as.domain.controller.operations.SocketBindingGroupIncludesHandlerTestCase","org.jboss.as.domain.controller.operations.ProfileIncludesHandlerTestCase"],"creation_date":"2015-07-13T07:57:45.000-05:00","resolution_date":"2015-07-15T13:34:32.000-05:00"}
{"id":4261,"bug_id":"WFCORE-989","text":"Premature registration of reconnecting server. ServerInventoryImpl.reconnectServer is registering the ProxyController for the reconnecting server with the DomainModelControllerService. The problem is that ProxyController is not yet in a state where it can forward requests to the server. That won\u0027t happen until the server calls back with a DomainServerProtocol.SERVER_RECONNECT_REQUEST and the ServerToHostProtocolHandler.ServerReconnectRequestHandler handles it. The effect is if a request for the server comes in during this window, it will fail.   Most significant logging is as follows:             The HC completes boot. Then servers main-three and other-two register. The HC sends a prepared response to a request. This is the host rollout request to the slave from the DC with the response being the ops to invoke on the servers. The HC reports sending a \"pre-prepare failed response\" to two requests. These are the requests the DC has asked it to proxy to the servers. The result of all this for the client is the following failure of a management op: Failed operation:     Response:                                The \"WFLYHC0153: Channel closed\" failure is what is produced when an attempt is made to invoke on a disconnected proxy controller.","file_goldset":["org.jboss.as.host.controller.ServerInventoryImpl","org.jboss.as.host.controller.mgmt.ServerToHostProtocolHandler"],"creation_date":"2015-09-19T03:11:07.000-05:00","resolution_date":"2015-10-23T17:03:25.000-05:00"}
{"id":4262,"bug_id":"WFCORE-499","text":"System properties are broken in domain mode. There seems to be some weirdness in how system properties are being propagated to domain mode servers, and in many cases they are not being applied.  The only way I could get the property to be applied was to start the server first, then add the property using boot-time\u003dfalse, although even in this case the property will disappear if the domain is restarted or the server is reloaded.","file_goldset":["org.jboss.as.test.integration.domain.suites.CoreResourceManagementTestCase","org.jboss.as.server.operations.SystemPropertyAddHandler","org.jboss.as.server.controller.resources.SystemPropertyResourceDefinition","org.jboss.as.host.controller.ManagedServerBootCmdFactory"],"creation_date":"2015-01-13T01:54:46.000-06:00","resolution_date":"2015-02-06T23:21:02.000-06:00"}
{"id":4263,"bug_id":"WFCORE-1718","text":"Handlers within Audit Logger are not removed properly when Audit Logger is removed. If Audit Logger is removed, destination handlers (i.e. its child nodes) are not removed properly. They are not present in the config file. They seem to be not removed \"internally\" though.  1. It is not possible to remove referenced File/Syslog handlers. If user tries to remove them the NullPointerException is given as a result. Try following commands:   Their output is:      2. AuditLog continues to send auditable events to previously referenced File/Syslog handlers. Create auditable event (e.g. /subsystem\u003dlogging/logger\u003dcom.arjuna:write-attribute(name\u003dlevel,value\u003dDEBUG)) See log in the file (WILDFLY_HOME/standalone/data/audit-log.log) See log in the syslog (/var/log/messages)","file_goldset":["org.jboss.as.domain.management.audit.AccessAuditResourceDefinition","org.jboss.as.domain.management.audit.AuditLogLoggerResourceDefinition","org.jboss.as.domain.management.audit.AuditLogHandlerReferenceResourceDefinition"],"creation_date":"2016-08-16T09:49:11.000-05:00","resolution_date":"2016-08-31T21:54:29.000-05:00"}
{"id":4264,"bug_id":"WFCORE-1115","text":"Intermittent failures of CompositeOperationTestCase \u0026 CoreResourceManagementTestCase. org.jboss.as.test.integration.domain.suites.CompositeOperationTestCase and org.jboss.as.test.integration.domain.suites.CoreResourceManagementTestCase from wildfly-core testsuite domain module starts to intermittently fail since 7.0.0. DR13 (2.0.0. CR8). Tests fails only once I run the whole Domain Mode Integration Tests module, running only these two tests in isolation never fails. Reproducer job which starts the tests in testsuite/domain module:","file_goldset":["org.jboss.as.test.integration.domain.suites.IgnoredResourcesProfileCloneTestCase"],"creation_date":"2015-11-09T11:29:41.000-06:00","resolution_date":"2015-11-19T20:41:55.000-06:00"}
{"id":4265,"bug_id":"WFCORE-798","text":"Parser support missing for EAP 6.3 version of \u0027skip-group-loading\u0027. Trying to run WildFly full\u0027s ParseAndMarshalModelsTestCase against the EAP 6.3 configs results in failures like this:","file_goldset":["org.jboss.as.domain.management.parsing.ManagementXml_Legacy"],"creation_date":"2015-07-07T19:42:47.000-05:00","resolution_date":"2015-08-26T13:27:09.000-05:00"}
{"id":4266,"bug_id":"WFCORE-1572","text":"Suggestion list for argument value is not generated if the value contains a whitespace. When an argument value contains a space (eg. deploy /path/to/test-application. war --all-server-groups --headers\u003d{rollout id\u003dfoo}) and if user hits tab after the whitespace, suggestions are generated based on the command, rather than the current argument\u0027s name.","file_goldset":["org.jboss.as.cli.parsing.ParserUtil","org.jboss.as.cli.parsing.test.CommandTestCase","org.jboss.as.cli.parsing.DefaultStateWithEndCharacter"],"creation_date":"2016-05-27T16:20:10.000-05:00","resolution_date":"2016-06-20T02:04:49.000-05:00"}
{"id":4267,"bug_id":"WFCORE-268","text":"CLI GUI fails if connecting to AS7 or EAP6. If you try to use a WildFly version CLI GUI to connect to AS7 or EAP6, you will get a failure. The reason is because CLI GUI tries to do a list-log-files operation, which does not exist in those older AS versions.","file_goldset":["org.jboss.as.cli.gui.ServerLogsPanel","org.jboss.as.cli.gui.GuiMain"],"creation_date":"2014-11-19T19:55:59.000-06:00","resolution_date":"2014-11-20T17:41:51.000-06:00"}
{"id":4268,"bug_id":"WFCORE-604","text":" After failed to deploy, remain deployment information in JBOSS_HOME/{standalone|domaine}/data/content directory. - After failed to deploy, remain deployment information in JBOSS_HOME/{standalone|domaine}/data/content directory     1. Fail to deploy application via jboss-cli 2. Find deployment info in JBOSS_HOME/{standalone|domaine}/data/content, but there are no standalone.xml in \u003cdeployments\u003e tag. 3. Fix deployment and success to deploy. 4. Find \"new\" deployment info in JBOSS_HOME/{standalone|domaine}/data/content, and the old deployment info will be still there.     - The deployment information which created when deploy was failed remains in JBOSS_HOME/{standalone|domaine}/data/content.","file_goldset":["org.jboss.as.domain.controller.operations.deployment.DeploymentAddHandler","org.jboss.as.host.controller.mgmt.ServerToHostProtocolHandler","org.jboss.as.domain.controller.operations.ApplyRemoteMasterDomainModelHandler","org.jboss.as.host.controller.model.host.HostResourceDefinition","org.jboss.as.repository.LocalDeploymentFileRepository","org.jboss.as.domain.controller.operations.deployment.DeploymentFullReplaceHandler","org.jboss.as.host.controller.DomainModelControllerService","org.jboss.as.domain.controller.operations.deployment.DeploymentRemoveHandler","org.jboss.as.server.deploymentoverlay.DeploymentOverlayContentAdd","org.jboss.as.domain.controller.operations.deployment.ServerGroupDeploymentReplaceHandler","org.jboss.as.host.controller.RemoteDomainConnectionService","org.jboss.as.server.logging.ServerLogger","org.jboss.as.core.model.test.TestModelControllerService","org.jboss.as.server.deployment.DeploymentFullReplaceHandler","org.jboss.as.server.deployment.DeploymentAddHandlerTestCase","org.jboss.as.repository.logging.DeploymentRepositoryLogger","org.jboss.as.management.client.content.ManagedDMRContentTypeResource","org.jboss.as.core.model.test.LegacyKernelServicesImpl","org.jboss.as.domain.controller.operations.deployment.ServerGroupDeploymentAddHandler","org.jboss.as.subsystem.test.TestModelControllerService","org.jboss.as.server.controller.resources.ServerRootResourceDefinition","org.jboss.as.server.deploymentoverlay.DeploymentOverlayContentDefinition","org.jboss.as.repository.DeploymentFileRepository","org.jboss.as.server.test.InterfaceManagementUnitTestCase","org.jboss.as.host.controller.mgmt.MasterDomainControllerOperationHandlerImpl","org.jboss.as.host.controller.HostControllerService","org.jboss.as.domain.controller.operations.deployment.ServerGroupDeploymentRemoveHandler","org.jboss.as.management.client.content.ManagedDMRContentTypeAddHandler","org.jboss.as.repository.LocalFileRepository","org.jboss.as.server.ApplicationServerService","org.jboss.as.test.shared.ModelParserUtils","org.jboss.as.host.controller.ManagedServerOperationsFactory","org.jboss.as.domain.controller.resources.DomainRootDefinition","org.jboss.as.server.deployment.DeploymentRemoveHandler","org.jboss.as.domain.controller.resources.ServerGroupResourceDefinition","org.jboss.as.repository.ContentRepository","org.jboss.as.domain.controller.resources.DomainDeploymentResourceDefinition","org.jboss.as.server.mgmt.domain.RemoteFileRepositoryService","org.jboss.as.server.deployment.DeploymentReplaceHandler","org.jboss.as.server.deployment.DeploymentAddHandler"],"creation_date":"2015-03-18T09:19:35.000-05:00","resolution_date":"2015-03-25T18:39:26.000-05:00"}
{"id":4269,"bug_id":"WFCORE-1570","text":"Saved rollout-plan \u0027name\u0027 or \u0027id\u0027 attribute discrepancy. When using rollout plans for EAP deployment scenarios I can create my own named rollout-plan for ease of use. I can then apply rollout command later on, referring with name of my own rollout plan that should be used.  When I create rollout-plan, I use command like:  see --name attribute given to name my rollout plan When I then refer to it I use following command:   see id attribute given to rollout header operation","file_goldset":["org.jboss.as.cli.parsing.operation.header.RolloutPlanState","org.jboss.as.cli.parsing.operation.header.RolloutPlanHeaderCallbackHandler","org.jboss.as.cli.operation.impl.RolloutPlanCompleter"],"creation_date":"2016-05-27T12:51:56.000-05:00","resolution_date":"2016-06-20T02:05:22.000-05:00"}
{"id":4270,"bug_id":"WFCORE-942","text":"Parameter completion for :read-resource and :read-children-resources is broken. When I try to use tab completion to add parameters to \"read-resource\" and \"read-children-resources\" operations, it does not suggest any params but instead just closes the parameter list.","file_goldset":["org.jboss.as.cli.operation.impl.DefaultOperationCandidatesProvider"],"creation_date":"2015-09-01T20:48:03.000-05:00","resolution_date":"2015-09-02T11:19:46.000-05:00"}
{"id":4271,"bug_id":"WFCORE-1714","text":"Tab completion doesn\u0027t offer more options once prefix match some value. Tab completion for CLI variables doesn\u0027t offer more values once the variable to be completed match some value. reproduce   actual","file_goldset":["org.jboss.as.cli.CommandCompleter"],"creation_date":"2016-08-15T08:26:57.000-05:00","resolution_date":"2016-09-06T22:14:31.000-05:00"}
{"id":4272,"bug_id":"WFCORE-145","text":"CLI run-batch command cannot process files with comments or blank lines. In the JBoss CLI tool, the \"run-batch --file\u003dscript.cli\" command cannot successfully process lines that start with \"#\" or blank lines.  However, running the batch file containing comments/blank lines as a parameter to jboss-cli.sh works just fine (. /jboss-cli.sh -c --file\u003dscript.cli).","file_goldset":["org.jboss.as.cli.handlers.batch.BatchRunHandler","org.jboss.as.test.integration.management.cli.BatchFileTestCase","org.jboss.as.cli.handlers.BaseOperationCommand"],"creation_date":"2014-10-02T13:28:22.000-05:00","resolution_date":"2014-11-26T13:02:59.000-06:00"}
{"id":4273,"bug_id":"WFCORE-892","text":"Cli output of some tests contains only \"0: \" (instead of correct result). Cli output of some tests in wildfly core contains only \"0: \" (instead of correct result)                   Steps to Reproduce:","file_goldset":["org.jboss.as.test.integration.management.util.CustomCLIExecutor"],"creation_date":"2015-08-19T15:20:34.000-05:00","resolution_date":"2015-11-25T19:13:59.000-06:00"}
{"id":4274,"bug_id":"WFCORE-638","text":"deployment runtime-name mismatch between content repo and server-group and logs. If this is the first deployment we run this command.    For subsequent deployments we force a redeploy over existing deployment.            The application runtime name in content repository is not the same as what is shown in the server group.  You will see from the screenshots that the content repository shows runtime name\u003dapollo-0.1.12-SNAPSHOT-11\\ 03. war, but the server group shows runtime-name\u003dapollo-0.1.12-SNAPSHOT-1045.   The server.logs from wildfly show \"Deployed \"apollo.war\" (runtime-name : \"apollo-0.1.12-SNAPSHOT-1045. war\")\" However, we can tell by app capabilities that what is really deployed is apollo-0.1.12-SNAPSHOT-1103.","file_goldset":["org.jboss.as.domain.controller.operations.deployment.DeploymentFullReplaceHandler"],"creation_date":"2015-03-31T16:49:09.000-05:00","resolution_date":"2015-04-10T19:48:42.000-05:00"}
{"id":4275,"bug_id":"WFCORE-285","text":"cli tab completion gets confused by double slash. Using two slashes in a CLI path and hitting TAB confuses the auto-completion","file_goldset":["org.jboss.as.cli.parsing.test.AddressOnlyParsingTestCase","org.jboss.as.cli.operation.impl.DefaultOperationRequestParser","org.jboss.as.cli.operation.CommandLineParser","org.jboss.as.cli.operation.impl.DefaultCallbackHandler"],"creation_date":"2014-11-14T14:25:02.000-06:00","resolution_date":"2014-12-03T19:09:09.000-06:00"}
{"id":4276,"bug_id":"WFCORE-1765","text":"unclear NullPointerException if the deployment-scanner element is removed from the configuration. If the deployment scanner element is removed from the configuration of the standalone server a NullPointerException is logged which is unclear and difficult to find as the stack does not show any hint.      Log message:","file_goldset":["org.jboss.as.controller.ParallelBootOperationStepHandler"],"creation_date":"2016-09-05T16:22:02.000-05:00","resolution_date":"2016-09-06T22:20:53.000-05:00"}
{"id":4277,"bug_id":"WFCORE-896","text":"Cannot patch EAP once Docs are excluded from installation. EAP installer allows user to exclude some packs from installation. Docs directory is one of them. If user choose to do so, $JBOSS_HOME/docs directory is not present in distribution. Trying to apply a patch (contains changes with docs files) on such a distribution gives me:    Patch was generated using:","file_goldset":["org.jboss.as.patching.runner.BundlePatchingTask","org.jboss.as.patching.runner.PatchingTaskDescription","org.jboss.as.patching.runner.AbstractPatchingTask","org.jboss.as.patching.metadata.ModificationBuilderTarget","org.jboss.as.patching.runner.PatchingTask","org.jboss.as.patching.runner.IdentityPatchRunner","org.jboss.as.patching.runner.FileRemoveTask","org.jboss.as.patching.tests.AbstractPatchTestBuilder","org.jboss.as.patching.metadata.PatchXml_1_0","org.jboss.as.patching.runner.FileUpdateTask","org.jboss.as.patching.tests.PatchStepAssertions","org.jboss.as.patching.metadata.PatchXml","org.jboss.as.patching.metadata.ContentModification","org.jboss.as.patching.runner.ModuleUpdateTask","org.jboss.as.patching.logging.PatchLogger","org.jboss.as.patching.metadata.PatchXmlUtils","org.jboss.as.patching.runner.ModuleRemoveTask","org.jboss.as.patching.runner.ContentModificationUtils","org.jboss.as.patching.metadata.RollbackPatchXml_1_0"],"creation_date":"2015-08-20T11:24:44.000-05:00","resolution_date":"2015-09-03T15:53:21.000-05:00"}
{"id":4278,"bug_id":"WFCORE-626","text":"Global list-get operation can inadvertently create list elements. Consider the following sequence of operations:     #2 will return \u003cundefined\u003e as expected.  However, it returns \u003cundefined\u003e. This is because #2 will create the missing element at index 0 causing #3 to operate on index 1.","file_goldset":["org.jboss.as.controller.operations.global.MapOperations","org.jboss.as.controller.operations.global.ListOperations"],"creation_date":"2015-04-06T15:53:19.000-05:00","resolution_date":"2015-04-15T13:17:29.000-05:00"}
{"id":4279,"bug_id":"WFCORE-1214","text":"Operation headers not propagated to domain servers when \u0027composite\u0027 op is used. When the user adds request headers to an op, they are not propagated to the servers during domain rollout if the \u0027composite\u0027 op is involved. For example, if I add some stdout printing of what the headers are on the various processes and invoke this:   Then on a HC with two servers, this is logged:                                    Note the CLI \u0027deploy\u0027 is far from the only time the \u0027composite\u0027 op is used. Among other places, the high level CLI \u0027batch\u0027 command in a domain involves use of \u0027composite\u0027.","file_goldset":["org.jboss.as.domain.controller.operations.coordination.OperationCoordinatorStepHandler","org.jboss.as.domain.controller.operations.coordination.DomainRolloutStepHandler"],"creation_date":"2015-12-11T23:17:45.000-06:00","resolution_date":"2015-12-16T22:48:39.000-06:00"}
{"id":4280,"bug_id":"WFCORE-1657","text":"Confusing tab completion for adding a module dependencies. Using tab completion for adding a module dependencies with module add command could lead to invalid module.xml as CLI prompt user to use module name with \"system.layers.base\" prefix, which is not a part of module name.  Add a new module via module add command, use tab-completion for dependencies         this way something like following is generated in module.xml file","file_goldset":["org.jboss.as.cli.handlers.module.ASModuleHandler"],"creation_date":"2016-07-15T11:51:17.000-05:00","resolution_date":"2016-09-19T17:13:58.000-05:00"}
{"id":4281,"bug_id":"WFCORE-955","text":"Server is not responding after attempt to set parent of profile to non-existent profile. Server is not responding after attempt to set parent of profile to non-existent profile. Server is not responding also after attempt to set parent of socket-binding-group to non-existent socket-binding-group.         Get fresh EAP        Actual results:                       Get fresh EAP","file_goldset":["org.jboss.as.controller.logging.ControllerLogger","org.jboss.as.controller.OperationContextImpl","org.jboss.as.controller.AbstractOperationContext","org.jboss.as.controller.capability.registry.IncludingResourceCapabilityScope","org.jboss.as.controller.SocketCapabilityResolutionUnitTestCase","org.jboss.as.controller.AbstractCapabilityResolutionTestCase"],"creation_date":"2015-08-27T14:34:07.000-05:00","resolution_date":"2015-09-04T13:33:34.000-05:00"}
{"id":4282,"bug_id":"WFCORE-230","text":"Failure by ProcessController to launch a server vm is not logged. In a domain configuration, if a server is associated with an incorrectly configurated jvm java-home (e.g. domain.xml -\u003e server-groups -\u003e jvm), it will fail silently (no error shown in logs). For example:","file_goldset":["org.jboss.as.test.integration.domain.management.ServerAutoStartTestCase","org.jboss.as.host.controller.ServerInventoryImpl","org.jboss.as.test.integration.domain.ServerManagementTestCase","org.jboss.as.host.controller.ManagedServer"],"creation_date":"2014-11-07T17:46:38.000-06:00","resolution_date":"2015-05-01T15:02:55.000-05:00"}
{"id":4283,"bug_id":"WFCORE-1793","text":"add-content operation fails to overwrite existing content with overwrite\u003dtrue set when passing content by file path. Upon overwriting content in managed exploded deployments on wildfly-core, the following errors are produced:","file_goldset":["org.jboss.as.server.deployment.ExplodedDeploymentAddContentHandler","org.jboss.as.server.controller.resources.DeploymentAttributes"],"creation_date":"2016-09-14T08:08:21.000-05:00","resolution_date":"2016-09-20T21:22:42.000-05:00"}
{"id":4284,"bug_id":"WFCORE-868","text":"CLI if/else is not handling special characters strings with parenthesis. When using CLI if-else scripting that uses a string that contains parenthesis it fails with the following message:","file_goldset":["org.jboss.as.cli.handlers.ifelse.NotEqualsOperation","org.jboss.as.cli.handlers.ifelse.NotGreaterThanOperation","org.jboss.as.cli.handlers.ifelse.LesserThanOperation","org.jboss.as.cli.impl.ArgumentWithValue","org.jboss.as.cli.handlers.ifelse.IfHandler","org.jboss.as.cli.parsing.ifelse.test.IfExpressionParsingTestCase","org.jboss.as.cli.handlers.ifelse.BaseOperation","org.jboss.as.cli.handlers.ifelse.IfElseControlFlow","org.jboss.as.cli.handlers.ifelse.EqualsOperation","org.jboss.as.cli.parsing.DefaultStateWithEndCharacter","org.jboss.as.cli.parsing.ifelse.test.ComparisonTestBase","org.jboss.as.cli.handlers.ifelse.AndOperation","org.jboss.as.cli.handlers.ifelse.OrOperation","org.jboss.as.cli.handlers.ifelse.GreaterThanOperation","org.jboss.as.cli.handlers.ifelse.NotLesserThanOperation"],"creation_date":"2015-08-05T08:12:55.000-05:00","resolution_date":"2015-09-10T21:35:00.000-05:00"}
{"id":4285,"bug_id":"WFCORE-1198","text":"CLI does not resolve multiple properties if one property is undefined. Multiple property substitution is working with EAP 6.4.3+, however, if a variable amongst the multiple variables is empty or has no value, then the subsequent property in the CLI command is not substituted. For example :            and if I execute \".       Note APP-VERSION had no value, and so the subsequent SERVER-INSTANCE-NUMBER was not properly resolved","file_goldset":["org.jboss.as.cli.parsing.ExpressionBaseState","org.jboss.as.cli.parsing.test.PropertyReplacementTestCase"],"creation_date":"2015-12-09T09:30:00.000-06:00","resolution_date":"2015-12-23T05:08:33.000-06:00"}
{"id":4286,"bug_id":"WFCORE-980","text":"The capability registry fails to rollback properly. If we register an already registered capability at a new RegistrationPoint and the operation rollbacks the registry still has the new RegistrationPoint. The publishedFullRegistry should be a deep copy of the registry:","file_goldset":["org.jboss.as.controller.CapabilityRegistryTestCase","org.jboss.as.controller.CapabilityRegistry"],"creation_date":"2015-09-15T18:30:52.000-05:00","resolution_date":"2015-09-16T16:37:15.000-05:00"}
{"id":4287,"bug_id":"WFCORE-1864","text":"Whitespaces are not removed from dependencies in module add command. Running module add --name\u003dfoo.bar --resources\u003dfoo.jar --dependencies\u003d[org.a, org.b ] will result in following dependencies in module.xml","file_goldset":["org.jboss.as.cli.handlers.module.ASModuleHandler","org.jboss.as.test.integration.management.cli.ModuleTestCase"],"creation_date":"2016-10-13T09:12:31.000-05:00","resolution_date":"2016-10-26T20:18:59.000-05:00"}
{"id":4288,"bug_id":"WFCORE-1288","text":"installing CP over one-off fails if the modules patched by the one-off are not patched in the CP. If a CP is installed over active one-off patches, the patch application may fail if the CP does not contain updates for the modules that were patched by the one-offs.","file_goldset":["org.jboss.as.patching.installation.MutableTargetImpl","org.jboss.as.patching.runner.IdentityPatchContext","org.jboss.as.patching.installation.InstallationManager","org.jboss.as.patching.runner.IdentityPatchRunner","org.jboss.as.patching.runner.PatchingTask"],"creation_date":"2016-01-11T18:27:07.000-06:00","resolution_date":"2016-01-26T12:21:44.000-06:00"}
{"id":4289,"bug_id":"WFCORE-442","text":"AbstractMultiTargetHandler-based handlers do not propagate failures to the top level failure-description. An example is worth a thousand words:                                                                                                                                 One item in the set has a failure description but the overall response does not.","file_goldset":["org.jboss.as.controller.operations.global.GlobalOperationHandlers"],"creation_date":"2014-12-02T19:15:13.000-06:00","resolution_date":"2015-05-28T21:46:55.000-05:00"}
{"id":4290,"bug_id":"WFCORE-876","text":"Reload or Shutdown inside IF statement is performed before the if/else block batch is executed. Executing a reload or shutdown inside an if/else block results in the reload or restart occurring before the other commands in the batch are executed.     This command will actually leave the server in a reload-required state. The shutdown, or reload, will occur before the write-attribute is executed.","file_goldset":["org.jboss.as.cli.handlers.ifelse.IfElseControlFlow","org.jboss.as.cli.handlers.trycatch.TryCatchFinallyControlFlow","org.jboss.as.test.integration.management.cli.TryCatchFinallyTestCase","org.jboss.as.test.integration.management.cli.ifelse.NonExistingPathComparisonTestCase","org.jboss.as.test.integration.management.cli.ifelse.BasicIfElseTestCase"],"creation_date":"2015-08-12T07:52:43.000-05:00","resolution_date":"2015-09-18T13:23:39.000-05:00"}
{"id":4291,"bug_id":"WFCORE-949","text":"Removing http-interface autocompletes but fails. Executing /core-service\u003dmanagement/management-interface\u003dhttp-interface:remove() autocompletes but does not succeed.","file_goldset":["org.jboss.as.subsystem.test.AdditionalInitialization","org.wildfly.core.test.standalone.mgmt.HTTPSManagementInterfaceTestCase","org.jboss.as.jmx.RemotingConnectorResource","org.jboss.as.server.operations.HttpManagementRemoveHandler","org.jboss.as.host.controller.resources.NativeManagementResourceDefinition","org.jboss.as.test.integration.domain.HTTPSManagementInterfaceTestCase","org.jboss.as.server.operations.NativeRemotingManagementRemoveHandler","org.jboss.as.server.operations.NativeManagementRemoveHandler","org.jboss.as.host.controller.resources.HttpManagementResourceDefinition","org.wildfly.core.test.standalone.mgmt.HTTPSConnectionWithCLITestCase","org.jboss.as.remoting.management.ManagementRemotingServices","org.jboss.as.remoting.logging.RemotingLogger","org.jboss.as.server.mgmt.NativeManagementResourceDefinition","org.jboss.as.host.controller.operations.HttpManagementRemoveHandler","org.jboss.as.server.mgmt.HttpManagementResourceDefinition"],"creation_date":"2015-09-03T05:08:35.000-05:00","resolution_date":"2015-09-21T18:59:23.000-05:00"}
{"id":4292,"bug_id":"WFCORE-940","text":"CLI gets fooled by early connection. CLI acts as I was connected to the standalone instance, some high level commands are not executable.    # run while domain is booting    # domain has fully booted","file_goldset":["org.jboss.as.cli.impl.CommandContextImpl"],"creation_date":"2015-08-31T12:20:01.000-05:00","resolution_date":"2015-09-22T11:59:51.000-05:00"}
{"id":4293,"bug_id":"WFCORE-931","text":"Embedded host-controller throws NPE on regular shutdown. Invoking the /host\u003dmaster:shutdown operation on embedded host-controller gives me NPE.           Using operation style :shutdown throws NPE.","file_goldset":["org.jboss.as.host.controller.model.host.HostResourceDefinition"],"creation_date":"2015-08-28T12:00:07.000-05:00","resolution_date":"2015-09-23T00:44:31.000-05:00"}
{"id":4294,"bug_id":"WFCORE-1007","text":"Warnings about missing notification descriptions when an operation removes an extension. When I use migration operation the console log is filled with warning messages of type   If I do the sequence of operation                    then I the log looks like","file_goldset":["org.jboss.as.controller.logging.ControllerLogger","org.jboss.as.controller.AbstractOperationContext"],"creation_date":"2015-09-24T06:45:11.000-05:00","resolution_date":"2015-09-25T15:39:44.000-05:00"}
