{"key":"DATACMNS-114","title":"Wrong custom implementation automatically detected","description":"When automatically scanning the repositories, and their custom implementation, the wrong custom implementation is wired to our repository bean. Resulting in the following exception:                            When starting the application context, the contractRepository bean is linked to our anotherContractRepositoryImpl rather than the contractRepositoryImpl.   It might be desirable to scan on getImplementationClassName() before applying the wildcard prefix."}
{"key":"DATACMNS-228","title":"Mapping sub-system should exclude Groovy introduced properties from persistent properties","description":"When using Groovy classes with the mapping metadata sub-system, the Groovy compiler introduced fields like metaClass should not be considered a persistent property."}
{"key":"DATACMNS-233","title":"DomainClassConverter should gracefully return null for null sources or empty strings","description":"When posting a new Order where Order.customer \u003d\u003d \"\" then a converter exception is thrown:     I think it should not try to convert to Domain class if id is null or empty."}
{"key":"DATACMNS-441","title":"Analyzing @Query annotated bridge methods lead to NPEs during QueryMethod processing in Java 8","description":"We should skip bridge methods instead considering them for @Query annotation inspection, since we cannot extract the generic type parameter from bridge  methods."}
