{"key":"WFCORE-1309","title":"Applying patch - \"no space available\" not specific enough","description":"Patch apply can fail if there is not enough free space, however the message does not indicate what device does not have any free space.  Patch apply uses tmp space and if there is not enough tmp space it will fail with this message as well. The message should be more explicit as to where there is no space so that the user knows which drive to check."}
{"key":"WFCORE-1908","title":"Tab completion suggest writing attribute which has access type metric and is not writable","description":"CLI tab completion suggests attributes that are not writable and their access-type is metric     On attempt to write metric attribute, for example message-count, non writable error is printed       CLI should not suggest writing attributes that are not writable."}
{"key":"WFCORE-763","title":"Persisting an empty list [] gets read as a list with empty string [\"\"] resulting in IllegalArgumentException","description":"e.g. if I persist an empty list to xml, and read it back again, using the default parser/marshaller, I should get back an empty list. Instead I get back a list of size 1 containing an empty string."}
{"key":"WFCORE-229","title":"server-config operations \"leaks\" to server\u0027s resources","description":"Any operations on server children with the same names that server-config operations (:start, :stop, :restart, :kill) are executed instead of being rejected because the actual resources at the operation address does not define them.                                                      If the corresponding server-config resource is actually stopped, the operations fail because there is no resource at the operation\u0027s address."}
{"key":"WFCORE-1027","title":"Inconsistent read-resource results with host scoped roles","description":"When using a role which only selects the master there is no access-control response header showing the filtered resources, and the slave wrongly appears in the results:                                                              When using a role that only selects the slave we get a proper access-control header                                                                                master-monitor should behave the same as slave-maintainer."}
{"key":"WFCORE-1578","title":"Better check of names of existing resources when adding \u0027{local|remote-destination-outbound-socket-binding\u0027","description":"Then when I create some /socket-binding-group\u003dstandard-sockets/remote-destination-outbound-socket-binding or /socket-binding-group\u003dstandard-sockets/local-destination-outbound-socket-binding using same name as of already existing socket-binding resource, add operation is successful but when I perform server reload, it crashes as it is not able to parse configuration.        server crashes with following stacktrace in console log:                                    If there is a problem for those resources to have same names I would welcome that names are checked during the add operation already regarding to all resources in socket-binding and {remote|local}-destination-outbound-socket-binding."}
{"key":"WFCORE-1354","title":"Cannot clone a profile with a remoting subsystem but no io subsystem","description":"The remoting subsystem added a requirement for the new io subsystem\u0027s worker capability, but it has special logic such that the requirement is only added if an endpoint resource is configured.  This breaks down in the case of the profile \u0027clone\u0027 op, as a placeholder resource we add for the endpoint (to allow reads of the default endpoint config data) ends up getting \u0027described\u0027 and added by the cloning process. So that added resource triggers an unmet requirement for the io worker:         I\u0027m not sure how to deal with this; some sort of marker is needed to disable \u0027describing\u0027 that placeholder resource."}
{"key":"WFCORE-1915","title":"ParseUtils.parseAttributeValue should not fail due to DMR type conversions","description":"The task of ParseUtils.parseAttributeValue is to convert a string into a ModelNode.  And, it is not the job of this method to do validation; there is other code that does that. So, the type conversion this method does should not be allowed to produce failures."}
{"key":"WFCORE-754","title":"EAP fails to start with -bmanagement\u003d option and with specific IP settings","description":"EAP fails to start with -bmanagement\u003d option.  Host Controller starts to listening on IPv4:9999 Server:server-one probably resolve IPv4 address to host name. Server-one tries to connect to this host name. Hostname is resolved by ping ($ ping dev98) to IPv6 address, where host controller is not listening.                            Actual results:                    No errors"}
{"key":"WFCORE-1607","title":"Removing children of security-realm always finishes with {\"outcome\" \u003d\u003e \"success\"}","description":"Removing children of security-realm (e.g. authentication) always finishes with {\"outcome\" \u003d\u003e \"success\"}   It should rather finish with failure to indicate that nothing was removed."}
{"key":"WFCORE-1062","title":"Deployments from the domain/data/content folder goes missing after few minutes if the Host controller is started with --backup option.","description":"Host controller started with --backup option deletes the deployments from the domain/data/content folder after approximately 10 mins. The deployment is restored or recreated if the HostController is started.             6. deployments are available under $JBOSS_HOME/domain/data/content  8. Cached deployments are deleted on hostcontroller (domain/data/content is empty). Following is the logging seen on the console :     9. After restarting the Host Controller, the deployment is restored and the cached deployment can now be seen under the Host Controller\u0027s domain/data/content folder. Actual results: Deployment folder form domain/data/content folder gets deleted after approx 10 mins and are restored if the Host Controller is restarted Expected results: The cached deplpyments folder should never be removed from the HostController\u0027s domain/data/content folder."}
{"key":"WFCORE-604","title":" After failed to deploy, remain deployment information in JBOSS_HOME/{standalone|domaine}/data/content directory","description":"- After failed to deploy, remain deployment information in JBOSS_HOME/{standalone|domaine}/data/content directory        4. Find \"new\" deployment info in JBOSS_HOME/{standalone|domaine}/data/content, and the old deployment info will be still there.     - The deployment information which created when deploy was failed remains in JBOSS_HOME/{standalone|domaine}/data/content.  - The deployment information which created when deploy was failed should be removed if the deploy is failed."}
{"key":"WFCORE-1481","title":"list-add operation doesn\u0027t work on login-modules attribute","description":"Executing list-add operation on login-modules results in the modules being replaced instead of appending new module."}
{"key":"WFCORE-1552","title":"Slaves should report the master\u0027s version in the domain model","description":"Setting up the mixed domain tests for an EAP7 slave, I get the following error :                           product-name, product-version, release-codename and release-version on the slave should be the same as the master values."}
{"key":"WFCORE-815","title":"One profile can have more ancestors with same submodules","description":"One profile can have more ancestors with same submodules. It leads to WFLYCTL0212: Duplicate resource [(\"subsystem\" \u003d\u003e \"subsystem_name\")] .                  No errors."}
{"key":"WFCORE-1120","title":"Launcher sets \"-Djava.net.preferIPv4Stack\u003dtrue\" also with IPv6 profile","description":"Domain tests \"-Djava.net.preferIPv4Stack\u003dtrue\" also with IPv6 profile.    And testsuite should use this option with IPv6 profile.            EAP is not started with \"-Djava.net.preferIPv4Stack\u003dtrue\" property with IPv6 profile"}
{"key":"WFCORE-626","title":"Global list-get operation can inadvertently create list elements","description":"#2 will return \u003cundefined\u003e as expected. The expected result of #4 is \"test\". However, it returns \u003cundefined\u003e. This is because #2 will create the missing element at index 0 causing #3 to operate on index 1."}
{"key":"WFCORE-1028","title":"Poor handling of invalid roles","description":"A CLI request with an invalid value in the \"roles\" header results in improper behavior:       The op should fail because the role doesn\u0027t exist, but there is no failure-description. The following is dumped in the HC log:"}
{"key":"WFCORE-1715","title":"HostProcessReloadHandler does not reset the HostRunningModeControl\u0027s restartMode","description":"The ReloadContext created by HostProcessReloadHandler sets the HostRunningModeControl\u0027s restartMode but then it never gets restored to the default value. The doReload() method of the ReloadContext should restore it. This ensures the ServerInventoryService.stop() only uses the value set by HostProcessReloadHandler once, for that one reload. A concern here is that ServerInventoryService only goes into its \"shutdownServers\" logic if the restartMode \u003d\u003d RestartMode.SERVERS.  But if we restore the default value of restartMode, that is null, and null ! \u003d RestartMode.SERVERS. So the \"\"shutdownServers\" logic will no longer kick in."}
{"key":"WFCORE-1007","title":"Warnings about missing notification descriptions when an operation removes an extension","description":"When I use migration operation the console log is filled with warning messages of type                       then I the log looks like                                                                                                                     I think that the migration operation should not show those warnings."}
{"key":"WFCORE-1212","title":"TestModule does not clean up after itself properly","description":"TestModule.create() calls mkdirs() to create its filesystem structure, but remove() only removes the dir above \u0027main\u0027 and below, leaving behind intermediate dirs. The result of this is if you run the full testsuite with -Dts.basic, the dist/target/wildflyxxx/modules dir ends up with child dir \u0027test\u0027 in addition to the proper \u0027system\u0027.    Once remove() does its current work it should walk up the filesystem tree until it gets to the file returned by getModulesDir(). For each level in the tree it should check if that file is a dir with no children and if it is it should remove the dir."}
{"key":"WFCORE-687","title":"patches with duplicate element patch-id values should be rejected","description":"Patches that contain duplicate patch-id attribute values in \u0027element\u0027 elements in patch.xml can be applied but can\u0027t be rolled back. An attempt to rollback such a patch will result in an error \"Content loader already registered for patch \" + patchID, thrown from IdentityPatchContext.recordContentLoader(patchID, contentLoader). Current implementation should reject patches with duplicate element patch-id values (unless the value is \u0027base\u0027)."}
{"key":"WFCORE-1936","title":"Value of parameters \"restart-required\" for fixed-*port attributes does not match reality for socket-binding and *-destination-outbound-socket-binding in CLI","description":"fixed-port attribute of socket-binding and fixed-source-port attributes of *-destination-outbound-socket-binding define in its description that there is not necessary to do reload or restart for any of them.  If you tries to change such attributes you are informed that reload is necessary."}
{"key":"WFCORE-1572","title":"Suggestion list for argument value is not generated if the value contains a whitespace","description":"war --all-server-groups --headers\u003d{rollout id\u003dfoo}) and if user hits tab after the whitespace, suggestions are generated based on the command, rather than the current argument\u0027s name."}
{"key":"WFCORE-1714","title":"Tab completion doesn\u0027t offer more options once prefix match some value","description":"Tab completion for CLI variables doesn\u0027t offer more values once the variable to be completed match some value.    actual   expected"}
{"key":"WFCORE-1210","title":"Transformations are not triggered for aliases","description":"Currently only operations passed in to the controller by the client are passed over to the transformers. So if you have an alias /an\u003dalias mapping to /some\u003dresource, and a transformer mapped for /some\u003dresource: /some\u003dresource:add gets transformed /an\u003dalias:add does not get transformed. Behind the scenes /an\u003dalias:add ends up in AliasStepHandler, which adds the step to invoke the real /some\u003dresource:add. Unfortunately the /some\u003dresource:add does not get passed to the transformers. The transformer framework should use the same logic as AliasStepHandler to map the alias to the real address and the transform that."}
{"key":"WFCORE-172","title":"Wrong application name used for Syslog logging","description":"The auditlog code uses \"WildFly Full\" value as an application name (APP-NAME header field) for syslog logging. It\u0027s not allowed to use space in the value, because the space is a header field separator in syslog messages."}
{"key":"WFCORE-1657","title":"Confusing tab completion for adding a module dependencies","description":"Using tab completion for adding a module dependencies with module add command could lead to invalid module.xml as CLI prompt user to use module name with \"system.layers.base\" prefix, which is not a part of module name.           this way something like following is generated in module.xml file    however correct module name is org.jboss.as.controller"}
{"key":"WFCORE-1570","title":"Saved rollout-plan \u0027name\u0027 or \u0027id\u0027 attribute discrepancy","description":"When using rollout plans for EAP deployment scenarios I can create my own named rollout-plan for ease of use.     see --name attribute given to name my rollout plan    see id attribute given to rollout header operation Yes, this is really minor issue, but I think that these two attributes used in aforementioned commands should be unified (preferably to name instead of id) as user might be confused when using it."}
{"key":"WFCORE-2008","title":"Unable to use path in input-stream-index argument in /core-service\u003dpatching:patch","description":"File system paths should be allowed as arguments for /core-service\u003dpatching:patch(input-stream-index\u003d)"}
{"key":"WFCORE-1595","title":"CLI doesn\u0027t autocomplete for unalias command","description":"Tab completion for CLI unalias commend doesn\u0027t seem to work. CLI will suggest available option, but doesn\u0027t autocomplete. actual     expected"}
{"key":"WFCORE-1864","title":"Whitespaces are not removed from dependencies in module add command","description":"Running module add --name\u003dfoo.bar --resources\u003dfoo.jar --dependencies\u003d[org.a, org.b ] will result in following dependencies in module.xml         The module name in dependencies should be stripped of leading and trailing whitespaces."}
{"key":"WFCORE-2083","title":"Reduce number of object allocations and memory footprint","description":"Profiler shows that we lots of duplicate object allocations with empty arrays It also shows that lots of our builder objects are kept in memory even after builder did its job and created the object. There are also cases where inner classes should be static to prevent capturing object reference to be kept and many other cases."}
