{"key":"109","title":"","description":"Using Garden World, if you select a date range from somewhere in 2001 to today then ALL invoices are selected regardless of document status OR client!!! Not so bad if you are printing them and posting them to customers but if you use the email option then drafted (and potentially cancelled) invoices are sent too!"}
{"key":"1240","title":"","description":"1. En Gardenworld , Production windows , create a row in the tab Production Header for  \"Production 2 Patio  set\". 2. in the tab Production Plan create a row for the Patio Furniture Set product, Production Quantity\u003d 2 3. Then click on  \"Create/post Production\" button in the Production header tab, this create the production line.  4. the first line is necesary divide in two for give a serial each one. then in the Patio Furniture Set product set in movement quantity 1 and give a serial  in the attribute set instance field, then create other row similar but the other serial 5. then click on  \"Create/post Production\" button in the Production header tab 6. click on \"Not Postet\" Button, then there the botton label is changed to \"Dont Balanced\""}
{"key":"814","title":"","description":"If we have quantity of BOM products in fractions then when we create production that automatically generates the ProductionLines for the product shows 0 for the items that have quantities in fractions."}
