{"key":"MATH-718","title":"","description":"Following code will be reproduce the problem."}
{"key":"MATH-779","title":"","description":"Calling the iterator method of ListPopulation returns an iterator of the protected modifiable list."}
{"key":"MATH-841","title":"","description":"The following test code runs in 11s with current version and in 6s with the patch."}
