{"key":"31779","title":"","description":"This problem appears to the user when executing refresh operations. At the first moment, the file is found in the file system and assumed to be a folder, and a corresponding resource is created in the workspace. At the second refresh, the folder corresponding to that resource is not found in the file system, and then it is removed from the workspace."}
{"key":"17707","title":"","description":"If I choose Deploy -\u003e Target Site... on a project that is already deployed and I\nselect the same target site I get a warning error telling me I am delpoyed to\nthe site and confirming that I want to overwrite.  STEPS 1 Deploy a project to \u003csite\u003e/Foo 2 Choose Deploy-Target Site and select \u003csite\u003e/Foo again 3 Warning message"}
{"key":"19686","title":"","description":"Move the mouse to the whitespace at the end of \nthe file.   Stay there for \nabout 3 secs or so, then mouse over some text in the java file where you would \nexpect hover help."}
{"key":"19976","title":"","description":"If in Site Explorer you add a new site with a bogus url, the site shouldn\u0027t get \nadded. At present hitting \u003cFinish\u003e will inform you of the error but the site \nwill still get added."}
{"key":"22809","title":"","description":"(1 In the Resource Perspective\u0027s Navigator pane, select a file deep in a directory tree. (2 Open a Properties dialog that file. (3 Resize the dialog to try see the full file \"Path\" and \"Location\". (4 Observe that the labels are NOT resized with the dialog."}
{"key":"23140","title":"","description":"1 Set up access to an external cvs repository with extssh and a password. (preferably with a username that doesn\u0027t exist locally eg - notme). Close eclipse. 2 Edit /etc/hosts to point to another ssh server (eg localhost) 3 Open eclipse and choose to browse the repository from the cvs perspective."}
