{"id":3647,"bug_id":"DATAMONGO-688","text":"There is no precedence between @Id annotation and field named \"id\" - both are attempted to be used. If you have a domain class with an attribute named \"id\", even if you annotate a DIFFERENT field with \"@Id\", spring-data-mongo errors trying to map 2 things to the id. While the error is correct in that you can\u0027t have 2, it surprises me that one doesn\u0027t take precedence over the other.","file_goldset":["org.springframework.data.mongodb.core.mapping.MongoPersistentProperty","org.springframework.data.mongodb.core.mapping.MongoMappingContextUnitTests","org.springframework.data.mongodb.core.mapping.BasicMongoPersistentEntity","org.springframework.data.mongodb.core.mapping.BasicMongoPersistentProperty"],"creation_date":"2013-06-03T14:11:53.000-05:00","resolution_date":"2013-07-08T03:12:11.000-05:00"}
{"id":3648,"bug_id":"DATAMONGO-702","text":"Spring Data MongoDB projection search, is not properly configured with respective Java Pojo. If Model Java POJO, is annotated with @Field, then during search with query.fields(). include(field) uning mongoTemplate it does not java property field as field parameter, rather it needs the name declared with name defined with @Field annotation.","file_goldset":["org.springframework.data.mongodb.core.MongoTemplateTests","org.springframework.data.mongodb.core.MongoTemplate"],"creation_date":"2013-06-20T00:12:30.000-05:00","resolution_date":"2013-07-09T02:35:34.000-05:00"}
{"id":3649,"bug_id":"DATAMONGO-717","text":"Application context is not properly distributed to persistent entities. The MongoMappingContext does not properly distribute the application context when set to persistent entities that have already been added. Current code:","file_goldset":["org.springframework.data.mongodb.config.AbstractMongoConfigurationUnitTests"],"creation_date":"2013-07-10T11:13:46.000-05:00","resolution_date":"2013-07-10T14:09:31.000-05:00"}
{"id":3650,"bug_id":"DATAMONGO-721","text":"Polymorphic attribute type not persisted on update operations. Here is our situation: we have an entity which have an attribute which is a list of another kind of entity, like the code below.   When using MongoTemplate class with code such as below, the _class attribute is not inserted on the embedded document, so, if one of the items of the list attribute is a subclass of ChildClass, and ChildClass is an abstract class, we begin to face instantiation problems. Here is one example of usage of MongoTemplate in which we found a problem.   If child is a subclass of ChildClass, the _class attribute is not added to the embedded document.","file_goldset":["org.springframework.data.mongodb.core.convert.QueryMapper"],"creation_date":"2013-07-11T11:36:06.000-05:00","resolution_date":"2013-07-16T04:40:15.000-05:00"}
