{"id":3697,"bug_id":"SWARM-485","text":"Using a JAX-RS provider that extends JacksonJaxbJsonProvider throws a  java.lang.NoClassDefFoundError Link Error. A java.lang.NoClassDefFoundError Link Error is thrown when deploying a JAX-RS application with a custom provider that overrides com.fasterxml.jackson.jaxrs.json.JacksonJaxbJsonProvider","file_goldset":["org.wildfly.swarm.jaxrs.JAXRSArquillianTest"],"creation_date":"2016-05-26T18:01:46.000-05:00","resolution_date":"2016-06-02T03:48:53.000-05:00"}
{"id":3698,"bug_id":"SWARM-528","text":"If you set the swarm port using either swarm.http.port or swarm.port.offset via arquillian.xml e.g.        the arquillian swarm container is correctly started on the specified port/offset. The problem is that if you use:   to retrieve the url the swarm container is accessible via it always returns http://localhost:8080.  If you set the port property in arquillian.xml      it starts the swarm container on 8080 and   returns http://localhost:8081  Attempting to combine the port property and the offset does not work either e.g.         the port/offset is ignored and the container is started on 8080, while   returns http:localhost:8081 note: while the examples above use swarm.port.offset, the same issue occurs if you use swarm.http.port","file_goldset":["org.wildfly.swarm.arquillian.resources.SwarmURLResourceProvider"],"creation_date":"2016-06-22T02:53:46.000-05:00","resolution_date":"2016-07-21T12:11:11.000-05:00"}
{"id":3699,"bug_id":"SWARM-486","text":"Can\u0027t load project-stages.yml on classpath with Arq. problem project-stages. yml on classpath(src/main/resources) is not loaded with Arquillian tests. I attached the error log and the reproducer in \u0027Steps to Reproduce\u0027 section. Though -swarm try to load it, apparently can\u0027t see it when Arq tests.","file_goldset":["org.wildfly.swarm.container.ProjectStagesTest"],"creation_date":"2016-05-28T18:25:37.000-05:00","resolution_date":"2016-07-27T08:33:48.000-05:00"}
{"id":3700,"bug_id":"SWARM-553","text":"Error with logging fraction when using PeriodicSizeRotatingFileHandler. When using LoggingFraction and PeriodicSizeRotatingFileHandler it gives me the following error:     Here is my whole code:","file_goldset":["org.wildfly.swarm.container.runtime.RuntimeServer"],"creation_date":"2016-07-08T19:50:16.000-05:00","resolution_date":"2016-07-29T06:31:15.000-05:00"}
