{"id":3765,"bug_id":"WFCORE-1611","text":"CLI could stuck if SIGINT is send during authentication dialogue. Interruption a CLI session with Ctrl+C during authentication dialogue could get CLI into unresponsive state.  Either use a remote server, --no-local-auth cli script arg or remove a local element from ManagementRealm configuration     start a standalone server and launch a CLI       Username: \u003cPress Ctrl+C here\u003e Could not connect message is printed, but process is not terminated and stuck at this point.","file_goldset":["org.jboss.as.cli.impl.CliShutdownHook"],"creation_date":"2016-06-22T08:49:33.000-05:00","resolution_date":"2016-06-28T10:23:55.000-05:00"}
{"id":3766,"bug_id":"WFCORE-1908","text":"Tab completion suggest writing attribute which has access type metric and is not writable. CLI tab completion suggests attributes that are not writable and their access-type is metric Example    On attempt to write metric attribute, for example message-count, non writable error is printed","file_goldset":["org.jboss.as.cli.Util","org.jboss.as.cli.impl.AttributeNamePathCompleter","org.jboss.as.cli.parsing.test.AttributeNamePathCompletionTestCase"],"creation_date":"2016-10-31T08:13:57.000-05:00","resolution_date":"2016-11-02T21:27:51.000-05:00"}
{"id":3767,"bug_id":"WFCORE-1578","text":"Lets have some /socket-binding-group\u003dstandard-sockets/socket-binding with particular name. Then when I create some /socket-binding-group\u003dstandard-sockets/remote-destination-outbound-socket-binding or /socket-binding-group\u003dstandard-sockets/local-destination-outbound-socket-binding using same name as of already existing socket-binding resource, add operation is successful but when I perform server reload, it crashes as it is not able to parse configuration.  Start EAP and log to CLI create your own socket-binding resource and {remote|local}-destination-outbound-socket-binding resource with same names and perform reload      server crashes with following stacktrace in console log:","file_goldset":["org.jboss.as.server.services.net.SocketBindingAddHandler","org.jboss.as.controller.logging.ControllerLogger","org.jboss.as.server.services.net.RemoteDestinationOutboundSocketBindingAddHandler","org.jboss.as.server.services.net.LocalDestinationOutboundSocketBindingAddHandler"],"creation_date":"2016-06-07T05:13:13.000-05:00","resolution_date":"2016-06-30T22:42:01.000-05:00"}
{"id":3768,"bug_id":"WFCORE-1936","text":"If you tries to change such attributes you are informed that reload is necessary.","file_goldset":["org.jboss.as.server.services.net.OutboundSocketBindingResourceDefinition","org.jboss.as.controller.resource.AbstractSocketBindingResourceDefinition"],"creation_date":"2016-11-04T10:57:06.000-05:00","resolution_date":"2016-11-07T18:40:35.000-06:00"}
{"id":3769,"bug_id":"WFCORE-1635","text":"Write attribute on a new deployment scanner fails in batch. Creating a new deployment-scanner and altering it\u0027s attribute fails if done in single batch. Running the commands without batch or running batch on CLI embed-server works fine.","file_goldset":["org.jboss.as.server.deployment.scanner.AbstractWriteAttributeHandler"],"creation_date":"2016-07-05T07:04:51.000-05:00","resolution_date":"2016-07-08T23:36:17.000-05:00"}
{"id":3770,"bug_id":"WFCORE-1959","text":"Deploying an empty managed exploded deployment to server group in domain fails. Deploying an empty exploded deployment created on domain controller fails with the following:","file_goldset":["org.jboss.as.domain.controller.operations.coordination.ServerOperationResolver"],"creation_date":"2016-11-08T16:28:30.000-06:00","resolution_date":"2016-11-09T01:18:14.000-06:00"}
{"id":3771,"bug_id":"WFCORE-1590","text":"Default parameter length validating ignores setMinSize(0). With the following attribute definition: -          The following error is reported if an empty string is used as a parameter: -","file_goldset":["org.jboss.as.controller.AbstractAttributeDefinitionBuilder","org.jboss.as.controller.test.WriteAttributeOperationTestCase","org.jboss.as.controller.AttributeDefinition","org.jboss.as.controller.SimpleAttributeDefinitionUnitTestCase","org.jboss.as.controller.operations.validation.BytesValidator"],"creation_date":"2016-06-12T14:18:43.000-05:00","resolution_date":"2016-08-11T15:17:26.000-05:00"}
{"id":3772,"bug_id":"WFCORE-1718","text":"If Audit Logger is removed, destination handlers (i.e. its child nodes) are not removed properly. They are not present in the config file. They seem to be not removed \"internally\" though.  1. It is not possible to remove referenced File/Syslog handlers. If user tries to remove them the NullPointerException is given as a result. Try following commands:   Their output is:      2. AuditLog continues to send auditable events to previously referenced File/Syslog handlers. Create auditable event (e.g. /subsystem\u003dlogging/logger\u003dcom.arjuna:write-attribute(name\u003dlevel,value\u003dDEBUG)) See log in the file (WILDFLY_HOME/standalone/data/audit-log.log) See log in the syslog (/var/log/messages)","file_goldset":["org.jboss.as.domain.management.audit.AccessAuditResourceDefinition","org.jboss.as.domain.management.audit.AuditLogLoggerResourceDefinition","org.jboss.as.domain.management.audit.AuditLogHandlerReferenceResourceDefinition"],"creation_date":"2016-08-16T09:49:11.000-05:00","resolution_date":"2016-08-31T21:54:29.000-05:00"}
{"id":3773,"bug_id":"WFCORE-1115","text":"Intermittent failures of CompositeOperationTestCase \u0026 CoreResourceManagementTestCase. org.jboss.as.test.integration.domain.suites.CompositeOperationTestCase and org.jboss.as.test.integration.domain.suites.CoreResourceManagementTestCase from wildfly-core testsuite domain module starts to intermittently fail since 7.0.0. DR13 (2.0.0. CR8). Tests fails only once I run the whole Domain Mode Integration Tests module, running only these two tests in isolation never fails. Reproducer job which starts the tests in testsuite/domain module:","file_goldset":["org.jboss.as.test.integration.domain.suites.IgnoredResourcesProfileCloneTestCase"],"creation_date":"2015-11-09T11:29:41.000-06:00","resolution_date":"2015-11-19T20:41:55.000-06:00"}
{"id":3774,"bug_id":"WFCORE-1572","text":"Suggestion list for argument value is not generated if the value contains a whitespace. When an argument value contains a space (eg. deploy /path/to/test-application. war --all-server-groups --headers\u003d{rollout id\u003dfoo}) and if user hits tab after the whitespace, suggestions are generated based on the command, rather than the current argument\u0027s name.","file_goldset":["org.jboss.as.cli.parsing.ParserUtil","org.jboss.as.cli.parsing.test.CommandTestCase","org.jboss.as.cli.parsing.DefaultStateWithEndCharacter"],"creation_date":"2016-05-27T16:20:10.000-05:00","resolution_date":"2016-06-20T02:04:49.000-05:00"}
{"id":3775,"bug_id":"WFCORE-1714","text":"Tab completion for CLI variables doesn\u0027t offer more values once the variable to be completed match some value. reproduce   actual","file_goldset":["org.jboss.as.cli.CommandCompleter"],"creation_date":"2016-08-15T08:26:57.000-05:00","resolution_date":"2016-09-06T22:14:31.000-05:00"}
{"id":3776,"bug_id":"WFCORE-1570","text":"When using rollout plans for EAP deployment scenarios I can create my own named rollout-plan for ease of use. I can then apply rollout command later on, referring with name of my own rollout plan that should be used.  When I create rollout-plan, I use command like:  see --name attribute given to name my rollout plan When I then refer to it I use following command:   see id attribute given to rollout header operation","file_goldset":["org.jboss.as.cli.parsing.operation.header.RolloutPlanState","org.jboss.as.cli.parsing.operation.header.RolloutPlanHeaderCallbackHandler","org.jboss.as.cli.operation.impl.RolloutPlanCompleter"],"creation_date":"2016-05-27T12:51:56.000-05:00","resolution_date":"2016-06-20T02:05:22.000-05:00"}
{"id":3777,"bug_id":"WFCORE-1793","text":"add-content operation fails to overwrite existing content with overwrite\u003dtrue set when passing content by file path. Upon overwriting content in managed exploded deployments on wildfly-core, the following errors are produced:","file_goldset":["org.jboss.as.server.deployment.ExplodedDeploymentAddContentHandler","org.jboss.as.server.controller.resources.DeploymentAttributes"],"creation_date":"2016-09-14T08:08:21.000-05:00","resolution_date":"2016-09-20T21:22:42.000-05:00"}
{"id":3778,"bug_id":"WFCORE-1864","text":"Whitespaces are not removed from dependencies in module add command. Running module add --name\u003dfoo.bar --resources\u003dfoo.jar --dependencies\u003d[org.a, org.b ] will result in following dependencies in module.xml","file_goldset":["org.jboss.as.cli.handlers.module.ASModuleHandler","org.jboss.as.test.integration.management.cli.ModuleTestCase"],"creation_date":"2016-10-13T09:12:31.000-05:00","resolution_date":"2016-10-26T20:18:59.000-05:00"}
