{"key":"LUCENE-4629","title":"IndexWriter fails to delete documents if Iterator\u003cIndexDocument\u003e throws an exception","description":"In DWPT we iterator over a document block and roll back documents if one of the docs fails with a non-aborting exception. Yet, we miss to delete those document if the iterator itself throws an exception. Given the fact that we allow an Iterable on IW we should be prepared for RT exceptions since these documents might be created in a stream fashing rather than already build up."}
{"key":"LUCENE-4660","title":"When ConcurrentMergeScheduler stalls incoming threads it has unexpected hysteresis","description":"Eg if you set maxMergeCount to 2, as soon as a 3rd merge need to kick off, we stall incoming segment-creating threads. Then we wait ... and we are supposed to resume the threads when the merge count drops back to 2, but instead we are only resuming when merge count gets to 1. Ie, we stall for too long (\u003d unexpected hysteresis)."}
{"key":"LUCENE-4899","title":"FastVectorHighlihgter fails with SIOOB if single phrase or term is \u003e fragCharSize","description":"The reason is that the current code expects the fragCharSize \u003e matchLength which is not necessarily true if you use phrases or if you have very long terms like URLs or so."}
