{"key":"MAHOUT-1314","title":"StreamingKMeansReducer throws NullPointerException when REDUCE_STREAMING_KMEANS is set to true","description":"when REDUCE_STREAMING_KMEANS option is set to true (-rskm) the reducer fails with NullPointerException.  it should be input.getCentroid(). clone();  full stack trace:"}
{"key":"MAHOUT-1317","title":"Clarify some of the messages in Preconditions.checkArgument","description":"Here, it is known that the actual issue is that the parameter must be zero (or negative), not just that it\u0027s \"incorrect\", and a (trivial) change to the error message might save some folks some time... especially newbies like myself."}
{"key":"MAHOUT-1030","title":"Regression: Clustered Points Should be WeightedPropertyVectorWritable not WeightedVectorWritable","description":"\u003e\u003e It appears that in kmeans the clusteredPoints are now written as WeightedVectorWritable where in mahout 0.6 they were WeightedPropertyVectorWritable? This means that the distance from the centroid is no longer stored here?"}
