{"key":"OPENJPA-2163","title":"Lifecycle event callback occurs more often than expect","description":"When life cycle event occurs for a specific entity manager, all the listeners created under the emf are being invoked. The expected behavior is only the listener registered in the em from which the life cycle events are related should be called."}
{"key":"OPENJPA-2197","title":"MethodComparator in AnnotationPersistenceMetaDataParser should also compare parameters","description":"AnnotationPersistenceMetaDataParser contains a MethodComparator which only compares the class + the method name.       Due to the bug in MethodComparator, my @PreUpdate sometimes didn\u0027t get detected."}
{"key":"OPENJPA-2255","title":"Couldn\u0027t load the referencedColumn definition when create the JoinTable","description":"The JoinColumn couldn\u0027t have the referencedColumn\u0027s definition which includes the length definition. and it\u0027s length  should be assigned to the default value 255.       The JoinColumn should be set to the default value 255. The warning message will occur like this"}
