{"key":"MATH-318","title":"wrong result in eigen decomposition","description":"Some results computed by EigenDecompositionImpl are wrong. The following case computed by Fortran Lapack fails with version 2.0\n{code}\n    public void testMathpbx02() {"}
{"key":"MATH-238","title":"MathUtils.gcd(u, v) fails when u and v both contain a high power of 2","description":"The test at the beginning of MathUtils.gcd(u, v) for arguments equal to zero fails when u and v contain high enough powers of 2 so that their product overflows to zero."}
{"key":"MATH-393","title":"","description":"In \"MultiStartUnivariateRealOptimizer\" (package \"optimization\"), the method \"getResult\" returns the result of the last run of the \"underlying\" optimizer; this last result might not be the best one, in which case it will not correspond to the value returned by the \"optimize\" method."}
{"key":"MATH-727","title":"too large first step with embedded Runge-Kutta integrators (Dormand-Prince 8(5,3) ...)","description":"For embedded Runge-Kutta type, this step size is not checked against the integration range, so if the integration range is extremely short, this step size may evaluate the function out of the range (and in fact it tries afterward to go back, and fails to stop)."}
{"key":"MATH-867","title":"CMAESOptimizer with bounds fits finely near lower bound and coarsely near upper bound. ","description":"When fitting with bounds, the CMAESOptimizer fits finely near the lower bound and coarsely near the upper bound.   Thus, fits have much better resolution near the lower bound (which is mapped to zero) than the upper bound (which is mapped to one)."}
{"key":"MATH-567","title":"class Dfp toDouble method return -inf whan Dfp value is 0 \"zero\"","description":"If the Dfp\u0027s value is 0 \"zero\", the toDouble() method returns a  negative infini."}
{"key":"MATH-949","title":"LevenbergMarquardtOptimizer reports 0 iterations","description":"The method LevenbergMarquardtOptimizer.getIterations() does not report the correct number of iterations; It always returns 0.   Notice how the evaluations count is correctly incremented, but the iterations count is not."}
{"key":"MATH-679","title":"Integer overflow in OpenMapRealMatrix","description":"computeKey() has an integer overflow."}
{"key":"MATH-326","title":"getLInfNorm() uses wrong formula in both ArrayRealVector and OpenMapRealVector (in different ways)","description":"The current implementation in ArrayRealVector has a typo:        Worse, the implementation in OpenMapRealVector is not even positive semi-definite:"}
{"key":"MATH-482","title":"FastMath.max(50.0f, -50.0f) \u003d\u003e -50.0f; should be +50.0f","description":"FastMath.max(50.0f, -50.0f) \u003d\u003e -50.0f; should be +50.0f.  The bug was not detected by the test case \"testMinMaxFloat()\" because that has a bug too - it tests doubles, not floats."}
{"key":"MATH-273","title":"Basic variable is not found correctly in simplex tableau","description":"SimplexTableau was assuming an entry in the tableau had to be nonzero to indicate a basic variable, which is incorrect - the entry should have a value equal to 1."}
{"key":"MATH-778","title":"Dfp Dfp.multiply(int x) does not comply with the general contract FieldElement.multiply(int n)","description":"In class {{org.apache.commons.math3.Dfp}},  the method {{multiply(int n)}} is limited to {{0 \u003c\u003d n \u003c\u003d 9999}}. This is not consistent with the general contract of {{FieldElement.multiply(int n)}}, where there should be no limitation on the values of {{n}}."}
{"key":"MATH-691","title":"Statistics.setVarianceImpl makes getStandardDeviation produce NaN","description":"Invoking SummaryStatistics.setVarianceImpl(new Variance(true/false) makes getStandardDeviation produce NaN."}
{"key":"MATH-60","title":"","description":"Function \"Fraction parse(String, ParsePosition)\" returned Fraction 1/3 (means the result Fraction had numerator \u003d 1 and  denominator \u003d 3)for all 3 inputs above. I think the function does not handle parsing the numberator/ denominator properly incase input string provide invalid numerator/denominator."}
{"key":"MATH-904","title":"FastMath.pow deviates from Math.pow for negative, finite base values with an exponent 2^52 \u003c y \u003c 2^53 ","description":""}
{"key":"MATH-1021","title":"HypergeometricDistribution.sample suffers from integer overflow","description":"It looks like the HypergeometricDistribution.sample() method doesn\u0027t work as well as it used to with large integer values -- the example code below should return a sample between 0 and 50, but usually returns -50."}
{"key":"MATH-358","title":"ODE integrator goes past specified end of integration range","description":"The following test case shows the end event is not handled properly and an integration that should cover a 60s range in fact covers a 160s range, more than twice the specified range."}
{"key":"MATH-836","title":"","description":"The Fraction constructor_ Fraction(double, int) takes a double value and a int maximal denominator, and approximates a fraction.  1: the constructor_ returns a positive Fraction. Calling Fraction(-33655.1677817278, 371880) returns the fraction 410517235/243036, which both has the wrong sign, and is far away from the absolute value of the given value 2: the constructor_ does not manage to reduce the Fraction properly. Calling Fraction(-43979.60679604749, 366081) returns the fraction -1651878166/256677, which should have* been reduced to -24654898/3831."}
{"key":"MATH-274","title":"","description":"And it works fine, because it is symmetric positive definite        And it should throw an exception but it does not."}
{"key":"MATH-546","title":"","description":"Using an int causes the method to truncate the distances between points to (square roots of) integers."}
{"key":"MATH-704","title":"","description":"Looks loke it ignores the length parameter and grabs the whole dataset."}
{"key":"MATH-362","title":"LevenbergMarquardtOptimizer ignores the VectorialConvergenceChecker parameter passed to it","description":"LevenbergMarquardtOptimizer ignores the VectorialConvergenceChecker parameter passed to it."}
{"key":"MATH-929","title":"MultivariateNormalDistribution.density(double[]) returns wrong value when the dimension is odd","description":""}
{"key":"MATH-167","title":"ConvergenceException in normal CDF","description":"NormalDistributionImpl::cumulativeProbability(double x) throws ConvergenceException if x deviates too much from the mean. For example, when x\u003d+/-100, mean\u003d0, sd\u003d1."}
{"key":"MATH-618","title":"Complex Add and Subtract handle NaN arguments differently, but javadoc contracts are the same","description":"For both Complex add and subtract, the javadoc states that       Subtract includes an isNaN test and returns Complex.NaN if either complex argument isNaN; but add omits this test."}
{"key":"MATH-280","title":"","description":"gives the exception below."}
{"key":"MATH-713","title":"","description":"A variable with 0 coefficient may be assigned a negative value nevertheless restrictToNonnegative flag in call:\nSimplexSolver.optimize(function, constraints, GoalType.MINIMIZE, true);   Result:\nx \u003d 1; y \u003d -1;"}
{"key":"MATH-844","title":"\"HarmonicFitter.ParameterGuesser\" sometimes fails to return sensible values","description":"The inner class \"ParameterGuesser\" in \"HarmonicFitter\" (package \"o.a.c.m.optimization.fitting\") fails to compute a usable guess for the \"amplitude\" parameter."}
{"key":"MATH-552","title":"MultidimensionalCounter.getCounts(int) returns wrong array of indices","description":"Output is:\n0 [0, 0]\n1 [0, 1]\n2 [0, 2]\n3 [0, 2]   \u003c\u003d\u003d\u003d should be [0, 3]\n4 [1, 0]\n5 [1, 1]\n6 [1, 2]\n7 [1, 2]   \u003c\u003d\u003d\u003d should be [1, 3]"}
{"key":"MATH-369","title":"BisectionSolver.solve(final UnivariateRealFunction f, double min, double max, double initial) throws NullPointerException","description":"NullPointerException will be thrown."}
{"key":"MATH-209","title":"RealMatrixImpl#operate gets result vector dimensions wrong","description":"This can result in runtime exceptions if the matrix is non-square and it always yields incorrect results if the matrix is non-square."}
{"key":"MATH-935","title":"","description":"However, they give NaN for the value in all cases."}
{"key":"MATH-631","title":"","description":"fails with\n{noformat}\nillegal state: maximal count (100) exceeded: evaluations\n{noformat} Using \"PegasusSolver\", the answer is found after 17 evaluations."}
{"key":"MATH-305","title":"NPE in  KMeansPlusPlusClusterer unittest","description":"When running this unittest, I am facing this NPE:"}
{"key":"MATH-716","title":"BracketingNthOrderBrentSolver exceeds maxIterationCount while updating always the same boundary","description":"It attempts to balance the bracketing points by targeting a non-zero value instead of the real root. However, the chosen target is too close too zero, and the inverse polynomial approximation is always on the same side, thus always updates the same bracket.  This shows that the bracketing interval is completely unbalanced, and we never succeed to rebalance it as we always updates (xA, yA) and never updates (xB, yB)."}
{"key":"MATH-554","title":"","description":"Cross product implementation uses the naive formulas (y1 z2 - y2 z1, ...). These formulas fail when vectors are almost colinear, like in the following example:      The previous code displays { -1, 2, 0 } instead of the correct answer { -1, 2, 1 }"}
{"key":"MATH-865","title":"Wide bounds to CMAESOptimizer result in NaN parameters passed to fitness function","description":"If you give large values as lower/upper bounds (for example -Double.MAX_VALUE as a lower bound), the optimizer can call the fitness function with parameters set to NaN."}
{"key":"MATH-942","title":"DiscreteDistribution.sample(int) may throw an exception if first element of singletons of sub-class type","description":"An exception will be thrown if: * {{singleons.get(0)}} is of type T1, an sub-class of T, and * {{DiscreteDistribution.sample()}} returns an object which is of type T, but not of type T1."}
{"key":"MATH-221","title":"","description":"res:  -0 - 1i\ncomp: 0 - 1i\nres\u003dcomp: false"}
{"key":"MATH-645","title":"MathRuntimeException with simple ebeMultiply on OpenMapRealVector","description":"{code} raises an exception"}
