{"key":"2459","title":"Size of file open/save dialogs incorrect on dual displays","description":"If the dialog is opened on the secondary display,\nresized and dragged it to the primary display."}
{"key":"2542","title":"Pasting Text Should End Current Undoable Edit","description":"In 4.2final and 4.3pre4, if you type some characters, \npaste some text, and then undo, it undos the typed characters and the \npasted text together."}
{"key":"2560","title":"jEdit4.3pre5 file system browser, keyboard handling","description":"When using keyboard to quick select files and\ndirectories in file system browser, letter typed in\nfile system browser also appears as corresponding\nletter in active buffer."}
{"key":"2571","title":"Line number not highlighted when the line is selected","description":"\\- When line of text is selected, or part of that line, the number of line is not highlighted in the gutter."}
{"key":"2595","title":"caret/display position w/ multiple views open","description":"If I have 2 views open and both have the same file active(eg foo.txt, line 20 in view 1, line 50 in view 2 , then I switch to a different buffer in one of the views (switch view 1 to bar.txt), when that view switches back to foo.txt, it\u0027s caret/display placement is the same as the other view (ie, before switching to bar.txt, the caret was on line 20, now it is on line 50, where the other view is located as well.)"}
{"key":"2752","title":"jEdit freezes on regexpr \"||\"","description":"set \"Search for:\" to \"||\"\ncheck \"Regular expressions\"\nclick \"Replace All\""}
