{"id":18,"bug_id":"207","text":"F11 option. Hi, when I click on \"view -\u003e Full screen\" or F11 the full screen appear for 1 second and after that aTune back to standard view. Thanks Stefania","method_goldset":["net.sourceforge.atunes.gui.views.dialogs.fullScreen.FullScreenDialog:setFullScreen(boolean)","net.sourceforge.atunes.gui.views.dialogs.fullScreen.FullScreenDialog:setVisible(boolean)"],"creation_date":"2008-9-8 13:46:04","resolution_date":"2012-10-9 11:07:04"}
{"id":19,"bug_id":"212","text":"Context panel. When the artist tab is selected, the picture, biography and album info is correct but very often the name is not. It is often from a prior song and will often linger for 2-3 songs","method_goldset":["net.sourceforge.atunes.kernel.controllers.contextInformation.ContextInformationPanelController:clear(boolean)"],"creation_date":"2008-9-12 23:58:46","resolution_date":"2012-10-9 11:08:39"}
{"id":20,"bug_id":"213","text":"Not supported formats are not skipped under Xine. Only for not supported file formats. How to reproduce: - Copy a few files (not music) into the repository and rename them to have a supported extension (for example . mp3) - Start aTunes, set Xine as engine, refresh repository and try to play the fake files Expected behaviour: - aTunes should skip to the next song Actual behaviour: - aTunes get stuck","method_goldset":["net.sourceforge.atunes.kernel.modules.player.xine.XineHandler:startPlayback(AudioObject, AudioObject)"],"creation_date":"2008-9-14 08:05:44","resolution_date":"2012-10-9 11:06:56"}
{"id":21,"bug_id":"220","text":"OSD not displayed when jumping to next or previous track. OSD only appears when pressing play button (after stop the track)","method_goldset":["net.sourceforge.atunes.kernel.handlers.PlayerHandler:playAudioObject(AudioObject)","net.sourceforge.atunes.kernel.handlers.PlayerHandler:playCurrentAudioObject(boolean)"],"creation_date":"2008-9-20 18:53:54","resolution_date":"2012-10-9 11:11:21"}
{"id":22,"bug_id":"230","text":" mp3 ID3v2 tag. ref:[ 2129032 ] Hi! Problem: aTunes does not set tags for some mp3 files. I have investigated that this happens when file has ID3v1 tag, but doesn\u0027t have ID3v2 tag. ID3v1 tag does not, however, support \u0027track number\u0027 property. Subsequently, when aTunes tries to set this property, en exception is thrown. And the tags are not updated. Console output: ERROR   [FILE WRITE  ] --\u003e TagModifier.setInfo [1] Could not edit tag. File: C:\\Users\\Pawel\\Music\\test.mp3 Error: java.lang.UnsupportedOperationException: ID3v10 cannot store track numbers Sample mp3 file is uploaded. I have made some workaround. It works this way: When mp3 file with ID3v1 and no ID3v2 tag is edited, then, simply, ID3v2 tag is created. I\u0027ll upload the source code, so that you can check if such solution is ok. Regards.","method_goldset":["net.sourceforge.atunes.kernel.modules.repository.audio.AudioFile:supportsInternalPicture()"],"creation_date":"2008-10-1 22:11:02","resolution_date":"2012-10-9 11:08:37"}
{"id":23,"bug_id":"231","text":"Can\u0027t add image if repository was read by older app version. How to reproduce: 1. Read repository by older version of aTunes 2. Update to latest SVN 3. Try to add an image (assuming supported file format) Result: Adding image not possible. Problem: public boolean isSupportsInternalImage() returns false as was never set to true (as not supported in old versions).","method_goldset":["net.sourceforge.atunes.kernel.modules.repository.audio.AudioFile:supportsInternalPicture()"],"creation_date":"2008-10-4 18:31:26","resolution_date":"2012-10-9 11:07:21"}
{"id":24,"bug_id":"240","text":"\"Set lyrics automatically\" cannot be terminated. A problem can occur when I right-click on a file and select \"Set lyrics automatically\". If I perform that action on an obscure artist whose lyrics will not be found, the \"Performing changes...\" window appears and never goes away. I\u0027ve literally waited for ten minutes on occasion; the lyrics are never found, and the window never closes. Since that window makes it impossible to do anything with aTunes, when this happens, I must forcefully kill the program. This would not be such a problem if there was an actual way to close the \"Performing changes...\" window before it finishes its task. The window has no cancel button; it _does_  have an \u0027X\u0027 button, but it does not actually do anything. While less frequent, I\u0027ve also had perpetual \"Performing changes...\" windows occur while trying to do other tag-related tasks. This could be fixed either by tracking down why the \"Performing changes...\" window on occasion does not terminate or by adding a way for the user to close the window.","method_goldset":["net.sourceforge.atunes.kernel.executors.processes.AddLyricsToTagProcess:run()","net.sourceforge.atunes.kernel.modules.contextInformation.Lyrics:setLyrics(String)"],"creation_date":"2008-11-1 23:11:38","resolution_date":"2012-10-9 11:14:13"}
{"id":25,"bug_id":"245","text":"Radio \"Labels\" can not be added to playlist. When trying to add a folder or label of radios to the playlist, this is not possible. For example it is not possible to add all \"Classical\" stations to the playlist by draging the folder icon into it.","method_goldset":["net.sourceforge.atunes.kernel.modules.draganddrop.TreesToPlayListDragAndDropListener:drop(DropTargetDropEvent)"],"creation_date":"2008-11-12 10:58:31","resolution_date":"2012-10-9 11:08:39"}
{"id":26,"bug_id":"260","text":"Full Screen doesn\u0027t work for Windows aTunes. aTunes v1.11.0\nFull Screen looks like screenshot.","method_goldset":["net.sourceforge.atunes.gui.views.dialogs.fullScreen.FullScreenDialog:FullScreenDialog(JFrame)"],"creation_date":"2008-12-1 22:42:01","resolution_date":"2012-10-9 11:17:30"}
{"id":27,"bug_id":"264","text":"Wrong song duration displayed by player. On some longer songs that I bought from Amazon, the player displays the wrong song length when the song is playing. Example - the song 49:00 by Paul Westerberg is 43:55, but when the song starts playing, the time at the bottom of the player is 86:34. The time is correct in the info dialog. Another example is \"In a Silent Way\" by Miles Davis. It\u0027s two songs are both about 18:00 minutes long but show up as more than 36:00 in the player. The bit rates for the songs are unusual - 252k for the Westerberg song, so maybe that confuses the player. The songs sound ok - no problem with the actual playing.","method_goldset":["net.sourceforge.atunes.kernel.modules.player.mplayer.AudioFileMPlayerOutputReader:AudioFileMPlayerOutputReader(MPlayerHandler, Process, AudioFile)","net.sourceforge.atunes.kernel.modules.player.mplayer.AudioFileMPlayerOutputReader:read(String)"],"creation_date":"2008-12-5 02:02:16","resolution_date":"2012-10-9 11:12:20"}
{"id":28,"bug_id":"278","text":"Edit Titles Fails. After importing a CD with no title list available, select the album and right-click | Edit Titles. The dialog allows me to edit a title, but as soon as I hit enter, tab, or mouse click another title, the change reverts to \"Track n\". Aside from this particular bug, this use case needs attention and a means to change both the title in aTunes and the file name on disk in a single step with a minimum of extraneous keying. Marc Thibault\nmarcthibault@tanda.on.ca","method_goldset":["net.sourceforge.atunes.kernel.controllers.editTitlesDialog.EditTitlesTableModel:setValueAt(String, int, int)"],"creation_date":"2008-12-22 21:39:02","resolution_date":"2012-10-9 11:04:06"}
{"id":29,"bug_id":"281","text":"Mute button in 1.11.1. I tried to use the tray icon mute but it doesn\u0027t have effect unless I use the main UI\u0027s mute. I mute the OS but the GUI doesn\u0027t display oin the main UI Wondow or the tray icon. Log file\n\u003d\u003d\u003d\u003d\u003d  INFO    [START       ] Starting aTunes 1.11.1 Bora  (Build 459 [29/11/2008]) INFO    [START       ] Running in Java Virtual Machine 1.6.0_11 INFO    [START       ] Arguments \u003d [-jar, C:\\Program Files\\aTunes\\aTunes.jar] INFO    [START       ] Debug mode \u003d false INFO    [START       ] Execution path \u003d C:\\Program Files\\aTunes INFO    [START       ] Setting language: en INFO    [HANDLER     ] Reading serialized favorites cache INFO    [HANDLER     ] Reading serialized repository cache INFO    [HANDLER     ] Reading repository cache done (0.156 seconds) INFO    [HANDLER     ] Play lists loaded (13 playlists) INFO    [START       ] Application started (2.437 seconds) INFO    isJIntellitypeSupported checking for Windows and DLL in path INFO    Loading JIntellitype DLL INFO    Initializing JIntellitype library INFO    isJIntellitypeSupported \u003d true INFO    [PLAYER      ] List of availables engines : {MPlayer} INFO    [PLAYER      ] Selected engine : MPlayer INFO    [HANDLER     ] Updating index for class net.sourceforge.atunes.kernel.modules.search.searchableobjects.FavoritesSearchableObject INFO    [HANDLER     ] update search index INFO    [HANDLER     ] Update index for class net.sourceforge.atunes.kernel.modules.search.searchableobjects.FavoritesSearchableObject finished INFO    [HANDLER     ] Updating index for class net.sourceforge.atunes.kernel.modules.search.searchableobjects.RepositorySearchableObject INFO    [HANDLER     ] update search index INFO    [HANDLER     ] Update index for class net.sourceforge.atunes.kernel.modules.search.searchableobjects.RepositorySearchableObject finished INFO    [PODCAST     ] Podcast feed entries retrieval done INFO    [HANDLER     ] 4 songs added to play list INFO    [PLAYER      ] Started play of file 01 - Musuhi no Toki.mp3 INFO    [PODCAST     ] Podcast feed entries retrieval done INFO    [PODCAST     ] Podcast feed entries retrieval done INFO    [PLAYER      ] Stop INFO    [PLAYER      ] Started play of file 04 - Kioku no Keshiki Instrumental.mp3 INFO    [PODCAST     ] Podcast feed entries retrieval done","method_goldset":["net.sourceforge.atunes.kernel.handlers.SystemTrayHandler:fillMenu(JTrayIconPopupMenu)"],"creation_date":"2008-12-25 02:58:34","resolution_date":"2012-10-9 11:10:20"}
