{"id":70,"bug_id":"13926","text":"JFace Text Editor Leaves a Black Rectangle on Content Assist text insertion. We found a problem when migrating editors based on JFace Text from V10 to V20 \n(driver 20020412). We found that after inserting a selected completion \nproposal, from the context information popup, that causes a black rectangle to \nappear on top of the display. See the attached screen shot. Tracing the appearance of the rectangle down, we see the rectangle just after \ngoing in the BusyIndicator.showWhile. ----------  The rectangle appears in the execution of this ---------------- class ContextInformationPopup public void showContextInformation(final IContextInformation info, final int position) { Control control\u003d fViewer.getTextWidget(); BusyIndicator.showWhile(control.getDisplay(), new Runnable() { public void run() { internalShowContextInfo(info, position); hideContextSelector(); } }); }","method_goldset":["org.eclipse.jface.text.contentassist.ContextInformationPopup:internalShowContextFrame(ContextFrame, boolean)"],"creation_date":"2002-4-16 13:41:00","resolution_date":"2002-8-12 05:27:29"}
{"id":71,"bug_id":"15277","text":"Recreate test suite allows you to add the suite to itself. If you have a test suite that is also a test case (done to allow cascading tests), and recreate the \ntest suite, you\u0027re allowed to add the suite to itself. This results in a recursive call to \n. suite(), which ends up causing a stack overflow when run. I\u0027m not too sure on this, but I \nbelieve previously in this situtation the suite was added to itself a test case (new Suite(class) \nas opposed to class.suite()), which prevented this from happening. I do prefer this new \nbehaviour, as it makes chaining suites together much easier (now if it only searched sub-packages \nfor suites). This one special case just needs to be handled better.","method_goldset":["org.eclipse.jdt.internal.junit.wizards.NewTestSuiteCreationWizardPage:handleFieldChanged(String)","org.eclipse.jdt.internal.junit.wizards.NewTestSuiteCreationWizardPage:setVisible(boolean)","org.eclipse.jdt.internal.junit.wizards.NewTestSuiteCreationWizardPage:testSuiteChanged()"],"creation_date":"2002-5-5 00:01:00","resolution_date":"2003-2-19 08:15:17"}
{"id":72,"bug_id":"16787","text":"[Wizards] Wizards are recreated when returning to New page. The WizardDialog ask\u0027s in showPage() or showStartingPage():\n    if (page.getControl() \u003d\u003d null)\nto support a lazy page control creation. This works fine when the wizard is called first time. After disposing a page \npage.getControl() still returns a (disposed) control and page.createControl\n(pageContainer) is not called again. I overwrote the method:\n\tpublic void dispose() {\n\t   super.dispose();\n\t   this.setControl(null);\n\t}\nin all my pages as workaround. I suggest to add this method to WizardPage.","method_goldset":["org.eclipse.ui.internal.dialogs.NewWizardNewPage:handleWizardSelection(SelectionChangedEvent)"],"creation_date":"2002-5-22 08:55:00","resolution_date":"2005-5-10 13:55:56"}
{"id":73,"bug_id":"17707","text":"DAV: Reselecting the same location gives misleading warning. If I choose Deploy -\u003e Target Site... on a project that is already deployed and I\nselect the same target site I get a warning error telling me I am delpoyed to\nthe site and confirming that I want to overwrite. It should just ignore in that\ncase. STEPS 1 Deploy a project to \u003csite\u003e/Foo 2 Choose Deploy-Target Site and select \u003csite\u003e/Foo again 3 Warning message","method_goldset":["org.eclipse.team.internal.ui.target.ConfigureTargetWizard:setMapping(IWizardContainer, IProject, Site, IPath)"],"creation_date":"2002-5-24 10:15:00","resolution_date":"2005-11-2 22:03:18"}
{"id":74,"bug_id":"19307","text":"FTP: Valid ftp url is rejected. F2 If I enter ott4f.ott.oti.com as my ftp URL it is rejected as invalid. On most \nftp programs I can enter ftp ott4f.ott.oti.com and it will connect so this \nformat should be an option - i.e. the ftp:// option should be acceptable.","method_goldset":["org.eclipse.team.internal.ftp.ui.FTPMainPage:getCurrentValues()","org.eclipse.team.internal.ftp.ui.FTPMainPage:validateFields()"],"creation_date":"2002-6-5 08:43:00","resolution_date":"2005-11-2 22:18:18"}
{"id":75,"bug_id":"19686","text":"hover help stops working after mousing over end of file. From Stable F2 Build In a java file in Java Editor. Move the mouse to the whitespace at the end of \nthe file. . like the lower-right-most region of the java file. Stay there for \nabout 3 secs or so, then mouse over some text in the java file where you would \nexpect hover help. The hover help no longer works for the file. I tried \ntoggling the hover help button on/off/on, switching to other editors then back, \nnone of those methods seem to bring the hoverhelp back on. I need to close and \nreopen the file to get hover help back.","method_goldset":["org.eclipse.jface.text.TextViewerHoverManager:computeInformation()"],"creation_date":"2002-6-7 16:42:00","resolution_date":"2009-5-4 03:16:53"}
{"id":76,"bug_id":"19691","text":"[Team UI] Preferences not working with import/export. Build F2 The following preferences were not transfered from one workspace to another \nusing the export/import preferences feature. Ensure that these settings are saved in and read from your plug-in\u0027s \npreference store (if possible). Team - Use Incoming/Outgoing Team\u003eFile Content - Add, Remove, Change Team\u003eIgnored Resources - Add, Remove, Selected","method_goldset":["org.eclipse.team.core.Team:setAllIgnores(String[], boolean[])","org.eclipse.team.core.Team:initializePluginIgnores()","org.eclipse.team.core.Team:saveIgnoreState()","org.eclipse.team.core.Team:writeIgnoreState(DataOutputStream)","org.eclipse.team.core.Team:readIgnoreState()","org.eclipse.team.core.Team:shutdown()"],"creation_date":"2002-6-7 17:26:00","resolution_date":"2003-2-25 10:36:52"}
{"id":77,"bug_id":"19976","text":"Dav: Choosing not to add a bad site should let user modify site properties. If in Site Explorer you add a new site with a bogus url, the site shouldn\u0027t get \nadded. At present hitting \u003cFinish\u003e will inform you of the error but the site \nwill still get added. This could be argued as being a feature if, for example, you weren\u0027t connected \nto the internet at that time. We should do as we do with CVS and offer to keep \nor not.","method_goldset":["org.eclipse.team.internal.webdav.ui.WebDavConfigurationWizard:performFinish()"],"creation_date":"2002-6-11 22:25:00","resolution_date":"2005-11-2 22:24:26"}
{"id":78,"bug_id":"22809","text":"[Properties dialog] Repos Properties Info Dialog Labels do not resize with dialog.. (1 In the Resource Perspective\u0027s Navigator pane, select a file deep in a directory tree. (2 Open a Properties dialog that file. (3 Resize the dialog to try see the full file \"Path\" and \"Location\". (4 Observe that the labels are NOT resized with the dialog. Thank you,\nGary","method_goldset":["org.eclipse.ui.internal.dialogs.ResourceInfoPage:createBasicInfoGroup(Composite, IResource)"],"creation_date":"2002-8-23 19:36:00","resolution_date":"2003-2-4 11:56:49"}
{"id":79,"bug_id":"23140","text":"[CVS EXTSSH] vulnerable to man in the middle attacks (dns poisoning, etc_. Tested on Linux gtk2 and Mac OS X and 10.2 Carbon - Iall other versions are vulnerable \nas they use shared codebase and is implementation. Description of the problem: Eclipse ships with a pure java based ssh1 client for use with cvs. This\nis enabled by selecting extssh as the method of authentication to a cvs\nrepository. The client supplied is an SSH1 client and only supports\npassword authentication - users can use standard ext method for public\nkey authentication with a suitable ssh-agent (pagent, openssh, etc). However when using the Eclipse extssh component no history of host keys\nis kept. This enables an attacker who can poison the name resolution of\nthe eclipse client to potentially steal passwords through a modified ssh\ndaemon on a server under there control. Steps to Reproduce: 1 Set up access to an external cvs repository with extssh and a password. (preferably with a username that doesn\u0027t exist locally eg - notme). Close eclipse. 2 Edit /etc/hosts to point to another ssh server (eg localhost) 3 Open eclipse and choose to browse the repository from the cvs perspective. 4 In your auth logs you should get messages like: sshd[1234]: Failed none for illegal user notme from xxx.xxx.xxx.xxx\nport xxxx\nsshd[1234]: Failed password for illegal user notme from xxx.xxx.xxx.xxx\nport xxxx In  your log (/var/log/auth. log in the case of Mandrake) Expected results:  Should get a prompt saying key changed. A malicious user could gain access to valuable accounts Workaround: Use an ssh2 client with public keys with the ext method.","method_goldset":["org.eclipse.team.internal.ccvs.ssh.Client:connect(IProgressMonitor)","org.eclipse.team.internal.ccvs.ssh.Client:receive_SSH_SMSG_PUBLIC_KEY(ServerPacket)","org.eclipse.team.internal.ccvs.ssh.Client:send_SSH_CMSG_SESSION_KEY(byte[], byte[], byte[], byte[], byte[], byte[])"],"creation_date":"2002-9-4 01:34:00","resolution_date":"2002-11-4 12:36:39"}
{"id":80,"bug_id":"30644","text":"VCM preference pages cut off in High Contrast. 20030129 The following Team preference pages are cut off in High COntrast\nTeam-\u003eCVS\nExt Connection Method\nLabel Decorations","method_goldset":["org.eclipse.team.internal.ccvs.ui.ExtMethodPreferencePage:createContents(Composite)"],"creation_date":"2003-1-30 12:15:00","resolution_date":"2003-6-2 08:35:03"}
{"id":81,"bug_id":"31779","text":"[resources] UnifiedTree should ensure file/folder exists. Build: I20030211 using natives (Linux/Windows) When the UnifiedTree finds a new file from the file system, it assumes that if the file is not an existing file, then it is a folder. This is not always true, because for different reasons a file returned by java.io.File.list/listFiles may not actually exist (our CoreFileSystemLibrary#getStat() returns 0). This problem appears to the user when executing refresh operations. At the first moment, the file is found in the file system and assumed to be a folder, and a corresponding resource is created in the workspace. At the second refresh, the folder corresponding to that resource is not found in the file system, and then it is removed from the workspace. And so on. Bugs that revealed this problem: bug 21217 and bug 13463.","method_goldset":["org.eclipse.core.internal.localstore.UnifiedTree:addChildrenFromFileSystem(UnifiedTreeNode, String, Object[], int)","org.eclipse.core.internal.localstore.UnifiedTree:createChildNodeFromFileSystem(UnifiedTreeNode, String, String)"],"creation_date":"2003-2-13 09:55:00","resolution_date":"2003-2-14 12:59:59"}
