{"key":"DATAMONGO-1263","title":"","description":"When an association between documents involves generic types, the type information is not correctly inferred at startup time resulting in missing indexes.      The index \"name\" inherited from AbstractProduct is created (book2.content.name) inside \"catalog\" , but the index defined on the Book class itself (isbn) is not created as Spring Data Mongo is only inferring type infromation from the ProductWrapper class definition (ProductWrapper \u003cT extends AbstractProduct\u003e).  If the wrapper class is defined as ProductWrapper\u003cT\u003e, then no indexes are created at all on Catalog.books2.content."}
{"key":"DATAMONGO-938","title":"Exception when creating geo within Criteria using MapReduce","description":"I am getting an IllegalArgumentException when I try to query a MongoDB collection using a Criteria.within and a Box.   The exception reads:"}
{"key":"DATAMONGO-430","title":"","description":"When I perform a query that includes more than one criteria, only the first criteria is being considered, others are discarded."}
{"key":"DATAMONGO-952","title":"","description":"If you are using repository based queries and try to use @Query annotation to limit the fetched fields, it has zero effect.    The query above returns all fields of the User and the fields definition has no effect at all. If you are using @Query with value attribute to define the query, then the fields limitation is applied though."}
{"key":"DATAMONGO-1290","title":"@Query annotation with byte[] parameter does not work","description":"... but only the first works."}
{"key":"DATAMONGO-462","title":"findAll() fails with NPE - discovering the root cause","description":""}
{"key":"DATAMONGO-969","title":"String @id field is not mapped to ObjectId when using QueryDSL .id.in(Collection\u003cString\u003e)","description":"This is translating to $in clause with empty collection"}
{"key":"DATAMONGO-1289","title":"NullPointerException when saving an object with no \"id\" field or @Id annotation","description":"Instead of this, I\u0027m seeing a NullPointerException when attempting to save an object that doesn\u0027t have an \"id\" field or an @Id annotated field."}
{"key":"DATAMONGO-467","title":"String @id field is not mapped to ObjectId when using QueryDSL \".id\" path","description":"Always returns null for a repository find. Looking at the mongoDb query log (mongod -v) it appears that the spring-data-mongodb/QueryDSL layers are not translating the String 4f43b6a384aea4e77d403709 to ObjectId(\"4f43b6a384aea4e77d403709\") as one would normally do in the mongo shell."}
{"key":"DATAMONGO-1360","title":"","description":"The resulting MongoDb query looks like this:  It consequently fails with this message:   It does not fail when I use a java.util.Date in my query even though I have stilled persisted my document with a java.time.LocalDateTime object. The query then looks slightly different like this:"}
{"key":"DATAMONGO-987","title":"","description":"assertNull(persisted.getChild()); // it fails    I attached a project with the JUnit test which reproduces the problem for you."}
{"key":"DATAMONGO-505","title":"","description":"The execution of findByProperty() will fail as the given array (or collection) is not correctly translated into a collection of DBRefs. The reason is that ConvertingIterator treats the value as is and wants to create a DBRef from it."}
{"key":"DATAMONGO-1288","title":"Update.inc(String, Number) method fails to work with AtomicInteger","description":"Even though the org.springframework.data.mongodb.core.query.Update.inc(String, Number) method takes the parameter as Number, it doesn\u0027t actually work right with things that aren\u0027t simple primitive object wrappers. For example, if you pass in an AtomicInteger, the update fails to execute, as the generated json isn\u0027t correct."}
{"key":"DATAMONGO-420","title":"Extra quotes being added to @Query values and fields","description":"Quotes are being added to values passed into @Query annotations.         Whatever I pass into \"values\" or \"fields\" gets wrapped in quotes when inserted into the query sent to MongoDB.  -\u003e rendered as -  -\u003e This is not a valid query - the double quotes around it break it.  -\u003e rendered as -  -\u003e This is not a valid projection - the double quotes around it break it.    -\u003e This is not a valid projection - the double quotes around zero turn it into a string so it renders as \"true\" instead of 0/undefined."}
{"key":"DATAMONGO-1425","title":"NOT_CONTAINS keyword issues CONTAINS query.","description":""}
{"key":"DATAMONGO-523","title":"@TypeAlias annotation not used with AbstractMongoConfiguration ","description":"When using the AbstractMongoConfiguration without any further modifications regarding the converter (afterMappingMongoConverterCreation) the @TypeAlias annotation is not used when writing the _class property. Seems like it always uses the SimpleTypeInformationMapper."}
{"key":"DATAMONGO-1436","title":"","description":"When registering any custom converters for MongoDB, the CustomConversions constructor_ adds a whole slew of hard-coded converters to the list. These include NumberToNumberConverterFactory, which apparently converts java.lang.Number-\u003ejava.lang.Number and causes warnings to be logged."}
{"key":"DATAMONGO-1027","title":"Collection inherits complex index from embedded class/object","description":"Now if I add different book with the same author to books, the insert is ignored because books inherits the index from authors. On a subsequent context restart I\u0027m also getting a duplicate key exception:"}
{"key":"DATAMONGO-585","title":"Exception during authentication in multithreaded access","description":""}
{"key":"DATAMONGO-1416","title":"","description":"I just upgraded to 1.9.1 from 1.8.4 and keep getting these warnings."}
{"key":"DATAMONGO-1053","title":"In 1.6, any field in a mapped object named \"language\" will fail to map if it is a type other than String","description":"In 1.6, there is now a restriction that a field named \"language\" must be a String. So, in 1.5, the following will map but will not map in 1.6:"}
{"key":"DATAMONGO-629","title":"Different results when using count and find with the same criteria with \u0027id\u0027 field","description":"mongoTemplate.find(q,java.util.HashMap.class,\u0027test\u0027) gives following query (peeked in mongo console):             The same query, when used in count (mongoTemplate.count(q,\u0027test\u0027)) gives:                  This is inconsistent since we could have records with field id and they will be retrieved properly from the db. Count on the other hand will give bad results since it uses _id field.  This is probably the cause of the strange behaviour because find() method does not use QueryMapper and count() does."}
{"key":"DATAMONGO-1438","title":"I get a warning in my logs since switched to Spring Data MongoDB Hopper-SR1 Release Train in Spring Boot 1.3.5","description":"When I start my Spring Boot 1.3.5 application with no custom conversions and with Spring Data MongoDB Release Train Hopper-SR1 I get following warning in my logs:"}
{"key":"DATAMONGO-1068","title":"","description":"But the serialization to JSON for c is:         It seems that c1 will be explained to empty Map by invoking elemMatch(Criteria) because I haven\u0027t assign a key to it."}
{"key":"DATAMONGO-315","title":"MongoTemplate.findOne(query) methods ignore SortOrder on query","description":"This does not sort the results before returning the first item. Looking at the code, it doesn\u0027t even call query.getSortOrder()."}
{"key":"DATAMONGO-571","title":"Spring Data for MongoDb doesn\u0027t save null values when @Version is added to domain class ","description":""}
{"key":"DATAMONGO-1394","title":"","description":"List\u003cBook\u003e list \u003d bookRepository.findAll(exp);  // EMPTY"}
{"key":"DATAMONGO-321","title":"An ID field of type integer is always saved as zero if not set by the user before calling save.  Throw exception to indicate an int field will not be autopopulated.","description":"int id is saved as string."}
{"key":"DATAMONGO-1050","title":"SimpleMongoRepository.findById(id, class)  don\u0027t return ids for nested documents.","description":"SimpleMongoRepository.findById(id, class)  don\u0027t return ids for nested documents.          When it return B documents, innerDocs A objects have id \u003d\u003d null."}
{"key":"DATAMONGO-663","title":"","description":"The above class Field does not has an equals() method. But org.springframework.data.mongodb.core.query.Query has an equals method which is using the equals method of the Field class."}
{"key":"DATAMONGO-1406","title":"Query mapper does not use @Field field name when querying nested fields in combination with nested keywords","description":"resolves the fields to the input query to the ones in the @Field annotations, except for these in embedded arrays. So, in the example above, resolution fields in DBObject remains resolution. While, the status field resolves to stat.    Which doesn\u0027t get any data, because there is no field called resolution (the field in mongo is res).   Notice the status and displays fields correctly get converted to the value in the @Field annotation.   This basically means that any queries that operate on fields (with a name different from the peristed name) in the inner list will fail."}
{"key":"DATAMONGO-322","title":"","description":"findById with int type id returns null."}
{"key":"DATAMONGO-1078","title":"@Query annotated repository query fails to map complex Id structure.","description":"StringBasedMongoQuery converts any complex object to the according mongo type including type restrictions via _class.     end up being converted to:"}
{"key":"DATAMONGO-1486","title":"Changes to MappingMongoConverter Result in Class Cast Exception","description":"We end up getting the following exception:"}
{"key":"DATAMONGO-688","title":"There is no precedence between @Id annotation and field named \"id\" - both are attempted to be used","description":"If you have a domain class with an attribute named \"id\", even if you annotate a DIFFERENT field with \"@Id\", spring-data-mongo errors trying to map 2 things to the id. While the error is correct in that you can\u0027t have 2, it surprises me that one doesn\u0027t take precedence over the other."}
{"key":"DATAMONGO-260","title":"MapReduce fails when using with Long as key-type.","description":"MapReduce will fail calling emit with Long as key-type.                    then it tries to convert _id to objectid which fails:"}
{"key":"DATAMONGO-1088","title":"@Query $in does not remove \"_class\" property on collection of embedded objects ","description":"generates incorrect query."}
{"key":"DATAMONGO-387","title":"","description":"When using GeoPage as return value for repository query methods we run into a ClassCastException."}
{"key":"DATAMONGO-1498","title":"","description":"As described in this SO thread, in Spring Boot 1.3.6, Spring Data 1.8.4, Spring Data REST 2.4.4 the Spring Data MongoDB entities that have a property of Joda DateTime type:   gets rendered into in the REST representation of my Spring Data entity as  With Spring Boot 1.4.1, Spring Data MongoDB 1.9.3, Spring Data REST 2.5.3 same properties suddenly get represented as    It looks like Joda\u0027s DateTime started to get treated as data entity again:         These types will be considered simple ones (which means they neither need deeper inspection nor nested conversion. Thus the CustomConversions also act as factory for SimpleTypeHolder Which is in fact not true for Spring Data REST [any more], from what I can tell debugging my code. The types that are added via default CustomConversions are not treated as simple ones when rendering JSON and properties of those types get serialised as embedded entity objects. Here is the place in the Spring Data REST PersistentEntityJackson2Module that calls to Spring Data MongoDB PersistentEntity implementation to check whether the property type is simple or not. And since the simpleTypeHolder in the Spring Data Commons AbstractMappingContext does not contain the types for which Spring Boot auto-configuration adds Joda DateTime converters, the DateTime field is treated as complex object."}
{"key":"DATAMONGO-392","title":"Updating an object does not write type information for objects to be updated","description":"I used 1.0.0. M5 version, and the type information (under _class key) was stored with object when it was necessary to be able to read it from database later.  RELEASE version that broke my application as it saves the objects without type information and later it is impossible to read it back to java model. What I found is that MappingMongoConverter.writeInternal(...) method that in turn calls addCustomTypeIfNecessary(...) (line 330) which puts type information into DBObject. During execution of convertToMongoType(...) (at line 851) removeTypeInfoRecursively(...) is called which clears type data saved earlier under _class key."}
{"key":"DATAMONGO-1043","title":"SpEL Expressions in @Document annotations are not re-evaluated for query executions","description":"Based on the idea of Oliver Gierke in https://jira.spring.io/browse/DATAMONGO-525 I followed some post like the ones below http://stackoverflow.com/questions/18129291/mongodb-and-spel-expressions-in-document-annotations and http://stackoverflow.com/questions/19807733/mongodb-multi-tenacy-spel-with-document?rq\u003d1 but in the end I realized that the problem is that AbstractMongoQuery is cached between requests(maybe a problem in my config?) , and its query-method object of type MongoQueryMethod, which holds the metadata, MongoEntityMetadata. And thus make this approach (use SpEL in @Document annotation) not fully working.  All of them but SingleEntityExecution suffers from this problem, and it\u0027s because in SingleEntityExecution mongoOperations is called without passing collectionName and thus letting, in the end, BasicMongoPersistentEntity.getCollection apply SpEL over entity class to obtain the runtime collection name."}
{"key":"DATAMONGO-385","title":"MongoRepositoryFactory does not support id classes of type java.lang.Long","description":"It is not possible to use a MongoRepository with Long id class:"}
{"key":"DATAMONGO-702","title":"Spring Data MongoDB projection search, is not properly configured with respective Java Pojo","description":"uning mongoTemplate it does not java property field as field parameter, rather it needs the name declared with name defined with @Field annotation."}
{"key":"DATAMONGO-1123","title":"geoNear, does not return all matching elements, it returns only a max of 100 documents","description":"I expect 1000 \"matching\" documents But i only get 100. There is some default being set, that restricts the result to 100."}
{"key":"DATAMONGO-398","title":"","description":"When I attempt to save an object from org.apache.felix\u0027s versions of org.osgi.service.event.Event, the stack trace below occurs. This appears to be due to the system attempting to save the topic field in Event as event.topics."}
{"key":"DATAMONGO-717","title":"Application context is not properly distributed to persistent entities","description":"The MongoMappingContext does not properly distribute the application context when set to persistent entities that have already been added."}
{"key":"DATAMONGO-402","title":"Inner class not supported","description":"Inner class not supported in 1.0.1."}
{"key":"DATAMONGO-1126","title":"","description":"The query returns results but getTotalElements() and getTotalPages() always returns 0. Also when you try to get any other page than 0, no results return.                                                Assert.assertEquals(30, results.getTotalElements()); // this is returning 0 Assert.assertEquals(6, results.getTotalPages());     // this is returning 0"}
{"key":"DATAMONGO-721","title":"Polymorphic attribute type not persisted on update operations","description":"When using MongoTemplate class with code such as below, the _class attribute is not inserted on the embedded document, so, if one of the items of the list attribute is a subclass of ChildClass, and ChildClass is an abstract class, we begin to face instantiation problems.    If child is a subclass of ChildClass, the _class attribute is not added to the embedded document."}
{"key":"DATAMONGO-413","title":"Using \"Or\" in repository query yields a ClassCastException","description":"Gives:"}
{"key":"DATAMONGO-1133","title":"","description":"the aggretation uses the property name of a class rather than the name designated in @Field."}
{"key":"DATAMONGO-602","title":"Querying with $in operator on the id field of type BigInteger returns zero results","description":"The query looks like this for a profileIds with multiple elements  and it looks like this when there is only one item in the list.  In the first case, query will return no results and in the second it will work and return an Iterable with one item."}
{"key":"DATAMONGO-1202","title":"","description":"Under simple scenarios with reflexive DBRef relations works as expected, but if used in conjunction with generics it doesn\u0027t create the index expected.      If you run Application it will just create indexes and put some data in customer collection assuming a MongoD is running locally at 27017"}
{"key":"DATAMONGO-423","title":"Criteria.regex should use java.util.Pattern instead of $regex","description":"throws this exception:"}
{"key":"DATAMONGO-805","title":"Excluding DBRef field in a query causes a MappingException","description":"Excluding a field in a query where the field is a DBRef as below throws a MappingException.      Exception trace:"}
{"key":"DATAMONGO-1232","title":"","description":"The IgnoreCase query generator is subject to a sort of \"regex injection\" attack, because the query generator simply slaps ^. . $ around the string and passes it directly to MongoDB. This fails when the string contains any sort of special characters. In my case, I\u0027m trying to perform a case-insensitive find on an e-mail address with the + sign, a legal character, but the regex interprets this as 1. . *."}
{"key":"DATAMONGO-887","title":"Repository not instantiated when entity contains field of type TreeMap","description":"Repository fails to instantiate when the entity contains a TreeMap with value class that does not have a convertor.                  Throws: java.lang.ArrayIndexOutOfBoundsException: 0 In: org.springframework.data.util.ParameterizedTypeInformation.getComponentType(ParameterizedTypeInformation.java:148)"}
{"key":"DATAMONGO-1250","title":"Custom converter implementation not used in updates","description":"It also works when building and executing a Query object. However when used in an Update, it is either ignored, or called in situations where it shouldn\u0027t.                                                                                                   By use of a positive and negative case, it appears that the converter is being called correctly when used in the Query builder. When it comes to an Update, the Enum is unable to be serialised correctly, and an exception is thrown to that effect.  So it appears that the customer converter for converting from my Enum is not called in this situation.  The BigDecimal is converted to a String by an existing converter I assume, but then my customer converter is called to try and convert the numeric String into an Allocation Enum which of course fails.  That second variant never seems to be called in MappingMongoConverter, but perhaps if that type information was passed then it would not use my Allocation converter. Without type information it seems the default is just to use the first converter that can handle the input type, in this case a String."}
{"key":"DATAMONGO-897","title":"","description":"NullPointerException is thrown when using MongoTemplate.findAndModify(...) with @DbRef and interface as @DbRef target."}
{"key":"DATAMONGO-1236","title":"MongoOperations findAndModify and updateFirst do not include the _class in Map values","description":"When a map of type LinkedHashMap\u003cString, Object\u003e  is updated via MongoOperations findAndModify or updateFirst, the _class field is not saved for the map values. Therefore, later reads of the data do not convert the value to the correct type, instead leaving it as LinkedHashMap."}
{"key":"DATAMONGO-892","title":"\u003cmongo:mapping-converter\u003e can\u0027t be configured as nested bean definition","description":"That\u0027s because MappingMongoConverterParser doesn\u0027t check if the parserContext.isNested(), registers BeanDefinition and returns null"}
{"key":"DATAMONGO-1269","title":"QueryMapper drops numeric keys in Maps.","description":"As of 1.7.1 numeric keys get dropped in query mapping."}
{"key":"DATAMONGO-647","title":"Using \"OrderBy\" in \"query by method name\" ignores the @Field annotation for field alias.","description":"When the query is run, the database attempts to sort the results by \"score\" rather than my \"sr\" field name."}
{"key":"DATAMONGO-1307","title":"","description":"MongoTemplate has code like this in many places:  MongoExceptionTranslator, however, often does NOT return an exception. If it encounters an unknown exception it does this: // If we get here, we have an exception that resulted from user code, // rather than the persistence provider, so we return null to indicate // that translation should not occur. return null; MongoTemplate then \"eats\" the original exception and throws a null-pointer exception instead."}
{"key":"DATAMONGO-745","title":"@Query($in) and Pageable in result Page total \u003d 0","description":"Hi If I used MongoRepository and anotation Quary and Pageable in response I get true result but getTotalElements \u003d\u003d 0"}
