{"key":"IO-180","title":"","description":"In the Javadoc for rg.apache.commons.io.LineIterator (in Commons IO 1.4), this code snippet is incorrect:  the last instance of \"iterator\" should be"}
{"key":"IO-252","title":"NumberFormatException from FileUtils.toFile method","description":"Certain strings can cause the org.apache.commons.io.FileUtils.toFile(URL url) method to call Integer.parseInt with an invalid argument and thus throw a NumberFormatException:"}
{"key":"IO-307","title":"","description":"If the buffer is null, the method should throw NPE immediately (rather than letting it occur later)"}
{"key":"IO-481","title":"org.apache.commons.io.FileUtils#waitFor waits too long","description":"The following testcase will never run in less than 4 seconds on my machine public void testRealWallTime()"}
