{"key":"81264","title":"","description":"Here\u0027s my testcase to demonstrate the problem:"}
{"key":"81265","title":"","description":"In Control Example, go to tree tab 1. change the background colour. 2. uncheck the enabled checbox"}
{"key":"81834","title":"","description":"How to reproduce: 1 Change the user language to Arabic on \"Regional and Language Options\" panel on Windows. (do not specify \"-nl\" command line arguments.) 2 Create Shell with SWT.RIGHT_TO_LEFT flag. 3 add StyledText on the shell. 4 Set text \"012345 abc 012345\" in StyledText widget. 5 Open and run the shell."}
{"key":"83262","title":"","description":"When pasting using the middle mouse button from StyledText into an rxvt window,\nit contains a null terminator at the end."}
{"key":"84557","title":"","description":"ctrl esc E brings up the handy switch to editor window, but unfortuantley the\nlist is empty :("}
{"key":"84609","title":"","description":"Consider followed code, table has only 3 columns:"}
{"key":"86000","title":"","description":"Simple test case below loads\n PNG Files and Saves them as JPEG."}
{"key":"87363","title":"","description":"The following example demonstrates the problem:"}
{"key":"87460","title":"","description":"In the snippet below, there is a StyledText with a line style listener. In the line style listener, a bold font style is set, changing the width of the rendered text."}
{"key":"87855","title":"","description":"Here is a stack trace I found when trying to kill a running process by \npressing the \"kill\" button in the console view."}
{"key":"87997","title":"","description":"Specifically this prevents one from adding a dispose listener on the Table\nor a TableItem and trying to dispose of the associated editor, as in the code\nbelow."}
{"key":"88717","title":"[DND] Tree is scrolling very slow when dragging an Item to the Bottom","description":"Create a Tree with some items and implement DND support as explained in this Snippet:  Now expand some items so that vertical scrollbars are appearing. When draggin an item to the bottom, the Tree is not scrolling."}
{"key":"88829","title":"","description":"- start with five columns, all different widths - do Table.setColumnOrder(new int[] {4,1,2,3,0});"}
{"key":"90258","title":"","description":"My code looks like this:"}
{"key":"93380","title":"[DnD] 100% CPU usage when dragging files in the navigator or package explorer","description":"When i drag and drop a file inside the package explorer or navigator views the   I do not see this massive use of CPU when dragging an external file into the navigator or when dragging a file out of the navigator."}
{"key":"93724","title":"","description":"Here is an example of some code in DragSource.java for GTK+:"}
{"key":"94467","title":"","description":"Use ctrl-shift-e to bring up the editor list."}
{"key":"100040","title":"","description":"I tried running one of them, the OpenCloseWindowTest on N20050602, and also with N20050602+RC1\u0027s SWT."}
{"key":"94598","title":"","description":"1 Install Eclipse SDK and NL pack 2 Click \"Help\" from menu -\u003e select \"Help Content\" -\u003e Click \"Search Scope\", a Search Scope dialog pop up. 3 Select \"Search all topics\", Click \"New\", the New Search List dialog pop up. 4 Then try to active IIMF input method by \"CTRL+SPACE\" key in order to input DBCS characters, but Eclipse hangs. No response from Eclipse."}
{"key":"104150","title":"","description":"To reproduce the problem, use snippet 96 with an added table.setLinesVisible(true)."}
{"key":"97651","title":"","description":"- run the snippet below - the insert line is set to be under the \"root\" item - collapse the root item   - press the button to the right of the Table: this does a Tree.redraw(), and note that the insert line reappears, so I guess it never really meant to go away"}
{"key":"104545","title":"","description":"Background: When you write an RCP app and enable the cool bar, the cool bar will initially be empty, but 64x64 pixels in size."}
{"key":"104966","title":"","description":"1. Create a new Visual bean (SWT) 2. Drop a link on the composite 3. Set the enabled property on the link to be disabled   6. Re-open the editor   If you change the order of the initialization such that the enabled status is set after the text is set it displays correctly."}
{"key":"99376","title":"","description":"- Window -\u003e Show View -\u003e Other... - select PDE Runtime - Plug-in Registry, OK"}
{"key":"117574","title":"","description":"Example:"}
{"key":"58185","title":"","description":"I have several old style BMP files. When I attempt to load them into an image eclipse runs out of memory.   In my case, I have a BMP file with the following header:"}
{"key":"77948","title":"","description":"I was creating new simple files in existing projects, and then deleting them.   I was using the keyboard heavily for navigation.  I found the exception below"}
{"key":"78548","title":"","description":"- run the ControlExample, Button tab - turn on listeners MouseUp and Selection - click on an example Button"}
{"key":"78559","title":"","description":"- run the ControlExample, Slider/Scale tab - turn on the MouseDown and Selection listeners - click on the example Slider\u0027s thumb"}
