{"key":"DATAMONGO-1088","title":"@Query $in does not remove \"_class\" property on collection of embedded objects ","description":"Following method on repository      Query should be without _class property e.g.:  I attached test project demonstrating this bug."}
{"key":"DATAMONGO-1123","title":"geoNear, does not return all matching elements, it returns only a max of 100 documents","description":"I have the following query:         I expect 1000 \"matching\" documents But i only get 100."}
{"key":"DATAMONGO-1126","title":"Repository keyword query findByInId with pageable not returning correctly","description":"I\u0027ve been trying to use the In-keyword with identifiers and making the query pageable.  Also when you try to get any other page than 0, no results return.  Below is a strip down example I used for testing; I\u0027ve created 3 types and 10 items per those types, results in a total of 30 items.                                   // expect 5 Items returned, total of 10 Items(SWORDS) in 2 Pages      // expect 5 Items returned, total of 30 Items in 6 Pages"}
