{"key":"WFCORE-1908","title":"Tab completion suggest writing attribute which has access type metric and is not writable","description":"Example    On attempt to write metric attribute, for example message-count, non writable error is printed       CLI should not suggest writing attributes that are not writable."}
{"key":"WFCORE-1572","title":"Suggestion list for argument value is not generated if the value contains a whitespace","description":"When an argument value contains a space (eg. deploy /path/to/test-application. war --all-server-groups --headers\u003d{rollout id\u003dfoo}) and if user hits tab after the whitespace, suggestions are generated based on the command, rather than the current argument\u0027s name."}
{"key":"WFCORE-1578","title":"Better check of names of existing resources when adding \u0027{local|remote-destination-outbound-socket-binding\u0027","description":"Lets have some /socket-binding-group\u003dstandard-sockets/socket-binding with particular name. Then when I create some /socket-binding-group\u003dstandard-sockets/remote-destination-outbound-socket-binding or /socket-binding-group\u003dstandard-sockets/local-destination-outbound-socket-binding using same name as of already existing socket-binding resource, add operation is successful but when I perform server reload, it crashes as it is not able to parse configuration.  Start EAP and log to CLI create your own socket-binding resource and {remote|local}-destination-outbound-socket-binding resource with same names and perform reload                                          If there is a problem for those resources to have same names I would welcome that names are checked during the add operation already regarding to all resources in socket-binding and {remote|local}-destination-outbound-socket-binding."}
{"key":"WFCORE-1570","title":"Saved rollout-plan \u0027name\u0027 or \u0027id\u0027 attribute discrepancy","description":"When using rollout plans for EAP deployment scenarios I can create my own named rollout-plan for ease of use. I can then apply rollout command later on, referring with name of my own rollout plan that should be used.  When I create rollout-plan, I use command like:   When I then refer to it I use following command:    Yes, this is really minor issue, but I think that these two attributes used in aforementioned commands should be unified (preferably to name instead of id) as user might be confused when using it."}
{"key":"WFCORE-1756","title":"Adding content to an exploded deployment with overwrite to false should fail if file already exists","description":"If overwrite is set to false then adding the file should fail."}
{"key":"WFCORE-1936","title":"Value of parameters \"restart-required\" for fixed-*port attributes does not match reality for socket-binding and *-destination-outbound-socket-binding in CLI","description":"fixed-port attribute of socket-binding and fixed-source-port attributes of *-destination-outbound-socket-binding define in its description that there is not necessary to do reload or restart for any of them.  If you tries to change such attributes you are informed that reload is necessary."}
{"key":"WFCORE-1714","title":"Tab completion doesn\u0027t offer more options once prefix match some value","description":"reproduce      expected"}
{"key":"WFCORE-1864","title":"Whitespaces are not removed from dependencies in module add command","description":"Running module add --name\u003dfoo.bar --resources\u003dfoo.jar --dependencies\u003d[org.a, org.b ] will result in following dependencies in module.xml         The module name in dependencies should be stripped of leading and trailing whitespaces."}
