{"id":7373,"bug_id":"SWARM-691","text":"Multiple Archive#as(Secured.class) executions occur ParseError of web.xml. as(Secured.class)","file_goldset":["org.wildfly.swarm.undertow.descriptors.WebXmlAsset"],"creation_date":"2016-09-16T21:54:39.000-05:00","resolution_date":"2016-10-04T17:44:25.000-05:00"}
{"id":7374,"bug_id":"SWARM-863","text":"Version 2016.11.0 doesn\u0027t stop properly (with custom main class). container \u003d new Swarm(); // fractions being added here also\n\n\n\n\n    container.start();\n\n\n\n\n    container.deploy(...);\n\n\n\n\n\n\n container.stop();","file_goldset":["org.wildfly.swarm.container.runtime.ServerBootstrapImpl"],"creation_date":"2016-11-30T14:54:40.000-06:00","resolution_date":"2016-12-12T17:26:22.000-06:00"}
{"id":7375,"bug_id":"SWARM-528","text":"swarm.http.port and swarm.port.offset do not work with @ArquillianResource URL baseURL. @ArquillianResource @ArquillianResource @ArquillianResource","file_goldset":["org.wildfly.swarm.arquillian.resources.SwarmURLResourceProvider"],"creation_date":"2016-06-22T02:53:46.000-05:00","resolution_date":"2016-07-21T12:11:11.000-05:00"}
{"id":7376,"bug_id":"SWARM-486","text":"Can\u0027t load project-stages.yml on classpath with Arq. classpath(src/main/resources)  container.withStageConfig(Paths.get(\"/tmp\", \"external-project-stages.yml\").toUri().toURL())","file_goldset":["org.wildfly.swarm.container.ProjectStagesTest"],"creation_date":"2016-05-28T18:25:37.000-05:00","resolution_date":"2016-07-27T08:33:48.000-05:00"}
