{"key":"BOOKKEEPER-294","title":"","description":"{noformat}\n {noformat}"}
{"key":"BOOKKEEPER-318","title":"","description":"{code}\n @Override\n        public void processResult(int rc, String path, Object ctx) {\n            if (rc !\u003d successRc) {\n                LOG.error(\"Error in multi callback : \" + rc);\n                exceptions.add(rc);\n            }\n            tick();\n        }\n {code}"}
{"key":"BOOKKEEPER-371","title":"","description":"Channel topicSubscriberChannel \u003d client.getSubscriber().getChannelForTopic(topicSubscriber);\n        HedwigClientImpl.getResponseHandlerFromChannel(topicSubscriberChannel).getSubscribeResponseHandler()\n        .messageConsumed(messageConsumeData.msg);\n\n getPipeline() getLast()  channel.close()  messageConsumed()"}
{"key":"BOOKKEEPER-376","title":"","description":"{noformat}\n {noformat}"}
