{"key":"DERBY-4835","title":"","description":"tidlggls(blt_number,create_date,update_date,propagation_date,glossary_status,\n     time_stamp,min_max_size )\n  tidlrblt(BLT,BLT_SIZE,MIN_MAX_SIZE)  GeneratedMe\nthod; if (fromVersion.majorVersionNumber \u003e\u003d DataDictionary.DD_VERSION_DERBY_10_5)\n\t\t\t\tbootingDictionary.updateMetadataSPSes(tc);\n\t\t\telse\n\t\t\t\tbootingDictionary.clearSPSPlans();\n\n clearSPSPlans()"}
{"key":"DERBY-4873","title":"","description":"testBoundaries(org.apache.derbyTesting.functionTests.tests.jdbcapi.InternationalConnectTest)"}
{"key":"DERBY-4884","title":"","description":"setUp()  Decorator.encryptedDatabase()"}
{"key":"DERBY-4889","title":"","description":"PreparedStatement ps \u003d c.prepareStatement(\"values cast(? as boolean)\");\n        ps.setByte(1, (byte) 32);\n        ResultSet rs \u003d ps.executeQuery();\n        rs.next();\n        System.out.println(rs.getBoolean(1));\n\n If setByte()  setInt()"}
{"key":"DERBY-4624","title":"","description":"while (calendar.get(Calendar.HOUR) \u003d\u003d 23\n\t\t\t\t\t\t\u0026\u0026 calendar.get(Calendar.MINUTE) \u003e\u003d 58) {\n\t\t\t\t\ttry {\n\t\t\t\t\t\tThread.sleep((60 - calendar.get(Calendar.SECOND)) * 1000);\n\t\t\t\t\t} catch (InterruptedException ie) {\n\t\t\t\t\t\t// ignore it\n\t\t\t\t\t}\n\t\t\t\t}\n\n calendar.get(Calendar.HOUR)  calendar.get(Calendar.HOUR)"}
{"key":"DERBY-4654","title":"","description":"org.apache.derby.vti.Restriction.toSQL()  Restriction.doubleQuote()  IdUtil.normalToDelimited()"}
{"key":"DERBY-4892","title":"","description":"test_06_casts(org.apache.derbyTesting.functionTests.tests.lang.UDTTest)"}
{"key":"DERBY-4664","title":"","description":"DriverManager.getConnection(\"jdbc:default:connection\");  SystemProcedures.getDefaultConn()  InternalDriver.activeDriver()"}
{"key":"DERBY-4665","title":"","description":"printStackTrace(sqle);\n\t\t\t\t\tfail(\"Unexpected exception from statement \u0027\" + sql + \"\u0027\");\n\n {\n\t\t\tSystem.out.println(s + \" is not a proper timestamp string.\");\n\t\t\tSystem.out.println(e.getClass().getName() + \": \" + e.getMessage());\n\t\t\te.printStackTrace();\n\t\t\tSystem.exit(1);\n\t\t\treturn null;\n\t\t}"}
{"key":"DERBY-4718","title":"","description":"public static void main()"}
