{"key":"HHH-4617","title":"","description":"@Lob"}
{"key":"HHH-4647","title":"","description":"testQuotedReferencedColumnName() getPhysicalColumnName() getLogicalColumnName()"}
{"key":"HHH-5042","title":"","description":"class MultipleHiLoPerTableGenerator IntegralDataTypeHolder value;\n int lo;\n\n IntegralDataTypeHolder hiVal \u003d (IntegralDataTypeHolder) doWorkInNewTransaction( session );\n\n varchar(255) varchar(255)"}
