{"key":"1599709","title":"","description":"lt;ENTER\u0026gt;"}
{"key":"2759434","title":"","description":"lt;ENTER\u0026gt;\n lt;CARRET\u0026gt;"}
{"key":"1600401","title":"","description":"lt;init\u0026gt; {12,39\\} lt;init\u0026gt; {12,39\\} lt;init\u0026gt; lt;init\u0026gt; lt;init\u0026gt;"}
{"key":"1193683","title":"","description":"{\\{\\{ test\naaaa\nbbbb\ncccc\n\\}"}
{"key":"1658252","title":"","description":"{ \\\ncode;                         \\\nmore code;                    \\\neven more code;               \\\n\\}"}
{"key":"1571752","title":"","description":"{\n\n\\} {\\{\\{  --\u0026gt;\nfunction foo\\(\\) \\{\n\n\\} //\\}\\}\\}"}
{"key":"1724940","title":"","description":"lt;body\u0026gt;\n lt;p\u0026gt;\n the \u0026lt;p\u0026gt;  lt;body\u0026gt;\n lt;d\u0026gt;"}
{"key":"1575505","title":"","description":"r\u0026gt; ;\n\n r\u0026gt; ;"}
{"key":"1942313","title":"","description":"int a \u003d 1;\n\n {\n//\n\\}\n\n {\n//\n\\}\n\n {\n//\n\\}"}
{"key":"1999448","title":"","description":"{\\{\\{ hello\n\nsomething\n\n\\}"}
{"key":"2129419","title":"","description":"lt;init\u0026gt;"}
