{"key":"TIKA-1192","title":"","description":"{noformat}\n {noformat}"}
{"key":"TIKA-1070","title":"","description":"new ElementInfo(currentElement, namespaces);"}
{"key":"TIKA-1152","title":"","description":"{code}\n {code}"}
