{"codeSnippets": [], "creation_date": "2016-09-22T07:06:44.000-05:00", "description": "follow applic shutdown ctrl error stderr thread org jboss weld context contextnotactiveexcept context activ weld activ context scope type javax inject singleton error stderr thread org jboss weld manag beanmanagerimpl bean manag impl getcontext context beanmanagerimpl bean manag impl java error stderr thread org jboss weld bean contextualinstancestrategi contextu instanc strategi defaultcontextualinstancestrategi contextu instanc strategi contextualinstancestrategi contextu instanc strategi java error stderr thread org jboss weld bean contextualinstancestrategi contextu instanc strategi applicationscopedcontextualinstancestrategi applic scope contextu instanc strategi contextualinstancestrategi contextu instanc strategi java error stderr thread org jboss weld bean contextualinst contextu instanc contextualinst contextu instanc java error stderr thread org jboss weld manag beanmanagerimpl bean manag impl getrefer refer beanmanagerimpl bean manag impl java error stderr thread org jboss weld bean builtin instanceimpl instanc impl getbeaninst bean instanc instanceimpl instanc impl java error stderr thread org jboss weld bean builtin instanceimpl instanc impl instanceimpl instanc impl java error stderr thread org wildfli swarm contain runtim runtimeserv runtim server stop runtimeserv runtim server java error stderr thread org wildfli swarm contain runtim runtimeserv runtim server lambda runtimeserv runtim server java error stderr thread java lang thread run thread java", "fixed_files": ["org.wildfly.swarm.container.runtime.RuntimeServer", "org.wildfly.swarm.container.runtime.RuntimeDeployer"], "key": "SWARM-710", "original_text": "ContextNotActiveException - No active contexts for scope type javax.inject.Singleton on shutdown There is following exception when doing application shutdown (ctrl+c):\n\n\n\n\n\n\n2016-09-22 08:30:31,084 ERROR [stderr] (Thread-4) org.jboss.weld.context.ContextNotActiveException: WELD-001303: No active contexts for scope type javax.inject.Singleton\n\n\n\n\n2016-09-22 08:30:31,085 ERROR [stderr] (Thread-4) \tat org.jboss.weld.manager.BeanManagerImpl.getContext(BeanManagerImpl.java:639)\n\n\n\n\n2016-09-22 08:30:31,085 ERROR [stderr] (Thread-4) \tat org.jboss.weld.bean.ContextualInstanceStrategy$DefaultContextualInstanceStrategy.get(ContextualInstanceStrategy.java:94)\n\n\n\n\n2016-09-22 08:30:31,085 ERROR [stderr] (Thread-4) \tat org.jboss.weld.bean.ContextualInstanceStrategy$ApplicationScopedContextualInstanceStrategy.get(ContextualInstanceStrategy.java:140)\n\n\n\n\n2016-09-22 08:30:31,085 ERROR [stderr] (Thread-4) \tat org.jboss.weld.bean.ContextualInstance.get(ContextualInstance.java:50)\n\n\n\n\n2016-09-22 08:30:31,085 ERROR [stderr] (Thread-4) \tat org.jboss.weld.manager.BeanManagerImpl.getReference(BeanManagerImpl.java:692)\n\n\n\n\n2016-09-22 08:30:31,086 ERROR [stderr] (Thread-4) \tat org.jboss.weld.bean.builtin.InstanceImpl.getBeanInstance(InstanceImpl.java:178)\n\n\n\n\n2016-09-22 08:30:31,086 ERROR [stderr] (Thread-4) \tat org.jboss.weld.bean.builtin.InstanceImpl.get(InstanceImpl.java:98)\n\n\n\n\n2016-09-22 08:30:31,086 ERROR [stderr] (Thread-4) \tat org.wildfly.swarm.container.runtime.RuntimeServer.stop(RuntimeServer.java:200)\n\n\n\n\n2016-09-22 08:30:31,086 ERROR [stderr] (Thread-4) \tat org.wildfly.swarm.container.runtime.RuntimeServer.lambda$new$26(RuntimeServer.java:111)\n\n\n\n\n2016-09-22 08:30:31,086 ERROR [stderr] (Thread-4) \tat java.lang.Thread.run(Thread.java:745)\n\n\n\n\n\n", "resolution_date": "2016-09-23T18:08:40.000-05:00", "stackTraces": [], "title": "contextnotactiveexcept context activ activ context scope type javax inject singleton shutdown"}
{"codeSnippets": [], "creation_date": "2016-10-06T11:58:09.000-05:00", "description": "tri enabl infinispan level cach hibern soon enabl follow startup error org jboss msc servic fail serverservic server servic thread pool fail start servic jboss persistenceunit demo war primari org jboss msc servic startexcept start servic jboss persistenceunit demo war primari javax persist persistenceexcept persist persistenceunit persist unit primari build hibern sessionfactori session factori org jboss jpa servic persistenceunitserviceimpl persist unit servic impl run persistenceunitserviceimpl persist unit servic impl java org jboss jpa servic persistenceunitserviceimpl persist unit servic impl run persistenceunitserviceimpl persist unit servic impl java org wildfli secur manag wildflysecuritymanag wild fli secur manag docheck check wildflysecuritymanag wild fli secur manag java org jboss jpa servic persistenceunitserviceimpl persist unit servic impl run persistenceunitserviceimpl persist unit servic impl java java util concurr threadpoolexecutor thread pool executor runwork run worker threadpoolexecutor thread pool executor java java util concurr threadpoolexecutor thread pool executor worker run threadpoolexecutor thread pool executor java java lang thread run thread java org jboss thread jbossthread boss thread run jbossthread boss thread java caus javax persist persistenceexcept persist persistenceunit persist unit primari build hibern sessionfactori session factori org hibern jpa boot intern entitymanagerfactorybuilderimpl entiti manag factori builder impl persistenceexcept persist entitymanagerfactorybuilderimpl entiti manag factori builder impl java org hibern jpa boot intern entitymanagerfactorybuilderimpl entiti manag factori builder impl build entitymanagerfactorybuilderimpl entiti manag factori builder impl java org jboss jpa hibernate5 twophasebootstrapimpl two phase bootstrap impl build twophasebootstrapimpl two phase bootstrap impl java org jboss jpa servic persistenceunitserviceimpl persist unit servic impl run persistenceunitserviceimpl persist unit servic impl java caus org hibern servic spi serviceexcept servic creat request servic org hibern engin spi cacheimplementor cach implementor org hibern servic intern abstractserviceregistryimpl servic registri impl createservic creat servic abstractserviceregistryimpl servic registri impl java org hibern servic intern abstractserviceregistryimpl servic registri impl initializeservic initi servic abstractserviceregistryimpl servic registri impl java org hibern servic intern abstractserviceregistryimpl servic registri impl getservic servic abstractserviceregistryimpl servic registri impl java org hibern intern sessionfactoryimpl session factori impl init sessionfactoryimpl session factori impl java org hibern boot intern sessionfactorybuilderimpl session factori builder impl build sessionfactorybuilderimpl session factori builder impl java org hibern jpa boot intern entitymanagerfactorybuilderimpl entiti manag factori builder impl build entitymanagerfactorybuilderimpl entiti manag factori builder impl java caus org hibern cach cacheexcept cach infinispan custom cach command factori instal possibl classload infinispan live couldn't find hibern infinispan cach provid org hibern cach infinispan infinispanregionfactori infinispan region factori getcachecommandfactori cach command factori infinispanregionfactori infinispan region factori java org hibern cach infinispan infinispanregionfactori infinispan region factori startregion start region infinispanregionfactori infinispan region factori java org hibern cach infinispan infinispanregionfactori infinispan region factori buildtimestampsregion build timestamp region infinispanregionfactori infinispan region factori java org hibern cach spi updatetimestampscach updat timestamp cach init updatetimestampscach updat timestamp cach java org hibern intern cacheimpl cach impl init cacheimpl cach impl java org hibern engin spi cacheiniti cach initi initiateservic initi servic cacheiniti cach initi java org hibern engin spi cacheiniti cach initi initiateservic initi servic cacheiniti cach initi java org hibern servic intern sessionfactoryserviceregistryimpl session factori servic registri impl initiateservic initi servic sessionfactoryserviceregistryimpl session factori servic registri impl java org hibern servic intern abstractserviceregistryimpl servic registri impl createservic creat servic abstractserviceregistryimpl servic registri impl java error org jboss control manag oper main wflyctl0013 oper add fail address deploy demo war failur descript wflyctl0080 fail servic jboss persistenceunit demo war primari org jboss msc servic startexcept start servic jboss persistenceunit demo war primari javax persist persistenceexcept persist persistenceunit persist unit primari build hibern sessionfactori session factori caus javax persist persistenceexcept persist persistenceunit persist unit primari build hibern sessionfactori session factori caus org hibern servic spi serviceexcept servic creat request servic org hibern engin spi cacheimplementor cach implementor caus org hibern cach cacheexcept cach infinispan custom cach command factori instal possibl classload infinispan live couldn't find hibern infinispan cach provid wflyctl0412 requir servic instal jboss persistenceunit demo war primari wflyctl0180 servic miss unavail depend undefin error org jboss server main wflysrv0021 deploy deploy demo war roll back follow failur messag wflyctl0080 fail servic jboss persistenceunit demo war primari org jboss msc servic startexcept start servic jboss persistenceunit demo war primari javax persist persistenceexcept persist persistenceunit persist unit primari build hibern sessionfactori session factori caus javax persist persistenceexcept persist persistenceunit persist unit primari build hibern sessionfactori session factori caus org hibern servic spi serviceexcept servic creat request servic org hibern engin spi cacheimplementor cach implementor caus org hibern cach cacheexcept cach infinispan custom cach command factori instal possibl classload infinispan live couldn't find hibern infinispan cach provid wflyctl0412 requir servic instal jboss persistenceunit demo war primari wflyctl0180 servic miss unavail depend undefin", "fixed_files": ["org.wildfly.swarm.infinispan.runtime.InfinispanCustomizer"], "key": "SWARM-757", "original_text": "javax.persistence.PersistenceException: [PersistenceUnit: primary] Unable to build Hibernate SessionFactory when using Infinispan as 2nd level cache for hibernate I am trying to enable Infinispan as a 2nd level cache for hibernate. As soon as I enable it, I get the following startup exception:\n\n\n\n\n\n\n016-10-06 13:48:58,182 ERROR [org.jboss.msc.service.fail] (ServerService Thread Pool -- 7) MSC000001: Failed to start service jboss.persistenceunit.\"demo.war#primary\": org.jboss.msc.service.StartException in service jboss.persistenceunit.\"demo.war#primary\": javax.persistence.PersistenceException: [PersistenceUnit: primary] Unable to build Hibernate SessionFactory\n\n\n\n\n\tat org.jboss.as.jpa.service.PersistenceUnitServiceImpl$1$1.run(PersistenceUnitServiceImpl.java:179)\n\n\n\n\n\tat org.jboss.as.jpa.service.PersistenceUnitServiceImpl$1$1.run(PersistenceUnitServiceImpl.java:121)\n\n\n\n\n\tat org.wildfly.security.manager.WildFlySecurityManager.doChecked(WildFlySecurityManager.java:667)\n\n\n\n\n\tat org.jboss.as.jpa.service.PersistenceUnitServiceImpl$1.run(PersistenceUnitServiceImpl.java:193)\n\n\n\n\n\tat java.util.concurrent.ThreadPoolExecutor.runWorker(ThreadPoolExecutor.java:1142)\n\n\n\n\n\tat java.util.concurrent.ThreadPoolExecutor$Worker.run(ThreadPoolExecutor.java:617)\n\n\n\n\n\tat java.lang.Thread.run(Thread.java:745)\n\n\n\n\n\tat org.jboss.threads.JBossThread.run(JBossThread.java:320)\n\n\n\n\nCaused by: javax.persistence.PersistenceException: [PersistenceUnit: primary] Unable to build Hibernate SessionFactory\n\n\n\n\n\tat org.hibernate.jpa.boot.internal.EntityManagerFactoryBuilderImpl.persistenceException(EntityManagerFactoryBuilderImpl.java:954)\n\n\n\n\n\tat org.hibernate.jpa.boot.internal.EntityManagerFactoryBuilderImpl.build(EntityManagerFactoryBuilderImpl.java:882)\n\n\n\n\n\tat org.jboss.as.jpa.hibernate5.TwoPhaseBootstrapImpl.build(TwoPhaseBootstrapImpl.java:44)\n\n\n\n\n\tat org.jboss.as.jpa.service.PersistenceUnitServiceImpl$1$1.run(PersistenceUnitServiceImpl.java:161)\n\n\n\n\n\t... 7 more\n\n\n\n\nCaused by: org.hibernate.service.spi.ServiceException: Unable to create requested service [org.hibernate.engine.spi.CacheImplementor]\n\n\n\n\n\tat org.hibernate.service.internal.AbstractServiceRegistryImpl.createService(AbstractServiceRegistryImpl.java:264)\n\n\n\n\n\tat org.hibernate.service.internal.AbstractServiceRegistryImpl.initializeService(AbstractServiceRegistryImpl.java:228)\n\n\n\n\n\tat org.hibernate.service.internal.AbstractServiceRegistryImpl.getService(AbstractServiceRegistryImpl.java:207)\n\n\n\n\n\tat org.hibernate.internal.SessionFactoryImpl.<init>(SessionFactoryImpl.java:242)\n\n\n\n\n\tat org.hibernate.boot.internal.SessionFactoryBuilderImpl.build(SessionFactoryBuilderImpl.java:444)\n\n\n\n\n\tat org.hibernate.jpa.boot.internal.EntityManagerFactoryBuilderImpl.build(EntityManagerFactoryBuilderImpl.java:879)\n\n\n\n\n\t... 9 more\n\n\n\n\nCaused by: org.hibernate.cache.CacheException: Infinispan custom cache command factory not installed (possibly because the classloader where Infinispan lives couldn't find the Hibernate Infinispan cache provider)\n\n\n\n\n\tat org.hibernate.cache.infinispan.InfinispanRegionFactory.getCacheCommandFactory(InfinispanRegionFactory.java:716)\n\n\n\n\n\tat org.hibernate.cache.infinispan.InfinispanRegionFactory.startRegion(InfinispanRegionFactory.java:552)\n\n\n\n\n\tat org.hibernate.cache.infinispan.InfinispanRegionFactory.buildTimestampsRegion(InfinispanRegionFactory.java:332)\n\n\n\n\n\tat org.hibernate.cache.spi.UpdateTimestampsCache.<init>(UpdateTimestampsCache.java:57)\n\n\n\n\n\tat org.hibernate.internal.CacheImpl.<init>(CacheImpl.java:53)\n\n\n\n\n\tat org.hibernate.engine.spi.CacheInitiator.initiateService(CacheInitiator.java:28)\n\n\n\n\n\tat org.hibernate.engine.spi.CacheInitiator.initiateService(CacheInitiator.java:20)\n\n\n\n\n\tat org.hibernate.service.internal.SessionFactoryServiceRegistryImpl.initiateService(SessionFactoryServiceRegistryImpl.java:46)\n\n\n\n\n\tat org.hibernate.service.internal.AbstractServiceRegistryImpl.createService(AbstractServiceRegistryImpl.java:254)\n\n\n\n\n\t... 14 more\n\n\n\n\n\n\n\n\n\n2016-10-06 13:48:58,184 ERROR [org.jboss.as.controller.management-operation] (main) WFLYCTL0013: Operation (\"add\") failed - address: ((\"deployment\" => \"demo.war\")) - failure description: {\n\n\n\n\n    \"WFLYCTL0080: Failed services\" => {\"jboss.persistenceunit.\\\"demo.war#primary\\\"\" => \"org.jboss.msc.service.StartException in service jboss.persistenceunit.\\\"demo.war#primary\\\": javax.persistence.PersistenceException: [PersistenceUnit: primary] Unable to build Hibernate SessionFactory\n\n\n\n\n    Caused by: javax.persistence.PersistenceException: [PersistenceUnit: primary] Unable to build Hibernate SessionFactory\n\n\n\n\n    Caused by: org.hibernate.service.spi.ServiceException: Unable to create requested service [org.hibernate.engine.spi.CacheImplementor]\n\n\n\n\n    Caused by: org.hibernate.cache.CacheException: Infinispan custom cache command factory not installed (possibly because the classloader where Infinispan lives couldn't find the Hibernate Infinispan cache provider)\"},\n\n\n\n\n    \"WFLYCTL0412: Required services that are not installed:\" => [\"jboss.persistenceunit.\\\"demo.war#primary\\\"\"],\n\n\n\n\n    \"WFLYCTL0180: Services with missing/unavailable dependencies\" => undefined\n\n\n\n\n}\n\n\n\n\n2016-10-06 13:48:58,185 ERROR [org.jboss.as.server] (main) WFLYSRV0021: Deploy of deployment \"demo.war\" was rolled back with the following failure message: \n\n\n\n\n{\n\n\n\n\n    \"WFLYCTL0080: Failed services\" => {\"jboss.persistenceunit.\\\"demo.war#primary\\\"\" => \"org.jboss.msc.service.StartException in service jboss.persistenceunit.\\\"demo.war#primary\\\": javax.persistence.PersistenceException: [PersistenceUnit: primary] Unable to build Hibernate SessionFactory\n\n\n\n\n    Caused by: javax.persistence.PersistenceException: [PersistenceUnit: primary] Unable to build Hibernate SessionFactory\n\n\n\n\n    Caused by: org.hibernate.service.spi.ServiceException: Unable to create requested service [org.hibernate.engine.spi.CacheImplementor]\n\n\n\n\n    Caused by: org.hibernate.cache.CacheException: Infinispan custom cache command factory not installed (possibly because the classloader where Infinispan lives couldn't find the Hibernate Infinispan cache provider)\"},\n\n\n\n\n    \"WFLYCTL0412: Required services that are not installed:\" => [\"jboss.persistenceunit.\\\"demo.war#primary\\\"\"],\n\n\n\n\n    \"WFLYCTL0180: Services with missing/unavailable dependencies\" => undefined\n\n\n\n\n}\n\n\n\n\n\n", "resolution_date": "2016-10-12T14:02:24.000-05:00", "stackTraces": [], "title": "javax persist persistenceexcept persist persistenceunit persist unit primari build hibern sessionfactori session factori infinispan level cach hibern"}
{"codeSnippets": [], "creation_date": "2016-10-25T19:04:09.000-05:00", "description": "jdbc driver oracl avail wildfli wild fli swarm modul wildfli wild fli eap resourc root artifact modul xml custom modul oracl jdbc modul xml jar copi uber jar modul oracl jdbc main directori modul jboss javax modul configur resourc resourc root path oracl driver ojdbc6 jar resourc run app driver datasourc configur standalon xml error jboss connector subsystem datasourc serverservic server servic thread pool wflyjca0086 find driver name oracl jar configur modul xml artifact name com hynnet oracl driver ojdbc6 jar copi m2repo com hynnet oracl driver ojdbc6 directori uber jar driver success load look classpath m2repo oracl modul modul directori miss command line paramet defin locat custom modul jboss modulepath jboss boss eap6", "fixed_files": ["org.wildfly.swarm.bootstrap.modules.BootstrapClasspathModuleFinder", "org.wildfly.swarm.bootstrap.modules.NestedJarResourceLoader"], "key": "SWARM-793", "original_text": "Cannot add custom modules to WildFly Swarm using <resource-root> instead of <artifact> in the module.xml  JDBC drivers (DB2, Oracle, etc) not available to WildFly Swarm when added as modules (like in WildFly/EAP) using <resource-root> instead of <artifact> in the module.xml.\nCustom module \"oracle.jdbc\" (module.xml and JAR) copied into Uber-JAR's \"modules\\oracle\\jdbc\\main\" directory (there are also some default modules there - jboss, javax, etc) when module is configured like this: \n\n\n\n\n\n\n   <resources>\n\n\n\n\n      <resource-root path=\"oracle-driver-ojdbc6.jar\"/>\n\n\n\n\n   </resources>\n\n\n\n\n\n\nHowever, when running app (driver and datasource configured in the standalone.xml), I'm getting this error:\n\n\n\n\n\n\n[jboss.as.connector.subsystems.datasources] (ServerService Thread Pool -- 21) WFLYJCA0086: Unable to find driver class name in \"oracle\" jar\n\n\n\n\n\n\nHowever, when it is configured in module.xml as:\n\n\n\n\n\n\n      <artifact name=\"com.hynnet:oracle-driver-ojdbc6:12.1.0.1\"/>\n\n\n\n\n\n\nJAR is copied to \"m2repo\\com\\hynnet\\oracle-driver-ojdbc6\\12.1.0.1\" directory of Uber-JAR and driver was successfully loaded.\nLooks like WFS adding to classpath only what is in \"m2repo\", but not the \"oracle\" module in \"modules\" directory.\nAm I missing some command-line parameter to define location of the custom modules, like \"JBOSS_MODULEPATH\" for JBoss EAP6?", "resolution_date": "2016-12-07T23:35:16.000-06:00", "stackTraces": [], "title": "add custom modul wildfli wild fli swarm resourc root artifact modul xml"}
