{"key":"SWARM-710","title":"ContextNotActiveException - No active contexts for scope type javax.inject.Singleton on shutdown","description":"There is following exception when doing application shutdown (ctrl+c):\n\n\n\n\n\n\n2016-09-22 08:30:31,084 ERROR [stderr] (Thread-4) org.jboss.weld.context.ContextNotActiveException: WELD-001303: No active contexts for scope type javax.inject.Singleton\n\n\n\n\n2016-09-22 08:30:31,085 ERROR [stderr] (Thread-4) \tat org.jboss.weld.manager.BeanManagerImpl.getContext(BeanManagerImpl.java:639)\n\n\n\n\n2016-09-22 08:30:31,085 ERROR [stderr] (Thread-4) \tat org.jboss.weld.bean.ContextualInstanceStrategy$DefaultContextualInstanceStrategy.get(ContextualInstanceStrategy.java:94)\n\n\n\n\n2016-09-22 08:30:31,085 ERROR [stderr] (Thread-4) \tat org.jboss.weld.bean.ContextualInstanceStrategy$ApplicationScopedContextualInstanceStrategy.get(ContextualInstanceStrategy.java:140)\n\n\n\n\n2016-09-22 08:30:31,085 ERROR [stderr] (Thread-4) \tat org.jboss.weld.bean.ContextualInstance.get(ContextualInstance.java:50)\n\n\n\n\n2016-09-22 08:30:31,085 ERROR [stderr] (Thread-4) \tat org.jboss.weld.manager.BeanManagerImpl.getReference(BeanManagerImpl.java:692)\n\n\n\n\n2016-09-22 08:30:31,086 ERROR [stderr] (Thread-4) \tat org.jboss.weld.bean.builtin.InstanceImpl.getBeanInstance(InstanceImpl.java:178)\n\n\n\n\n2016-09-22 08:30:31,086 ERROR [stderr] (Thread-4) \tat org.jboss.weld.bean.builtin.InstanceImpl.get(InstanceImpl.java:98)\n\n\n\n\n2016-09-22 08:30:31,086 ERROR [stderr] (Thread-4) \tat org.wildfly.swarm.container.runtime.RuntimeServer.stop(RuntimeServer.java:200)\n\n\n\n\n2016-09-22 08:30:31,086 ERROR [stderr] (Thread-4) \tat org.wildfly.swarm.container.runtime.RuntimeServer.lambda$new$26(RuntimeServer.java:111)\n\n\n\n\n2016-09-22 08:30:31,086 ERROR [stderr] (Thread-4) \tat java.lang.Thread.run(Thread.java:745)\n\n\n\n\n\n","creation_date":"2016-09-22T07:06:44.000-05:00","resolution_date":"2016-09-23T18:08:40.000-05:00","fixed_files":["org.wildfly.swarm.container.runtime.RuntimeServer","org.wildfly.swarm.container.runtime.RuntimeDeployer"]}
{"key":"SWARM-757","title":"javax.persistence.PersistenceException: [PersistenceUnit: primary] Unable to build Hibernate SessionFactory when using Infinispan as 2nd level cache for hibernate","description":"I am trying to enable Infinispan as a 2nd level cache for hibernate. As soon as I enable it, I get the following startup exception:\n\n\n\n\n\n\n016-10-06 13:48:58,182 ERROR [org.jboss.msc.service.fail] (ServerService Thread Pool -- 7) MSC000001: Failed to start service jboss.persistenceunit.\"demo.war#primary\": org.jboss.msc.service.StartException in service jboss.persistenceunit.\"demo.war#primary\": javax.persistence.PersistenceException: [PersistenceUnit: primary] Unable to build Hibernate SessionFactory\n\n\n\n\n\tat org.jboss.as.jpa.service.PersistenceUnitServiceImpl$1$1.run(PersistenceUnitServiceImpl.java:179)\n\n\n\n\n\tat org.jboss.as.jpa.service.PersistenceUnitServiceImpl$1$1.run(PersistenceUnitServiceImpl.java:121)\n\n\n\n\n\tat org.wildfly.security.manager.WildFlySecurityManager.doChecked(WildFlySecurityManager.java:667)\n\n\n\n\n\tat org.jboss.as.jpa.service.PersistenceUnitServiceImpl$1.run(PersistenceUnitServiceImpl.java:193)\n\n\n\n\n\tat java.util.concurrent.ThreadPoolExecutor.runWorker(ThreadPoolExecutor.java:1142)\n\n\n\n\n\tat java.util.concurrent.ThreadPoolExecutor$Worker.run(ThreadPoolExecutor.java:617)\n\n\n\n\n\tat java.lang.Thread.run(Thread.java:745)\n\n\n\n\n\tat org.jboss.threads.JBossThread.run(JBossThread.java:320)\n\n\n\n\nCaused by: javax.persistence.PersistenceException: [PersistenceUnit: primary] Unable to build Hibernate SessionFactory\n\n\n\n\n\tat org.hibernate.jpa.boot.internal.EntityManagerFactoryBuilderImpl.persistenceException(EntityManagerFactoryBuilderImpl.java:954)\n\n\n\n\n\tat org.hibernate.jpa.boot.internal.EntityManagerFactoryBuilderImpl.build(EntityManagerFactoryBuilderImpl.java:882)\n\n\n\n\n\tat org.jboss.as.jpa.hibernate5.TwoPhaseBootstrapImpl.build(TwoPhaseBootstrapImpl.java:44)\n\n\n\n\n\tat org.jboss.as.jpa.service.PersistenceUnitServiceImpl$1$1.run(PersistenceUnitServiceImpl.java:161)\n\n\n\n\n\t... 7 more\n\n\n\n\nCaused by: org.hibernate.service.spi.ServiceException: Unable to create requested service [org.hibernate.engine.spi.CacheImplementor]\n\n\n\n\n\tat org.hibernate.service.internal.AbstractServiceRegistryImpl.createService(AbstractServiceRegistryImpl.java:264)\n\n\n\n\n\tat org.hibernate.service.internal.AbstractServiceRegistryImpl.initializeService(AbstractServiceRegistryImpl.java:228)\n\n\n\n\n\tat org.hibernate.service.internal.AbstractServiceRegistryImpl.getService(AbstractServiceRegistryImpl.java:207)\n\n\n\n\n\tat org.hibernate.internal.SessionFactoryImpl.\u003cinit\u003e(SessionFactoryImpl.java:242)\n\n\n\n\n\tat org.hibernate.boot.internal.SessionFactoryBuilderImpl.build(SessionFactoryBuilderImpl.java:444)\n\n\n\n\n\tat org.hibernate.jpa.boot.internal.EntityManagerFactoryBuilderImpl.build(EntityManagerFactoryBuilderImpl.java:879)\n\n\n\n\n\t... 9 more\n\n\n\n\nCaused by: org.hibernate.cache.CacheException: Infinispan custom cache command factory not installed (possibly because the classloader where Infinispan lives couldn\u0027t find the Hibernate Infinispan cache provider)\n\n\n\n\n\tat org.hibernate.cache.infinispan.InfinispanRegionFactory.getCacheCommandFactory(InfinispanRegionFactory.java:716)\n\n\n\n\n\tat org.hibernate.cache.infinispan.InfinispanRegionFactory.startRegion(InfinispanRegionFactory.java:552)\n\n\n\n\n\tat org.hibernate.cache.infinispan.InfinispanRegionFactory.buildTimestampsRegion(InfinispanRegionFactory.java:332)\n\n\n\n\n\tat org.hibernate.cache.spi.UpdateTimestampsCache.\u003cinit\u003e(UpdateTimestampsCache.java:57)\n\n\n\n\n\tat org.hibernate.internal.CacheImpl.\u003cinit\u003e(CacheImpl.java:53)\n\n\n\n\n\tat org.hibernate.engine.spi.CacheInitiator.initiateService(CacheInitiator.java:28)\n\n\n\n\n\tat org.hibernate.engine.spi.CacheInitiator.initiateService(CacheInitiator.java:20)\n\n\n\n\n\tat org.hibernate.service.internal.SessionFactoryServiceRegistryImpl.initiateService(SessionFactoryServiceRegistryImpl.java:46)\n\n\n\n\n\tat org.hibernate.service.internal.AbstractServiceRegistryImpl.createService(AbstractServiceRegistryImpl.java:254)\n\n\n\n\n\t... 14 more\n\n\n\n\n\n\n\n\n\n2016-10-06 13:48:58,184 ERROR [org.jboss.as.controller.management-operation] (main) WFLYCTL0013: Operation (\"add\") failed - address: ((\"deployment\" \u003d\u003e \"demo.war\")) - failure description: {\n\n\n\n\n    \"WFLYCTL0080: Failed services\" \u003d\u003e {\"jboss.persistenceunit.\\\"demo.war#primary\\\"\" \u003d\u003e \"org.jboss.msc.service.StartException in service jboss.persistenceunit.\\\"demo.war#primary\\\": javax.persistence.PersistenceException: [PersistenceUnit: primary] Unable to build Hibernate SessionFactory\n\n\n\n\n    Caused by: javax.persistence.PersistenceException: [PersistenceUnit: primary] Unable to build Hibernate SessionFactory\n\n\n\n\n    Caused by: org.hibernate.service.spi.ServiceException: Unable to create requested service [org.hibernate.engine.spi.CacheImplementor]\n\n\n\n\n    Caused by: org.hibernate.cache.CacheException: Infinispan custom cache command factory not installed (possibly because the classloader where Infinispan lives couldn\u0027t find the Hibernate Infinispan cache provider)\"},\n\n\n\n\n    \"WFLYCTL0412: Required services that are not installed:\" \u003d\u003e [\"jboss.persistenceunit.\\\"demo.war#primary\\\"\"],\n\n\n\n\n    \"WFLYCTL0180: Services with missing/unavailable dependencies\" \u003d\u003e undefined\n\n\n\n\n}\n\n\n\n\n2016-10-06 13:48:58,185 ERROR [org.jboss.as.server] (main) WFLYSRV0021: Deploy of deployment \"demo.war\" was rolled back with the following failure message: \n\n\n\n\n{\n\n\n\n\n    \"WFLYCTL0080: Failed services\" \u003d\u003e {\"jboss.persistenceunit.\\\"demo.war#primary\\\"\" \u003d\u003e \"org.jboss.msc.service.StartException in service jboss.persistenceunit.\\\"demo.war#primary\\\": javax.persistence.PersistenceException: [PersistenceUnit: primary] Unable to build Hibernate SessionFactory\n\n\n\n\n    Caused by: javax.persistence.PersistenceException: [PersistenceUnit: primary] Unable to build Hibernate SessionFactory\n\n\n\n\n    Caused by: org.hibernate.service.spi.ServiceException: Unable to create requested service [org.hibernate.engine.spi.CacheImplementor]\n\n\n\n\n    Caused by: org.hibernate.cache.CacheException: Infinispan custom cache command factory not installed (possibly because the classloader where Infinispan lives couldn\u0027t find the Hibernate Infinispan cache provider)\"},\n\n\n\n\n    \"WFLYCTL0412: Required services that are not installed:\" \u003d\u003e [\"jboss.persistenceunit.\\\"demo.war#primary\\\"\"],\n\n\n\n\n    \"WFLYCTL0180: Services with missing/unavailable dependencies\" \u003d\u003e undefined\n\n\n\n\n}\n\n\n\n\n\n","creation_date":"2016-10-06T11:58:09.000-05:00","resolution_date":"2016-10-12T14:02:24.000-05:00","fixed_files":["org.wildfly.swarm.infinispan.runtime.InfinispanCustomizer"]}
{"key":"SWARM-793","title":"Cannot add custom modules to WildFly Swarm using \u003cresource-root\u003e instead of \u003cartifact\u003e in the module.xml ","description":"JDBC drivers (DB2, Oracle, etc) not available to WildFly Swarm when added as modules (like in WildFly/EAP) using \u003cresource-root\u003e instead of \u003cartifact\u003e in the module.xml.\nCustom module \"oracle.jdbc\" (module.xml and JAR) copied into Uber-JAR\u0027s \"modules\\oracle\\jdbc\\main\" directory (there are also some default modules there - jboss, javax, etc) when module is configured like this: \n\n\n\n\n\n\n   \u003cresources\u003e\n\n\n\n\n      \u003cresource-root path\u003d\"oracle-driver-ojdbc6.jar\"/\u003e\n\n\n\n\n   \u003c/resources\u003e\n\n\n\n\n\n\nHowever, when running app (driver and datasource configured in the standalone.xml), I\u0027m getting this error:\n\n\n\n\n\n\n[jboss.as.connector.subsystems.datasources] (ServerService Thread Pool -- 21) WFLYJCA0086: Unable to find driver class name in \"oracle\" jar\n\n\n\n\n\n\nHowever, when it is configured in module.xml as:\n\n\n\n\n\n\n      \u003cartifact name\u003d\"com.hynnet:oracle-driver-ojdbc6:12.1.0.1\"/\u003e\n\n\n\n\n\n\nJAR is copied to \"m2repo\\com\\hynnet\\oracle-driver-ojdbc6\\12.1.0.1\" directory of Uber-JAR and driver was successfully loaded.\nLooks like WFS adding to classpath only what is in \"m2repo\", but not the \"oracle\" module in \"modules\" directory.\nAm I missing some command-line parameter to define location of the custom modules, like \"JBOSS_MODULEPATH\" for JBoss EAP6?","creation_date":"2016-10-25T19:04:09.000-05:00","resolution_date":"2016-12-07T23:35:16.000-06:00","fixed_files":["org.wildfly.swarm.bootstrap.modules.BootstrapClasspathModuleFinder","org.wildfly.swarm.bootstrap.modules.NestedJarResourceLoader"]}
