{"key":"IO-206","title":"ProxyInputStream: misleading parameter names","description":"ProxyInputStream has a the following method signatures:\n\npublic int read(byte[] bts, int st, int end)\npublic void mark(int idx)\n\nBut they should be:\n\npublic int read(byte[] bts, int off, int length)\npublic void mark(int readlimit)\n\nEspecially the \"end\" parameter could be misinterpreted.","creation_date":"2009-05-18T16:46:18.000-05:00","resolution_date":"2009-05-18T19:40:35.000-05:00","fixed_files":["org.apache.commons.io.input.ProxyInputStream"]}
{"key":"IO-257","title":"BOMInputStream.read(byte[]) can return 0 which it should not","description":"BOMInputStream.read(byte[]) returns 0 when it should return -1.\nThis is not a valid action (unless buf.length \u003d\u003d 0) and can cause problems, e.g. \"java.io.IOException: Underlying input stream returned zero bytes - at sun.nio.cs.StreamDecoder.readBytes(StreamDecoder.java:268)\"\nFrom java.io.InputStream.read(byte[]) JavaDocs: \"If the length of b is zero, then no bytes are read and 0 is returned; otherwise, there is an attempt to read at least one byte. If no byte is available because the stream is at the end of the file, the value -1 is returned; otherwise, at least one byte is read and stored into b.\"\nSuggested fix, change line 287 of BOMInputStream.java from\n        return (secondCount \u003c 0) ? firstCount : firstCount + secondCount;\ninto\n        return (secondCount \u003c 0) ? (firstCount \u003e 0 ? firstCount : -1) : firstCount + secondCount;","creation_date":"2010-12-22T03:13:21.000-06:00","resolution_date":"2010-12-22T23:06:21.000-06:00","fixed_files":["org.apache.commons.io.input.BOMInputStream","org.apache.commons.io.input.BOMInputStreamTest"]}
{"key":"IO-258","title":"XmlStreamReader consumes the stream during encoding detection","description":"XmlStreamReader reads the underlying InputStream to try and detect the encoding. However once that process is done the bytes read from the stream should still be available to be read - this was accidentally broken in r1004882 by creating the underlying reader with the original InputStream, rather than the wrapped streams used to detect encoding.","creation_date":"2010-12-23T02:57:53.000-06:00","resolution_date":"2010-12-23T03:18:42.000-06:00","fixed_files":["org.apache.commons.io.input.XmlStreamReaderTest","org.apache.commons.io.input.XmlStreamReader"]}
{"key":"IO-264","title":"FileUtils.moveFile() JavaDoc should specify FileExistsException thrown","description":"FileUtils.moveFile() JavaDoc does specify the behaviour of the method in a case when the destFile exists. It would be helpful to know from the JavaDoc that in such case an exception is thrown as it\u0027s not immediately obvious.","creation_date":"2011-03-10T13:09:56.000-06:00","resolution_date":"2011-03-12T00:48:48.000-06:00","fixed_files":["org.apache.commons.io.FileUtils"]}
