{"key":"OPENJPA-1896","title":"OpenJPA cannot store POJOs if a corresponding record already exists","description":"If a POJO is created using a java constructor, merge() cannot store the newly constructed object\u0027s data if this means updating a pre-existing record with a matching identity.    Previous crawls may have encountered the same files, and the merge operation should cause the latest data from the POJO to be stored in the pre-existing record. Instead, any attempt to execute either merge() or persist() on an independently constructed object with a matching record identity in the database triggers the same error in the database layer, since OpenJPA attempts to execute an insert for a pre-existing primary key, throwing...\norg.apache.openjpa.lib.jdbc.ReportingSQLException: ERROR: duplicate key value violates unique constraint \"file_pkey\" {prepstmnt 32879825 INSERT INTO file (locationString, location, version, folder) VALUES (?              merge()  merge()  persist()  merge()"}
{"key":"OPENJPA-1627","title":"ORderBy with @ElementJoinColumn and EmbeddedId uses wrong columns in SQL","description":"The problem is that the order by in the generated SQL is for columns mapped in the transaction entity NOT the TransacionId as expected.           However the generated SQL is doing order by on columns mapped in Transaction:   (no idea why it chose mamount, mbranch)\nThe last line should be:    @OneToMany(fetch \u003d FetchType.LAZY, cascade \u003d {CascadeType.PERSIST})\n\t@ElementJoinColumn(name\u003d\"maccno\", referencedColumnName\u003d\"maccno\")\n\t@OrderBy(value \u003d \"_id._processDate ASC, _id._tranSequenceNumber ASC\")\n\tprivate LinkedList\u003cTransaction\u003e _transactions;\n\n\n\n @EmbeddedId\n\tprivate TransactionId _id;\n\t\n\t @Column(name \u003d \"mtrancde\")\n\tprivate int _transactionCode;\n\t\n\t @Column(name \u003d \"mamount\")\n\tprivate BigDecimal _amount;\n\t\n\t @Column(name \u003d \"mdesc\")\n\tprivate String _description;\n\t\n\n\n\t @Column(name \u003d \"mactdate\")\n\tprivate Date _actualDate;\n\t\n\t @Column(name \u003d \"mbranch\")\n\tprivate int _branch;\n\n\n\n @Embeddable\npublic class TransactionId  @Column(name \u003d \"maccno\")\n\tprivate String _accountNumber;\n\t\n\t @Column(name \u003d \"mprocdate\")\n\tprivate Date _processDate;\n\t\n\t @Column(name \u003d \"mtranseqno\")\n\tprivate int _tranSequenceNumber;"}
{"key":"OPENJPA-1918","title":"MetaDataRepository.preload() ignores class loader returned by PersistenceUnitInfo.getClassLoader()","description":"However, the code in MetaDataRepository.preload() only uses the context class loader and not the class loader from PersistenceUnitInfo, which leades to ClassNotFoundExpcetions like mentioned at the end of this report.                                                        PersistenceUnitInfo.getClassLoader() MetaDataRepository.preload()  PersistenceUnitInfo.getClassLoader()  PersistenceProvider.createContainerEntityManagerFactory() MetaDatRepository.preload()"}
