{"codeSnippets": [], "creation_date": "2013-02-15T09:04:59.000-06:00", "description": "invok constructor entiti reflectionentityinstanti reflect entiti instanti inform actual fail captur context type instanti constructor resolv paramet", "fixed_files": ["org.springframework.data.convert.ReflectionEntityInstantiator", "org.springframework.data.mapping.model.MappingInstantiationException", "org.springframework.data.convert.ReflectionEntityInstantiatorUnitTests"], "key": "DATACMNS-283", "original_text": "Improve exception message for failed instantiations in ReflectionEntityInstatiator In case we see an exception invoking the constructor of an entity class in ReflectionEntityInstantiator there's no information about why this has actually failed. We should capture more context such as the type to be instantiated, the constructor being used and the resolved parameters.", "resolution_date": "2013-02-15T09:43:57.000-06:00", "stackTraces": [], "title": "improv messag fail instanti reflectionentityinstati reflect entiti instati"}
{"codeSnippets": [], "creation_date": "2013-02-08T12:25:43.000-06:00", "description": "allow set ignor flag set order insensit sort support", "fixed_files": ["org.springframework.data.domain.Sort", "org.springframework.data.domain.SortUnitTests"], "key": "DATACMNS-281", "original_text": "Change Order class so that case insensitive sorts can be performed by setting an ignore case flag I would like to allow the setting of an ignore case flag to be set on the Order class so that case insensitive sorts can be supported.", "resolution_date": "2013-02-27T06:22:29.000-06:00", "stackTraces": [], "title": "chang order insensit sort perform set ignor flag"}
{"codeSnippets": [], "creation_date": "2013-03-21T15:42:28.000-05:00", "description": "block instanci assum thrown miss keyword current http github com springsourc spring sourc spring data common blob master src main java org springframework data convert reflectionentityinstanti reflect entiti instanti java simplist test demonstr http github com springsourc spring sourc spring data common pull file", "fixed_files": ["org.springframework.data.convert.ReflectionEntityInstantiator", "org.springframework.data.convert.ReflectionEntityInstantiatorUnitTests"], "key": "DATACMNS-300", "original_text": "ReflectionEntityInstantiator should actually throw created exception In the catch block a new exception is instanciated, which I assume should be thrown, but misses the throw keyword and therefore currently does nothing.\nhttps://github.com/SpringSource/spring-data-commons/blob/master/src/main/java/org/springframework/data/convert/ReflectionEntityInstantiator.java#L64\nSimplistic test that demonstrates this: https://github.com/SpringSource/spring-data-commons/pull/25/files", "resolution_date": "2013-03-25T05:49:25.000-05:00", "stackTraces": [], "title": "reflectionentityinstanti reflect entiti instanti actual creat"}
{"codeSnippets": [], "creation_date": "2013-04-05T11:37:35.000-05:00", "description": "foo bar bar bar typeinform type inform type classtypeinform type inform foo assertthat type getproperti properti bar notnullvalu valu fail typediscover type discover getproperti properti recurs resolv properti look head cach line", "fixed_files": ["org.springframework.data.util.TypeDiscoverer", "org.springframework.data.util.ClassTypeInformationUnitTests"], "key": "DATACMNS-309", "original_text": "TypeDiscoverer does not correctly resolve nested property path expressions \n\n\n\n\n\nclass Foo {\n\n\n\n\n  Bar bar;\n\n\n\n\n}\n\n\n\n\n\n\n\n\n\nclass Bar {\n\n\n\n\n  Long id;\n\n\n\n\n}\n\n\n\n\n\n\n\n\n\nTypeInformation<?> type = ClassTypeInformation.from(Foo.class);\n\n\n\n\nassertThat(type.getProperty(\"bar.id\"), is(notNullValue()));\n\n\n\n\n\n\nThe assertion fails as TypeDiscoverer.getProperty() does not recursively resolve the properties but looks up the head in the cache only (line 180).", "resolution_date": "2013-04-10T11:26:43.000-05:00", "stackTraces": [], "title": "typediscover type discover correctli resolv nest properti path express"}
{"codeSnippets": [], "creation_date": "2013-04-30T02:56:33.000-05:00", "description": "wonder pageimpl page impl gettotalpag total page instanti simpl constructor non zero element collect argument pageimpltest page impl test java org junit org springframework data domain java util org hamcrest corematch core matcher org junit pageimpltest page impl test test gettotalpagesreturnsameresultforallconstructor total page result constructor list string content array aslist list page string pagewithsimpleconstructor page simpl constructor pageimpl page impl content pageabl pageabl pagerequest page request content size page string pagewithcomplexconstructor page complex constructor pageimpl page impl content pageabl content size assertthat pagewithcomplexconstructor page complex constructor gettotalpag total page assertthat pagewithsimpleconstructor page simpl constructor gettotalpag total page", "fixed_files": ["org.springframework.data.domain.PageImpl", "org.springframework.data.domain.PageImplUnitTests"], "key": "DATACMNS-323", "original_text": "PageImpl.getTotalPages() possibly returns incorrect result when PageImpl is instantiated with simple constructor I wonder, why PageImpl.getTotalPages() returns 0, when instantiated with simple constructor, with non zero element collection as argument.\n\n\n\n\n\n\nPageImplTest.java\n\n\n\n\n\n\nimport org.junit.*;\n\n\n\n\nimport org.springframework.data.domain.*;\n\n\n\n\n\n\n\n\n\nimport java.util.*;\n\n\n\n\n\n\n\n\n\nimport static org.hamcrest.CoreMatchers.*;\n\n\n\n\nimport static org.junit.Assert.*;\n\n\n\n\n\n\n\n\n\npublic class PageImplTest {\n\n\n\n\n\n\n\n\n\n    @Test\n\n\n\n\n    public void getTotalPagesReturnSameResultForAllConstructors() {\n\n\n\n\n        List<String> content = Arrays.asList(\"a\", \"b\");\n\n\n\n\n\n\n\n\n\n        Page<String> pageWithSimpleConstructor = new PageImpl<>(content);\n\n\n\n\n\n\n\n\n\n        Pageable pageable = new PageRequest(0, content.size());\n\n\n\n\n\n\n\n\n\n        Page<String> pageWithComplexConstructor = new PageImpl<>(content, pageable, content.size());\n\n\n\n\n\n\n\n\n\n        assertThat(pageWithComplexConstructor.getTotalPages(), is(1));\n\n\n\n\n        assertThat(pageWithSimpleConstructor.getTotalPages(), is(1));\n\n\n\n\n\n\n\n\n\n    }\n\n\n\n\n}\n\n\n\n\n\n", "resolution_date": "2013-05-14T08:02:59.000-05:00", "stackTraces": [], "title": "pageimpl page impl gettotalpag total page possibl incorrect result pageimpl page impl instanti simpl constructor"}
{"codeSnippets": [], "creation_date": "2013-03-27T03:33:58.000-05:00", "description": "pageableargumentresolv pageabl argument resolv resolv page paramet pagin page page tabl updat pageableargumentresolv pageabl argument resolv chang document paramet", "fixed_files": ["org.springframework.data.web.PageableArgumentResolver"], "key": "DATACMNS-304", "original_text": "Misleading documentation of page parameter resolved by PageableArgumentResolver PageableArgumentResolver is not resolving page parameter. To use pagination, you will have to use page.page\nSo either table 1.1. needs an update or PageableArgumentResolver has to be changed to use the documented parameter\n", "resolution_date": "2013-08-13T03:41:42.000-05:00", "stackTraces": [], "title": "mislead document page paramet resolv pageableargumentresolv pageabl argument resolv"}
