{"key":"WFCORE-1027","title":"","description":"Setting up host scoped roles as follows https://gist.github.com/heiko-braun/0dc810ed04db8739defd there are inconsistent results in the filtering. When using a role which only selects the master there is no access-control response header showing the filtered resources, and the slave wrongly appears in the results:                                                              When using a role that only selects the slave we get a proper access-control header                                                                                master-monitor should behave the same as slave-maintainer. {roles\u003dmaster-monitor}\n\n\n\n\n {\n\n\n\n\n                \"directory-grouping\" \u003d\u003e \"by-server\",\n\n\n\n\n                \"domain-controller\" \u003d\u003e {\"local\" \u003d\u003e {} {\"org.jboss.as.jmx\" \u003d\u003e undefined} {\n\n\n\n\n                    \"management\" \u003d\u003e undefined,\n\n\n\n\n                    \"public\" \u003d\u003e undefined,\n\n\n\n\n                    \"unsecure\" \u003d\u003e undefined\n\n\n\n\n                } {\"default\" \u003d\u003e undefined} {\"jmx\" \u003d\u003e undefined} {roles\u003dslave-maintainer}\n\n\n\n\n {roles\u003dslave-maintainer}\n\n\n\n\n {\"org.jboss.as.jmx\" \u003d\u003e undefined} {\n\n\n\n\n                \"management\" \u003d\u003e undefined,\n\n\n\n\n                \"public\" \u003d\u003e undefined,\n\n\n\n\n                \"unsecure\" \u003d\u003e undefined\n\n\n\n\n            } {\"default\" \u003d\u003e undefined} {\"jmx\" \u003d\u003e undefined}"}
{"key":"WFCORE-1578","title":"","description":"Lets have some /socket-binding-group\u003dstandard-sockets/socket-binding with particular name. Then when I create some /socket-binding-group\u003dstandard-sockets/remote-destination-outbound-socket-binding or /socket-binding-group\u003dstandard-sockets/local-destination-outbound-socket-binding using same name as of already existing socket-binding resource, add operation is successful but when I perform server reload, it crashes as it is not able to parse configuration.  Start EAP and log to CLI create your own socket-binding resource and {remote|local}-destination-outbound-socket-binding resource with same names and perform reload      server crashes with following stacktrace in console log:                                    If there is a problem for those resources to have same names I would welcome that names are checked during the add operation already regarding to all resources in socket-binding and {remote|local}-destination-outbound-socket-binding.  {remote|local} add()\n\n\n\n\n add(host\u003dlocalhost,port\u003d8765)\n\n\n\n\n add(socket-binding-ref\u003dhttp)\n\n\n\n\n {remote|local}"}
{"key":"WFCORE-1908","title":"Tab completion suggest writing attribute which has access type metric and is not writable","description":"CLI tab completion suggests attributes that are not writable and their access-type is metric Example    On attempt to write metric attribute, for example message-count, non writable error is printed       CLI should not suggest writing attributes that are not writable. attribute(name\u003dmessage-count, value\u003d5)\n\n\n\n\n {\n\n\n\n\n    \"outcome\" \u003d\u003e \"failed\",\n\n\n\n\n    \"failure-description\" \u003d\u003e \"WFLYCTL0048: Attribute message-count is not writable\",\n\n\n\n\n    \"rolled-back\" \u003d\u003e true\n\n\n\n\n}"}
{"key":"WFCORE-815","title":"One profile can have more ancestors with same submodules","description":"One profile can have more ancestors with same submodules. It leads to WFLYCTL0212: Duplicate resource [(\"subsystem\" \u003d\u003e \"subsystem_name\")] .     get fresh EAP             No errors.                  add(name\u003dincludes, value\u003dmail-01)\n add(name\u003dincludes, value\u003dmail-02)\n\n {\n\n\n\n\n    \"outcome\" \u003d\u003e \"failed\",\n\n\n\n\n    \"failure-description\" \u003d\u003e {\"domain-failure-description\" \u003d\u003e \"WFLYCTL0401: Profile \u0027mail-01\u0027 defines subsystem \u0027mail\u0027 which is also defined in its ancestor profile \u0027mail-02\u0027. Overriding subsystems is not supported\"} add(name\u003dincludes, value\u003dmail-01)\n add(name\u003dincludes, value\u003dmail-02)"}
{"key":"WFCORE-1936","title":"","description":"fixed-port attribute of socket-binding and fixed-source-port attributes of *-destination-outbound-socket-binding define in its description that there is not necessary to do reload or restart for any of them.  If you tries to change such attributes you are informed that reload is necessary.  description(recursive\u003dtrue)"}
{"key":"WFCORE-604","title":" After failed to deploy, remain deployment information in JBOSS_HOME/{standalone|domaine}/data/content directory","description":"- After failed to deploy, remain deployment information in JBOSS_HOME/{standalone|domaine}/data/content directory     1. Fail to deploy application via jboss-cli 2. Find deployment info in JBOSS_HOME/{standalone|domaine}/data/content, but there are no standalone.xml in \u003cdeployments\u003e tag. 3. Fix deployment and success to deploy. 4. Find \"new\" deployment info in JBOSS_HOME/{standalone|domaine}/data/content, and the old deployment info will be still there.     - The deployment information which created when deploy was failed remains in JBOSS_HOME/{standalone|domaine}/data/content.  - The deployment information which created when deploy was failed should be removed if the deploy is failed. {standalone|domaine} {standalone|domaine} {standalone|domaine} {standalone|domaine} {standalone|domaine}"}
{"key":"WFCORE-1572","title":"Suggestion list for argument value is not generated if the value contains a whitespace","description":"When an argument value contains a space (eg. deploy /path/to/test-application. war --all-server-groups --headers\u003d{rollout id\u003dfoo}) and if user hits tab after the whitespace, suggestions are generated based on the command, rather than the current argument\u0027s name. {rollout id\u003dfoo}"}
{"key":"WFCORE-1570","title":"","description":"When using rollout plans for EAP deployment scenarios I can create my own named rollout-plan for ease of use. I can then apply rollout command later on, referring with name of my own rollout plan that should be used.  When I create rollout-plan, I use command like:  see --name attribute given to name my rollout plan When I then refer to it I use following command:   see id attribute given to rollout header operation Yes, this is really minor issue, but I think that these two attributes used in aforementioned commands should be unified (preferably to name instead of id) as user might be confused when using it.   group(rolling-to-servers\u003dfalse,max-failed-servers\u003d1) group(rolling-to-servers\u003dtrue,max-failure-percentage\u003d20)  {rollout id\u003dmy-rollout-plan}"}
{"key":"WFCORE-626","title":"Global list-get operation can inadvertently create list elements","description":"Consider the following sequence of operations:     #2 will return \u003cundefined\u003e as expected. The expected result of #4 is \"test\". However, it returns \u003cundefined\u003e. This is because #2 will create the missing element at index 0 causing #3 to operate on index 1. clear(name\u003dattribute)\n get(name\u003dattribute, index\u003d0)\n add(name\u003dattribute, value\u003dtest)\n get(name\u003dattribute, index\u003d0)"}
{"key":"WFCORE-1864","title":"Whitespaces are not removed from dependencies in module add command","description":"Running module add --name\u003dfoo.bar --resources\u003dfoo.jar --dependencies\u003d[org.a, org.b ] will result in following dependencies in module.xml         The module name in dependencies should be stripped of leading and trailing whitespaces. {{\n...\n    \u003cdependencies\u003e\n        \u003cmodule name\u003d\"org.a\"/\u003e\n        \u003cmodule name\u003d\" org.b \"/\u003e\n    \u003c/dependencies\u003e\n...\n}}"}
{"key":"WFCORE-1007","title":"Warnings about missing notification descriptions when an operation removes an extension","description":"When I use migration operation the console log is filled with warning messages of type   If I do the sequence of operation                    then I the log looks like                                                                                                                     I think that the migration operation should not show those warnings. migrate()\n\n\n\n\n {\n\n\n\n\n    \"outcome\" \u003d\u003e \"success\",\n\n\n\n\n    \"result\" \u003d\u003e {\"migration-warnings\" \u003d\u003e []}\n\n\n\n\n migrate()\n\n\n\n\n {\n\n\n\n\n    \"outcome\" \u003d\u003e \"success\",\n\n\n\n\n    \"result\" \u003d\u003e {\"migration-warnings\" \u003d\u003e []}\n\n\n\n\n migrate()\n\n\n\n\n {\n\n\n\n\n    \"outcome\" \u003d\u003e \"success\",\n\n\n\n\n    \"result\" \u003d\u003e {\"migration-warnings\" \u003d\u003e []}"}
