{"id":229,"bug_id":"OPENJPA-1752","text":"TestPessimisticLocks JUNIT test produced inconsistent behavior with various backends. TestPessimisticLocks JUNIT tests pass all assertions for Derby backend, but failures are seen on DB2, MySQL, Oracle.   There is also inconsistency in reporting exceptions - lock timout or query timeout should be non-fatal; but with Derby the PessimisticLockException is reported  which is considered fatal.        The failure symptoms are summarized below -   Each test contains 2 variations.            NOTE: for Oracle, many test scenarios caused process to hang (test 3.1, 3.2, and 4.2) - ie. test never run to completion\n      for MySQL, Server shutdown (test 3.1 and 3.2)\n      here is the  stack trace:                                                                                                                          testFindAfterQueryWithPessimisticLocks()\n testFindAfterQueryOrderByWithPessimisticLocks()\n testQueryAfterFindWithPessimisticLocks()\n testQueryOrderByAfterFindWithPessimisticLocks()\n\n\n testFindAfterQueryWithPessimisticLocks() \n No exception;","class_goldset":["org.apache.openjpa.persistence.lockmgr.TestPessimisticLocks"],"file_goldset":["org.apache.openjpa.persistence.lockmgr.TestPessimisticLocks"],"creation_date":"2010-07-30T04:33:45.000+0000","resolution_date":"2010-08-20T00:29:00.000+0000"}
{"id":237,"bug_id":"OPENJPA-1918","text":"MetaDataRepository.preload() ignores class loader returned by PersistenceUnitInfo.getClassLoader(). However, the code in MetaDataRepository.preload() only uses the context class loader and not the class loader from PersistenceUnitInfo, which leades to ClassNotFoundExpcetions like mentioned at the end of this report.                                                        PersistenceUnitInfo.getClassLoader() MetaDataRepository.preload()  PersistenceUnitInfo.getClassLoader()  PersistenceProvider.createContainerEntityManagerFactory() MetaDatRepository.preload()","class_goldset":["org.apache.openjpa.meta.FieldMetaData","org.apache.openjpa.meta.MetaDataRepository","org.apache.openjpa.persistence.detach.NoVersionEntity"],"file_goldset":["org.apache.openjpa.meta.FieldMetaData","org.apache.openjpa.meta.MetaDataRepository","org.apache.openjpa.persistence.detach.NoVersionEntity"],"creation_date":"2011-01-06T14:11:24.000+0000","resolution_date":"2011-01-06T22:11:38.000+0000"}
{"id":238,"bug_id":"OPENJPA-1928","text":"Resolving factory method does not allow method overriding. If a get method is annotated with @Factory then the method cannot be overridden with a method which take different parameters. The system randomly selects one of the several methods with the same name which may or may not take the type which will be provided.   Actual results:\nvalueOf(String) may or may not be selected. Expected results:\nvalueOf(String) should always be selected.   @Factory @Persistent(optional \u003d false)\n\t@Column(name \u003d \"STATUS\")\n\t@Externalizer(\"getName\")\n\t@Factory(\"valueOf\")\n\tpublic OrderStatus getStatus() {\n\t\treturn this.status;\n\t}\n\n public class OrderStatus {\n   public static OrderStatus valueOf(final int ordinal) {\n        return valueOf(ordinal, OrderStatus.class);\n    }\n    \n    public static OrderStatus valueOf(final String name) {\n        return valueOf(name, OrderStatus.class);\n    }\n}\n\n valueOf(String)  valueOf(String)","class_goldset":["org.apache.openjpa.meta.FieldMetaData"],"file_goldset":["org.apache.openjpa.meta.FieldMetaData"],"creation_date":"2011-01-20T23:43:52.000+0000","resolution_date":"2011-03-22T18:24:25.000+0000"}
{"id":239,"bug_id":"OPENJPA-1975","text":"Only obtain default schema name when needed (DB2). Currently the DB2 issues SQL to obtain the default schema name in DB2Dictionary.connectedConfiguration(). The value is only used by the SchemaTool, and the extra SQL has an impact in some environments. The SQL can be delayed until the default schema name is needed, reducing some load on the DB. DB2Dictionary.connectedConfiguration()","class_goldset":["org.apache.openjpa.jdbc.sql.DB2Dictionary","org.apache.openjpa.jdbc.sql.DBDictionary"],"file_goldset":["org.apache.openjpa.jdbc.sql.DB2Dictionary","org.apache.openjpa.jdbc.sql.DBDictionary"],"creation_date":"2011-04-07T20:57:51.000+0000","resolution_date":"2011-04-11T17:52:05.000+0000"}
