{"key":"WFCORE-1158","title":"Expose the file system space availability","description":"Implements a service to expose the file system space availability, run-time metric for known server locations(data, tmp, logs).","creation_date":"2015-11-24T06:09:23.000-06:00","resolution_date":"2015-11-24T08:50:48.000-06:00","fixed_files":["org.jboss.as.logging.LoggingExtension","org.jboss.as.logging.PeriodicSizeRotatingHandlerResourceDefinition","org.wildfly.core.test.standalone.mgmt.BasicOperationsUnitTestCase","org.jboss.as.logging.AbstractFileHandlerDefinition","org.jboss.as.controller.services.path.PathResourceDefinition","org.jboss.as.server.deployment.DeploymentAddHandlerTestCase","org.jboss.as.server.deployment.scanner.DeploymentScannerDefinition","org.jboss.as.logging.FileHandlerResourceDefinition","org.jboss.as.logging.PeriodicHandlerResourceDefinition","org.jboss.as.server.ServerEnvironmentResourceDescription","org.jboss.as.host.controller.descriptions.HostEnvironmentResourceDefinition","org.jboss.as.logging.SizeRotatingHandlerResourceDefinition"]}
{"key":"WFCORE-1229","title":"Reloading the embed host controller logs ERROR messages","description":"Embed host controller sometime logs ERROR message while booting up after the reload (\u0027reload --host\u003dmaster --admin-only\u003dtrue\u0027).\n\n\n\n\n\n\nERROR [org.jboss.as.controller.management-operation] (main) WFLYCTL0013: Operation (\"read-attribute\") failed - address: ([(\"host\" \u003d\u003e \"master\")]) - failure description: \"WFLYCTL0030: No resource definition is registered for address [(\\\"host\\\" \u003d\u003e \\\"master\\\")]\"\n\n\n\n\n\n\nMy initial thought on this was that issue is reproducible only on virtualized systems as I saw the error only a few times on my local machine, but I tried some bare-metal servers in MWQE lab and the error poped-up quite often there.\nReproducer job (#6 and #7 ran with 7.0.0.ER2 bits) :\n - https://jenkins.mw.lab.eng.bos.redhat.com/hudson/job/eap-7x-cli-embed-host-reload/\nIn extreme cases, error can appear after every other reload operation (46 out of 99)\n - https://jenkins.mw.lab.eng.bos.redhat.com/hudson/job/eap-7x-cli-embed-host-reload/7/jdk\u003djava1.8,label_exp\u003deap-sustaining\u0026\u0026EAP-RHEL7/console","creation_date":"2015-12-15T22:24:13.000-06:00","resolution_date":"2016-01-29T22:35:27.000-06:00","fixed_files":["org.jboss.as.domain.controller.operations.coordination.PrepareStepHandler"]}
{"key":"WFCORE-1159","title":"Add a runtime operation which shows filesystem usage and availability for known server locations","description":"For management purposes it would be very useful to report runtime metrics for filesystem usage and availability for known server locations (data, tmp, logs, etc).","creation_date":"2015-11-24T07:43:05.000-06:00","resolution_date":"2016-07-25T22:58:38.000-05:00","fixed_files":["org.jboss.as.logging.LoggingExtension","org.jboss.as.logging.PeriodicSizeRotatingHandlerResourceDefinition","org.wildfly.core.test.standalone.mgmt.BasicOperationsUnitTestCase","org.jboss.as.logging.AbstractFileHandlerDefinition","org.jboss.as.controller.services.path.PathResourceDefinition","org.jboss.as.server.deployment.DeploymentAddHandlerTestCase","org.jboss.as.server.deployment.scanner.DeploymentScannerDefinition","org.jboss.as.logging.FileHandlerResourceDefinition","org.jboss.as.logging.PeriodicHandlerResourceDefinition","org.jboss.as.server.ServerEnvironmentResourceDescription","org.jboss.as.host.controller.descriptions.HostEnvironmentResourceDefinition","org.jboss.as.logging.SizeRotatingHandlerResourceDefinition"]}
