{"id":1,"bug_id":"1671","text":"extra \u003csearchpath\u003e added every time project is saved. Theoretically, the two . zargo files should be identically since there\nwere made no changes.","class_goldset":["org.argouml.kernel.Project","org.argouml.kernel.TestProject"],"file_goldset":["org.argouml.kernel.Project","org.argouml.kernel.TestProject"],"creation_date":"2003-02-26 02:12:06","resolution_date":"2006-06-24 05:54:34"}
{"id":5,"bug_id":"2225","text":"Allow the user to create diagrams without selecting a classifier/operation. This issue requests the following enhancement:\nAllow the user to create diagrams without selecting a classifier/operation\nfirst The UML standard says that a Collaboration diagram needs (can not \nexist\nwithout) at least a \"Classifier\" or \"Operation\" - if I interpret the\nstandard well. But a user should be able to start ArgoUML and draw some Collaboration\ndiagrams, without first defining e.g. a class.      Hence the following proposal: 1 Do not downlight the collaboration \u0026 statechart diagram creation functions any more - never. 2 Create a critic to warn for a missing classifier/operation/modelelement for these diagrams. 3 Allow the user to change the namespace \u0026 represented xxx of a collaboration \u0026 statemachine.","class_goldset":["org.argouml.ui.explorer.PerspectiveManager","org.argouml.ui.explorer.rules.GoCollaborationToDiagram","org.argouml.ui.explorer.rules.GoModelElementToContainedDiagrams","org.argouml.ui.explorer.rules.GoModelElementToContainedLostElements","org.argouml.ui.explorer.rules.GoModelElementToContents","org.argouml.ui.explorer.rules.GoNamespaceToOwnedElements","org.argouml.uml.diagram.DiagramFactory","org.argouml.uml.diagram.activity.ui.UMLActivityDiagram","org.argouml.uml.diagram.sequence.SequenceDiagramGraphModel","org.argouml.uml.diagram.state.ui.UMLStateDiagram","org.argouml.uml.ui.ActionActivityDiagram","org.argouml.uml.ui.ActionCollaborationDiagram","org.argouml.uml.ui.ActionNewDiagram","org.argouml.uml.ui.ActionSequenceDiagram","org.argouml.uml.ui.ActionStateDiagram","org.argouml.uml.ui.behavior.collaborations.ActionSetRepresentedClassifierCollaboration","org.argouml.uml.ui.behavior.collaborations.ActionSetRepresentedOperationCollaboration","org.argouml.uml.ui.behavior.collaborations.PropPanelCollaboration","org.argouml.uml.ui.behavior.collaborations.TestUMLCollaborationRepresentedClassifierComboBoxModel","org.argouml.uml.ui.behavior.collaborations.TestUMLCollaborationRepresentedOperationComboBoxModel","org.argouml.uml.ui.behavior.collaborations.UMLCollaborationRepresentedClassifierComboBoxModel","org.argouml.uml.ui.behavior.collaborations.UMLCollaborationRepresentedOperationComboBoxModel"],"file_goldset":["org.argouml.ui.explorer.PerspectiveManager","org.argouml.ui.explorer.rules.GoCollaborationToDiagram","org.argouml.ui.explorer.rules.GoModelElementToContainedDiagrams","org.argouml.ui.explorer.rules.GoModelElementToContainedLostElements","org.argouml.ui.explorer.rules.GoModelElementToContents","org.argouml.ui.explorer.rules.GoNamespaceToOwnedElements","org.argouml.uml.diagram.DiagramFactory","org.argouml.uml.diagram.activity.ui.UMLActivityDiagram","org.argouml.uml.diagram.sequence.SequenceDiagramGraphModel","org.argouml.uml.diagram.state.ui.UMLStateDiagram","org.argouml.uml.ui.ActionActivityDiagram","org.argouml.uml.ui.ActionCollaborationDiagram","org.argouml.uml.ui.ActionNewDiagram","org.argouml.uml.ui.ActionSequenceDiagram","org.argouml.uml.ui.ActionStateDiagram","org.argouml.uml.ui.behavior.collaborations.ActionSetRepresentedClassifierCollaboration","org.argouml.uml.ui.behavior.collaborations.ActionSetRepresentedOperationCollaboration","org.argouml.uml.ui.behavior.collaborations.PropPanelCollaboration","org.argouml.uml.ui.behavior.collaborations.TestUMLCollaborationRepresentedClassifierComboBoxModel","org.argouml.uml.ui.behavior.collaborations.TestUMLCollaborationRepresentedOperationComboBoxModel","org.argouml.uml.ui.behavior.collaborations.UMLCollaborationRepresentedClassifierComboBoxModel","org.argouml.uml.ui.behavior.collaborations.UMLCollaborationRepresentedOperationComboBoxModel"],"creation_date":"2003-09-10 09:24:09","resolution_date":"2006-04-12 14:26:05"}
{"id":6,"bug_id":"2460","text":"[Java] Missing label on radiobuttons in Import Sources -\u003e Java. It should read: \"Arrays modelled as\", and the buttons: \"Datatypes\" \nand \"Multiplicity 1.","class_goldset":["org.argouml.uml.reveng.FileImportSupport"],"file_goldset":["org.argouml.uml.reveng.FileImportSupport"],"creation_date":"2004-01-03 01:11:55","resolution_date":"2006-06-04 12:22:04"}
{"id":8,"bug_id":"2618","text":"Editing association rolename adds +, ++, +++. To fix, the parsing of the in-diagram user-entered text must process and strip off any visibility characters (+, -, #).","class_goldset":["org.argouml.uml.diagram.ui.FigAssociation","org.argouml.uml.notation.AssociationRoleNotation","org.argouml.uml.notation.uml.AssociationRoleNotationUml","org.argouml.uml.notation.uml.InitNotationUml","org.argouml.uml.notation.uml.NotationUtilityUml"],"file_goldset":["org.argouml.uml.diagram.ui.FigAssociation","org.argouml.uml.notation.AssociationRoleNotation","org.argouml.uml.notation.uml.AssociationRoleNotationUml","org.argouml.uml.notation.uml.InitNotationUml","org.argouml.uml.notation.uml.NotationUtilityUml"],"creation_date":"2004-05-21 11:07:40","resolution_date":"2006-05-06 06:20:23"}
{"id":9,"bug_id":"3100","text":"new package or class shown with funny name in explorer. Why not write the \nwhole string, there\u0027s plenty of room.","class_goldset":["org.argouml.ui.DisplayTextTree","org.argouml.uml.ui.UMLListCellRenderer2"],"file_goldset":["org.argouml.ui.DisplayTextTree","org.argouml.uml.ui.UMLListCellRenderer2"],"creation_date":"2005-02-22 00:28:44","resolution_date":"2006-03-23 07:25:40"}
{"id":12,"bug_id":"3631","text":"Perspectives settings should be included in settings menu. It should be\nincluded in the general Settings dialog at a minimum.","class_goldset":["org.argouml.ui.cmd.GenericArgoMenuBar"],"file_goldset":["org.argouml.ui.cmd.GenericArgoMenuBar"],"creation_date":"2005-11-02 00:40:56","resolution_date":"2006-05-24 11:52:44"}
{"id":15,"bug_id":"3774","text":"Do not set namespace of Model when adding to diagram. ","class_goldset":["org.argouml.uml.diagram.static_structure.ClassDiagramGraphModel"],"file_goldset":["org.argouml.uml.diagram.static_structure.ClassDiagramGraphModel"],"creation_date":"2005-12-03 06:33:15","resolution_date":"2006-02-24 07:30:35"}
{"id":25,"bug_id":"4031","text":"TagDefinition of type Enumeration problem - AndroMDA profile. The type of the TagDefinition should be HibernateGeneratorClass but instead it shows up as what looks like an internal xmi.id and is greyed out.","class_goldset":["org.argouml.model.AbstractExtensionMechanismsHelperDecorator","org.argouml.model.mdr.DataTypesHelperMDRImpl","org.argouml.model.mdr.ExtensionMechanismsHelperMDRImpl","org.argouml.model.mdr.FacadeMDRImpl","org.argouml.uml.reveng.java.Modeller","org.argouml.uml.ui.foundation.extension_mechanisms.PropPanelTagDefinition","org.argouml.uml.ui.foundation.extension_mechanisms.PropPanelTaggedValue","org.argouml.uml.ui.foundation.extension_mechanisms.PropPanelTaggedValue.ActionSetTaggedValueModelElement","org.argouml.uml.ui.foundation.extension_mechanisms.PropPanelTaggedValue.ActionSetTaggedValueType","org.argouml.uml.ui.foundation.extension_mechanisms.PropPanelTaggedValue.UMLDataValueListModel","org.argouml.uml.ui.foundation.extension_mechanisms.PropPanelTaggedValue.UMLReferenceValueListModel","org.argouml.uml.ui.foundation.extension_mechanisms.PropPanelTaggedValue.UMLTaggedValueModelElementComboBoxModel","org.argouml.uml.ui.foundation.extension_mechanisms.PropPanelTaggedValue.UMLTaggedValueTypeComboBoxModel","org.argouml.uml.ui.foundation.extension_mechanisms.UMLStereotypeTagDefinitionListModel","org.argouml.uml.ui.foundation.extension_mechanisms.UMLTagDefinitionOwnerComboBoxModel"],"file_goldset":["org.argouml.model.AbstractExtensionMechanismsHelperDecorator","org.argouml.model.mdr.DataTypesHelperMDRImpl","org.argouml.model.mdr.ExtensionMechanismsHelperMDRImpl","org.argouml.model.mdr.FacadeMDRImpl","org.argouml.uml.reveng.java.Modeller","org.argouml.uml.ui.foundation.extension_mechanisms.PropPanelTagDefinition","org.argouml.uml.ui.foundation.extension_mechanisms.PropPanelTaggedValue","org.argouml.uml.ui.foundation.extension_mechanisms.PropPanelTaggedValue.ActionSetTaggedValueModelElement","org.argouml.uml.ui.foundation.extension_mechanisms.PropPanelTaggedValue.ActionSetTaggedValueType","org.argouml.uml.ui.foundation.extension_mechanisms.PropPanelTaggedValue.UMLDataValueListModel","org.argouml.uml.ui.foundation.extension_mechanisms.PropPanelTaggedValue.UMLReferenceValueListModel","org.argouml.uml.ui.foundation.extension_mechanisms.PropPanelTaggedValue.UMLTaggedValueModelElementComboBoxModel","org.argouml.uml.ui.foundation.extension_mechanisms.PropPanelTaggedValue.UMLTaggedValueTypeComboBoxModel","org.argouml.uml.ui.foundation.extension_mechanisms.UMLStereotypeTagDefinitionListModel","org.argouml.uml.ui.foundation.extension_mechanisms.UMLTagDefinitionOwnerComboBoxModel"],"creation_date":"2006-03-03 09:18:11"}
{"id":28,"bug_id":"4049","text":"Updating the role phrase of an association on a diagram does not update the connections pane. This should happen immediately.","class_goldset":["org.argouml.uml.ui.UMLModelElementListModel2","org.argouml.uml.ui.foundation.core.UMLAssociationConnectionListModel"],"file_goldset":["org.argouml.uml.ui.UMLModelElementListModel2","org.argouml.uml.ui.foundation.core.UMLAssociationConnectionListModel"],"creation_date":"2006-03-08 11:50:37","resolution_date":"2006-03-09 09:22:55"}
{"id":34,"bug_id":"4162","text":"checklist uses \u003cattribute\u003e where it should use \u003cclass\u003e. it should read:","class_goldset":["org.argouml.ocl.CriticOclEvaluator"],"file_goldset":["org.argouml.ocl.CriticOclEvaluator"],"creation_date":"2006-04-13 09:33:06","resolution_date":"2006-04-13 10:15:53"}
{"id":37,"bug_id":"4200","text":"Activity diagrams vanish in a new Package. the package remains unchanged (i expected it should become expandable like a\ndiagram in the tree);","class_goldset":["org.argouml.ui.explorer.PerspectiveManager","org.argouml.ui.explorer.rules.GoModelElementToBehavior"],"file_goldset":["org.argouml.ui.explorer.PerspectiveManager","org.argouml.ui.explorer.rules.GoModelElementToBehavior"],"creation_date":"2006-05-11 23:30:25","resolution_date":"2006-06-19 10:23:30"}
{"id":44,"bug_id":"4281","text":"Deleting the context of a StateMachine should not delete the StateMachine. That is not necessary - the namespace that owns the StateMachine still exists.","class_goldset":["org.argouml.kernel.TestProject","org.argouml.model.mdr.CoreFactoryMDRImpl","org.argouml.uml.ui.ActionDeleteModelElements"],"file_goldset":["org.argouml.kernel.TestProject","org.argouml.model.mdr.CoreFactoryMDRImpl","org.argouml.uml.ui.ActionDeleteModelElements"],"creation_date":"2006-06-17 13:52:25","resolution_date":"2006-07-06 13:47:20"}
{"id":45,"bug_id":"4324","text":"Wrong default extension while saving. Maybe we should alreaedy save the chosen extension, or just deduce it from the file name.","class_goldset":["org.argouml.persistence.PersistenceManager","org.argouml.persistence.TestPersistenceManager","org.argouml.ui.ProjectBrowser"],"file_goldset":["org.argouml.persistence.PersistenceManager","org.argouml.persistence.TestPersistenceManager","org.argouml.ui.ProjectBrowser"],"creation_date":"2006-07-08 02:30:22","resolution_date":"2006-07-13 12:38:07"}
