{"id":66,"bug_id":"DERBY-4654","text":"Restriction.toSQL() doesn\u0027t escape special characters. Restriction.doubleQuote() should use IdUtil.normalToDelimited() to get proper quoting of the names.","class_goldset":["org.apache.derby.vti.Restriction","org.apache.derbyTesting.functionTests.tests.lang.RestrictedVTITest"],"file_goldset":["org.apache.derby.vti.Restriction","org.apache.derbyTesting.functionTests.tests.lang.RestrictedVTITest"],"creation_date":"2010-05-12T10:27:40.000+0000","resolution_date":"2010-05-14T09:01:50.000+0000"}
{"id":70,"bug_id":"DERBY-4684","text":"Correct the implicit casting of other types to BOOLEAN. Derby should support the Standard rules.","class_goldset":["org.apache.derby.iapi.types.SQLBoolean","org.apache.derby.impl.sql.compile.BooleanTypeCompiler"],"file_goldset":["org.apache.derby.iapi.types.SQLBoolean","org.apache.derby.impl.sql.compile.BooleanTypeCompiler"],"creation_date":"2010-06-01T15:46:19.000+0000","resolution_date":"2010-06-03T16:11:08.000+0000"}
{"id":73,"bug_id":"DERBY-4748","text":"StringIndexOutOfBoundsException on syntax error (invalid COMMIT). On 10.5.3, I get","class_goldset":["org.apache.derby.client.am.Statement","org.apache.derbyTesting.functionTests.tests.lang.CommentTest"],"file_goldset":["org.apache.derby.client.am.Statement","org.apache.derbyTesting.functionTests.tests.lang.CommentTest"],"creation_date":"2010-07-19T23:13:09.000+0000","resolution_date":"2010-08-10T15:20:06.000+0000"}
{"id":76,"bug_id":"DERBY-4786","text":"Shutdown command without username and password should work with mixed client and network server releases.. The new shutdown command introduced by DERBY-2109 will work obviosuly only on client and server with DERBY-2109 changes. For client/server not with DERBY-2109 changes attempting to user use name and password will get an error.","class_goldset":["org.apache.derby.impl.drda.NetworkServerControlImpl"],"file_goldset":["org.apache.derby.impl.drda.NetworkServerControlImpl"],"creation_date":"2010-08-31T18:58:13.000+0000","resolution_date":"2010-10-06T18:08:56.000+0000"}
