{"id":229,"bug_id":"OPENJPA-1752","text":"TestPessimisticLocks JUNIT test produced inconsistent behavior with various backends. There is also inconsistency in reporting exceptions - lock timout or query timeout should be non-fatal; but with Derby the PessimisticLockException is reported  which is considered fatal.","class_goldset":["org.apache.openjpa.persistence.lockmgr.TestPessimisticLocks"],"file_goldset":["org.apache.openjpa.persistence.lockmgr.TestPessimisticLocks"],"creation_date":"2010-07-30T04:33:45.000+0000","resolution_date":"2010-08-20T00:29:00.000+0000"}
{"id":237,"bug_id":"OPENJPA-1918","text":"MetaDataRepository.preload() ignores class loader returned by PersistenceUnitInfo.getClassLoader(). However, the code in MetaDataRepository.preload() only uses the context class loader and not the class loader from PersistenceUnitInfo, which leades to ClassNotFoundExpcetions like mentioned at the end of this report.","class_goldset":["org.apache.openjpa.meta.FieldMetaData","org.apache.openjpa.meta.MetaDataRepository","org.apache.openjpa.persistence.detach.NoVersionEntity"],"file_goldset":["org.apache.openjpa.meta.FieldMetaData","org.apache.openjpa.meta.MetaDataRepository","org.apache.openjpa.persistence.detach.NoVersionEntity"],"creation_date":"2011-01-06T14:11:24.000+0000","resolution_date":"2011-01-06T22:11:38.000+0000"}
{"id":238,"bug_id":"OPENJPA-1928","text":"Resolving factory method does not allow method overriding. Expected results:\nvalueOf(String) should always be selected.","class_goldset":["org.apache.openjpa.meta.FieldMetaData"],"file_goldset":["org.apache.openjpa.meta.FieldMetaData"],"creation_date":"2011-01-20T23:43:52.000+0000","resolution_date":"2011-03-22T18:24:25.000+0000"}
{"id":239,"bug_id":"OPENJPA-1975","text":"Only obtain default schema name when needed (DB2). The SQL can be delayed until the default schema name is needed, reducing some load on the DB.","class_goldset":["org.apache.openjpa.jdbc.sql.DB2Dictionary","org.apache.openjpa.jdbc.sql.DBDictionary"],"file_goldset":["org.apache.openjpa.jdbc.sql.DB2Dictionary","org.apache.openjpa.jdbc.sql.DBDictionary"],"creation_date":"2011-04-07T20:57:51.000+0000","resolution_date":"2011-04-11T17:52:05.000+0000"}
{"id":241,"bug_id":"OPENJPA-2007","text":"Setting query hint \"openjpa.FetchPlan.Isolation\" results in misleading warning. It should be adding openjpa.FetchPlan.Isolation instead.","class_goldset":["org.apache.openjpa.conf.TestQueryHints","org.apache.openjpa.persistence.jdbc.JDBCPersistenceProductDerivation"],"file_goldset":["org.apache.openjpa.conf.TestQueryHints","org.apache.openjpa.persistence.jdbc.JDBCPersistenceProductDerivation"],"creation_date":"2011-05-25T19:51:51.000+0000","resolution_date":"2011-05-26T17:58:25.000+0000"}
