{"key":"MAHOUT-1030","title":"Regression: Clustered Points Should be WeightedPropertyVectorWritable not WeightedVectorWritable","description":""}
{"key":"MAHOUT-1409","title":"MatrixVectorView has index check error","description":"There is a \u003e in the test for the correct index where there should be a \u003e\u003d"}
{"key":"MAHOUT-1317","title":"Clarify some of the messages in Preconditions.checkArgument","description":""}
