{"key":"COMPRESS-162","title":"BZip2CompressorInputStream still stops after 900,000 decompressed bytes of large compressed file","description":"Attempting to unzip the planet-110921.osm.bz2 file downloaded directly from planet.OpenStreetMaps.org aborts after exactly 900000 bytes are uncompressed. The uncompressed content looks like valid XML, and causes my application\u0027s parser to blow up with XML syntax errors due to missing closing tags. Tried using the example code to just uncompress, and got the same exact behavior.\nUncompressing the same file planet-110921.osm.bz2 (19357793489 bytes long compressed) with the Linux bzip2 command-line utility (bzip2-1.0.6-1.fc13.i686.rpm) succeeds and produces a valid (and enormous) XML file that can be successfully parsed.\nTried getting a subversion snapshot of the commons-compress trunk on 7 Nov 2011 and replacing the org.apache.commons.compress.compressors.bzip2 package in the commons-compress-1.3.jar with compiled code from the trunk (Subversion log reported that the fix for COMPRESS-146  was in). Still the same failure.","creation_date":"2011-11-08T05:13:48.000-06:00","resolution_date":"2011-11-09T15:53:21.000-06:00","fixed_files":["org.apache.commons.compress.compressors.GZipTestCase","org.apache.commons.compress.compressors.BZip2TestCase","org.apache.commons.compress.compressors.bzip2.BZip2CompressorInputStream"]}
{"key":"COMPRESS-164","title":"Cannot Read Winzip Archives With Unicode Extra Fields","description":"I have a zip file created with WinZip containing Unicode extra fields. Upon attempting to extract it with org.apache.commons.compress.archivers.zip.ZipFile, ZipFile.getInputStream() returns null for ZipArchiveEntries previously retrieved with ZipFile.getEntry() or even ZipFile.getEntries(). See UTF8ZipFilesTest.patch in the attachments for a test case exposing the bug. The original test case stopped short of trying to read the entries, that\u0027s why this wasn\u0027t flagged up before. \nThe problem lies in the fact that inside ZipFile.java entries are stored in a HashMap. However, at one point after populating the HashMap, the unicode extra fields are read, which leads to a change of the ZipArchiveEntry name, and therefore a change of its hash code. Because of this, subsequent gets on the HashMap fail to retrieve the original values.\nZipFile.patch contains an (admittedly simple-minded) fix for this problem by reconstructing the entries HashMap after the Unicode extra fields have been parsed. The purpose of this patch is mainly to show that the problem is indeed what I think, rather than providing a well-designed solution.\nThe patches have been tested against revision 1210416.","creation_date":"2011-12-05T12:30:30.000-06:00","resolution_date":"2011-12-05T15:43:21.000-06:00","fixed_files":["org.apache.commons.compress.archivers.zip.ZipFile","org.apache.commons.compress.archivers.zip.UTF8ZipFilesTest"]}
{"key":"COMPRESS-163","title":"Unable to extract a file larger than 8GB from a Posix-format tar archive","description":"An attempt to read a posix-format tar archive containing a file in excess of 8^11 bytes in size will fail with a \"Size out of range\" illegal argument exception.","creation_date":"2011-12-03T16:56:26.000-06:00","resolution_date":"2011-12-07T11:36:39.000-06:00","fixed_files":["org.apache.commons.compress.archivers.tar.TarArchiveEntryTest","org.apache.commons.compress.archivers.tar.TarArchiveInputStream","org.apache.commons.compress.archivers.tar.TarArchiveEntry"]}
{"key":"COMPRESS-169","title":"RuntimeException on corrupted file","description":"We wrote a tool to simulate file corruption before parsing them with tika. This caused a few strange problems including:\n\n\n\njava.lang.RuntimeException: failed to skip file name in local file header\n\n\tat org.apache.commons.compress.archivers.zip.ZipFile.resolveLocalFileHeaderData(ZipFile.java:817)\n\n\tat org.apache.commons.compress.archivers.zip.ZipFile.\u003cinit\u003e(ZipFile.java:207)\n\n\tat org.apache.commons.compress.archivers.zip.ZipFile.\u003cinit\u003e(ZipFile.java:181)\n\n\tat org.apache.commons.compress.archivers.zip.ZipFile.\u003cinit\u003e(ZipFile.java:142)\n\n\tat org.apache.tika.parser.pkg.ZipContainerDetector.detect(ZipContainerDetector.java:69)\n\n\tat org.apache.tika.detect.CompositeDetector.detect(CompositeDetector.java:60)\n\n\tat org.apache.tika.parser.AutoDetectParser.parse(AutoDetectParser.java:113)\n\n\tat org.apache.tika.Tika.parseToString(Tika.java:380)\n\n\tat org.apache.tika.Tika.parseToString(Tika.java:414)\n\n\tat no.finntech.tika.harderner.TikaIndexerHardenerTest.parseContent(TikaIndexerHardenerTest.java:106)\n\n\tat no.finntech.tika.harderner.TikaIndexerHardenerTest.flipBitAndIndexContent(TikaIndexerHardenerTest.java:89)\n\n\tat no.finntech.tika.harderner.TikaIndexerHardenerTest.originalFileIndexesProperly4(TikaIndexerHardenerTest.java:34)\n\n\tat sun.reflect.NativeMethodAccessorImpl.invoke0(Native Method)\n\n\tat sun.reflect.NativeMethodAccessorImpl.invoke(NativeMethodAccessorImpl.java:39)\n\n\tat sun.reflect.DelegatingMethodAccessorImpl.invoke(DelegatingMethodAccessorImpl.java:25)\n\n\tat java.lang.reflect.Method.invoke(Method.java:597)\n\n\tat org.junit.runners.model.FrameworkMethod$1.runReflectiveCall(FrameworkMethod.java:44)\n\n\tat org.junit.internal.runners.model.ReflectiveCallable.run(ReflectiveCallable.java:15)\n\n\tat org.junit.runners.model.FrameworkMethod.invokeExplosively(FrameworkMethod.java:41)\n\n\tat org.junit.internal.runners.statements.InvokeMethod.evaluate(InvokeMethod.java:20)\n\n\tat org.junit.runners.BlockJUnit4ClassRunner.runNotIgnored(BlockJUnit4ClassRunner.java:79)\n\n\tat org.junit.runners.BlockJUnit4ClassRunner.runChild(BlockJUnit4ClassRunner.java:71)\n\n\tat org.junit.runners.BlockJUnit4ClassRunner.runChild(BlockJUnit4ClassRunner.java:49)\n\n\tat org.junit.runners.ParentRunner$3.run(ParentRunner.java:193)\n\n\tat org.junit.runners.ParentRunner$1.schedule(ParentRunner.java:52)\n\n\tat org.junit.runners.ParentRunner.runChildren(ParentRunner.java:191)\n\n\tat org.junit.runners.ParentRunner.access$000(ParentRunner.java:42)\n\n\tat org.junit.runners.ParentRunner$2.evaluate(ParentRunner.java:184)\n\n\tat org.junit.runners.ParentRunner.run(ParentRunner.java:236)\n\n\tat org.junit.runner.JUnitCore.run(JUnitCore.java:157)\n\n\tat com.intellij.junit4.JUnit4IdeaTestRunner.startRunnerWithArgs(JUnit4IdeaTestRunner.java:71)\n\n\tat com.intellij.rt.execution.junit.JUnitStarter.prepareStreamsAndStart(JUnitStarter.java:202)\n\n\tat com.intellij.rt.execution.junit.JUnitStarter.main(JUnitStarter.java:63)\n\n\tat sun.reflect.NativeMethodAccessorImpl.invoke0(Native Method)\n\n\tat sun.reflect.NativeMethodAccessorImpl.invoke(NativeMethodAccessorImpl.java:39)\n\n\tat sun.reflect.DelegatingMethodAccessorImpl.invoke(DelegatingMethodAccessorImpl.java:25)\n\n\tat java.lang.reflect.Method.invoke(Method.java:597)\n\n\tat com.intellij.rt.execution.application.AppMain.main(AppMain.java:120)\n\n\n\nThis is caused by:\n\n\n\n            while (lenToSkip \u003e 0) {\n\n                int skipped \u003d archive.skipBytes(lenToSkip);\n\n                if (skipped \u003c\u003d 0) {\n\n                    throw new RuntimeException(\"failed to skip file name in\"\n\n                                               + \" local file header\");\n\n                }\n\n                lenToSkip -\u003d skipped;\n\n            }\n\n\n\nAny reason this is using a RuntimeException instead of a IOException ? Changing it to a IOE would solve our problem.\nFinally, our test code is available from https://github.com/lacostej/tika-hardener\nYou might want to reuse similar technique for your other decompressors. Let us know if you want help.","creation_date":"2011-12-20T12:38:35.000-06:00","resolution_date":"2011-12-22T17:23:32.000-06:00","fixed_files":["org.apache.commons.compress.archivers.zip.ZipFile"]}
{"key":"COMPRESS-173","title":"ArchiveStreamFactory.createArchiveInputStream(in) returns a TarArchiveInputStream object if in is a simple text file ","description":"After COMPRESS-117 fix, ArchiveStreamFactory.createArchiveInputStream(in) returns a TarArchiveInputStream object if input is a simple text file.  In my test case, the file has two lines:\nBagIt-Version: 0.96\nTag-File-Character-Encoding: UTF-8\n","creation_date":"2012-01-26T20:46:41.000-06:00","resolution_date":"2012-01-27T08:29:57.000-06:00","fixed_files":["org.apache.commons.compress.archivers.ArchiveStreamFactory"]}
{"key":"COMPRESS-175","title":"GNU Tar sometimes uses binary encoding for UID and GID","description":"Some tar files have UID and GID fields that start with the binary marker 0x80. The TarArchiveEntry is unable to cope with that since it assumes that UID and GID are always ASCII.","creation_date":"2012-02-09T07:26:25.000-06:00","resolution_date":"2012-02-22T23:45:43.000-06:00","fixed_files":["org.apache.commons.compress.archivers.tar.TarArchiveEntry"]}
{"key":"COMPRESS-177","title":"TarArchiveInputStream rejects valid TAR file","description":"Issue originally reported at http://java.net/jira/browse/TRUEZIP-219\n\nDownload http://sourceforge.net/projects/boost/files/boost/1.48.0/boost_1_48_0.tar.gz?use_mirror\u003dautoselect\nI invoke Files.newDirectoryStream() on a TPath pointing to the resulting .tar.gz file\nThe following exception is thrown:\n\n\n\n\njava.lang.IllegalArgumentException: Invalid byte -1 at offset 7 in \u0027\u003csome bytes\u003e\u0027 len\u003d8\n\n\tat org.apache.commons.compress.archivers.tar.TarUtils.parseOctal(TarUtils.java:86)\n\n\tat org.apache.commons.compress.archivers.tar.TarArchiveEntry.parseTarHeader(TarArchiveEntry.java:790)\n\n\tat org.apache.commons.compress.archivers.tar.TarArchiveEntry.\u003cinit\u003e(TarArchiveEntry.java:308)\n\n\tat org.apache.commons.compress.archivers.tar.TarArchiveInputStream.getNextTarEntry(TarArchiveInputStream.java:198)\n\n\tat org.apache.commons.compress.archivers.tar.TarArchiveInputStream.getNextEntry(TarArchiveInputStream.java:380)\n\n\tat de.schlichtherle.truezip.fs.archive.tar.TarInputShop.\u003cinit\u003e(TarInputShop.java:91)\n\n\tat de.schlichtherle.truezip.fs.archive.tar.TarDriver.newTarInputShop(TarDriver.java:159)\n\n\tat de.schlichtherle.truezip.fs.archive.tar.TarGZipDriver.newTarInputShop(TarGZipDriver.java:82)\n\n\tat de.schlichtherle.truezip.fs.archive.tar.TarDriver.newInputShop(TarDriver.java:151)\n\n\tat de.schlichtherle.truezip.fs.archive.tar.TarDriver.newInputShop(TarDriver.java:47)\n\n\tat de.schlichtherle.truezip.fs.archive.FsDefaultArchiveController.mount(FsDefaultArchiveController.java:170)\n\n\tat de.schlichtherle.truezip.fs.archive.FsFileSystemArchiveController$ResetFileSystem.autoMount(FsFileSystemArchiveController.java:98)\n\n\tat de.schlichtherle.truezip.fs.archive.FsFileSystemArchiveController.autoMount(FsFileSystemArchiveController.java:47)\n\n\tat de.schlichtherle.truezip.fs.archive.FsArchiveController.autoMount(FsArchiveController.java:129)\n\n\tat de.schlichtherle.truezip.fs.archive.FsArchiveController.getEntry(FsArchiveController.java:160)\n\n\tat de.schlichtherle.truezip.fs.archive.FsContextController.getEntry(FsContextController.java:117)\n\n\tat de.schlichtherle.truezip.fs.FsDecoratingController.getEntry(FsDecoratingController.java:76)\n\n\tat de.schlichtherle.truezip.fs.FsDecoratingController.getEntry(FsDecoratingController.java:76)\n\n\tat de.schlichtherle.truezip.fs.FsConcurrentController.getEntry(FsConcurrentController.java:164)\n\n\tat de.schlichtherle.truezip.fs.FsSyncController.getEntry(FsSyncController.java:108)\n\n\tat de.schlichtherle.truezip.fs.FsFederatingController.getEntry(FsFederatingController.java:156)\n\n\tat de.schlichtherle.truezip.nio.file.TFileSystem.newDirectoryStream(TFileSystem.java:348)\n\n\tat de.schlichtherle.truezip.nio.file.TPath.newDirectoryStream(TPath.java:963)\n\n\tat de.schlichtherle.truezip.nio.file.TFileSystemProvider.newDirectoryStream(TFileSystemProvider.java:344)\n\n\tat java.nio.file.Files.newDirectoryStream(Files.java:400)\n\n\tat com.googlecode.boostmavenproject.GetSourcesMojo.convertToJar(GetSourcesMojo.java:248)\n\n\tat com.googlecode.boostmavenproject.GetSourcesMojo.download(GetSourcesMojo.java:221)\n\n\tat com.googlecode.boostmavenproject.GetSourcesMojo.execute(GetSourcesMojo.java:111)\n\n\tat org.apache.maven.plugin.DefaultBuildPluginManager.executeMojo(DefaultBuildPluginManager.java:101)\n\n\t... 20 more\n\n\n\nChristian Schlichtherle (the TrueZip author) is expecting the Commons Compress to throw IOException instead of IllegalArgumentException. I am expecting no exception to be thrown because as far as I can tell the TAR file is valid (opens up in WinRar and Ubuntu\u0027s built-in Archiver).","creation_date":"2012-02-20T16:12:50.000-06:00","resolution_date":"2012-02-22T23:46:06.000-06:00","fixed_files":["org.apache.commons.compress.archivers.tar.TarArchiveEntry"]}
{"key":"COMPRESS-178","title":"TarArchiveInputStream throws IllegalArgumentException instead of IOException","description":"TarArchiveInputStream is throwing  IllegalArgumentException instead of IOException on corrupt files, in direct contradiction to the Javadoc. Here is a stack-trace:\n\n\n\njava.lang.IllegalArgumentException: Invalid byte -1 at offset 7 in \u0027\u003csome bytes\u003e\u0027 len\u003d8\n\n\tat org.apache.commons.compress.archivers.tar.TarUtils.parseOctal(TarUtils.java:86)\n\n\tat org.apache.commons.compress.archivers.tar.TarArchiveEntry.parseTarHeader(TarArchiveEntry.java:790)\n\n\tat org.apache.commons.compress.archivers.tar.TarArchiveEntry.\u003cinit\u003e(TarArchiveEntry.java:308)\n\n\tat org.apache.commons.compress.archivers.tar.TarArchiveInputStream.getNextTarEntry(TarArchiveInputStream.java:198)\n\n\tat org.apache.commons.compress.archivers.tar.TarArchiveInputStream.getNextEntry(TarArchiveInputStream.java:380)\n\n\tat de.schlichtherle.truezip.fs.archive.tar.TarInputShop.\u003cinit\u003e(TarInputShop.java:91)\n\n\tat de.schlichtherle.truezip.fs.archive.tar.TarDriver.newTarInputShop(TarDriver.java:159)\n\n\tat de.schlichtherle.truezip.fs.archive.tar.TarGZipDriver.newTarInputShop(TarGZipDriver.java:82)\n\n\tat de.schlichtherle.truezip.fs.archive.tar.TarDriver.newInputShop(TarDriver.java:151)\n\n\tat de.schlichtherle.truezip.fs.archive.tar.TarDriver.newInputShop(TarDriver.java:47)\n\n\tat de.schlichtherle.truezip.fs.archive.FsDefaultArchiveController.mount(FsDefaultArchiveController.java:170)\n\n\tat de.schlichtherle.truezip.fs.archive.FsFileSystemArchiveController$ResetFileSystem.autoMount(FsFileSystemArchiveController.java:98)\n\n\tat de.schlichtherle.truezip.fs.archive.FsFileSystemArchiveController.autoMount(FsFileSystemArchiveController.java:47)\n\n\tat de.schlichtherle.truezip.fs.archive.FsArchiveController.autoMount(FsArchiveController.java:129)\n\n\tat de.schlichtherle.truezip.fs.archive.FsArchiveController.getEntry(FsArchiveController.java:160)\n\n\tat de.schlichtherle.truezip.fs.archive.FsContextController.getEntry(FsContextController.java:117)\n\n\tat de.schlichtherle.truezip.fs.FsDecoratingController.getEntry(FsDecoratingController.java:76)\n\n\tat de.schlichtherle.truezip.fs.FsDecoratingController.getEntry(FsDecoratingController.java:76)\n\n\tat de.schlichtherle.truezip.fs.FsConcurrentController.getEntry(FsConcurrentController.java:164)\n\n\tat de.schlichtherle.truezip.fs.FsSyncController.getEntry(FsSyncController.java:108)\n\n\tat de.schlichtherle.truezip.fs.FsFederatingController.getEntry(FsFederatingController.java:156)\n\n\tat de.schlichtherle.truezip.nio.file.TFileSystem.newDirectoryStream(TFileSystem.java:348)\n\n\tat de.schlichtherle.truezip.nio.file.TPath.newDirectoryStream(TPath.java:963)\n\n\tat de.schlichtherle.truezip.nio.file.TFileSystemProvider.newDirectoryStream(TFileSystemProvider.java:344)\n\n\tat java.nio.file.Files.newDirectoryStream(Files.java:400)\n\n\tat com.googlecode.boostmavenproject.GetSourcesMojo.convertToJar(GetSourcesMojo.java:248)\n\n\tat com.googlecode.boostmavenproject.GetSourcesMojo.download(GetSourcesMojo.java:221)\n\n\tat com.googlecode.boostmavenproject.GetSourcesMojo.execute(GetSourcesMojo.java:111)\n\n\tat org.apache.maven.plugin.DefaultBuildPluginManager.executeMojo(DefaultBuildPluginManager.java:101)\n\n\t... 20 more\n\n\n\nExpected behavior: TarArchiveInputStream should wrap the IllegalArgumentException in an IOException.","creation_date":"2012-02-21T15:27:31.000-06:00","resolution_date":"2012-02-23T01:05:25.000-06:00","fixed_files":["org.apache.commons.compress.archivers.tar.TarArchiveInputStream","org.apache.commons.compress.archivers.TarTestCase"]}
{"key":"COMPRESS-176","title":"ArchiveInputStream#getNextEntry(): Problems with WinZip directories with Umlauts","description":"There is a problem when handling a WinZip-created zip with Umlauts in directories.\nI\u0027m accessing a zip file created with WinZip containing a directory with an umlaut (\"\") with ArchiveInputStream. When creating the zip file the unicode-flag of winzip had been active.\nThe following problem occurs when accessing the entries of the zip:\nthe ArchiveEntry for a directory containing an umlaut is not marked as a directory and the file names for the directory and all files contained in that directory contain backslashes instead of slashes (i.e. completely different to all other files in directories with no umlaut in their path).\nThere is no difference when letting the ArchiveStreamFactory decide which ArchiveInputStream to create or when using the ZipArchiveInputStream constructor with the correct encoding (I\u0027ve tried different encodings CP437, CP850, ISO-8859-15, but still the problem persisted).\nThis problem does not occur when using the very same zip file but compressed by 7zip or the built-in Windows 7 zip functionality.","creation_date":"2012-02-17T12:05:24.000-06:00","resolution_date":"2012-02-28T14:06:30.000-06:00","fixed_files":["org.apache.commons.compress.archivers.zip.ZipFileTest","org.apache.commons.compress.archivers.zip.ZipArchiveEntry"]}
{"key":"COMPRESS-184","title":"PAX header parser fails for non-ASCII values","description":"The current logic parsing PAX extension headers fails if the number of bytes used to encode an entry is different from the number of characters - i.e. for any character outside of the ASCII range as the headers are UTF-8 encoded.  E.g.\n\n11 path\u003d\n\n\n\ntakes 11 bytes (one has to account for the trailing newline) for 10 characters and the parser fails with \"Expected 3 chars, read 2\"","creation_date":"2012-03-23T13:33:32.000-05:00","resolution_date":"2012-03-23T13:48:26.000-05:00","fixed_files":["org.apache.commons.compress.archivers.tar.TarArchiveInputStream"]}
{"key":"COMPRESS-185","title":"BZip2CompressorInputStream truncates files compressed with pbzip2","description":"I\u0027m using BZip2CompressorInputStream in Compress 1.3 to decompress a file that was created with pbzip2 1.1.6 (http://compression.ca/pbzip2/).  The stream ends early after 900000 bytes, truncating the rest of the pbzip2-compressed file.  Decompressing the file with bunzip2 or compressing the original file with bzip2 both fix the issue.  I think both pbzip2 and Compress are to blame here: pbzip2 apparently does something non-standard when compressing files, and Compress should handle the non-standard format rather than pretending to be done decompressing.  Another option is that I\u0027m doing something wrong; in that case please let me know! \nHere\u0027s how the problem can be reproduced:\n 1. Generate a file that\u0027s 900000+ bytes large: dd if\u003d/dev/zero of\u003d1mbfile count\u003d1 bs\u003d1M\n 2. Compress with pbzip2: pbzip2 1mbfile\n 3. Decompress with Bunzip2 class below\n 4. Notice how the resulting 1mbfile is 900000 bytes large, not 1M.\nNow compare to using bunzip2/bzip2:\n\nDo the steps above, but instead of 2, compress with bzip2: bzip2 1mbfile\nDo the steps above, but instead of 3, decompress with bunzip2: bunzip2 1mbfile.bz2\n\nimport java.io.*;\nimport org.apache.commons.compress.compressors.bzip2.*;\npublic class Bunzip2 {\n  public static void main(String[] args) throws Exception {\n    File inFile \u003d new File(args[0]);\n    File outFile \u003d new File(args[0].substring(0, args[0].length() - 4));\n    FileInputStream fis \u003d new FileInputStream(inFile);\n    BZip2CompressorInputStream bz2cis \u003d\n        new BZip2CompressorInputStream(fis);\n    BufferedInputStream bis \u003d new BufferedInputStream(bz2cis);\n    BufferedOutputStream bos \u003d new BufferedOutputStream(\n        new FileOutputStream(outFile));\n    int len;\n    byte[] data \u003d new byte[1024];\n    while ((len \u003d bis.read(data, 0, 1024)) \u003e\u003d 0) \n{\n\n      bos.write(data, 0, len);\n\n    }\n \n    bos.close();\n    bis.close();\n  }\n}","creation_date":"2012-03-29T10:47:51.000-05:00","resolution_date":"2012-03-29T11:52:31.000-05:00","fixed_files":["org.apache.commons.compress.compressors.GZipTestCase","org.apache.commons.compress.compressors.BZip2TestCase","org.apache.commons.compress.compressors.bzip2.BZip2CompressorInputStream"]}
