{"id":2,"bug_id":"LANG-292","text":"unescapeXml(\"\u002612345678;\") should be \"\u002612345678;\". Following test (in EntitiesTest.java) fails:  Maximim value for char is 0xFFFF, so \u0026#12345678; is invalid entity reference, and so should be left as is.","class_goldset":["org.apache.commons.lang.Entities"],"method_goldset":["org.apache.commons.lang.Entities:unescape(String)","org.apache.commons.lang.Entities:unescape(Writer, String)"],"creation_date":"2006-10-31 01:45:01","resolution_date":"2006-10-31 21:34:31"}
{"id":7,"bug_id":"LANG-363","text":"StringEscapeUtils.escapeJavaScript() method did not escape \u0027/\u0027 into \u0027\\/\u0027, it will make IE render page uncorrectly. If Javascripts including\u0027/\u0027, IE will parse the scripts uncorrectly, actually \u0027/\u0027 should be escaped to \u0027\\/\u0027. For example, document.getElementById(\"test\"). value \u003d \u0027\u003cscript\u003ealert(\\\u0027aaa\\\u0027);\u003c/script\u003e\u0027;this expression will make IE render page uncorrect, it should be document.getElementById(\"test\").   Try  to run below codes, you will find the difference:\n  String s \u003d \"\u003cscript\u003ealert(\u0027aaa\u0027);\u003c/script\u003e\";\n  String str \u003d org.springframework.web.util.JavaScriptUtils.javaScriptEscape(s);\n  System.out.println(\"Spring JS Escape : \"+str);\n  str \u003d org.apache.commons.lang.StringEscapeUtils.escapeJavaScript(s);\n  System.out.println(\"Apache Common Lang JS Escape : \"+ str);","class_goldset":["org.apache.commons.lang.StringEscapeUtils"],"method_goldset":["org.apache.commons.lang.StringEscapeUtils:escapeJavaStyleString(Writer, String, boolean)"],"creation_date":"2007-10-23 07:12:48","resolution_date":"2007-10-26 06:09:17"}
{"id":14,"bug_id":"LANG-552","text":"The following Test Case for replaceEach fails with a null pointer exception. I have expected that all StringUtils methods are \"null-friendly\"","class_goldset":["org.apache.commons.lang3.StringUtils"],"method_goldset":["org.apache.commons.lang3.StringUtils:replaceEach(String, String[], String[], boolean, int)"],"creation_date":"2009-11-9 12:40:57","resolution_date":"2009-12-14 07:51:45"}
{"id":22,"bug_id":"LANG-788","text":"SerializationUtils throws ClassNotFoundException when cloning primitive classes. If a serializable object contains a reference to a primitive class, e.g. int.class or int[].class, the SerializationUtils throw a ClassNotFoundException when trying to clone that object.            The SerializationUtils problem arises because the SerializationUtils internally use the ClassLoaderAwareObjectInputStream that overrides the ObjectInputStream\u0027s resoleClass method without delegating to the super method in case of a ClassNotFoundException. I understand the intention of the ClassLoaderAwareObjectInputStream, but this implementation should also implement a fallback to the original implementation. For example:","class_goldset":["org.apache.commons.lang3.SerializationUtils"],"method_goldset":["org.apache.commons.lang3.SerializationUtils:ClassLoaderAwareObjectInputStream(InputStream, ClassLoader)","org.apache.commons.lang3.SerializationUtils:resolveClass(ObjectStreamClass)"],"creation_date":"2012-2-11 12:36:48","resolution_date":"2012-2-29 14:39:49"}
{"id":24,"bug_id":"LANG-832","text":"FastDateParser does not handle unterminated quotes correctly. FDP does not handled unterminated quotes the same way as SimpleDateFormat For example:  This should fail to parse the format and date but it actually works. The format is parsed as:","class_goldset":["org.apache.commons.lang3.time.FastDateParser"],"method_goldset":["org.apache.commons.lang3.time.FastDateParser:init()"],"creation_date":"2012-9-27 00:27:58","resolution_date":"2012-9-27 00:56:48"}
