{"key":"DATAMONGO-804","title":"EnableMongoRepositories repositoryImplementationPostfix() default is empty String instead of \"Impl\"","description":"In contrast to the doc, which states that the default repositoryImplementationPostfix is \"Impl\", the default is actually set to empty string:\nString repositoryImplementationPostfix() default \"\";\nTook me a while to figure out why my RepositoryImpl was not recognised...","creation_date":"2013-11-28T02:01:03.000-06:00","resolution_date":"2013-12-04T03:14:35.000-06:00","fixed_files":["org.springframework.data.mongodb.repository.config.EnableMongoRepositories"]}
{"key":"DATAMONGO-828","title":"UpdateFirst throws OptimisticLockingFailureException when updating document that does not exist","description":"when updating a document that does not exists using MongoTemplage.updateFirst an OptimisticLockingFailureException is thrown in case of a non multi update.\n\n\n\n\n\n\n@Test\n\n\n\n\npublic void updateFirstShouldDoNothingWhenCalledForEntitiesThatDoNotExist() {\n\n\n\n\n\t\t\n\n\n\n\n\tQuery q \u003d query(where(\"id\").is(Long.MIN_VALUE));\n\n\n\n\n\tAssume.assumeThat(template.findOne(q, VersionedPerson.class), IsNull.nullValue());\n\n\n\n\n\t\t\n\n\n\n\n\ttemplate.updateFirst(q, Update.update(\"lastname\", \"supercalifragilisticexpialidocious\"), VersionedPerson.class);\n\n\n\n\n\tAssert.assertThat(template.findOne(q, VersionedPerson.class), IsNull.nullValue());\n\n\n\n\n}\n\n\n\n\n\n","creation_date":"2014-01-21T04:29:09.000-06:00","resolution_date":"2014-02-17T02:37:26.000-06:00","fixed_files":["org.springframework.data.mongodb.core.MongoTemplateTests","org.springframework.data.mongodb.core.MongoTemplate"]}
{"key":"DATAMONGO-852","title":"Increase version for update does not traverse DBObject correctly in order to find version property.","description":"Version property is nested and therefore not resolved correctly.\n\n\n\n\n\n\n{\n\n\n\n\n  $inc : {version : 1}\n\n\n\n\n}\n\n\n\n\n\n","creation_date":"2014-02-19T04:43:31.000-06:00","resolution_date":"2014-02-21T04:59:44.000-06:00","fixed_files":["org.springframework.data.mongodb.core.MongoTemplateTests","org.springframework.data.mongodb.core.MongoTemplate","org.springframework.data.mongodb.core.query.Update","org.springframework.data.mongodb.core.query.UpdateTests"]}
{"key":"DATAMONGO-863","title":"QueryMapper.getMappedValue Fails To Handle Arrays Mapped To $in","description":"I have a scenario where I run the following update to pull array elements with the given ids:\nList\u003cBigInteger\u003e idsToRemove \u003d Arrays.asList(\n    BigInteger.valueOf(123), BigInteger.valueOf(234));\nUpdate update \u003d new Update()\n        .pull(\"options\",\n            new BasicDBObject(\"_id\",\n            new BasicDBObject(\"$in\", mongoOps\n                .getConverter().convertToMongoType(idsToRemove))));\nmongoOps.findAndModify(new Query(), update, MongoProduct.class);\nThis used to work before version 1.4.\nUsing version 1.4, I get a java.lang.ClassCastException (see attachment).\nThis seems to be due to a double call to QueryMapper.getMappedValue(Field, Object) from UpdateMapper.getMappedObjectForField(Field, Object) at line 80 of UpdateMapper, the first of which converts idsToRemove (which is already a BasicDBList) to an array of strings. The second call to getMappedValue from within super.getMappedObjectForField then tries to cast that array to Iterable\u003c?\u003e, which fails.\nFinally, this might be a little out of scope, but I feel that if a BasicDBObject is passed to the Spring Data API, it should be taken as is. It should not be re-converted/re-mapped!","creation_date":"2014-02-25T21:30:25.000-06:00","resolution_date":"2014-03-06T02:48:39.000-06:00","fixed_files":["org.springframework.data.mongodb.core.convert.QueryMapper","org.springframework.data.mongodb.core.convert.UpdateMapper","org.springframework.data.mongodb.core.convert.UpdateMapperUnitTests"]}
{"key":"DATAMONGO-843","title":"Unable to use @EnableMongoAuditing annotation in Java config","description":"When declaring an @EnableMongoAuditing annotation on a configuration, application startup fails due to an exception: NoSuchBeanDefinitionException: No bean named \u0027mappingContext\u0027 is defined.   This error only occurs if auditing is enabled.","creation_date":"2014-02-05T13:07:34.000-06:00","resolution_date":"2014-03-06T02:56:22.000-06:00","fixed_files":["org.springframework.data.mongodb.config.GridFsTemplateParser","org.springframework.data.mongodb.config.BeanNames","org.springframework.data.mongodb.config.MongoParser","org.springframework.data.mongodb.core.mapping.event.AuditingEventListener","org.springframework.data.mongodb.core.mapping.event.AuditingEventListenerUnitTests","org.springframework.data.mongodb.config.MappingMongoConverterParserIntegrationTests","org.springframework.data.mongodb.config.MappingMongoConverterParserValidationIntegrationTests","org.springframework.data.mongodb.config.MappingMongoConverterParser","org.springframework.data.mongodb.repository.support.MongoRepositoryFactoryBean","org.springframework.data.mongodb.config.MongoTemplateParser","org.springframework.data.mongodb.config.MongoAuditingBeanDefinitionParser","org.springframework.data.mongodb.repository.config.MongoRepositoryConfigurationExtension","org.springframework.data.mongodb.config.MongoDbFactoryParser"]}
{"key":"DATAMONGO-970","title":"Id query cannot be created if object to remove is DBObject","description":"If we in insert DBObject in database used method:\n\n\n\n\n\n\nprotected void populateIdIfNecessary(Object savedObject, Object id) {\n\n\n\n\n  if (id \u003d\u003d null) {\n\n\n\n\n    return;\n\n\n\n\n  }\n\n\n\n\n  if (savedObject instanceof BasicDBObject) {\n\n\n\n\n    DBObject dbObject \u003d (DBObject) savedObject;\n\n\n\n\n    dbObject.put(ID_FIELD, id);\n\n\n\n\n    return;\n\n\n\n\n  }\n\n\n\n\n  MongoPersistentProperty idProp \u003d getIdPropertyFor(savedObject.getClass());\n\n\n\n\n  if (idProp \u003d\u003d null) {\n\n\n\n\n    return;\n\n\n\n\n  }\n\n\n\n\n  ConversionService conversionService \u003d mongoConverter.getConversionService();\n\n\n\n\n  BeanWrapper\u003cPersistentEntity\u003cObject, ?\u003e, Object\u003e wrapper \u003d BeanWrapper.create(savedObject, conversionService);\n\n\n\n\n  Object idValue \u003d wrapper.getProperty(idProp, idProp.getType(), true);\n\n\n\n\n  if (idValue !\u003d null) {\n\n\n\n\n    return;\n\n\n\n\n  }\n\n\n\n\n  wrapper.setProperty(idProp, id);\n\n\n\n\n}\n\n\n\n\n\n\nwhere checked: \u0027savedObject instanceof BasicDBObject\u0027 and not store property with \u0027_id\u0027. Then if we remove DBObject from database for create query used:\n\n\n\n\n\n\nprivate Query getIdQueryFor(Object object) {\n\n\n\n\n  Assert.notNull(object);\n\n\n\n\n  Class\u003c?\u003e objectType \u003d object.getClass();\n\n\n\n\n  MongoPersistentEntity\u003c?\u003e entity \u003d mappingContext.getPersistentEntity(objectType);\n\n\n\n\n  MongoPersistentProperty idProp \u003d entity \u003d\u003d null ? null : entity.getIdProperty();\n\n\n\n\n  if (idProp \u003d\u003d null) {\n\n\n\n\n    throw new MappingException(\"No id property found for object of type \" + objectType);\n\n\n\n\n  }\n\n\n\n\n  ConversionService service \u003d mongoConverter.getConversionService();\n\n\n\n\n  Object idProperty \u003d null;\n\n\n\n\n  idProperty \u003d BeanWrapper.create(object, service).getProperty(idProp, Object.class, true);\n\n\n\n\n  return new Query(where(idProp.getFieldName()).is(idProperty));\n\n\n\n\n}\n\n\n\n\n\n\nWhere not checked:  \u0027savedObject instanceof BasicDBObject\u0027 and throw exception. Why not checked removing object on \u0027savedObject instanceof BasicDBObject\u0027 if we insert BAsicDBObject and after remove then.","creation_date":"2014-06-27T02:37:03.000-05:00","resolution_date":"2014-06-27T08:01:04.000-05:00","fixed_files":["org.springframework.data.mongodb.core.MongoTemplateTests","org.springframework.data.mongodb.core.MongoTemplate"]}
