{"key":"COMPRESS-244","title":"7z reading of UINT64 data type is wrong for big values","description":"Brief description large values with a first byte indicating at least 4 additional bytes shift an integer by at least 32bits thus leading to an overflow and an incorrect value - the value needs to be casted to long before the bitshift!"}
{"key":"COMPRESS-245","title":"TarArchiveInputStream#getNextTarEntry returns null prematurely","description":"The attached archive decompressed with 1.6 only extracts part of the archive.                                                                                    with commons-compress-1.6 it looks like this:"}
{"key":"COMPRESS-252","title":"Writing 7z empty entries produces incorrect or corrupt archive","description":"Result: The created archive contains a single folder entry with the name of the archive (no matter which was the name of the file)  Result: The created archive contains a folder entry with the name of the archive and a number of file entries also with the name of the archive. The number of the entries is equal to the number of non empty files.      Result: archive is corrupt, the following message is received: \"Cannot open file \u0027archivename.7z\u0027 as archive\" (7Zip Manager does not crash)."}
