{"key":"CONFIGURATION-242","title":"The configuration returned by HierarchicalConfiguration.subset() does not globally interpolate","description":"Interpolation is only performed in the subset configuration itself. If the referenced property is not in the subset (but somewhere else in the parent configuration), it cannot be resolved."}
{"key":"CONFIGURATION-241","title":"clearProperty() does not generate events","description":"Unfortunately the listener does not receive \"clear property\" events. I\u0027ve confirmed that it can properly receive other events (like \"set property\"), and that calls to \"clearProperty()\" do actually clear the property, so I believe this may be a bug in commons-configuration."}
{"key":"CONFIGURATION-259","title":"ConfigurationFactory Merge is broken","description":"In particular, after creating a particular subset from a loaded configuration, the subset is empty.  So when initializing the configuration as follows, I get the following error:"}
