{"key":"DATAMONGO-938","title":"Exception when creating geo within Criteria using MapReduce","description":"I am getting an IllegalArgumentException when I try to query a MongoDB collection using a Criteria.within and a Box.   The exception reads:"}
{"key":"DATAMONGO-969","title":"String @id field is not mapped to ObjectId when using QueryDSL .id.in(Collection\u003cString\u003e)","description":"This is translating to $in clause with empty collection"}
{"key":"DATAMONGO-987","title":"Problem with lazy loading in @DBRef when getting data using MongoTemplate","description":"assertNull(persisted.getChild()); // it fails    I attached a project with the JUnit test which reproduces the problem for you."}
