{"key":"WFCORE-267","title":"CLI prints output twice if using cli client jar","description":"If you are using the CLI client jar, all output is printed twice. This is because JBoss logging is not set up and by default CommandContextImpl is printing log messages to standard out. The output will look something like this:"}
{"key":"WFCORE-438","title":"The CLI freezes in phase of requesting username/password","description":"CLI doesn\u0027t terminate"}
{"key":"WFCORE-229","title":"server-config operations \"leaks\" to server\u0027s resources","description":"Any operations on server children with the same names that server-config operations (:start, :stop, :restart, :kill) are executed instead of being rejected because the actual resources at the operation address does not define them.                                                      If the corresponding server-config resource is actually stopped, the operations fail because there is no resource at the operation\u0027s address."}
{"key":"WFCORE-752","title":"Only one deployment overlay can be created for each deployment","description":""}
{"key":"WFCORE-507","title":" Unit test FileSystemDeploymentServiceUnitTestCase fails on IBM JDK ","description":"Always on IBM JDK org.jboss.as.server.deployment.scanner.FileSystemDeploymentServiceUnitTestCase.testNoUndeployment fails with:"}
{"key":"WFCORE-763","title":"Persisting an empty list [] gets read as a list with empty string [\"\"] resulting in IllegalArgumentException","description":"Instead I get back a list of size 1 containing an empty string."}
{"key":"WFCORE-500","title":"domain mode: remove a path entry from a server instance fails","description":"Adding a \"path\" to a \"server-config\" in domain mode (works fine) and then remove it again results in a NullPointerException"}
{"key":"WFCORE-765","title":"Shutdown error in domain mode","description":"The following error message appears for each configured server:"}
{"key":"WFCORE-754","title":"EAP fails to start with -bmanagement\u003d option and with specific IP settings","description":"EAP fails to start with -bmanagement\u003d option.  Host Controller starts to listening on IPv4:9999 Server:server-one probably resolve IPv4 address to host name. Server-one tries to connect to this host name. Hostname is resolved by ping ($ ping dev98) to IPv6 address, where host controller is not listening.                            Actual results:"}
{"key":"WFCORE-495","title":"WFLY won\u0027t startup due to \"WFLYCTL0212: Duplicate resource [(\\\"deployment\\\" \u003d\u003e \\\"xxx.war\\\")]\"","description":"WFLY won\u0027t startup due to \"WFLYCTL0212: Duplicate resource [(\\\"deployment\\\" \u003d\u003e \\\"xxx.war\\\")]\"    After server restart, it shows:              3. restart wildfly to see the error message. This happens because step 2 does a \"full-replace-deployment\" operation which does not remove content from standalone/data/content/aa/2d0425dd53572294d591b56efdee2680539eaf/content and deployment info from configuration file(standalone.xml). Therefore, you will have xxx.war in standalone/data/content and configuration file(standalone.xml), also a xxx.war and xxx.war.deployed file inside /standalone/deployments. A second time server restart will cause a duplicate resource error."}
{"key":"WFCORE-499","title":"System properties are broken in domain mode","description":"There seems to be some weirdness in how system properties are being propagated to domain mode servers, and in many cases they are not being applied.  The only way I could get the property to be applied was to start the server first, then add the property using boot-time\u003dfalse, although even in this case the property will disappear if the domain is restarted or the server is reloaded."}
{"key":"WFCORE-534","title":"Deployment scanner runtime-failure-causes-rollback attribute is not stored to the model","description":"The runtime-failure-causes-rollback is never stored to the model in the add op."}
{"key":"WFCORE-540","title":"CVE-2014-7849 WildFly Domain Management: Limited RBAC authorization bypass","description":"It was discovered that the Role Based Access Control (RBAC) implementation did not sufficiently verify all authorization conditions that are required by the Maintainer role to perform certain administrative actions."}
{"key":"WFCORE-604","title":" After failed to deploy, remain deployment information in JBOSS_HOME/{standalone|domaine}/data/content directory","description":"- After failed to deploy, remain deployment information in JBOSS_HOME/{standalone|domaine}/data/content directory        4. Find \"new\" deployment info in JBOSS_HOME/{standalone|domaine}/data/content, and the old deployment info will be still there.     - The deployment information which created when deploy was failed remains in JBOSS_HOME/{standalone|domaine}/data/content."}
{"key":"WFCORE-701","title":"Inconsistent domain server status reports between server-config resource and server resource","description":"When a managed server fails in some way, the server status reporting is inconsistent between the /host\u003d\u003chost\u003e/server-config\u003d\u003cserver\u003e resources and the /host\u003d\u003chost\u003e/server\u003d\u003cserver\u003e resource."}
{"key":"WFCORE-58","title":"Setting some locales causes missing buttons on console and throws errors.","description":"When WildFly 9 Alpha1 is started with the following system properties in the \"standalone.conf\" then the admin console behaves abnormally and shows some missing buttons in the console.   Also it throws following Error while accessing the console URL like [1]"}
{"key":"WFCORE-638","title":"deployment runtime-name mismatch between content repo and server-group and logs","description":"The application runtime name in content repository is not the same as what is shown in the server group.  You will see from the screenshots that the content repository shows runtime name\u003dapollo-0.1.12-SNAPSHOT-11\\ 03. war, but the server group shows runtime-name\u003dapollo-0.1.12-SNAPSHOT-1045.   The server.logs from wildfly show \"Deployed \"apollo.war\" (runtime-name : \"apollo-0.1.12-SNAPSHOT-1045. war\")\" However, we can tell by app capabilities that what is really deployed is apollo-0.1.12-SNAPSHOT-1103."}
{"key":"WFCORE-1067","title":" CVE-2015-5304 Missing authorization check for Monitor/Deployer/Auditor role when shutting down server or canceling op","description":"It was found that the server or host controller did not properly authorize a user performing a shut down.    The context.getServiceRegistry(true) call, which throws an exception when write authorization fails, was replaced with a call to context.authorize, which only returns an authorization result. Nothing was then done with the authorization result."}
{"key":"WFCORE-71","title":"ProtocolLogger is used outside org.jboss.as.protocol module but isn\u0027t available","description":"The ProtocolLogger class is used in a few places in host-controller and server, but the module.xml for the org.jboss.as.protocol module specifically excludes it from being exported."}
{"key":"WFCORE-626","title":"Global list-get operation can inadvertently create list elements","description":"#2 will return \u003cundefined\u003e as expected.  However, it returns \u003cundefined\u003e. This is because #2 will create the missing element at index 0 causing #3 to operate on index 1."}
{"key":"WFCORE-625","title":"Error message in CLI if extension existing on the server is not present in the CLI instalaltion","description":"When using the jboss-cli from a WildFly-Core installation to manage a WildFly Full server you get error messages about missing extensions :"}
{"key":"WFCORE-72","title":"deploy --force fails in CLI GUI","description":"The --force flag is not working with the deploy command in CLI GUI. The CLI CommandContextImpl is generating the wrong DMR request."}
{"key":"WFCORE-230","title":"Failure by ProcessController to launch a server vm is not logged","description":"In a domain configuration, if a server is associated with an incorrectly configurated jvm java-home (e.g. domain.xml -\u003e server-groups -\u003e jvm), it will fail silently (no error shown in logs)."}
{"key":"WFCORE-154","title":"Patching does not process subdirectories","description":"If patched resource is in subdirectory of moduleRoot, it is not included as part of patch, even though it is present in patch zip."}
{"key":"WFCORE-233","title":"Subsystem ordering is lost during marshalling","description":"When standalone.xml gets persisted following some post-boot change, the original ordering of subsystems is lost."}
{"key":"WFCORE-676","title":"data-source ..  --new-connection-sql  does not allow double qoutes in the SQL","description":"Setting an SQL statement with double quotes in it from the CLI is not possible:"}
{"key":"WFCORE-268","title":"CLI GUI fails if connecting to AS7 or EAP6","description":"If you try to use a WildFly version CLI GUI to connect to AS7 or EAP6, you will get a failure. The reason is because CLI GUI tries to do a list-log-files operation, which does not exist in those older AS versions."}
{"key":"WFCORE-657","title":"CLI embedded server does not always clean up properly","description":"While looking at some other test issues I noticed test logging that indicates that the server embedded in the CLI seems to not always be cleaning up properly, resulting in MSC leaving mbeans installed and subsequent mbean registration errors when the next attempt to launch happens. Here\u0027s an example from a server.log; my impression is one test method attempts to create a server with an invalid --empty-config param, and when that fails the appropriate cleanup doesn\u0027t happen."}
{"key":"WFCORE-687","title":"patches with duplicate element patch-id values should be rejected","description":"Patches that contain duplicate patch-id attribute values in \u0027element\u0027 elements in patch.xml can be applied but can\u0027t be rolled back. An attempt to rollback such a patch will result in an error \"Content loader already registered for patch \" + patchID, thrown from IdentityPatchContext.recordContentLoader(patchID, contentLoader)."}
{"key":"WFCORE-213","title":"Clean unreferenced items from the content repository","description":"The algorithm for removing unused deployments from the content repository is based on doing this as part of undeploy operation execution. This doesn\u0027t cover cases where the content is never explicitly undeployed.  1) Scanner content that is updated when the server is offline; the old content will not have been \"undeployed\" during shutdown, and on startup the new content will be installed.  When the server shuts down, there is no \"subsystem remove\" as part of shutdown, so the content added during start will not be removed."}
{"key":"WFCORE-145","title":"CLI run-batch command cannot process files with comments or blank lines","description":"In the JBoss CLI tool, the \"run-batch --file\u003dscript.cli\" command cannot successfully process lines that start with \"#\" or blank lines."}
{"key":"WFCORE-702","title":"periodic-size-rotating-file-handler is missing from logging profiles","description":"The periodic-size-rotating-file-handler was introduced in WildFly Core 1.x, but is missing from logging profiles."}
{"key":"WFCORE-285","title":"cli tab completion gets confused by double slash","description":"Using two slashes in a CLI path and hitting TAB confuses the auto-completion"}
{"key":"WFCORE-706","title":"Non exploded deployments are incorrectly marked as exploded","description":""}
{"key":"WFCORE-442","title":"AbstractMultiTargetHandler-based handlers do not propagate failures to the top level failure-description","description":"One item in the set has a failure description but the overall response does not."}
