{"key":"DATAMONGO-1180","title":"Incorrect exception message creation in PartTreeMongoQuery.","description":"In PartTreeMongoQuery#createQuery the JSONParseException is passed to the String.format() instead of IllegalStateException.","creation_date":"2015-03-10T01:55:22.000-05:00","resolution_date":"2015-03-10T04:25:52.000-05:00","fixed_files":["org.springframework.data.mongodb.repository.query.PartTreeMongoQueryUnitTests","org.springframework.data.mongodb.repository.query.PartTreeMongoQuery"]}
{"key":"DATAMONGO-1202","title":"Indexed annotation problems under generics","description":"There is a problem with the @Indexed annotation with the model classes. Under simple scenarios with reflexive DBRef relations works as expected, but if used in conjunction with generics it doesn\u0027t create the index expected.\nI provide a github project with two scenarios:\n\nEmployer: Very simple reflexive relation that works nicely (EmployerTest)\nCustomer: A little more complex scenario using GenericCustomer as a base class to allow having many different kinds of customers. This scenario fails at creating the index (CustomerTest).\n\nThis test runs without a Mongo server because it uses embedmongo-spring (https://github.com/jirutka/embedmongo-spring) at a random port each time the test runs.\nIf you run Application it will just create indexes and put some data in customer collection assuming a MongoD is running locally at 27017","creation_date":"2015-04-14T02:36:40.000-05:00","resolution_date":"2015-06-01T00:45:42.000-05:00","fixed_files":["org.springframework.data.mongodb.core.index.MongoPersistentEntityIndexCreatorIntegrationTests","org.springframework.data.mongodb.core.index.IndexResolver","org.springframework.data.mongodb.core.index.MongoPersistentEntityIndexCreator","org.springframework.data.mongodb.core.index.MongoPersistentEntityIndexResolver"]}
{"key":"DATAMONGO-1210","title":"Inconsistent property order of _class type hint breaks document equality.","description":"findAndModify writes the type hint _class either before or after all other fields, whereas save writes it always after. Because of that, MongoDBs addToSet/forEach treats two objects as different, even though they only differ in the position of _class. As a consequence, findAndModify/addToSet/forEach adds duplicates to collections.\nThe proposed change fixes this by always writing the type hint after all fields.\nUnfortunately, this works only for collection fields of complex documents, when both save and findAndModify write the type hint. Please see my other pull request for a test that demonstrates the erroneous behaviour in case of simple documents, where the type hint is written by findAndModify.\n\nhttps://github.com/spring-projects/spring-data-mongodb/pull/289 (proposed fix)\nhttps://github.com/spring-projects/spring-data-mongodb/pull/290 (tests)\nhttps://github.com/spring-projects/spring-data-mongodb/pull/291 (tests)","creation_date":"2015-04-26T23:05:01.000-05:00","resolution_date":"2015-06-01T04:29:36.000-05:00","fixed_files":["org.springframework.data.mongodb.core.convert.QueryMapper","org.springframework.data.mongodb.core.convert.UpdateMapper","org.springframework.data.mongodb.core.convert.MappingMongoConverter","org.springframework.data.mongodb.core.convert.UpdateMapperUnitTests","org.springframework.data.mongodb.core.MongoTemplateTests"]}
{"key":"DATAMONGO-1166","title":"ReadPreference not used for Aggregations.","description":"From the referenced issue on SO:\n\nIt turned out that spring-data-mongodb does not pass the read preference specified on mongoTemplate to the underlying com.mongodb.Mongo connection pool - for aggregations. It would pass the read preference for simple find operations.","creation_date":"2015-02-19T23:36:37.000-06:00","resolution_date":"2015-06-21T23:56:17.000-05:00","fixed_files":["org.springframework.data.mongodb.core.MongoTemplateUnitTests","org.springframework.data.mongodb.core.MongoTemplate"]}
{"key":"DATAMONGO-1232","title":"IgnoreCase should escape queries","description":"The IgnoreCase query generator is subject to a sort of \"regex injection\" attack, because the query generator simply slaps ^..$ around the string and passes it directly to MongoDB. This fails when the string contains any sort of special characters. In my case, I\u0027m trying to perform a case-insensitive find on an e-mail address with the + sign, a legal character, but the regex interprets this as 1..*.\nThe query generator needs to properly escape regex-special characters.","creation_date":"2015-06-03T10:27:23.000-05:00","resolution_date":"2015-06-24T11:21:16.000-05:00","fixed_files":["org.springframework.data.mongodb.repository.query.MongoQueryCreator","org.springframework.data.mongodb.repository.query.MongoQueryCreatorUnitTests"]}
{"key":"DATAMONGO-1236","title":"MongoOperations findAndModify and updateFirst do not include the _class in Map values","description":"When a map of type LinkedHashMap\u003cString, Object\u003e  is updated via MongoOperations findAndModify or updateFirst, the _class field is not saved for the map values.  Therefore, later reads of the data do not convert the value to the correct type, instead leaving it as LinkedHashMap. \nPlease see attached maven project for test illustrating the problem. ","creation_date":"2015-06-08T11:17:11.000-05:00","resolution_date":"2015-07-08T01:26:13.000-05:00","fixed_files":["org.springframework.data.mongodb.core.convert.UpdateMapper","org.springframework.data.mongodb.core.convert.UpdateMapperUnitTests"]}
