{"key":"AMQP-369","title":"AmqpAdmin \u003c-\u003e Declarable classes tangle","description":"","creation_date":"2014-01-30T08:00:54.000-06:00","resolution_date":"2014-01-30T13:24:25.000-06:00","fixed_files":["org.springframework.amqp.rabbit.config.BindingFactoryBean","org.springframework.amqp.rabbit.core.RabbitAdminDeclarationTests","org.springframework.amqp.core.Declarable","org.springframework.amqp.core.AbstractDeclarable"]}
{"key":"AMQP-371","title":"MessageBuilderSupport has wrong visibility","description":"The restricted visibility means that method chaining can\u0027t be used, so the code below results in a compilation error:\nMessageProperties props  \u003d \nMessagePropertiesBuilder.newInstance()\n.setHeader(\"fruit\", fruit.toString())\n.setHeader(\"seeds\", fruit.seeds().toString())\n.build();","creation_date":"2014-02-04T05:59:40.000-06:00","resolution_date":"2014-02-04T06:17:20.000-06:00","fixed_files":["org.springframework.amqp.core.MessageBuilderSupport"]}
{"key":"AMQP-383","title":"Bindings are not re-established after re-creating anonymous queues","description":"Whilst testing bug report AMQP-373\nStopping and starting a listener container creates the queue\nHowever the bindings are not re-established when the queue is created for the second time hence, no messages can be routed to the queue.\nAdditionally heading off a potential future bug (before it happens):\nAssuming that the listener-container is set to autoStart\u003d\"false\".\nThere is a discrepancy between the first and second start.\nOn the first start the binding will already exist, hence there \"may\" be messages in the queue when the container is manually started.\nHowever on the second start the queue isn\u0027t created until the container is re-started (hence there are never any messages pending).\nI can see how people may prefer either the first or second behavior depending on their use-case, however I doubt anyone would want both.","creation_date":"2014-03-08T02:23:06.000-06:00","resolution_date":"2014-03-10T03:21:48.000-05:00","fixed_files":["org.springframework.amqp.rabbit.listener.SimpleMessageListenerContainer","org.springframework.amqp.rabbit.config.ListenerContainerParser","org.springframework.amqp.rabbit.listener.ListenFromAutoDeleteQueueTests","org.springframework.amqp.rabbit.listener.SimpleMessageListenerContainerIntegration2Tests","org.springframework.amqp.rabbit.listener.AbstractMessageListenerContainer"]}
{"key":"AMQP-384","title":"Fix NPE in Test Case","description":"TestUtils needs to test for null before checking the type of the retrieved field.\nAlso, when iterating over the consumers, exit if the channel has not yet been assigned.\n\n\n\n\n\n\n2014-03-13 05:21:52,613 WARN SimpleAsyncTaskExecutor-2 [org.springframework.amqp.rabbit.listener.SimpleMessageListenerContainer] - \u003cConsumer raised exception, processing can restart if the connection factory supports it\u003e\n\n\n\n\njava.lang.NullPointerException\n\n\n\n\n\tat org.springframework.amqp.utils.test.TestUtils.getPropertyValue(TestUtils.java:60)\n\n\n\n\n\tat org.springframework.amqp.rabbit.listener.SimpleMessageListenerContainerTests$19.answer(SimpleMessageListenerContainerTests.java:536)\n\n\n\n\n\tat org.mockito.internal.stubbing.StubbedInvocationMatcher.answer(StubbedInvocationMatcher.java:34)\n\n\n\n\n\n","creation_date":"2014-03-13T07:35:28.000-05:00","resolution_date":"2014-03-13T08:04:11.000-05:00","fixed_files":["org.springframework.amqp.rabbit.listener.SimpleMessageListenerContainerTests","org.springframework.amqp.utils.test.TestUtils"]}
