{"id":2367,"bug_id":"AMQP-190","text":"CachingConnectionFactory leaks channels when synchronized with a TransactionManager. It seems that when I use RabbitTemplate, channelTransacted\u003dtrue, to convertAndSend() a message to an exchange within the context of a synchronized TransactionManager (e.g. an active transaction on the current thread), the channel is never closed, hence new publishes will always get their \"own\", shiny, new channel (that is never closed or released to the channel pool) until Rabbit can\u0027t handle any more channels.       convertAndSend()","file_goldset":["org.springframework.amqp.rabbit.connection.RabbitResourceHolder","org.springframework.amqp.rabbit.listener.SimpleMessageListenerContainer","org.springframework.amqp.rabbit.connection.ConnectionFactoryUtils","org.springframework.amqp.rabbit.core.RabbitTemplatePerformanceIntegrationTests"],"creation_date":"2011-09-10T20:24:17.000-05:00","resolution_date":"2012-07-18T08:51:03.000-05:00"}
{"id":2368,"bug_id":"AMQP-280","text":"Container is stopped before testing mocki to ensure close() wasn\u0027t called on the channel. close()","file_goldset":["org.springframework.amqp.rabbit.listener.LocallyTransactedTests"],"creation_date":"2012-11-06T12:58:17.000-06:00","resolution_date":"2012-11-06T13:50:03.000-06:00"}
{"id":2369,"bug_id":"AMQP-340","text":"Wrong RabbitMQ credentials are not considered as fatal error by SimpleMessageListenerContainer. If I connect an AmqpInboundChannelAdapter to the RabbitMQ (3.1.0) with wrong credentials (wrong password) the SimpleMessageListenerContainer doesn\u0027t detect the real reason and continues to restart the consumer in a seemingly endless loop. As AmqpInboundChannelAdapter user, I don\u0027t notice (except if I turn on debug logging level) any problem, its start() method returns after a pause with no error, but the connection remains not established. It would be nice to have a notification (exception) about wrong credentials right away (there is a comprehensive rabbit client exception that gets swallowed in SimpleMessageListenerContainer.run()) start()  SimpleMessageListenerContainer.run()","file_goldset":["org.springframework.amqp.rabbit.listener.MessageListenerContainerLifecycleIntegrationTests","org.springframework.amqp.rabbit.support.RabbitExceptionTranslator","org.springframework.amqp.rabbit.listener.BlockingQueueConsumer"],"creation_date":"2013-11-18T09:41:01.000-06:00","resolution_date":"2013-12-02T12:39:09.000-06:00"}
{"id":2370,"bug_id":"AMQP-434","text":"convertAndSend() methods can throw MessageConversionException but that\u0027s not documented. convertMessageIfNecessary()","file_goldset":["org.springframework.amqp.support.converter.MessageConversionException"],"creation_date":"2014-10-21T05:21:17.000-05:00","resolution_date":"2014-10-23T01:47:58.000-05:00"}
{"id":2371,"bug_id":"AMQP-481","text":"Because of the way the endpoints are detected in a BeanPostProcessor and the message listener container is started in a SmartInitializingBean, the listener is never registered if it is a scoped proxy (e.g. @Scope(proxyMode\u003dTARGET_CLASS) @Lazy). The BeanPostProcessor is not presented with the actual listener until it is instantiated, and the instantiation happens lazily, the container is never created or started (I believe it\u0027s because the call to RabbitListenerEndpointRegistrar.afterPropertiesSet() in RabbitListenerAnnotationBeanPostProcessor.afterSingletonsInstantiated() is never made).  @Scope(proxyMode\u003dTARGET_CLASS)  @Lazy RabbitListenerEndpointRegistrar.afterPropertiesSet()  RabbitListenerAnnotationBeanPostProcessor.afterSingletonsInstantiated()","file_goldset":["org.springframework.amqp.rabbit.listener.RabbitListenerEndpointRegistry","org.springframework.amqp.rabbit.listener.RabbitListenerEndpointRegistrar","org.springframework.amqp.rabbit.annotation.EnableRabbitTests"],"creation_date":"2015-03-02T05:28:36.000-06:00","resolution_date":"2015-05-06T09:10:58.000-05:00"}
{"id":2372,"bug_id":"AMQP-502","text":"Fanout binding is not created due to missing routing key. I will get an error, that the binding can not be created.   The following is the debug logout and the stacktrace:                                                                                                                                                     @RabbitListener(\n\n\n\n\n      bindings \u003d @QueueBinding(\n\n\n\n\n          value \u003d @Queue(\n\n\n\n\n              autoDelete \u003d \"true\"\n\n\n\n\n          ),\n\n\n\n\n          exchange \u003d @Exchange(\n\n\n\n\n              type \u003d \"fanout\",\n\n\n\n\n              value \u003d \"mytest.broadcast\",\n\n\n\n\n              autoDelete \u003d \"true\"\n\n\n\n\n          ),\n\n\n\n\n          key \u003d \"#\"\n\n\n\n\n      )\n\n\n\n\n  )\n\n\n\n\n  public void processBroadcast(String data) {\n\n\n\n\n    int i \u003d 0;\n\n\n\n\n  }\n\n\n\n\n\n\n {} {} {}","file_goldset":["org.springframework.amqp.rabbit.annotation.RabbitListenerAnnotationBeanPostProcessor","org.springframework.amqp.rabbit.annotation.EnableRabbitIntegrationTests"],"creation_date":"2015-06-19T03:02:33.000-05:00","resolution_date":"2015-06-19T11:11:55.000-05:00"}
{"id":2373,"bug_id":"AMQP-516","text":"Setting autoDelete or exclusive to anything, including \"true\" in @Queue without a queue name results in them being disabled. The following queue declaration will result in a queue being declared with auto delete and exclusive set to false:                       Making them exclusive and auto delete by default when using a random name seems like a good idea, but it should probably be changed to something like:      @RabbitListener(bindings \u003d @QueueBinding(\n\n\n\n\n    value \u003d @Queue(autoDelete \u003d \"true\", exclusive \u003d \"true\"),\n\n\n\n\n    exchange \u003d @Exchange(value \u003d \"myFanout\", type \u003d ExchangeTypes.FANOUT, durable \u003d \"true\")\n\n\n\n\n))\n\n\n\n\n\n\n if (!StringUtils.hasText(queueName)) {\n\n\n\n\n    queueName \u003d UUID.randomUUID().toString();\n\n\n\n\n    if (!StringUtils.hasText(bindingQueue.exclusive())) {\n\n\n\n\n        exclusive \u003d true;\n\n\n\n\n    }\n\n\n\n\n    if (!StringUtils.hasText(bindingQueue.autoDelete())) {\n\n\n\n\n        autoDelete \u003d true;\n\n\n\n\n    }\n\n\n\n\n}\n\n\n\n\nelse {\n\n\n\n\n    exclusive \u003d resolveExpressionAsBoolean(bindingQueue.exclusive());\n\n\n\n\n    autoDelete \u003d resolveExpressionAsBoolean(bindingQueue.autoDelete());\n\n\n\n\n}\n\n\n\n\n\n\n String e \u003d bindingQueue.exclusive();\n\n\n\n\nif (!StringUtils.hasText(e) || resolveExpressionAsBoolean(e)) {\n\n\n\n\n    exclusive \u003d true\n\n\n\n\n}","file_goldset":["org.springframework.amqp.rabbit.annotation.RabbitListenerAnnotationBeanPostProcessor","org.springframework.amqp.rabbit.annotation.EnableRabbitIntegrationTests"],"creation_date":"2015-08-06T01:25:34.000-05:00","resolution_date":"2015-08-07T09:46:00.000-05:00"}
{"id":2374,"bug_id":"AMQP-164","text":"Exchange parsers do not handle anonymous queues correctly. The problem manifests itself as a test failure in the stocks sample because there is no integration test for the binding parsers in spring-rabbit.                                                                                      testContext(org.springframework.amqp.rabbit.stocks.web.ServletConfigurationTests)","file_goldset":["org.springframework.amqp.rabbit.config.FanoutExchangeParser","org.springframework.amqp.rabbit.config.HeadersExchangeParser","org.springframework.amqp.rabbit.config.TopicExchangeParser","org.springframework.amqp.core.Binding","org.springframework.amqp.rabbit.config.DirectExchangeParser"],"creation_date":"2011-04-27T02:00:51.000-05:00","resolution_date":"2011-04-27T02:33:13.000-05:00"}
{"id":2375,"bug_id":"AMQP-633","text":"When running a RabbitTemplate on a transactional container thread, the container channel is used, even if the RabbitTemplate is not marked transactional.   If you publish with a template that is not transactional, the publish should occur on a new channel.             RabbitResourceHolder resourceHolder \u003d (RabbitResourceHolder) TransactionSynchronizationManager\n\n\n\n\n\t\t.getResource(connectionFactory);\n\n\n\n\nif (resourceHolder !\u003d null) {\n\n\n\n\n\tChannel channel \u003d resourceFactory.getChannel(resourceHolder);\n\n\n\n\n\tif (channel !\u003d null) {\n\n\n\n\n\t\treturn resourceHolder;\n\n\n\n\n\t}\n\n\n\n\n}\n\n\n\n\n\n\n resourceFactory.isSynchedLocalTransactionAllowed()","file_goldset":["org.springframework.amqp.rabbit.core.RabbitTemplate","org.springframework.amqp.rabbit.listener.LocallyTransactedTests"],"creation_date":"2016-08-18T15:48:45.000-05:00","resolution_date":"2016-08-23T16:13:16.000-05:00"}
{"id":2376,"bug_id":"AMQP-653","text":"However, if you switch to RabbitMessagingTemplate, that bean no longer works, because RabbitMessagingTemplate doesn\u0027t offer to look up RabbitTemplate\u0027s converters, and instead relies on its own.  @Bean\n\n\n\n\nJackson2JsonMessageConverter jackson2JsonMessageConverter() {\n\n\n\n\n\treturn new Jackson2JsonMessageConverter();\n\n\n\n\n}","file_goldset":["org.springframework.amqp.rabbit.core.RabbitMessagingTemplateTests","org.springframework.amqp.rabbit.core.RabbitMessagingTemplate"],"creation_date":"2016-10-08T02:53:08.000-05:00","resolution_date":"2016-10-10T20:58:31.000-05:00"}
{"id":2377,"bug_id":"AMQP-196","text":"RabbitTemplate/RabbitGatewaySupport incompatible with JDK proxy. RabbitGatewaySupport uses class RabbitTemplate rather than interface RabbitOperations for its rabbitTemplate property. If AOP advice creates a proxy for a RabbitTemplate a JDK proxy will be created since RabbitTemplate implements the RabbitOperations interface. If the advised bean is injected into RabbitGatewaySupport, an error will occur because the bean is not an instance of RabbitTemplate.      class RabbitTemplate","file_goldset":["org.springframework.amqp.rabbit.core.RabbitOperations"],"creation_date":"2011-09-23T11:23:51.000-05:00","resolution_date":"2016-10-12T20:20:20.000-05:00"}
{"id":2378,"bug_id":"AMQP-656","text":"Unable to refer to the default exchange using @Argument within a @RabbitListener. It seems you are unable to use @Argument annotations that use empty strings to refer to the default exchange.                This fails though as spring seems to not send the empty string.              @Argument @RabbitListener(bindings \u003d\n\n\n\n\n        @QueueBinding(\n\n\n\n\n            value \u003d @Queue(\n\n\n\n\n                value \u003d \"app.events.myEvent\",\n\n\n\n\n                durable \u003d \"true\",\n\n\n\n\n                exclusive \u003d \"false\",\n\n\n\n\n                autoDelete \u003d \"false\",\n\n\n\n\n                arguments \u003d {\n\n\n\n\n                        @Argument(name\u003d\"x-dead-letter-exchange\", value \u003d \"\"),\n\n\n\n\n                        @Argument(name\u003d\"x-dead-letter-routing-key\", value\u003d\"app.dlq\")\n\n\n\n\n                }),\n\n\n\n\n            exchange \u003d @Exchange(value\u003d\"amq.topic\", durable \u003d \"true\", type \u003d \"topic\"),\n\n\n\n\n            key\u003d\"event.app.myEvent.v1\"\n\n\n\n\n        ))\n\n\n\n\n\n\n @Bean\n\n\n\n\n    public Queue appMyEventQueue() {\n\n\n\n\n        return QueueBuilder.durable(\"app.events.myEvent\")\n\n\n\n\n            .withArgument(\"x-dead-letter-exchange\", \"\")\n\n\n\n\n            .withArgument(\"x-dead-letter-routing-key\", deadLetterQueue().getName())\n\n\n\n\n            .build();\n\n\n\n\n    }","file_goldset":["org.springframework.amqp.rabbit.annotation.RabbitListenerAnnotationBeanPostProcessor","org.springframework.amqp.rabbit.annotation.EnableRabbitIntegrationTests"],"creation_date":"2016-10-15T00:25:46.000-05:00","resolution_date":"2016-10-17T16:44:07.000-05:00"}
