{"id":2413,"bug_id":"CONFIGURATION-214","text":"Adding an integer and getting it as a long causes an exception. The problem is that when an object in a property is not a Long, the only attempt of PropertyConverter.toLong() is that of treating it as a string.   bsh % p \u003d new org.apache.commons.configuration.PropertiesConfiguration();\nbsh % p.setProperty(\"foo\", 6);\nbsh % p.getLong(\"foo\");\n// Error: // Uncaught Exception: Method Invocation p.getLong : at Line: 3 : in file: \u003cunknown file\u003e : p .getLong ( \"foo\" )\n PropertyConverter.toLong()","file_goldset":["org.apache.commons.configuration.TestBaseConfiguration","org.apache.commons.configuration.PropertyConverter","org.apache.commons.configuration.TestPropertyConverter"],"creation_date":"2006-05-26T21:35:46.000-05:00","resolution_date":"2006-06-02T02:55:45.000-05:00"}
{"id":2414,"bug_id":"CONFIGURATION-241","text":"clearProperty() does not generate events. Unfortunately the listener does not receive \"clear property\" events. I\u0027ve confirmed that it can properly receive other events (like \"set property\"), and that calls to \"clearProperty()\" do actually clear the property, so I believe this may be a bug in commons-configuration.              clearProperty() ConfigurationFactory configurationFactory \u003d new ConfigurationFactory();\n configurationFactory.setConfigurationURL(configFileURL);\nConfiguration configuration \u003d ConfigurationFactory.getConfiguration();\nconfiguration.addConfigurationListener(new ConfigurationListener() {\n    public void configurationChanged(ConfigurationEvent e) \n{\n        System.out.println(e.getPropertyName() + \": \" + e.getPropertyValue());\n    }\n});\nSystem.out.println(configuration.getProperty(\"name.first\")); // prints \"Mike\"\n configuration.claerProperty(\"name.first\") ; // no output whatsoever\nSystem.out.println(configuration.getProperty(\"name.first\")); // prints \"null\"","file_goldset":["org.apache.commons.configuration.TestCompositeConfiguration","org.apache.commons.configuration.CompositeConfiguration"],"creation_date":"2006-12-02T00:03:48.000-06:00","resolution_date":"2006-12-02T18:45:38.000-06:00"}
{"id":2415,"bug_id":"CONFIGURATION-259","text":"In particular, after creating a particular subset from a loaded configuration, the subset is empty.  So when initializing the configuration as follows, I get the following error:                 URL configURL \u003d getClass().getResource(configFile);\nConfigurationFactory factory \u003d new ConfigurationFactory();\nfactory.setConfigurationURL(configURL);\nmyConfig \u003d factory.getConfiguration();\n DefaultConfigurationBuilder builder \u003d new DefaultConfigurationBuilder();\n            builder.setURL(configURL);\n            myConfig \u003d builder.getConfiguration();","file_goldset":["org.apache.commons.configuration.ConfigurationFactory"],"creation_date":"2007-03-28T08:47:56.000-05:00","resolution_date":"2007-03-30T09:35:55.000-05:00"}
{"id":2416,"bug_id":"CONFIGURATION-275","text":"ConfigurationUtils.append() doesn\u0027t merge list properties. ConfigurationUtils.append() appends the list object instead of the list elements to the target list. If the list [X, Y] is appended to the list [A, B], the result is [A, B, [X, Y]] instead of [A, B, X, Y] ConfigurationUtils.append()","file_goldset":["org.apache.commons.configuration.AbstractConfiguration"],"creation_date":"2007-05-25T17:12:43.000-05:00","resolution_date":"2007-07-09T20:36:22.000-05:00"}
{"id":2417,"bug_id":"CONFIGURATION-283","text":"CombinedConfiguration doesn\u0027t take escaped characters into account.. I\u0027ve tried to used CombinedConfiguration but it seems escaped characters are not taken into account :                                Result :      \nimport org.apache.commons.configuration.CombinedConfiguration;\nimport org.apache.commons.configuration.ConfigurationException;\nimport org.apache.commons.configuration.PropertiesConfiguration;\nimport junit.framework.TestCase;\npublic class TestProp extends TestCase {\n\tpublic void testprop() throws ConfigurationException \n{\n\t\t// test.properties contains :\n\t\t//    without_escape\u003daa,bb\n\t\t//    with_escape\u003daa\\,bb\n\t\t//    with_2escapes\u003daa\\\\,bb\n\t\t\n\t\tString prop_filename \u003d \"c:\\\\tmp\\\\test.properties\";\n\t\tPropertiesConfiguration properties_config \u003d new PropertiesConfiguration(prop_filename);\n\t\tCombinedConfiguration   combined_config   \u003d new CombinedConfiguration();\n\t\tcombined_config.addConfiguration(properties_config);\n\t\t\n\t\tSystem.out.println(\"Properties config\");\n\t\tSystem.out.println(properties_config.getString(\"without_escape\"));\n\t\tSystem.out.println(properties_config.getString(\"with_escape\"));\n\t\tSystem.out.println(properties_config.getString(\"with_2escapes\"));\n\n\t\tSystem.out.println(\"\\nCombined config\");\n\t\tSystem.out.println(combined_config.getString(\"without_escape\"));\n\t\tSystem.out.println(combined_config.getString(\"with_escape\"));\n\t\tSystem.out.println(combined_config.getString(\"with_2escapes\"));\n\t\t\n\t}\n}","file_goldset":["org.apache.commons.configuration.ConfigurationUtils","org.apache.commons.configuration.TestConfigurationUtils","org.apache.commons.configuration.TestCombinedConfiguration"],"creation_date":"2007-07-02T12:38:23.000-05:00","resolution_date":"2007-07-12T20:02:18.000-05:00"}
{"id":2418,"bug_id":"CONFIGURATION-332","text":"PropertiesConfiguration.save() doesn\u0027t persist properties added through a DataConfiguration. The properties added through a DataConfiguration aren\u0027t persisted when the configuration is saved, but they can be queried normally.                  public void testSaveWithDataConfiguration() throws ConfigurationException\n{\n    File file \u003d new File(\"target/testsave.properties\");\n    if (file.exists()) {\n        assertTrue(file.delete());\n    }\n\n    PropertiesConfiguration config \u003d new PropertiesConfiguration(file);\n\n    DataConfiguration dataConfig \u003d new DataConfiguration(config);\n\n    dataConfig.setProperty(\"foo\", \"bar\");\n    assertEquals(\"bar\", config.getProperty(\"foo\"));\n    config.save();\n\n    // reload the file\n    PropertiesConfiguration config2 \u003d new PropertiesConfiguration(file);\n    assertFalse(\"empty configuration\", config2.isEmpty());\n}","file_goldset":["org.apache.commons.configuration.DataConfiguration","org.apache.commons.configuration.TestPropertiesConfiguration"],"creation_date":"2008-07-04T15:54:10.000-05:00","resolution_date":"2008-08-01T19:48:30.000-05:00"}
{"id":2419,"bug_id":"CONFIGURATION-347","text":"Iterating over the keys of a file-based configuration can cause a ConcurrentModificationException. Some implementations of FileConfiguration return an iterator in their getKeys() method that is directly connected to the underlying data store. When now a reload is performed (which can happen at any time) the data store is modified, and the iterator becomes invalid.  But even if the code performing the iteration is the only instance that accesses the configuration, the exception can be thrown. getKeys()","file_goldset":["org.apache.commons.configuration.TestFileConfiguration","org.apache.commons.configuration.AbstractFileConfiguration"],"creation_date":"2008-11-05T21:06:22.000-06:00","resolution_date":"2008-11-06T07:29:11.000-06:00"}
{"id":2420,"bug_id":"CONFIGURATION-408","text":"When I save a URL as a property value, the forward slashes are getting escaped. When I save a URL as a property value, the forward slashes are getting escaped.             public static void main(String[] args)\n  {\n    try\n    {\n\n      PropertiesConfiguration config \u003d new PropertiesConfiguration();     \n\n      File newProps \u003d new File(\"foo.properties\");\n\n      config.setProperty(\"foo\", \"http://www.google.com/\");     \n\n      config.save(newProps);\n\n      \n\n    }\n    catch (Exception e){}\n  }","file_goldset":["org.apache.commons.configuration.TestPropertiesConfiguration"],"creation_date":"2010-02-11T01:01:05.000-06:00","resolution_date":"2010-03-14T14:35:48.000-05:00"}
{"id":2421,"bug_id":"CONFIGURATION-481","text":"I get \"${myvar}-product\" instead of \"abc-product\".  {myvar}  combinedConfig.getConfiguration(\"test\") configurationAt(\"products/product[@name\u003d\u0027abc\u0027]\", true) getString(\"desc\")\n\n {myvar}","file_goldset":["org.apache.commons.configuration.TestDefaultConfigurationBuilder","org.apache.commons.configuration.DefaultConfigurationBuilder","org.apache.commons.configuration.interpol.ConfigurationInterpolator"],"creation_date":"2012-02-26T20:27:46.000-06:00","resolution_date":"2012-02-29T21:15:55.000-06:00"}
{"id":2422,"bug_id":"CONFIGURATION-487","text":"A call to DataConfiguration.get() eventually invokes the PropertyConverter.to() method. Here a number of supported data types are checked and corresponding conversions are done. However, the case that the value does not need to be converted at all - because it already has the expected type - is not taken into account. This is especially a problem for string values: there is not conversion to string, so the get() method fails even if the value is already a string. DataConfiguration.get()  PropertyConverter.to()  get()","file_goldset":["org.apache.commons.configuration.PropertyConverter","org.apache.commons.configuration.TestDataConfiguration","org.apache.commons.configuration.TestPropertyConverter"],"creation_date":"2012-03-17T17:03:03.000-05:00","resolution_date":"2012-03-17T20:11:31.000-05:00"}
{"id":2423,"bug_id":"CONFIGURATION-627","text":"BeanHelper exception on XMLConfiguration builder.getConfiguration(). Causes a non-halting exception originating in org.apache.commons.configuration2.beanutils.BeanHelper, method private static boolean isPropertyWriteable(Object bean, String propName) with parameters XMLConfiguration, \"validating\". The exception:                           builder \u003d\n\n        new FileBasedConfigurationBuilder\u003cXMLConfiguration\u003e(\n\n                XMLConfiguration.class)\n\n                        .configure(params.xml()\n\n                                .setFileName(\n\n                                        propsFile.getCanonicalPath())\n\n                                .setValidating(false));\n\n\n\nconfig \u003d builder.getConfiguration();\n\n\n\n private static boolean isPropertyWriteable(Object bean, String propName)  org.apache.commons.configuration2.AbstractConfiguration.setProperty(java.lang.String,java.lang.Object)","file_goldset":["org.apache.commons.configuration2.builder.TestPropertiesBuilderParametersImpl"],"creation_date":"2016-05-04T22:54:12.000-05:00","resolution_date":"2016-10-06T19:54:41.000-05:00"}
