{"id":30,"bug_id":"BOOKKEEPER-294","text":"{noformat}\n {noformat}","method_goldset":["org.apache.bookkeeper.bookie.Bookie:readJournal()","org.apache.bookkeeper.bookie.Bookie:registerBookie(int)","org.apache.bookkeeper.bookie.Bookie:start()","org.apache.bookkeeper.proto.BookieServer:start()"],"creation_date":"2012-6-12 23:56:56","resolution_date":"2012-7-5 08:10:09"}
{"id":31,"bug_id":"BOOKKEEPER-318","text":"{code}\n @Override\n        public void processResult(int rc, String path, Object ctx) {\n            if (rc !\u003d successRc) {\n                LOG.error(\"Error in multi callback : \" + rc);\n                exceptions.add(rc);\n            }\n            tick();\n        }\n {code}","method_goldset":[":processResult(int, String, Object)"],"creation_date":"2012-6-26 01:55:45","resolution_date":"2012-7-5 00:11:51"}
{"id":33,"bug_id":"BOOKKEEPER-327","text":"{code}\n {code}\n\n\n System.nanoTime() System.currentTimeMillis()","method_goldset":["org.apache.bookkeeper.proto.BKStats:getInstance()","org.apache.bookkeeper.proto.BKStats.OpStats:updateLatency(long)","org.apache.bookkeeper.proto.PerChannelBookieClient.CompletionKey:shouldTimeout()","org.apache.bookkeeper.proto.ServerStats:updateLatency(long)","org.apache.bookkeeper.util.LocalBookKeeper:waitForServerUp(String, long)","org.apache.bookkeeper.util.MathUtils:signSafeMod(long, int)"],"creation_date":"2012-7-5 13:04:20","resolution_date":"2012-7-24 12:03:58"}
{"id":35,"bug_id":"BOOKKEEPER-355","text":"doRecoveryRead()","method_goldset":["org.apache.bookkeeper.client.LedgerRecoveryOp:LedgerRecoveryOp(LedgerHandle, GenericCallback\u003cVoid\u003e)","org.apache.bookkeeper.client.LedgerRecoveryOp:doRecoveryRead()","org.apache.bookkeeper.client.LedgerRecoveryOp:initiate()","org.apache.bookkeeper.client.LedgerRecoveryOp:readComplete(int, LedgerHandle, Enumeration\u003cLedgerEntry\u003e, Object)","org.apache.bookkeeper.client.PendingReadOp:readEntryComplete(int, long, long, ChannelBuffer, Object)"],"creation_date":"2012-8-8 05:02:04","resolution_date":"2013-1-7 05:25:54"}
{"id":36,"bug_id":"BOOKKEEPER-371","text":"Channel topicSubscriberChannel \u003d client.getSubscriber().getChannelForTopic(topicSubscriber);\n        HedwigClientImpl.getResponseHandlerFromChannel(topicSubscriberChannel).getSubscribeResponseHandler()\n        .messageConsumed(messageConsumeData.msg);\n\n\n getPipeline() getLast()  channel.close()  messageConsumed()","method_goldset":["org.apache.hedwig.client.handlers.MessageConsumeCallback:operationFailed(Object, PubSubException)","org.apache.hedwig.client.handlers.MessageConsumeCallback.MessageConsumeRetryTask:run()","org.apache.hedwig.client.netty.HedwigClientImpl:getResponseHandlerFromChannel(Channel)"],"creation_date":"2012-8-17 05:42:02","resolution_date":"2012-8-28 07:54:28"}
{"id":37,"bug_id":"BOOKKEEPER-387","text":"{code}\n {code}","method_goldset":["org.apache.bookkeeper.bookie.UpgradeTest:testCommandLine()"],"creation_date":"2012-9-4 04:27:35","resolution_date":"2012-9-7 00:27:48"}
{"id":43,"bug_id":"BOOKKEEPER-55","text":"HedwigSubscriber.subscribe()","method_goldset":["org.apache.hedwig.client.handlers.SubscribeReconnectCallback.SubscribeReconnectRetryTask:run()"],"creation_date":"2011-8-25 05:52:23","resolution_date":"2013-1-2 15:24:49"}
