{"id":70,"bug_id":"13926","text":"class ContextInformationPopup\n\t public void showContextInformation(final IContextInformation info, \nfinal int position) {\n\t\tControl control\u003d fViewer.getTextWidget();\n\t\tBusyIndicator.showWhile(control.getDisplay(), new Runnable() {\n\t\t\tpublic void run() {\n\t\t\t\tinternalShowContextInfo(info, position);\n\t\t\t\thideContextSelector();\n\t\t\t}\n\t\t});\n\t}","method_goldset":["org.eclipse.jface.text.contentassist.ContextInformationPopup:internalShowContextFrame(ContextFrame, boolean)"],"creation_date":"2002-4-16 13:41:00","resolution_date":"2002-8-12 05:27:29"}
{"id":71,"bug_id":"15277","text":"suite() suite()","method_goldset":["org.eclipse.jdt.internal.junit.wizards.NewTestSuiteCreationWizardPage:handleFieldChanged(String)","org.eclipse.jdt.internal.junit.wizards.NewTestSuiteCreationWizardPage:setVisible(boolean)","org.eclipse.jdt.internal.junit.wizards.NewTestSuiteCreationWizardPage:testSuiteChanged()"],"creation_date":"2002-5-5 00:01:00","resolution_date":"2003-2-19 08:15:17"}
{"id":72,"bug_id":"16787","text":"showPage()  showStartingPage() page.getControl()  page.getControl()  public void dispose() {\n\t   super.dispose();\n\t   this.setControl(null);\n\t}","method_goldset":["org.eclipse.ui.internal.dialogs.NewWizardNewPage:handleWizardSelection(SelectionChangedEvent)"],"creation_date":"2002-5-22 08:55:00","resolution_date":"2005-5-10 13:55:56"}
{"id":81,"bug_id":"31779","text":"getStat()","method_goldset":["org.eclipse.core.internal.localstore.UnifiedTree:addChildrenFromFileSystem(UnifiedTreeNode, String, Object[], int)","org.eclipse.core.internal.localstore.UnifiedTree:createChildNodeFromFileSystem(UnifiedTreeNode, String, String)"],"creation_date":"2003-2-13 09:55:00","resolution_date":"2003-2-14 12:59:59"}
