{"id":237,"bug_id":"OPENJPA-1918","text":"MetaDataRepository.preload() ignores class loader returned by PersistenceUnitInfo.getClassLoader(). We pass the appliation class loeader as part of our PersistenceUnitInfo implementation by returning it from PersistenceUnitInfo.getClassLoader(). However, the code in MetaDataRepository.preload() only uses the context class loader and not the class loader from PersistenceUnitInfo, which leades to ClassNotFoundExpcetions like mentioned at the end of this report.","class_goldset":["org.apache.openjpa.meta.FieldMetaData","org.apache.openjpa.meta.MetaDataRepository","org.apache.openjpa.persistence.detach.NoVersionEntity"],"file_goldset":["org.apache.openjpa.meta.FieldMetaData","org.apache.openjpa.meta.MetaDataRepository","org.apache.openjpa.persistence.detach.NoVersionEntity"],"creation_date":"2011-01-06T14:11:24.000+0000","resolution_date":"2011-01-06T22:11:38.000+0000"}
{"id":238,"bug_id":"OPENJPA-1928","text":"Resolving factory method does not allow method overriding. For example:\n        @Persistent(optional \u003d false)\n\t@Column(name \u003d \"STATUS\")\n\t@Externalizer(\"getName\")\n\t@Factory(\"valueOf\")\n\tpublic OrderStatus getStatus() {\n\t\treturn this.status;\n\t}   Expected results:\nvalueOf(String) should always be selected.","class_goldset":["org.apache.openjpa.meta.FieldMetaData"],"file_goldset":["org.apache.openjpa.meta.FieldMetaData"],"creation_date":"2011-01-20T23:43:52.000+0000","resolution_date":"2011-03-22T18:24:25.000+0000"}
{"id":241,"bug_id":"OPENJPA-2007","text":"Setting query hint \"openjpa.FetchPlan.Isolation\" results in misleading warning. Setting query hint \"openjpa.FetchPlan.Isolation\" on a query results in this misleading warning being printed in the log:    It should be adding openjpa.FetchPlan.Isolation instead.","class_goldset":["org.apache.openjpa.conf.TestQueryHints","org.apache.openjpa.persistence.jdbc.JDBCPersistenceProductDerivation"],"file_goldset":["org.apache.openjpa.conf.TestQueryHints","org.apache.openjpa.persistence.jdbc.JDBCPersistenceProductDerivation"],"creation_date":"2011-05-25T19:51:51.000+0000","resolution_date":"2011-05-26T17:58:25.000+0000"}
