{"codeSnippets": [], "creation_date": "2012-10-24T05:57:43.000-05:00", "description": "store entiti version set nullpointerexcept pointer optimisticlockingfailureexcept optimist lock failur follow test provok nullpointerexcept pointer person version chang version optimisticlockingfailureexcept optimist lock failur test optimisticlockinghandlingwithexistingid optimist lock handl exist personwithversionpropertyoftypeinteg person version properti type integ person personwithversionpropertyoftypeinteg person version properti type integ person objectid object tostr string person age person firstnam name patryk templat person", "fixed_files": ["org.springframework.data.mongodb.core.MongoTemplateTests", "org.springframework.data.mongodb.core.MongoTemplate"], "key": "DATAMONGO-562", "original_text": "Cannot create entity with OptimisticLocking (@Version) and initial id Cannot store entities with @Version and id already set. Either a NullPointerException or OptimisticLockingFailureException\nThe following test case provokes a NullPointerException since person.version is null. However, if I change version to 0 I will get an OptimisticLockingFailureException.\n\t@Test\n\tpublic void optimisticLockingHandlingWithExistingId() \n{\n\t\tPersonWithVersionPropertyOfTypeInteger person = new PersonWithVersionPropertyOfTypeInteger();\n\t\tperson.id = new ObjectId().toString();\n\t\tperson.age = 29;\n\t\tperson.firstName = \"Patryk\";\n\t\ttemplate.save(person);\n\t}", "resolution_date": "2012-10-24T07:13:51.000-05:00", "stackTraces": [], "title": "creat entiti optimisticlock optimist lock version initi"}
{"codeSnippets": [], "creation_date": "2012-12-08T16:35:30.000-06:00", "description": "persist object version field differ result call mongotempl mongo templat insert object versu mongotempl mongo templat object mongotempl mongo templat insert version mongotempl mongo templat version think insert method set version zero done method", "fixed_files": ["org.springframework.data.mongodb.core.MongoTemplateTests", "org.springframework.data.mongodb.core.MongoTemplate"], "key": "DATAMONGO-588", "original_text": "MongoTemplate.insert does not initialize null versions to zero When persisting an object with a null @version field, you get different results when calling MongoTemplate.insert(Object) versus MongoTemplate.save(Object):\n\nMongoTemplate.insert ==> @version = null\nMongoTemplate.save ==> @version = 0\n\nI think the insert method should set @version to zero when it is null, like is done for the save method.", "resolution_date": "2012-12-12T22:45:30.000-06:00", "stackTraces": [], "title": "mongotempl mongo templat insert initi version zero"}
{"codeSnippets": [], "creation_date": "2012-11-29T07:08:25.000-06:00", "description": "mongodb driver possibl memori leak dbcursor cursor loop dbcursor cursor cursor find dbobject object obj cursor somecondit condit obj obj cursor close pleas http jira mongodb org brows java pleas check cursor hasnext", "fixed_files": ["org.springframework.data.mongodb.core.MongoTemplate"], "key": "DATAMONGO-583", "original_text": "Check if you are using for loop with a DBCursor The mongodb driver has a possible memory leak, when using a DBCursor with a for loop:\n\n\n\n\n\n\nDBCursor cursor = c.find();\n\n\n\n\ntry {\n\n\n\n\n    for (DBObject obj: cursor) {\n\n\n\n\n        if (someCondition(obj)) {\n\n\n\n\n            return obj;\n\n\n\n\n        }\n\n\n\n\n    }\n\n\n\n\n} finally {\n\n\n\n\n    cursor.close();\n\n\n\n\n}\n\n\n\n\n\n\nPlease see here:\nhttps://jira.mongodb.org/browse/JAVA-664\nPlease check this case is used and maybe switch to a while(cursor.hasNext())", "resolution_date": "2012-12-12T22:46:58.000-06:00", "stackTraces": [], "title": "check loop dbcursor cursor"}
{"codeSnippets": [], "creation_date": "2012-12-13T21:23:45.000-06:00", "description": "abl persist object sringsourc sring sourc creat object databas member variabl primit type hold name persistenceconstructor persist constructor argument don't match exactli name member variabl match field foo valu root foo annot mappinginstantiationexcept map instanti persist object contain object persistenceconstructor persist constructor stackoverflow stack overflow stackoverflow stack overflow detail oliv gierk found bug valu result spel express evalu dbobject object actual translat paramet type code local fix mind creat ticket spring data mongodb mongo file bug", "fixed_files": ["org.springframework.data.mongodb.core.convert.MappingMongoConverterUnitTests", "org.springframework.data.mongodb.core.convert.MappingMongoConverter"], "key": "DATAMONGO-592", "original_text": "Persisting Objects containing Objects with PersistenceConstructor causes MappingInstantiationException I am able to persist an object and have SringSource re-create the object from the database if all the member variables are primitive types.  This holds true if the names of the @PersistenceConstructor arguments don't match exactly the names of the member variables - in this case they an be matched up by using the @Field(\"foo\") and @Value(\"#root.foo\") annotations.  However, I get a MappingInstantiationException when I try to persist objects that contain other objects using the @PersistenceConstructor.\nSee StackOverflow 13854753 and StackOverflow 13832188 for details.\nAccording to Oliver Gierke:\n\nYou seem to have found a bug. The value resulting from the first Spel expression evaluation is a DBObject and not actually translated into the parameter type. I've already have some code here locally that fixes that. Would you mind creating a ticket against Spring Data MongoDB to file this as a bug?", "resolution_date": "2012-12-16T06:42:32.000-06:00", "stackTraces": [], "title": "persist object contain object persistenceconstructor persist constructor caus mappinginstantiationexcept map instanti"}
{"codeSnippets": [], "creation_date": "2013-01-29T02:42:36.000-06:00", "description": "provid password user wrong receiv follow error creat bean name samecoolclassrepositori cool repositori factorybean factori bean threw object creation nest org springframework data mongodb cannotgetmongodbconnectionexcept mongo connect fail authent databas mydbnam usernam myusernam password thecleartextpassword spring data print password logil suggest solut print letter mysecret", "fixed_files": ["org.springframework.data.mongodb.core.MongoDbUtils"], "key": "DATAMONGO-601", "original_text": "CannotGetMongoDbConnectionException should not print password in logfile When the provided password and / or user is wrong we receive the following exception:\n\n\n\n\n\n\nError creating bean with name 'sameCoolClassRepository': FactoryBean threw exception on object creation; nested exception is org.springframework.data.mongodb.CannotGetMongoDbConnectionException:\n\n\n\n\nFailed to authenticate to database [mydbname], username = [myusername], password = [thecleartextpassword]\n\n\n\n\n\n\nSpring Data should never print the password in the logiles.\nSuggested solution: print first and last letter: 'mysecret' gets 'm**************t'", "resolution_date": "2013-01-29T07:48:06.000-06:00", "stackTraces": [], "title": "cannotgetmongodbconnectionexcept mongo connect print password logfil"}
{"codeSnippets": [], "creation_date": "2013-02-01T06:15:07.000-06:00", "description": "assum geo queri repositori personrepositori person repositori repositori person georesult geo result person findbylocationnear find locat near point point distanc distanc hand distanc particular metric regard distanc instanc georesult geo result instanc carri getaveragedist averag distanc distanc distanc distanc metric kilomet point point point georesult geo result person result repositori findbylocationnear find locat near point distanc fail assertthat result getaveragedist averag distanc getmetr metric metric kilomet", "fixed_files": ["org.springframework.data.mongodb.config.AbstractMongoConfiguration", "org.springframework.data.mongodb.core.query.NearQueryUnitTests", "org.springframework.data.mongodb.core.geo.GeoSpatialTests", "org.springframework.data.mongodb.repository.query.AbstractMongoQuery", "org.springframework.data.mongodb.repository.AbstractPersonRepositoryIntegrationTests", "org.springframework.data.mongodb.core.query.NearQuery"], "key": "DATAMONGO-603", "original_text": "Results of geo queries in repository dont't get metrics of supplied distance applied Assume you have a geo query in a repository:\n\n\n\n\n\n\ninterface PersonRepository implements Repository<Person, Long> {\n\n\n\n\n\n\n\n\n\n  GeoResults<Person> findByLocationNear(Point point, Distance distance);\n\n\n\n\n}\n\n\n\n\n\n\nHanding in a Distance in a particular metric is not regarded in the Distance instance the GeoResults instance carries in .getAverageDistance().\n\n\n\n\n\n\nDistance distance = new Distance(150, Metrics.KILOMETERS);\n\n\n\n\nPoint point = new Point(10.0, 20.0);\n\n\n\n\n\n\n\n\n\nGeoResults<Person> result = repository.findByLocationNear(point, distance);\n\n\n\n\n\n\n\n\n\n// fails\n\n\n\n\nassertThat(result.getAverageDistance().getMetric(), is(Metrics.KILOMETERS));\n\n\n\n\n\n", "resolution_date": "2013-02-01T07:00:30.000-06:00", "stackTraces": [], "title": "result geo queri repositori dont't metric suppli distanc appli"}
{"codeSnippets": [], "creation_date": "2012-11-07T14:16:47.000-06:00", "description": "queri queri paramet find method caus nullpoint pointer queri illegalargu illeg argument thrown notnul queri miss", "fixed_files": ["org.springframework.data.mongodb.core.MongoTemplateTests", "org.springframework.data.mongodb.core.MongoTemplate"], "key": "DATAMONGO-568", "original_text": "MongoTemplate.find(...)  method causes Nullpointer if query parameter is null If the Query query parameter is null both find methods cause a NullPointer Exception.\nIf query is null an IllegalArgument should be thrown.\nThe Assert.notnull(query) is missing", "resolution_date": "2013-02-06T06:24:38.000-06:00", "stackTraces": [], "title": "mongotempl mongo templat find method caus nullpoint queri paramet"}
{"codeSnippets": [], "creation_date": "2013-03-22T04:08:25.000-05:00", "description": "assum follow queri queri queri regex zzz mongotempl mongo templat find java util hashmap hash map test give follow queri peek mongo consol isod iso date queri test test queri zzz nscan responselength respons length milli client user queri count mongotempl mongo templat count test give isod iso date command test cmd command count test queri zzz ntoreturn responselength respons length milli client user inconsist record field retriev properli count hand give bad result field org springframework data mongodb core convert querymapp queri mapper method determinekey determin key reason treat field probabl caus strang behaviour find method querymapp queri mapper count", "fixed_files": ["org.springframework.data.mongodb.core.convert.QueryMapper", "org.springframework.data.mongodb.core.MongoTemplateTests", "org.springframework.data.mongodb.core.convert.QueryMapperUnitTests", "org.springframework.data.mongodb.core.mapping.MongoMappingContext"], "key": "DATAMONGO-629", "original_text": "Different results when using count and find with the same criteria with 'id' field Assume we have following query:\n\n\n\n\n\n\nQuery q = query(where('id').regex('zzz'))\n\n\n\n\n\n\nmongoTemplate.find(q,java.util.HashMap.class,'test') gives following query (peeked in mongo console):\n\n\n\n\n\n\n{ \"ts\" : ISODate(\"2013-03-22T10:00:51.685Z\"),\n\n\n\n\n  \"op\" : \"query\",\n\n\n\n\n  \"ns\" : \"test.test\",\n\n\n\n\n  \"query\" : {\n\n\n\n\n\t\t\"id\" : /zzz/\n\n\n\n\n\t},\n\n\n\n\n\t\"nscanned\" : 1,\n\n\n\n\n\t\"responseLength\" : 20,\n\n\n\n\n\t\"millis\" : 0,\n\n\n\n\n\t\"client\" : \"127.0.0.1\",\n\n\n\n\n\t\"user\" : \"\"\n\n\n\n\n}\n\n\n\n\n\n\nThe same query, when used in count (mongoTemplate.count(q,'test')) gives:\n\n\n\n\n\n\n{\n\n\n\n\n\t\"ts\" : ISODate(\"2013-03-22T10:00:36.299Z\"),\n\n\n\n\n\t\"op\" : \"command\",\n\n\n\n\n\t\"ns\" : \"test.$cmd\",\n\n\n\n\n\t\"command\" : {\n\n\n\n\n\t\t\"count\" : \"test\",\n\n\n\n\n\t\t\"query\" : {\n\n\n\n\n\t\t\t\"_id\" : /zzz/\n\n\n\n\n\t\t}\n\n\n\n\n\t},\n\n\n\n\n\t\"ntoreturn\" : 1,\n\n\n\n\n\t\"responseLength\" : 48,\n\n\n\n\n\t\"millis\" : 0,\n\n\n\n\n\t\"client\" : \"127.0.0.1\",\n\n\n\n\n\t\"user\" : \"\"\n\n\n\n\n}\n\n\n\n\n\n\nThis is inconsistent since we could have records with field id and they will be retrieved properly from the db. Count on the other hand will give bad results since it uses _id field.\nIn org.springframework.data.mongodb.core.convert.QueryMapper the method determineKey, for some reason treats id and _id as the same field. This is probably the cause of the strange behaviour because find() method does not use QueryMapper and count() does.", "resolution_date": "2013-03-27T04:22:53.000-05:00", "stackTraces": [], "title": "differ result count find criteria field"}
{"codeSnippets": [], "creation_date": "2013-04-02T02:18:55.000-05:00", "description": "", "fixed_files": ["org.springframework.data.mongodb.crossstore.CrossStoreMongoTests", "org.springframework.data.mongodb.crossstore.MongoChangeSetPersister"], "key": "DATAMONGO-642", "original_text": "MongoChangeSetPersister does not use mapped collection name ", "resolution_date": "2013-04-02T02:47:02.000-05:00", "stackTraces": [], "title": "mongochangesetpersist mongo chang set persist map collect name"}
{"codeSnippets": [], "creation_date": "2012-12-24T11:37:31.000-06:00", "description": "cross store configur relateddocu relat document store mongodb mongo collect container entity name nice collect name name document entiti specifi annot document collect issu caus org springframework data mongodb crossstor mongochangesetpersist mongo chang set persist name collect method getcollectionnameforent collect name entiti classutil util getqualifiednam qualifi name entityclass entiti", "fixed_files": ["org.springframework.data.mongodb.crossstore.CrossStoreMongoTests", "org.springframework.data.mongodb.crossstore.MongoChangeSetPersister"], "key": "DATAMONGO-594", "original_text": "cross-store=> Define document name using annotation In a cross-store configuration, the RelatedDocument is stored in a MongoDB collection using the container's Entity's package name.\nIt would be nice if the collection name would be either the name of the class (document, not entity) or as specified using annotations(@Document(collection=\"\")).\nThis \"issue\" is caused by the class\norg.springframework.data.mongodb.crossstore.MongoChangeSetPersister\nwhich gets the name of the collection from the method getCollectionNameForEntity which does:\nreturn ClassUtils.getQualifiedName(entityClass);", "resolution_date": "2013-04-02T03:40:27.000-05:00", "stackTraces": [], "title": "cross store defin document name annot"}
{"codeSnippets": [], "creation_date": "2012-11-09T08:00:10.000-06:00", "description": "scenario domain load mongodb crudrepositori crud repositori findon find method load instanc non version annot field set load instanc mongodb crudrepositori crud repositori method field set doesnt write databas unchang problem doesnt occur version annot domain definit", "fixed_files": ["org.springframework.data.mongodb.core.MongoTemplateTests", "org.springframework.data.mongodb.core.query.Update"], "key": "DATAMONGO-571", "original_text": "Spring Data for MongoDb doesn't save null values when @Version is added to domain class  Scenario:\n1. Domain class is loaded from mongodb using CrudRepository.findOne() method.\n2. The loaded instances any non id nor @Version annotated field is set to null. \n3. The loaded instance is saved to same mongodb using CrudRepository.save() method.\n4. The field that has been set to null doesnt write to database, its unchanged.\nImportant: The problem doesnt occur when @Version annotation is not used in the domain class definition.", "resolution_date": "2013-04-11T03:05:45.000-05:00", "stackTraces": [], "title": "spring data mongodb mongo valu version domain"}
{"codeSnippets": [], "creation_date": "2013-06-12T06:04:14.000-05:00", "description": "initi mongo spring xml propertyplaceholderconfigur properti place holder configur inject paramet come jndi configur applic replicatset simpl host workaround distinct two inject empti string replicaset simpl host mongofactorybean mongo factori bean ignor properti", "fixed_files": ["org.springframework.data.mongodb.core.MongoFactoryBeanIntegrationTest", "org.springframework.data.mongodb.core.MongoFactoryBean", "org.springframework.data.mongodb.config.ServerAddressPropertyEditor", "org.springframework.data.mongodb.config.ServerAddressPropertyEditorUnitTests"], "key": "DATAMONGO-693", "original_text": "MongoFactoryBean should create a mongo instance with host/port if replicaset is null or empty I'm initializing mongo with a spring xml. I'm using propertyPlaceHolderConfigurer to inject parameters that are coming from jndi.\nI can configure my application with a replicatset or not (a simple host). \nThe only workaround to distinct the two cases is to inject a empty string for replicaset when i'm using a simple host. But MongoFactoryBean should ignore this property in this case.\n", "resolution_date": "2013-07-02T07:40:16.000-05:00", "stackTraces": [], "title": "mongofactorybean mongo factori bean creat mongo instanc host port replicaset empti"}
{"codeSnippets": [], "creation_date": "2013-01-30T02:22:53.000-06:00", "description": "problem tri queri document field given list biginteg big integ valu field map biginteg big integ exampl line work given list contain item list biginteg big integ profileid profil findprofileid find profil predic predic qprofiledocu profil document profiledocu profil document profileid profil iter profiledocu profil document profil profilerepositori profil repositori findal find predic underli mongodbqueri mongodb queri differ item profileid profil queri look profileid profil multipl element look item list oid queri result second work iter item problem represent biginteg big integ decim format work mongodb mongo", "fixed_files": ["org.springframework.data.mongodb.core.MongoTemplateTests"], "key": "DATAMONGO-602", "original_text": "Querying with $in operator on the id field of type BigInteger returns zero results There is a problem when trying to query for documents with id field is in a given list of BigInteger values. Id field is mapped as a BigInteger.\nFor example, these lines will work only if given id list contains only one item.\n\n\n\n\n\n\nList<BigInteger> profileIds = findProfileIds();\n\n\n\n\nPredicate predicate = QProfileDocument.profileDocument.id.in(profileIds);\n\n\n\n\nIterable<ProfileDocument> profiles = profileRepository.findAll(predicate);\n\n\n\n\n\n\nThe underlying MongodbQuery is different if there is only one item in profileIds. The query looks like this for a profileIds with multiple elements\n\n\n\n\n\n\n{ \"_id\" : { \"$in\" : [ \"25069473312490162649510603609\" , \"25045916045544535958655878835\"]}}\n\n\n\n\n\n\nand it looks like this when there is only one item in the list.\n\n\n\n\n\n\n{ \"_id\" : { \"$oid\" : \"5100fb776c67e7e092be6b59\"}}\n\n\n\n\n\n\nIn the first case, query will return no results and in the second it will work and return an Iterable with one item.\nAs you can see, the problem is with the representation of the BigInteger. using decimal format will not work with MongoDB.", "resolution_date": "2013-08-07T10:11:51.000-05:00", "stackTraces": [], "title": "queri oper field type biginteg big integ zero result"}
{"codeSnippets": [], "creation_date": "2013-09-04T07:43:44.000-05:00", "description": "describ stackoverflow post spring mongo data retriev index inform index creat mongo shell trisha 10gen trace root caus recommend report guy spring experi found problem defaultindexoper index oper line version spring data mongodb figur issu exist later version did test", "fixed_files": ["org.springframework.data.mongodb.core.MongoTemplateTests", "org.springframework.data.mongodb.core.DefaultIndexOperations"], "key": "DATAMONGO-746", "original_text": "IndexInfo cannot be read for indices created via mongo shell As described in the stackoverflow post, spring mongo data cannot retrieve the index information for an index that has been created via the mongo shell.\nTrisha from 10gen traced the root cause down to this:\n\"I would recommend reporting this to the guys at Spring, you will not be the only one who experiences this. I found the problem in DefaultIndexOperations lines 138 - 141 in version 1.1.1 of spring-data-mongodb.\"\nI figure this issue also exists in later versions though I did not get around to test it myself.", "resolution_date": "2013-10-25T02:15:17.000-05:00", "stackTraces": [], "title": "indexinfo index info read indic creat mongo shell"}
{"codeSnippets": [], "creation_date": "2013-04-09T17:29:02.000-05:00", "description": "creat method queri method name approach answer object field call score annot field score list answer findbyquestionidorderbyscoredesc find question order score desc string questionid question queri run databas attempt sort result score field name", "fixed_files": ["org.springframework.data.mongodb.core.convert.QueryMapperUnitTests"], "key": "DATAMONGO-647", "original_text": "Using \"OrderBy\" in \"query by method name\" ignores the @Field annotation for field alias. I created a method using the \"query by method name\" approach:\nInside my Answer object, I have a field called \"Score\" that is annotated with\n@Field(\"sr\")\nint Score\nList<Answer> findByQuestionIdOrderByScoreDesc(String questionId)\nWhen the query is run, the database attempts to sort the results by \"score\" rather than my \"sr\" field name.", "resolution_date": "2014-05-19T05:42:41.000-05:00", "stackTraces": [], "title": "orderbi order queri method name ignor field annot field alia"}
