{"key":"COMPRESS-119","title":"TarArchiveOutputStream#finish doesn\u0027t flush content to underlying stream","description":"Originally reported against Ant https://issues.apache.org/bugzilla/show_bug.cgi?id\u003d50014\n\nThe finish() method of TarOutputStream does not flush the TarBuffer to the\nunderlying output stream. A subsequent flush() on the TarOutputStream\nunexpectedly does not flush all written data to the underlying stream.\nCase: If an outputStream is tied to a Socket OutputStream, the receiving server\ncan be notified that the stream has finished by calling the\nSocket.shutdownOutput() method while still allowing the server to respond to\nthe client e.g. for sending a status report of the finished data transfer. This\nis in particular usefull if the size of the stream is not known in advance such\nas for a tar stream generated on the fly at the client side.\nThe above case relies on all data being sent to the server before invoking\nSocket.shutdownOutput(). The TarOutputStream finish() method suggests to be\ndoing just this but in practice does not send any remaining data in the\nTarBuffer. Calling the TarOutputStream close() method is not an option in this\ncase since this also closes the Socket connection.\nQuick fix: insert a buffer.flushBlock() statement at the end of the\nTarOutputStream.finish() method.","creation_date":"2010-10-04T12:28:53.000-05:00","resolution_date":"2010-10-26T09:46:00.000-05:00","fixed_files":["org.apache.commons.compress.archivers.tar.TarBuffer","org.apache.commons.compress.archivers.tar.TarArchiveOutputStream"]}
{"key":"COMPRESS-125","title":"BZip2CompressorInputStream throws IOException if underlying stream returns available() \u003d\u003d 0","description":"BZip2CompressorInputStream,init() will throw an IOException, if the passed stream returns 0 for available():\nBZip2CompressorInputStream.java\n\n\n    private void init() throws IOException {\n\n        ...\n\n        if (in.available() \u003d\u003d 0) {\n\n            throw new IOException(\"Empty InputStream\");\n\n        }\n\n        ...\n\n     }\n\n\n\nI think this is not correct, because the underlying stream may indeed be able to only return 0 bytes without blocking but may be able to block a little and then return some more bytes.\nNote also the change in the API documentation from: \"Returns the number of bytes that can be read \" (1.4.2) to \"Returns an estimate of the number of bytes that can be read\".","creation_date":"2011-01-20T10:08:47.000-06:00","resolution_date":"2011-03-23T11:18:17.000-05:00","fixed_files":["org.apache.commons.compress.compressors.bzip2.BZip2CompressorInputStream"]}
{"key":"COMPRESS-117","title":"Certain tar files not recognised by ArchiveStreamFactory","description":"Certain tar files, like this one: http://leo.scruffohio.net/cgi-bin/uploads/lzma912.tar aren\u0027t being recognized by the ArchiveInputStream detector.\nI can open this tar file perfectly well with WinRAR and 7-zip. Neither of these complain. I can also open it with the command tar -xvf. However, I narrowed it down, and it turns out the TarArchiveInputStream.matches() is returning false, even though it is a valid tar file. This glitch should be fixed.","creation_date":"2010-08-11T00:14:34.000-05:00","resolution_date":"2011-03-23T12:50:51.000-05:00","fixed_files":["org.apache.commons.compress.DetectArchiverTestCase","org.apache.commons.compress.archivers.ArchiveStreamFactory"]}
{"key":"COMPRESS-139","title":"ZipFile fails to clean up Inflater resources","description":"This bug has been reported to Ant\u0027s original code as https://issues.apache.org/bugzilla/show_bug.cgi?id\u003d42696 .  It seems as if InflaterInputStream.close() didn\u0027t clean up the Inflater instance if one is passed in to the constructor.  I\u0027m currently testing the patch to Ant and will merge it over once I\u0027m ready.\nThe code in Harmony[1] does invoke inflater.end but calling it again won\u0027t hurt.  OpenJDK\u0027s InflaterInputStream[2] in fact behaves as described in Mounir\u0027s comment to Ant\u0027s Bugzilla.\n[1] http://svn.apache.org/repos/asf/harmony/enhanced/java/trunk/classlib/modules/archive/src/main/java/java/util/zip/InflaterInputStream.java\n[2] http://hg.openjdk.java.net/jdk6/jdk6/jdk/file/506b35a2f558/src/share/classes/java/util/zip/InflaterInputStream.java","creation_date":"2011-07-13T13:40:22.000-05:00","resolution_date":"2011-07-13T13:53:56.000-05:00","fixed_files":["org.apache.commons.compress.archivers.zip.ZipFile"]}
{"key":"COMPRESS-129","title":"\"java.io.EOFException: Truncated ZIP entry: \u003csome entry\u003e\"- while extracting a zip file that contains a entry which lager than 2 GB (Integer#MAX_VALUE)","description":"Issue:\n\"java.io.EOFException: Truncated ZIP entry: \u003csome entry\u003e\" will be threw while extracting a zip file that contains a entry with size larger than Integer#MAX_VALUE bytes (about 2 GB). After the big entry has been read, then try to get next entry by calling ZipArchiveInputStream#getNextZipEntry(), and it throws that EOFException.\nCause:\nbefore getting next zip entry, ZipArchiveInputStream tries to close the current entry and in the close- method it use the field \"bytesReadFromStream\" to ensure all entry bytes are read, however the field \"bytesReadFromStream\" is a integer, that means it is already overflowed and it leads to a false ensure result.\nSolution suggestion:\ninstead integer using long for \"bytesReadFromStream\" and possibly for \"readBytesOfEntry\" too.","creation_date":"2011-05-12T13:13:56.000-05:00","resolution_date":"2011-07-26T14:14:21.000-05:00","fixed_files":["org.apache.commons.compress.archivers.zip.ZipArchiveInputStream","org.apache.commons.compress.archivers.zip.ZipUtil","org.apache.commons.compress.archivers.zip.ZipArchiveOutputStream"]}
{"key":"COMPRESS-131","title":"ArrayOutOfBounds while decompressing bz2","description":"Decompressing a bz2 file generated by bzip2 utility throws an ArrayIndexOutOfBounds at method recvDecodingTables() line 469.\nI believe it is related to encodings used to generate the original text file (the compressed file).","creation_date":"2011-06-03T16:25:45.000-05:00","resolution_date":"2012-02-23T01:31:59.000-06:00","fixed_files":["org.apache.commons.compress.compressors.BZip2TestCase"]}
