{"id":3391,"bug_id":"WFCORE-1027","text":"Inconsistent read-resource results with host scoped roles. When using a role which only selects the master there is no access-control response header showing the filtered resources, and the slave wrongly appears in the results:                                                              When using a role that only selects the slave we get a proper access-control header                                                                                master-monitor should behave the same as slave-maintainer.","file_goldset":["org.jboss.as.test.integration.domain.rbac.ListRoleNamesTestCase","org.jboss.as.test.integration.domain.rbac.WildcardReadsTestCase","org.jboss.as.test.integration.domain.rbac.JmxRBACProviderHostScopedRolesTestCase","org.jboss.as.test.integration.domain.rbac.RBACProviderHostScopedRolesTestCase","org.jboss.as.test.integration.domain.rbac.AbstractHostScopedRolesTestCase","org.jboss.as.controller.operations.global.GlobalOperationHandlers"],"creation_date":"2015-10-01T18:16:10.000-05:00","resolution_date":"2015-10-06T16:00:01.000-05:00"}
{"id":3392,"bug_id":"WFCORE-1062","text":"Deployments from the domain/data/content folder goes missing after few minutes if the Host controller is started with --backup option.. Host controller started with --backup option deletes the deployments from the domain/data/content folder after approximately 10 mins. The deployment is restored or recreated if the HostController is started.             6. deployments are available under $JBOSS_HOME/domain/data/content  8. Cached deployments are deleted on hostcontroller (domain/data/content is empty). Following is the logging seen on the console :     9. After restarting the Host Controller, the deployment is restored and the cached deployment can now be seen under the Host Controller\u0027s domain/data/content folder. Actual results: Deployment folder form domain/data/content folder gets deleted after approx 10 mins and are restored if the Host Controller is restarted Expected results: The cached deplpyments folder should never be removed from the HostController\u0027s domain/data/content folder.","file_goldset":["org.jboss.as.domain.controller.resources.DomainDeploymentResourceDefinition","org.jboss.as.domain.controller.operations.deployment.DeploymentAddHandler","org.jboss.as.controller.persistence.FilePersistenceUtils","org.jboss.as.server.deployment.ContentCleanerService","org.jboss.as.repository.ContentRepository"],"creation_date":"2015-10-20T09:33:46.000-05:00","resolution_date":"2015-10-22T13:43:41.000-05:00"}
{"id":3393,"bug_id":"WFCORE-815","text":"One profile can have more ancestors with same submodules. One profile can have more ancestors with same submodules. It leads to WFLYCTL0212: Duplicate resource [(\"subsystem\" \u003d\u003e \"subsystem_name\")] .                  No errors.","file_goldset":["org.jboss.as.host.controller.logging.HostControllerLogger","org.jboss.as.domain.controller.operations.SocketBindingGroupIncludesHandlerTestCase","org.jboss.as.domain.controller.operations.ProfileIncludesHandlerTestCase"],"creation_date":"2015-07-13T07:57:45.000-05:00","resolution_date":"2015-07-15T13:34:32.000-05:00"}
{"id":3394,"bug_id":"WFCORE-1028","text":"Poor handling of invalid roles. A CLI request with an invalid value in the \"roles\" header results in improper behavior:       The op should fail because the role doesn\u0027t exist, but there is no failure-description. The following is dumped in the HC log:","file_goldset":["org.jboss.as.controller.logging.ControllerLogger","org.jboss.as.controller.operations.global.GlobalOperationHandlers","org.jboss.as.test.integration.domain.ServerManagementTestCase","org.jboss.as.controller.access.rbac.RoleMapper"],"creation_date":"2015-10-01T19:12:08.000-05:00","resolution_date":"2016-04-16T11:14:27.000-05:00"}
{"id":3395,"bug_id":"WFCORE-1007","text":"Warnings about missing notification descriptions when an operation removes an extension. When I use migration operation the console log is filled with warning messages of type                       then I the log looks like                                                                                                                     I think that the migration operation should not show those warnings.","file_goldset":["org.jboss.as.controller.logging.ControllerLogger","org.jboss.as.controller.AbstractOperationContext"],"creation_date":"2015-09-24T06:45:11.000-05:00","resolution_date":"2015-09-25T15:39:44.000-05:00"}
