{"id":3388,"bug_id":"WFCORE-1552","text":"Slaves should report the master\u0027s version in the domain model. Setting up the mixed domain tests for an EAP7 slave, I get the following error :                           product-name, product-version, release-codename and release-version on the slave should be the same as the master values.","file_goldset":["org.jboss.as.domain.controller.operations.SyncModelServerStateTestCase","org.jboss.as.domain.controller.operations.SyncModelOperationHandler"],"creation_date":"2016-05-13T14:57:20.000-05:00","resolution_date":"2016-11-04T22:26:25.000-05:00"}
{"id":3389,"bug_id":"WFCORE-1715","text":"HostProcessReloadHandler does not reset the HostRunningModeControl\u0027s restartMode. The ReloadContext created by HostProcessReloadHandler sets the HostRunningModeControl\u0027s restartMode but then it never gets restored to the default value. The doReload() method of the ReloadContext should restore it. This ensures the ServerInventoryService.stop() only uses the value set by HostProcessReloadHandler once, for that one reload. A concern here is that ServerInventoryService only goes into its \"shutdownServers\" logic if the restartMode \u003d\u003d RestartMode.SERVERS.  But if we restore the default value of restartMode, that is null, and null ! \u003d RestartMode.SERVERS. So the \"\"shutdownServers\" logic will no longer kick in.","file_goldset":["org.jboss.as.host.controller.operations.StartServersHandler"],"creation_date":"2016-08-15T19:04:54.000-05:00","resolution_date":"2016-08-31T21:55:37.000-05:00"}
{"id":3390,"bug_id":"WFCORE-1657","text":"Confusing tab completion for adding a module dependencies. Using tab completion for adding a module dependencies with module add command could lead to invalid module.xml as CLI prompt user to use module name with \"system.layers.base\" prefix, which is not a part of module name.           this way something like following is generated in module.xml file    however correct module name is org.jboss.as.controller","file_goldset":["org.jboss.as.cli.handlers.module.ASModuleHandler"],"creation_date":"2016-07-15T11:51:17.000-05:00","resolution_date":"2016-09-19T17:13:58.000-05:00"}
