{"key":"OPENJPA-1787","title":"","description":"If you try to merge a new entity.   EntityManager em \u003d entityManagerFactory.createEntityManager();\n        Person person \u003d new Person();\n        person.setName(\"Oliver\");                               // Employee.name is annotated @NotNull \n        person \u003d em.merge(person);"}
{"key":"OPENJPA-1903","title":"","description":"Basically I have two Entities which both use multiple Ids to produce the Primary Key, \"Preis\" contains a foreign key on \"Website\":    I use the following to set up a website and a Preis:      Afterwards, if I run the query as follows:   However if I put the query as     @Entity\n@IdClass(MandantAndNameIdentity.class)\npublic class Website {\n    @Id\n    private String mandant;\n   \n    @Id\n    private String name;\n...\n}\n\n @Entity\n@IdClass(WebsiteProduktDatumIdentity.class)\npublic class Preis {\n    @Id\n    @ManyToOne(cascade \u003d CascadeType.MERGE)\n    private Website website;\n\n    @Id\n    @Basic\n    private String datum;\n...\n}\n\n em.getTransaction().begin();\n\n        Website website \u003d em.merge(new Website(\"Mandant\", \"Website\"));\n\n        em.merge(new Preis(website, DATUM));\n       \n        em.getTransaction().commit();\n\n TypedQuery\u003cPreis\u003e q \u003d em.createQuery(\n                \"select m from Preis m \" +\n                \"where m.website.name \u003d :website \", Preis.class);\n       q.setParameter(\"website\", website.getName());\n\n TypedQuery\u003cPreis\u003e q \u003d em.createQuery(\n                \"select m from Preis m \" +\n                \"where m.website \u003d :website \", Preis.class);\n        q.setParameter(\"website\", website);"}
{"key":"OPENJPA-1912","title":"","description":"If openjpa.DetachState \u003dfetch-groups is used, the enhancer will add a \u0027implements Externalizable\u0027 + writeExternal + readExternal.   Example:                           @Entity\npublic abstract class AbstractGroup {\n   ...\n    @Temporal(TemporalType.TIMESTAMP)\n    @TrackChanges\n    private Date applicationBegin;\n ...\n}\n\n @Entity\npublic class Group extends AbstractGroup {\n...\n}\n\n public void writeExternal(ObjectOutput objectoutput)\n        throws IOException\n     pcWriteUnmanaged(objectoutput);\n        if(pcStateManager !\u003d null)\n        {\n            if(pcStateManager.writeDetached(objectoutput))\n                return;\n        } else\n        {\n            objectoutput.writeObject(pcGetDetachedState());\n            objectoutput.writeObject(null);\n        }\n        objectoutput.writeObject(applicationBegin);\n        objectoutput.writeObject(applicationEnd);\n        objectoutput.writeObject(applicationLocked);\n        objectoutput.writeObject(approvalRequired);"}
{"key":"OPENJPA-1918","title":"","description":"We pass the appliation class loeader as part of our PersistenceUnitInfo implementation by returning it from PersistenceUnitInfo.getClassLoader().                                                         PersistenceUnitInfo.getClassLoader() MetaDataRepository.preload()  PersistenceUnitInfo.getClassLoader()  PersistenceProvider.createContainerEntityManagerFactory() MetaDatRepository.preload()"}
{"key":"OPENJPA-1928","title":"","description":"For example:\n        @Persistent(optional \u003d false)\n\t@Column(name \u003d \"STATUS\")\n\t@Externalizer(\"getName\")\n\t@Factory(\"valueOf\")\n\tpublic OrderStatus getStatus() {\n\t\treturn this.status;\n\t}      @Factory @Persistent(optional \u003d false)\n\t@Column(name \u003d \"STATUS\")\n\t@Externalizer(\"getName\")\n\t@Factory(\"valueOf\")\n\tpublic OrderStatus getStatus() {\n\t\treturn this.status;\n\t}\n\n public class OrderStatus {\n   public static OrderStatus valueOf(final int ordinal) {\n        return valueOf(ordinal, OrderStatus.class);\n    }\n    \n    public static OrderStatus valueOf(final String name) {\n        return valueOf(name, OrderStatus.class);\n    }\n}\n\n valueOf(String)  valueOf(String)"}
{"key":"OPENJPA-1986","title":"","description":"See the following example:    and the following scenario:\nCascadePersistEntity cpe1 \u003d new CascadePersistEntity(1);\nCascadePersistEntity cpe2 \u003d new CascadePersistEntity(2);\ncpe1.setOther(cpe2);\nem.persist(cpe1);   @Entity\npublic class CascadePersistEntity implements Serializable {\n    private static final long serialVersionUID \u003d -8290604110046006897L;\n\n    @Id\n    long id;\n\n    @OneToOne(cascade \u003d CascadeType.ALL)\n    CascadePersistEntity other;\n...\n}\n\n CascadePersistEntity cpe1 \u003d new CascadePersistEntity(1);\nCascadePersistEntity cpe2 \u003d new CascadePersistEntity(2);\ncpe1.setOther(cpe2);\nem.persist(cpe1);"}
