{"codeSnippets": [], "creation_date": "2004-12-18T09:09:13.000-06:00", "description": "filenamefilt filenam filter observ senset couldn't find exist common librari meet requir thrown regexfilefilt regex file filter accompani unit test fill pleas add appli common necessari don't way attach file cut past copyright apach softwar foundat licens apach licens version licens file complianc licens obtain copi licens http www apach org licens licens requir applic law agre write softwar distribut licens distribut basi warranti condit express impli licens specif languag govern permiss limit licens org apach common filefilt java file java ioexcept org apach common filefilt abstractfilefilt file filter org apach regexp org apach regexp resyntaxexcept syntax filter file base regular express match entir filenam drive path name particular note filter abil express senset exampl retriev print file contain string code xyz code current directori regular express code xyz code pre file dir file string file dir list regexfilefilt regex file filter xyz file length system println file pre match insenset code regexfilefilt regex file filter xyz code appropri author semir patel regexfilefilt regex file filter abstractfilefilt file filter field regular express matcher regexp reg exp constructor creat file filter appli regular express entir path name file absolut locat param regexp reg exp regular express match param matchcas match set match senset resyntaxexcept syntax regular express invalid regexfilefilt regex file filter string regexp reg exp matchcas match resyntaxexcept syntax regexp reg exp regexp reg exp matchcas match match normal match caseindepend overrid abstractfilefilt file filter accept match filenam regular express runtimeexcept runtim ioexcept occur org apach common filefilt abstractfilefilt file filter accept java file accept file file regexp reg exp match file getcanonicalpath canon path ioexcept todo follow common exist practic runtimeexcept runtim copyright apach softwar foundat licens apach licens version licens file complianc licens obtain copi licens http www apach org licens licens requir applic law agre write softwar distribut licens distribut basi warranti condit express impli licens specif languag govern permiss limit licens org apach common filefilt java file junit framework testcas test junit textui testrunn test runner org apach common fileutil file util org apach regexp resyntaxexcept syntax unit test link regexfilefiltertest regex file filter test author semir patel regexfilefiltertest regex file filter test testcas test constant temporari file name unit test verif string filenam string event java field test directori filter file file testdir test dir main entrypoint param arg recogn main string arg testrunn test runner run regexfilefiltertest regex file filter test overrid testcas test creat temporari directori file test setup set file tmpdir tmp dir file system getproperti properti java tmpdir testdir test dir file createtempfil creat temp file temp tmpdir tmp dir testdir test dir delet asserttru test dir creation fail testdir test dir getcanonicalpath canon path testdir test dir mkdir filenam length fileutil file util writestringtofil write string file file testdir test dir filenam test utf clean temporari directori teardown tear fileutil file util forcedelet forc delet testdir test dir teardown tear insenset testaccept test accept caseinsenset insenset notfound found iofilefilt file filter filter regexfilefilt regex file filter bogu string match testdir test dir list filter assertequ equal match found match length testaccept test accept caseinsenset insenset casematch match iofilefilt file filter filter regexfilefilt regex file filter event string match testdir test dir list filter assertequ equal match found match length assertequ equal match found event java match testaccept test accept caseinsenset insenset casemismatch mismatch iofilefilt file filter filter regexfilefilt regex file filter event string match testdir test dir list filter assertequ equal match found match length assertequ equal match found event java match senset testaccept test accept casesenset senset notfound found iofilefilt file filter filter regexfilefilt regex file filter bogu string match testdir test dir list filter assertequ equal match found match length testaccept test accept casesenset senset exactmatch exact match iofilefilt file filter filter regexfilefilt regex file filter event string match testdir test dir list filter assertequ equal match found match length assertequ equal match found event java match testaccept test accept casesenset senset casemismatch mismatch iofilefilt file filter filter regexfilefilt regex file filter event string match testdir test dir list filter assertequ equal match found match length neg unit test make sure constructor blow invalid regular express testconstructor test constructor invalid regexp reg exp regexfilefilt regex file filter filter regexfilefilt regex file filter fail expect invalid regular express resyntaxexcept syntax rese success", "fixed_files": ["org.apache.commons.io.filefilter.FileFilterUtils", "org.apache.commons.io.filefilter.FileFilterTestCase"], "key": "IO-66", "original_text": "[IO] FilenameFilter that uses regular expressions (upload) I was in need of a FilenameFilter that observed case-sensetivity and couldn't\nfind anything in the existing commons-io library to meet this requirement. So,\nI've thrown together RegexFileFilter and an accompanying unit test to fill the\nvoid. Please add/apply to commons-io as necessary.\n-sp\nI don't see a way to attach files so heres the cut-n-paste:\n================================================================================\n/*\n\nCopyright 2002-2004 The Apache Software Foundation.\n\nLicensed under the Apache License, Version 2.0 (the \"License\");\nyou may not use this file except in compliance with the License.\nYou may obtain a copy of the License at\n\nhttp://www.apache.org/licenses/LICENSE-2.0\n\nUnless required by applicable law or agreed to in writing, software\ndistributed under the License is distributed on an \"AS IS\" BASIS,\nWITHOUT WARRANTIES OR CONDITIONS OF ANY KIND, either express or implied.\nSee the License for the specific language governing permissions and\nlimitations under the License.\n */\npackage org.apache.commons.io.filefilter;\n\nimport java.io.File;\nimport java.io.IOException;\nimport org.apache.commons.io.filefilter.AbstractFileFilter;\nimport org.apache.regexp.RE;\nimport org.apache.regexp.RESyntaxException;\n/**\n\nFilters files based on a regular expression that is matched against the\nentire filename (including drive, path, and name). Of particular note about\nthis filter is the ability to express case-sensetivity.\n\n<p>\nFor example, to retrieve and print all files that contain the string\n<code>\"xyz\"</code> in the current directory, the regular expression\n<code>\".xyz.\"</code> can be used:\n *\n<pre>\nFile dir = new File(\".\");\nString[] files = dir.list(new RegexFileFilter(\".xyz.\", true));\nfor (int i = 0; i < files.length; i++) \n{\n *     System.out.println(files[i]);\n * }\n</pre>\n\nTo match using case-insensetivity,\n<code>new RegexFileFilter(\".xyz.\", false)</code> would be appropriate.\n\n@author Semir Patel\n */\npublic class RegexFileFilter extends AbstractFileFilter {\n\n    //--------------------------------------------------------------------------\n    // Fields\n    //--------------------------------------------------------------------------\n    /** \n\nRegular expression matcher.\n     */\n    private RE regExp;\n\n    //--------------------------------------------------------------------------\n    // Constructors\n    //--------------------------------------------------------------------------\n    /**\n\nCreates a file filter that applies a regular expression to the entire\npath + name of a file's absolute location.\n\n@param regExp Regular expression to match.\n@param matchCase Set to true to match using case sensetivity, false\notherwise.\n@throws RESyntaxException if the regular expression is invalid.\n     */\n    public RegexFileFilter(String regExp, boolean matchCase)\n        throws RESyntaxException \n{\n        \n        this.regExp = new RE(regExp, \n            matchCase ? RE.MATCH_NORMAL: RE.MATCH_CASEINDEPENDENT);        \n    }\n\n    //--------------------------------------------------------------------------\n    // Overrides AbstractFileFilter\n    //--------------------------------------------------------------------------\n    /**\n\nAccepts by matching the filename against a regular expression.\n\n@throws RuntimeException if an IOException occurs.\n@see org.apache.commons.io.filefilter.AbstractFileFilter#accept(\njava.io.File)\n     */\n    public boolean accept(File file) {\n\n        try \n{\n            return regExp.match(file.getCanonicalPath());\n        }\n        catch (IOException e) \n{\n            \n            // TODO: Follow commons-io existing practice...\n            throw new RuntimeException(e);\n        }\n    }\n}\n==========================================================================\n/*\n\nCopyright 2002-2004 The Apache Software Foundation.\n\nLicensed under the Apache License, Version 2.0 (the \"License\");\nyou may not use this file except in compliance with the License.\nYou may obtain a copy of the License at\n\nhttp://www.apache.org/licenses/LICENSE-2.0\n\nUnless required by applicable law or agreed to in writing, software\ndistributed under the License is distributed on an \"AS IS\" BASIS,\nWITHOUT WARRANTIES OR CONDITIONS OF ANY KIND, either express or implied.\nSee the License for the specific language governing permissions and\nlimitations under the License.\n */\npackage org.apache.commons.io.filefilter;\n\nimport java.io.File;\nimport junit.framework.TestCase;\nimport junit.textui.TestRunner;\nimport org.apache.commons.io.FileUtils;\nimport org.apache.regexp.RESyntaxException;\n/**\n\nUnit test for \n{@link RegexFileFilterTest}\n.\n\n@author Semir Patel\n */\npublic class RegexFileFilterTest extends TestCase {\n\n    //--------------------------------------------------------------------------\n    // Constants\n    //--------------------------------------------------------------------------\n    /**\n\nTemporary file names that unit tests will use for verification.\n     */\n    private static final String[] FILENAMES = new String[] \n{\n        \"EVENT.java\",\n    }\n;\n\n    //--------------------------------------------------------------------------\n    // Fields\n    //--------------------------------------------------------------------------\n    /** \n\nTest directory for filtering files.\n     */\n    private File testDir;\n\n    //--------------------------------------------------------------------------\n    // Main\n    //--------------------------------------------------------------------------\n    /** \n\nEntrypoint.\n\n@param args None recognized.\n     */\n    public static void main(String[] args)\n    {\n        TestRunner.run(RegexFileFilterTest.class);\n    }\n\n    //--------------------------------------------------------------------------\n    // Overrides TestCase\n    //--------------------------------------------------------------------------\n    /** \n\nCreate a temporary directory with files to use for testing.\n     */\n    protected void setUp() throws Exception \n{\n        \n        File tmpDir = new File(System.getProperty(\"java.io.tmpdir\"));\n        testDir = File.createTempFile(\"temp\", \"\", tmpDir);\n        testDir.delete();\n        \n        assertTrue(\n            \"test dir creation failed for \" + testDir.getCanonicalPath(), \n            testDir.mkdirs()); \n        \n        for (int i = 0; i < FILENAMES.length; i++)\n            FileUtils.writeStringToFile(\n                new File(testDir, FILENAMES[i]), \"testing\" + i, \"UTF-8\");\n    }\n\n    /**\n\nClean up temporary directory.\n     */\n    protected void tearDown() throws Exception \n{\n        FileUtils.forceDelete(testDir);\n        super.tearDown();\n    }\n\n    //--------------------------------------------------------------------------\n    // Case Insensetive \n    //--------------------------------------------------------------------------\n    public void testAccept_CaseInsensetive_NotFound() throws Exception \n{\n        IOFileFilter filter = new RegexFileFilter(\"bogus\", false);\n        \n        String matches[] = testDir.list(filter);\n        assertEquals(\"No matches should have been found\", 0, matches.length);\n    }\n \n    public void testAccept_CaseInsensetive_CaseMatch() throws Exception \n{\n        IOFileFilter filter = new RegexFileFilter(\"EVENT\", false);\n        \n        String matches[] = testDir.list(filter);\n        assertEquals(\"One match should have been found\", 1, matches.length);\n        assertEquals(\"One match should have been found\", \"EVENT.java\", matches[0]);\n    }\n \n    public void testAccept_CaseInsensetive_CaseMismatch() throws Exception \n{\n        IOFileFilter filter = new RegexFileFilter(\"event\", false);\n        \n        String matches[] = testDir.list(filter);\n        assertEquals(\"One match should have been found\", 1, matches.length);\n        assertEquals(\"One match should have been found\", \"EVENT.java\", matches[0]);\n    }\n\n    //--------------------------------------------------------------------------\n    // Case Sensetive \n    //--------------------------------------------------------------------------\n    public void testAccept_CaseSensetive_NotFound() throws Exception \n{\n        IOFileFilter filter = new RegexFileFilter(\"bogus\", true);\n        \n        String matches[] = testDir.list(filter);\n        assertEquals(\"No matches should have been found\", 0, matches.length);\n    }\n \n    public void testAccept_CaseSensetive_ExactMatch() throws Exception \n{\n        IOFileFilter filter = new RegexFileFilter(\"EVENT\", true);\n        \n        String matches[] = testDir.list(filter);\n        assertEquals(\"One match should have been found\", 1, matches.length);\n        assertEquals(\"One match should have been found\", \"EVENT.java\", matches[0]);\n    }\n \n    public void testAccept_CaseSensetive_CaseMismatch() throws Exception \n{\n        IOFileFilter filter = new RegexFileFilter(\"event\", true);\n        \n        String matches[] = testDir.list(filter);\n        assertEquals(\"No matches should have been found\", 0, matches.length);\n    }\n \n    //--------------------------------------------------------------------------\n    // Negative Unit Tests\n    //--------------------------------------------------------------------------\n    /**\n\nMake sure constructor blows up on invalid regular expressions.\n     */\n    public void testConstructor_Invalid_RegExp() {\n\n        try \n{\n            RegexFileFilter filter = new RegexFileFilter(\"*\", true);\n            fail(\"Expected exception on invalid regular expression\");\n        }\n        catch (RESyntaxException rese) \n{\n            // Success\n        }\n    }\n}", "resolution_date": "2007-10-12T22:13:25.000-05:00", "stackTraces": [], "title": "filenamefilt filenam filter regular express upload"}
{"codeSnippets": [], "creation_date": "2006-01-30T20:35:37.000-06:00", "description": "written regexfilt regex filter common share hope there'l jdk branch soon appli", "fixed_files": ["org.apache.commons.io.filefilter.FileFilterUtils", "org.apache.commons.io.filefilter.FileFilterTestCase"], "key": "IO-74", "original_text": "Regular expression file name filter implementation I've written a RegexFilter for commons-io. I'd like to share it with other's.\nHope there'll be a JDK 1.4+ branch soon, so this can be applied.", "resolution_date": "2007-10-13T01:37:54.000-05:00", "stackTraces": [], "title": "regular express file name filter implement"}
{"codeSnippets": [], "creation_date": "2007-11-20T12:08:09.000-06:00", "description": "hexdump hex dump two dump method alter instanc stringbuff string buffer dump modifi stringbuff string buffer variabl lbuffer lbuffer dump modifi stringbuff string buffer variabl cbuffer cbuffer method call dump outputstream output stream method multipl thread call dump method time caus stringbuff string buffer contain mix data result bug", "fixed_files": ["org.apache.commons.io.HexDump"], "key": "IO-136", "original_text": "HexDump's use of static StringBuffers isn't thread-safe HexDump has two private static dump() method's that alter static instances of StringBuffer:\ndump(long) modifies static StringBuffer variable _lbuffer returning _lbuffer \ndump(char) modifies static StringBuffer variable _cbuffer returning _cbuffer\nBoth these methods are called by the public static dump(byte[], long, OutputStream, int) method. Multiple threads calling the public dump method at the same time could cause these StringBuffer to contain mixed up data and result in a bug.", "resolution_date": "2007-11-20T12:36:43.000-06:00", "stackTraces": [], "title": "hexdump hex dump stringbuff string buffer isn't thread safe"}
{"codeSnippets": [], "creation_date": "2007-12-27T21:34:13.000-06:00", "description": "it'd nice filter regexpfilefilt regexp file filter reff regexpfilefilt regexp file filter did wildcardfilt wildcard filter nice insuffic", "fixed_files": ["org.apache.commons.io.filefilter.FileFilterUtils", "org.apache.commons.io.filefilter.FileFilterTestCase"], "key": "IO-150", "original_text": "Add a RegexpFilenameFilter It'd be nice to have a filter like this:\nRegexpFileFilter reff = new RegexpFileFilter(\"^did\n{1,3}\n,+\");\nWildcardFilter is nice but insufficent.", "resolution_date": "2007-12-28T11:02:58.000-06:00", "stackTraces": [], "title": "add regexpfilenamefilt regexp filenam filter"}
{"codeSnippets": [], "creation_date": "2007-12-18T13:04:55.000-06:00", "description": "orphan softlink exist anymor softlink remov happen call fileutil file util deletedirectori delet directori link target delet earlier link caus ugli file exist call forcedelet forc delet file exist filenotfoundexcept file found file exist file check done work expect think test neccesseri caus file delet test better pleas discuss chang thanx stefan", "fixed_files": ["org.apache.commons.io.FileUtils", "org.apache.commons.io.FileUtilsTestCase"], "key": "IO-147", "original_text": "Deletion of orphaned Softlinks does not work If there is an orphaned softlink a -> b, but b does not exists anymore than the softlink will not be removed. This happens when you call FileUtils.deleteDirectory() and when the linked target b is deleted earlier than the link.\nThis is caused by the \"ugly\" file.exists() call in forceDelete()\nif (!file.exists()) {\n         throw new FileNotFoundException(\"File does not exist: \" + file);\n}\nif this check is not done, everything works as expected. I think this test is not neccessery, cause file.delete will test this better.\nPlease discuss and change this.\nthanx\nStefan ", "resolution_date": "2008-01-04T12:32:51.000-06:00", "stackTraces": [], "title": "delet orphan softlink work"}
{"codeSnippets": [], "creation_date": "2007-11-30T22:09:59.000-06:00", "description": "attempt copi directori destin directori sourc directori inifinit loop occur copydirectori copi directori caus common creat folder stop reach limit code recreat bug fileutil file util copydirectori copi directori file temp test file temp test file separ date gettim time make sure temp test exist", "fixed_files": ["org.apache.commons.io.FileUtils", "org.apache.commons.io.FileUtilsTestCase"], "key": "IO-141", "original_text": "Infinite loop on FileUtils.copyDirectory when the destination directory is within the source directory When you attempt to copy a directory and the destination directory is inside the source directory an inifinite loop occurs in the copyDirectory causing Commons-IO to create a folder w/o stopping until its reaches OS limitation.\nThis code will recreate the bug:\nFileUtils.copyDirectory(new File(\"C:\\\\temp\\\\test-io\\\\a.\"), new File(\"C:\\\\temp\\\\test-io\\\\a.\" + File.separator + new Date().getTime()));\nMake sure C:\\temp\\test-io\\a exists", "resolution_date": "2008-01-05T15:15:36.000-06:00", "stackTraces": [], "title": "infinit loop fileutil file util copydirectori copi directori destin directori sourc directori"}
{"codeSnippets": [], "creation_date": "2008-03-28T15:38:29.000-05:00", "description": "filesystemutil file system util freespac free space fail test solari follow patch fix test pass redhat red hat centos4 cent centos5 cent solari sparc sparc fix forc usr xpg4 bin solari posix version mean output pars work expect index src java org apach common filesystemutil file system util java file cvsroot upstream jpackag jakarta common src java org apach common filesystemutil file system util java retriev revis retriev revis diff src java org apach common filesystemutil file system util java mar src java org apach common filesystemutil file system util java mar oper system flag path string dfpath path osnam name indexof index window window osnam name indexof index linux osnam name indexof index sun osnam name indexof index suno osnam name indexof index solari osnam name indexof index mpe osnam name indexof index freebsd osnam name indexof index irix osnam name indexof index unix osnam name indexof index mac unix osnam name indexof index sun osnam name indexof index suno osnam name indexof index solari posix unix dfpath path usr xpg4 bin osnam name indexof index osnam name indexof index aix posix unix link freespacekb free space string result kilobyt note current support openvm open suno sun suno sun support code freespacekb free space code openvm open pre filesystemutil file system util freespac free space window filesystemutil file system util freespac free space volum nix flag string cmdattrib cmd attrib flag length string flag path string path flag length string dfpath path flag path string dfpath path path perform command ask line header interest overflow list line performcommand perform command cmdattrib cmd attrib line size unknown problem ioexcept command line did info expect command line dfpath path did info expect path path respons line string line2 string line line we'r interest tok stringtoken string token line3 ioexcept command line did data expect command line dfpath path did data expect path path check path valid parselong pars freespac free space ioexcept command line did find free space respons command line dfpath path did find free space respons path path check path valid numberformatexcept number format ioexcept command line did numer data expect command line dfpath path did numer data expect path path check path valid index src test org apach common filesystemutilstestcas file system util test java file cvsroot upstream jpackag jakarta common src test org apach common filesystemutilstestcas file system util test java retriev revis retriev revis diff src test org apach common filesystemutilstestcas file system util test java mar src test org apach common filesystemutilstestcas file system util test java mar figur unix block size string cmd string osnam name system getproperti properti name osnam name osnam name tolowercas lower osnam name indexof index osnam name indexof index aix cmd string osnam name indexof index suno osnam name indexof index sun osnam name indexof index solari cmd string usr xpg4 bin cmd string", "fixed_files": ["org.apache.commons.io.FileSystemUtils", "org.apache.commons.io.FileSystemUtilsTestCase"], "key": "IO-160", "original_text": "[patch] FileSystemUtils.freeSpace fails on solaris  FileSystemUtils.freeSpace fails its tests on Solaris.  The following patch fixes it, and with it all tests pass on:\nRedHat (FC7, EL3, EL4, CentOS4, CentOS5) and Solaris (8, 9-sparc, 9-i386, 10-sparc, 10-i386).\nThe fix is to force the use of /usr/xpg4/bin/df on Solaris, which is the posix version.  This then means that the output-parsing works as expected.\nIndex: src/java/org/apache/commons/io/FileSystemUtils.java\n===================================================================\nRCS file: /cvsroot/upstream/jpackage/jakarta-commons-io/src/java/org/apache/commons/io/FileSystemUtils.java,v\nretrieving revision 1.1.1.1\nretrieving revision 1.1.1.1.2.3\ndiff -u -r1.1.1.1 -r1.1.1.1.2.3\n src/java/org/apache/commons/io/FileSystemUtils.java 2 Mar 2007 06:31:03 -0000       1.1.1.1\n+++ src/java/org/apache/commons/io/FileSystemUtils.java 28 Mar 2008 11:56:06 -0000      1.1.1.1.2.3\n@@ -64,6 +64,10 @@\n     /** The operating system flag. */\n     private static final int OS;\n+\n+    /** The path to df */\n+    private static String dfPath = \"df\";\n+\n     static {\n         int os = OTHER;\n         try {\n@@ -76,9 +80,6 @@\n             if (osName.indexOf(\"windows\") != -1) \n{\n                 os = WINDOWS;\n             }\n else if (osName.indexOf(\"linux\") != -1 ||\n\nosName.indexOf(\"sun os\") != -1 ||\nosName.indexOf(\"sunos\") != -1 ||\nosName.indexOf(\"solaris\") != -1 ||\n                 osName.indexOf(\"mpe/ix\") != -1 ||\n                 osName.indexOf(\"freebsd\") != -1 ||\n                 osName.indexOf(\"irix\") != -1 ||\n@@ -86,6 +87,11 @@\n                 osName.indexOf(\"unix\") != -1 ||\n                 osName.indexOf(\"mac os x\") != -1) \n{\n                 os = UNIX;\n+            }\n else if (osName.indexOf(\"sun os\") != -1 ||\n+                osName.indexOf(\"sunos\") != -1 ||\n+                osName.indexOf(\"solaris\") != -1) \n{\n+                os = POSIX_UNIX;\n+                dfPath = \"/usr/xpg4/bin/df\";\n             }\n else if (osName.indexOf(\"hp-ux\") != -1 ||\n                 osName.indexOf(\"aix\") != -1) {\n                 os = POSIX_UNIX;\n@@ -116,7 +122,7 @@\n\n\nof \n{@link #freeSpaceKb(String)}\n which returns a result in kilobytes.\n<p>\nNote that some OS's are NOT currently supported, including OS/390,\n\n\n* OpenVMS and and SunOS 5. (SunOS is supported by <code>freeSpaceKb</code>.)\n+     * OpenVMS. \n\n\n<pre>\nFileSystemUtils.freeSpace(\"C:\");       // Windows\nFileSystemUtils.freeSpace(\"/volume\");  // *nix\n@@ -317,14 +323,14 @@\n             flags += \"P\";\n         }\n         String[] cmdAttribs = \n\n\n(flags.length() > 1 ? new String[] \n{\"df\", flags, path}\n : new String[] \n{\"df\", path}\n);\n+            (flags.length() > 1 ? new String[] \n{dfPath, flags, path}\n : new String[] \n{dfPath, path}\n);\n\n         // perform the command, asking for up to 3 lines (header, interesting, overflow)\n         List lines = performCommand(cmdAttribs, 3);\n         if (lines.size() < 2) \n{\n             // unknown problem, throw exception\n             throw new IOException(\n-                    \"Command line 'df' did not return info as expected \" +\n+                    \"Command line '\" + dfPath + \"' did not return info as expected \" +\n                     \"for path '\" + path + \"'- response was \" + lines);\n         }\n         String line2 = (String) lines.get(1); // the line we're interested in\n@@ -338,7 +344,7 @@\n                 tok = new StringTokenizer(line3, \" \");\n             } else \n{\n                 throw new IOException(\n-                        \"Command line 'df' did not return data as expected \" +\n+                        \"Command line '\" + dfPath + \"' did not return data as expected \" +\n                         \"for path '\" + path + \"'- check path is valid\");\n             }\n         } else {\n@@ -364,14 +370,14 @@\n             long bytes = Long.parseLong(freeSpace);\n             if (bytes < 0) \n{\n                 throw new IOException(\n-                        \"Command line 'df' did not find free space in response \" +\n+                        \"Command line '\" + dfPath + \"' did not find free space in response \" +\n                         \"for path '\" + path + \"'- check path is valid\");\n             }\n             return bytes;\n         } catch (NumberFormatException ex) \n{\n             throw new IOException(\n-                    \"Command line 'df' did not return numeric data as expected \" +\n+                    \"Command line '\" + dfPath + \"' did not return numeric data as expected \" +\n                     \"for path '\" + path + \"'- check path is valid\");\n         }\n     }\nIndex: src/test/org/apache/commons/io/FileSystemUtilsTestCase.java\n===================================================================\nRCS file: /cvsroot/upstream/jpackage/jakarta-commons-io/src/test/org/apache/commons/io/FileSystemUtilsTestCase.java,v\nretrieving revision 1.1.1.1\nretrieving revision 1.1.1.1.2.6\ndiff -u -r1.1.1.1 -r1.1.1.1.2.6\n src/test/org/apache/commons/io/FileSystemUtilsTestCase.java 2 Mar 2007 06:30:58 -0000       1.1.1.1\n+++ src/test/org/apache/commons/io/FileSystemUtilsTestCase.java 28 Mar 2008 15:26:43 -0000      1.1.1.1.2.6\n@@ -68,8 +68,13 @@\n             // have to figure out unix block size\n             String[] cmd = null;\n             String osName = System.getProperty(\"os.name\");\n+            osName = osName.toLowerCase();\n+\n             if (osName.indexOf(\"hp-ux\") >= 0 || osName.indexOf(\"aix\") >= 0) {\n                 cmd = new String[] \n{\"df\", \"-P\", \"/\"}\n;\n+            } else if (osName.indexOf(\"sunos\") >= 0 || osName.indexOf(\"sun os\") >= 0\n+                       || osName.indexOf(\"solaris\") >= 0) {\n+                cmd = new String[] \n{\"/usr/xpg4/bin/df\", \"-P\", \"/\"}\n;\n             } else {\n                 cmd = new String[] \n{\"df\", \"/\"}\n;\n             }", "resolution_date": "2008-05-30T11:14:26.000-05:00", "stackTraces": [], "title": "patch filesystemutil file system util freespac free space fail solari"}
{"codeSnippets": [], "creation_date": "2008-08-21T10:09:59.000-05:00", "description": "testfilenameutil test filenam util string path foo xml org apach common filenameutil filenam util getpathnoendsepar path end separ path lead java lang stringindexoutofboundsexcept string index bound string index rang java lang string substr string java org apach common filenameutil filenam util dogetpath path filenameutil filenam util java org apach common filenameutil filenam util getpathnoendsepar path end separ filenameutil filenam util java", "fixed_files": ["org.apache.commons.io.FilenameUtilsTestCase", "org.apache.commons.io.FilenameUtils"], "key": "IO-179", "original_text": "StringIndexOutOfBounds exception on FilenameUtils.getPathNoEndSeparator public void testFilenameUtils() \n{\n String path = \"/foo.xml\";\n org.apache.commons.io.FilenameUtils.getPathNoEndSeparator(path);\n }\n\n\nLeads to:\njava.lang.StringIndexOutOfBoundsException: String index out of range: -1\n\tat java.lang.String.substring(String.java:1768)\n\tat org.apache.commons.io.FilenameUtils.doGetPath(FilenameUtils.java:705)\n\tat org.apache.commons.io.FilenameUtils.getPathNoEndSeparator(FilenameUtils.java:683)\n", "resolution_date": "2008-11-29T01:51:49.000-06:00", "stackTraces": [], "title": "stringindexoutofbound string index bound filenameutil filenam util getpathnoendsepar path end separ"}
