{"file_path":"/esb/esb-itests/basic/src/test/java/org/fusesource/esb/itests/basic/EsbBootTest.java","file_package_path":"org.fusesource.esb.itests.basic.EsbBootTest","package_fully_qualified_name":"org.fusesource.esb.itests.basic","import_fully_qualified_names":["org.fusesource.esb.itests.pax.exam.karaf.EsbTestSupport","org.junit.Test","org.junit.runner.RunWith","org.ops4j.pax.exam.Configuration","org.ops4j.pax.exam.Option","org.ops4j.pax.exam.junit.PaxExam","org.ops4j.pax.exam.options.DefaultCompositeOption","org.ops4j.pax.exam.spi.reactors.ExamReactorStrategy","org.ops4j.pax.exam.spi.reactors.PerMethod","org.junit.Assert.assertEquals"],"text":"\n * Copyright 2005-2015 Red Hat, Inc. Red Hat licenses this file to you under the Apache License, version 2.0 (the \"License\"); you may not use this file except in compliance with the License.  You may obtain a copy of the License at http://www.apache.org/licenses/LICENSE-2.0 Unless required by applicable law or agreed to in writing, software distributed under the License is distributed on an \"AS IS\" BASIS, WITHOUT WARRANTIES OR CONDITIONS OF ANY KIND, either express or implied.  See the License for the specific language governing permissions and limitations under the License. RunWith PaxExam ExamReactorStrategy PerMethod EsbBootTest EsbTestSupport Test testBoot Exception String exceptions executeCommandAsAdmin log:display-exception System out println exceptions assertEquals Expected log:display-exception to display no exceptions on startup  exceptions Configuration Option config Option DefaultCompositeOption esbDistributionConfiguration jboss-fuse-full"}
{"file_path":"/esb/esb-itests/basic/src/test/java/org/fusesource/esb/itests/basic/EsbKarafFullBootTest.java","file_package_path":"org.fusesource.esb.itests.basic.EsbKarafFullBootTest","package_fully_qualified_name":"org.fusesource.esb.itests.basic","import_fully_qualified_names":["org.junit.runner.RunWith","org.junit.Ignore","org.ops4j.pax.exam.Configuration","org.ops4j.pax.exam.Option","org.ops4j.pax.exam.junit.PaxExam","org.ops4j.pax.exam.options.DefaultCompositeOption","org.ops4j.pax.exam.spi.reactors.ExamReactorStrategy","org.ops4j.pax.exam.spi.reactors.PerMethod"],"text":"\n * Copyright 2005-2015 Red Hat, Inc. Red Hat licenses this file to you under the Apache License, version 2.0 (the \"License\"); you may not use this file except in compliance with the License.  You may obtain a copy of the License at http://www.apache.org/licenses/LICENSE-2.0 Unless required by applicable law or agreed to in writing, software distributed under the License is distributed on an \"AS IS\" BASIS, WITHOUT WARRANTIES OR CONDITIONS OF ANY KIND, either express or implied.  See the License for the specific language governing permissions and limitations under the License. Ignore RunWith PaxExam ExamReactorStrategy PerMethod EsbKarafFullBootTest EsbBootTest Configuration Option config Option DefaultCompositeOption esbDistributionConfiguration jboss-fuse-karaf-full"}
{"file_path":"/esb/esb-itests/basic/src/test/java/org/fusesource/esb/itests/basic/EsbProfileRedeployTest.java","file_package_path":"org.fusesource.esb.itests.basic.EsbProfileRedeployTest","package_fully_qualified_name":"org.fusesource.esb.itests.basic","import_fully_qualified_names":["io.fabric8.api.Container","io.fabric8.api.FabricService","io.fabric8.api.ServiceProxy","io.fabric8.groups.MultiGroup","io.fabric8.groups.NodeState","io.fabric8.groups.internal.ManagedGroupFactory","io.fabric8.groups.internal.ManagedGroupFactoryBuilder","io.fabric8.groups.internal.ZooKeeperMultiGroup","io.fabric8.groups.internal.ZooKeeperMultiGroup","io.fabric8.itests.paxexam.support.ContainerBuilder","io.fabric8.itests.paxexam.support.ContainerProxy","io.fabric8.itests.paxexam.support.Provision","io.fabric8.mq.fabric.discovery.FabricDiscoveryAgent","org.apache.curator.framework.CuratorFramework","org.fusesource.esb.itests.pax.exam.karaf.EsbTestSupport","org.junit.Ignore","org.junit.Test","org.junit.runner.RunWith","org.ops4j.pax.exam.Configuration","org.ops4j.pax.exam.MavenUtils","org.ops4j.pax.exam.Option","org.ops4j.pax.exam.junit.PaxExam","org.ops4j.pax.exam.options.DefaultCompositeOption","org.ops4j.pax.exam.spi.reactors.ExamReactorStrategy","org.ops4j.pax.exam.spi.reactors.PerMethod","java.util.Arrays","java.util.LinkedList","java.util.List","java.util.Set","java.util.concurrent.Callable","org.junit.Assert.*","org.ops4j.pax.exam.CoreOptions.wrappedBundle","org.ops4j.pax.exam.karaf.options.KarafDistributionOption.features"],"text":"\n * Copyright 2005-2015 Red Hat, Inc. Red Hat licenses this file to you under the Apache License, version 2.0 (the \"License\"); you may not use this file except in compliance with the License.  You may obtain a copy of the License at http://www.apache.org/licenses/LICENSE-2.0 Unless required by applicable law or agreed to in writing, software distributed under the License is distributed on an \"AS IS\" BASIS, WITHOUT WARRANTIES OR CONDITIONS OF ANY KIND, either express or implied.  See the License for the specific language governing permissions and limitations under the License.  TODO remove? RunWith PaxExam ExamReactorStrategy PerMethod EsbProfileRedeployTest EsbTestSupport timeout Ignore ENTESB-???? Test testProfileRedeploy Exception executeCommandAsAdmin fabric:create -n ServiceProxy FabricService fabricProxy ServiceProxy createServiceProxy bundleContext FabricService FabricService fabricService fabricProxy getService Set ContainerProxy containers ContainerBuilder create fabricProxy withJvmOpts -Xmx1536m -XX:MaxPermSize\u003d256m withName node withProfiles jboss-fuse-full assertProvisioningResult build Container node containers iterator next Provision provisioningSuccess Arrays asList node PROVISION_TIMEOUT CuratorFramework curator fabricService adapt CuratorFramework ManagedGroupFactory factory ManagedGroupFactoryBuilder create curator getClass getClassLoader Callable CuratorFramework Override CuratorFramework call Exception Exception Shouldn\u0027t be called MultiGroup group MultiGroup factory createMultiGroup /fabric/registry/clusters/amq/default FabricDiscoveryAgent ActiveMQNode ZooKeeperMultiGroup wtf ZooKeeperMultiGroup group group start FabricDiscoveryAgent ActiveMQNode master Provision waitForCondition Callable Boolean Override Boolean call Exception group slaves isEmpty Thread sleep timeout master FabricDiscoveryAgent ActiveMQNode group master String masterContainer master getContainer assertEquals root masterContainer assertTrue getSlaveNames group contains node i i i Thread sleep executeCommandAsAdmin container-remove-profile node jboss-fuse-full Provision provisioningSuccess Arrays asList fabricService getContainers PROVISION_TIMEOUT Provision waitForCondition Callable Boolean Override Boolean call Exception group slaves isEmpty Thread sleep timeout master FabricDiscoveryAgent ActiveMQNode group master assertEquals root master getContainer assertFalse getSlaveNames group contains node Thread sleep executeCommandAsAdmin container-add-profile node jboss-fuse-full Provision provisioningSuccess Arrays asList fabricService getContainers PROVISION_TIMEOUT Provision waitForCondition Callable Boolean Override Boolean call Exception group slaves isEmpty Thread sleep timeout master FabricDiscoveryAgent ActiveMQNode group master masterContainer master getContainer assertEquals root masterContainer assertTrue getSlaveNames group contains node ContainerBuilder destroy containers fabricProxy close List String getSlaveNames MultiGroup group List String slaves LinkedList NodeState state List NodeState group slaves slaves add state getContainer slaves Configuration Option config Option DefaultCompositeOption esbDistributionConfiguration jboss-fuse-full features default mq-fabric mavenBundle io.fabric8.itests.paxexam fabric-itests-paxexam-common MavenUtils getArtifactVersion io.fabric8.itests.paxexam fabric-itests-paxexam-common mavenBundle io.fabric8.tooling.testing pax-exam-karaf MavenUtils getArtifactVersion io.fabric8.tooling.testing pax-exam-karaf mavenBundle org.jboss.fuse.itests esb-itests-common MavenUtils getArtifactVersion org.jboss.fuse.itests esb-itests-common wrappedBundle mavenBundle io.fabric8.itests fabric-itests-common MavenUtils getArtifactVersion io.fabric8.itests fabric-itests-common"}
{"file_path":"/esb/esb-itests/basic/src/test/java/org/fusesource/esb/itests/basic/fabric/EsbFeatureTest.java","file_package_path":"org.fusesource.esb.itests.basic.fabric.EsbFeatureTest","package_fully_qualified_name":"org.fusesource.esb.itests.basic.fabric","import_fully_qualified_names":["org.ops4j.pax.exam.CoreOptions.maven","org.ops4j.pax.exam.CoreOptions.wrappedBundle","org.ops4j.pax.exam.karaf.options.KarafDistributionOption.*","java.io.File","io.fabric8.itests.paxexam.support.FabricFeaturesTest","org.ops4j.pax.exam.Configuration","org.ops4j.pax.exam.MavenUtils","org.ops4j.pax.exam.Option","org.ops4j.pax.exam.karaf.options.LogLevelOption","org.ops4j.pax.exam.options.DefaultCompositeOption"],"text":"\n * Copyright 2005-2015 Red Hat, Inc. Red Hat licenses this file to you under the Apache License, version 2.0 (the \"License\"); you may not use this file except in compliance with the License.  You may obtain a copy of the License at http://www.apache.org/licenses/LICENSE-2.0 Unless required by applicable law or agreed to in writing, software distributed under the License is distributed on an \"AS IS\" BASIS, WITHOUT WARRANTIES OR CONDITIONS OF ANY KIND, either express or implied.  See the License for the specific language governing permissions and limitations under the License. \n * Create an  {@link org.ops4j.pax.exam.Option} for using a ESB distribution. EsbFeatureTest FabricFeaturesTest Configuration Option config Option DefaultCompositeOption esbDistributionConfiguration jboss-fuse-full Option esbDistributionConfiguration String distroArtifactId distroArtifactId distroArtifactId ARTIFACT_ID Option karafDistributionConfiguration frameworkUrl maven groupId org.jboss.fuse artifactId distroArtifactId versionAsInProject type zip karafVersion MavenUtils getArtifactVersion org.jboss.fuse distroArtifactId name JBoss Fuse unpackDirectory File target/exam useDeployFolder useOwnExamBundlesStartLevel editConfigurationFilePut etc/config.properties karaf.startlevel.bundle 50 editConfigurationFilePut etc/config.properties karaf.startup.message Loading Fuse from: ${karaf.home} editConfigurationFilePut etc/users.properties admin admin,admin mavenBundle io.fabric8.itests.paxexam fabric-itests-paxexam-common MavenUtils getArtifactVersion io.fabric8.itests.paxexam fabric-itests-paxexam-common mavenBundle io.fabric8.tooling.testing pax-exam-karaf MavenUtils getArtifactVersion io.fabric8.tooling.testing pax-exam-karaf mavenBundle org.jboss.fuse.itests esb-itests-common MavenUtils getArtifactVersion org.jboss.fuse.itests esb-itests-common wrappedBundle mavenBundle io.fabric8.itests fabric-itests-common MavenUtils getArtifactVersion io.fabric8.itests fabric-itests-common keepRuntimeFolder logLevel LogLevelOption LogLevel ERROR"}
{"file_path":"/esb/esb-itests/basic/src/test/java/org/fusesource/esb/itests/basic/fabric/EsbProfileLongTest.java","file_package_path":"org.fusesource.esb.itests.basic.fabric.EsbProfileLongTest","package_fully_qualified_name":"org.fusesource.esb.itests.basic.fabric","import_fully_qualified_names":["io.fabric8.api.*","io.fabric8.itests.paxexam.support.ContainerBuilder","io.fabric8.itests.paxexam.support.ContainerCondition","io.fabric8.itests.paxexam.support.ContainerProxy","java.util.Set","io.fabric8.itests.paxexam.support.Provision","io.fabric8.zookeeper.ZkPath","org.apache.curator.framework.CuratorFramework","org.junit.Assert","org.junit.Ignore","org.junit.Test","org.junit.runner.RunWith","org.ops4j.pax.exam.junit.PaxExam","org.ops4j.pax.exam.spi.reactors.ExamReactorStrategy","org.ops4j.pax.exam.spi.reactors.PerMethod","io.fabric8.zookeeper.utils.ZooKeeperUtils.setData","org.fusesource.esb.itests.pax.exam.karaf.EsbTestSupport.executeCommandAsAdmin"],"text":"\n * Copyright 2005-2015 Red Hat, Inc. Red Hat licenses this file to you under the Apache License, version 2.0 (the \"License\"); you may not use this file except in compliance with the License.  You may obtain a copy of the License at http://www.apache.org/licenses/LICENSE-2.0 Unless required by applicable law or agreed to in writing, software distributed under the License is distributed on an \"AS IS\" BASIS, WITHOUT WARRANTIES OR CONDITIONS OF ANY KIND, either express or implied.  See the License for the specific language governing permissions and limitations under the License.       * Override as       We set container to default to clean the container up. Test the modified profile. We set the container to default to clean up the profile. RunWith PaxExam ExamReactorStrategy PerMethod EsbProfileLongTest EsbFeatureTest Test testFeatures Exception System err println executeCommandAsAdmin fabric:create -n ServiceProxy FabricService fabricProxy ServiceProxy createServiceProxy bundleContext FabricService FabricService fabricService fabricProxy getService CuratorFramework curator fabricService adapt CuratorFramework Set ContainerProxy containers ContainerBuilder create fabricProxy withName esb withProfiles jboss-fuse-full assertProvisioningResult build prepareFeaturesForTesting containers connector jboss-fuse-full geronimo-connector prepareFeaturesForTesting containers saaj jboss-fuse-full saaj-impl assertFeatures fabricService curator ContainerBuilder destroy containers fabricProxy close assertProvisionedFeature FabricService fabricService CuratorFramework curator Set Container containers String featureNames String profileName String expectedSymbolicNames Exception StringBuilder sb StringBuilder sb append [  Container container containers sb append container getId append   sb append ] System out println Testing profile: profileName  on container: sb toString  by adding feature: featureNames Version version fabricService getRequiredDefaultVersion Profile defaultProfile version getRequiredProfile default Profile targetProfile version getRequiredProfile profileName Container container containers container setProfiles Profile defaultProfile Provision containerStatus containers PROVISION_TIMEOUT String featureName featureNames split   System out println executeCommandAsAdmin fabric:profile-edit --feature  featureName   targetProfile getId System out println executeCommandAsAdmin fabric:profile-display  profileName Container container containers setData curator ZkPath CONTAINER_PROVISION_RESULT getPath container getId switching profile container setProfiles Profile targetProfile Provision containerStatus containers PROVISION_TIMEOUT System out println executeCommandAsAdmin fabric:container-list Assert assertTrue Provision waitForCondition containers ContainerCondition Override Boolean checkConditionOnContainer Container c String symbolicName expectedSymbolicNames split   String bundles executeCommandAsAdmin container-connect -u admin -p admin  c getId  osgi:list -s -t 0 | grep  symbolicName bundles bundles contains symbolicName PROVISION_TIMEOUT Container container containers defaultProfile equals targetProfile setData curator ZkPath CONTAINER_PROVISION_RESULT getPath container getId switching profile container setProfiles Profile defaultProfile Provision containerStatus containers PROVISION_TIMEOUT String featureName featureNames split   System out println executeCommandAsAdmin fabric:profile-edit --delete --feature  featureName   targetProfile getId"}
{"file_path":"/esb/esb-itests/basic/src/test/java/org/fusesource/esb/itests/basic/fabric/EsbProfileTest.java","file_package_path":"org.fusesource.esb.itests.basic.fabric.EsbProfileTest","package_fully_qualified_name":"org.fusesource.esb.itests.basic.fabric","import_fully_qualified_names":["io.fabric8.api.FabricService","io.fabric8.api.ServiceProxy","io.fabric8.itests.paxexam.support.ContainerBuilder","io.fabric8.itests.paxexam.support.ContainerProxy","java.util.Set","org.junit.Ignore","org.junit.Test","org.junit.runner.RunWith","org.ops4j.pax.exam.junit.PaxExam","org.ops4j.pax.exam.spi.reactors.ExamReactorStrategy","org.ops4j.pax.exam.spi.reactors.PerMethod","org.fusesource.esb.itests.pax.exam.karaf.EsbTestSupport.executeCommandAsAdmin"],"text":"\n * Copyright 2005-2015 Red Hat, Inc. Red Hat licenses this file to you under the Apache License, version 2.0 (the \"License\"); you may not use this file except in compliance with the License.  You may obtain a copy of the License at http://www.apache.org/licenses/LICENSE-2.0 Unless required by applicable law or agreed to in writing, software distributed under the License is distributed on an \"AS IS\" BASIS, WITHOUT WARRANTIES OR CONDITIONS OF ANY KIND, either express or implied.  See the License for the specific language governing permissions and limitations under the License.  [TODO] validate created containers RunWith PaxExam ExamReactorStrategy PerMethod EsbProfileTest EsbFeatureTest Test testLocalChildCreation Exception System err println executeCommandAsAdmin fabric:create -n ServiceProxy FabricService fabricProxy ServiceProxy createServiceProxy bundleContext FabricService Set ContainerProxy containers ContainerBuilder create fabricProxy withName esb withProfiles jboss-fuse-full assertProvisioningResult build ContainerBuilder destroy containers fabricProxy close"}
{"file_path":"/esb/esb-itests/common/src/main/java/org/fusesource/esb/itests/pax/exam/karaf/EsbTestSupport.java","file_package_path":"org.fusesource.esb.itests.pax.exam.karaf.EsbTestSupport","package_fully_qualified_name":"org.fusesource.esb.itests.pax.exam.karaf","import_fully_qualified_names":["java.io.File","java.util.HashSet","java.util.Set","io.fabric8.tooling.testing.pax.exam.karaf.FabricKarafTestSupport","org.apache.karaf.jaas.boot.principal.RolePrincipal","org.ops4j.pax.exam.MavenUtils","org.ops4j.pax.exam.Option","org.ops4j.pax.exam.karaf.options.LogLevelOption","org.junit.Assert.assertFalse","org.junit.Assert.assertTrue","org.ops4j.pax.exam.CoreOptions.maven","org.ops4j.pax.exam.CoreOptions.wrappedBundle","org.ops4j.pax.exam.karaf.options.KarafDistributionOption.*"],"text":"\n * Copyright 2005-2015 Red Hat, Inc. Red Hat licenses this file to you under the Apache License, version 2.0 (the \"License\"); you may not use this file except in compliance with the License.  You may obtain a copy of the License at http://www.apache.org/licenses/LICENSE-2.0 Unless required by applicable law or agreed to in writing, software distributed under the License is distributed on an \"AS IS\" BASIS, WITHOUT WARRANTIES OR CONDITIONS OF ANY KIND, either express or implied.  See the License for the specific language governing permissions and limitations under the License. \n * Execute a command on the JBoss Fuse/A-MQ console as a user with administrative privileges \n * Create an  {@link org.ops4j.pax.exam.Option} for using a ESB distribution. \n * @return EsbTestSupport FabricKarafTestSupport String GROUP_ID org.jboss.fuse String ARTIFACT_ID jboss-fuse-full Set RolePrincipal ROLES HashSet ROLES add RolePrincipal Administrator ROLES add RolePrincipal SuperUser String version System getProperty project.version String executeCommandAsAdmin String command executeCommand ROLES command installQuickstartBundle String bundle Exception String featureInstallOutput executeCommandAsAdmin osgi:install -s mvn:org.jboss.quickstarts.fuse/ bundle / version System out println featureInstallOutput assertFalse featureInstallOutput isEmpty String featureListOutput executeCommandAsAdmin osgi:list -l | grep  bundle System out println featureListOutput assertFalse featureListOutput isEmpty installUninstallCommand String feature Exception installUninstallCommand feature installUninstallCommand String feature refresh Exception String installFeatureCmd features:install -v  refresh installFeatureCmd installFeatureCmd -r  String featureInstallOutput executeCommandAsAdmin installFeatureCmd feature System out println featureInstallOutput assertFalse featureInstallOutput isEmpty String featureListOutput executeCommandAsAdmin features:list -i | grep  feature System out println featureListOutput assertFalse featureListOutput isEmpty System out println executeCommandAsAdmin features:uninstall  feature featureListOutput executeCommandAsAdmin features:list -i | grep  feature System out println featureListOutput assertTrue featureListOutput isEmpty Option esbDistributionConfiguration esbDistributionConfiguration Option esbDistributionConfiguration String distroArtifactId distroArtifactId distroArtifactId ARTIFACT_ID Option karafDistributionConfiguration frameworkUrl maven groupId org.jboss.fuse artifactId distroArtifactId versionAsInProject type zip karafVersion MavenUtils getArtifactVersion org.jboss.fuse distroArtifactId name JBoss Fuse unpackDirectory File target/exam useDeployFolder useOwnExamBundlesStartLevel editConfigurationFilePut etc/config.properties karaf.startlevel.bundle 50 editConfigurationFilePut etc/config.properties karaf.startup.message Loading Fuse from: ${karaf.home} editConfigurationFilePut etc/users.properties admin admin,admin,manager,viewer,Operator, Maintainer, Deployer, Auditor, Administrator, SuperUser editConfigurationFilePut etc/system.properties project.version MavenUtils getArtifactVersion GROUP_ID ARTIFACT_ID editConfigurationFilePut etc/system.properties patching.disabled true mavenBundle io.fabric8.tooling.testing pax-exam-karaf MavenUtils getArtifactVersion io.fabric8.tooling.testing pax-exam-karaf mavenBundle org.jboss.fuse.itests esb-itests-common MavenUtils getArtifactVersion org.jboss.fuse.itests esb-itests-common wrappedBundle mavenBundle io.fabric8.itests fabric-itests-common MavenUtils getArtifactVersion io.fabric8.itests fabric-itests-common keepRuntimeFolder logLevel LogLevelOption LogLevel ERROR String getEsbVersion version"}
{"file_path":"/esb/esb-itests/extra/src/test/java/org/fusesource/esb/itests/extra/EsbFeaturesTest.java","file_package_path":"org.fusesource.esb.itests.extra.EsbFeaturesTest","package_fully_qualified_name":"org.fusesource.esb.itests.extra","import_fully_qualified_names":["org.fusesource.esb.itests.pax.exam.karaf.EsbTestSupport","org.junit.Test","org.junit.runner.RunWith","org.ops4j.pax.exam.Configuration","org.ops4j.pax.exam.Option","org.ops4j.pax.exam.spi.reactors.ExamReactorStrategy","org.ops4j.pax.exam.junit.PaxExam","org.ops4j.pax.exam.options.DefaultCompositeOption","org.ops4j.pax.exam.spi.reactors.PerMethod"],"text":"\n * Copyright 2005-2015 Red Hat, Inc. Red Hat licenses this file to you under the Apache License, version 2.0 (the \"License\"); you may not use this file except in compliance with the License.  You may obtain a copy of the License at http://www.apache.org/licenses/LICENSE-2.0 Unless required by applicable law or agreed to in writing, software distributed under the License is distributed on an \"AS IS\" BASIS, WITHOUT WARRANTIES OR CONDITIONS OF ANY KIND, either express or implied.  See the License for the specific language governing permissions and limitations under the License.  will use Karaf version of connector feature RunWith PaxExam ExamReactorStrategy PerMethod EsbFeaturesTest EsbTestSupport Test testConnector Exception installUninstallCommand connector Test testSaaj Exception installUninstallCommand saaj Configuration Option config Option DefaultCompositeOption esbDistributionConfiguration jboss-fuse-full"}
{"file_path":"/esb/esb-itests/extra/src/test/java/org/fusesource/esb/itests/extra/JbossFuseFullFeaturesAvailableTest.java","file_package_path":"org.fusesource.esb.itests.extra.JbossFuseFullFeaturesAvailableTest","package_fully_qualified_name":"org.fusesource.esb.itests.extra","import_fully_qualified_names":["java.io.File","java.io.PrintStream","java.util.EnumSet","java.util.HashMap","java.util.HashSet","java.util.LinkedList","java.util.List","java.util.Map","java.util.Set","javax.inject.Inject","org.apache.karaf.features.BundleInfo","org.apache.karaf.features.Feature","org.apache.karaf.features.FeaturesService","org.fusesource.esb.itests.pax.exam.karaf.EsbTestSupport","org.junit.Ignore","org.junit.Test","org.junit.runner.RunWith","org.ops4j.pax.exam.Configuration","org.ops4j.pax.exam.CoreOptions","org.ops4j.pax.exam.Option","org.ops4j.pax.exam.junit.PaxExam","org.ops4j.pax.exam.options.DefaultCompositeOption","org.ops4j.pax.exam.options.extra.VMOption","org.ops4j.pax.exam.spi.reactors.ExamReactorStrategy","org.ops4j.pax.exam.spi.reactors.PerMethod","org.osgi.framework.Bundle","org.hamcrest.CoreMatchers.is","org.junit.Assert.assertThat"],"text":"\n * Copyright 2005-2015 Red Hat, Inc. Red Hat licenses this file to you under the Apache License, version 2.0 (the \"License\"); you may not use this file except in compliance with the License.  You may obtain a copy of the License at http://www.apache.org/licenses/LICENSE-2.0 Unless required by applicable law or agreed to in writing, software distributed under the License is distributed on an \"AS IS\" BASIS, WITHOUT WARRANTIES OR CONDITIONS OF ANY KIND, either express or implied.  See the License for the specific language governing permissions and limitations under the License. \n * \u003cp\u003eUsing list of features obtained from  {@link FeaturesService}, this methods tries to install and uninstall each feature.\u003c/p\u003e \u003cp/\u003e \u003cp\u003eNote that there are several \u003ci\u003ecritical\u003c/i\u003e features which are not installed by default in particular product, but installing them and then uninstalling may cause several system damages (such as loss of some critical OSGi services).\u003c/p\u003e \n * @throws Exception , FeaturesService.Option.Verbose , FeaturesService.Option.Verbose RunWith PaxExam ExamReactorStrategy PerMethod JbossFuseFullFeaturesAvailableTest EsbTestSupport Set String criticalFeatures HashSet criticalFeatures add karaf criticalFeatures add karaf-framework criticalFeatures add obr criticalFeatures add jpa criticalFeatures add jndi criticalFeatures add transaction criticalFeatures add gemini-blueprint criticalFeatures add application-without-isolation criticalFeatures add activemq-client criticalFeatures add activemq criticalFeatures add http criticalFeatures add http-whiteboard criticalFeatures add war criticalFeatures add jetty criticalFeatures add fabric-hawtio criticalFeatures add fabric-ldap-jaas Inject FeaturesService featuresService Test Ignore FABRIC-730: Run manually and check esb/esb-itests/extra/target/exam/\u003cuuid\u003e/data/log/test.log file testFeatures Exception checkAllNotInstalledFeatures Configuration Option config Option DefaultCompositeOption esbDistributionConfiguration jboss-fuse-full CoreOptions systemTimeout VMOption -XX:MaxPermSize\u003d512M checkAllNotInstalledFeatures Exception File logFile File System getProperty user.dir /data/log test.log logFile getParentFile mkdir PrintStream log PrintStream logFile log println \u003d\u003d\u003d Bundles installed at start \u003d\u003d\u003d Map String Bundle bundles HashMap Bundle b bundleContext getBundles log println -- Bundle:  b getLocation bundles put b getLocation b Set String bundlesWithoutFeatures HashSet bundles keySet log println \u003d\u003d\u003d Features installed at start \u003d\u003d\u003d Set String installedFeatures HashSet Feature f featuresService listInstalledFeatures log println Boot-time installed feature:  f getId BundleInfo bi f getBundles log println -- Bundle:  bi getLocation bundlesWithoutFeatures remove bi getLocation installedFeatures add f getName / f getVersion log println \u003d\u003d\u003d Bundles installed at start, which are not part of any feature \u003d\u003d\u003d String bl bundlesWithoutFeatures log println -- Bundle:  bl List String exceptions LinkedList Feature features featuresService listFeatures fn fcount features length Feature f features fn installedFeatures contains f getName / f getVersion criticalFeatures contains f getName log println Feature ( fn / fcount ):  f getId  ignored log println Feature ( fn / fcount ):  f getId featuresService installFeature f EnumSet of FeaturesService Option NoAutoRefreshBundles List String importantBundles LinkedList uninstall BundleInfo bi f getBundles bundlesWithoutFeatures contains bi getLocation uninstall importantBundles add bi getLocation uninstall featuresService uninstallFeature f getName f getVersion EnumSet of FeaturesService Option NoAutoRefreshBundles log println Feature  f getId  *won\u0027t* be uninstalled because it contains important bundles: String ib importantBundles log println \u003e\u003e  ib Exception e log println Feature (un)installation error:  e getMessage exceptions add \u003d\u003d\u003d\u003d\u003d\u003d\u003d\nfeature:  f getName / f getVersion \n  e getMessage String e exceptions log println e log close assertThat There should be no feature installation exceptions exceptions size is"}
{"file_path":"/esb/esb-itests/smoke/src/test/java/org/fusesource/esb/itests/smoke/EsbCoreFeaturesTest.java","file_package_path":"org.fusesource.esb.itests.smoke.EsbCoreFeaturesTest","package_fully_qualified_name":"org.fusesource.esb.itests.smoke","import_fully_qualified_names":["org.junit.Assert.assertTrue","javax.inject.Inject","javax.servlet.ServletContext","io.fabric8.tooling.testing.pax.exam.karaf.ServiceLocator","org.fusesource.esb.itests.pax.exam.karaf.EsbTestSupport","org.junit.Test","org.junit.runner.RunWith","org.ops4j.pax.exam.Configuration","org.ops4j.pax.exam.Option","org.ops4j.pax.exam.junit.PaxExam","org.ops4j.pax.exam.options.DefaultCompositeOption","org.ops4j.pax.exam.spi.reactors.ExamReactorStrategy","org.ops4j.pax.exam.spi.reactors.PerMethod","org.osgi.framework.BundleContext"],"text":"\n * Copyright 2005-2015 Red Hat, Inc. Red Hat licenses this file to you under the Apache License, version 2.0 (the \"License\"); you may not use this file except in compliance with the License.  You may obtain a copy of the License at http://www.apache.org/licenses/LICENSE-2.0 Unless required by applicable law or agreed to in writing, software distributed under the License is distributed on an \"AS IS\" BASIS, WITHOUT WARRANTIES OR CONDITIONS OF ANY KIND, either express or implied.  See the License for the specific language governing permissions and limitations under the License. \n * A set of smoke tests to ensure that some of our core ESB features are getting installed/started properly  let\u0027s start by checking if the feature got installed correctly  ensure that a servlet context has been registered for the /hawtio URL path RunWith PaxExam ExamReactorStrategy PerMethod EsbCoreFeaturesTest EsbTestSupport Inject BundleContext bundleContext Test testHawtIo Exception String listFeaturesOutput executeCommandAsAdmin features:list | grep -i \" hawtio \" assertTrue Feature hawtio is installed listFeaturesOutput contains installed ServiceLocator awaitService bundleContext ServletContext (osgi.web.contextpath\u003d/hawtio) Configuration Option config Option DefaultCompositeOption esbDistributionConfiguration jboss-fuse-full"}
{"file_path":"/esb/esb-itests/smoke/src/test/java/org/fusesource/esb/itests/smoke/EsbExampleFeaturesTest.java","file_package_path":"org.fusesource.esb.itests.smoke.EsbExampleFeaturesTest","package_fully_qualified_name":"org.fusesource.esb.itests.smoke","import_fully_qualified_names":["org.fusesource.esb.itests.pax.exam.karaf.EsbTestSupport","org.junit.Test","org.junit.Ignore","org.junit.runner.RunWith","org.ops4j.pax.exam.Configuration","org.ops4j.pax.exam.Option","org.ops4j.pax.exam.junit.PaxExam","org.ops4j.pax.exam.karaf.options.KarafDistributionOption","org.ops4j.pax.exam.options.DefaultCompositeOption","org.ops4j.pax.exam.spi.reactors.ExamReactorStrategy","org.ops4j.pax.exam.spi.reactors.PerMethod","org.slf4j.Logger","org.slf4j.LoggerFactory"],"text":"\n * Copyright 2005-2015 Red Hat, Inc. Red Hat licenses this file to you under the Apache License, version 2.0 (the \"License\"); you may not use this file except in compliance with the License.  You may obtain a copy of the License at http://www.apache.org/licenses/LICENSE-2.0 Unless required by applicable law or agreed to in writing, software distributed under the License is distributed on an \"AS IS\" BASIS, WITHOUT WARRANTIES OR CONDITIONS OF ANY KIND, either express or implied.  See the License for the specific language governing permissions and limitations under the License. RunWith PaxExam ExamReactorStrategy PerMethod EsbExampleFeaturesTest EsbTestSupport Logger LOG LoggerFactory getLogger EsbExampleFeaturesTest Ignore ENTESB-2429 Test testCamelBox Exception installQuickstartBundle camel-box Ignore ENTESB-2429 Test testCamelLinkedIn Exception installQuickstartBundle camel-linkedin Ignore ENTESB-2429 Test testCamelOdata Exception installQuickstartBundle camel-odata Ignore ENTESB-2429 Test testCamelSalesForce Exception installQuickstartBundle camel-salesforce Ignore ENTESB-2124 Test testCamelSap Exception installQuickstartBundle camel-sap Configuration Option config Option DefaultCompositeOption esbDistributionConfiguration jboss-fuse-full mavenBundle org.apache.geronimo.specs geronimo-ws-metadata_2.0_spec"}
{"file_path":"/esb/esb-itests/smoke/src/test/java/org/fusesource/esb/itests/smoke/EsbKarafFullCoreFeaturesTest.java","file_package_path":"org.fusesource.esb.itests.smoke.EsbKarafFullCoreFeaturesTest","package_fully_qualified_name":"org.fusesource.esb.itests.smoke","import_fully_qualified_names":["org.junit.Assert.assertTrue","javax.inject.Inject","javax.servlet.ServletContext","io.fabric8.tooling.testing.pax.exam.karaf.ServiceLocator","org.fusesource.esb.itests.pax.exam.karaf.EsbTestSupport","org.junit.Test","org.junit.Ignore","org.junit.runner.RunWith","org.ops4j.pax.exam.Configuration","org.ops4j.pax.exam.Option","org.ops4j.pax.exam.junit.PaxExam","org.ops4j.pax.exam.options.DefaultCompositeOption","org.ops4j.pax.exam.spi.reactors.ExamReactorStrategy","org.ops4j.pax.exam.spi.reactors.PerMethod","org.osgi.framework.BundleContext"],"text":"\n * Copyright 2005-2015 Red Hat, Inc. Red Hat licenses this file to you under the Apache License, version 2.0 (the \"License\"); you may not use this file except in compliance with the License.  You may obtain a copy of the License at http://www.apache.org/licenses/LICENSE-2.0 Unless required by applicable law or agreed to in writing, software distributed under the License is distributed on an \"AS IS\" BASIS, WITHOUT WARRANTIES OR CONDITIONS OF ANY KIND, either express or implied.  See the License for the specific language governing permissions and limitations under the License. \n * A set of smoke tests to ensure that some of our core ESB features are getting installed/started properly on jboss-fuse-karaf-full assembly Ignore RunWith PaxExam ExamReactorStrategy PerMethod EsbKarafFullCoreFeaturesTest EsbCoreFeaturesTest Configuration Option config Option DefaultCompositeOption esbDistributionConfiguration jboss-fuse-karaf-full"}
{"file_path":"/quickstarts/camel/camel-linkedin/src/main/java/org/jboss/quickstarts/fuse/processor/BodyInAggregatingStrategy.java","file_package_path":"org.jboss.quickstarts.fuse.processor.BodyInAggregatingStrategy","package_fully_qualified_name":"org.jboss.quickstarts.fuse.processor","import_fully_qualified_names":["org.apache.camel.Exchange","org.apache.camel.processor.aggregate.AggregationStrategy"],"text":"\n * Copyright 2005-2015 Red Hat, Inc. Red Hat licenses this file to you under the Apache License, version 2.0 (the \"License\"); you may not use this file except in compliance with the License.  You may obtain a copy of the License at http://www.apache.org/licenses/LICENSE-2.0 Unless required by applicable law or agreed to in writing, software distributed under the License is distributed on an \"AS IS\" BASIS, WITHOUT WARRANTIES OR CONDITIONS OF ANY KIND, either express or implied.  See the License for the specific language governing permissions and limitations under the License. BodyInAggregatingStrategy AggregationStrategy Exchange aggregate Exchange oldExchange Exchange newExchange oldExchange newExchange String oldBody oldExchange getIn getBody String String newBody newExchange getIn getBody String oldExchange getIn setBody oldBody + newBody oldExchange"}
{"file_path":"/quickstarts/camel/camel-salesforce/src/main/java/org/jboss/quickstarts/fuse/salesforce/JsonHelper.java","file_package_path":"org.jboss.quickstarts.fuse.salesforce.JsonHelper","package_fully_qualified_name":"org.jboss.quickstarts.fuse.salesforce","import_fully_qualified_names":["java.io.IOException","org.apache.camel.salesforce.dto.Cheese__c","org.codehaus.jackson.map.ObjectMapper","org.codehaus.jackson.map.SerializationConfig"],"text":"\n * Copyright 2005-2015 Red Hat, Inc. Red Hat licenses this file to you under the Apache License, version 2.0 (the \"License\"); you may not use this file except in compliance with the License.  You may obtain a copy of the License at http://www.apache.org/licenses/LICENSE-2.0 Unless required by applicable law or agreed to in writing, software distributed under the License is distributed on an \"AS IS\" BASIS, WITHOUT WARRANTIES OR CONDITIONS OF ANY KIND, either express or implied.  See the License for the specific language governing permissions and limitations under the License. \n * Helper class to convert JSON data files to SObjects. JsonHelper ObjectMapper MAPPER MAPPER ObjectMapper MAPPER configure SerializationConfig Feature WRITE_DATES_AS_TIMESTAMPS JsonHelper Cheese__c readFile String contents IOException Cheese__c MAPPER readValue contents Cheese__c String writeFile Cheese__c cheese IOException MAPPER writeValueAsString cheese"}
{"file_path":"/quickstarts/camel/camel-salesforce/src/sample-pojos/main/java/org/apache/camel/salesforce/dto/Cheese__c.java","file_package_path":"org.apache.camel.salesforce.dto.Cheese__c","package_fully_qualified_name":"org.apache.camel.salesforce.dto","import_fully_qualified_names":["com.thoughtworks.xstream.annotations.XStreamAlias","com.thoughtworks.xstream.annotations.XStreamConverter","org.apache.camel.component.salesforce.api.MultiSelectPicklistConverter","org.apache.camel.component.salesforce.api.MultiSelectPicklistDeserializer","org.apache.camel.component.salesforce.api.MultiSelectPicklistSerializer","org.apache.camel.component.salesforce.api.dto.AbstractSObjectBase","org.codehaus.jackson.annotate.JsonProperty","org.codehaus.jackson.map.annotate.JsonDeserialize","org.codehaus.jackson.map.annotate.JsonSerialize"],"text":"\n * JBoss, Home of Professional Open Source Copyright 2014, Red Hat, Inc. and/or its affiliates, and individual contributors by the @authors tag. See the copyright.txt in the distribution for a full listing of individual contributors. Licensed under the Apache License, Version 2.0 (the \"License\"); you may not use this file except in compliance with the License. You may obtain a copy of the License at http://www.apache.org/licenses/LICENSE-2.0 Unless required by applicable law or agreed to in writing, software distributed under the License is distributed on an \"AS IS\" BASIS, WITHOUT WARRANTIES OR CONDITIONS OF ANY KIND, either express or implied. See the License for the specific language governing permissions and limitations under the License. \n * Salesforce DTO for SObject Cheese__c  Country__c  Description__c  Milk__c XStreamAlias Cheese__c Cheese__c AbstractSObjectBase String Country__c JsonProperty Country__c String getCountry__c Country__c JsonProperty Country__c setCountry__c String Country__c Country__c Country__c String Description__c JsonProperty Description__c String getDescription__c Description__c JsonProperty Description__c setDescription__c String Description__c Description__c Description__c XStreamConverter MultiSelectPicklistConverter org apache camel salesforce dto MilkEnum Milk__c JsonProperty Milk__c JsonSerialize using MultiSelectPicklistSerializer MilkEnum getMilk__c Milk__c JsonProperty Milk__c JsonDeserialize using MultiSelectPicklistDeserializer setMilk__c MilkEnum Milk__c Milk__c Milk__c"}
{"file_path":"/quickstarts/camel/camel-salesforce/src/sample-pojos/main/java/org/apache/camel/salesforce/dto/MilkEnum.java","file_package_path":"org.apache.camel.salesforce.dto.MilkEnum","package_fully_qualified_name":"org.apache.camel.salesforce.dto","import_fully_qualified_names":["org.codehaus.jackson.annotate.JsonCreator","org.codehaus.jackson.annotate.JsonValue"],"text":"\n * JBoss, Home of Professional Open Source Copyright 2014, Red Hat, Inc. and/or its affiliates, and individual contributors by the @authors tag. See the copyright.txt in the distribution for a full listing of individual contributors. Licensed under the Apache License, Version 2.0 (the \"License\"); you may not use this file except in compliance with the License. You may obtain a copy of the License at http://www.apache.org/licenses/LICENSE-2.0 Unless required by applicable law or agreed to in writing, software distributed under the License is distributed on an \"AS IS\" BASIS, WITHOUT WARRANTIES OR CONDITIONS OF ANY KIND, either express or implied. See the License for the specific language governing permissions and limitations under the License. \n * Salesforce Enumeration DTO for picklist Milk__c  Cow  Ewe  Goat MilkEnum COW Cow EWE Ewe GOAT Goat String value MilkEnum String value value value JsonValue String value value JsonCreator MilkEnum fromValue String value MilkEnum e MilkEnum values e value equals value e IllegalArgumentException value"}
{"file_path":"/quickstarts/camel/camel-salesforce/src/sample-pojos/main/java/org/apache/camel/salesforce/dto/QueryRecordsCheese__c.java","file_package_path":"org.apache.camel.salesforce.dto.QueryRecordsCheese__c","package_fully_qualified_name":"org.apache.camel.salesforce.dto","import_fully_qualified_names":["java.util.List","com.thoughtworks.xstream.annotations.XStreamImplicit","org.apache.camel.component.salesforce.api.dto.AbstractQueryRecordsBase"],"text":"\n * JBoss, Home of Professional Open Source Copyright 2014, Red Hat, Inc. and/or its affiliates, and individual contributors by the @authors tag. See the copyright.txt in the distribution for a full listing of individual contributors. Licensed under the Apache License, Version 2.0 (the \"License\"); you may not use this file except in compliance with the License. You may obtain a copy of the License at http://www.apache.org/licenses/LICENSE-2.0 Unless required by applicable law or agreed to in writing, software distributed under the License is distributed on an \"AS IS\" BASIS, WITHOUT WARRANTIES OR CONDITIONS OF ANY KIND, either express or implied. See the License for the specific language governing permissions and limitations under the License. \n * Salesforce QueryRecords DTO for type Cheese__c QueryRecordsCheese__c AbstractQueryRecordsBase XStreamImplicit List Cheese__c records List Cheese__c getRecords records setRecords List Cheese__c records records records"}
{"file_path":"/shared/shared-commands/src/main/java/org/jboss/fuse/commands/AmqCheckAdminUser.java","file_package_path":"org.jboss.fuse.commands.AmqCheckAdminUser","package_fully_qualified_name":"org.jboss.fuse.commands","import_fully_qualified_names":["org.apache.felix.gogo.commands.Command"],"text":"\n * Copyright 2005-2015 Red Hat, Inc. Red Hat licenses this file to you under the Apache License, version 2.0 (the \"License\"); you may not use this file except in compliance with the License.  You may obtain a copy of the License at http://www.apache.org/licenses/LICENSE-2.0 Unless required by applicable law or agreed to in writing, software distributed under the License is distributed on an \"AS IS\" BASIS, WITHOUT WARRANTIES OR CONDITIONS OF ANY KIND, either express or implied.  See the License for the specific language governing permissions and limitations under the License. Command name check-for-user scope amq description Checks if any users are defined. AmqCheckAdminUser CheckAdminUser String getCreateAdminUserCommand amq:create-admin-user"}
{"file_path":"/shared/shared-commands/src/main/java/org/jboss/fuse/commands/AmqCreateAdminUser.java","file_package_path":"org.jboss.fuse.commands.AmqCreateAdminUser","package_fully_qualified_name":"org.jboss.fuse.commands","import_fully_qualified_names":["org.apache.felix.gogo.commands.Command"],"text":"\n * Copyright 2005-2015 Red Hat, Inc. Red Hat licenses this file to you under the Apache License, version 2.0 (the \"License\"); you may not use this file except in compliance with the License.  You may obtain a copy of the License at http://www.apache.org/licenses/LICENSE-2.0 Unless required by applicable law or agreed to in writing, software distributed under the License is distributed on an \"AS IS\" BASIS, WITHOUT WARRANTIES OR CONDITIONS OF ANY KIND, either express or implied.  See the License for the specific language governing permissions and limitations under the License. Command name create-admin-user scope amq description Creates a new admin user if one doesn\u0027t exist AmqCreateAdminUser CreateAdminUser"}
{"file_path":"/shared/shared-commands/src/main/java/org/jboss/fuse/commands/CheckAdminUser.java","file_package_path":"org.jboss.fuse.commands.CheckAdminUser","package_fully_qualified_name":"org.jboss.fuse.commands","import_fully_qualified_names":["java.io.File","org.apache.felix.gogo.commands.Command","org.apache.felix.utils.properties.Properties","org.apache.karaf.shell.console.OsgiCommandSupport"],"text":"\n * Copyright 2005-2015 Red Hat, Inc. Red Hat licenses this file to you under the Apache License, version 2.0 (the \"License\"); you may not use this file except in compliance with the License.  You may obtain a copy of the License at http://www.apache.org/licenses/LICENSE-2.0 Unless required by applicable law or agreed to in writing, software distributed under the License is distributed on an \"AS IS\" BASIS, WITHOUT WARRANTIES OR CONDITIONS OF ANY KIND, either express or implied.  See the License for the specific language governing permissions and limitations under the License. CheckAdminUser OsgiCommandSupport Override Object doExecute Exception Properties userProps Properties File System getProperty karaf.home /etc/users.properties userProps isEmpty System out println No user found in etc/users.properties. Please use the \u0027 getCreateAdminUserCommand \u0027 System out println command to create one. System out println String getCreateAdminUserCommand"}
{"file_path":"/shared/shared-commands/src/main/java/org/jboss/fuse/commands/CreateAdminUser.java","file_package_path":"org.jboss.fuse.commands.CreateAdminUser","package_fully_qualified_name":"org.jboss.fuse.commands","import_fully_qualified_names":["org.apache.felix.gogo.commands.Command","org.apache.felix.gogo.commands.Option","org.apache.felix.utils.properties.Properties","org.apache.karaf.shell.console.OsgiCommandSupport","io.fabric8.utils.shell.ShellUtils","java.io.File","java.io.IOException","java.util.LinkedList","java.util.List"],"text":"\n * Copyright 2005-2015 Red Hat, Inc. Red Hat licenses this file to you under the Apache License, version 2.0 (the \"License\"); you may not use this file except in compliance with the License.  You may obtain a copy of the License at http://www.apache.org/licenses/LICENSE-2.0 Unless required by applicable law or agreed to in writing, software distributed under the License is distributed on an \"AS IS\" BASIS, WITHOUT WARRANTIES OR CONDITIONS OF ANY KIND, either express or implied.  See the License for the specific language governing permissions and limitations under the License. \n * Prompts the user for username and/or password. \n * @param user     The default username. \n * @param password The default password. \n * @return An String array with username at index 0 and password at index 1. \n * @throws IOException  If the username was not configured, then prompt the user for the values Command name create-admin-user scope esb description Creates a new admin user if one doesn\u0027t exist CreateAdminUser OsgiCommandSupport Option name --new-user multiValued description The username of a new user. The option refers to karaf user (ssh, http, jmx). String newUser Option name --new-user-password multiValued description The password of the new user. The option refers to karaf user (ssh, http, jmx). String newUserPassword Option name --new-user-role multiValued description The role of the new user. The option refers to karaf user (ssh, http, jmx). List String newUserRoles Override Object doExecute Exception Properties userProps Properties File System getProperty karaf.home /etc/users.properties userProps isEmpty newUser newUserPassword String credentials promptForNewUser newUser newUserPassword newUser credentials newUserPassword credentials newUser System out println No user specified. Some features may not be accessible. session StringBuilder sb StringBuilder sb append jaas:manage --realm karaf --index 1; append jaas:useradd  append newUser append   append newUserPassword append ; String newUserRole getNewUserRoles sb append jaas:roleadd  append newUser append   append newUserRole append ; sb append jaas:update session execute sb toString String promptForNewUser String user String password IOException String response String user password System out println Please specify a user... user user isEmpty user ShellUtils readLine session New user name:  user user password String password1 String password2 password1 password1 equals password2 password1 ShellUtils readLine session Password for  user :  password2 ShellUtils readLine session Verify password for  user :  password1 password2 password1 password1 equals password2 password password1 System out println Passwords did not match. Please try again! response user response password response String getNewUser newUser setNewUser String newUser newUser newUser String getNewUserPassword newUserPassword setNewUserPassword String newUserPassword newUserPassword newUserPassword List String getNewUserRoles newUserRoles newUserRoles isEmpty List String defaultRoles LinkedList defaultRoles add admin defaultRoles add manager defaultRoles add viewer defaultRoles add Monitor defaultRoles add Operator defaultRoles add Maintainer defaultRoles add Deployer defaultRoles add Auditor defaultRoles add Administrator defaultRoles add SuperUser defaultRoles newUserRoles"}
{"file_path":"/shared/shared-commands/src/main/java/org/jboss/fuse/commands/EsbCheckAdminUser.java","file_package_path":"org.jboss.fuse.commands.EsbCheckAdminUser","package_fully_qualified_name":"org.jboss.fuse.commands","import_fully_qualified_names":["org.apache.felix.gogo.commands.Command"],"text":"\n * Copyright 2005-2015 Red Hat, Inc. Red Hat licenses this file to you under the Apache License, version 2.0 (the \"License\"); you may not use this file except in compliance with the License.  You may obtain a copy of the License at http://www.apache.org/licenses/LICENSE-2.0 Unless required by applicable law or agreed to in writing, software distributed under the License is distributed on an \"AS IS\" BASIS, WITHOUT WARRANTIES OR CONDITIONS OF ANY KIND, either express or implied.  See the License for the specific language governing permissions and limitations under the License. Command name check-for-user scope esb description Checks if any users are defined. EsbCheckAdminUser CheckAdminUser String getCreateAdminUserCommand esb:create-admin-user"}
{"file_path":"/shared/shared-commands/src/main/java/org/jboss/fuse/commands/EsbCreateAdminUser.java","file_package_path":"org.jboss.fuse.commands.EsbCreateAdminUser","package_fully_qualified_name":"org.jboss.fuse.commands","import_fully_qualified_names":["org.apache.felix.gogo.commands.Command"],"text":"\n * Copyright 2005-2015 Red Hat, Inc. Red Hat licenses this file to you under the Apache License, version 2.0 (the \"License\"); you may not use this file except in compliance with the License.  You may obtain a copy of the License at http://www.apache.org/licenses/LICENSE-2.0 Unless required by applicable law or agreed to in writing, software distributed under the License is distributed on an \"AS IS\" BASIS, WITHOUT WARRANTIES OR CONDITIONS OF ANY KIND, either express or implied.  See the License for the specific language governing permissions and limitations under the License. Command name create-admin-user scope esb description Creates a new admin user if one doesn\u0027t exist EsbCreateAdminUser CreateAdminUser"}
