{"key":"MATH-915","title":"Backward compatibility broken in \"EmpiricalDistribution\"","description":"{{o.a.c.m.random.EmpiricalDistribution}}"}
{"key":"MATH-718","title":"inverseCumulativeProbability of BinomialDistribution returns wrong value for large trials.","description":"{{System.out.println(new BinomialDistributionImpl(1000000, 0.5).inverseCumulativeProbability(0.5));}}"}
{"key":"MATH-778","title":"Dfp Dfp.multiply(int x) does not comply with the general contract FieldElement.multiply(int n)","description":"{{org.apache.commons.math3.Dfp}} {{multiply(int n)}}  {{0 \u003c\u003d n \u003c\u003d 9999}} {{FieldElement.multiply(int n)}} {{n}}"}
{"key":"MATH-841","title":"gcd speed up","description":"public void testApache(){\n        Random rng\u003dnew Random(0);\n        long checksum\u003d0;\n        long start\u003dSystem.nanoTime();\n        checksum+\u003dgcd(0,Integer.MAX_VALUE);\n        checksum+\u003dgcd(Integer.MAX_VALUE,0);\n        checksum+\u003dgcd(Integer.MAX_VALUE,rng.nextInt());\n        for(int i\u003d0;i\u003c10000;i++) checksum+\u003dgcd(rng.nextInt(),Integer.MAX_VALUE);\n        checksum+\u003dgcd(Integer.MAX_VALUE,Integer.MAX_VALUE);\n        checksum+\u003dgcd(Integer.MIN_VALUE,1\u003c\u003c30);\n        checksum+\u003dgcd(1\u003c\u003c30,1\u003c\u003c30);\n        checksum+\u003dgcd(3 * (1\u003c\u003c20),9 * (1\u003c\u003c15));\n        for(int i\u003d0;i\u003c30000000;i++) checksum+\u003dgcd(rng.nextInt(),rng.nextInt());\n        long end\u003dSystem.nanoTime();\n        long tns\u003dend-start;\n        long tms\u003d(tns+500000)/1000000;\n        long ts\u003d(tms+500)/1000;\n        System.out.println(\"exec time\u003d\"+ts+\"s, (\"+tms+\"ms), checksum\u003d\"+checksum);\n        assertEquals(9023314441L,checksum);\n    }"}
{"key":"MATH-905","title":"FastMath.[cosh, sinh] do not support the same range of values as the Math counterparts","description":"Math.cosh(709.783)  FastMath.cosh(709.783)  Math.sinh(709.783)  FastMath.sinh(709.783)  StrictMath.log(Double.MAX_VALUE) double t \u003d exp(x*0.5);\nreturn (0.5*t)*t;\n double t \u003d exp(-x*0.5);\nreturn (-0.5*t)*t;"}
