{"id":13,"bug_id":"NUTCH-1393","text":"If we pass the generate argument to the nutch script, the Generator auto-spings into action and begins generating fetchlists.           All I wanted to do was get the usage params printed to stdout but instead it generated my batch willy nilly.","method_goldset":["org.apache.nutch.crawl.GeneratorJob:generate(long, long, boolean, boolean)","org.apache.nutch.crawl.GeneratorJob:run(String[])"],"creation_date":"2012-6-13 18:38:39","resolution_date":"2013-3-8 13:38:47"}
{"id":14,"bug_id":"NUTCH-1484","text":"When crawling the local filesystem TableUtil.unreverseURL fails for URLs with empty host part (file:///Documents/). StringUtils.split(String, char) does not preserve empty parts which causes:","method_goldset":["org.apache.nutch.util.TestTableUtil:assertReverse(String, String)","org.apache.nutch.util.TestTableUtil:testReverseUrl()","org.apache.nutch.util.TestTableUtil:testUnreverseUrl()"],"creation_date":"2012-11-1 03:36:57","resolution_date":"2012-11-12 15:22:33"}
{"id":15,"bug_id":"NUTCH-1552","text":"possibility of a NPE in index-more plugin. in line 203 of src/java/org/apache/nutch/indexer/more/MoreIndexingFilter.java the code attempt to read from variable contentType even thou it is possible for it to be null.","method_goldset":["org.apache.nutch.indexer.more.MoreIndexingFilter:addType(NutchDocument, WebPage, String)"],"creation_date":"2013-4-2 17:00:19","resolution_date":"2013-5-8 17:07:58"}
{"id":16,"bug_id":"NUTCH-1563","text":"FetchSchedule#getFields is never used by GeneraterJob. The method of getFields in FetchSchedule if never used, so if user extends the FetchSchedule and want to get some fields of WebPage, it always return null.","method_goldset":["org.apache.nutch.crawl.GeneratorJob:run(Map\u003cString,Object\u003e)"],"creation_date":"2013-4-18 10:23:28","resolution_date":"2013-5-29 10:40:29"}
