{"id":246,"bug_id":"OPENJPA-1682","text":"TestSimpleXmlEntity.testId failed with invalid DB2 create table SQL statement. TestSimpleXmlEntity.testId starts failing with the following exception against DB2: TestSimpleXmlEntity.testId  View test details   (org.apache.openjpa.persistence.xml)     \u003copenjpa-2.1.0-SNAPSHOT-r422266:951071 nonfatal general error\u003e org.apache.openjpa.persistence.PersistenceException: DB2 SQL Error: SQLCODE\u003d-542, SQLSTATE\u003d42831, SQLERRMC\u003dNICKNAME_XML, DRIVER\u003d3.50.152 {stmnt 65405926 CREATE TABLE NickNames_xml (A_ID_xml INTEGER NOT NULL, nickName_xml VARCHAR(20), CONSTRAINT U_NCKNXML_A_ID_XML UNIQUE (A_ID_xml, nickName_xml))} [code\u003d-542, state\u003d42831]     at org.apache.openjpa.jdbc.meta.MappingTool.record(MappingTool.java:556)     at org.apache.openjpa.jdbc.meta.MappingTool.record(MappingTool.java:456)     Please wait... Show details »     « Hide details     \u003copenjpa-2.1.0-SNAPSHOT-r422266:951071 nonfatal general error\u003e org.apache.openjpa.persistence.PersistenceException: DB2 SQL Error: SQLCODE\u003d-542, SQLSTATE\u003d42831, SQLERRMC\u003dNICKNAME_XML, DRIVER\u003d3.50.152 {stmnt 65405926 CREATE TABLE NickNames_xml (A_ID_xml INTEGER NOT NULL, nickName_xml VARCHAR(20), CONSTRAINT U_NCKNXML_A_ID_XML UNIQUE (A_ID_xml, nickName_xml))} [code\u003d-542, state\u003d42831]     at org.apache.openjpa.jdbc.meta.MappingTool.record(MappingTool.java:556)     at org.apache.openjpa.jdbc.meta.MappingTool.record(MappingTool.java:456)     at org.apache.openjpa.jdbc.kernel.JDBCBrokerFactory.synchronizeMappings(JDBCBrokerFactory.java:155)     at org.apache.openjpa.jdbc.kernel.JDBCBrokerFactory.synchronizeMappings(JDBCBrokerFactory.java:159)     at org.apache.openjpa.jdbc.kernel.JDBCBrokerFactory.newBrokerImpl(JDBCBrokerFactory.java:117)     at org.apache.openjpa.kernel.AbstractBrokerFactory.newBroker(AbstractBrokerFactory.java:199)     at org.apache.openjpa.kernel.DelegatingBrokerFactory.newBroker(DelegatingBrokerFactory.java:156)     at org.apache.openjpa.persistence.EntityManagerFactoryImpl.createEntityManager(EntityManagerFactoryImpl.java:213)     at org.apache.openjpa.persistence.EntityManagerFactoryImpl.createEntityManager(EntityManagerFactoryImpl.java:151)     at org.apache.openjpa.persistence.test.SingleEMTestCase.setUp(SingleEMTestCase.java:47)     at org.apache.openjpa.persistence.xml.TestSimpleXmlEntity.setUp(TestSimpleXmlEntity.java:28)     at junit.framework.TestCase.runBare(TestCase.java:125)     at org.apache.openjpa.persistence.test.AbstractPersistenceTestCase.runBare(AbstractPersistenceTestCase.java:503)     at org.apache.openjpa.persistence.test.AbstractPersistenceTestCase.runBare(AbstractPersistenceTestCase.java:479)     at junit.framework.TestResult$1.protect(TestResult.java:106)     at junit.framework.TestResult.runProtected(TestResult.java:124)     at junit.framework.TestResult.run(TestResult.java:109)     at junit.framework.TestCase.run(TestCase.java:118)     at org.apache.openjpa.persistence.test.AbstractPersistenceTestCase.run(AbstractPersistenceTestCase.java:179)     at junit.framework.TestSuite.runTest(TestSuite.java:208)     at junit.framework.TestSuite.run(TestSuite.java:203)     at sun.reflect.GeneratedMethodAccessor52.invoke(Unknown Source)     at sun.reflect.DelegatingMethodAccessorImpl.invoke(DelegatingMethodAccessorImpl.java:37)     at java.lang.reflect.Method.invoke(Method.java:600)     at org.apache.maven.surefire.junit.JUnitTestSet.execute(JUnitTestSet.java:213)     at org.apache.maven.surefire.suite.AbstractDirectoryTestSuite.executeTestSet(AbstractDirectoryTestSuite.java:140)     at org.apache.maven.surefire.suite.AbstractDirectoryTestSuite.execute(AbstractDirectoryTestSuite.java:127)     at org.apache.maven.surefire.Surefire.run(Surefire.java:177)     at sun.reflect.NativeMethodAccessorImpl.invoke0(Native Method)     at sun.reflect.NativeMethodAccessorImpl.invoke(NativeMethodAccessorImpl.java:48)     at sun.reflect.DelegatingMethodAccessorImpl.invoke(DelegatingMethodAccessorImpl.java:37)     at java.lang.reflect.Method.invoke(Method.java:600)     at org.apache.maven.surefire.booter.SurefireBooter.runSuitesInProcess(SurefireBooter.java:345)     at org.apache.maven.surefire.booter.SurefireBooter.main(SurefireBooter.java:1009)     Caused by: org.apache.openjpa.lib.jdbc.ReportingSQLException: DB2 SQL Error: SQLCODE\u003d-542, SQLSTATE\u003d42831, SQLERRMC\u003dNICKNAME_XML, DRIVER\u003d3.50.152 {stmnt 65405926 CREATE TABLE NickNames_xml (A_ID_xml INTEGER NOT NULL, nickName_xml VARCHAR(20), CONSTRAINT U_NCKNXML_A_ID_XML UNIQUE (A_ID_xml, nickName_xml))} [code\u003d-542, state\u003d42831]     at org.apache.openjpa.lib.jdbc.LoggingConnectionDecorator.wrap(LoggingConnectionDecorator.java:257)     at org.apache.openjpa.lib.jdbc.LoggingConnectionDecorator.wrap(LoggingConnectionDecorator.java:241)     at org.apache.openjpa.lib.jdbc.LoggingConnectionDecorator.access$700(LoggingConnectionDecorator.java:70)     at org.apache.openjpa.lib.jdbc.LoggingConnectionDecorator$LoggingConnection$LoggingStatement.executeUpdate(LoggingConnectionDecorator.java:951)     at org.apache.openjpa.lib.jdbc.DelegatingStatement.executeUpdate(DelegatingStatement.java:136)     at org.apache.openjpa.jdbc.schema.SchemaTool.executeSQL(SchemaTool.java:1200)     at org.apache.openjpa.jdbc.schema.SchemaTool.createTable(SchemaTool.java:956)     at org.apache.openjpa.jdbc.schema.SchemaTool.add(SchemaTool.java:533)     at org.apache.openjpa.jdbc.schema.SchemaTool.add(SchemaTool.java:348)     at org.apache.openjpa.jdbc.schema.SchemaTool.run(SchemaTool.java:325)     at org.apache.openjpa.jdbc.meta.MappingTool.record(MappingTool.java:504)     ... 33 more The create table constraint  requires nickName_xml be \"NOT NULL\" Albert Lee","class_goldset":["openjpa-jdbc.src.main.java.org.apache.openjpa.jdbc.kernel.TableJDBCSeq","openjpa-jdbc.src.main.java.org.apache.openjpa.jdbc.meta.MappingInfo","openjpa-jdbc.src.main.java.org.apache.openjpa.jdbc.schema.Table","openjpa-jdbc.src.main.java.org.apache.openjpa.jdbc.schema.Unique","openjpa-jdbc.src.main.java.org.apache.openjpa.jdbc.schema.XMLSchemaParser","openjpa-jdbc.src.main.java.org.apache.openjpa.jdbc.sql.AbstractDB2Dictionary","openjpa-jdbc.src.main.java.org.apache.openjpa.jdbc.sql.DBDictionary","openjpa-persistence-jdbc.src.main.java.org.apache.openjpa.persistence.jdbc.AnnotationPersistenceMappingParser","openjpa-persistence-jdbc.src.main.java.org.apache.openjpa.persistence.jdbc.XMLPersistenceMappingParser"],"file_goldset":["openjpa-jdbc.src.main.java.org.apache.openjpa.jdbc.kernel.TableJDBCSeq","openjpa-jdbc.src.main.java.org.apache.openjpa.jdbc.meta.MappingInfo","openjpa-jdbc.src.main.java.org.apache.openjpa.jdbc.schema.Table","openjpa-jdbc.src.main.java.org.apache.openjpa.jdbc.schema.Unique","openjpa-jdbc.src.main.java.org.apache.openjpa.jdbc.schema.XMLSchemaParser","openjpa-jdbc.src.main.java.org.apache.openjpa.jdbc.sql.AbstractDB2Dictionary","openjpa-jdbc.src.main.java.org.apache.openjpa.jdbc.sql.DBDictionary","openjpa-persistence-jdbc.src.main.java.org.apache.openjpa.persistence.jdbc.AnnotationPersistenceMappingParser","openjpa-persistence-jdbc.src.main.java.org.apache.openjpa.persistence.jdbc.XMLPersistenceMappingParser"],"creation_date":"2010-06-04T16:08:28.000+0000","resolution_date":"2012-08-16T22:13:01.000+0000"}
{"id":247,"bug_id":"OPENJPA-2149","text":"Criteria.function adds wrong casts to parameters making it unsuable. Criteria.function will generate an SQL with only the last parameter casted and to the wrong type. Expression\u003cString\u003e stPointFunc \u003d cb.function(\n\t\t\t\t\"db2gse.st_point\", \n\t\t\t\tString.class,\n\t\t\t\tcb.literal(0.0),\n\t\t\t\tcb.literal(0.0),\n\t\t\t\tcb.literal(1003));\n\t\t\n\t\tExpression\u003cDouble\u003e distanceFunc \u003d cb.function(\n\t\t\t\t\"db2gse.st_distance\", \n\t\t\t\tDouble.class, \n\t\t\t\tstPointFunc, \n\t\t\t\tusersLocations.get(\"location\"));\n\t\t\n\t\tcriteriaQuery.select(usersLocations). where(cb.lessThan(distanceFunc, cb.literal(50.0))); Will generate the following SQL:\n(db2gse.st_distance(db2gse.st_point(? , ? , CAST(? AS DOUBLE)), t0.LOCATION) \u003c ?) Notice the 3rd parameter is an Integer and its being cast as Double. The problem is in org.apache.openjpa.jdbc.kernel.exps.DatastoreFunction#appendTo Line 54:  args.appendTo(sel, ctx, state, sql, 0);\nWill append 3 ? to the sql buffer: \"(db2gse.st_distance(db2gse.st_point(? , ? , ?\" Then the loop in line 56-58\n            for (int i \u003d 1; i \u003c vals.length; i++) {\n                sql.addCastForParam(getOperator(), vals[i]);\n            }\nIt becomes: \"(db2gse.st_distance(db2gse.st_point(? , ? , CAST(? AS DOUBLE)\" Starts with 1 (second parameter and not the first one), whil sql.addCastForParam only works for the last ? in the sql buffer, meaning the cast for the param at index 1 is added to the last ? and the method will not do anything else. This issue leaves Criteria.function useless to me, I tried extending my DBDictionary to remove all the cast as a work around but the function became ambiguous. Thanks in advance. Found a temporary (working but ugly) workaround:\n\t\tExpression\u003cString\u003e stPointFunc \u003d cb.function(\n\t\t\t\t\"db2gse.st_point\", \n\t\t\t\tString.class,\n\t\t\t\tcb.coalesce(cb.literal(0.0), cb.literal(0.0)),\n\t\t\t\tcb.coalesce(cb.literal(1.0), cb.literal(1.0)),\n\t\t\t\tcb.coalesce(cb.literal(1003), cb.literal(1003))); coalesce uses raw value instead of parameters and makes it work (the same value twice becuase if I put cb.nullLiteral I get a NullPointerException, might be another bug)","class_goldset":["openjpa-jdbc.src.main.java.org.apache.openjpa.jdbc.kernel.exps.Args","openjpa-jdbc.src.main.java.org.apache.openjpa.jdbc.kernel.exps.DatastoreFunction","openjpa-jdbc.src.main.java.org.apache.openjpa.jdbc.kernel.exps.UnaryOp"],"file_goldset":["openjpa-jdbc.src.main.java.org.apache.openjpa.jdbc.kernel.exps.Args","openjpa-jdbc.src.main.java.org.apache.openjpa.jdbc.kernel.exps.DatastoreFunction","openjpa-jdbc.src.main.java.org.apache.openjpa.jdbc.kernel.exps.UnaryOp"],"creation_date":"2012-03-05T07:50:18.000+0000","resolution_date":"2012-08-24T02:34:53.000+0000"}
{"id":248,"bug_id":"OPENJPA-2163","text":"Lifecycle event callback occurs more often than expect. A problem was uncovered in a scenario where multiple EntityManager instances created from the same EntityManagerFactory, and each instance is initialized with a new instance of a LifecycleListener instance, i.e. final EntityManager em \u003d factory.createEntityManager();\nfinal EntityManager em2 \u003d factory.createEntityManager();\n...\nMyLifecycleListener l1 \u003d new MyLifecycleListener();\nMyLifecycleListener l2 \u003d new MyLifecycleListener();\n...\n((OpenJPAEntityManagerSPI)em). addLifecycleListener(l1, null);\n((OpenJPAEntityManagerSPI)em2). addLifecycleListener(l2, null); When life cycle event occurs for a specific entity manager, all the listeners created under the emf are being invoked. The expected behavior is only the listener registered in the em from which the life cycle events are related should be called.","class_goldset":["openjpa-kernel.src.main.java.org.apache.openjpa.conf.OpenJPAConfigurationImpl","openjpa-persistence-jdbc.src.test.java.org.apache.openjpa.persistence.validation.TestValidationMode"],"file_goldset":["openjpa-kernel.src.main.java.org.apache.openjpa.conf.OpenJPAConfigurationImpl","openjpa-persistence-jdbc.src.test.java.org.apache.openjpa.persistence.validation.TestValidationMode"],"creation_date":"2012-03-27T20:56:55.000+0000","resolution_date":"2012-04-01T14:42:17.000+0000"}
{"id":249,"bug_id":"OPENJPA-2174","text":"Result set mapping was not looked up when retrieving column data from a NamedNativeQuery. Invalid index exception was thrown when it tried to retrieve the column data from the result set of a name native query. This is  because the attribute name defined in the entity is different from the actual column alas name defined in the query and  it didn\u0027t look up the result set mapping for the correct column name before retrieving the data. the fix and test case is attached.","class_goldset":["openjpa-jdbc.src.main.java.org.apache.openjpa.jdbc.meta.strats.XMLValueHandler"],"file_goldset":["openjpa-jdbc.src.main.java.org.apache.openjpa.jdbc.meta.strats.XMLValueHandler"],"creation_date":"2012-04-17T20:40:17.000+0000","resolution_date":"2012-05-31T13:41:38.000+0000"}
{"id":250,"bug_id":"OPENJPA-2197","text":"MethodComparator in AnnotationPersistenceMetaDataParser should also compare parameters. AnnotationPersistenceMetaDataParser contains a MethodComparator which only compares the class + the method name. Too bad I have (had...) 2 methods with the same name in my EntityListener: @PreUpdate\n    public void updateChangeLog(Object entity) { . . and also private void updateChangeLog(BaseEntity he, ChangeLogEntry cle) which is a private helper method. Due to the bug in MethodComparator, my @PreUpdate sometimes didn\u0027t get detected.","class_goldset":["openjpa-persistence-jdbc.src.test.java.org.apache.openjpa.persistence.callbacks.ListenerImpl"],"file_goldset":["openjpa-persistence-jdbc.src.test.java.org.apache.openjpa.persistence.callbacks.ListenerImpl"],"creation_date":"2012-05-16T22:10:22.000+0000","resolution_date":"2012-05-17T07:58:07.000+0000"}
{"id":251,"bug_id":"OPENJPA-2227","text":"OpenJPA doesn\u0027t find custom SequenceGenerators. I\u0027m trying to use a custom SequenceGenerator within an enterprise application using openJPA (providing by WebSphere). When defining a custom Sequence a ClassNotFoundException (for the Sequence class) will be thrown when trying to insert data into the database. ExampleConfiguration:\n{code}\n@Entity\n@SequenceGenerator(name\u003d\"MySequence\", sequenceName\u003d\"org.apache.openjpa.generator.UIDGenerator()\")\npublic class Customer implements Serializable {\n    @Id\n    @GeneratedValue(strategy\u003dGenerationType.SEQUENCE, generator\u003d\"MySequence\")\n    private long id;\n{code} The example will produce the stacktrace attached. It seems that the wrong class loader is used to instantiate the custom sequence class. A very similar issue seems to be: OPENJPA-758. With JavaSE (JUnit) all is working fine, but after deploying into WAS the Exception will occur. I think within the method SequenceMetaData.instantiate(Classloader envLoader) the JavaTypes.classForName() -method with parameter mustExist\u003dfalse should be used instead of the pure Class.forName() call. But I\u0027m not sure about the Metadata-parameter needed for this method call.","class_goldset":["openjpa-kernel.src.main.java.org.apache.openjpa.meta.SequenceMetaData"],"file_goldset":["openjpa-kernel.src.main.java.org.apache.openjpa.meta.SequenceMetaData"],"creation_date":"2012-07-09T19:24:05.000+0000","resolution_date":"2012-08-24T00:20:59.000+0000"}
{"id":252,"bug_id":"OPENJPA-2229","text":"Persistence entities not recognized when deploying on JBoss AS 7.1. I\u0027ve found this guide [1] about using OenJPA 2.2.0 and JBoss 7.1: I had some minor issues (already reported on that page) easily solved, but then I came to this exception, thrown at every JPA query: \u003copenjpa-2.2.0-r422266:1244990 nonfatal user error\u003e org.apache.openjpa.persistence.ArgumentException: An error occurred while parsing the query filter \"SELECT e FROM  ExternalResource e\". Error message: The name \"ExternalResource\" is not a recognized entity or identifier. Perhaps you meant ExternalResource, which is a close match. Known entity names: [ExternalResource, AbstractSchema, RAttrUniqueValue, AbstractVirAttr, Membership, TaskExec, SyncopeConf, Report, RAttr, AbstractExec, SyncopeLogger, USchema, MAttr, PasswordPolicy, RSchema, MSchema, MAttrValue, MAttrUniqueValue, AbstractAttr, AbstractDerSchema, AbstractVirSchema, UAttr, AccountPolicy, RAttrValue, UAttrValue, ReportExec, SyncopeUser, Notification, ConnInstance, AbstractDerAttr, AbstractAttrValue, SyncopeRole, SyncPolicy, Policy, ReportletConfInstance, Task, UAttrUniqueValue, Entitlement, SchemaMapping, UserRequest]         at org.apache.openjpa.kernel.exps.AbstractExpressionBuilder.parseException(AbstractExpressionBuilder.java:119) [openjpa-kernel-2.2.0.jar:2.2.0]         at org.apache.openjpa.kernel.jpql.JPQLExpressionBuilder.getClassMetaData(JPQLExpressionBuilder.java:194) [openjpa-kernel-2.2.0.jar:2.2.0]         at org.apache.openjpa.kernel.jpql.JPQLExpressionBuilder.resolveClassMetaData(JPQLExpressionBuilder.java:167) [openjpa-kernel-2.2.0.jar:2.2.0]         at org.apache.openjpa.kernel.jpql.JPQLExpressionBuilder.getCandidateMetaData(JPQLExpressionBuilder.java:242) [openjpa-kernel-2.2.0.jar:2.2.0]         at org.apache.openjpa.kernel.jpql.JPQLExpressionBuilder.getCandidateMetaData(JPQLExpressionBuilder.java:212) [openjpa-kernel-2.2.0.jar:2.2.0]         at org.apache.openjpa.kernel.jpql.JPQLExpressionBuilder.getCandidateType(JPQLExpressionBuilder.java:205) [openjpa-kernel-2.2.0.jar:2.2.0]         at org.apache.openjpa.kernel.jpql.JPQLExpressionBuilder.access$200(JPQLExpressionBuilder.java:80) [openjpa-kernel-2.2.0.jar:2.2.0]         at org.apache.openjpa.kernel.jpql.JPQLExpressionBuilder$ParsedJPQL.populate(JPQLExpressionBuilder.java:2417) [openjpa-kernel-2.2.0.jar:2.2.0]         at org.apache.openjpa.kernel.jpql.JPQLParser.populate(JPQLParser.java:61) [openjpa-kernel-2.2.0.jar:2.2.0] After some deeper investigation, I\u0027ve found that the problem resides in the vfs: JBoss URLs, currently not managed. [1] https://community.jboss.org/thread/201329","class_goldset":["openjpa-kernel.src.main.java.org.apache.openjpa.meta.AbstractCFMetaDataFactory"],"file_goldset":["openjpa-kernel.src.main.java.org.apache.openjpa.meta.AbstractCFMetaDataFactory"],"creation_date":"2012-07-12T14:19:25.000+0000","resolution_date":"2012-08-03T15:20:49.000+0000"}
{"id":253,"bug_id":"OPENJPA-2247","text":"JoinColumn annotation is ignored when mapping a unidirectional owned OneToOne that is in a SecondaryTable. The runtime incorrectly ignores @JoinColumn. name when mapping a unidirectional owned OneToOne that is in a SecondaryTable. This problem only exists when running with a persistence.xml that is set to 2.0 (version\u003d\"2.0\"\u003e). For example: @Entity\n@SecondaryTable(name \u003d \"ParentSecondaryTable\", pkJoinColumns \u003d \n    { @PrimaryKeyJoinColumn(name \u003d \"idParent\", referencedColumnName \u003d \"idParent\") })\npublic class Parent { @Id\n    @GeneratedValue\n    int idParent; String child_ref; @OneToOne\n    @JoinColumn(name \u003d \"CHILD_REF\", table \u003d \"ParentSecondaryTable\", referencedColumnName \u003d \"idChild\")\n    PChild child; } The column \"CHILD_REF\" will be ignored and the runtime will look for the fk in non-existent column ParentSecondaryTable.CHILD_IDCHILD.","class_goldset":["openjpa-jdbc.src.main.java.org.apache.openjpa.jdbc.meta.MappingRepository"],"file_goldset":["openjpa-jdbc.src.main.java.org.apache.openjpa.jdbc.meta.MappingRepository"],"creation_date":"2012-08-03T15:29:58.000+0000","resolution_date":"2012-10-09T18:18:12.000+0000"}
{"id":254,"bug_id":"OPENJPA-2255","text":"Couldn\u0027t load the referencedColumn definition when create the JoinTable. The JoinColumn couldn\u0027t have the referencedColumn\u0027s definition which includes the length definition. and it\u0027s length  should be assigned to the default value 255. @Entity \npublic class Student { \n  @Id @Column(name\u003d\"id\", length\u003d128, nullable\u003dfalse) private String id; \n  @Column(name\u003d\"sName\", length\u003d255) private String sName; \n  @ManyToMany \n  @JoinTable( \n    name\u003d\"student_course_map\", \n    joinColumns\u003d{@JoinColumn(name\u003d\"student_id\", referencedColumnName\u003d\"id\", nullable\u003dfalse)}, \n    inverseJoinColumns\u003d{@JoinColumn(name\u003d\"course_id\", referencedColumnName\u003d\"id\", nullable\u003dfalse)} \n  ) \n  public Collection getCourses() ... \n} @Entity \npublic class Courses{ \n  @Id @Column(name\u003d\"id\", length\u003d128, nullable\u003dfalse) private String id; \n  @Column(name\u003d\"cName\", length\u003d255) private String cName; ... \n} We can see the student id length has been defined to 128. And there is no definition length in the JoinColumn student_id. The JoinColumn should be set to the default value 255. The warning message will occur like this WARN  [Schema] Existing column \"student_id\" on table \"test.student_course_map\" is incompatible with the same column in the given schema definition. Existing column: \nFull Name: student_course_map. student_id \nType: varchar \nSize: 128 \nDefault: null \nNot Null: true \nGiven column: \nFull Name: student_course_map. student_id \nType: varchar \nSize: 255 \nDefault: null \nNot Null: true","class_goldset":["openjpa-jdbc.src.main.java.org.apache.openjpa.jdbc.meta.MappingInfo"],"file_goldset":["openjpa-jdbc.src.main.java.org.apache.openjpa.jdbc.meta.MappingInfo"],"creation_date":"2012-08-31T01:15:52.000+0000","resolution_date":"2012-09-11T15:16:35.000+0000"}
{"id":255,"bug_id":"OPENJPA-428","text":"Bad error message regarding \"openjpa.Id\". Hi all, this bug is to report a confusing and misplaced error message. Problem is described below. Feel free to request more info from me. When running my project with OpenJPA, I get the following error message: 140  INFO   [http-0.0.0.0-8080-Processor23] openjpa.Runtime - Starting OpenJPA 1.0.0\n380  INFO   [http-0.0.0.0-8080-Processor23] openjpa.jdbc.JDBC - Using dictionary class \"org.apache.openjpa.jdbc.sql.DB2Dictionary\". 20  WARN   [http-0.0.0.0-8080-Processor25] openjpa.Runtime - The property named \"openjpa.Id\" was not recognized and will be ignored, although the name closely matches a valid property called \"openjpa.Id\". 100  INFO   [http-0.0.0.0-8080-Processor25] openjpa.Runtime - Starting OpenJPA 1.0.0\n300  INFO   [http-0.0.0.0-8080-Processor25] openjpa.jdbc.JDBC - Using dictionary class \"org.apache.openjpa.jdbc.sql.DB2Dictionary\". As you can see, the two property names printed are the same, not different or similar. I retyped all my @Id annotations to make sure there was no special character in one of them coming from copy\u0026paste. Furthermore, I was able to identify that the error message was being printed only when I removed the @Id annotation from one of my classes (all the other classes still have @Id). Here is a sample of my class without @Id annotation:\n@Entity\n@Table(name\u003d\"TAX\", schema\u003d\"JPA_SC\")\npublic class Tax  {\n\t\n\t// Class variables  \n\tprotected double taxamount;\n \n\tpublic Tax(){\n\t\t\n\t}\n\t\n\tpublic Tax(double taxamount){\n\t\tthis.taxamount \u003d taxamount;\n\t}\n//plus getter and setter for taxamount } Regards,\nVitor Rodrigues","class_goldset":["openjpa-lib.src.main.java.org.apache.openjpa.lib.conf.ConfigurationImpl","openjpa-lib.src.main.java.org.apache.openjpa.lib.conf.Configurations"],"file_goldset":["openjpa-lib.src.main.java.org.apache.openjpa.lib.conf.ConfigurationImpl","openjpa-lib.src.main.java.org.apache.openjpa.lib.conf.Configurations"],"creation_date":"2007-11-01T17:39:40.000+0000","resolution_date":"2012-08-08T18:04:01.000+0000"}
