{"id":278,"bug_id":"PIG-1188","text":"Padding nulls to the input tuple according to input schema. Currently, the number of fields in the input tuple is determined by the data. When we have schema, we should generate input data according to the schema, and padding nulls if necessary. Here is one example: Pig script: {code} a \u003d load \u00271. txt\u0027 as (a0, a1); dump a; {code} Input file: {code} 1       2 1       2       3 1 {code} Current result: {code} (1 2) (1 2,3) (1 {code} Desired result: {code} (1 2) (1 2) (1 null) {code}","class_goldset":["src.org.apache.pig.newplan.logical.rules.TypeCastInserter","test.org.apache.pig.test.TestEvalPipeline2","test.org.apache.pig.test.TestMergeForEachOptimization","test.org.apache.pig.test.TestMultiQueryCompiler","test.org.apache.pig.test.TestNewPlanFilterAboveForeach","test.org.apache.pig.test.TestNewPlanFilterRule","test.org.apache.pig.test.TestNewPlanLogicalOptimizer","test.org.apache.pig.test.TestNewPlanPushDownForeachFlatten","test.org.apache.pig.test.TestPartitionFilterPushDown"],"file_goldset":["src.org.apache.pig.newplan.logical.rules.TypeCastInserter","test.org.apache.pig.test.TestEvalPipeline2","test.org.apache.pig.test.TestMergeForEachOptimization","test.org.apache.pig.test.TestMultiQueryCompiler","test.org.apache.pig.test.TestNewPlanFilterAboveForeach","test.org.apache.pig.test.TestNewPlanFilterRule","test.org.apache.pig.test.TestNewPlanLogicalOptimizer","test.org.apache.pig.test.TestNewPlanPushDownForeachFlatten","test.org.apache.pig.test.TestPartitionFilterPushDown"],"creation_date":"2010-01-14T19:32:46.000+0000","resolution_date":"2011-03-09T22:58:11.000+0000"}
{"id":279,"bug_id":"PIG-1277","text":"Pig should give error message when cogroup on tuple keys of different inner type. When we cogroup on a tuple, if the inner type of tuple does not match, we treat them as different keys. This is confusing. It is desirable to give error/warnings when it happens. Here is one example:\nUDF:\n{code}\npublic class MapGenerate extends EvalFunc\u003cMap\u003e {\n    @Override\n    public Map exec(Tuple input) throws IOException {\n        // TODO Auto-generated method stub\n        Map m \u003d new HashMap();\n        m.put(\"key\", new Integer(input.size()));\n        return m;\n    }\n    \n    @Override\n    public Schema outputSchema(Schema input) {\n        return new Schema(new Schema.FieldSchema(null, DataType.MAP));\n    }\n}\n{code} Pig script: \n{code}\na \u003d load \u00271. txt\u0027 as (a0);\nb \u003d foreach a generate a0, MapGenerate(*) as m:map[];\nc \u003d foreach b generate a0, m#\u0027key\u0027 as key;\nd \u003d load \u00272. txt\u0027 as (c0, c1);\ne \u003d cogroup c by (a0, key), d by (c0, c1);\ndump e;\n{code} 1 txt {code} 1 {code} 2 txt {code} 1 1 {code} User expected result (which is not right): {code} ((1 1),{(1,1)},{(1,1)}) {code} Real result: {code} ((1 1),{(1,1)},{}) ((1 1),{},{(1,1)}) {code} We shall give user the message that we can not merge the key due to the type mismatch.","class_goldset":["src.org.apache.pig.backend.hadoop.HDataType","src.org.apache.pig.backend.hadoop.executionengine.mapReduceLayer.PigBytesRawComparator","src.org.apache.pig.backend.hadoop.executionengine.mapReduceLayer.PigMapReduce","src.org.apache.pig.backend.hadoop.executionengine.physicalLayer.relationalOperators.POMultiQueryPackage","src.org.apache.pig.impl.io.NullableBytesWritable","src.org.apache.pig.newplan.logical.relational.LOUnion","test.org.apache.pig.test.TestEvalPipeline2","test.org.apache.pig.test.TestPackage","test.org.apache.pig.test.TestSecondarySort"],"file_goldset":["src.org.apache.pig.backend.hadoop.HDataType","src.org.apache.pig.backend.hadoop.executionengine.mapReduceLayer.PigBytesRawComparator","src.org.apache.pig.backend.hadoop.executionengine.mapReduceLayer.PigMapReduce","src.org.apache.pig.backend.hadoop.executionengine.physicalLayer.relationalOperators.POMultiQueryPackage","src.org.apache.pig.impl.io.NullableBytesWritable","src.org.apache.pig.newplan.logical.relational.LOUnion","test.org.apache.pig.test.TestEvalPipeline2","test.org.apache.pig.test.TestPackage","test.org.apache.pig.test.TestSecondarySort"],"creation_date":"2010-03-05T19:02:03.000+0000","resolution_date":"2010-12-24T01:32:27.000+0000"}
{"id":280,"bug_id":"PIG-1680","text":"Pig 0.8 HBaseStorage may not against HBase 0.89. HBaseStorage is currently coded against the hbase 0.20.6 API. The hbase 0.89 API deprecates some methods and outright removes some others which causes HBaseStorage to no longer compile. It is unclear whether one can run an HBase 0.20.6 client against a running 0.89 hbase instance. In my experience, it does not work. Therefore, HBaseStorage has to be compiled against 0.89. Attached is a proposed patch to make 0.8.0 trunk compatible with hbase 0.89 as well as a script to help automate the upgrade.","class_goldset":["src.org.apache.pig.backend.hadoop.hbase.HBaseStorage","src.org.apache.pig.backend.hadoop.hbase.HBaseTableInputFormat"],"file_goldset":["src.org.apache.pig.backend.hadoop.hbase.HBaseStorage","src.org.apache.pig.backend.hadoop.hbase.HBaseTableInputFormat"],"creation_date":"2010-10-14T16:07:47.000+0000","resolution_date":"2011-03-05T23:47:17.000+0000"}
{"id":281,"bug_id":"PIG-1717","text":"pig needs to call setPartitionFilter if schema is null but getPartitionKeys is not. I\u0027m writing a loader that works with hive style partitioning e.g. /logs/type1/daydate\u003d2010-11-01\nThe loader does not know the schema upfront and this is something that the user adds in the script using the AS clause. The problem is that this user defined schema is not available to the loader, so the loader cannot return any schema, the Loader does know what the partition keys are and pig needs in some way to know about these partition keys. Currently if the schema is null pig never calls the LoadMetaData:getPartitionKeys method or the setPartitionFilter method.","class_goldset":["src.org.apache.pig.impl.logicalLayer.LOLoad","src.org.apache.pig.impl.util.Utils","src.org.apache.pig.newplan.logical.relational.LOLoad"],"file_goldset":["src.org.apache.pig.impl.logicalLayer.LOLoad","src.org.apache.pig.impl.util.Utils","src.org.apache.pig.newplan.logical.relational.LOLoad"],"creation_date":"2010-11-11T15:41:37.000+0000","resolution_date":"2011-02-03T20:03:28.000+0000"}
{"id":282,"bug_id":"PIG-1771","text":"New logical plan: Merge schema fail if LoadFunc.getSchema return different schema with \"Load...AS\". The following script fail: {code}\na \u003d load \u00271. txt\u0027 as (a0:chararray, a1:chararray, a3, a4:map[]);\nstore a into \u00271. bin\u0027 using BinStorage(); auxData \u003d LOAD \u00271. bin\u0027 USING BinStorage(\u0027Utf8StorageConverter\u0027) AS (cookieId:chararray, type:chararray, record:tuple(), state:map[]);\ndump auxData;\n{code} Error message: Caused by: org.apache.pig.impl.logicalLayer.FrontendException: ERROR 2246: Error merging schema record#-1:tuple{} and null#-1:bytearray         at org.apache.pig.newplan.logical.relational.LogicalSchema.merge(LogicalSchema.java:337)         at org.apache.pig.newplan.logical.relational.LOLoad.getSchema(LOLoad.java:103)         at org.apache.pig.newplan.logical.optimizer.SchemaResetter.visit(SchemaResetter.java:59)         at org.apache.pig.newplan.logical.relational.LOLoad.accept(LOLoad.java:159)         at org.apache.pig.newplan.DependencyOrderWalker.walk(DependencyOrderWalker.java:75)         at org.apache.pig.newplan.PlanVisitor.visit(PlanVisitor.java:50)         at org.apache.pig.backend.hadoop.executionengine.HExecutionEngine.compile(HExecutionEngine.java:261)         ... 12 more","class_goldset":["src.org.apache.pig.newplan.logical.relational.LogicalSchema","test.org.apache.pig.test.TestEvalPipeline2"],"file_goldset":["src.org.apache.pig.newplan.logical.relational.LogicalSchema","test.org.apache.pig.test.TestEvalPipeline2"],"creation_date":"2010-12-16T20:45:37.000+0000","resolution_date":"2010-12-20T18:41:56.000+0000"}
{"id":283,"bug_id":"PIG-1776","text":"changing statement corresponding to alias after explain , then doing dump gives incorrect result. {code}\ngrunt\u003e a \u003d load \u0027/tmp/t2. txt\u0027 as (str:chararray, num1:int, alph : chararray);\ngrunt\u003e dump a;\n(ABC,1,a)\n(ABC,1,b)\n(ABC,1,a)\n(ABC,2,b)\n(DEF,1,d)\n(XYZ,1,x) grunt\u003e c \u003d foreach b  generate group.str, group. $1, COUNT(a.alph) ;          \ngrunt\u003e dump c; -- gives correct results\n(ABC,1,3)\n(ABC,2,1)\n(DEF,1,1)\n(XYZ,1,1) /* but dumping c after following steps gives incorrect results */ grunt\u003e c \u003d foreach b  generate group. $0 , (CHARARRAY)group. $1;                                                                                 \ngrunt\u003e explain c;\n...\n...\ngrunt\u003e c \u003d foreach b  generate group.str, group. $1, COUNT(a.alph) ;\ngrunt\u003e dump c;             \n(ABC,1,0)\n(ABC,2,0)\n(DEF,1,0)\n(XYZ,1,0) {code}","class_goldset":["src.org.apache.pig.PigServer","src.org.apache.pig.newplan.logical.relational.LOLoad","test.org.apache.pig.test.TestUDFContext"],"file_goldset":["src.org.apache.pig.PigServer","src.org.apache.pig.newplan.logical.relational.LOLoad","test.org.apache.pig.test.TestUDFContext"],"creation_date":"2010-12-17T22:28:09.000+0000","resolution_date":"2011-01-28T00:47:37.000+0000"}
{"id":284,"bug_id":"PIG-1785","text":"New logical plan: uid conflict in flattened fields. The following script produce wrong result:\n{code}\na \u003d load \u00271. txt\u0027 as (a0:bag{t:tuple(i0:int, i1:int)});\nb \u003d foreach a generate flatten(a0) as (b0, b1), flatten(a0) as (b2, b3);\nc \u003d filter b by b0\u003eb2;\ndump c;\n{code} 1 txt: {(1 2),(2,3)} Expected result: (2 3,1,2) We get nothing.","class_goldset":["src.org.apache.pig.newplan.logical.rules.DuplicateForEachColumnRewrite","src.org.apache.pig.newplan.logical.rules.ImplicitSplitInserter","src.org.apache.pig.newplan.optimizer.PlanOptimizer","src.org.apache.pig.newplan.optimizer.Rule","test.org.apache.pig.test.TestEvalPipeline2"],"file_goldset":["src.org.apache.pig.newplan.logical.rules.DuplicateForEachColumnRewrite","src.org.apache.pig.newplan.logical.rules.ImplicitSplitInserter","src.org.apache.pig.newplan.optimizer.PlanOptimizer","src.org.apache.pig.newplan.optimizer.Rule","test.org.apache.pig.test.TestEvalPipeline2"],"creation_date":"2011-01-04T23:20:28.000+0000","resolution_date":"2011-01-12T02:30:59.000+0000"}
{"id":285,"bug_id":"PIG-1808","text":"Error message in 0.8 not much helpful as compared to 0.7. A \u003d LOAD \u0027i1\u0027 ; B \u003d LOAD \u0027i2\u0027 ; C \u003d JOIN A by $92 left outer,B by $92  ; D \u003d  filter C by $100 is null; DUMP D; The below script fails both in 0.7 and 0.8 since A requires a valid schema to be defined. But the error message in 0.8 is not helpful. Error message in 0.8 ----------------------------- ERROR 2000: Error processing rule PushUpFilter. Try -t PushUpFilter org.apache.pig.impl.logicalLayer.FrontendException: ERROR 1066: Unable to open iterator for alias D .... Caused by: org.apache.pig.impl.logicalLayer.FrontendException: ERROR 2042: Error in new logical plan. Try -Dpig.usenewlogicalplan\u003dfalse. .... Caused by: org.apache.pig.impl.logicalLayer.FrontendException: ERROR 2000: Error processing rule PushUpFilter. Try -t PushUpFilter .... Caused by: java.lang.NullPointerException         at org.apache.pig.newplan.logical.rules.PushUpFilter$PushUpFilterTransformer.hasAll(PushUpFilter.java:308)         at org.apache.pig.newplan.logical.rules.PushUpFilter$PushUpFilterTransformer.check(PushUpFilter.java:141)         at org.apache.pig.newplan.optimizer.PlanOptimizer.optimize(PlanOptimizer.java:108)         ... 13 more Error message in 0.7 ----------------------------- org.apache.pig.impl.logicalLayer.FrontendException: ERROR 1066: Unable to open iterator for alias D .... .... Caused by: org.apache.pig.backend.hadoop.executionengine.physicalLayer.LogicalToPhysicalTranslatorException:  ERROR 1109: Input (B) on which outer join is desired should have a valid schema","class_goldset":["src.org.apache.pig.newplan.logical.rules.PushUpFilter","test.org.apache.pig.test.TestPushUpFilter"],"file_goldset":["src.org.apache.pig.newplan.logical.rules.PushUpFilter","test.org.apache.pig.test.TestPushUpFilter"],"creation_date":"2011-01-17T14:50:48.000+0000","resolution_date":"2011-03-15T02:00:51.000+0000"}
{"id":286,"bug_id":"PIG-1812","text":"Problem with DID_NOT_FIND_LOAD_ONLY_MAP_PLAN. Hi, I have the following input files: pkg.txt a       3       {(123,1.0),(236,2.0)} a       3       {(236,1.0)} model.txt a       123     2       0.33 a       236     2       0.5 My script is listed below: A \u003d load \u0027pkg.txt\u0027 using PigStorage(\u0027\\t\u0027) as (pkg:chararray, ts:int, cat_bag:{t:(id:chararray, wht:float)}); M \u003d load \u0027model.txt\u0027 using PigStorage(\u0027\\t\u0027) as (pkg:chararray, cat_id:chararray, ts:int, score:double); B \u003d foreach A generate ts, pkg, flatten(cat_bag. id) as (cat_id:chararray); B \u003d distinct B; H1 \u003d cogroup M by (pkg, cat_id) inner, B by (pkg, cat_id); H2 \u003d foreach H1 { I \u003d order M by ts; J \u003d order B by ts; generate flatten(group) as (pkg:chararray, cat_id:chararray), J.ts as tsorig, I.ts as tsmap; } dump H2; When running this script, I got a warning about \"Encountered Warning DID_NOT_FIND_LOAD_ONLY_MAP_PLAN 1 time(s)\" and pig error log as below: Pig Stack Trace --------------- ERROR 2043: Unexpected error during execution. org.apache.pig.impl.logicalLayer.FrontendException: ERROR 1066: Unable to open iterator for alias H2         at org.apache.pig.PigServer.openIterator(PigServer.java:764)         at org.apache.pig.tools.grunt.GruntParser.processDump(GruntParser.java:612)         at org.apache.pig.tools.pigscript.parser.PigScriptParser.parse(PigScriptParser.java:303)         at org.apache.pig.tools.grunt.GruntParser.parseStopOnError(GruntParser.java:165)         at org.apache.pig.tools.grunt.GruntParser.parseStopOnError(GruntParser.java:141)         at org.apache.pig.tools.grunt.Grunt.exec(Grunt.java:90)         at org.apache.pig.Main.run(Main.java:500)         at org.apache.pig.Main.main(Main.java:107) Caused by: org.apache.pig.PigException: ERROR 1002: Unable to store alias H2         at org.apache.pig.PigServer.storeEx(PigServer.java:888)         at org.apache.pig.PigServer.store(PigServer.java:826)         at org.apache.pig.PigServer.openIterator(PigServer.java:738)         ... 7 more Caused by: org.apache.pig.backend.executionengine.ExecException: ERROR 2043: Unexpected error during execution.         at org.apache.pig.backend.hadoop.executionengine.HExecutionEngine.execute(HExecutionEngine.java:403)         at org.apache.pig.PigServer.executeCompiledLogicalPlan(PigServer.java:1208)         at org.apache.pig.PigServer.storeEx(PigServer.java:884)         ... 9 more Caused by: java.lang.ClassCastException: org.apache.pig.backend.hadoop.executionengine.physicalLayer.relationalOperators.POLoad cannot be cast to org.apache.pig.backend.hadoop.executionengine.physicalLayer.relationalOperators.POLocalRearrange         at org.apache.pig.backend.hadoop.executionengine.mapReduceLayer.SecondaryKeyOptimizer.visitMROp(SecondaryKeyOptimizer.java:352)         at org.apache.pig.backend.hadoop.executionengine.mapReduceLayer.MapReduceOper.visit(MapReduceOper.java:246)         at org.apache.pig.backend.hadoop.executionengine.mapReduceLayer.MapReduceOper.visit(MapReduceOper.java:41)         at org.apache.pig.impl.plan.DepthFirstWalker.depthFirst(DepthFirstWalker.java:69)         at org.apache.pig.impl.plan.DepthFirstWalker.depthFirst(DepthFirstWalker.java:71)         at org.apache.pig.impl.plan.DepthFirstWalker.walk(DepthFirstWalker.java:52)         at org.apache.pig.impl.plan.PlanVisitor.visit(PlanVisitor.java:51)         at org.apache.pig.backend.hadoop.executionengine.mapReduceLayer.MapReduceLauncher.compile(MapReduceLauncher.java:498)         at org.apache.pig.backend.hadoop.executionengine.mapReduceLayer.MapReduceLauncher.launchPig(MapReduceLauncher.java:117)         at org.apache.pig.backend.hadoop.executionengine.HExecutionEngine.execute(HExecutionEngine.java:378)         ... 11 more But, when I removed the DISTINCT statement before COGROUP, i.e. \"B \u003d distinct B;\"  this script can run smoothly. I have also tried other reducer side operations like ORDER, it seems that they will also trigger above error. This is really very confusing.","class_goldset":["src.org.apache.pig.backend.hadoop.executionengine.mapReduceLayer.KeyTypeDiscoveryVisitor","src.org.apache.pig.backend.hadoop.executionengine.mapReduceLayer.MRCompiler","src.org.apache.pig.backend.hadoop.executionengine.mapReduceLayer.MRCompiler.RearrangeAdjuster","src.org.apache.pig.backend.hadoop.executionengine.mapReduceLayer.MRCompiler.LimitAdjuster","test.org.apache.pig.test.TestEvalPipeline2","test.org.apache.pig.test.TestMRCompiler"],"file_goldset":["src.org.apache.pig.backend.hadoop.executionengine.mapReduceLayer.KeyTypeDiscoveryVisitor","src.org.apache.pig.backend.hadoop.executionengine.mapReduceLayer.MRCompiler","src.org.apache.pig.backend.hadoop.executionengine.mapReduceLayer.MRCompiler.RearrangeAdjuster","src.org.apache.pig.backend.hadoop.executionengine.mapReduceLayer.MRCompiler.LimitAdjuster","test.org.apache.pig.test.TestEvalPipeline2","test.org.apache.pig.test.TestMRCompiler"],"creation_date":"2011-01-20T02:06:36.000+0000","resolution_date":"2011-01-31T22:01:10.000+0000"}
{"id":287,"bug_id":"PIG-1813","text":"Pig 0.8 throws ERROR 1075 while trying to refer a map in the result of  eval udf.Works with 0.7. register myudf.jar;\nA \u003d load \u0027input\u0027 MyZippedStorage(\u0027\\u0001\u0027) as ($inputSchema);\nB \u003d foreach A generate id , value  ;\nC \u003d foreach B generate id , org.myudf.ExplodeHashList( (chararray)value, \u0027\\u0002\u0027, \u0027\\u0004\u0027, \u0027\\u0003\u0027) as value;\nD \u003d FILTER C by value is not null;\nE \u003d foreach D generate id , flatten(org.myudf.GETFIRST(value)) as hop;\nF \u003d foreach E generate id , hop#\u0027rmli\u0027 as rmli:bytearray ;\nstore F into \u0027output.bz2\u0027 using PigStorage(); The above script fails when run with Pig 0.8 but runs fine with Pig 0.7 or if pig.usenewlogicalplan\u003dfalse. The below is the exception thrown in 0.8 : org.apache.pig.backend.executionengine.ExecException: ERROR 1075: Received a bytearray from the UDF. Cannot determine how to convert the bytearray to map. \tat org.apache.pig.backend.hadoop.executionengine.physicalLayer.expressionOperators.POCast.getNext(POCast.java:952) \tat org.apache.pig.backend.hadoop.executionengine.physicalLayer.expressionOperators.POMapLookUp.processInput(POMapLookUp.java:87) \tat org.apache.pig.backend.hadoop.executionengine.physicalLayer.expressionOperators.POMapLookUp.getNext(POMapLookUp.java:98) \tat org.apache.pig.backend.hadoop.executionengine.physicalLayer.expressionOperators.POMapLookUp.getNext(POMapLookUp.java:117) \tat org.apache.pig.backend.hadoop.executionengine.physicalLayer.relationalOperators.POForEach.processPlan(POForEach.java:346) \tat org.apache.pig.backend.hadoop.executionengine.physicalLayer.relationalOperators.POForEach.getNext(POForEach.java:291) \tat org.apache.pig.backend.hadoop.executionengine.mapReduceLayer.PigMapBase.runPipeline(PigMapBase.java:236) \tat org.apache.pig.backend.hadoop.executionengine.mapReduceLayer.PigMapBase.map(PigMapBase.java:231) \tat org.apache.pig.backend.hadoop.executionengine.mapReduceLayer.PigMapBase.map(PigMapBase.java:53) \tat org.apache.hadoop.mapreduce.Mapper.run(Mapper.java:144) \tat org.apache.hadoop.mapred.MapTask.runNewMapper(MapTask.java:638) \tat org.apache.hadoop.mapred.MapTask.run(MapTask.java:314) \tat org.apache.hadoop.mapred.Child$4.run(Child.java:217) \tat java.security.AccessController.doPrivileged(Native Method) \tat javax.security.auth.Subject.doAs(Subject.java:396) \tat org.apache.hadoop.security.UserGroupInformation.doAs(UserGroupInformation.java:1062) \tat org.apache.hadoop.mapred.Child.main(Child.java:211)","class_goldset":["src.org.apache.pig.backend.hadoop.executionengine.physicalLayer.expressionOperators.POUserFunc","src.org.apache.pig.newplan.logical.relational.LOGenerate","test.org.apache.pig.test.TestEvalPipeline2"],"file_goldset":["src.org.apache.pig.backend.hadoop.executionengine.physicalLayer.expressionOperators.POUserFunc","src.org.apache.pig.newplan.logical.relational.LOGenerate","test.org.apache.pig.test.TestEvalPipeline2"],"creation_date":"2011-01-20T16:25:01.000+0000","resolution_date":"2011-01-27T07:12:03.000+0000"}
{"id":288,"bug_id":"PIG-1815","text":"pig task retains used instances of PhysicalPlan. map tasks of a pig query ran out of memory because there were too many (thousands)  instances of combiner PhysicalPlan in memory. Each physical plan (except the last?) was linked to older one as shown in the yourkit snapshot that I am attaching. This problem was noticed with 0.8 because of the split combination feature, that resulted in each map having larger inputs. The query also had large physical plan because of multi-query, it had 17 MR jobs merged into one during the multi-query optimization phase.","class_goldset":["src.org.apache.pig.backend.hadoop.executionengine.mapReduceLayer.PigCombiner"],"file_goldset":["src.org.apache.pig.backend.hadoop.executionengine.mapReduceLayer.PigCombiner"],"creation_date":"2011-01-20T23:53:05.000+0000","resolution_date":"2011-01-21T21:10:21.000+0000"}
{"id":289,"bug_id":"PIG-1831","text":"Indeterministic behavior in local mode due to static variable PigMapReduce.sJobConf. The below script when run in local mode gives me a different output. It looks like in local mode I have to store a relation obtained through streaming in order to use it afterwards. For example consider the below script : DEFINE MySTREAMUDF `test.sh`; A  \u003d LOAD \u0027myinput\u0027 USING PigStorage() AS (myId:chararray, data2, data3,data4 ); B \u003d STREAM A THROUGH MySTREAMUDF AS (wId:chararray, num:int); --STORE B into \u0027output.B\u0027; C \u003d JOIN B by wId LEFT OUTER, A by myId; D \u003d FOREACH C GENERATE B::wId,B::num,data4 ; D \u003d STREAM D THROUGH MySTREAMUDF AS (f1:chararray,f2:int); --STORE D into \u0027output.D\u0027; E \u003d foreach B GENERATE wId,num; F \u003d DISTINCT E; G \u003d GROUP F ALL; H \u003d FOREACH G GENERATE COUNT_STAR(F) as TotalCount; I \u003d CROSS D,H; STORE I  into \u0027output.I\u0027; test.sh --------- #/bin/bash cut -f1,3 And input is \nabcd    label1  11      feature1\nacbd    label2  22      feature2\nadbc    label3  33      feature3 Here if I store relation B and D then everytime i get the result  :\nacbd            3\nabcd            3\nadbc            3 But if i dont store relations B and D then I get an empty output. Here again I have observed that this behaviour is random ie sometimes like 1out of 5 runs there will be output.","class_goldset":["src.org.apache.pig.backend.hadoop.executionengine.mapReduceLayer.PigMapBase","src.org.apache.pig.backend.hadoop.executionengine.mapReduceLayer.PigMapReduce","src.org.apache.pig.backend.hadoop.executionengine.mapReduceLayer.PigMapReduce.Map","src.org.apache.pig.backend.hadoop.executionengine.mapReduceLayer.partitioners.SkewedPartitioner","src.org.apache.pig.backend.hadoop.executionengine.physicalLayer.relationalOperators.POCollectedGroup","src.org.apache.pig.backend.hadoop.executionengine.physicalLayer.relationalOperators.POCombinerPackage","src.org.apache.pig.backend.hadoop.executionengine.physicalLayer.relationalOperators.PODistinct","src.org.apache.pig.backend.hadoop.executionengine.physicalLayer.relationalOperators.POJoinPackage","src.org.apache.pig.backend.hadoop.executionengine.physicalLayer.relationalOperators.POMergeCogroup","src.org.apache.pig.backend.hadoop.executionengine.physicalLayer.relationalOperators.POMergeJoin","src.org.apache.pig.backend.hadoop.executionengine.physicalLayer.relationalOperators.POPackage","src.org.apache.pig.backend.hadoop.executionengine.physicalLayer.relationalOperators.POPartitionRearrange","src.org.apache.pig.backend.hadoop.executionengine.physicalLayer.relationalOperators.POSort","src.org.apache.pig.backend.hadoop.executionengine.util.MapRedUtil","src.org.apache.pig.backend.hadoop.streaming.HadoopExecutableManager","src.org.apache.pig.builtin.Distinct","src.org.apache.pig.data.InternalCachedBag","src.org.apache.pig.data.InternalDistinctBag","src.org.apache.pig.data.InternalSortedBag","src.org.apache.pig.impl.builtin.DefaultIndexableLoader","src.org.apache.pig.impl.io.FileLocalizer","test.org.apache.pig.test.TestFRJoin","test.org.apache.pig.test.TestFinish","test.org.apache.pig.test.TestPruneColumn","test.org.apache.pig.test.utils.FILTERFROMFILE"],"file_goldset":["src.org.apache.pig.backend.hadoop.executionengine.mapReduceLayer.PigMapBase","src.org.apache.pig.backend.hadoop.executionengine.mapReduceLayer.PigMapReduce","src.org.apache.pig.backend.hadoop.executionengine.mapReduceLayer.PigMapReduce.Map","src.org.apache.pig.backend.hadoop.executionengine.mapReduceLayer.partitioners.SkewedPartitioner","src.org.apache.pig.backend.hadoop.executionengine.physicalLayer.relationalOperators.POCollectedGroup","src.org.apache.pig.backend.hadoop.executionengine.physicalLayer.relationalOperators.POCombinerPackage","src.org.apache.pig.backend.hadoop.executionengine.physicalLayer.relationalOperators.PODistinct","src.org.apache.pig.backend.hadoop.executionengine.physicalLayer.relationalOperators.POJoinPackage","src.org.apache.pig.backend.hadoop.executionengine.physicalLayer.relationalOperators.POMergeCogroup","src.org.apache.pig.backend.hadoop.executionengine.physicalLayer.relationalOperators.POMergeJoin","src.org.apache.pig.backend.hadoop.executionengine.physicalLayer.relationalOperators.POPackage","src.org.apache.pig.backend.hadoop.executionengine.physicalLayer.relationalOperators.POPartitionRearrange","src.org.apache.pig.backend.hadoop.executionengine.physicalLayer.relationalOperators.POSort","src.org.apache.pig.backend.hadoop.executionengine.util.MapRedUtil","src.org.apache.pig.backend.hadoop.streaming.HadoopExecutableManager","src.org.apache.pig.builtin.Distinct","src.org.apache.pig.data.InternalCachedBag","src.org.apache.pig.data.InternalDistinctBag","src.org.apache.pig.data.InternalSortedBag","src.org.apache.pig.impl.builtin.DefaultIndexableLoader","src.org.apache.pig.impl.io.FileLocalizer","test.org.apache.pig.test.TestFRJoin","test.org.apache.pig.test.TestFinish","test.org.apache.pig.test.TestPruneColumn","test.org.apache.pig.test.utils.FILTERFROMFILE"],"creation_date":"2011-01-28T10:02:31.000+0000","resolution_date":"2011-02-18T02:16:58.000+0000"}
{"id":290,"bug_id":"PIG-1837","text":"Error while using IsEmpty function. I have the following 2 inputs: data1: \n1       11\n2       15 data2:\n1       10\n4       11\n5       10 And the following script to work on the data: grunt\u003e A \u003d load \u0027data1\u0027 as (x, y: int);\ngrunt\u003e B \u003d load \u0027data2\u0027 as (x, z: int);\ngrunt\u003e C \u003d cogroup A by x, B by x;\ngrunt\u003e D \u003d foreach C generate group, SUM(((IsEmpty(A.y))? {(0)} : A.y)) + SUM (((IsEmpty(B.z))? {(0)} : B.z));\ngrunt\u003e dump D; After running for a while, I get the following error: Backend error : org.apache.pig.builtin.IsEmpty cannot be cast to org.apache.pig.Accumulator","class_goldset":["src.org.apache.pig.backend.hadoop.executionengine.mapReduceLayer.AccumulatorOptimizer","test.org.apache.pig.test.TestAccumulator"],"file_goldset":["src.org.apache.pig.backend.hadoop.executionengine.mapReduceLayer.AccumulatorOptimizer","test.org.apache.pig.test.TestAccumulator"],"creation_date":"2011-02-01T23:57:48.000+0000","resolution_date":"2011-03-07T20:06:58.000+0000"}
{"id":291,"bug_id":"PIG-1843","text":"NPE in schema generation. Hit NPE in following script:\n{code}\na \u003d load \u0027table_testBagDereferenceInMiddle2\u0027 as (a0:chararray);\nb \u003d foreach a generate MapGenerate(STRSPLIT(a0). $0));\n{code}\n{code}\npublic class MapGenerate extends EvalFunc\u003cMap\u003e {\n    @Override\n    public Map exec(Tuple input) throws IOException {\n        Map m \u003d new HashMap();\n        m.put(\"key\", new Integer(input.size()));\n        return m;\n    }\n    \n    @Override\n    public Schema outputSchema(Schema input) {\n        return new Schema(new Schema.FieldSchema(getSchemaName(\"parselong\", input), DataType.MAP));\n    }\n}\n{code} Error message: Caused by: java.lang.NullPointerException         at org.apache.pig.EvalFunc.getSchemaName(EvalFunc.java:76)         at string.PARSELONG.outputSchema(PARSELONG.java:63)         at org.apache.pig.newplan.logical.expression.UserFuncExpression.getFieldSchema(UserFuncExpression.java:154)         at org.apache.pig.newplan.logical.optimizer.FieldSchemaResetter.execute(SchemaResetter.java:192)         at org.apache.pig.newplan.logical.expression.AllSameExpressionVisitor.visit(AllSameExpressionVisitor.java:143)         at org.apache.pig.newplan.logical.expression.UserFuncExpression.accept(UserFuncExpression.java:71)         at org.apache.pig.newplan.ReverseDependencyOrderWalker.walk(ReverseDependencyOrderWalker.java:70)         at org.apache.pig.newplan.PlanVisitor.visit(PlanVisitor.java:50)         at org.apache.pig.newplan.logical.optimizer.SchemaResetter.visit(SchemaResetter.java:104)         at org.apache.pig.newplan.logical.relational.LOGenerate.accept(LOGenerate.java:240)         at org.apache.pig.newplan.DependencyOrderWalker.walk(DependencyOrderWalker.java:75)         at org.apache.pig.newplan.logical.optimizer.SchemaResetter.visit(SchemaResetter.java:93)         at org.apache.pig.newplan.logical.relational.LOForEach.accept(LOForEach.java:73)         at org.apache.pig.newplan.DependencyOrderWalker.walk(DependencyOrderWalker.java:75)         at org.apache.pig.newplan.PlanVisitor.visit(PlanVisitor.java:50)         at org.apache.pig.backend.hadoop.executionengine.HExecutionEngine.compile(HExecutionEngine.java:279)         at org.apache.pig.PigServer.compilePp(PigServer.java:1480)         at org.apache.pig.PigServer.explain(PigServer.java:1042)","class_goldset":["src.org.apache.pig.EvalFunc","test.org.apache.pig.test.TestEvalPipeline2"],"file_goldset":["src.org.apache.pig.EvalFunc","test.org.apache.pig.test.TestEvalPipeline2"],"creation_date":"2011-02-05T02:42:39.000+0000","resolution_date":"2011-02-18T01:48:25.000+0000"}
{"id":292,"bug_id":"PIG-1850","text":"Order by is failing with ClassCastException if schema is undefined for new logical plan in 0.8. The below is the script : A \u003d load \u0027input\u0027 ;\nB \u003d group A all;\nC \u003d foreach B generate SUM($1. $0);\nC1 \u003d CROSS A,C;\nD \u003d foreach C1 generate ROUND($0*10000.0/$2)/100.0, $1;\nE \u003d order D by $0 desc; \nstore E  into \u0027out1\u0027; input (tab separated fields)\n26      AAAAA\n1349595 BBBBB\n235693  CCCCC  Exception java.lang.ClassCastException: org.apache.pig.impl.io.NullableDoubleWritable cannot be cast to org.apache.pig.impl.io.NullableBytesWritable \tat org.apache.pig.backend.hadoop.executionengine.mapReduceLayer.PigBytesRawComparator.compare(PigBytesRawComparator.java:94) \tat java.util.Arrays.binarySearch0(Arrays.java:2105) \tat java.util.Arrays.binarySearch(Arrays.java:2043) \tat org.apache.pig.backend.hadoop.executionengine.mapReduceLayer.partitioners.WeightedRangePartitioner.getPartition(WeightedRangePartitioner.java:72) \tat org.apache.pig.backend.hadoop.executionengine.mapReduceLayer.partitioners.WeightedRangePartitioner.getPartition(WeightedRangePartitioner.java:52) \tat org.apache.hadoop.mapred.MapTask$NewOutputCollector.write(MapTask.java:602) \tat org.apache.hadoop.mapreduce.TaskInputOutputContext.write(TaskInputOutputContext.java:80) \tat org.apache.pig.backend.hadoop.executionengine.mapReduceLayer.PigMapReduce$Map.collect(PigMapReduce.java:116) \tat org.apache.pig.backend.hadoop.executionengine.mapReduceLayer.PigMapBase.runPipeline(PigMapBase.java:238) \tat org.apache.pig.backend.hadoop.executionengine.mapReduceLayer.PigMapBase.map(PigMapBase.java:231) \tat org.apache.pig.backend.hadoop.executionengine.mapReduceLayer.PigMapBase.map(PigMapBase.java:53) \tat org.apache.hadoop.mapreduce.Mapper.run(Mapper.java:144) \tat org.apache.hadoop.mapred.MapTask.runNewMapper(MapTask.java:676) \tat org.apache.hadoop.mapred.MapTask.run(MapTask.java:336) \tat org.apache.hadoop.mapred.Child$4.run(Child.java:242) \tat java.security.AccessController.doPrivileged(Native Method) \tat javax.security.auth.Subject.doAs(Subject.java:396) \tat org.apache.hadoop.security.UserGroupInformation.doAs(UserGroupInformation.java:1059) \tat org.apache.hadoop.mapred.Child.main(Child.java:236) The script is failing while doing order by in WeightedRangePartitioner since it considers the quantiles to be NullableBytesWritable but at run time this is NullableDoubleWritable . This is happening because there is no schema defined in the load statement. But the same works fine when the  multiquery is turned off. One more issue worth noting is that if i have a filter statement after relation E, then the above exception is swallowed by Pig. This make debugging really hard.","class_goldset":["src.org.apache.pig.newplan.logical.expression.ProjectExpression","src.org.apache.pig.newplan.logical.relational.LOInnerLoad","test.org.apache.pig.test.TestEvalPipeline2"],"file_goldset":["src.org.apache.pig.newplan.logical.expression.ProjectExpression","src.org.apache.pig.newplan.logical.relational.LOInnerLoad","test.org.apache.pig.test.TestEvalPipeline2"],"creation_date":"2011-02-11T13:50:43.000+0000","resolution_date":"2011-02-18T06:16:43.000+0000"}
{"id":293,"bug_id":"PIG-1854","text":"Pig returns exit code 0 for the failed Pig script .. Pig returns exit code 0 for the some of the failed Pig scripts. Due to this workflow system like Oozie showing the \"succeeded\" status instead of \"killed\" status. Illustrative example --------------------- Suppose in Pig script we have following statement: $ cat move.pig\nfs -mv /user/jerry/a. txt /user/tom/ On executing the pig script, script failed with following exception [tom@abc ]$ pig move.pig \n2011-02-14 06:48:08,354 [main] INFO  org.apache.pig.Main - Logging error messages to: /home/tom/pig_1297666088350. log\n2011-02-14 06:48:08,652 [main] INFO  org.apache.pig.backend.hadoop.executionengine.HExecutionEngine - Connecting to hadoop file system at: hdfs://abc-nn:8020\n2011-02-14 06:48:09,542 [main] INFO  org.apache.pig.backend.hadoop.executionengine.HExecutionEngine - Connecting to map-reduce job tracker at: abc-jt:50300\nmv: org.apache.hadoop.security.AccessControlException: Permission denied: user\u003dtom, access\u003dWRITE, inode\u003d\"jobs\":jerry:users:rwxr-xr-x\n[tom@abc ]$ But when executed the similar Pig script through Oozie workflow, Pig script failed but Oozie show the \"succeeded\" status message instead of \"killed\" status as return exit code is 0. From logs of workflow launcher job: stdout logs ----------- \u003e\u003e\u003e Invoking Pig command line now \u003e\u003e\u003e Apache Pig version 0.7.0.20.100.1.1007220309 (r966485) \ncompiled Jul 22 2010, 03:09:21 807  [main] INFO  org.apache.pig.backend.hadoop.executionengine.HExecutionEngine  - Connecting to hadoop file system at: hdfs://abc-nn:8020/\n853  [main] INFO  org.apache.pig.backend.hadoop.executionengine.HExecutionEngine  - Connecting to map-reduce job tracker at: abc-jt:50300 \u003c\u003c\u003c Invocation of Pig command completed \u003c\u003c\u003c Hadoop Job IDs executed by Pig: \u003c\u003c\u003c Invocation of Main class completed \u003c\u003c\u003c Oozie Launcher, capturing output data:\n\u003d\u003d\u003d\u003d\u003d\u003d\u003d\u003d\u003d\u003d\u003d\u003d\u003d\u003d\u003d\u003d\u003d\u003d\u003d\u003d\u003d\u003d\u003d\n#\n#Mon Feb 14 06:46:00 UTC 2011\nhadoopJobs\u003d \u003d\u003d\u003d\u003d\u003d\u003d\u003d\u003d\u003d\u003d\u003d\u003d\u003d\u003d\u003d\u003d\u003d\u003d\u003d\u003d\u003d\u003d\u003d Oozie Launcher ends stderr logs ----------- mv: org.apache.hadoop.security.AccessControlException: Permission denied: user\u003dtom, access\u003dWRITE, inode\u003d\"jobs\":jerry:users:rwxr-xr-x One more scenario where Pig script failed but exit code is 0 and no exception occurred for this failure. stdout logs ----------- \u003e\u003e\u003e Invoking Pig command line now \u003e\u003e\u003e Apache Pig version 0.7.0.20.100.1.1007220309 (r966485) \ncompiled Jul 22 2010, 03:09:21\n...\n...\n48247 [main] INFO  org.apache.pig.backend.hadoop.executionengine.mapReduceLayer.MapReduceLauncher  - 100% complete\n48248 [main] ERROR org.apache.pig.backend.hadoop.executionengine.mapReduceLayer.MapReduceLauncher  - 1 map reduce job(s) failed! 48306 [main] ERROR org.apache.pig.backend.hadoop.executionengine.mapReduceLayer.MapReduceLauncher  - Failed to produce result in: \"hdfs://abc-nn/user/jerry/feature-keys\"\n48307 [main] INFO  org.apache.pig.backend.hadoop.executionengine.mapReduceLayer.MapReduceLauncher  - Failed! \u003c\u003c\u003c Invocation of Pig command completed \u003c\u003c\u003c Hadoop Job IDs executed by Pig: job_201102080811_28852 \u003c\u003c\u003c Invocation of Main class completed \u003c\u003c\u003c Oozie Launcher, capturing output data:\n\u003d\u003d\u003d\u003d\u003d\u003d\u003d\u003d\u003d\u003d\u003d\u003d\u003d\u003d\u003d\u003d\u003d\u003d\u003d\u003d\u003d\u003d\u003d\n#\n#Sat Feb 12 04:13:53 UTC 2011\nhadoopJobs\u003djob_201102080811_28852 \u003d\u003d\u003d\u003d\u003d\u003d\u003d\u003d\u003d\u003d\u003d\u003d\u003d\u003d\u003d\u003d\u003d\u003d\u003d\u003d\u003d\u003d\u003d Oozie Launcher ends ---","class_goldset":["src.org.apache.pig.impl.util.LogUtils","src.org.apache.pig.tools.grunt.GruntParser","test.org.apache.pig.test.TestPigRunner"],"file_goldset":["src.org.apache.pig.impl.util.LogUtils","src.org.apache.pig.tools.grunt.GruntParser","test.org.apache.pig.test.TestPigRunner"],"creation_date":"2011-02-14T09:03:15.000+0000","resolution_date":"2011-02-18T22:08:37.000+0000"}
{"id":294,"bug_id":"PIG-1856","text":"Custom jar is not packaged with the new job created by LimitAdjuster . The script: {code}\nA \u003d load \u0027data\u0027 as (s, m);\nB \u003d order A by s parallel 2;\nC \u003d limit B 20;\nstore C into \u0027output\u0027 using org.apache.pig.piggybank.storage.PigStorageSchema(\u0027\\t\u0027)\n{code} where piggybank jar is in the classpath. The script, however,  fails since the piggybank jar isn\u0027t shipped to the backend with the additional job created by the LimitAdjuster. The workaround is to explicitly register the piggybank jar in the script.","class_goldset":["src.org.apache.pig.backend.hadoop.executionengine.mapReduceLayer.MRCompiler","test.org.apache.pig.test.TestMRCompiler"],"file_goldset":["src.org.apache.pig.backend.hadoop.executionengine.mapReduceLayer.MRCompiler","test.org.apache.pig.test.TestMRCompiler"],"creation_date":"2011-02-15T23:26:16.000+0000","resolution_date":"2011-03-01T19:52:14.000+0000"}
{"id":295,"bug_id":"PIG-1858","text":"UDF in nested plan results frontend exception. The below is my script :\n{code}\nregister myanotherudf.jar;\nA \u003d load \u0027myinput\u0027 using PigStorage() as ( date:chararray,bcookie:chararray,count:int,avg:double,pvs:int);\nB \u003d foreach A generate (int)(avg / 100.0) * 100   as avg, pvs;\nC \u003d group B by ( avg );\nD \u003d foreach C {\n        Pvs \u003d order B by pvs;\n        Const \u003d org.vivek.MyAnotherUDF(Pvs.pvs). (count,sum);\n        generate Const.sum as sum;\n        };\nstore D into \u0027out_D\u0027;\n{code} The script is failing during compilation of the plan. The usage of the udf inside the foreach is causing the problem. The udf implements algebraic and the \noutput schema is also defined. The below is the exception that I get : ERROR 2042: Error in new logical plan. Try -Dpig.usenewlogicalplan\u003dfalse. org.apache.pig.impl.logicalLayer.FrontendException: ERROR 2042: Error in new logical plan. Try -Dpig.usenewlogicalplan\u003dfalse.         at org.apache.pig.backend.hadoop.executionengine.HExecutionEngine.compile(HExecutionEngine.java:309)         at org.apache.pig.PigServer.compilePp(PigServer.java:1364)         at org.apache.pig.PigServer.executeCompiledLogicalPlan(PigServer.java:1206)         at org.apache.pig.PigServer.execute(PigServer.java:1200)         at org.apache.pig.PigServer.access$100(PigServer.java:128)         at org.apache.pig.PigServer$Graph.execute(PigServer.java:1527)         at org.apache.pig.PigServer.executeBatchEx(PigServer.java:372)         at org.apache.pig.PigServer.executeBatch(PigServer.java:339)         at org.apache.pig.tools.grunt.GruntParser.executeBatch(GruntParser.java:112)         at org.apache.pig.tools.grunt.GruntParser.parseStopOnError(GruntParser.java:169)         at org.apache.pig.tools.grunt.GruntParser.parseStopOnError(GruntParser.java:141)         at org.apache.pig.tools.grunt.Grunt.exec(Grunt.java:90)         at org.apache.pig.Main.run(Main.java:500)         at org.apache.pig.Main.main(Main.java:107) Caused by: java.lang.NullPointerException         at org.apache.pig.newplan.ReverseDependencyOrderWalker.walk(ReverseDependencyOrderWalker.java:70)         at org.apache.pig.newplan.PlanVisitor.visit(PlanVisitor.java:50)         at org.apache.pig.newplan.logical.optimizer.SchemaResetter.visit(SchemaResetter.java:105)         at org.apache.pig.newplan.logical.relational.LOGenerate.accept(LOGenerate.java:229)         at org.apache.pig.newplan.DependencyOrderWalker.walk(DependencyOrderWalker.java:75)         at org.apache.pig.newplan.logical.optimizer.SchemaResetter.visit(SchemaResetter.java:94)         at org.apache.pig.newplan.logical.relational.LOForEach.accept(LOForEach.java:71)         at org.apache.pig.newplan.DependencyOrderWalker.walk(DependencyOrderWalker.java:75)         at org.apache.pig.newplan.PlanVisitor.visit(PlanVisitor.java:50)         at org.apache.pig.backend.hadoop.executionengine.HExecutionEngine.compile(HExecutionEngine.java:261)         ... 13 more   When i trun off new logical plan the script executes successfully. The issue is observed in both 0.8 and 0.9","class_goldset":["test.org.apache.pig.test.TestEvalPipeline2"],"file_goldset":["test.org.apache.pig.test.TestEvalPipeline2"],"creation_date":"2011-02-17T08:27:48.000+0000","resolution_date":"2011-04-12T00:45:13.000+0000"}
{"id":296,"bug_id":"PIG-1861","text":"The pig script stored in the Hadoop History logs is stored as a concatenated string without whitespace this causes problems when attempting to extract and execute the script. a \u003d load \u0027$in\u0027 using com.yahoo.grid.sath.JobHistoryLoader() as\n(job:map[],maps:bag{},reducers:bag{},other:bag{},conf:map[]); The pig script stored in: conf#\u0027pig.script\u0027 has the whitespace removed, this makes it difficult to extract and run the\nscript. In particular, statements that terminate in \";\" work correctly as\n\"statement1;statement2;statement99\"  but statements that do not end in \";\" result in\n\"statement1statement2statement3\" and it\u0027s difficult to parse the pig script and fix the concatenated string. There\u0027s also a problem with comments as in: /*mycomment*//*more comments*/ PIG_CODE //comment PIG_CODE On a side note, I also noticed that in many of the scripts the last statement is missing \";\"","class_goldset":["src.org.apache.pig.tools.pigstats.ScriptState","test.org.apache.pig.test.TestPigStats"],"file_goldset":["src.org.apache.pig.tools.pigstats.ScriptState","test.org.apache.pig.test.TestPigStats"],"creation_date":"2011-02-18T18:39:53.000+0000","resolution_date":"2011-03-07T18:09:47.000+0000"}
{"id":297,"bug_id":"PIG-1866","text":"Dereference a bag within a tuple does not work. The following script does not work (both in new and old logical plan): {code} a \u003d load \u00271. txt\u0027 as (t : tuple(i: int, b1: bag { b_tuple : tuple ( b_str: chararray) })); b \u003d foreach a generate t.b1; dump b; {code} 1 txt: (1 {(one),(two)}) Error from old logical plan: java.lang.ClassCastException: org.apache.pig.data.BinSedesTuple cannot be cast to org.apache.pig.data.DataBag         at org.apache.pig.backend.hadoop.executionengine.physicalLayer.expressionOperators.POProject.processInputBag(POProject.java:482)         at org.apache.pig.backend.hadoop.executionengine.physicalLayer.expressionOperators.POProject.getNext(POProject.java:197)         at org.apache.pig.backend.hadoop.executionengine.physicalLayer.expressionOperators.POProject.processInputBag(POProject.java:480)         at org.apache.pig.backend.hadoop.executionengine.physicalLayer.expressionOperators.POProject.getNext(POProject.java:197)         at org.apache.pig.backend.hadoop.executionengine.physicalLayer.relationalOperators.POForEach.processPlan(POForEach.java:339)         at org.apache.pig.backend.hadoop.executionengine.physicalLayer.relationalOperators.POForEach.getNext(POForEach.java:291)         at org.apache.pig.backend.hadoop.executionengine.mapReduceLayer.PigMapBase.runPipeline(PigMapBase.java:237)         at org.apache.pig.backend.hadoop.executionengine.mapReduceLayer.PigMapBase.map(PigMapBase.java:232)         at org.apache.pig.backend.hadoop.executionengine.mapReduceLayer.PigMapBase.map(PigMapBase.java:53)         at org.apache.hadoop.mapreduce.Mapper.run(Mapper.java:144)         at org.apache.hadoop.mapred.MapTask.runNewMapper(MapTask.java:621)         at org.apache.hadoop.mapred.MapTask.run(MapTask.java:305)         at org.apache.hadoop.mapred.LocalJobRunner$Job.run(LocalJobRunner.java:177) Error from new logical plan: java.lang.NullPointerException         at org.apache.pig.backend.hadoop.executionengine.physicalLayer.expressionOperators.POProject.consumeInputBag(POProject.java:246)         at org.apache.pig.backend.hadoop.executionengine.physicalLayer.expressionOperators.POProject.getNext(POProject.java:200)         at org.apache.pig.backend.hadoop.executionengine.physicalLayer.relationalOperators.POForEach.processPlan(POForEach.java:339)         at org.apache.pig.backend.hadoop.executionengine.physicalLayer.relationalOperators.POForEach.getNext(POForEach.java:291)         at org.apache.pig.backend.hadoop.executionengine.mapReduceLayer.PigMapBase.runPipeline(PigMapBase.java:237)         at org.apache.pig.backend.hadoop.executionengine.mapReduceLayer.PigMapBase.map(PigMapBase.java:232)         at org.apache.pig.backend.hadoop.executionengine.mapReduceLayer.PigMapBase.map(PigMapBase.java:53)         at org.apache.hadoop.mapreduce.Mapper.run(Mapper.java:144)         at org.apache.hadoop.mapred.MapTask.runNewMapper(MapTask.java:621)         at org.apache.hadoop.mapred.MapTask.run(MapTask.java:305)         at org.apache.hadoop.mapred.LocalJobRunner$Job.run(LocalJobRunner.java:177) If we change \"b \u003d foreach a generate t.b1;\" to \"b \u003d foreach a generate t.i;\", it works fine, only refer to a bag does not work.","class_goldset":["src.org.apache.pig.backend.hadoop.executionengine.mapReduceLayer.MRCompiler","src.org.apache.pig.backend.hadoop.executionengine.physicalLayer.expressionOperators.POProject","src.org.apache.pig.newplan.logical.relational.LogToPhyTranslationVisitor","test.org.apache.pig.test.TestEvalPipeline2"],"file_goldset":["src.org.apache.pig.backend.hadoop.executionengine.mapReduceLayer.MRCompiler","src.org.apache.pig.backend.hadoop.executionengine.physicalLayer.expressionOperators.POProject","src.org.apache.pig.newplan.logical.relational.LogToPhyTranslationVisitor","test.org.apache.pig.test.TestEvalPipeline2"],"creation_date":"2011-02-23T20:01:13.000+0000","resolution_date":"2011-04-21T00:50:44.000+0000"}
{"id":298,"bug_id":"PIG-1868","text":"New logical plan fails when I have complex data types from udf. The new logical plan fails when I have complex data types returning from my eval function. The below is my script : {code}\nregister myudf.jar;   \nB1 \u003d load \u0027myinput\u0027 as (id:chararray,ts:int,url:chararray);\nB2 \u003d group B1 by id;\nB \u003d foreach B2 {\n Tuples \u003d order B1 by ts;\n generate Tuples;\n};\nC1 \u003d foreach B generate TransformToMyDataType(Tuples,-1,0,1) as seq: { t: ( previous, current, next ) };\nC2 \u003d foreach C1 generate FLATTEN(seq);\nC3 \u003d foreach C2 generate  current.id as id;\ndump C3;\n{code} On C3 it fails with below message :\n{code}\nCouldn\u0027t find matching uid -1 for project (Name: Project Type: bytearray Uid: 45 Input: 0 Column: 1)\n{code} The below is the describe on C1 ;\n{code}\nC1: {seq: {t: (previous: (id: chararray,ts: int,url: chararray),current: (id: chararray,ts: int,url: chararray),next: (id: chararray,ts: int,url: chararray))}}\n{code} The script works if I turn off new logical plan or use Pig 0.7.","class_goldset":["src.org.apache.pig.newplan.logical.relational.LogicalSchema","test.org.apache.pig.test.TestSchema"],"file_goldset":["src.org.apache.pig.newplan.logical.relational.LogicalSchema","test.org.apache.pig.test.TestSchema"],"creation_date":"2011-02-24T06:42:05.000+0000","resolution_date":"2011-03-27T05:57:44.000+0000"}
{"id":299,"bug_id":"PIG-1892","text":"Bug in new logical plan : No output generated even though there are valid records. I have the below script which provides me no output even though there are valid records in relation B which is used for the left out join. A0 \u003d load \u0027input\u0027 using Maploader()  as ( map1, map2, map3 );\nA \u003d filter A0 by ( (map2#\u0027params\u0027#\u0027prop\u0027 \u003d\u003d 464)   and (map2#\u0027params\u0027#\u0027query\u0027 is not null) );\nB0 \u003d filter A by (map1#\u0027type\u0027 \u003d\u003d \u0027c\u0027);\nB \u003d filter B0 by ( map2#\u0027info\u0027#\u0027s\u0027 matches \u0027aaaa|bbb|cccc\u0027);\nC \u003d  filter A by (map1#\u0027type\u0027 \u003d\u003d \u0027p\u0027);\nD \u003d join B by map2#\u0027params\u0027#\u0027query\u0027 LEFT OUTER , C by map2#\u0027params\u0027#\u0027query\u0027;\nstore D into \u0027output\u0027; This is a bug with the newlogical plan. From the plan i can see that  map1#\u0027type\u0027  and map2#\u0027info\u0027#\u0027s\u0027 is not marked as RequiredKeys ,\nbut where as all the fields reffered in the firts filter statement is marked as required. For the script to work I have to turn off the coloumn prune optimizer by -t ColumnMapKeyPrune or rearrange the script such that;\nB0 \u003d filter A0 by ( (map2#\u0027params\u0027#\u0027prop\u0027 \u003d\u003d 464)   and (map2#\u0027params\u0027#\u0027query\u0027 is not null) and (map1#\u0027type\u0027 \u003d\u003d \u0027c\u0027) );\nC \u003d  filter A0 by ( (map2#\u0027params\u0027#\u0027prop\u0027 \u003d\u003d 464)   and (map2#\u0027params\u0027#\u0027query\u0027 is not null) and (map1#\u0027type\u0027 \u003d\u003d \u0027p\u0027) );","class_goldset":["src.org.apache.pig.newplan.logical.rules.MapKeysPruneHelper","test.org.apache.pig.test.TestPruneColumn","test.org.apache.pig.test.TestPruneColumn.PigStorageWithTrace"],"file_goldset":["src.org.apache.pig.newplan.logical.rules.MapKeysPruneHelper","test.org.apache.pig.test.TestPruneColumn","test.org.apache.pig.test.TestPruneColumn.PigStorageWithTrace"],"creation_date":"2011-03-10T08:44:12.000+0000","resolution_date":"2011-03-20T23:30:06.000+0000"}
{"id":300,"bug_id":"PIG-1893","text":"Pig report input size -1 for empty input file. In the following script: {code} a \u003d load \u00271.txt\u0027 as (a0, a1); b \u003d load \u00272.txt\u0027 as (b0, b1); c \u003d join a by a0, b by b0; dump c; {code} If 1.txt is empty, Pig will report Successfully read -1 records from: \"1.txt\" In WebUI, we can see we only have one MultiInputCounters: \"Input records from _0_2.txt\". In this case, we should count inputs \"1.txt\" 0 instead -1.","class_goldset":["src.org.apache.pig.tools.pigstats.JobStats","test.org.apache.pig.test.TestPigRunner"],"file_goldset":["src.org.apache.pig.tools.pigstats.JobStats","test.org.apache.pig.test.TestPigRunner"],"creation_date":"2011-03-11T02:43:13.000+0000","resolution_date":"2011-03-29T19:07:35.000+0000"}
{"id":301,"bug_id":"PIG-1910","text":"incorrect schema shown when project-star is used with other projections. {code}\ngrunt\u003e l \u003d load \u0027x\u0027 ;                                       \ngrunt\u003e f \u003d foreach l generate $1 as a, *, $2 as b;          \ngrunt\u003e describe f;\nf: {a: bytearray,(null),b: bytearray}  -- The tuple returned by * is automatically flattened, so this schema is not correct. It is more accurate to return a null schema. {code}","class_goldset":["src.org.apache.pig.newplan.logical.expression.DereferenceExpression","src.org.apache.pig.newplan.logical.expression.ExpToPhyTranslationVisitor","src.org.apache.pig.newplan.logical.expression.ProjectExpression","src.org.apache.pig.newplan.logical.relational.LOCogroup","test.org.apache.pig.test.TestPigServer","test.org.apache.pig.test.Util"],"file_goldset":["src.org.apache.pig.newplan.logical.expression.DereferenceExpression","src.org.apache.pig.newplan.logical.expression.ExpToPhyTranslationVisitor","src.org.apache.pig.newplan.logical.expression.ProjectExpression","src.org.apache.pig.newplan.logical.relational.LOCogroup","test.org.apache.pig.test.TestPigServer","test.org.apache.pig.test.Util"],"creation_date":"2011-03-16T17:50:00.000+0000","resolution_date":"2011-04-22T17:32:07.000+0000"}
{"id":302,"bug_id":"PIG-1911","text":"Infinite loop with accumulator function in nested foreach. Sample script: register v_udf. jar;\na \u003d load \u00272records\u0027 as (f1:chararray,f2:chararray);\nb \u003d group a by f1;\nd \u003d foreach b { sort \u003d order a by f1; \n  generate org.udfs.MyCOUNT(sort) as something ; }\ndump d; This causes infinite loop if MyCOUNT implements Accumulator interface. The workaround is to take the function out of nested foreach into a separate foreach statement.","class_goldset":["src.org.apache.pig.backend.hadoop.executionengine.physicalLayer.expressionOperators.POUserFunc","src.org.apache.pig.backend.hadoop.executionengine.physicalLayer.relationalOperators.POForEach","test.org.apache.pig.test.TestAccumulator"],"file_goldset":["src.org.apache.pig.backend.hadoop.executionengine.physicalLayer.expressionOperators.POUserFunc","src.org.apache.pig.backend.hadoop.executionengine.physicalLayer.relationalOperators.POForEach","test.org.apache.pig.test.TestAccumulator"],"creation_date":"2011-03-16T21:06:11.000+0000","resolution_date":"2011-04-08T19:13:35.000+0000"}
{"id":303,"bug_id":"PIG-1912","text":"non-deterministic output when a file is loaded multiple times. I have a small demonstration script (actually, a directory with one main script and several other scripts that it calls) where the output (STOREd to a file) is not consistent between runs. I will paste the files below this message, and I can also email the tarball to anybody who would like it; I wanted to just upload the tarball but I don\u0027t see a way to do that. The problem appears to be that when a dataset X gets LOADed twice, with things other than LOADs occurring between the loads (like a FOREACH GENERATE), a FOREACH GENERATE that is later performed on X doesn\u0027t always choose the correct columns. The correctness of the output was highly variable on my computer, for one of my co-workers it *almost* always failed, and for two other of my co-workers they didn\u0027t see any failures, so it\u0027s likely to be a race condition or something like that. -- FILES FOR REPLICATING THE PROBLEM -- I will paste the name of the file as a comment, with the content of the file beneath it. -- I will put the contents of the following files: - 1) The Pig scripts (main.pig, calc_x_W. pig, calc_x_Y. pig, and load_raw_data. pig) - 2) The input data file (data.csv) - 3) The correct output file (correct_output. csv) - 4) The shell script that runs the pig files and compares their output to what it should be - 5) README -- main.pig RUN calc_x_W. pig; RUN calc_x_Y. pig; STORE x_W INTO \u0027output/W\u0027 USING PigStorage(\u0027,\u0027); STORE x_Y INTO \u0027output/Y\u0027 USING PigStorage(\u0027,\u0027);  -- this is wrong sometimes -- calc_x_W. pig RUN load_raw_data. pig; x_W \u003d FOREACH raw_data GENERATE x, w; -- calc_x_Y. pig RUN load_raw_data. pig; x_Y \u003d FOREACH raw_data GENERATE x, y; -- load_raw_data. pig raw_data \u003d LOAD \u0027data.csv\u0027 USING PigStorage(\u0027,\u0027) AS ( x, y, w ); -- data.csv x1,CORRECT  ANSWER,21148.59 x2,CORRECT  OUTPUT,27219.98 x3,RIGHT    ANSWER,10818.15 -- correct_output. csv x1,CORRECT  ANSWER x2,CORRECT  OUTPUT x3,RIGHT    ANSWER -- testmany.sh typeset -a results i\u003d0 while (( i \u003c 10 )); do rm -rf output/* pig -x local -d WARN -e \"set debug off;run main.pig\" || break diff correct_output. csv output/Y/part-m-00000 \u0026\u0026 echo good results[$i]\u003d$? i\u003d$((i+1)) done; echo ${results[*]} -- README This directory is intended to show a non-deterministic bug in pig. Non-deterministic in the sense that the output of the script is not\nthe same between different times it is run on the same input; usually\nthe input is right, but sometimes it\u0027s wrong for no apparent reason. The scripts and dataset included in this directory demonstrate the\nissue. The scripts load the file data.csv and write to the output\ndirectory, but the file output/Y/part-m-00000 is sometimes different\nbetween consecutive runs. In particular, this file SHOULD just be\nthe first and third columns of data.csv, but it sometimes uses the\nsecond column in place of the third. The root of the problem appears to be that there is an intermediate LOAD of data.csv, after some relations have already been defined. The following things will make the error stop: * commenting out \"STORE x_W INTO \u0027output/W\u0027 USING PigStorage(\u0027,\u0027);\" in main.pig * making a copy of data.csv called data2.csv, and a file load_daw_data2. pig that loads data2.csv and having having calc_x_W. pig use that instead. It\u0027s possible that this isn\u0027t a bug and I\u0027m just mis-using Pig;\nif that is the case I would greatly appreciate hearing about it. I believe this issue was also discussed here:\nhttp://mail-archives.apache.org/mod_mbox/pig-user/201102.mbox/%3CAANLkTi\u003d2ZtkVGJevKLYSSzSH--KCcX38+Xaw2d2STNiS@mail.gmail.com%3E I have a shell script testmany.sh which runs my script multiple times\nand reports for which runs the output agrreed with the file correct_output. csv. IMPORTANT NOTE: We have run this code on 4 different laptops, all running\npig 0.8.0. On one laptop (the one I\u0027m using) the output of this script\nwas highly non-deterministic, generally giving both the wrong and the right\noutput several times each during 10 runs. Another laptop consistently got\nthe wrong output up until the 28th run, when it finally gave the right output. The other two computer never actually observed the wrong output. We suspect\nthis is likely a race condition. Thanks! USAGE\n$ cd pigbug\n$ bash testmany.sh\n$ # the last line of output will be a sequence of 0s and 1s, with 1\n$ # meaning that there was disagreement between the output and\n$ # correct_output. csv Field Cady\nfield.cady@gmail.com\nfcady@operasolutions.com\n(360)621-4810","class_goldset":["src.org.apache.pig.backend.hadoop.executionengine.HExecutionEngine","src.org.apache.pig.newplan.logical.relational.LOLoad","src.org.apache.pig.newplan.logical.relational.LogToPhyTranslationVisitor","test.org.apache.pig.test.TestEvalPipeline2"],"file_goldset":["src.org.apache.pig.backend.hadoop.executionengine.HExecutionEngine","src.org.apache.pig.newplan.logical.relational.LOLoad","src.org.apache.pig.newplan.logical.relational.LogToPhyTranslationVisitor","test.org.apache.pig.test.TestEvalPipeline2"],"creation_date":"2011-03-16T21:11:46.000+0000","resolution_date":"2011-03-23T00:50:59.000+0000"}
{"id":304,"bug_id":"PIG-1927","text":"Dereference partial name failed. The following script fail: {code} a \u003d load \u00271.txt\u0027 as (a0:int, a1); b \u003d group a by a0; c \u003d foreach b generate flatten(a); d \u003d cogroup c by (a0); e \u003d foreach d generate c.a0 as e0; f \u003d foreach e generate e0; describe f; {code} Error message: Caused by: Failed to generate logical plan. Nested exception: org.apache.pig.impl.logicalLayer.FrontendException: ERROR 0: Cannot find field a0 in a::a0#17:int,a::a1#18:bytearray         at org.apache.pig.parser.LogicalPlanGenerator.alias_col_ref(LogicalPlanGenerator.java:12835)         at org.apache.pig.parser.LogicalPlanGenerator.col_ref(LogicalPlanGenerator.java:12697)         at org.apache.pig.parser.LogicalPlanGenerator.projectable_expr(LogicalPlanGenerator.java:7715)         at org.apache.pig.parser.LogicalPlanGenerator.var_expr(LogicalPlanGenerator.java:7491)         at org.apache.pig.parser.LogicalPlanGenerator.expr(LogicalPlanGenerator.java:6904)         at org.apache.pig.parser.LogicalPlanGenerator.flatten_generated_item(LogicalPlanGenerator.java:5235)         at org.apache.pig.parser.LogicalPlanGenerator.generate_clause(LogicalPlanGenerator.java:11022)         at org.apache.pig.parser.LogicalPlanGenerator.foreach_plan(LogicalPlanGenerator.java:10789)         at org.apache.pig.parser.LogicalPlanGenerator.foreach_clause(LogicalPlanGenerator.java:10670)         at org.apache.pig.parser.LogicalPlanGenerator.op_clause(LogicalPlanGenerator.java:1280)         at org.apache.pig.parser.LogicalPlanGenerator.general_statement(LogicalPlanGenerator.java:646)         at org.apache.pig.parser.LogicalPlanGenerator.statement(LogicalPlanGenerator.java:467)         at org.apache.pig.parser.LogicalPlanGenerator.query(LogicalPlanGenerator.java:365)         at org.apache.pig.parser.QueryParserDriver.parse(QueryParserDriver.java:64)","class_goldset":["src.org.apache.pig.PigServer","src.org.apache.pig.newplan.logical.expression.DereferenceExpression","src.org.apache.pig.newplan.logical.relational.LogicalSchema","test.org.apache.pig.test.TestEvalPipeline2","test.org.apache.pig.test.TestUnionOnSchema"],"file_goldset":["src.org.apache.pig.PigServer","src.org.apache.pig.newplan.logical.expression.DereferenceExpression","src.org.apache.pig.newplan.logical.relational.LogicalSchema","test.org.apache.pig.test.TestEvalPipeline2","test.org.apache.pig.test.TestUnionOnSchema"],"creation_date":"2011-03-22T00:23:54.000+0000","resolution_date":"2011-03-27T05:16:04.000+0000"}
{"id":305,"bug_id":"PIG-1932","text":"GFCross should allow the user to set the DEFAULT_PARALLELISM value. The internal UDF GFCross uses a final static int DEFAULT_PARALLELISM to determine how wide to spread the records in a cross. It is currently hard wired to 96. There are no comments in the code on how that value was settled on. Despite the name, this value is not necessarily related to the reduce parallelism controlled by the parallel clause. It controls how many artificial join key values are generated and how many times each record is duplicated before going through the join. The higher it is set the more key values (and thus the less likely the cross will run out of memory) but also the more times each record is duplicated in the map phase before being sent to the reduce. We should leave the default value at 96 but allow a property to override this default and change the value. We cannot use a constructor argument here because the use of the UDF is not exposed to the user, so he has no opportunity to pass a constructor argument to it.","class_goldset":["src.org.apache.pig.impl.builtin.GFCross"],"file_goldset":["src.org.apache.pig.impl.builtin.GFCross"],"creation_date":"2011-03-23T00:53:04.000+0000","resolution_date":"2011-03-30T21:16:44.000+0000"}
{"id":306,"bug_id":"PIG-1935","text":"New logical plan: Should not push up filter in front of Bincond. The following script produce wrong result: \n{code}\ndata \u003d LOAD \u0027data.txt\u0027 using PigStorage() as (referrer:chararray, canonical_url:chararray, ip:chararray);\nbest_url \u003d FOREACH data GENERATE ((canonical_url ! \u003d \u0027\u0027 and canonical_url is not null) ? canonical_url : referrer) AS url, ip;\nfiltered \u003d FILTER best_url BY url \u003d\u003d \u0027badsite.com\u0027;\ndump filtered;\n{code}\ndata.txt:\nbadsite.com             127.0.0.1\ngoodsite.com/1?foo\u003dtrue goodsite.com    127.0.0.1 Expected:\n(badsite.com,127.0.0.1) We get nothing. Thanks Corbin Hoenes for reporting.","class_goldset":["src.org.apache.pig.newplan.logical.expression.BinCondExpression","test.org.apache.pig.test.TestNewPlanFilterAboveForeach"],"file_goldset":["src.org.apache.pig.newplan.logical.expression.BinCondExpression","test.org.apache.pig.test.TestNewPlanFilterAboveForeach"],"creation_date":"2011-03-25T01:33:38.000+0000","resolution_date":"2011-04-04T20:46:38.000+0000"}
{"id":307,"bug_id":"PIG-1955","text":"PhysicalOperator has a member variable (non-static) Log object that is non-transient, this causes serialization errors. I found this while trying to write unit tests. Creating a local PigServer to test my LoadFunc caused a serialization of the PhysicalOperator class, which failed due to: . . Caused by: java.io.NotSerializableException: org.apache.commons.logging.impl.Log4JCategoryLog . . this is easily fixed by adding the transient keyword to the definition of log. e.g. on trunk: private final transient Log log \u003d LogFactory.getLog(getClass()); on the 0.8 tag: private transient Log log \u003d LogFactory.getLog(getClass());","class_goldset":["src.org.apache.pig.backend.hadoop.executionengine.physicalLayer.PhysicalOperator","src.org.apache.pig.backend.hadoop.executionengine.physicalLayer.expressionOperators.ExpressionOperator","src.org.apache.pig.backend.hadoop.executionengine.physicalLayer.expressionOperators.POCast","src.org.apache.pig.backend.hadoop.executionengine.physicalLayer.expressionOperators.POUserComparisonFunc","src.org.apache.pig.backend.hadoop.executionengine.physicalLayer.expressionOperators.POUserFunc","src.org.apache.pig.backend.hadoop.executionengine.physicalLayer.relationalOperators.POCollectedGroup","src.org.apache.pig.backend.hadoop.executionengine.physicalLayer.relationalOperators.POCombinerPackage","src.org.apache.pig.backend.hadoop.executionengine.physicalLayer.relationalOperators.PODemux","src.org.apache.pig.backend.hadoop.executionengine.physicalLayer.relationalOperators.PODistinct","src.org.apache.pig.backend.hadoop.executionengine.physicalLayer.relationalOperators.POFRJoin","src.org.apache.pig.backend.hadoop.executionengine.physicalLayer.relationalOperators.POFilter","src.org.apache.pig.backend.hadoop.executionengine.physicalLayer.relationalOperators.POForEach","src.org.apache.pig.backend.hadoop.executionengine.physicalLayer.relationalOperators.POLimit","src.org.apache.pig.backend.hadoop.executionengine.physicalLayer.relationalOperators.POLoad","src.org.apache.pig.backend.hadoop.executionengine.physicalLayer.relationalOperators.POLocalRearrange","src.org.apache.pig.backend.hadoop.executionengine.physicalLayer.relationalOperators.POMergeJoin","src.org.apache.pig.backend.hadoop.executionengine.physicalLayer.relationalOperators.POMultiQueryPackage","src.org.apache.pig.backend.hadoop.executionengine.physicalLayer.relationalOperators.POPreCombinerLocalRearrange","src.org.apache.pig.backend.hadoop.executionengine.physicalLayer.relationalOperators.POSkewedJoin","src.org.apache.pig.backend.hadoop.executionengine.physicalLayer.relationalOperators.POSort","src.org.apache.pig.backend.hadoop.executionengine.physicalLayer.relationalOperators.POSplit"],"file_goldset":["src.org.apache.pig.backend.hadoop.executionengine.physicalLayer.PhysicalOperator","src.org.apache.pig.backend.hadoop.executionengine.physicalLayer.expressionOperators.ExpressionOperator","src.org.apache.pig.backend.hadoop.executionengine.physicalLayer.expressionOperators.POCast","src.org.apache.pig.backend.hadoop.executionengine.physicalLayer.expressionOperators.POUserComparisonFunc","src.org.apache.pig.backend.hadoop.executionengine.physicalLayer.expressionOperators.POUserFunc","src.org.apache.pig.backend.hadoop.executionengine.physicalLayer.relationalOperators.POCollectedGroup","src.org.apache.pig.backend.hadoop.executionengine.physicalLayer.relationalOperators.POCombinerPackage","src.org.apache.pig.backend.hadoop.executionengine.physicalLayer.relationalOperators.PODemux","src.org.apache.pig.backend.hadoop.executionengine.physicalLayer.relationalOperators.PODistinct","src.org.apache.pig.backend.hadoop.executionengine.physicalLayer.relationalOperators.POFRJoin","src.org.apache.pig.backend.hadoop.executionengine.physicalLayer.relationalOperators.POFilter","src.org.apache.pig.backend.hadoop.executionengine.physicalLayer.relationalOperators.POForEach","src.org.apache.pig.backend.hadoop.executionengine.physicalLayer.relationalOperators.POLimit","src.org.apache.pig.backend.hadoop.executionengine.physicalLayer.relationalOperators.POLoad","src.org.apache.pig.backend.hadoop.executionengine.physicalLayer.relationalOperators.POLocalRearrange","src.org.apache.pig.backend.hadoop.executionengine.physicalLayer.relationalOperators.POMergeJoin","src.org.apache.pig.backend.hadoop.executionengine.physicalLayer.relationalOperators.POMultiQueryPackage","src.org.apache.pig.backend.hadoop.executionengine.physicalLayer.relationalOperators.POPreCombinerLocalRearrange","src.org.apache.pig.backend.hadoop.executionengine.physicalLayer.relationalOperators.POSkewedJoin","src.org.apache.pig.backend.hadoop.executionengine.physicalLayer.relationalOperators.POSort","src.org.apache.pig.backend.hadoop.executionengine.physicalLayer.relationalOperators.POSplit"],"creation_date":"2011-03-31T18:26:15.000+0000","resolution_date":"2011-04-06T17:11:52.000+0000"}
{"id":308,"bug_id":"PIG-1963","text":"in nested foreach, accumutive udf taking input from order-by does not get results in order. This happens only when secondary sort is not being used for the order-by. For example -\n{code}\na1 \u003d load \u0027fruits.txt\u0027 as (f1:int,f2);\na2 \u003d load \u0027fruits.txt\u0027 as (f1:int,f2); b \u003d cogroup a1 by f1, a2 by f1; d \u003d foreach b {\n   sort1 \u003d order a1 by f2;\n   sort2 \u003d order a2 by f2; -- secondary sort not getting used here, MYCONCATBAG gets results in wrong order\n   generate group, MYCONCATBAG(sort1.f1), MYCONCATBAG(sort2.f2);\n} -- explain d; dump d; {code}","class_goldset":["src.org.apache.pig.backend.hadoop.executionengine.mapReduceLayer.AccumulatorOptimizer","test.org.apache.pig.test.TestAccumulator"],"file_goldset":["src.org.apache.pig.backend.hadoop.executionengine.mapReduceLayer.AccumulatorOptimizer","test.org.apache.pig.test.TestAccumulator"],"creation_date":"2011-04-04T22:18:24.000+0000","resolution_date":"2011-04-08T19:30:23.000+0000"}
{"id":309,"bug_id":"PIG-1977","text":"\"Stream closed\" error while reading Pig temp files (results of intermediate jobs). In certain cases when compression of temporary files is on Pig scripts fail with following exception: {code} java.io.IOException: Stream closed at java.io.BufferedInputStream.getBufIfOpen(BufferedInputStream.java:145) at java.io.BufferedInputStream.fill(BufferedInputStream.java:189) at java.io.BufferedInputStream.read(BufferedInputStream.java:237) at java.io.DataInputStream.readByte(DataInputStream.java:248) at org.apache.hadoop.io.file.tfile.Utils.readVLong(Utils.java:196) at org.apache.hadoop.io.file.tfile.Utils.readVInt(Utils.java:168) at org.apache.hadoop.io.file.tfile.Chunk$ChunkDecoder.readLength(Chunk.java:103) at org.apache.hadoop.io.file.tfile.Chunk$ChunkDecoder.checkEOF(Chunk.java:124) at org.apache.hadoop.io.file.tfile.Chunk$ChunkDecoder.close(Chunk.java:190) at java.io.FilterInputStream.close(FilterInputStream.java:155) at org.apache.pig.impl.io.TFileRecordReader.nextKeyValue(TFileRecordReader.java:85) at org.apache.pig.impl.io.TFileStorage.getNext(TFileStorage.java:76) at org.apache.pig.backend.hadoop.executionengine.mapReduceLayer.PigRecordReader.nextKeyValue(PigRecordReader.java:187) at org.apache.hadoop.mapred.MapTask$NewTrackingRecordReader.nextKeyValue(MapTask.java:474) at org.apache.hadoop.mapreduce.MapContext.nextKeyValue(MapContext.java:67) at org.apache.hadoop.mapreduce.Mapper.run(Mapper.java:143) at org.apache.hadoop.mapred.MapTask.runNewMapper(MapTask.java:676) at org.apache.hadoop.mapred.MapTask.run(MapTask.java:336) at org.apache.hadoop.mapred.Child$4.run(Child.java:242) at java.security.AccessController.doPrivileged(Native Method) at javax.security.auth.Subject.doAs(Subject.java:396) at org.apache.hadoop.security.UserGroupInformation.doAs(UserGroupInformation.java:1059) at org.apache.hadoop.mapred.Child.main(Child.java:236) {code} The workaround is to turn off the compression (pig.tmpfilecompression\u003dfalse).","class_goldset":["src.org.apache.pig.impl.io.TFileRecordReader","test.org.apache.pig.test.TestTmpFileCompression"],"file_goldset":["src.org.apache.pig.impl.io.TFileRecordReader","test.org.apache.pig.test.TestTmpFileCompression"],"creation_date":"2011-04-07T22:27:11.000+0000","resolution_date":"2011-04-11T16:52:59.000+0000"}
{"id":310,"bug_id":"PIG-1979","text":"New logical plan failing with ERROR 2229: Couldn\u0027t find matching uid -1 . The below is my script \n{code}\nregister myudf.jar;\nc01 \u003d LOAD \u0027input\u0027  USING org.test.MyTableLoader(\u0027\u0027);\nc02 \u003d FILTER c01  BY result \u003d\u003d \u0027OK\u0027  AND formatted IS NOT NULL  AND formatted ! \u003d \u0027\u0027 ;\nc03 \u003d FOREACH c02 GENERATE url, formatted, FLATTEN(usage);\nc04 \u003d FOREACH c03 GENERATE usage::domain AS domain, url, formatted;\ndoc_001 \u003d FOREACH c04 GENERATE domain,url, FLATTEN(MyExtractor(formatted)) AS category;\ndoc_004_1 \u003d GROUP doc_001 BY (domain,url);\ndoc_005 \u003d FOREACH doc_004_1 GENERATE group.domain as domain, group.url as url, doc_001. category as category;\nSTORE doc_005 INTO \u0027out_final\u0027 USING PigStorage(); review1 \u003d FOREACH c04 GENERATE domain,url, MyExtractor(formatted) AS rev;\nreview2 \u003d FILTER review1 BY SIZE(rev)\u003e0;\njoinresult \u003d JOIN review2 by (domain,url), doc_005 by (domain,url);\nfinalresult \u003d FOREACH joinresult GENERATE  doc_005::category;\nSTORE finalresult INTO \u0027out_final\u0027 using PigStorage();\n{code} The script is failing in building the plan, while applying for logical optimization rule for AddForEach. ERROR org.apache.pig.tools.grunt.Grunt - ERROR 2229: Couldn\u0027t find matching uid -1 for project (Name: Project Type: bytearray Uid: 106 Input: 0 Column: 5) The problem is happening when I try to include doc_005::category in the projection for relation finalresult. This is field is orginated from the udf org.vivek.udfs.MyExtractor (source given below). {code} import java.io.IOException;\nimport org.apache.pig.EvalFunc;\nimport org.apache.pig.data. *;\nimport org.apache.pig.impl.logicalLayer.FrontendException;\nimport org.apache.pig.impl.logicalLayer.schema.Schema;\nimport org.apache.pig.impl.logicalLayer.schema.Schema.FieldSchema; public class MyExtractor extends EvalFunc\u003cDataBag\u003e\n{\n  @Override\n\tpublic Schema outputSchema(Schema arg0) {\n\t  try {\n\t\t\treturn Schema.generateNestedSchema(DataType.BAG, DataType.CHARARRAY);\n\t\t} catch (FrontendException e) {\n\t\t\tSystem.err.println(\"Error while generating schema. \" +e);\n\t\t\treturn new Schema(new FieldSchema(null, DataType.BAG));\n\t\t}\n\t} @Override\n  public DataBag exec(Tuple inputTuple)\n    throws IOException\n  {\n    try {\n      Tuple tp2 \u003d TupleFactory.getInstance(). newTuple(1);\n      tp2.set(0, (inputTuple.get(0). toString()+inputTuple.hashCode()));\n      DataBag retBag \u003d BagFactory.getInstance(). newDefaultBag();\n      retBag.add(tp2);\n      return retBag;\n    }\n    catch (Exception e) {\n      throw new IOException(\" Caught exception\", e);\n    }\n  }\n} {code} The script goes through fine if I disable AddForEach rule by -t AddForEach","class_goldset":["src.org.apache.pig.newplan.logical.expression.DereferenceExpression","test.org.apache.pig.test.TestEvalPipeline2"],"file_goldset":["src.org.apache.pig.newplan.logical.expression.DereferenceExpression","test.org.apache.pig.test.TestEvalPipeline2"],"creation_date":"2011-04-08T07:24:01.000+0000","resolution_date":"2011-04-15T00:25:13.000+0000"}
{"id":311,"bug_id":"PIG-1993","text":"PigStorageSchema throw NPE with ColumnPruning. The following script fail: {code} a \u003d load \u00271.txt\u0027 as (a0:int, a1:int, a2:int); store a into \u0027temp\u0027 using org.apache.pig.piggybank.storage.PigStorageSchema(); exec a \u003d LOAD \u0027temp\u0027 using org.apache.pig.piggybank.storage.PigStorageSchema(); b \u003d FOREACH a GENERATE a1; dump b; {code} Error message: java.lang.ArrayIndexOutOfBoundsException: 2         at org.apache.pig.piggybank.storage.PigStorageSchema.getNext(PigStorageSchema.java:94)         at org.apache.pig.backend.hadoop.executionengine.mapReduceLayer.PigRecordReader.nextKeyValue(PigRecordReader.java:187)         at org.apache.hadoop.mapred.MapTask$NewTrackingRecordReader.nextKeyValue(MapTask.java:423)         at org.apache.hadoop.mapreduce.MapContext.nextKeyValue(MapContext.java:67)         at org.apache.hadoop.mapreduce.Mapper.run(Mapper.java:143)         at org.apache.hadoop.mapred.MapTask.runNewMapper(MapTask.java:621)         at org.apache.hadoop.mapred.MapTask.run(MapTask.java:305)         at org.apache.hadoop.mapred.LocalJobRunner$Job.run(LocalJobRunner.java:177)","class_goldset":["contrib.piggybank.java.src.main.java.org.apache.pig.piggybank.storage.PigStorageSchema","contrib.piggybank.java.src.test.java.org.apache.pig.piggybank.test.TestPigStorageSchema"],"file_goldset":["contrib.piggybank.java.src.main.java.org.apache.pig.piggybank.storage.PigStorageSchema","contrib.piggybank.java.src.test.java.org.apache.pig.piggybank.test.TestPigStorageSchema"],"creation_date":"2011-04-13T00:47:41.000+0000","resolution_date":"2011-04-14T01:48:42.000+0000"}
{"id":312,"bug_id":"PIG-313","text":"Error handling aggregate of a computation. Query which fails: {code}\na \u003d load \u0027:INPATH:/singlefile/studenttab10k\u0027 as (name:chararray, age:int, gpa:double);\nb \u003d group a by name;\nc \u003d foreach b generate group, SUM(a.age*a.gpa);                            \nstore c into \u0027:OUTPATH:\u0027;\\,\n{code} Error output: {quote} 2008-07-14 16:34:08,684 [main] INFO  org.apache.pig.backend.hadoop.executionengine.HExecutionEngine - Connecting to hadoop file system at: testhost.com:8020 2008-07-14 16:34:08,741 [main] WARN  org.apache.hadoop.fs.FileSystem - \"testhost.com:8020\" is a deprecated filesystem name. Use \"hdfs://testhost:8020/\" instead. 2008-07-14 16:34:08,995 [main] INFO  org.apache.pig.backend.hadoop.executionengine.HExecutionEngine - Connecting to map-reduce job tracker at: testhost.com:50020 2008-07-14 16:34:09,251 [main] WARN  org.apache.hadoop.fs.FileSystem - \"testhost.com:8020\" is a deprecated filesystem name. Use \"hdfs://testhost:8020/\" instead. 2008-07-14 16:34:09,559 [main] ERROR org.apache.pig.PigServer - Cannot evaluate output type of Mul/Div Operator 2008-07-14 16:34:09,559 [main] ERROR org.apache.pig.PigServer - Problem resolving LOForEach schema 2008-07-14 16:34:09,559 [main] ERROR org.apache.pig.PigServer - Severe problem found during validation org.apache.pig.impl.plan.PlanValidationException: An unexpected exception caused the validation to stop  2008-07-14 16:34:09,560 [main] ERROR org.apache.pig.tools.grunt.Grunt - java.io.IOException: Unable to store for alias: c 2008-07-14 16:34:09,560 [main] ERROR org.apache.pig.Main - java.io.IOException: Unable to store for alias: c {quote}","class_goldset":["test.org.apache.pig.test.TestEvalPipeline2"],"file_goldset":["test.org.apache.pig.test.TestEvalPipeline2"],"creation_date":"2008-07-15T00:20:04.000+0000","resolution_date":"2011-01-24T18:45:32.000+0000"}
{"id":313,"bug_id":"PIG-496","text":"project of bags from complex data causes failures. A \u003d load \u0027complex data\u0027 as (x: bag{});\nB \u003d foreach A generate x.($1, $2); produces stack trace: 2008-10-14 15:11:07,639 [main] ERROR org.apache.pig.backend.hadoop.executionengine.mapReduceLayer.Launcher - Error message from task (reduce) task_200809241441_9923_r_000000java.lang.NullPointerException         at org.apache.pig.backend.hadoop.executionengine.physicalLayer.expressionOperators.POProject.getNext(POProject.java:183)         at org.apache.pig.backend.hadoop.executionengine.physicalLayer.relationalOperators.POForEach.processPlan(POForEach.java:215)         at org.apache.pig.backend.hadoop.executionengine.physicalLayer.relationalOperators.POForEach.getNext(POForEach.java:166)         at org.apache.pig.backend.hadoop.executionengine.mapReduceLayer.PigMapReduce$Reduce.runPipeline(PigMapReduce.java:252)         at org.apache.pig.backend.hadoop.executionengine.mapReduceLayer.PigMapReduce$Reduce.reduce(PigMapReduce.java:222)         at org.apache.pig.backend.hadoop.executionengine.mapReduceLayer.PigMapReduce$Reduce.reduce(PigMapReduce.java:134)         at org.apache.hadoop.mapred.ReduceTask.run(ReduceTask.java:318)         at org.apache.hadoop.mapred.TaskTracker$Child.main(TaskTracker.java:2207) Pradeep suspects that the problem is in src/org/apache/pig/backend/hadoop/executionengine/physicalLayer/expressionOperators/POProject.java; line 374","class_goldset":["src.org.apache.pig.builtin.Utf8StorageConverter","test.org.apache.pig.test.TestConversions"],"file_goldset":["src.org.apache.pig.builtin.Utf8StorageConverter","test.org.apache.pig.test.TestConversions"],"creation_date":"2008-10-15T00:37:44.000+0000","resolution_date":"2011-01-24T18:42:54.000+0000"}
{"id":314,"bug_id":"PIG-534","text":"Illustrate can\u0027t handle Map\u0027s or NULLs. when I \u0027illustrate\u0027 a record that contains a map, or has a NULL it crashes with a NPE.","class_goldset":["src.org.apache.pig.pen.util.DisplayExamples"],"file_goldset":["src.org.apache.pig.pen.util.DisplayExamples"],"creation_date":"2008-11-17T00:46:39.000+0000","resolution_date":"2011-02-12T00:49:24.000+0000"}
{"id":315,"bug_id":"PIG-730","text":"problem combining schema from a union of several LOAD expressions, with a nested bag inside the schema.. grunt\u003e a \u003d load \u0027foo\u0027 using BinStorage as (url:chararray,outlinks:{t:(target:chararray,text:chararray)});\ngrunt\u003e b \u003d union (load \u0027foo\u0027 using BinStorage as (url:chararray,outlinks:{t:(target:chararray,text:chararray)})), (load \u0027bar\u0027 using BinStorage as (url:chararray,outlinks:{t:(target:chararray,text:chararray)}));\ngrunt\u003e c \u003d foreach a generate flatten(outlinks.target);\ngrunt\u003e d \u003d foreach b generate flatten(outlinks.target); ---\u003e Would expect both C and D to work, but only C works. D gives the error shown below. ---\u003e Turns out using outlinks.t.target (instead of outlinks.target) works for D but not for C. ---\u003e I don\u0027t care which one, but the same syntax should work for both! 2009-03-24 13:15:05,376 [main] ERROR org.apache.pig.tools.grunt.Grunt - ERROR 1000: Error during parsing. Invalid alias: target in {t: (target: chararray,text: chararray)}\nDetails at logfile: /echo/olston/data/pig_1237925683748. log\ngrunt\u003e quit $ cat pig_1237925683748.log  ERROR 1000: Error during parsing. Invalid alias: target in {t: (target: chararray,text: chararray)} org.apache.pig.impl.logicalLayer.FrontendException: ERROR 1000: Error during parsing. Invalid alias: target in {t: (target: chararray,text: chararray)}         at org.apache.pig.PigServer.parseQuery(PigServer.java:317)         at org.apache.pig.PigServer.registerQuery(PigServer.java:276)         at org.apache.pig.tools.grunt.GruntParser.processPig(GruntParser.java:529)         at org.apache.pig.tools.pigscript.parser.PigScriptParser.parse(PigScriptParser.java:280)         at org.apache.pig.tools.grunt.GruntParser.parseStopOnError(GruntParser.java:99)         at org.apache.pig.tools.grunt.Grunt.run(Grunt.java:69)         at org.apache.pig.Main.main(Main.java:321) Caused by: org.apache.pig.impl.logicalLayer.parser.ParseException: Invalid alias: target in {t: (target: chararray,text: chararray)}         at org.apache.pig.impl.logicalLayer.parser.QueryParser.AliasFieldOrSpec(QueryParser.java:6042)         at org.apache.pig.impl.logicalLayer.parser.QueryParser.ColOrSpec(QueryParser.java:5898)         at org.apache.pig.impl.logicalLayer.parser.QueryParser.BracketedSimpleProj(QueryParser.java:5423)         at org.apache.pig.impl.logicalLayer.parser.QueryParser.BaseEvalSpec(QueryParser.java:4100)         at org.apache.pig.impl.logicalLayer.parser.QueryParser.UnaryExpr(QueryParser.java:3967)         at org.apache.pig.impl.logicalLayer.parser.QueryParser.CastExpr(QueryParser.java:3920)         at org.apache.pig.impl.logicalLayer.parser.QueryParser.MultiplicativeExpr(QueryParser.java:3829)         at org.apache.pig.impl.logicalLayer.parser.QueryParser.AdditiveExpr(QueryParser.java:3755)         at org.apache.pig.impl.logicalLayer.parser.QueryParser.InfixExpr(QueryParser.java:3721)         at org.apache.pig.impl.logicalLayer.parser.QueryParser.FlattenedGenerateItem(QueryParser.java:3617)         at org.apache.pig.impl.logicalLayer.parser.QueryParser.FlattenedGenerateItemList(QueryParser.java:3557)         at org.apache.pig.impl.logicalLayer.parser.QueryParser.GenerateStatement(QueryParser.java:3514)         at org.apache.pig.impl.logicalLayer.parser.QueryParser.NestedBlock(QueryParser.java:2985)         at org.apache.pig.impl.logicalLayer.parser.QueryParser.ForEachClause(QueryParser.java:2395)         at org.apache.pig.impl.logicalLayer.parser.QueryParser.BaseExpr(QueryParser.java:1028)         at org.apache.pig.impl.logicalLayer.parser.QueryParser.Expr(QueryParser.java:804)         at org.apache.pig.impl.logicalLayer.parser.QueryParser.Parse(QueryParser.java:595)         at org.apache.pig.impl.logicalLayer.LogicalPlanBuilder.parse(LogicalPlanBuilder.java:60)         at org.apache.pig.PigServer.parseQuery(PigServer.java:310)         ... 6 more","class_goldset":["src.org.apache.pig.impl.logicalLayer.schema.Schema","src.org.apache.pig.newplan.logical.expression.DereferenceExpression","src.org.apache.pig.newplan.logical.relational.LogicalSchema","test.org.apache.pig.test.TestSchema"],"file_goldset":["src.org.apache.pig.impl.logicalLayer.schema.Schema","src.org.apache.pig.newplan.logical.expression.DereferenceExpression","src.org.apache.pig.newplan.logical.relational.LogicalSchema","test.org.apache.pig.test.TestSchema"],"creation_date":"2009-03-24T19:36:45.000+0000","resolution_date":"2011-01-24T18:41:02.000+0000"}
{"id":316,"bug_id":"PIG-767","text":"Schema reported from DESCRIBE and actual schema of inner bags are different.. The following script: urlContents \u003d LOAD \u0027inputdir\u0027 USING BinStorage() AS (url:bytearray, pg:bytearray); -- describe and dump are in-sync DESCRIBE urlContents; DUMP urlContents; urlContentsG \u003d GROUP urlContents BY url;\nDESCRIBE urlContentsG; urlContentsF \u003d FOREACH urlContentsG GENERATE group,urlContents.pg; DESCRIBE urlContentsF;\nDUMP urlContentsF; Prints for the DESCRIBE commands: urlContents: {url: chararray,pg: chararray}\nurlContentsG: {group: chararray,urlContents: {url: chararray,pg: chararray}}\nurlContentsF: {group: chararray,pg: {pg: chararray}} The reported schemas for urlContentsG and urlContentsF are wrong. They are also against the section \"Schemas for Complex Data Types\" in http://wiki.apache.org/pig-data/attachments/FrontPage/attachments/plrm.htm#_Schemas. As expected, actual data observed from DUMP urlContentsG and DUMP urlContentsF do contain the tuple inside the inner bags. The correct schema for urlContentsG is:  {group: chararray,urlContents: {t1:(url: chararray,pg: chararray)}} This may sound like a technicality, but it isn\u0027t. For instance, a UDF that assumes an inner bag of {chararray} will not work with {(chararray)}.","class_goldset":["src.org.apache.pig.newplan.logical.expression.DereferenceExpression","src.org.apache.pig.newplan.logical.relational.LOCogroup","src.org.apache.pig.newplan.logical.relational.LOGenerate","src.org.apache.pig.newplan.logical.relational.LOInnerLoad","src.org.apache.pig.newplan.logical.rules.DuplicateForEachColumnRewrite","test.org.apache.pig.test.TestLogicalPlanMigrationVisitor","test.org.apache.pig.test.TestNewPlanLogToPhyTranslationVisitor","test.org.apache.pig.test.TestSchema"],"file_goldset":["src.org.apache.pig.newplan.logical.expression.DereferenceExpression","src.org.apache.pig.newplan.logical.relational.LOCogroup","src.org.apache.pig.newplan.logical.relational.LOGenerate","src.org.apache.pig.newplan.logical.relational.LOInnerLoad","src.org.apache.pig.newplan.logical.rules.DuplicateForEachColumnRewrite","test.org.apache.pig.test.TestLogicalPlanMigrationVisitor","test.org.apache.pig.test.TestNewPlanLogToPhyTranslationVisitor","test.org.apache.pig.test.TestSchema"],"creation_date":"2009-04-16T04:43:29.000+0000","resolution_date":"2011-01-24T18:28:39.000+0000"}
{"id":317,"bug_id":"PIG-946","text":"Combiner optimizer does not optimize when limit follow group, foreach. The following script is combinable but is not optimized:\na \u003d load \u0027/user/pig/tests/data/singlefile/studenttab10k\u0027;\nb \u003d group a by $1;\nc \u003d foreach b generate group, AVG(a.$2);\nd \u003d limit c 10;\ndump d;","class_goldset":["src.org.apache.pig.backend.hadoop.executionengine.mapReduceLayer.CombinerOptimizer","test.org.apache.pig.test.TestCombiner"],"file_goldset":["src.org.apache.pig.backend.hadoop.executionengine.mapReduceLayer.CombinerOptimizer","test.org.apache.pig.test.TestCombiner"],"creation_date":"2009-09-04T22:51:37.000+0000","resolution_date":"2011-01-05T16:52:32.000+0000"}
