{"id":256,"bug_id":"PIG-2265","text":"Test case TestSecondarySort failure. Error message: Testcase: testNestedSortEndToEnd3 took 53.076 sec \tCaused an ERROR Unable to open iterator for alias E. Backend error : org.apache.pig.data.DataByteArray cannot be cast to org.apache.pig.data.Tuple org.apache.pig.impl.logicalLayer.FrontendException: ERROR 1066: Unable to open iterator for alias E. Backend error : org.apache.pig.data.DataByteArray cannot be cast to org.apache.pig.data.Tuple \tat org.apache.pig.PigServer.openIterator(PigServer.java:742) \tat org.apache.pig.test.TestSecondarySort.testNestedSortEndToEnd3(TestSecondarySort.java:550) Caused by: java.lang.ClassCastException: org.apache.pig.data.DataByteArray cannot be cast to org.apache.pig.data.Tuple \tat org.apache.pig.backend.hadoop.executionengine.physicalLayer.expressionOperators.POProject.getNext(POProject.java:392) \tat org.apache.pig.backend.hadoop.executionengine.physicalLayer.relationalOperators.POLocalRearrange.getNext(POLocalRearrange.java:357) \tat org.apache.pig.backend.hadoop.executionengine.mapReduceLayer.PigMapBase.runPipeline(PigMapBase.java:236) \tat org.apache.pig.backend.hadoop.executionengine.mapReduceLayer.PigMapBase.map(PigMapBase.java:231) \tat org.apache.pig.backend.hadoop.executionengine.mapReduceLayer.PigMapBase.map(PigMapBase.java:53) \tat org.apache.hadoop.mapreduce.Mapper.run(Mapper.java:144) \tat org.apache.hadoop.mapred.MapTask.runNewMapper(MapTask.java:621) \tat org.apache.hadoop.mapred.MapTask.run(MapTask.java:305)","class_goldset":["src.org.apache.pig.backend.hadoop.executionengine.mapReduceLayer.MRCompiler","src.org.apache.pig.backend.hadoop.executionengine.mapReduceLayer.SecondaryKeyOptimizer","test.org.apache.pig.test.TestSecondarySort"],"file_goldset":["src.org.apache.pig.backend.hadoop.executionengine.mapReduceLayer.MRCompiler","src.org.apache.pig.backend.hadoop.executionengine.mapReduceLayer.SecondaryKeyOptimizer","test.org.apache.pig.test.TestSecondarySort"],"creation_date":"2011-09-06T14:42:27.000+0000","resolution_date":"2013-04-08T19:59:48.000+0000"}
{"id":257,"bug_id":"PIG-2606","text":"union/ join operations are not accepting same alias as multiple inputs. grunt\u003e l \u003d load \u0027x\u0027;   \ngrunt\u003e u \u003d union l, l; \n2012-03-16 18:48:45,687 [main] ERROR org.apache.pig.tools.grunt.Grunt - ERROR 2998: Unhandled internal error. Union with Count(Operand) \u003c 2 grunt\u003e a \u003d load \u0027a0.txt\u0027 as (a0, a1);\ngrunt\u003e b \u003d join a by a0, a by a1;    \n2013-08-27 13:36:21,807 [main] ERROR org.apache.pig.tools.grunt.Grunt - ERROR 2225: Projection with nothing to reference!","class_goldset":["src.org.apache.pig.parser.LogicalPlanBuilder","test.org.apache.pig.parser.TestErrorHandling"],"file_goldset":["src.org.apache.pig.parser.LogicalPlanBuilder","test.org.apache.pig.parser.TestErrorHandling"],"creation_date":"2012-03-17T01:49:00.000+0000","resolution_date":"2013-08-29T21:17:13.000+0000"}
{"id":258,"bug_id":"PIG-2767","text":"Pig creates wrong schema after dereferencing nested tuple fields. The following script fails: data \u003d LOAD \u0027test_data. txt\u0027 USING PigStorage() AS (f1: int, f2: int, f3:\nint, f4: int); nested \u003d FOREACH data GENERATE f1, (f2, f3, f4) AS nested_tuple; dereferenced \u003d FOREACH nested GENERATE f1, nested_tuple. (f2, f3);\nDESCRIBE dereferenced; uses_dereferenced \u003d FOREACH dereferenced GENERATE nested_tuple. f3;\nDESCRIBE uses_dereferenced; The schema of \"dereferenced\" should be {f1: int, nested_tuple: (f2: int,\nf3: int)}. DESCRIBE thinks it is {f1: int, f2: int} instead. When dump is\nused, the data is actually in form of the correct schema however, ex. (1 (2,3)) (5 (6,7)) ... This is not just a problem with DESCRIBE. Because the schema is incorrect,\nthe reference to \"nested_tuple\" in the \"uses_dereferenced\" statement is\nconsidered to be invalid, and the script fails to run. The error is: Invalid field projection. Projected field [nested_tuple] does not exist in\nschema: f1:int,f2:int.","class_goldset":["src.org.apache.pig.newplan.logical.expression.DereferenceExpression","test.org.apache.pig.test.TestPigServer"],"file_goldset":["src.org.apache.pig.newplan.logical.expression.DereferenceExpression","test.org.apache.pig.test.TestPigServer"],"creation_date":"2012-06-25T14:11:20.000+0000","resolution_date":"2013-04-22T20:13:20.000+0000"}
{"id":259,"bug_id":"PIG-2828","text":"Handle nulls in DataType.compare. While using TOP, and if the DataBag contains null value to compare, it will generate the following exception: Caused by: java.lang.NullPointerException \tat org.apache.pig.data.DataType.compare(DataType.java:427) \tat org.apache.pig.builtin.TOP$TupleComparator.compare(TOP.java:97) \tat org.apache.pig.builtin.TOP$TupleComparator.compare(TOP.java:1) \tat java.util.PriorityQueue.siftUpUsingComparator(PriorityQueue.java:649) \tat java.util.PriorityQueue.siftUp(PriorityQueue.java:627) \tat java.util.PriorityQueue.offer(PriorityQueue.java:329) \tat java.util.PriorityQueue.add(PriorityQueue.java:306) \tat org.apache.pig.builtin.TOP.updateTop(TOP.java:141) \tat org.apache.pig.builtin.TOP.exec(TOP.java:116) code: (TOP.java, starts with line 91) Object field1 \u003d o1.get(fieldNum); Object field2 \u003d o2.get(fieldNum); if (! typeFound) { datatype \u003d DataType.findType(field1); typeFound \u003d true; } return DataType.compare(field1, field2, datatype, datatype); The reason is that if the typeFound is true , and the dataType is not null, and field1 is null, the script failed. So we need to judge the field1 whether is null.","class_goldset":["src.org.apache.pig.builtin.TOP","src.org.apache.pig.data.DataType","test.org.apache.pig.test.TestNull"],"file_goldset":["src.org.apache.pig.builtin.TOP","src.org.apache.pig.data.DataType","test.org.apache.pig.test.TestNull"],"creation_date":"2012-07-19T10:03:16.000+0000","resolution_date":"2013-06-04T07:02:17.000+0000"}
{"id":260,"bug_id":"PIG-2956","text":"Invalid cache specification for some streaming statement. Another category of failure in e2e tests, such as ComputeSpec_1, ComputeSpec_2, ComputeSpec_3, RaceConditions_1, RaceConditions_3, RaceConditions_4, RaceConditions_7, RaceConditions_8. Here is stack:\nERROR 6003: Invalid cache specification. File doesn\u0027t exist: C:/Program Files (x86)/GnuWin32/bin/head. exe org.apache.pig.backend.hadoop.executionengine.mapReduceLayer.JobCreationException: ERROR 2017: Internal error creating job configuration. at org.apache.pig.backend.hadoop.executionengine.mapReduceLayer.JobControlCompiler.getJob(JobControlCompiler.java:723) at org.apache.pig.backend.hadoop.executionengine.mapReduceLayer.JobControlCompiler.compile(JobControlCompiler.java:258) at org.apache.pig.backend.hadoop.executionengine.mapReduceLayer.MapReduceLauncher.launchPig(MapReduceLauncher.java:151) at org.apache.pig.PigServer.launchPlan(PigServer.java:1318) at org.apache.pig.PigServer.executeCompiledLogicalPlan(PigServer.java:1303) at org.apache.pig.PigServer.execute(PigServer.java:1293) at org.apache.pig.PigServer.executeBatch(PigServer.java:364) at org.apache.pig.tools.grunt.GruntParser.executeBatch(GruntParser.java:133) at org.apache.pig.tools.grunt.GruntParser.parseStopOnError(GruntParser.java:194) at org.apache.pig.tools.grunt.GruntParser.parseStopOnError(GruntParser.java:166) at org.apache.pig.tools.grunt.Grunt.exec(Grunt.java:84) at org.apache.pig.Main.run(Main.java:561) at org.apache.pig.Main.main(Main.java:111) Caused by: org.apache.pig.backend.executionengine.ExecException: ERROR 6003: Invalid cache specification. File doesn\u0027t exist: C:/Program Files (x86)/GnuWin32/bin/head.exe at org.apache.pig.backend.hadoop.executionengine.mapReduceLayer.JobControlCompiler.setupDistributedCache(JobControlCompiler.java:1151) at org.apache.pig.backend.hadoop.executionengine.mapReduceLayer.JobControlCompiler.setupDistributedCache(JobControlCompiler.java:1129) at org.apache.pig.backend.hadoop.executionengine.mapReduceLayer.JobControlCompiler.getJob(JobControlCompiler.java:447)","class_goldset":["src.org.apache.pig.backend.hadoop.executionengine.mapReduceLayer.JobControlCompiler","test.org.apache.pig.test.TestJobSubmission"],"file_goldset":["src.org.apache.pig.backend.hadoop.executionengine.mapReduceLayer.JobControlCompiler","test.org.apache.pig.test.TestJobSubmission"],"creation_date":"2012-10-08T06:52:24.000+0000","resolution_date":"2013-05-31T17:18:39.000+0000"}
{"id":261,"bug_id":"PIG-2970","text":"Nested foreach getting incorrect schema when having unrelated inner query. While looking at PIG-2968, hit a weird error message. {noformat}\n$ cat -n test/foreach2. pig\n     1  daily \u003d load \u0027nyse\u0027 as (exchange, symbol);\n     2  grpd \u003d group daily by exchange;\n     3  unique \u003d foreach grpd {\n     4          sym \u003d daily.symbol;\n     5          uniq_sym \u003d distinct sym;\n     6          --ignoring uniq_sym result\n     7          generate group, daily;\n     8  };\n     9  describe unique;\n    10  zzz \u003d foreach unique generate group;\n    11  explain zzz; % pig -x local -t ColumnMapKeyPrune test/foreach2. pig\n...\nunique: {symbol: bytearray} 2012-10-12 16:55:44,226 [main] ERROR org.apache.pig.tools.grunt.Grunt - ERROR 1025: \n\u003cfile test/foreach2. pig, line 10, column 30\u003e Invalid field projection. Projected field [group] does not exist in schema: symbol:bytearray. ...\n{noformat}","class_goldset":["src.org.apache.pig.PigServer","src.org.apache.pig.backend.hadoop.executionengine.HExecutionEngine","test.org.apache.pig.test.TestEvalPipelineLocal"],"file_goldset":["src.org.apache.pig.PigServer","src.org.apache.pig.backend.hadoop.executionengine.HExecutionEngine","test.org.apache.pig.test.TestEvalPipelineLocal"],"creation_date":"2012-10-12T20:58:03.000+0000","resolution_date":"2013-05-02T00:46:08.000+0000"}
{"id":262,"bug_id":"PIG-3060","text":"FLATTEN in nested foreach fails when the input contains an empty bag. FLATTEN inside a foreach statement produces wrong results, if the input contains an empty bag. {code}\nA \u003d load \u0027flatten.txt\u0027 as (a0:int, a1:bag{(t:chararray)});\nB \u003d group A by a0;\nC \u003d foreach B {\n  c1 \u003d foreach A generate FLATTEN(a1);\n  generate COUNT(c1);\n};\n{code}\nThe easy workaround is to filter out empty bags.","class_goldset":["src.org.apache.pig.backend.hadoop.executionengine.physicalLayer.relationalOperators.POForEach","test.org.apache.pig.test.TestEvalPipelineLocal"],"file_goldset":["src.org.apache.pig.backend.hadoop.executionengine.physicalLayer.relationalOperators.POForEach","test.org.apache.pig.test.TestEvalPipelineLocal"],"creation_date":"2012-11-20T08:29:04.000+0000","resolution_date":"2013-04-08T18:16:12.000+0000"}
{"id":263,"bug_id":"PIG-3114","text":"Duplicated macro name error when using pigunit. I\u0027m using PigUnit to test a pig script within which a macro is defined. Pig runs fine on cluster but getting parsing error with pigunit. So I tried very basic pig script with macro and getting similar error. org.apache.pig.impl.logicalLayer.FrontendException: ERROR 1000: Error during parsing. \u003cline 9\u003e null. Reason: Duplicated macro name \u0027my_macro_1\u0027 \tat org.apache.pig.PigServer$Graph.parseQuery(PigServer.java:1607) \tat org.apache.pig.PigServer$Graph.registerQuery(PigServer.java:1546) \tat org.apache.pig.PigServer.registerQuery(PigServer.java:516) \tat org.apache.pig.tools.grunt.GruntParser.processPig(GruntParser.java:988) \tat org.apache.pig.pigunit.pig.GruntParser.processPig(GruntParser.java:61) \tat org.apache.pig.tools.pigscript.parser.PigScriptParser.parse(PigScriptParser.java:412) \tat org.apache.pig.tools.grunt.GruntParser.parseStopOnError(GruntParser.java:194) \tat org.apache.pig.pigunit.pig.PigServer.registerScript(PigServer.java:56) \tat org.apache.pig.pigunit.PigTest.registerScript(PigTest.java:160) \tat org.apache.pig.pigunit.PigTest.assertOutput(PigTest.java:231) \tat org.apache.pig.pigunit.PigTest.assertOutput(PigTest.java:261) \tat FirstPigTest.MyPigTest.testTop2Queries(MyPigTest.java:32) \tat sun.reflect.NativeMethodAccessorImpl.invoke0(Native Method) \tat sun.reflect.NativeMethodAccessorImpl.invoke(NativeMethodAccessorImpl.java:39) \tat sun.reflect.DelegatingMethodAccessorImpl.invoke(DelegatingMethodAccessorImpl.java:25) \tat java.lang.reflect.Method.invoke(Method.java:597) \tat junit.framework.TestCase.runTest(TestCase.java:176) \tat junit.framework.TestCase.runBare(TestCase.java:141) \tat junit.framework.TestResult$1.protect(TestResult.java:122) \tat junit.framework.TestResult.runProtected(TestResult.java:142) \tat junit.framework.TestResult.run(TestResult.java:125) \tat junit.framework.TestCase.run(TestCase.java:129) \tat junit.framework.TestSuite.runTest(TestSuite.java:255) \tat junit.framework.TestSuite.run(TestSuite.java:250) \tat org.junit.internal.runners.JUnit38ClassRunner.run(JUnit38ClassRunner.java:84) \tat org.eclipse.jdt.internal.junit4.runner.JUnit4TestReference.run(JUnit4TestReference.java:50) \tat org.eclipse.jdt.internal.junit.runner.TestExecution.run(TestExecution.java:38) \tat org.eclipse.jdt.internal.junit.runner.RemoteTestRunner.runTests(RemoteTestRunner.java:467) \tat org.eclipse.jdt.internal.junit.runner.RemoteTestRunner.runTests(RemoteTestRunner.java:683) \tat org.eclipse.jdt.internal.junit.runner.RemoteTestRunner.run(RemoteTestRunner.java:390) \tat org.eclipse.jdt.internal.junit.runner.RemoteTestRunner.main(RemoteTestRunner.java:197) Caused by: Failed to parse: \u003cline 9\u003e null. Reason: Duplicated macro name \u0027my_macro_1\u0027 \tat org.apache.pig.parser.QueryParserDriver.makeMacroDef(QueryParserDriver.java:406) \tat org.apache.pig.parser.QueryParserDriver.expandMacro(QueryParserDriver.java:277) \tat org.apache.pig.parser.QueryParserDriver.parse(QueryParserDriver.java:178) \tat org.apache.pig.PigServer$Graph.parseQuery(PigServer.java:1599) \t... 30 more Pig script which is failing : {code:title\u003dtest.pig|borderStyle\u003dsolid} DEFINE my_macro_1 (QUERY, A) RETURNS C { $C \u003d ORDER $QUERY BY total DESC, $A; } ; data \u003d  LOAD \u0027input\u0027 AS (query:CHARARRAY); queries_group \u003d GROUP data BY query; queries_count \u003d FOREACH queries_group GENERATE group AS query, COUNT(data) AS total; queries_ordered \u003d my_macro_1(queries_count, query); queries_limit \u003d LIMIT queries_ordered 2; STORE queries_limit INTO \u0027output\u0027; {code} If I remove macro pigunit works fine. Even just defining macro without using it results in parsing error.","class_goldset":["src.org.apache.pig.PigServer","test.org.apache.pig.pigunit.PigTest","test.org.apache.pig.pigunit.pig.PigServer","test.org.apache.pig.test.pigunit.TestPigTest"],"file_goldset":["src.org.apache.pig.PigServer","test.org.apache.pig.pigunit.PigTest","test.org.apache.pig.pigunit.pig.PigServer","test.org.apache.pig.test.pigunit.TestPigTest"],"creation_date":"2013-01-04T01:49:42.000+0000","resolution_date":"2013-09-27T20:40:04.000+0000"}
{"id":264,"bug_id":"PIG-3204","text":"Change script parsing to parse entire script instead of line by line. Currently there are a lot of NN calls made to determine if there is a schema file for a path in a LOAD statement. When there is a slow NN(caused by whole bunch of other issues), it takes a lot of time for this and we found the scripts spending anywhere from 5 mins to 40 mins depending upon the script. It seems to be a good place for optimization.","class_goldset":["src.org.apache.pig.PigServer","src.org.apache.pig.scripting.BoundScript","src.org.apache.pig.tools.grunt.GruntParser","test.org.apache.pig.test.TestGrunt","test.org.apache.pig.test.TestPigServer"],"file_goldset":["src.org.apache.pig.PigServer","src.org.apache.pig.scripting.BoundScript","src.org.apache.pig.tools.grunt.GruntParser","test.org.apache.pig.test.TestGrunt","test.org.apache.pig.test.TestPigServer"],"creation_date":"2013-02-21T22:09:40.000+0000","resolution_date":"2013-08-15T00:44:01.000+0000"}
{"id":265,"bug_id":"PIG-3267","text":"HCatStorer fail in limit query. The following query fail: {code}\ndata \u003d LOAD \u0027student.txt\u0027 as (name:chararray, age:int, gpa:double);\ndata_limited \u003d limit data 10;\nsamples \u003d foreach data_limited generate age as number;\nstore samples into \u0027samples\u0027 using org.apache.hcatalog.pig.HCatStorer(\u0027part_dt\u003d20130101T010000T36\u0027);\n{code} Error happens before launching the second job. Error message: {code} Message: org.apache.hadoop.mapred.FileAlreadyExistsException: Output directory hdfs://localhost:8020/user/hive/warehouse/samples/part_dt\u003d20130101T010000T36 already exists \tat org.apache.hadoop.mapred.FileOutputFormat.checkOutputSpecs(FileOutputFormat.java:121) \tat org.apache.hcatalog.mapreduce.FileOutputFormatContainer.checkOutputSpecs(FileOutputFormatContainer.java:135) \tat org.apache.hcatalog.mapreduce.HCatBaseOutputFormat.checkOutputSpecs(HCatBaseOutputFormat.java:72) \tat org.apache.pig.backend.hadoop.executionengine.mapReduceLayer.PigOutputFormat.checkOutputSpecsHelper(PigOutputFormat.java:207) \tat org.apache.pig.backend.hadoop.executionengine.mapReduceLayer.PigOutputFormat.checkOutputSpecs(PigOutputFormat.java:188) \tat org.apache.hadoop.mapred.JobClient$2.run(JobClient.java:887) \tat org.apache.hadoop.mapred.JobClient$2.run(JobClient.java:850) \tat java.security.AccessController.doPrivileged(Native Method) \tat javax.security.auth.Subject.doAs(Subject.java:396) \tat org.apache.hadoop.security.UserGroupInformation.doAs(UserGroupInformation.java:1121) \tat org.apache.hadoop.mapred.JobClient.submitJobInternal(JobClient.java:850) \tat org.apache.hadoop.mapred.JobClient.submitJob(JobClient.java:824) \tat org.apache.hadoop.mapred.jobcontrol.Job.submit(Job.java:378) \tat org.apache.hadoop.mapred.jobcontrol.JobControl.startReadyJobs(JobControl.java:247) \tat sun.reflect.NativeMethodAccessorImpl.invoke0(Native Method) \tat sun.reflect.NativeMethodAccessorImpl.invoke(NativeMethodAccessorImpl.java:39) \tat sun.reflect.DelegatingMethodAccessorImpl.invoke(DelegatingMethodAccessorImpl.java:25) \tat java.lang.reflect.Method.invoke(Method.java:597) \tat org.apache.pig.backend.hadoop20.PigJobControl.mainLoopAction(PigJobControl.java:157) \tat org.apache.pig.backend.hadoop20.PigJobControl.run(PigJobControl.java:134) \tat java.lang.Thread.run(Thread.java:680) \tat org.apache.pig.backend.hadoop.executionengine.mapReduceLayer.MapReduceLauncher$1.run(MapReduceLauncher.java:257) {code}","class_goldset":["src.org.apache.pig.backend.hadoop.executionengine.physicalLayer.relationalOperators.POStore","test.org.apache.pig.test.TestMRCompiler"],"file_goldset":["src.org.apache.pig.backend.hadoop.executionengine.physicalLayer.relationalOperators.POStore","test.org.apache.pig.test.TestMRCompiler"],"creation_date":"2013-04-03T21:14:30.000+0000","resolution_date":"2013-04-12T00:30:56.000+0000"}
{"id":266,"bug_id":"PIG-3290","text":"TestLogicalPlanBuilder.testQuery85 fail in trunk. I can reproduce it locally as well, the exception is {noformat} junit.framework.AssertionFailedError: org.apache.pig.impl.plan.PlanValidationException: ERROR 1108:  \u003cline 1, column 79\u003e Duplicate schema alias: group \tat org.apache.pig.test.TestLogicalPlanBuilder.buildPlan(TestLogicalPlanBuilder.java:2211) \tat org.apache.pig.test.TestLogicalPlanBuilder.testQuery85(TestLogicalPlanBuilder.java:1011) {noformat}","class_goldset":["src.org.apache.pig.newplan.logical.expression.DereferenceExpression"],"file_goldset":["src.org.apache.pig.newplan.logical.expression.DereferenceExpression"],"creation_date":"2013-04-23T17:28:01.000+0000","resolution_date":"2013-04-24T07:15:41.000+0000"}
{"id":267,"bug_id":"PIG-3292","text":"Logical plan invalid state: duplicate uid in schema during self-join to get cross product. Hi. Looks like PIG-3020\nbut works in a different way. Our pig version is: \nApache Pig version 0.10.0-cdh4.2.0 (rexported) \ncompiled Feb 15 2013, 12:20:54 Accoring to release note, PIG-3020 is included into CDH 4.2 dist\nhttp://archive.cloudera.com/cdh4/cdh/4/pig-0.10.0-cdh4.2.0.CHANGES.txt The problem:\nWe want to do self join to get cross-product\n{code}\na \u003d load \u0027/input\u0027 as (key, x); a_group \u003d group a by key;\nb \u003d foreach a_group {\n  y \u003d a.x;\n  pair \u003d cross a.x, y;\n  generate flatten(pair);\n} dump b;\n{code} And an error:\n{code}\nERROR org.apache.pig.tools.grunt.Grunt - ERROR 2270: Logical plan invalid state: duplicate uid in schema : 1-7::x#16:bytearray,y::x#16:bytearray\n{code} Here is workaround :)\n{code}\na \u003d load \u0027/input\u0027 as (key, x:int); a_group \u003d group a by key;\nb \u003d foreach a_group {\n  y \u003d foreach a generate -(-x);\n  pair \u003d cross a.x, y;\n  generate flatten(pair);\n} dump b;\n{code}","class_goldset":["src.org.apache.pig.newplan.logical.relational.LOCross","test.org.apache.pig.test.TestEvalPipelineLocal"],"file_goldset":["src.org.apache.pig.newplan.logical.relational.LOCross","test.org.apache.pig.test.TestEvalPipelineLocal"],"creation_date":"2013-04-24T08:06:41.000+0000","resolution_date":"2013-10-01T17:53:45.000+0000"}
{"id":268,"bug_id":"PIG-3310","text":"ImplicitSplitInserter does not generate new uids for nested schema fields, leading to miscomputations. Hi, Consider the following example {code}\ninp \u003d LOAD \u0027$INPUT\u0027 AS (memberId:long, shopId:long, score:int); tuplified \u003d FOREACH inp GENERATE (memberId, shopId) AS tuplify, score; D1 \u003d FOREACH tuplified GENERATE tuplify.memberId as memberId, tuplify.shopId as shopId, score AS score;\nD2 \u003d FOREACH tuplified GENERATE tuplify.memberId as memberId, tuplify.shopId as shopId, score AS score; J \u003d JOIN D1 By shopId, D2 by shopId;\nK \u003d FOREACH J GENERATE D1::memberId AS member_id1, D2::memberId AS member_id2, D1::shopId as shop; EXPLAIN K;\nDUMP K;\n{code} It is a bit weird written like that, but it provides a minimal reproduction case (in the real case, the \"tuplified\" phase came from a multi-key grouping). On input data:\n{code}\n1       1001    101\n1       1002    103\n1       1003    102\n1       1004    102\n2       1005    101\n2       1003    101\n2       1002    123\n3       1042    101\n3       1005    101\n3       1002    133\n{code} This will give a wrongful output like . . {code} (1 1001,1001) (1 1002,1002) (1 1002,1002) (1 1002,1002) {code} The second column should be a member id so (1,2,3,4,5). In the initial case, there was a FILTER (member_id1 \u003c member_id2) after K, and computation failed because of PushUpFilter optimization mistakenly moving the LOFilter operation before the join, at a place where it tried to work on a tuple and failed. My understanding of the issue is that when the ImplicitSplitInserter creates the LOSplitOutputs, it will correctly reset the schema, and the LOSplitOutput will regenerate uids for the fields of D1 and D2 ... but will not do that on the tuple members. The logical plan after the ImplicitSplitINserter will look like (simplified) {code} |---D1: (Name: LOForEach Schema: memberId#124:long,shopId#125:long)ColumnPrune:InputUids\u003d[127]ColumnPrune:OutputUids\u003d[125, 124] |---tuplified: (Name: LOSplitOutput Schema: tuplify#127:tuple(memberId#124:long,shopId#125:long))ColumnPrune:InputUids\u003d[123]ColumnPrune:OutputUids\u003d[127] |---tuplified: (Name: LOSplit Schema: tuplify#123:tuple(memberId#124:long,shopId#125:long))ColumnPrune:InputUids\u003d[123]ColumnPrune:OutputUids\u003d[123] |---D2: (Name: LOForEach Schema: memberId#124:long,shopId#125:long)ColumnPrune:InputUids\u003d[130]ColumnPrune:OutputUids\u003d[125, 124] |---tuplified: (Name: LOSplitOutput Schema: tuplify#130:tuple(memberId#124:long,shopId#125:long))ColumnPrune:InputUids\u003d[123]ColumnPrune:OutputUids\u003d[130] |---tuplified: (Name: LOSplit Schema: tuplify#123:tuple(memberId#124:long,shopId#125:long))ColumnPrune:InputUids\u003d[123]ColumnPrune:OutputUids\u003d[123] {code} tuplified correctly gets a new uid (127 and 130) but the members of the tuple don\u0027t. When they get reprojected, both branches have the same uid and the join looks like: {code} |---J: (Name: LOJoin(HASH) Schema: D1::memberId#124:long,D1::shopId#125:long,D2::memberId#139:long,D2::shopId#132:long)ColumnPrune:InputUids\u003d[125, 124, 132]ColumnPrune:OutputUids\u003d[125, 124, 132] |   | |   shopId:(Name: Project Type: long Uid: 125 Input: 0 Column: 1) |   | |   shopId:(Name: Project Type: long Uid: 125 Input: 1 Column: 1) {code} If for example instead of reprojecting \"memberId\", we project \"memberId+0\", a new node is created, and ultimately the two branches of the join will correctly get separate uids. My understanding is that LOSplitOutput.getSchema() should recurse on nested schema fields. However, I only have a light understanding of all of the logical plan handling, so I may be completely wrong. Attached is a draft of patch and a test reproducing the issue. Unfortunately, I haven\u0027t been able to run all unit tests with the \"fix\" (I have some weird hangs) I\u0027d be happy if you could indicate if that looks like completely the wrong way to fix the issue.","class_goldset":["src.org.apache.pig.newplan.logical.relational.LOSplitOutput"],"file_goldset":["src.org.apache.pig.newplan.logical.relational.LOSplitOutput"],"creation_date":"2013-05-03T07:59:57.000+0000","resolution_date":"2013-05-30T18:57:12.000+0000"}
{"id":269,"bug_id":"PIG-3316","text":"Pig failed to interpret DateTime values in some special cases. For the query A \u003d load \u0027date.txt\u0027 as ( f1:int, f2:datetime );\ndump A; with input data 1 1970-01-01 2 1970-01 pig generates the following output (1 1970-01-01T00:00:00.000-01:00) (2 1970-01-01T00:00:00.000-01:00) which seemingly incorrectly interprets the day or month part as time zone.","class_goldset":["src.org.apache.pig.builtin.ToDate","test.org.apache.pig.test.TestDefaultDateTimeZone"],"file_goldset":["src.org.apache.pig.builtin.ToDate","test.org.apache.pig.test.TestDefaultDateTimeZone"],"creation_date":"2013-05-08T19:01:36.000+0000","resolution_date":"2013-05-10T20:46:39.000+0000"}
{"id":270,"bug_id":"PIG-3329","text":"RANK operator failed when working with SPLIT . input.txt:\n1 2 3\n4 5 6\n7 8 9 script:\na \u003d load \u0027input.txt\u0027 using PigStorage(\u0027 \u0027) as (a:int, b:int, c:int);\nSPLIT a into b if a \u003e 0, c if a \u003e 5;\nd \u003d RANK b;\ndump d; job will fail with error message: java.lang.RuntimeException: Unable to read counter pig.counters.counter_4929375455335572575_-1 \tat org.apache.pig.backend.hadoop.executionengine.physicalLayer.relationalOperators.PORank.addRank(PORank.java:161) \tat org.apache.pig.backend.hadoop.executionengine.physicalLayer.relationalOperators.PORank.getNext(PORank.java:134) \tat org.apache.pig.backend.hadoop.executionengine.physicalLayer.PhysicalOperator.processInput(PhysicalOperator.java:308) \tat org.apache.pig.backend.hadoop.executionengine.physicalLayer.relationalOperators.POSplit.getNext(POSplit.java:214) \tat org.apache.pig.backend.hadoop.executionengine.mapReduceLayer.PigGenericMapBase.runPipeline(PigGenericMapBase.java:283) \tat org.apache.pig.backend.hadoop.executionengine.mapReduceLayer.PigGenericMapBase.map(PigGenericMapBase.java:278) \tat org.apache.pig.backend.hadoop.executionengine.mapReduceLayer.PigGenericMapBase.map(PigGenericMapBase.java:64) \tat org.apache.hadoop.mapreduce.Mapper.run(Mapper.java:157) \tat org.apache.hadoop.mapred.MapTask.runNewMapper(MapTask.java:673) \tat org.apache.hadoop.mapred.MapTask.run(MapTask.java:324) \tat org.apache.hadoop.mapred.Child$4.run(Child.java:275) \tat java.security.AccessController.doPrivileged(Native Method) \tat javax.security.auth.Subject.doAs(Subject.java:396) \tat org.apache.hadoop.security.UserGroupInformation.doAs(UserGroupInformation.java:1340) \tat org.apache.hadoop.mapred.Child.main(Child.java:269)","class_goldset":["src.org.apache.pig.backend.hadoop.executionengine.mapReduceLayer.MRCompiler","src.org.apache.pig.backend.hadoop.executionengine.mapReduceLayer.MapReduceOper"],"file_goldset":["src.org.apache.pig.backend.hadoop.executionengine.mapReduceLayer.MRCompiler","src.org.apache.pig.backend.hadoop.executionengine.mapReduceLayer.MapReduceOper"],"creation_date":"2013-05-17T03:44:41.000+0000","resolution_date":"2013-06-09T22:13:00.000+0000"}
{"id":271,"bug_id":"PIG-3355","text":"ColumnMapKeyPrune bug with distinct operator. We came across a bug that happens when you have a distinct operator immediately followed by a union where the result of the union has at least one column that will be pruned by ColumnMapKeyPrune. There\u0027s a test showing an example script in the submitted patch.","class_goldset":["src.org.apache.pig.newplan.logical.rules.ColumnPruneHelper","test.org.apache.pig.test.TestNewPlanColumnPrune"],"file_goldset":["src.org.apache.pig.newplan.logical.rules.ColumnPruneHelper","test.org.apache.pig.test.TestNewPlanColumnPrune"],"creation_date":"2013-06-14T19:16:18.000+0000","resolution_date":"2013-06-18T17:38:01.000+0000"}
{"id":272,"bug_id":"PIG-3360","text":"Some intermittent negative e2e tests fail on hadoop 2. One example is StreamingErrors_2. Here is the stack we get: Backend error message --------------------- Error: org.apache.pig.backend.executionengine.ExecException: ERROR 2055: Received Error while processing the map plan: \u0027perl PigStreamingBad.pl middle \u0027 failed with exit status: 2 \tat org.apache.pig.backend.hadoop.executionengine.mapReduceLayer.PigGenericMapBase.runPipeline(PigGenericMapBase.java:311) \tat org.apache.pig.backend.hadoop.executionengine.mapReduceLayer.PigGenericMapBase.map(PigGenericMapBase.java:278) \tat org.apache.pig.backend.hadoop.executionengine.mapReduceLayer.PigGenericMapBase.map(PigGenericMapBase.java:64) \tat org.apache.hadoop.mapreduce.Mapper.run(Mapper.java:145) \tat org.apache.hadoop.mapred.MapTask.runNewMapper(MapTask.java:763) \tat org.apache.hadoop.mapred.MapTask.run(MapTask.java:339) \tat org.apache.hadoop.mapred.YarnChild$2.run(YarnChild.java:162) \tat java.security.AccessController.doPrivileged(Native Method) \tat javax.security.auth.Subject.doAs(Subject.java:396) \tat org.apache.hadoop.security.UserGroupInformation.doAs(UserGroupInformation.java:1477) \tat org.apache.hadoop.mapred.YarnChild.main(YarnChild.java:157) Pig Stack Trace --------------- ERROR 2244: Job failed, hadoop does not return any error message org.apache.pig.backend.executionengine.ExecException: ERROR 2244: Job failed, hadoop does not return any error message \tat org.apache.pig.tools.grunt.GruntParser.executeBatch(GruntParser.java:145) \tat org.apache.pig.tools.grunt.GruntParser.parseStopOnError(GruntParser.java:198) \tat org.apache.pig.tools.grunt.GruntParser.parseStopOnError(GruntParser.java:170) \tat org.apache.pig.tools.grunt.Grunt.exec(Grunt.java:84) \tat org.apache.pig.Main.run(Main.java:604) \tat org.apache.pig.Main.main(Main.java:157) \tat sun.reflect.NativeMethodAccessorImpl.invoke0(Native Method) \tat sun.reflect.NativeMethodAccessorImpl.invoke(NativeMethodAccessorImpl.java:39) \tat sun.reflect.DelegatingMethodAccessorImpl.invoke(DelegatingMethodAccessorImpl.java:25) \tat java.lang.reflect.Method.invoke(Method.java:597) \tat org.apache.hadoop.util.RunJar.main(RunJar.java:212) \u003d\u003d\u003d\u003d\u003d\u003d\u003d\u003d\u003d\u003d\u003d\u003d\u003d\u003d\u003d\u003d\u003d\u003d\u003d\u003d\u003d\u003d\u003d\u003d\u003d\u003d\u003d\u003d\u003d\u003d\u003d\u003d\u003d\u003d\u003d\u003d\u003d\u003d\u003d\u003d\u003d\u003d\u003d\u003d\u003d\u003d\u003d\u003d\u003d\u003d\u003d\u003d\u003d\u003d\u003d\u003d\u003d\u003d\u003d\u003d\u003d\u003d\u003d\u003d\u003d\u003d\u003d\u003d\u003d\u003d\u003d\u003d\u003d\u003d\u003d\u003d\u003d\u003d\u003d\u003d","class_goldset":["shims.src.hadoop20.org.apache.pig.backend.hadoop.executionengine.shims.HadoopShims","shims.src.hadoop23.org.apache.pig.backend.hadoop.executionengine.shims.HadoopShims","src.org.apache.pig.backend.hadoop.executionengine.mapReduceLayer.Launcher"],"file_goldset":["shims.src.hadoop20.org.apache.pig.backend.hadoop.executionengine.shims.HadoopShims","shims.src.hadoop23.org.apache.pig.backend.hadoop.executionengine.shims.HadoopShims","src.org.apache.pig.backend.hadoop.executionengine.mapReduceLayer.Launcher"],"creation_date":"2013-06-21T01:43:03.000+0000","resolution_date":"2013-09-24T23:51:24.000+0000"}
{"id":273,"bug_id":"PIG-3379","text":"Alias reuse in nested foreach causes PIG script to fail. The following script fails: {code:title\u003dtemp.pig}\nEvents \u003d LOAD \u0027x\u0027 AS (eventTime:long, deviceId:chararray, eventName:chararray);\nEvents \u003d FOREACH Events GENERATE eventTime, deviceId, eventName;\nEventsPerMinute \u003d GROUP Events BY (eventTime / 60000);\nEventsPerMinute \u003d FOREACH EventsPerMinute {\n  DistinctDevices \u003d DISTINCT Events.deviceId;\n  nbDevices \u003d SIZE(DistinctDevices); DistinctDevices \u003d FILTER Events BY eventName \u003d\u003d \u0027xuaHeartBeat\u0027;\n  nbDevicesWatching \u003d SIZE(DistinctDevices); GENERATE $0*60000 as timeStamp, nbDevices as nbDevices, nbDevicesWatching as nbDevicesWatching;\n}\nEventsPerMinute \u003d FILTER EventsPerMinute BY timeStamp \u003e\u003d 0  AND timeStamp \u003c 100000;\nA \u003d FOREACH EventsPerMinute GENERATE timeStamp;\ndescribe A;\n{code}\nWith the error:\n{code}\n2013-07-16 11:31:20,450 [main] ERROR org.apache.pig.tools.grunt.Grunt - ERROR 1025: \n\u003cfile /home/xzhang/Documents/temp.pig, line 14, column 37\u003e Invalid field projection. Projected field [timeStamp] does not exist in schema: deviceId:chararray. {code}\nUsing distinct alias name for the 2nd \"DistinctDevices\" fixes the problem. As an observation, removing the last filter statement also fixes the problem.","class_goldset":["src.org.apache.pig.PigServer","src.org.apache.pig.newplan.logical.expression.ProjectExpression","src.org.apache.pig.newplan.logical.relational.LOInnerLoad","src.org.apache.pig.parser.LogicalPlanBuilder","test.org.apache.pig.test.TestEvalPipeline2"],"file_goldset":["src.org.apache.pig.PigServer","src.org.apache.pig.newplan.logical.expression.ProjectExpression","src.org.apache.pig.newplan.logical.relational.LOInnerLoad","src.org.apache.pig.parser.LogicalPlanBuilder","test.org.apache.pig.test.TestEvalPipeline2"],"creation_date":"2013-07-16T18:37:26.000+0000","resolution_date":"2013-08-23T21:07:12.000+0000"}
{"id":274,"bug_id":"PIG-3424","text":"Package import list should consider class name as is first even if -Dudf.import.list is passed. Currently if -Dudf.import.list is passed it adds them to the beginning of the list and \"\" (class name as is) which is defined by default always is pushed to end of list. In cases where the pig deployment itself contains predefined -Dudf.import.list, class resolution tries all of that before trying the fully qualified class name defined in LOAD as is.","class_goldset":["src.org.apache.pig.impl.PigContext","test.org.apache.pig.test.TestPigContext"],"file_goldset":["src.org.apache.pig.impl.PigContext","test.org.apache.pig.test.TestPigContext"],"creation_date":"2013-08-15T14:56:20.000+0000","resolution_date":"2013-08-19T00:56:41.000+0000"}
{"id":275,"bug_id":"PIG-3455","text":"Pig 0.11.1 OutOfMemory error. When running Pig on a relatively large script (around 1.5k lines, 85 assignments), Pig fails with the following error even before any jobs are fired: Pig Stack Trace --------------- ERROR 2998: Unhandled internal error. Java heap space java.lang.OutOfMemoryError: Java heap space         at java.util.Arrays.copyOf(Arrays.java:2882)         at java.lang.AbstractStringBuilder.expandCapacity(AbstractStringBuilder.java:100)         at java.lang.AbstractStringBuilder.append(AbstractStringBuilder.java:390)         at java.lang.StringBuilder.append(StringBuilder.java:119)         at org.apache.pig.newplan.logical.optimizer.LogicalPlanPrinter.depthFirstLP(LogicalPlanPrinter.java:83)         at org.apache.pig.newplan.logical.optimizer.LogicalPlanPrinter.visit(LogicalPlanPrinter.java:69)         at org.apache.pig.newplan.logical.relational.LogicalPlan.getSignature(LogicalPlan.java:122)         at org.apache.pig.PigServer.execute(PigServer.java:1237)         at org.apache.pig.PigServer.executeBatch(PigServer.java:333)         at org.apache.pig.tools.grunt.GruntParser.executeBatch(GruntParser.java:137)         at org.apache.pig.tools.grunt.GruntParser.parseStopOnError(GruntParser.java:198)         at org.apache.pig.tools.grunt.GruntParser.parseStopOnError(GruntParser.java:170)         at org.apache.pig.tools.grunt.Grunt.exec(Grunt.java:84)         at org.apache.pig.Main.run(Main.java:604)         at org.apache.pig.Main.main(Main.java:157)         at sun.reflect.NativeMethodAccessorImpl.invoke0(Native Method)         at sun.reflect.NativeMethodAccessorImpl.invoke(NativeMethodAccessorImpl.java:39)         at sun.reflect.DelegatingMethodAccessorImpl.invoke(DelegatingMethodAccessorImpl.java:25)         at java.lang.reflect.Method.invoke(Method.java:597)         at org.apache.hadoop.util.RunJar.main(RunJar.java:160) The same script works fine with Pig-0.10.1.","class_goldset":["src.org.apache.pig.newplan.logical.relational.LogicalPlan"],"file_goldset":["src.org.apache.pig.newplan.logical.relational.LogicalPlan"],"creation_date":"2013-09-09T18:01:32.000+0000","resolution_date":"2013-09-18T15:55:28.000+0000"}
{"id":276,"bug_id":"PIG-3495","text":"Streaming udf e2e tests failures on Windows. Register a jython script with an absolute path fail. For Example:\n{code}\nregister \u0027D:\\scriptingudf.py\u0027 using jython as myfuncs;\na \u003d load \u0027studenttab10k\u0027 using PigStorage() as (name, age:int, gpa:double);\nb \u003d foreach a generate myfuncs.square(age);\ndump b;\n{code}","class_goldset":["src.org.apache.pig.scripting.ScriptEngine"],"file_goldset":["src.org.apache.pig.scripting.ScriptEngine"],"creation_date":"2013-10-02T21:40:25.000+0000","resolution_date":"2013-10-03T18:06:35.000+0000"}
{"id":277,"bug_id":"PIG-3510","text":"New filter extractor fails with more than one filter statement. This is a regression from PIG-3461 - rewrite of partition filter optimizer. Here is an example that demonstrates the problem:\n{code:title\u003dtwo filters}\nb \u003d FILTER a BY (dateint \u003e\u003d 20130901 AND dateint \u003c\u003d 20131001);\nc \u003d FILTER b BY (event_id \u003d\u003d 419 OR event_id \u003d\u003d 418);\n{code}\n{code:title\u003done filter}\nb \u003d FILTER a BY (dateint \u003e\u003d 20130901 AND dateint \u003c\u003d 20131001) AND (event_id \u003d\u003d 419 OR event_id \u003d\u003d 418);\n{code}\nBoth dateint and event_id are partition columns. For the 1 filter case, the whole expression is pushed down whereas for the 2 filter case, only (event_id \u003d\u003d 419 OR event_id \u003d\u003d 418) is pushed down.","class_goldset":["src.org.apache.pig.newplan.logical.optimizer.LogicalPlanOptimizer"],"file_goldset":["src.org.apache.pig.newplan.logical.optimizer.LogicalPlanOptimizer"],"creation_date":"2013-10-09T23:02:45.000+0000","resolution_date":"2013-10-10T20:14:03.000+0000"}
