{"id":2,"bug_id":"LANG-292","text":"unescapeXml(\"\u002612345678;\") should be \"\u002612345678;\". Following test (in EntitiesTest.java) fails:  Maximim value for char is 0xFFFF, so \u0026#12345678; is invalid entity reference, and so should be left as is. public void testNumberOverflow() throws Exception {\n        doTestUnescapeEntity(\"\u0026#12345678;\", \"\u0026#12345678;\");\n        doTestUnescapeEntity(\"x\u0026#12345678;y\", \"x\u0026#12345678;y\");\n        doTestUnescapeEntity(\"\u0026#x12345678;\", \"\u0026#x12345678;\");\n        doTestUnescapeEntity(\"x\u0026#x12345678;y\", \"x\u0026#x12345678;y\");\n    }","class_goldset":["org.apache.commons.lang.Entities"],"method_goldset":["org.apache.commons.lang.Entities:unescape(String)","org.apache.commons.lang.Entities:unescape(Writer, String)"],"creation_date":"2006-10-31 01:45:01","resolution_date":"2006-10-31 21:34:31"}
{"id":5,"bug_id":"LANG-315","text":"StopWatch: suspend() acts as split(), if followed by stop(). In my opinion, it is a bug that suspend() acts as split(), if followed by stop(); see below:     // Time 1 (ok)   // Time 1 (again, ok)     // Time 2 (ok)   // Time 2 (again, ok)    // Time 2 (should be, but is Time 3 \u003d\u003e NOT ok)  suspend/resume is like a pause, where time counter doesn\u0027t continue. So a following stop()-call shouldn\u0027t increase the time counter, should it? suspend()  split() stop();  StopWatch sw \u003d new StopWatch();\n\n        sw.start();\n        Thread.sleep(1000);\n        sw.suspend();\n        // Time 1 (ok)\n        System.out.println(sw.getTime());\n\n        Thread.sleep(2000);\n        // Time 1 (again, ok)\n        System.out.println(sw.getTime());\n\n        sw.resume();\n        Thread.sleep(3000);\n        sw.suspend();\n        // Time 2 (ok)\n        System.out.println(sw.getTime());\n\n        Thread.sleep(4000);\n        // Time 2 (again, ok)\n        System.out.println(sw.getTime());\n\n        Thread.sleep(5000);\n        sw.stop();\n        // Time 2 (should be, but is Time 3 \u003d\u003e NOT ok)\n        System.out.println(sw.getTime());\n\n\n stop()","class_goldset":["org.apache.commons.lang.time.StopWatch"],"method_goldset":["org.apache.commons.lang.time.StopWatch:stop()"],"creation_date":"2007-2-6 13:52:59","resolution_date":"2007-2-6 22:49:59"}
{"id":6,"bug_id":"LANG-346","text":"--2.1 produces Before round() Mon Jul 02 03:09:50 CDT 2007 After round()  Mon Jul 02 03:10:00 CDT 2007 -- this is what I would expect --2.2 and 2.3 produces Before round() Mon Jul 02 03:09:50 CDT 2007 After round()  Mon Jul 02 03:01:00 CDT 2007 -- this appears to be wrong public void testRound()\n{\n    Calendar testCalendar \u003d Calendar.getInstance(TimeZone.getTimeZone(\"GMT\"));\n    testCalendar.set(2007, 6, 2, 8, 9, 50);\n    Date date \u003d testCalendar.getTime();\n    System.out.println(\"Before round() \" + date);\n    System.out.println(\"After round()  \" + DateUtils.round(date, Calendar.MINUTE));\n}\n\n Before round()  After round()   Before round()  After round()","class_goldset":["org.apache.commons.lang.time.DateUtils"],"method_goldset":["org.apache.commons.lang.time.DateUtils:modify(Calendar, int, boolean)"],"creation_date":"2007-7-6 20:06:55","resolution_date":"2007-8-9 00:25:20"}
{"id":7,"bug_id":"LANG-363","text":"StringEscapeUtils.escapeJavaScript() method did not escape \u0027/\u0027 into \u0027\\/\u0027, it will make IE render page uncorrectly. If Javascripts including\u0027/\u0027, IE will parse the scripts uncorrectly, actually \u0027/\u0027 should be escaped to \u0027\\/\u0027.  value \u003d \u0027\u003cscript\u003ealert(\\\u0027aaa\\\u0027);\u003c/script\u003e\u0027;this expression will make IE render page uncorrect, it should be document.getElementById(\"test\").    document.getElementById(\"test\") document.getElementById(\"test\") String s \u003d \"\u003cscript\u003ealert(\u0027aaa\u0027);\u003c/script\u003e\";\n  String str \u003d org.springframework.web.util.JavaScriptUtils.javaScriptEscape(s);\n  System.out.println(\"Spring JS Escape : \"+str);\n  str \u003d org.apache.commons.lang.StringEscapeUtils.escapeJavaScript(s);\n  System.out.println(\"Apache Common Lang JS Escape : \"+ str);","class_goldset":["org.apache.commons.lang.StringEscapeUtils"],"method_goldset":["org.apache.commons.lang.StringEscapeUtils:escapeJavaStyleString(Writer, String, boolean)"],"creation_date":"2007-10-23 07:12:48","resolution_date":"2007-10-26 06:09:17"}
{"id":14,"bug_id":"LANG-552","text":"The following Test Case for replaceEach fails with a null pointer exception. I have expected that all StringUtils methods are \"null-friendly\"                          {code}\n import static org.junit.Assert.assertEquals;\n\nimport org.apache.commons.lang.StringUtils;\nimport org.junit.Test;\n\n\npublic class StringUtilsTest {\n\n\t@Test\n\tpublic void replaceEach(){\n\t\tString original \u003d \"Hello World!\";\n\t\tString[] searchList \u003d {\"Hello\", \"World\"};\n\t\tString[] replacementList \u003d {\"Greetings\", null};\n\t\tString result \u003d StringUtils.replaceEach(original, searchList, replacementList);\n\t\tassertEquals(\"Greetings !\", result);\n\t\t//perhaps this is ok as well\n                //assertEquals(\"Greetings World!\", result);\n                //or even\n\t\t//assertEquals(\"Greetings null!\", result);\n\t}\n\n\t\n}\n {code}","class_goldset":["org.apache.commons.lang3.StringUtils"],"method_goldset":["org.apache.commons.lang3.StringUtils:replaceEach(String, String[], String[], boolean, int)"],"creation_date":"2009-11-9 12:40:57","resolution_date":"2009-12-14 07:51:45"}
{"id":21,"bug_id":"LANG-746","text":"NumberUtils does not handle upper-case hex: 0X and -0X. NumberUtils.createNumber() should work equally for 0x1234 and 0X1234; currently 0X1234 generates a NumberFormatException Integer.decode() handles both upper and lower case hex. NumberUtils.createNumber()  Integer.decode()","class_goldset":["org.apache.commons.lang3.math.NumberUtils"],"method_goldset":["org.apache.commons.lang3.math.NumberUtils:createNumber(String)"],"creation_date":"2011-8-23 12:32:12","resolution_date":"2011-8-23 12:33:42"}
{"id":22,"bug_id":"LANG-788","text":"SerializationUtils throws ClassNotFoundException when cloning primitive classes. If a serializable object contains a reference to a primitive class, e.g. int.class or int[].class, the SerializationUtils throw a ClassNotFoundException when trying to clone that object.            The SerializationUtils problem arises because the SerializationUtils internally use the ClassLoaderAwareObjectInputStream that overrides the ObjectInputStream\u0027s resoleClass method without delegating to the super method in case of a ClassNotFoundException. I understand the intention of the ClassLoaderAwareObjectInputStream, but this implementation should also implement a fallback to the original implementation.                           {noformat}\n import org.apache.commons.lang3.SerializationUtils;\nimport org.junit.Test;\n\n\npublic class SerializationUtilsTest {\n\n\t\n\t@Test\n\tpublic void primitiveTypeClassSerialization(){\n\t\tClass\u003c?\u003e primitiveType \u003d int.class;\n\t\t\n\t\tClass\u003c?\u003e clone \u003d SerializationUtils.clone(primitiveType);\n\t\tassertEquals(primitiveType, clone);\n\t}\n}\n {noformat} \n\n {noformat}\n         protected Class\u003c?\u003e resolveClass(ObjectStreamClass desc) throws IOException, ClassNotFoundException {\n            String name \u003d desc.getName();\n            try {\n                return Class.forName(name, false, classLoader);\n            } catch (ClassNotFoundException ex) {\n            \ttry {\n            \t     return Class.forName(name, false, Thread.currentThread().getContextClassLoader());\n            \t} catch (Exception e) {\n\t\t     return super.resolveClass(desc);\n\t\t}\n            }\n        }\n {noformat}\n\n {noformat}\n     protected Class\u003c?\u003e resolveClass(ObjectStreamClass desc)\n\tthrows IOException, ClassNotFoundException\n    {\n\tString name \u003d desc.getName();\n\ttry {\n\t    return Class.forName(name, false, latestUserDefinedLoader());\n\t} catch (ClassNotFoundException ex) {\n\t    Class cl \u003d (Class) primClasses.get(name);\n\t    if (cl !\u003d null) {\n\t\treturn cl;\n\t    } else {\n\t\tthrow ex;\n\t    }\n\t}\n    }\n {noformat}","class_goldset":["org.apache.commons.lang3.SerializationUtils"],"method_goldset":["org.apache.commons.lang3.SerializationUtils:ClassLoaderAwareObjectInputStream(InputStream, ClassLoader)","org.apache.commons.lang3.SerializationUtils:resolveClass(ObjectStreamClass)"],"creation_date":"2012-2-11 12:36:48","resolution_date":"2012-2-29 14:39:49"}
{"id":24,"bug_id":"LANG-832","text":"FastDateParser does not handle unterminated quotes correctly. FDP does not handled unterminated quotes the same way as SimpleDateFormat   This should fail to parse the format and date but it actually works. The format is parsed as:  {IsNd}","class_goldset":["org.apache.commons.lang3.time.FastDateParser"],"method_goldset":["org.apache.commons.lang3.time.FastDateParser:init()"],"creation_date":"2012-9-27 00:27:58","resolution_date":"2012-9-27 00:56:48"}
