{"key":"HHH-4614","title":"","description":"See attached testcase to reproduce the problem. Guideline: - testcase the pattern used in hb-core, just using annotations - run org.hibernate.test.instrument2.runtime.JAVASSISTInstrumentationTest - easy to switch from annotation to mapping files in org.hibernate.test.instrument2.cases.AbstractExecutable (comment/uncomment specific lines in getAnnotatedClasses and getXmlFiles)"}
{"key":"HHH-4617","title":"","description":"I have entity with byte[] property annotated as @Lob and lazy fetch type, when table is createad the created column is of type oid, but when the column is read in application, the Hibernate reads the OID value instead of bytes under given oid."}
{"key":"HHH-5042","title":"","description":"Please see attached testcase.  as the testcase uses 2 sessionfactories hibernate.hbm2ddl.auto\u003dcreate cannot be used!! Schema has to be exported separately and the testcase must run without hbm2ddl.auto property! Here the schema for HSQLDB:"}
