{"key":"OPENJPA-2007","title":"Setting query hint \"openjpa.FetchPlan.Isolation\" results in misleading warning","description":"Setting query hint \"openjpa.FetchPlan.Isolation\" on a query results in this misleading warning being printed in the log:"}
{"key":"OPENJPA-1787","title":"","description":"If you try to merge a new entity."}
{"key":"OPENJPA-1903","title":"","description":"Basically I have two Entities which both use multiple Ids to produce the Primary Key, \"Preis\" contains a foreign key on \"Website\":    I use the following to set up a website and a Preis:      Afterwards, if I run the query as follows:   However if I put the query as"}
{"key":"OPENJPA-1912","title":"","description":"If openjpa.DetachState \u003dfetch-groups is used, the enhancer will add a \u0027implements Externalizable\u0027 + writeExternal + readExternal.   Example:"}
{"key":"OPENJPA-1918","title":"","description":"We pass the appliation class loeader as part of our PersistenceUnitInfo implementation by returning it from PersistenceUnitInfo.getClassLoader()."}
{"key":"OPENJPA-1928","title":"","description":"For example:\n        @Persistent(optional \u003d false)\n\t@Column(name \u003d \"STATUS\")\n\t@Externalizer(\"getName\")\n\t@Factory(\"valueOf\")\n\tpublic OrderStatus getStatus() {\n\t\treturn this.status;\n\t}"}
{"key":"OPENJPA-1986","title":"","description":"See the following example:    and the following scenario:\nCascadePersistEntity cpe1 \u003d new CascadePersistEntity(1);\nCascadePersistEntity cpe2 \u003d new CascadePersistEntity(2);\ncpe1.setOther(cpe2);\nem.persist(cpe1);"}
