{"id":116,"bug_id":"OPENJPA-1613","text":"Exception thrown when enhancing a (property access) class that has an abstract @MappedSuperclass with no annotated properties. If you have a class (using property access) that has an abstract @MappedSuperclass that happens to have no annotated methods, you get the following exception when enhancing:       @MappedSuperclass @Access(AccessType.PROPERTY)","method_goldset":["org.apache.openjpa.persistence.PersistenceMetaDataDefaults:toFieldNames(List\u003cField\u003e)"],"creation_date":"2010-4-6 18:28:33","resolution_date":"2011-1-12 16:38:14"}
{"id":117,"bug_id":"OPENJPA-1627","text":"ORderBy with @ElementJoinColumn and EmbeddedId uses wrong columns in SQL. The problem is that the order by in the generated SQL is for columns mapped in the transaction entity NOT the TransacionId as expected.           However the generated SQL is doing order by on columns mapped in Transaction:       @OneToMany(fetch \u003d FetchType.LAZY, cascade \u003d {CascadeType.PERSIST})\n\t@ElementJoinColumn(name\u003d\"maccno\", referencedColumnName\u003d\"maccno\")\n\t@OrderBy(value \u003d \"_id._processDate ASC, _id._tranSequenceNumber ASC\")\n\tprivate LinkedList\u003cTransaction\u003e _transactions;\n\n\n\n @EmbeddedId\n\tprivate TransactionId _id;\n\t\n\t @Column(name \u003d \"mtrancde\")\n\tprivate int _transactionCode;\n\t\n\t @Column(name \u003d \"mamount\")\n\tprivate BigDecimal _amount;\n\t\n\t @Column(name \u003d \"mdesc\")\n\tprivate String _description;\n\t\n\n\n\t @Column(name \u003d \"mactdate\")\n\tprivate Date _actualDate;\n\t\n\t @Column(name \u003d \"mbranch\")\n\tprivate int _branch;\n\n\n\n @Embeddable\npublic class TransactionId  @Column(name \u003d \"maccno\")\n\tprivate String _accountNumber;\n\t\n\t @Column(name \u003d \"mprocdate\")\n\tprivate Date _processDate;\n\t\n\t @Column(name \u003d \"mtranseqno\")\n\tprivate int _tranSequenceNumber;","method_goldset":["org.apache.openjpa.jdbc.meta.JDBCRelatedFieldOrder:order(Select, ClassMapping, Joins)"],"creation_date":"2010-4-12 05:21:13","resolution_date":"2011-1-12 16:41:26"}
{"id":121,"bug_id":"OPENJPA-1784","text":"Map value updates not flushed. commit();\n   \nThe problem is, the state change of the map does not get saved to the database. With DEBUG logging on, I can see that the flush on commit does not trigger any SQL UPDATE.      After this change, I do see the expected UPDATE.   @Embeddable\npublic class LocalizedString {\n\n\n    private String language;\n    private String string;\n\n\n    // getters and setters omitted\n}\n\n\n \n\n\n @Entity\npublic class MultilingualString {\n\n\n    @Id\n    private long id;\n\n\n    @ElementCollection(fetch\u003dFetchType.EAGER)\n    private Map\u003cString, LocalizedString\u003e map \u003d new HashMap\u003cString, LocalizedString\u003e();\n}\n\n\n\n ;\n    em.getTransaction().begin();\n    m.getMap().get(\"en\").setString(\"foo\");\n     em.merge(m)\n     em.getTransaction() commit();\n   \n ;\n    em.getTransaction().begin();\n     m.getMap() put(\"en\") new LocalizedString(\"en\", \"foo\") em.merge(m)\n     em.getTransaction() commit();\n\n\n hashCode()  equals()  equal()","method_goldset":["org.apache.openjpa.util.ProxyMaps:beforePut(ProxyMap, Object, Object)"],"creation_date":"2010-9-8 08:31:29","resolution_date":"2010-9-10 10:36:48"}
{"id":122,"bug_id":"OPENJPA-1793","text":"@EmbeddedId class having only one field java.sql.Data. @EmbeddedId class having only one field java.sql.Data I become the error such as follows.                                                                         @EmbeddedId field.getHandler() getResultArgument(field) \n public Object getPrimaryKeyValue(Result res, Column[] cols, ForeignKey fk,\n        JDBCStore store, Joins joins)\n        throws SQLException {\n        Column col;\n        Object val \u003d null;\n        if (cols.length \u003d\u003d 1) {\n            col \u003d cols[0];\n            if (fk !\u003d null)\n                col \u003d fk.getColumn(col);\n            val \u003d res.getObject(col, field.getHandler().\n                getResultArgument(field), joins);\n        } else if (cols.length \u003e 1) {\n            Object[] vals \u003d new Object[cols.length];\n            Object[] args \u003d (Object[]) field.getHandler().\n                getResultArgument(field);\n            for (int i \u003d 0; i \u003c vals.length; i++) {\n                col \u003d cols[i];\n                if (fk !\u003d null)\n                    col \u003d fk.getColumn(col);\n                vals[i] \u003d res.getObject(col, (args \u003d\u003d null) ? null : args[i],\n                    joins);\n            }\n            val \u003d vals;\n        }\n        return field.getHandler().toObjectValue(field, val);\n    }\n\n\n     DATE:\n                return getDateInternal(obj, (Calendar) arg, joins);","method_goldset":["org.apache.openjpa.persistence.embed.TestEmbeddable:testEntityA_Coll_String()","org.apache.openjpa.persistence.embed.TestEmbeddable:testEntityA_Embed_Coll_Map()"],"creation_date":"2010-9-14 01:16:17","resolution_date":"2010-10-26 15:15:44"}
{"id":124,"bug_id":"OPENJPA-1830","text":"Deserialization of EMF causes connectionPassword to be overwritten with Value.INVISIBLE. When readExternal() deserializes, the StringValue of connectionPassword gets its value set twice, which causes Value.INVISIBLE to get set as the value, which never happens if the EMF is never serialized. ConfigurationImpl.writeExternal()  toProperties()  When readExternal()","method_goldset":["org.apache.openjpa.lib.conf.ConfigurationImpl:toProperties(boolean)","org.apache.openjpa.persistence.simple.TestSerializedFactory:setUp()"],"creation_date":"2010-10-11 13:05:46","resolution_date":"2010-10-11 16:47:12"}
{"id":127,"bug_id":"OPENJPA-1896","text":"OpenJPA cannot store POJOs if a corresponding record already exists. If a POJO is created using a java constructor, merge() cannot store the newly constructed object\u0027s data if this means updating a pre-existing record with a matching identity.     Instead, any attempt to execute either merge() or persist() on an independently constructed object with a matching record identity in the database triggers the same error in the database layer, since OpenJPA attempts to execute an insert for a pre-existing primary key, throwing...\norg.apache.openjpa.lib.jdbc.ReportingSQLException: ERROR: duplicate key value violates unique constraint \"file_pkey\" {prepstmnt 32879825 INSERT INTO file (locationString, location, version, folder) VALUES (?              merge()  merge()  persist()  merge()","method_goldset":["org.apache.openjpa.kernel.VersionAttachStrategy:compareVersion(StateManagerImpl, PersistenceCapable)","org.apache.openjpa.persistence.relations.BasicEntity:getId()"],"creation_date":"2010-11-23 10:32:43","resolution_date":"2011-1-10 16:11:27"}
{"id":129,"bug_id":"OPENJPA-1918","text":"MetaDataRepository.preload() ignores class loader returned by PersistenceUnitInfo.getClassLoader(). However, the code in MetaDataRepository.preload() only uses the context class loader and not the class loader from PersistenceUnitInfo, which leades to ClassNotFoundExpcetions like mentioned at the end of this report.                                                        PersistenceUnitInfo.getClassLoader() MetaDataRepository.preload()  PersistenceUnitInfo.getClassLoader()  PersistenceProvider.createContainerEntityManagerFactory() MetaDatRepository.preload()","method_goldset":["org.apache.openjpa.meta.FieldMetaData:compareTo(Object)","org.apache.openjpa.meta.FieldMetaData:hashCode()"],"creation_date":"2011-1-6 08:11:24","resolution_date":"2011-1-6 16:11:38"}
{"id":131,"bug_id":"OPENJPA-526","text":"Insert text more than 4K bytes to Clob column causes SQLException: Exhausted Resultset. public class Exam @Lob @Column(name \u003d \"text\", nullable \u003d false)  private String text;\n With nullable \u003d false","method_goldset":["org.apache.openjpa.jdbc.sql.OracleDictionary:setNull(PreparedStatement, int, int, Column)","org.apache.openjpa.persistence.kernel.common.apps.Lobs:Lobs(String, int)","org.apache.openjpa.persistence.kernel.common.apps.Lobs:getId()","org.apache.openjpa.persistence.kernel.common.apps.Lobs:getLob()","org.apache.openjpa.persistence.kernel.common.apps.Lobs:setLob(String)"],"creation_date":"2008-2-27 13:28:05","resolution_date":"2010-9-20 07:36:31"}
