{"key":"PIG-730","title":"problem combining schema from a union of several LOAD expressions, with a nested bag inside the schema.","description":"---\u003e Would expect both C and D to work, but only C works. D gives the error shown below. ---\u003e Turns out using outlinks.t.target (instead of outlinks.target) works for D but not for C. ---\u003e I don\u0027t care which one, but the same syntax should work for both!                                   flatten(outlinks.target);\n flatten(outlinks.target);"}
{"key":"PIG-767","title":"Schema reported from DESCRIBE and actual schema of inner bags are different.","description":"The following script:        Prints for the DESCRIBE commands:  The reported schemas for urlContentsG and urlContentsF are wrong. They are also against the section \"Schemas for Complex Data Types\" in http://wiki.apache.org/pig-data/attachments/FrontPage/attachments/plrm.htm#_Schemas. As expected, actual data observed from DUMP urlContentsG and DUMP urlContentsF do contain the tuple inside the inner bags. The correct schema for urlContentsG is:  {group: chararray,urlContents: {t1:(url: chararray,pg: chararray)}}   BinStorage()  DESCRIBE urlContents;\nDUMP urlContents;\n\n BY url;\nDESCRIBE urlContentsG;\n\n urlContents.pg;\n\nDESCRIBE urlContentsF;\nDUMP urlContentsF;\n\n\n {url: chararray,pg: chararray}\n {group: chararray,urlContents: {url: chararray,pg: chararray}}\n {group: chararray,pg: {pg: chararray}}\n\n {group: chararray,urlContents: {t1:(url: chararray,pg: chararray)}}\n\n {chararray}  {(chararray)}"}
{"key":"PIG-1188","title":"Padding nulls to the input tuple according to input schema","description":"Currently, the number of fields in the input tuple is determined by the data. When we have schema, we should generate input data according to the schema, and padding nulls if necessary. Here is one example: Pig script:      Input file:      Current result: {code} (1 2) (1 2,3) (1 {code} Desired result: {code} (1 2) (1 2) (1 null) {code} {code}\n as (a0, a1);\ndump a;\n{code}\n {code}\n {code}\n {code}\n {code}\n\n {code}\n {code}"}
{"key":"PIG-1893","title":"Pig report input size -1 for empty input file","description":"In the following script:      If 1.txt is empty, Pig will report Successfully read -1 records from: \"1.txt\"  In this case, we should count inputs \"1.txt\" 0 instead -1. {code}\n by b0;\ndump c;\n{code}"}
{"key":"PIG-1277","title":"Pig should give error message when cogroup on tuple keys of different inner type","description":"When we cogroup on a tuple, if the inner type of tuple does not match, we treat them as different keys.  It is desirable to give error/warnings when it happens. Here is one example:\nUDF:\n{code}\npublic class MapGenerate extends EvalFunc\u003cMap\u003e {\n    @Override\n    public Map exec(Tuple input) throws IOException {\n        // TODO Auto-generated method stub\n        Map m \u003d new HashMap();\n        m.put(\"key\", new Integer(input.size()));\n        return m;\n    }\n    \n    @Override\n    public Schema outputSchema(Schema input) {\n        return new Schema(new Schema.FieldSchema(null, DataType.MAP));\n    }\n}\n{code} Pig script: \n{code}\na \u003d load \u00271.           User expected result (which is not right): {code} ((1 1),{(1,1)},{(1,1)}) {code} Real result: {code} ((1 1),{(1,1)},{}) ((1 1),{},{(1,1)}) {code} We shall give user the message that we can not merge the key due to the type mismatch. UDF:\n{code}\npublic class MapGenerate extends EvalFunc\u003cMap\u003e {\n    @Override\n    public Map exec(Tuple input) throws IOException {\n        // TODO Auto-generated method stub\n        Map m \u003d new HashMap();\n        m.put(\"key\", new Integer(input.size()));\n        return m;\n    }\n    \n    @Override\n    public Schema outputSchema(Schema input) {\n        return new Schema(new Schema.FieldSchema(null, DataType.MAP));\n    }\n}\n{code}\n\n {code}\n by (c0, c1);\ndump e;\n{code}\n\n {code}\n {code}\n\n {code}\n {code}\n\n {code}\n {(1,1)} {(1,1)} {code}\n\n {code}\n {(1,1)} {} {} {(1,1)} {code}"}
{"key":"PIG-1912","title":"non-deterministic output when a file is loaded multiple times","description":"I have a small demonstration script (actually, a directory with one main script and several other scripts that it calls) where the output (STOREd to a file) is not consistent between runs.  The problem appears to be that when a dataset X gets LOADed twice, with things other than LOADs occurring between the loads (like a FOREACH GENERATE), a FOREACH GENERATE that is later performed on X doesn\u0027t always choose the correct columns. The correctness of the output was highly variable on my computer, for one of my co-workers it *almost* always failed, and for two other of my co-workers they didn\u0027t see any failures, so it\u0027s likely to be a race condition or something like that. -- FILES FOR REPLICATING THE PROBLEM                                         -- correct_output.                   Non-deterministic in the sense that the output of the script is not\nthe same between different times it is run on the same input; usually\nthe input is right, but sometimes it\u0027s wrong for no apparent reason.  The scripts load the file data.csv and write to the output\ndirectory, but the file output/Y/part-m-00000 is sometimes different\nbetween consecutive runs. In particular, this file SHOULD just be\nthe first and third columns of data.csv, but it sometimes uses the\nsecond column in place of the third.                      while (( i \u003c 10 ));  {results[*]}\n\n @operasolutions.com\n(360)"}
{"key":"PIG-1785","title":"New logical plan: uid conflict in flattened fields","description":"The following script produce wrong result:\n{code}\na \u003d load \u00271.  1 txt:  Expected result:  We get nothing. {code}\n b0\u003eb2;\ndump c;\n{code}\n\n {(1,2),(2,3)}"}
{"key":"PIG-1935","title":"New logical plan: Should not push up filter in front of Bincond","description":"The following script produce wrong result:    Expected:\n(badsite.com,127.0.0.1) We get nothing.  {code}\n PigStorage()  ;\ndump filtered;\n{code}"}
