{"key":"PIG-3310","title":"ImplicitSplitInserter does not generate new uids for nested schema fields, leading to miscomputations","description":"Consider the following example       On input data:\n{code}\n1       1001    101\n1       1002    103\n1       1003    102\n1       1004    102\n2       1005    101\n2       1003    101\n2       1002    123\n3       1042    101\n3       1005    101\n3       1002    133\n{code} This will give a wrongful output like . . {code} (1 1001,1001) (1 1002,1002) (1 1002,1002) (1 1002,1002) {code} The second column should be a member id so (1,2,3,4,5).                           {code}\n as shop;\n\nEXPLAIN K;\nDUMP K;\n{code}\n\n {code}\n {code}\n\n {code}\n {code}\n {code}\n    {code}\n\n {code}\n {code}\n\n LOSplitOutput.getSchema()"}
{"key":"PIG-2767","title":"Pig creates wrong schema after dereferencing nested tuple fields","description":"The following script fails:        The schema of \"dereferenced\" should be {f1: int, nested_tuple: (f2: int,\nf3: int)}. DESCRIBE thinks it is {f1: int, f2: int} instead. When dump is\nused, the data is actually in form of the correct schema however, ex.     Because the schema is incorrect,\nthe reference to \"nested_tuple\" in the \"uses_dereferenced\" statement is\nconsidered to be invalid, and the script fails to run. The error is:   PigStorage()  ;\nDESCRIBE dereferenced;\n\n nested_tuple.f3;\nDESCRIBE uses_dereferenced;\n\n {f1: int, nested_tuple: (f2: int,\nf3: int)} {f1: int, f2: int}"}
{"key":"PIG-2828","title":"Handle nulls in DataType.compare","description":"While using TOP, and if the DataBag contains null value to compare, it will generate the following exception:                 The reason is that if the typeFound is true , and the dataType is not null, and field1 is null, the script failed. So we need to judge the field1 whether is null. Object field1 \u003d o1.get(fieldNum);\n                Object field2 \u003d o2.get(fieldNum);\n                if (!typeFound) {\n                    datatype \u003d DataType.findType(field1);\n                    typeFound \u003d true;\n                }\n                return DataType.compare(field1, field2, datatype, datatype);"}
