{"id":44,"bug_id":"MATH-718","text":"inverseCumulativeProbability of BinomialDistribution returns wrong value for large trials.. The inverseCumulativeProbability method of the BinomialDistributionImpl class returns wrong value for large trials.    This returns 499525, though it should be 499999.","method_goldset":["org.apache.commons.math3.util.ContinuedFraction:evaluate(double, double, int)"],"creation_date":"2011-12-3 18:40:44","resolution_date":"2012-5-21 14:56:36"}
{"id":45,"bug_id":"MATH-775","text":"In the ListPopulation constructor, the check for a negative populationLimit should occur first.. In the ListPopulation constructor, the check to see whether the populationLimit is positive should occur before the check to see if the number of chromosomes is greater than the populationLimit.","method_goldset":["org.apache.commons.math3.genetics.ListPopulation:ListPopulation(List\u003cChromosome\u003e, int)","org.apache.commons.math3.genetics.ListPopulation:setPopulationLimit(int)"],"creation_date":"2012-4-2 12:09:14","resolution_date":"2012-4-12 13:19:25"}
{"id":46,"bug_id":"MATH-778","text":"Dfp Dfp.multiply(int x) does not comply with the general contract FieldElement.multiply(int n). In class {{org.apache.commons.math3.Dfp}},  the method {{multiply(int n)}} is limited to {{0 \u003c\u003d n \u003c\u003d 9999}}. This is not consistent with the general contract of {{FieldElement.multiply(int n)}}, where there should be no limitation on the values of {{n}}.","method_goldset":["org.apache.commons.math3.dfp.Dfp:multiply(int)"],"creation_date":"2012-4-10 01:06:11","resolution_date":"2012-10-21 11:23:33"}
{"id":47,"bug_id":"MATH-779","text":"ListPopulation Iterator allows you to remove chromosomes from the population.. Calling the iterator method of ListPopulation returns an iterator of the protected modifiable list. Before returning the iterator we should wrap it in an unmodifiable list.","method_goldset":["org.apache.commons.math3.genetics.ListPopulation:iterator()"],"creation_date":"2012-4-11 10:28:35","resolution_date":"2012-4-12 13:34:06"}
{"id":48,"bug_id":"MATH-782","text":"BrentOptimizer: User-defined check block is badly placed. The CM implementation of Brent\u0027s original algorithm was supposed to allow for a user-defined stopping criterion (in addition to Brent\u0027s default one). However, it turns out that this additional block of code is not at the right location, implying an unwanted early exit.","method_goldset":["org.apache.commons.math3.optimization.univariate.BrentOptimizerTest:testBoundaries()"],"creation_date":"2012-4-23 07:36:24","resolution_date":"2012-4-27 18:31:21"}
{"id":50,"bug_id":"MATH-905","text":"FastMath.[cosh, sinh] do not support the same range of values as the Math counterparts. cosh(double) and sinh(double):\nMath.cosh(709.783) \u003d 8.991046692770538E307\nFastMath.cosh(709.783) \u003d Infinity\nMath.sinh(709.783) \u003d 8.991046692770538E307\nFastMath.sinh(709.783) \u003d Infinity\n\u003d\u003d\u003d\u003e This is due to using exp( x )/2 for values of |x|\nabove 20: the result sometimes should not overflow,\nbut exp( x ) does, so we end up with some infinity. \u003d\u003d\u003d\u003e for values of |x| \u003e\u003d StrictMath.log(Double.MAX_VALUE),\nexp will overflow, so you need to use that instead:\nfor x positive:\ndouble t \u003d exp(x*0.5);\nreturn (0.5*t)*t;\nfor x negative:\ndouble t \u003d exp(-x*0.5);\nreturn (-0.5*t)*t;","method_goldset":["org.apache.commons.math3.util.FastMathTest:testHyperbolicInverses()"],"creation_date":"2012-11-20 14:54:39","resolution_date":"2012-11-26 07:25:55"}
