{"id":27,"bug_id":"MATH-1021","text":"HypergeometricDistribution.sample()  {code}\n import org.apache.commons.math3.distribution.HypergeometricDistribution;\n\npublic class Foo {\n  public static void main(String[] args) {\n    HypergeometricDistribution a \u003d new HypergeometricDistribution(\n        43130568, 42976365, 50);\n    System.out.printf(\"%d %d%n\", a.getSupportLowerBound(), a.getSupportUpperBound()); // Prints \"0 50\"\n    System.out.printf(\"%d%n\",a.sample());                                             // Prints \"-50\"\n  }\n}\n {code}\n\n HypergeometricDistribution.getNumericalMean()  {code}\n return (double) (getSampleSize() * getNumberOfSuccesses()) / (double) getPopulationSize();\n{code}\n {code}\n return getSampleSize() * ((double) getNumberOfSuccesses() / (double) getPopulationSize());\n{code}","class_goldset":["org.apache.commons.math3.distribution.HypergeometricDistribution"],"method_goldset":["org.apache.commons.math3.distribution.HypergeometricDistribution:getNumericalMean()"],"creation_date":"2013-8-10 00:00:22","resolution_date":"2013-8-29 21:35:32"}
{"id":28,"bug_id":"MATH-167","text":"cumulativeProbability(double x) throws ConvergenceException","class_goldset":["org.apache.commons.math.distribution.NormalDistributionImpl"],"method_goldset":["org.apache.commons.math.distribution.NormalDistributionImpl:cumulativeProbability(double)"],"creation_date":"2007-6-28 14:50:05","resolution_date":"2007-11-19 01:18:28"}
{"id":29,"bug_id":"MATH-209","text":"{{double[] out \u003d new double[nRows];}}\n {{double[] out \u003d new double[v.length];}}","class_goldset":["org.apache.commons.math.linear.BigMatrixImpl;org.apache.commons.math.linear.RealMatrixImpl"],"method_goldset":["org.apache.commons.math.linear.RealMatrixImpl:operate(double[])","org.apache.commons.math.linear.BigMatrixImpl:operate(BigDecimal[])"],"creation_date":"2008-6-17 03:02:48","resolution_date":"2008-6-17 19:10:53"}
{"id":30,"bug_id":"MATH-221","text":"class Complex  {code}\n import org.apache.commons.math.complex.*;\npublic class TestProg {\n        public static void main(String[] args) {\n\n                ComplexFormat f \u003d new ComplexFormat();\n                Complex c1 \u003d new Complex(0,1);\n                Complex c2 \u003d new Complex(-1,0);\n\n                Complex res \u003d c1.multiply(c2);\n                Complex comp \u003d new Complex(0,-1);\n\n                System.out.println(\"res:  \"+f.format(res));\n                System.out.println(\"comp: \"+f.format(comp));\n\n                System.out.println(\"res\u003dcomp: \"+res.equals(comp));\n        }\n}\n {code}","class_goldset":["org.apache.commons.math.complex.Complex"],"method_goldset":["org.apache.commons.math.complex.Complex:equals(Object)"],"creation_date":"2008-8-29 13:31:56","resolution_date":"2008-8-29 15:52:38"}
{"id":31,"bug_id":"MATH-238","text":"MathUtils.gcd(u, v)  assertEquals(3 * (1\u003c\u003c15), MathUtils.gcd(3 * (1\u003c\u003c20), 9 * (1\u003c\u003c15)));\n\n MathUtils.gcd()","class_goldset":["org.apache.commons.math.util.MathUtils"],"method_goldset":["org.apache.commons.math.util.MathUtils:gcd(int, int)"],"creation_date":"2009-1-16 22:24:24","resolution_date":"2009-1-16 23:07:17"}
{"id":33,"bug_id":"MATH-274","text":"double[][] cv \u003d {\n            {0.40434286, 0.09376327, 0.30328980, 0.04909388},\n            {0.09376327, 0.10400408, 0.07137959, 0.04762857},\n            {0.30328980, 0.07137959, 0.30458776, 0.04882449},\n            {0.04909388, 0.04762857, 0.04882449, 0.07543265}\n        };\n\n double[][] cv \u003d {\n            {0.40434286, -0.09376327, 0.30328980, 0.04909388},\n            {-0.09376327, 0.10400408, 0.07137959, 0.04762857},\n            {0.30328980, 0.07137959, 0.30458776, 0.04882449},\n            {0.04909388, 0.04762857, 0.04882449, 0.07543265}\n        };","class_goldset":["org.apache.commons.math.linear.CholeskyDecompositionImpl"],"method_goldset":["org.apache.commons.math.linear.CholeskyDecompositionImpl:CholeskyDecompositionImpl(RealMatrix, double, double)"],"creation_date":"2009-6-4 19:24:12","resolution_date":"2009-6-4 20:11:26"}
{"id":34,"bug_id":"MATH-280","text":"public class NormalDistributionImpl extends AbstractContinuousDistribution \n\n\n  public abstract class AbstractContinuousDistribution\n\n\n DistributionFactory factory \u003d app.getDistributionFactory();\n        \tNormalDistribution normal \u003d factory.createNormalDistribution(0,1);\n        \tdouble result \u003d normal.inverseCumulativeProbability(0.9772498680518209);\n\n normal.inverseCumulativeProbability(0.977249868051820);","class_goldset":["org.apache.commons.math.analysis.solvers.UnivariateRealSolverUtils"],"method_goldset":["org.apache.commons.math.analysis.solvers.UnivariateRealSolverUtils:bracket(UnivariateRealFunction, double, double, double, int)"],"creation_date":"2009-7-6 21:26:57","resolution_date":"2009-7-7 09:21:22"}
{"id":35,"bug_id":"MATH-305","text":"package org.fao.fisheries.chronicles.calcuation.cluster;\n\nimport static org.junit.Assert.assertEquals;\nimport static org.junit.Assert.assertTrue;\n\nimport java.util.Arrays;\nimport java.util.List;\nimport java.util.Random;\n\nimport org.apache.commons.math.stat.clustering.Cluster;\nimport org.apache.commons.math.stat.clustering.EuclideanIntegerPoint;\nimport org.apache.commons.math.stat.clustering.KMeansPlusPlusClusterer;\nimport org.fao.fisheries.chronicles.input.CsvImportProcess;\nimport org.fao.fisheries.chronicles.input.Top200Csv;\nimport org.junit.Test;\n\npublic class ClusterAnalysisTest {\n\n\n\t@Test\n\tpublic void testPerformClusterAnalysis2() {\n\t\tKMeansPlusPlusClusterer\u003cEuclideanIntegerPoint\u003e transformer \u003d new KMeansPlusPlusClusterer\u003cEuclideanIntegerPoint\u003e(\n\t\t\t\tnew Random(1746432956321l));\n\t\tEuclideanIntegerPoint[] points \u003d new EuclideanIntegerPoint[] {\n\t\t\t\tnew EuclideanIntegerPoint(new int[] { 1959, 325100 }),\n\t\t\t\tnew EuclideanIntegerPoint(new int[] { 1960, 373200 }), };\n\t\tList\u003cCluster\u003cEuclideanIntegerPoint\u003e\u003e clusters \u003d transformer.cluster(Arrays.asList(points), 1, 1);\n\t\tassertEquals(1, clusters.size());\n\n\t}\n\n}","class_goldset":["org.apache.commons.math.util.MathUtils"],"method_goldset":["org.apache.commons.math.util.MathUtils:distance(int[], int[])"],"creation_date":"2009-10-22 06:35:08","resolution_date":"2009-11-27 21:46:44"}
{"id":36,"bug_id":"MATH-318","text":"{code}\n     public void testMathpbx02() {\n\n        double[] mainTridiagonal \u003d {\n        \t  7484.860960227216, 18405.28129035345, 13855.225609560746,\n        \t 10016.708722343366, 559.8117399576674, 6750.190788301587, \n        \t    71.21428769782159\n        };\n        double[] secondaryTridiagonal \u003d {\n        \t -4175.088570476366,1975.7955858241994,5193.178422374075, \n        \t  1995.286659169179,75.34535882933804,-234.0808002076056\n        };\n\n        // the reference values have been computed using routine DSTEMR\n        // from the fortran library LAPACK version 3.2.1\n        double[] refEigenValues \u003d {\n        \t\t20654.744890306974412,16828.208208485466457,\n        \t\t6893.155912634994820,6757.083016675340332,\n        \t\t5887.799885688558788,64.309089923240379,\n        \t\t57.992628792736340\n        };\n        RealVector[] refEigenVectors \u003d {\n        \t\tnew ArrayRealVector(new double[] {-0.270356342026904, 0.852811091326997, 0.399639490702077, 0.198794657813990, 0.019739323307666, 0.000106983022327, -0.000001216636321}),\n        \t\tnew ArrayRealVector(new double[] {0.179995273578326,-0.402807848153042,0.701870993525734,0.555058211014888,0.068079148898236,0.000509139115227,-0.000007112235617}),\n        \t\tnew ArrayRealVector(new double[] {-0.399582721284727,-0.056629954519333,-0.514406488522827,0.711168164518580,0.225548081276367,0.125943999652923,-0.004321507456014}),\n        \t\tnew ArrayRealVector(new double[] {0.058515721572821,0.010200130057739,0.063516274916536,-0.090696087449378,-0.017148420432597,0.991318870265707,-0.034707338554096}),\n        \t\tnew ArrayRealVector(new double[] {0.855205995537564,0.327134656629775,-0.265382397060548,0.282690729026706,0.105736068025572,-0.009138126622039,0.000367751821196}),\n        \t\tnew ArrayRealVector(new double[] {-0.002913069901144,-0.005177515777101,0.041906334478672,-0.109315918416258,0.436192305456741,0.026307315639535,0.891797507436344}),\n        \t\tnew ArrayRealVector(new double[] {-0.005738311176435,-0.010207611670378,0.082662420517928,-0.215733886094368,0.861606487840411,-0.025478530652759,-0.451080697503958})\n        };\n\n        // the following line triggers the exception\n        EigenDecomposition decomposition \u003d\n            new EigenDecompositionImpl(mainTridiagonal, secondaryTridiagonal, MathUtils.SAFE_MIN);\n\n        double[] eigenValues \u003d decomposition.getRealEigenvalues();\n        for (int i \u003d 0; i \u003c refEigenValues.length; ++i) {\n            assertEquals(refEigenValues[i], eigenValues[i], 1.0e-3);\n            if (refEigenVectors[i].dotProduct(decomposition.getEigenvector(i)) \u003c 0) {\n                assertEquals(0, refEigenVectors[i].add(decomposition.getEigenvector(i)).getNorm(), 1.0e-5);\n            } else {\n                assertEquals(0, refEigenVectors[i].subtract(decomposition.getEigenvector(i)).getNorm(), 1.0e-5);\n            }\n        }\n\n    }\n {code}","class_goldset":["org.apache.commons.math.linear.EigenDecompositionImpl"],"method_goldset":["org.apache.commons.math.linear.EigenDecompositionImpl:flipIfWarranted(int, int)"],"creation_date":"2009-11-6 15:09:36","resolution_date":"2009-11-6 15:12:47"}
{"id":37,"bug_id":"MATH-326","text":"{code}\n     public double getLInfNorm() {\n        double max \u003d 0;\n        for (double a : data) {\n            max +\u003d Math.max(max, Math.abs(a));\n        }\n        return max;\n    }\n {code}\n\n {code}   \n     public double getLInfNorm() {\n        double max \u003d 0;\n        Iterator iter \u003d entries.iterator();\n        while (iter.hasNext()) {\n            iter.advance();\n            max +\u003d iter.value();\n        }\n        return max;\n    }\n {code}\n\n sparseIterator() {code}\n   public double getLInfNorm() {\n    double norm \u003d 0;\n    Iterator\u003cEntry\u003e it \u003d sparseIterator();\n    Entry e;\n    while(it.hasNext() \u0026\u0026 (e \u003d it.next()) !\u003d null) {\n      norm \u003d Math.max(norm, Math.abs(e.getValue()));\n    }\n    return norm;\n  }\n {code}","class_goldset":["org.apache.commons.math.linear.ArrayRealVector;org.apache.commons.math.linear.OpenMapRealVector"],"method_goldset":["org.apache.commons.math.linear.ArrayRealVector:getLInfNorm()","org.apache.commons.math.linear.OpenMapRealVector:getLInfNorm()"],"creation_date":"2009-12-29 00:09:20","resolution_date":"2009-12-29 12:26:59"}
{"id":38,"bug_id":"MATH-358","text":"{code}\n   public void testMissedEvent() throws IntegratorException, DerivativeException {\n          final double t0 \u003d 1878250320.0000029;\n          final double t \u003d  1878250379.9999986;\n          FirstOrderDifferentialEquations ode \u003d new FirstOrderDifferentialEquations() {\n            \n            public int getDimension() {\n                return 1;\n            }\n            \n            public void computeDerivatives(double t, double[] y, double[] yDot)\n                throws DerivativeException {\n                yDot[0] \u003d y[0] * 1.0e-6;\n            }\n        };\n\n        DormandPrince853Integrator integrator \u003d new DormandPrince853Integrator(0.0, 100.0,\n                                                                               1.0e-10, 1.0e-10);\n\n        double[] y \u003d { 1.0 };\n        integrator.setInitialStepSize(60.0);\n        double finalT \u003d integrator.integrate(ode, t0, y, t, y);\n        Assert.assertEquals(t, finalT, 1.0e-6);\n    }\n\n {code}","class_goldset":["org.apache.commons.math.ode.nonstiff.RungeKuttaIntegrator;org.apache.commons.math.ode.nonstiff.EmbeddedRungeKuttaIntegrator"],"method_goldset":["org.apache.commons.math.ode.nonstiff.EmbeddedRungeKuttaIntegrator:integrate(FirstOrderDifferentialEquations, double, double[], double, double[])","org.apache.commons.math.ode.nonstiff.RungeKuttaIntegrator:integrate(FirstOrderDifferentialEquations, double, double[], double, double[])"],"creation_date":"2010-3-24 17:25:37","resolution_date":"2010-3-24 22:13:19"}
{"id":40,"bug_id":"MATH-369","text":"new BisectionSolver() solve(someUnivariateFunctionImpl, 0.0, 1.0, 0.5);","class_goldset":["org.apache.commons.math.analysis.solvers.BisectionSolver"],"method_goldset":["org.apache.commons.math.analysis.solvers.BisectionSolver:solve(UnivariateRealFunction, double, double, double)"],"creation_date":"2010-5-3 15:48:27","resolution_date":"2010-5-3 18:43:59"}
{"id":41,"bug_id":"MATH-393","text":"{code} \n public double getResult() {\n    return optima[0];\n}\n {code}\n {code}\n public double getFunctionValue() {\n    return optimaValues[0];\n}\n {code}","class_goldset":["org.apache.commons.math.optimization.MultiStartUnivariateRealOptimizer"],"method_goldset":["org.apache.commons.math.optimization.MultiStartUnivariateRealOptimizer:getFunctionValue()","org.apache.commons.math.optimization.MultiStartUnivariateRealOptimizer:getResult()"],"creation_date":"2010-7-25 00:14:20","resolution_date":"2010-7-25 12:31:26"}
{"id":42,"bug_id":"MATH-482","text":"FastMath.max(50.0f, -50.0f)  testMinMaxFloat()","class_goldset":["org.apache.commons.math.util.FastMath"],"method_goldset":["org.apache.commons.math.util.FastMath:max(float, float)"],"creation_date":"2011-1-17 19:52:10","resolution_date":"2011-1-17 20:01:32"}
{"id":43,"bug_id":"MATH-546","text":"int sum \u003d 0;","class_goldset":["org.apache.commons.math.stat.clustering.KMeansPlusPlusClusterer"],"method_goldset":["org.apache.commons.math.stat.clustering.KMeansPlusPlusClusterer:chooseInitialCenters(Collection\u003cT\u003e, int, Random)"],"creation_date":"2011-3-12 04:52:54","resolution_date":"2011-3-16 12:58:17"}
{"id":44,"bug_id":"MATH-552","text":"MultidimensionalCounter counter \u003d new MultidimensionalCounter(2, 4);\nfor (Integer i : counter) {\n    int[] x \u003d counter.getCounts(i);\n    System.out.println(i + \" \" + Arrays.toString(x));\n}","class_goldset":["org.apache.commons.math.util.MultidimensionalCounter"],"method_goldset":["org.apache.commons.math.util.MultidimensionalCounter:getCounts(int)"],"creation_date":"2011-3-31 22:36:56","resolution_date":"2011-4-1 10:12:29"}
{"id":45,"bug_id":"MATH-554","text":"{code}\n Vector3D v1 \u003d new Vector3D(9070467121.0, 4535233560.0, 1);\nVector3D v2 \u003d new Vector3D(9070467123.0, 4535233561.0, 1);\nSystem.out.println(Vector3D.crossProduct(v1, v2));\n{code}\n\n { -1, 2, 0 }  { -1, 2, 1 }","class_goldset":["org.apache.commons.math.geometry.Vector3D"],"method_goldset":["org.apache.commons.math.geometry.Vector3D:crossProduct(Vector3D, Vector3D)"],"creation_date":"2011-4-3 14:14:38","resolution_date":"2011-4-3 14:33:56"}
{"id":46,"bug_id":"MATH-567","text":"toDouble()  toDouble()  import org.apache.commons.math.dfp.DfpField;\n\n\n public static void main(String[] args)  DfpField field \u003d new DfpField(100);\n\t\t getZero()  field.getZero() toDouble() newDfp(0.0)  field.newDfp(0.0) toDouble() toDouble()","class_goldset":["org.apache.commons.math.dfp.Dfp"],"method_goldset":["org.apache.commons.math.dfp.Dfp:Dfp(DfpField, double)","org.apache.commons.math.dfp.Dfp:toDouble()"],"creation_date":"2011-5-5 17:49:00","resolution_date":"2011-5-5 19:44:09"}
{"id":47,"bug_id":"MATH-60","text":"Fraction parse(String source, \nParsePostion pos) class ProperFractionFormat  ProperFractionFormat properFormat \u003d new ProperFractionFormat();\nresult \u003d null;\nString source \u003d \"1 -1 / 2\";\nParsePosition pos \u003d new ParsePosition(0);\n\n//Test 1 : fail \n public void testParseNegative(){\n \n   String source \u003d \"-1 -2 / 3\";\n   ParsePosition pos \u003d new ParsePosition(0);\n\n   Fraction actual \u003d properFormat.parse(source, pos);\n   assertNull(actual);\n}\n\n// Test2: success\n public void testParseNegative(){\n \n   String source \u003d \"-1 -2 / 3\";\n   ParsePosition pos \u003d new ParsePosition(0);\n\n   Fraction actual \u003d properFormat.parse(source, pos);  // return Fraction 1/3\n   assertEquals(1, source.getNumerator());\n   assertEquals(3, source.getDenominator());\n}\n\n parse(String, ParsePosition)","class_goldset":["org.apache.commons.math.fraction.ProperFractionFormat"],"method_goldset":["org.apache.commons.math.fraction.ProperFractionFormat:parse(String, ParsePosition)"],"creation_date":"2006-5-14 04:20:21","resolution_date":"2006-6-5 10:16:21"}
{"id":48,"bug_id":"MATH-618","text":"{code}\n      {@link #NaN}  {@link java.lang.Double}  {code}","class_goldset":["org.apache.commons.math.complex.Complex"],"method_goldset":["org.apache.commons.math.complex.Complex:add(Complex)"],"creation_date":"2011-7-13 20:23:43","resolution_date":"2011-7-14 06:08:54"}
{"id":49,"bug_id":"MATH-631","text":"{code}\n @Test\npublic void testBug() {\n    final UnivariateRealFunction f \u003d new UnivariateRealFunction() {\n            @Override\n            public double value(double x) {\n                return Math.exp(x) - Math.pow(Math.PI, 3.0);\n            }\n        };\n\n    UnivariateRealSolver solver \u003d new RegulaFalsiSolver();\n    double root \u003d solver.solve(100, f, 1, 10);\n}\n {code}\n {noformat}\n {noformat}","class_goldset":["org.apache.commons.math.analysis.solvers.BaseSecantSolver"],"method_goldset":["org.apache.commons.math.analysis.solvers.BaseSecantSolver:doSolve()"],"creation_date":"2011-7-23 23:48:27","resolution_date":"2011-9-8 12:13:59"}
{"id":50,"bug_id":"MATH-645","text":"{code:java}\n import org.apache.commons.math.linear.OpenMapRealVector;\nimport org.apache.commons.math.linear.RealVector;\n\npublic class DemoBugOpenMapRealVector {\n    public static void main(String[] args) {\n        final RealVector u \u003d new OpenMapRealVector(3, 1E-6);\n        u.setEntry(0, 1.);\n        u.setEntry(1, 0.);\n        u.setEntry(2, 2.);\n        final RealVector v \u003d new OpenMapRealVector(3, 1E-6);\n        v.setEntry(0, 0.);\n        v.setEntry(1, 3.);\n        v.setEntry(2, 0.);\n        System.out.println(u);\n        System.out.println(v);\n        System.out.println(u.ebeMultiply(v));\n    }\n}\n {code}\n {noformat}\n {noformat}","class_goldset":["org.apache.commons.math.linear.OpenMapRealVector"],"method_goldset":["org.apache.commons.math.linear.OpenMapRealVector:ebeMultiply(double[])","org.apache.commons.math.linear.OpenMapRealVector:ebeDivide(double[])","org.apache.commons.math.linear.OpenMapRealVector:ebeMultiply(RealVector)","org.apache.commons.math.linear.OpenMapRealVector:ebeDivide(RealVector)"],"creation_date":"2011-8-13 16:18:48","resolution_date":"2011-9-2 20:54:19"}
{"id":51,"bug_id":"MATH-679","text":"computeKey()","class_goldset":["org.apache.commons.math.linear.OpenMapRealMatrix"],"method_goldset":["org.apache.commons.math.linear.OpenMapRealMatrix:OpenMapRealMatrix(int, int)"],"creation_date":"2011-10-3 05:36:20","resolution_date":"2011-10-10 19:57:12"}
{"id":52,"bug_id":"MATH-691","text":"new Variance(true/false)  {code:java}\n int[] scores \u003d {1, 2, 3, 4};\nSummaryStatistics stats \u003d new SummaryStatistics();\nstats.setVarianceImpl(new Variance(false)); //use \"population variance\"\nfor(int i : scores) {\n  stats.addValue(i);\n}\ndouble sd \u003d stats.getStandardDeviation();\nSystem.out.println(sd);\n{code}\n\n {code:java}\n   double sd \u003d FastMath.sqrt(stats.getSecondMoment() / stats.getN());\n{code}","class_goldset":["org.apache.commons.math.stat.descriptive.SummaryStatistics"],"method_goldset":["org.apache.commons.math.stat.descriptive.SummaryStatistics:addValue(double)"],"creation_date":"2011-10-16 17:18:34","resolution_date":"2011-11-27 05:20:46"}
{"id":54,"bug_id":"MATH-713","text":"SimplexSolver.optimize(function, constraints, GoalType.MINIMIZE, true);\n\n x \u003d 1; y \u003d -1;","class_goldset":["org.apache.commons.math.optimization.linear.SimplexTableau"],"method_goldset":["org.apache.commons.math.optimization.linear.SimplexTableau:getSolution()"],"creation_date":"2011-11-25 16:35:02","resolution_date":"2011-11-28 20:17:44"}
{"id":57,"bug_id":"MATH-778","text":"{{org.apache.commons.math3.Dfp}} {{multiply(int n)}}  {{0 \u003c\u003d n \u003c\u003d 9999}} {{FieldElement.multiply(int n)}} {{n}}","class_goldset":["org.apache.commons.math3.dfp.Dfp"],"method_goldset":["org.apache.commons.math3.dfp.Dfp:multiply(int)"],"creation_date":"2012-4-10 06:06:11","resolution_date":"2012-10-21 16:23:33"}
{"id":58,"bug_id":"MATH-836","text":"public Fraction(double value, int maxDenominator)\n        throws FractionConversionException\n    {\n       this(value, 0, maxDenominator, 100);\n    }","class_goldset":["org.apache.commons.math3.fraction.Fraction"],"method_goldset":["org.apache.commons.math3.fraction.Fraction:Fraction(double, double, int, int)"],"creation_date":"2012-7-31 17:04:25","resolution_date":"2012-8-4 16:27:26"}
{"id":62,"bug_id":"MATH-904","text":"Math.pow(-1.0,5.000000000000001E15)  FastMath.pow(-1.0,5.000000000000001E15)","class_goldset":["org.apache.commons.math3.util.FastMath"],"method_goldset":["org.apache.commons.math3.util.FastMath:pow(double, double)"],"creation_date":"2012-11-20 20:51:23","resolution_date":"2012-11-26 23:03:35"}
{"id":63,"bug_id":"MATH-929","text":"{code}\n Assert.assertEquals(0.398942280401433, new MultivariateNormalDistribution(new double[]{0}, new double[][]{{1}}).density(new double[]{0}), 1e-15);\n{code}","class_goldset":["org.apache.commons.math3.distribution.MultivariateNormalDistribution"],"method_goldset":["org.apache.commons.math3.distribution.MultivariateNormalDistribution:density(double[])"],"creation_date":"2013-1-15 11:45:28","resolution_date":"2013-1-15 12:20:21"}
{"id":65,"bug_id":"MATH-942","text":"Array.newInstance(singletons.get(0).getClass(), sampleSize) singleons.get(0) {{DiscreteDistribution.sample()}}  {code}\n List\u003cPair\u003cObject,Double\u003e\u003e list \u003d new ArrayList\u003cPair\u003cObject, Double\u003e\u003e();\nlist.add(new Pair\u003cObject, Double\u003e(new Object() {}, new Double(0)));\nlist.add(new Pair\u003cObject, Double\u003e(new Object() {}, new Double(1)));\nnew DiscreteDistribution\u003cObject\u003e(list).sample(1);\n{code}","class_goldset":["org.apache.commons.math3.distribution.DiscreteDistribution"],"method_goldset":["org.apache.commons.math3.distribution.DiscreteDistribution:sample(int)"],"creation_date":"2013-3-9 15:05:04","resolution_date":"2013-3-10 12:02:31"}
{"id":66,"bug_id":"MATH-949","text":"LevenbergMarquardtOptimizer.getIterations()  BaseOptimizer.incrementEvaluationsCount()\n\n {noformat}\n     @Test\n    public void testGetIterations() {\n        // setup\n        LevenbergMarquardtOptimizer otim \u003d new LevenbergMarquardtOptimizer();\n\n        // action\n        otim.optimize(new MaxEval(100), new Target(new double[] { 1 }),\n                new Weight(new double[] { 1 }), new InitialGuess(\n                        new double[] { 3 }), new ModelFunction(\n                        new MultivariateVectorFunction() {\n                            @Override\n                            public double[] value(double[] point)\n                                    throws IllegalArgumentException {\n                                return new double[] { FastMath.pow(point[0], 4) };\n                            }\n                        }), new ModelFunctionJacobian(\n                        new MultivariateMatrixFunction() {\n                            @Override\n                            public double[][] value(double[] point)\n                                    throws IllegalArgumentException {\n                                return new double[][] { { 0.25 * FastMath.pow(\n                                        point[0], 3) } };\n                            }\n                        }));\n\n        // verify\n        assertThat(otim.getEvaluations(), greaterThan(1));\n        assertThat(otim.getIterations(), greaterThan(1));\n    }\n\n {noformat}","class_goldset":["org.apache.commons.math3.optim.nonlinear.scalar.noderiv.PowellOptimizer;org.apache.commons.math3.optim.nonlinear.scalar.gradient.NonLinearConjugateGradientOptimizer;org.apache.commons.math3.optim.nonlinear.scalar.noderiv.SimplexOptimizer;org.apache.commons.math3.optim.nonlinear.vector.jacobian.GaussNewtonOptimizer;org.apache.commons.math3.optim.nonlinear.scalar.noderiv.CMAESOptimizer;org.apache.commons.math3.optim.BaseOptimizer;org.apache.commons.math3.optim.nonlinear.vector.jacobian.LevenbergMarquardtOptimizer"],"method_goldset":["org.apache.commons.math3.optim.nonlinear.scalar.gradient.NonLinearConjugateGradientOptimizer:doOptimize()","org.apache.commons.math3.optim.nonlinear.scalar.noderiv.CMAESOptimizer:doOptimize()","org.apache.commons.math3.optim.nonlinear.vector.jacobian.GaussNewtonOptimizer:doOptimize()","org.apache.commons.math3.optim.nonlinear.scalar.noderiv.SimplexOptimizer:doOptimize()","org.apache.commons.math3.optim.BaseOptimizer:BaseOptimizer(ConvergenceChecker\u003cPAIR\u003e)","org.apache.commons.math3.optim.nonlinear.scalar.noderiv.PowellOptimizer:doOptimize()","org.apache.commons.math3.optim.nonlinear.vector.jacobian.LevenbergMarquardtOptimizer:doOptimize()"],"creation_date":"2013-3-15 18:11:56","resolution_date":"2013-3-20 11:38:17"}
