{"key":"OPENJPA-1784","title":"Map value updates not flushed","description":"I have an entity with a map element collection where the map value is an Embeddable.       Given a persistent instance m of my entity, I update a member of a given map value and then merge the modified entity:               @Embeddable\npublic class LocalizedString {\n\n\n    private String language;\n    private String string;\n\n\n    // getters and setters omitted\n}\n\n\n \n\n\n @Entity\npublic class MultilingualString {\n\n\n    @Id\n    private long id;\n\n\n    @ElementCollection(fetch\u003dFetchType.EAGER)\n    private Map\u003cString, LocalizedString\u003e map \u003d new HashMap\u003cString, LocalizedString\u003e();\n}\n\n\n\n ;\n    em.getTransaction().begin();\n    m.getMap().get(\"en\").setString(\"foo\");\n     em.merge(m)\n     em.getTransaction() commit();\n   \n ;\n    em.getTransaction().begin();\n     m.getMap() put(\"en\") new LocalizedString(\"en\", \"foo\") em.merge(m)\n     em.getTransaction() commit();\n\n\n hashCode()  equals()  equal()"}
{"key":"OPENJPA-526","title":"Insert text more than 4K bytes to Clob column causes SQLException: Exhausted Resultset","description":"Here\u0027s the persistence class:\npublic class Exam... {\n    @Lob\n    @Column(name \u003d \"text\", nullable \u003d false) ***** NOTE: set nullable \u003d true will fix the problem but it leads to bug OPENJPA-525 *****\n    private String text;\n}                                                                                                                                                                                   public class Exam @Lob @Column(name \u003d \"text\", nullable \u003d false)  private String text;\n With nullable \u003d false"}
{"key":"OPENJPA-1627","title":"ORderBy with @ElementJoinColumn and EmbeddedId uses wrong columns in SQL","description":"So the Account class has the following fragment....                 @OneToMany(fetch \u003d FetchType.LAZY, cascade \u003d {CascadeType.PERSIST})\n\t@ElementJoinColumn(name\u003d\"maccno\", referencedColumnName\u003d\"maccno\")\n\t@OrderBy(value \u003d \"_id._processDate ASC, _id._tranSequenceNumber ASC\")\n\tprivate LinkedList\u003cTransaction\u003e _transactions;\n\n\n\n @EmbeddedId\n\tprivate TransactionId _id;\n\t\n\t @Column(name \u003d \"mtrancde\")\n\tprivate int _transactionCode;\n\t\n\t @Column(name \u003d \"mamount\")\n\tprivate BigDecimal _amount;\n\t\n\t @Column(name \u003d \"mdesc\")\n\tprivate String _description;\n\t\n\n\n\t @Column(name \u003d \"mactdate\")\n\tprivate Date _actualDate;\n\t\n\t @Column(name \u003d \"mbranch\")\n\tprivate int _branch;\n\n\n\n @Embeddable\npublic class TransactionId  @Column(name \u003d \"maccno\")\n\tprivate String _accountNumber;\n\t\n\t @Column(name \u003d \"mprocdate\")\n\tprivate Date _processDate;\n\t\n\t @Column(name \u003d \"mtranseqno\")\n\tprivate int _tranSequenceNumber;"}
