{"id":5181,"bug_id":"COMPRESS-309","text":"BZip2CompressorInputStream return value wrong when told to read to a full buffer.. BZip2CompressorInputStream.read(buffer, offset, length) returns -1 when given an offset equal to the length of the buffer. This indicates, not that the buffer was full, but that the stream was finished.                        // Fails, returns -1 (indicating the stream is complete rather than that the buffer // was full)      BZip2CompressorInputStream.read(buffer, offset, length)  @Test\n\n\tpublic void testApacheCommonsBZipUncompression () throws Exception {\n\n\t\t// Create a big random piece of data\n\n\t\tbyte[] rawData \u003d new byte[1048576];\n\n\t\tfor (int i\u003d0; i\u003crawData.length; ++i) {\n\n\t\t\trawData[i] \u003d (byte) Math.floor(Math.random()*256);\n\n\t\t}\n\n\n\n\t\t// Compress it\n\n\t\tByteArrayOutputStream baos \u003d new ByteArrayOutputStream();\n\n\t\tBZip2CompressorOutputStream bzipOut \u003d new BZip2CompressorOutputStream(baos);\n\n\t\tbzipOut.write(rawData);\n\n\t\tbzipOut.flush();\n\n\t\tbzipOut.close();\n\n\t\tbaos.flush();\n\n\t\tbaos.close();\n\n\n\n\t\t// Try to read it back in\n\n\t\tByteArrayInputStream bais \u003d new ByteArrayInputStream(baos.toByteArray());\n\n\t\tBZip2CompressorInputStream bzipIn \u003d new BZip2CompressorInputStream(bais);\n\n\t\tbyte[] buffer \u003d new byte[1024];\n\n\t\t// Works fine\n\n\t\tAssert.assertEquals(1024, bzipIn.read(buffer, 0, 1024));\n\n\t\t// Fails, returns -1 (indicating the stream is complete rather than that the buffer \n\n\t\t// was full)\n\n\t\tAssert.assertEquals(0, bzipIn.read(buffer, 1024, 0));\n\n\t\t// But if you change the above expected value to -1, the following line still works\n\n\t\tAssert.assertEquals(1024, bzipIn.read(buffer, 0, 1024));\n\n\t\tbzipIn.close();\n\n\t}","file_goldset":["org.apache.commons.compress.compressors.bzip2.BZip2CompressorInputStream"],"creation_date":"2015-02-18T17:22:16.000-06:00","resolution_date":"2015-02-20T16:18:29.000-06:00"}
{"id":5182,"bug_id":"COMPRESS-332","text":"FramedSnappyCompressorInputStream.read returns invalid value at end of stream.. FramedSnappyCompressorInputStream.read() returns 0 when the end of stream has been reached rather than -1. It appears that this may be caused by SnappyCompressorInputStream.read(byte[], int, int) returning 0 instead of -1 at the end of stream when the exact number of bytes have been read. FramedSnappyCompressorInputStream.read()","file_goldset":["org.apache.commons.compress.compressors.snappy.SnappyCompressorInputStream"],"creation_date":"2016-01-26T14:12:44.000-06:00","resolution_date":"2016-01-29T20:38:24.000-06:00"}
{"id":5183,"bug_id":"COMPRESS-171","text":"createArchiveInputStream detects text files less than 100 bytes as tar archives. The fix for COMPRESS-117 which modified ArchiveStreamFactory(). createArchiveInputStream(inputstream) results in short text files (empirically seems to be those \u003c\u003d 100 bytes) being detected as tar archives which obviously is not desirable if one wants to know whether or not the files are archives.  ArchiveStreamFactory() createArchiveInputStream(inputstream)","file_goldset":["org.apache.commons.compress.archivers.ArchiveStreamFactory"],"creation_date":"2012-01-20T17:54:09.000-06:00","resolution_date":"2012-01-29T20:57:38.000-06:00"}
{"id":5184,"bug_id":"COMPRESS-357","text":"BZip2CompressorOutputStream can affect output stream incorrectly. BZip2CompressorOutputStream has an unsynchronized finished() method, and an unsynchronized finalize method. Finish checks to see if the output stream is null, and if it is not it calls various methods, some of which write to the output stream.       At some point the garbage collector call finalize(), which calls finish().       finished()  s.close();\ns \u003d null;\n finalize() finish() finish()  finish()  finalize() finalize()","file_goldset":["org.apache.commons.compress.compressors.bzip2.BZip2CompressorOutputStream"],"creation_date":"2016-05-25T17:50:50.000-05:00","resolution_date":"2016-06-15T04:19:37.000-05:00"}
{"id":5185,"bug_id":"COMPRESS-131","text":"ArrayOutOfBounds while decompressing bz2. Decompressing a bz2 file generated by bzip2 utility throws an ArrayIndexOutOfBounds at method recvDecodingTables() line 469.  recvDecodingTables()","file_goldset":["org.apache.commons.compress.compressors.BZip2TestCase"],"creation_date":"2011-06-03T16:25:45.000-05:00","resolution_date":"2012-02-23T01:31:59.000-06:00"}
{"id":5186,"bug_id":"COMPRESS-209","text":"DOC is incorrectly recognized as TAR. Empty DOC is autodetected as TAR by ArchiveStreamFactory.createArchiveInputStream(InputStream). ArchiveStreamFactory.createArchiveInputStream(InputStream)","file_goldset":["org.apache.commons.compress.archivers.ArchiveStreamFactoryTest"],"creation_date":"2012-11-01T17:37:59.000-05:00","resolution_date":"2012-11-01T18:03:10.000-05:00"}
{"id":5187,"bug_id":"COMPRESS-189","text":"ZipArchiveInputStream may read 0 bytes when reading from a nested Zip file. When the following code is run an error \"Underlying input stream returned zero bytes\" is produced. If the commented line is uncommented it can be seen that the ZipArchiveInputStream returned 0 bytes.    Also I believe whilst ZipFile can iterate over entries fast due to being able to look at the master table whilst ZipArchiveInputStream cannot.                 ZipFile zipFile \u003d new ZipFile(\"C:/test.ZIP\");\n    for (Enumeration\u003cZipArchiveEntry\u003e iterator \u003d zipFile.getEntries(); iterator.hasMoreElements(); ) {\n      ZipArchiveEntry entry \u003d iterator.nextElement();\n      InputStream is \u003d new BufferedInputStream(zipFile.getInputStream(entry));\n      ZipArchiveInputStream zipInput \u003d new ZipArchiveInputStream(is);\n      ZipArchiveEntry innerEntry;\n      while ((innerEntry \u003d zipInput.getNextZipEntry()) !\u003d null){\n        if (innerEntry.getName().endsWith(\"XML\"))\n{\n\n          //zipInput.read();\n\n          System.out.println(IOUtils.toString(zipInput));\n\n        }\n      }\n    }","file_goldset":["org.apache.commons.compress.archivers.zip.ZipArchiveInputStreamTest","org.apache.commons.compress.archivers.zip.ZipArchiveInputStream"],"creation_date":"2012-06-26T21:30:39.000-05:00","resolution_date":"2012-12-28T06:55:18.000-06:00"}
{"id":5188,"bug_id":"COMPRESS-245","text":"TarArchiveInputStream#getNextTarEntry returns null prematurely. The attached archive decompressed with 1.6 only extracts part of the archive.                                                                                    with commons-compress-1.6 it looks like this:                                                   FileInputStream fin \u003d new FileInputStream(\"exampletar.tar.gz\");\n\nGZIPInputStream gin \u003d new GZIPInputStream(fin);\n\nTarArchiveInputStream tin \u003d new TarArchiveInputStream(gin);            TarArchiveEntry entry;\n\n             tin.getNextTarEntry()","file_goldset":["org.apache.commons.compress.archivers.tar.TarArchiveInputStreamTest","org.apache.commons.compress.archivers.tar.TarArchiveInputStream"],"creation_date":"2013-12-05T11:01:39.000-06:00","resolution_date":"2013-12-06T05:23:51.000-06:00"}
{"id":5189,"bug_id":"COMPRESS-276","text":"NullPointerException in ZipArchiveOutputStream with invalid entries. Writing raw data seems to cause problems in multiple ways, because an internal field is not set.      java.io.ByteArrayOutputStream var0 \u003d new java.io.ByteArrayOutputStream();\n    org.apache.commons.compress.archivers.jar.JarArchiveOutputStream var1 \u003d new org.apache.commons.compress.archivers.jar.JarArchiveOutputStream((java.io.OutputStream)var0);\n    var1.write(25843);","file_goldset":["org.apache.commons.compress.archivers.sevenz.SevenZFile","org.apache.commons.compress.archivers.sevenz.SevenZOutputFile","org.apache.commons.compress.archivers.dump.DumpArchiveInputStream","org.apache.commons.compress.archivers.tar.TarArchiveInputStream","org.apache.commons.compress.archivers.tar.TarArchiveOutputStream","org.apache.commons.compress.archivers.arj.ArjArchiveInputStream","org.apache.commons.compress.archivers.zip.ZipArchiveOutputStream"],"creation_date":"2014-04-11T05:03:17.000-05:00","resolution_date":"2014-04-13T08:33:29.000-05:00"}
{"id":5190,"bug_id":"COMPRESS-273","text":"NullPointerException when creation fields/entries from scratch. However, when these 0-argument constructors are used, certain internal references are null, resulting in a NullPointerException soon after.        org.apache.commons.compress.archivers.zip.UnicodeCommentExtraField var0 \u003d new org.apache.commons.compress.archivers.zip.UnicodeCommentExtraField();\n    org.apache.commons.compress.archivers.zip.ZipShort var1 \u003d var0.getLocalFileDataLength();","file_goldset":["org.apache.commons.compress.archivers.cpio.CpioArchiveEntry","org.apache.commons.compress.archivers.zip.UnrecognizedExtraField","org.apache.commons.compress.archivers.zip.ExtraFieldUtils","org.apache.commons.compress.archivers.zip.AbstractUnicodeExtraField"],"creation_date":"2014-04-11T04:13:32.000-05:00","resolution_date":"2014-04-18T14:14:16.000-05:00"}
{"id":5191,"bug_id":"COMPRESS-278","text":"Incorrect handling of NUL username and group Tar.gz entries. With version 1.8 of commons-compress it\u0027s no longer possible to decompress  files from an archive if the archive contains entries having null (or being empty?) set as username and/or usergroup. With version 1.7 this still worked now I get this exception:                                                       With 1.7 the TestCase outputed this:       With 1.8 it\u0027s failing once it reaches the null valued entry, which is the first.          \n\n\n\npackage TestBed;\n\n\n\nimport java.io.File;\n\nimport java.io.FileInputStream;\n\nimport java.io.FileNotFoundException;\n\nimport java.io.IOException;\n\n\n\nimport org.apache.commons.compress.archivers.tar.TarArchiveEntry;\n\nimport org.apache.commons.compress.archivers.tar.TarArchiveInputStream;\n\nimport org.apache.commons.compress.compressors.gzip.GzipCompressorInputStream;\n\nimport org.junit.Test;\n\n\n\n/**\n\n * Unit test for simple App.\n\n */\n\npublic class AppTest\n\n{\n\n\n\n    @Test\n\n    public void extractNoFileOwner()\n\n    {\n\n        TarArchiveInputStream tarInputStream \u003d null;\n\n\n\n        try\n\n        {\n\n            tarInputStream \u003d\n\n                new TarArchiveInputStream( new GzipCompressorInputStream( new FileInputStream( new File(\n\n                    \"/home/pknobel/redis-dist-2.8.3_1-linux.tar.gz\" ) ) ) );\n\n            TarArchiveEntry entry;\n\n            while ( ( entry \u003d tarInputStream.getNextTarEntry() ) !\u003d null )\n\n            {\n\n                System.out.println( entry.getName() );\n\n                System.out.println(entry.getUserName()+\"/\"+entry.getGroupName());\n\n            }\n\n\n\n        }\n\n        catch ( FileNotFoundException e )\n\n        {\n\n            e.printStackTrace();\n\n        }\n\n        catch ( IOException e )\n\n        {\n\n            e.printStackTrace();\n\n        }\n\n    }\n\n\n\n}","file_goldset":["org.apache.commons.compress.archivers.tar.TarUtilsTest","org.apache.commons.compress.archivers.tar.TarUtils"],"creation_date":"2014-04-18T16:09:05.000-05:00","resolution_date":"2014-04-19T06:01:10.000-05:00"}
