{"key":"LANG-477","title":"ExtendedMessageFormat: OutOfMemory with custom format registry and a pattern containing single quotes","description":"When using ExtendedMessageFormat with a custom format registry and a pattern conatining single quotes, an OutOfMemoryError will occur. Example that will cause error: {code:title\u003dExtendedMessageFormatTest.java|borderStyle\u003dsolid} private static Map\u003cString, Object\u003e formatRegistry \u003d new HashMap\u003cString, Object\u003e();    \n    static {\n        formatRegistry.put(DummyFormatFactory.DUMMY_FORMAT, new DummyFormatFactory());\n    }\n    \n    public static void main(String[] args) {\n        ExtendedMessageFormat mf \u003d new ExtendedMessageFormat(\"it\u0027\u0027s a {dummy} \u0027test\u0027!\" , formatRegistry);\n        String formattedPattern \u003d mf.format(new String[] {\"great\"});\n        System.out.println(formattedPattern);\n    }\n} {code} The following change starting at line 421 on the 2.4 release seems to fix the problem: {code:title\u003dExtendedMessageFormat.java|borderStyle\u003dsolid}\nCURRENT (Broken):\nif (escapingOn \u0026\u0026 c[start] \u003d\u003d QUOTE) {\n        return appendTo \u003d\u003d null ? null : appendTo.append(QUOTE);\n} WORKING:\nif (escapingOn \u0026\u0026 c[start] \u003d\u003d QUOTE) {\n        next(pos);\n        return appendTo \u003d\u003d null ? null : appendTo.append(QUOTE);\n}\n{code}"}
{"key":"LANG-879","title":"LocaleUtils test fails with new Locale \"ja_JP_JP_#u-ca-japanese\" of JDK7","description":"The Test below fails with the following error on JDK7, but succeeds on JDK6: testAllLocales \"java.lang.AssertionError:  Expected: \u003cja_JP_JP_#u-ca-japanese\u003e      but: was \u003cja_JP_JP_#u-ca-japanese\u003e \tat org.hamcrest.MatcherAssert.assertThat(MatcherAssert.java:20) \tat org.hamcrest.MatcherAssert.assertThat(MatcherAssert.java:8) \tat com.scispike.foundation.test.unit.i18n.LocaleStringConverterTest.testStringToLocale(LocaleStringConverterTest.java:20) \tat com.scispike.foundation.test.unit.i18n.LocaleStringConverterTest.testAllLocales(LocaleStringConverterTest.java:28) \tat org.apache.maven.surefire.testng.TestNGExecutor.run(TestNGExecutor.java:76) \tat org.apache.maven.surefire.testng.TestNGDirectoryTestSuite.executeMulti(TestNGDirectoryTestSuite.java:161) \tat org.apache.maven.surefire.testng.TestNGDirectoryTestSuite.execute(TestNGDirectoryTestSuite.java:101) \tat org.apache.maven.surefire.testng.TestNGProvider.invoke(TestNGProvider.java:115) \tat org.apache.maven.surefire.util.ReflectionUtils.invokeMethodWithArray(ReflectionUtils.java:189) \tat org.apache.maven.surefire.booter.ProviderFactory$ProviderProxy.invoke(ProviderFactory.java:165) \tat org.apache.maven.surefire.booter.ProviderFactory.invokeProvider(ProviderFactory.java:85) \tat org.apache.maven.surefire.booter.ForkedBooter.runSuitesInProcess(ForkedBooter.java:103) \tat org.apache.maven.surefire.booter.ForkedBooter.main(ForkedBooter.java:74) ... Removed 25 stack frames  java.lang.AssertionError:  Expected: \u003cja_JP_JP_#u-ca-japanese\u003e      but: was \u003cja_JP_JP_#u-ca-japanese\u003e \tat org.hamcrest.MatcherAssert.assertThat(MatcherAssert.java:20) \tat org.hamcrest.MatcherAssert.assertThat(MatcherAssert.java:8) \tat com.scispike.foundation.test.unit.i18n.LocaleStringConverterTest.testStringToLocale(LocaleStringConverterTest.java:20) \tat com.scispike.foundation.test.unit.i18n.LocaleStringConverterTest.testAllLocales(LocaleStringConverterTest.java:28) \tat sun.reflect.NativeMethodAccessorImpl.invoke0(Native Method) \tat sun.reflect.NativeMethodAccessorImpl.invoke(NativeMethodAccessorImpl.java:57) \tat sun.reflect.DelegatingMethodAccessorImpl.invoke(DelegatingMethodAccessorImpl.java:43) \tat java.lang.reflect.Method.invoke(Method.java:601) \tat org.testng.internal.MethodInvocationHelper.invokeMethod(MethodInvocationHelper.java:80) \tat org.testng.internal.Invoker.invokeMethod(Invoker.java:715) \tat org.testng.internal.Invoker.invokeTestMethod(Invoker.java:907) \tat org.testng.internal.Invoker.invokeTestMethods(Invoker.java:1237) \tat org.testng.internal.TestMethodWorker.invokeTestMethods(TestMethodWorker.java:127) \tat org.testng.internal.TestMethodWorker.run(TestMethodWorker.java:111) \tat org.testng.TestRunner.privateRun(TestRunner.java:767) \tat org.testng.TestRunner.run(TestRunner.java:617) \tat org.testng.SuiteRunner.runTest(SuiteRunner.java:334) \tat org.testng.SuiteRunner.runSequentially(SuiteRunner.java:329) \tat org.testng.SuiteRunner.privateRun(SuiteRunner.java:291) \tat org.testng.SuiteRunner.run(SuiteRunner.java:240) \tat org.testng.SuiteRunnerWorker.runSuite(SuiteRunnerWorker.java:51) \tat org.testng.SuiteRunnerWorker.run(SuiteRunnerWorker.java:85) \tat org.testng.TestNG.runSuitesSequentially(TestNG.java:1197) \tat org.testng.TestNG.runSuitesLocally(TestNG.java:1122) \tat org.testng.TestNG.run(TestNG.java:1030) \tat org.apache.maven.surefire.testng.TestNGExecutor.run(TestNGExecutor.java:76) \tat org.apache.maven.surefire.testng.TestNGDirectoryTestSuite.executeMulti(TestNGDirectoryTestSuite.java:161) \tat org.apache.maven.surefire.testng.TestNGDirectoryTestSuite.execute(TestNGDirectoryTestSuite.java:101) \tat org.apache.maven.surefire.testng.TestNGProvider.invoke(TestNGProvider.java:115) \tat sun.reflect.NativeMethodAccessorImpl.invoke0(Native Method) \tat sun.reflect.NativeMethodAccessorImpl.invoke(NativeMethodAccessorImpl.java:57) \tat sun.reflect.DelegatingMethodAccessorImpl.invoke(DelegatingMethodAccessorImpl.java:43) \tat java.lang.reflect.Method.invoke(Method.java:601) \tat org.apache.maven.surefire.util.ReflectionUtils.invokeMethodWithArray(ReflectionUtils.java:189) \tat org.apache.maven.surefire.booter.ProviderFactory$ProviderProxy.invoke(ProviderFactory.java:165) \tat org.apache.maven.surefire.booter.ProviderFactory.invokeProvider(ProviderFactory.java:85) \tat org.apache.maven.surefire.booter.ForkedBooter.runSuitesInProcess(ForkedBooter.java:103) \tat org.apache.maven.surefire.booter.ForkedBooter.main(ForkedBooter.java:74) \" org.hamcrest.MatcherAssert.assertThat(MatcherAssert.java:20) org.hamcrest.MatcherAssert.assertThat(MatcherAssert.java:8) com.scispike.foundation.test.unit.i18n.LocaleStringConverterTest.testStringToLocale(LocaleStringConverterTest.java:20) com.scispike.foundation.test.unit.i18n.LocaleStringConverterTest.testAllLocales(LocaleStringConverterTest.java:28) sun.reflect.NativeMethodAccessorImpl.invoke0(Native Method) sun.reflect.NativeMethodAccessorImpl.invoke(NativeMethodAccessorImpl.java:57) sun.reflect.DelegatingMethodAccessorImpl.invoke(DelegatingMethodAccessorImpl.java:43) java.lang.reflect.Method.invoke(Method.java:601) org.testng.internal.MethodInvocationHelper.invokeMethod(MethodInvocationHelper.java:80) org.testng.internal.Invoker.invokeMethod(Invoker.java:715) org.testng.internal.Invoker.invokeTestMethod(Invoker.java:907) org.testng.internal.Invoker.invokeTestMethods(Invoker.java:1237) org.testng.internal.TestMethodWorker.invokeTestMethods(TestMethodWorker.java:127) org.testng.internal.TestMethodWorker.run(TestMethodWorker.java:111) org.testng.TestRunner.privateRun(TestRunner.java:767) org.testng.TestRunner.run(TestRunner.java:617) org.testng.SuiteRunner.runTest(SuiteRunner.java:334) org.testng.SuiteRunner.runSequentially(SuiteRunner.java:329) org.testng.SuiteRunner.privateRun(SuiteRunner.java:291) org.testng.SuiteRunner.run(SuiteRunner.java:240) org.testng.SuiteRunnerWorker.runSuite(SuiteRunnerWorker.java:51) org.testng.SuiteRunnerWorker.run(SuiteRunnerWorker.java:85) org.testng.TestNG.runSuitesSequentially(TestNG.java:1197) org.testng.TestNG.runSuitesLocally(TestNG.java:1122) org.testng.TestNG.run(TestNG.java:1030) org.apache.maven.surefire.testng.TestNGExecutor.run(TestNGExecutor.java:76) org.apache.maven.surefire.testng.TestNGDirectoryTestSuite.executeMulti(TestNGDirectoryTestSuite.java:161) org.apache.maven.surefire.testng.TestNGDirectoryTestSuite.execute(TestNGDirectoryTestSuite.java:101) org.apache.maven.surefire.testng.TestNGProvider.invoke(TestNGProvider.java:115) sun.reflect.NativeMethodAccessorImpl.invoke0(Native Method) sun.reflect.NativeMethodAccessorImpl.invoke(NativeMethodAccessorImpl.java:57) sun.reflect.DelegatingMethodAccessorImpl.invoke(DelegatingMethodAccessorImpl.java:43) java.lang.reflect.Method.invoke(Method.java:601) org.apache.maven.surefire.util.ReflectionUtils.invokeMethodWithArray(ReflectionUtils.java:189) org.apache.maven.surefire.booter.ProviderFactory$ProviderProxy.invoke(ProviderFactory.java:165) org.apache.maven.surefire.booter.ProviderFactory.invokeProvider(ProviderFactory.java:85) org.apache.maven.surefire.booter.ForkedBooter.runSuitesInProcess(ForkedBooter.java:103) org.apache.maven.surefire.booter.ForkedBooter.main(ForkedBooter.java:74) \u003d\u003d\u003d\u003d\u003d\u003d\u003d\u003d\u003d\u003d Test\nimport static org.hamcrest.MatcherAssert.assertThat;\nimport static org.hamcrest.Matchers.equalTo; import java.util.Locale; import org.testng.annotations.Test; import com.scispike.foundation.i18n.StringToLocaleConverter; public class LocaleStringConverterTest { StringToLocaleConverter converter \u003d new StringToLocaleConverter(); public void testStringToLocale(Locale l) {\n\t\tString s \u003d l.toString(); assertThat(converter.convert(s), equalTo(l));\n\t} @Test\n\tpublic void testAllLocales() { Locale[] locales \u003d Locale.getAvailableLocales();\n\t\tfor (Locale l : locales) {\n\t\t\ttestStringToLocale(l);\n\t\t}\n\t}\n} \u003d\u003d\u003d\u003d\u003d\u003d\u003d\u003d\u003d\u003d StringToLocaleConverter import java.util.Locale; import org.apache.commons.lang3.LocaleUtils;\nimport org.springframework.core.convert.converter.Converter; public class StringToLocaleConverter implements Converter\u003cString, Locale\u003e { @Override\n\tpublic Locale convert(String source) {\n\t\tif (source \u003d\u003d null) {\n\t\t\treturn LocaleToStringConverter.DEFAULT;\n\t\t}\n\t\treturn LocaleUtils.toLocale(source);\n\t}\n}"}
{"key":"LANG-746","title":"NumberUtils does not handle upper-case hex: 0X and -0X","description":"NumberUtils.createNumber() should work equally for 0x1234 and 0X1234; currently 0X1234 generates a NumberFormatException Integer.decode() handles both upper and lower case hex."}
{"key":"LANG-259","title":"ValuedEnum.compareTo(Object other) not typesafe - it easily could be...","description":"int org.apache.commons.lang.enums.ValuedEnum.compareTo(Object other) is not typesafe - if the int-values are the same, it will return \"0\" even for two totally different sub-classes of ValuedEnum"}
{"key":"LANG-624","title":"SystemUtils.getJavaVersionAsFloat throws StringIndexOutOfBoundsException on Android runtime/Dalvik VM","description":"Can be replicated in the Android emulator quite easily. Stack trace: {noformat} at org.apache.commons.lang.builder.ToStringBuilder.\u003cclinit\u003e(ToStringBuilder.java:98) E/AndroidRuntime( 1681): \t... 17 more E/AndroidRuntime( 1681): Caused by: java.lang.ExceptionInInitializerError E/AndroidRuntime( 1681): \tat org.apache.commons.lang.builder.ToStringStyle$MultiLineToStringStyle.\u003cinit\u003e(ToStringStyle.java:2276) E/AndroidRuntime( 1681): \tat org.apache.commons.lang.builder.ToStringStyle.\u003cclinit\u003e(ToStringStyle.java:94) E/AndroidRuntime( 1681): \t... 18 more E/AndroidRuntime( 1681): Caused by: java.lang.StringIndexOutOfBoundsException E/AndroidRuntime( 1681): \tat java.lang.String.substring(String.java:1571) E/AndroidRuntime( 1681): \tat org.apache.commons.lang.SystemUtils.getJavaVersionAsFloat(SystemUtils.java:1153) E/AndroidRuntime( 1681): \tat org.apache.commons.lang.SystemUtils.\u003cclinit\u003e(SystemUtils.java:818) {noformat}"}
{"key":"LANG-346","title":"Dates.round() behaves incorrectly for minutes and seconds","description":"Get unexpected output for rounding by minutes or seconds. public void testRound() { Calendar testCalendar \u003d Calendar.getInstance(TimeZone.getTimeZone(\"GMT\")); testCalendar.set(2007, 6, 2, 8, 9, 50); Date date \u003d testCalendar.getTime(); System.out.println(\"Before round() \" + date); System.out.println(\"After round()  \" + DateUtils.round(date, Calendar.MINUTE)); } --2.1 produces Before round() Mon Jul 02 03:09:50 CDT 2007 After round()  Mon Jul 02 03:10:00 CDT 2007 -- this is what I would expect --2.2 and 2.3 produces Before round() Mon Jul 02 03:09:50 CDT 2007 After round()  Mon Jul 02 03:01:00 CDT 2007 -- this appears to be wrong"}
{"key":"LANG-480","title":"StringEscapeUtils.escapeHtml incorrectly converts unicode characters above U+00FFFF into 2 characters","description":"Characters that are represented as a 2 characters internaly by java are incorrectly converted by the function. The following test displays the problem quite nicely: import org.apache.commons.lang. *; public class J2 {\n    public static void main(String[] args) throws Exception {\n        // this is the utf8 representation of the character:\n        // COUNTING ROD UNIT DIGIT THREE\n        // in unicode\n        // codepoint: U+1D362\n        byte[] data \u003d new byte[] { (byte)0xF0, (byte)0x9D, (byte)0x8D, (byte)0xA2 }; //output is: \u0026amp;#55348;\u0026amp;#57186;\n        // should be: \u0026amp;#119650;\n        System.out.println(\"\u0027\" + StringEscapeUtils.escapeHtml(new String(data, \"UTF8\")) + \"\u0027\");\n    }\n} Should be very quick to fix, feel free to drop me an email if you want a patch."}
{"key":"LANG-645","title":"FastDateFormat.format() outputs incorrect week of year because locale isn\u0027t respected","description":"FastDateFormat apparently doesn\u0027t respect the locale it was sent on creation when outputting week in year (e.g. \"ww\") in format(). It seems to use the settings of the system locale for firstDayOfWeek and minimalDaysInFirstWeek, which (depending on the year) may result in the incorrect week number being output. Here is a simple test program to demonstrate the problem by comparing with SimpleDateFormat, which gets the week number right: {code}\nimport java.util.Calendar;\nimport java.util.Date;\nimport java.util.Locale;\nimport java.text.SimpleDateFormat; import org.apache.commons.lang.time.FastDateFormat; public class FastDateFormatWeekBugDemo {\n    public static void main(String[] args) {\n        Locale.setDefault(new Locale(\"en\", \"US\"));\n        Locale locale \u003d new Locale(\"sv\", \"SE\"); Calendar cal \u003d Calendar.getInstance(); // setting locale here doesn\u0027t change outcome\n        cal.set(2010, 0, 1, 12, 0, 0);\n        Date d \u003d cal.getTime();\n        System.out.println(\"Target date: \" + d); FastDateFormat fdf \u003d FastDateFormat.getInstance(\"EEEE\u0027, week \u0027ww\", locale);\n        SimpleDateFormat sdf \u003d new SimpleDateFormat(\"EEEE\u0027, week \u0027ww\", locale);\n        System.out.println(\"FastDateFormat:   \" + fdf.format(d)); // will output \"FastDateFormat:   fredag, week 01\"\n        System.out.println(\"SimpleDateFormat: \" + sdf.format(d)); // will output \"SimpleDateFormat: fredag, week 53\"\n    }\n}\n{code} If sv/SE is passed to Locale.setDefault() instead of en/US, both FastDateFormat and SimpleDateFormat output the correct week number."}
{"key":"LANG-292","title":"unescapeXml(\"\u002612345678;\") should be \"\u002612345678;\"","description":"Following test (in EntitiesTest.java) fails: public void testNumberOverflow() throws Exception {\n        doTestUnescapeEntity(\"\u0026#12345678;\", \"\u0026#12345678;\");\n        doTestUnescapeEntity(\"x\u0026#12345678;y\", \"x\u0026#12345678;y\");\n        doTestUnescapeEntity(\"\u0026#x12345678;\", \"\u0026#x12345678;\");\n        doTestUnescapeEntity(\"x\u0026#x12345678;y\", \"x\u0026#x12345678;y\");\n    } Maximim value for char is 0xFFFF, so \u0026#12345678; is invalid entity reference, and so should be left as is."}
{"key":"LANG-363","title":"StringEscapeUtils.escapeJavaScript() method did not escape \u0027/\u0027 into \u0027\\/\u0027, it will make IE render page uncorrectly","description":"If Javascripts including\u0027/\u0027, IE will parse the scripts uncorrectly, actually \u0027/\u0027 should be escaped to \u0027\\/\u0027. For example, document.getElementById(\"test\"). value \u003d \u0027\u003cscript\u003ealert(\\\u0027aaa\\\u0027);\u003c/script\u003e\u0027;this expression will make IE render page uncorrect, it should be document.getElementById(\"test\"). value \u003d \u0027\u003cscript\u003ealert(\\\u0027aaa\\\u0027);\u003c\\/script\u003e\u0027; Btw, Spring\u0027s JavascriptEscape behavor is correct. Try  to run below codes, you will find the difference:\n  String s \u003d \"\u003cscript\u003ealert(\u0027aaa\u0027);\u003c/script\u003e\";\n  String str \u003d org.springframework.web.util.JavaScriptUtils.javaScriptEscape(s);\n  System.out.println(\"Spring JS Escape : \"+str);\n  str \u003d org.apache.commons.lang.StringEscapeUtils.escapeJavaScript(s);\n  System.out.println(\"Apache Common Lang JS Escape : \"+ str);"}
{"key":"LANG-788","title":"SerializationUtils throws ClassNotFoundException when cloning primitive classes","description":"If a serializable object contains a reference to a primitive class, e.g. int.class or int[].class, the SerializationUtils throw a ClassNotFoundException when trying to clone that object. {noformat} import org.apache.commons.lang3.SerializationUtils; import org.junit.Test; public class SerializationUtilsTest { @Test public void primitiveTypeClassSerialization(){ Class\u003c?\u003e primitiveType \u003d int.class; Class\u003c?\u003e clone \u003d SerializationUtils.clone(primitiveType); assertEquals(primitiveType, clone); } } {noformat} The problem was already reported as a java bug http://bugs.sun.com/view_bug.do?bug_id\u003d4171142 and ObjectInputStream is fixed since java version 1.4. The SerializationUtils problem arises because the SerializationUtils internally use the ClassLoaderAwareObjectInputStream that overrides the ObjectInputStream\u0027s resoleClass method without delegating to the super method in case of a ClassNotFoundException. I understand the intention of the ClassLoaderAwareObjectInputStream, but this implementation should also implement a fallback to the original implementation. For example: {noformat} protected Class\u003c?\u003e resolveClass(ObjectStreamClass desc) throws IOException, ClassNotFoundException { String name \u003d desc.getName(); try { return Class.forName(name, false, classLoader); } catch (ClassNotFoundException ex) { try { return Class.forName(name, false, Thread.currentThread(). getContextClassLoader()); } catch (Exception e) { return super.resolveClass(desc); } } } {noformat} Here is the code in ObjectInputStream that fixed the java bug. {noformat} protected Class\u003c?\u003e resolveClass(ObjectStreamClass desc) throws IOException, ClassNotFoundException { String name \u003d desc.getName(); try { return Class.forName(name, false, latestUserDefinedLoader()); } catch (ClassNotFoundException ex) { Class cl \u003d (Class) primClasses.get(name); if (cl ! \u003d null) { return cl; } else { throw ex; } } } {noformat}"}
{"key":"LANG-538","title":"DateFormatUtils.format does not correctly change Calendar TimeZone in certain situations","description":"If a Calendar object is constructed in certain ways a call to Calendar.setTimeZone does not correctly change the Calendars fields. Calling Calenar.getTime() seems to fix this problem. While this is probably a bug in the JDK, it would be nice if DateFormatUtils was smart enough to detect/resolve this problem. For example, the following unit test fails: {noformat}\n  public void testFormat_CalendarIsoMsZulu() {\n    final String dateTime \u003d \"2009-10-16T16:42:16.000Z\"; // more commonly constructed with: cal \u003d new GregorianCalendar(2009, 9, 16, 8, 42, 16)\n    // for the unit test to work in any time zone, constructing with GMT-8 rather than default locale time zone\n    GregorianCalendar cal \u003d new GregorianCalendar(TimeZone.getTimeZone(\"GMT-8\"));\n    cal.clear();\n    cal.set(2009, 9, 16, 8, 42, 16); FastDateFormat format \u003d FastDateFormat.getInstance(\"yyyy-MM-dd\u0027T\u0027HH:mm:ss.SSS\u0027Z\u0027\", TimeZone.getTimeZone(\"GMT\"));\n    assertEquals(\"dateTime\", dateTime, format.format(cal));\n  }\n{noformat} However, this unit test passes: {noformat}\n  public void testFormat_CalendarIsoMsZulu() {\n    final String dateTime \u003d \"2009-10-16T16:42:16.000Z\";\n    GregorianCalendar cal \u003d new GregorianCalendar(TimeZone.getTimeZone(\"GMT-8\"));\n    cal.clear();\n    cal.set(2009, 9, 16, 8, 42, 16);\n    cal.getTime(); FastDateFormat format \u003d FastDateFormat.getInstance(\"yyyy-MM-dd\u0027T\u0027HH:mm:ss.SSS\u0027Z\u0027\", TimeZone.getTimeZone(\"GMT\"));\n    assertEquals(\"dateTime\", dateTime, format.format(cal));\n  }\n{noformat}"}
{"key":"LANG-662","title":"org.apache.commons.lang3.math.Fraction does not reduce (Integer.MIN_VALUE, 2^k)","description":"The greatestCommonDivisor method in class Fraction does not find the gcd of Integer.MIN_VALUE and 2^k, and this case can be triggered by taking Integer.MIN_VALUE as the numerator. Note that the case of taking Integer.MIN_VALUE as the denominator is handled explicitly in the getReducedFraction factory method. {code:title\u003dFractionTest.java|borderStyle\u003dsolid}\n\t// additional test cases\n\tpublic void testReducedFactory_int_int() {\n\t\t// ...\n\t\tf \u003d Fraction.getReducedFraction(Integer.MIN_VALUE, 2);\n\t\tassertEquals(Integer.MIN_VALUE / 2, f.getNumerator());\n\t\tassertEquals(1, f.getDenominator()); public void testReduce() {\n\t\t// ...\n\t\tf \u003d Fraction.getFraction(Integer.MIN_VALUE, 2);\n\t\tresult \u003d f.reduce();\n\t\tassertEquals(Integer.MIN_VALUE / 2, result.getNumerator());\n\t\tassertEquals(1, result.getDenominator());\n{code}"}
{"key":"LANG-295","title":"StrBuilder contains usages of thisBuf.length when they should use size","description":"While fixing LANG-294 I noticed that there are two other places in StrBuilder that reference thisBuf.length and unless I\u0027m mistaken they shouldn\u0027t."}
{"key":"LANG-393","title":"EqualsBuilder don\u0027t compare BigDecimals correctly ","description":"When comparing a BigDecimal, the comparing is made using equals, not compareTo, which is more appropriate in the case of BigDecimal."}
{"key":"LANG-831","title":"FastDateParser does not handle white-space properly","description":"The SimpleDateFormat Javadoc does not treat white-space specially, however FastDateParser treats a single white-space as being any number of white-space characters. This means that FDP will parse dates that fail when parsed by SDP."}
{"key":"LANG-552","title":"StringUtils replaceEach - Bug or Missing Documentation ","description":"The following Test Case for replaceEach fails with a null pointer exception. I have expected that all StringUtils methods are \"null-friendly\" The use case is that i will stuff Values into the replacementList of which I do not want to check whether they are null. I admit the use case is not perfect, because it is unclear what happens on the replace. I outlined three expectations in the test case, of course only one should be met. If it is decided that none of them should be possible, I propose to update the documentation with what happens when null is passed as replacement string {code} import static org.junit.Assert.assertEquals; import org.apache.commons.lang.StringUtils; import org.junit.Test; public class StringUtilsTest { @Test public void replaceEach(){ String original \u003d \"Hello World!\" ; String[] searchList \u003d {\"Hello\", \"World\"}; String[] replacementList \u003d {\"Greetings\", null}; String result \u003d StringUtils.replaceEach(original, searchList, replacementList); assertEquals(\"Greetings !\" , result); //perhaps this is ok as well //assertEquals(\"Greetings World!\" , result); //or even //assertEquals(\"Greetings null!\" , result); } } {code}"}
{"key":"LANG-300","title":"NumberUtils.createNumber throws NumberFormatException for one digit long","description":"NumberUtils.createNumber throws a NumberFormatException when parsing \"1l\", \"2l\" . . etc.. . It works fine if you try to parse \"01l\" or \"02l\". The condition isDigits(numeric.substring(1)), line 455 return false as numeric.substring(1) is an empty string for \"1l\""}
{"key":"LANG-710","title":"StringIndexOutOfBoundsException when calling unescapeHtml4(\"\u0026#03\")","description":"When calling unescapeHtml4() on the String \"\u0026#03\" (or any String that contains these characters) an Exception is thrown: Exception in thread \"main\" java.lang.StringIndexOutOfBoundsException: String index out of range: 4 \tat java.lang.String.charAt(String.java:686) \tat org.apache.commons.lang3.text.translate.NumericEntityUnescaper.translate(NumericEntityUnescaper.java:49) \tat org.apache.commons.lang3.text.translate.AggregateTranslator.translate(AggregateTranslator.java:53) \tat org.apache.commons.lang3.text.translate.CharSequenceTranslator.translate(CharSequenceTranslator.java:88) \tat org.apache.commons.lang3.text.translate.CharSequenceTranslator.translate(CharSequenceTranslator.java:60) \tat org.apache.commons.lang3.StringEscapeUtils.unescapeHtml4(StringEscapeUtils.java:351)"}
{"key":"LANG-432","title":"Fix case-insensitive string handling","description":"{{String.to*Case()}} is locale-sensitive, this is usually not intended for case-insensitive comparisions. Please see [Common Bug #3|http://www.nabble.com/Re%3A-Common-Bugs-p14931921s177.html] for details."}
{"key":"LANG-315","title":"StopWatch: suspend() acts as split(), if followed by stop()","description":"In my opinion, it is a bug that suspend() acts as split(), if followed by stop(); see below: StopWatch sw \u003d new StopWatch(); sw.start(); Thread.sleep(1000); sw.suspend(); // Time 1 (ok) System.out.println(sw.getTime()); Thread.sleep(2000); // Time 1 (again, ok) System.out.println(sw.getTime()); sw.resume(); Thread.sleep(3000); sw.suspend(); // Time 2 (ok) System.out.println(sw.getTime()); Thread.sleep(4000); // Time 2 (again, ok) System.out.println(sw.getTime()); Thread.sleep(5000); sw.stop(); // Time 2 (should be, but is Time 3 \u003d\u003e NOT ok) System.out.println(sw.getTime()); suspend/resume is like a pause, where time counter doesn\u0027t continue. So a following stop()-call shouldn\u0027t increase the time counter, should it?"}
{"key":"LANG-586","title":"Use of ThreadLocals in ToStringStyle and HashCodeBuilder trigger memory leaks in container environments","description":"The thread local in org.apache.commons.lang3.builder.ToStringStyle is created but never removed and no API is provided to remove it. If a webapp\u0027s use of LANG triggers the loading of this class, a reference chain will be created that will cause a memory leak on web application reload. See http://markmail.org/thread/uetw2fdrsqgbh2cv for more info."}
{"key":"LANG-719","title":"FastDateFormat formats year differently than SimpleDateFormat in Java 7","description":"Starting with Java 7 does SimpleDateFormat format a year pattern of \u0027Y\u0027 or \u0027YYY\u0027 as \u00272003\u0027 instead of \u002703\u0027 as in former Java releases. According Javadoc this pattern should have been always been formatted as number, therefore the new behavior seems to be a bug fix in the JDK. FastDateFormat is adjusted to behave the same."}
{"key":"LANG-457","title":"NumberUtils createNumber thows a StringIndexOutOfBoundsException when only an \"l\" is passed in.","description":"Seems to be similar to LANG-300, except that if you don\u0027t place a digit in front of the \"l\" or \"L\" it throws a StringIndexOutOfBoundsException instead."}
{"key":"LANG-832","title":"FastDateParser does not handle unterminated quotes correctly","description":"FDP does not handled unterminated quotes the same way as SimpleDateFormat For example: Format: \u0027d\u0027d\u0027\nDate: d3 This should fail to parse the format and date but it actually works. The format is parsed as: Pattern: d(\\p{IsNd}++)"}
{"key":"LANG-857","title":"StringIndexOutOfBoundsException in CharSequenceTranslator","description":"I found that there is bad surrogate pair handling in the CharSequenceTranslator This is a simple test case for this problem. \\uD83D\\uDE30 is a surrogate pair. {code:java} @Test public void testEscapeSurrogatePairs() throws Exception { assertEquals(\"\\uD83D\\uDE30\", StringEscapeUtils.escapeCsv(\"\\uD83D\\uDE30\")); } {code} You\u0027ll get the exception as shown below. {code} java.lang.StringIndexOutOfBoundsException: String index out of range: 2 \tat java.lang.String.charAt(String.java:658) \tat java.lang.Character.codePointAt(Character.java:4668) \tat org.apache.commons.lang3.text.translate.CharSequenceTranslator.translate(CharSequenceTranslator.java:95) \tat org.apache.commons.lang3.text.translate.CharSequenceTranslator.translate(CharSequenceTranslator.java:59) \tat org.apache.commons.lang3.StringEscapeUtils.escapeCsv(StringEscapeUtils.java:556) {code} Patch attached, the method affected: # public final void translate(CharSequence input, Writer out) throws IOException"}
