"DATACMNS_1_11_4";"DATACMNS-909"
"DATACMNS_1_9_1";"DATACMNS-590"
"DATACMNS_1_5_3";"DATACMNS-352"
"DATACMNS_1_9_1";"DATACMNS-594"
"DATACMNS_1_5_3";"DATACMNS-353"
"DATACMNS_1_3_2";"DATACMNS-233"
"DATACMNS_1_10_2";"DATACMNS-750"
"DATACMNS_1_9_4";"DATACMNS-597"
"DATACMNS_1_1_0";"DATACMNS-114"
"DATACMNS_1_7_1";"DATACMNS-477"
"DATACMNS_1_12_2";"DATACMNS-874"
"DATACMNS_1_7_3";"DATACMNS-511"
"DATACMNS_1_5_3";"DATACMNS-358"
"DATACMNS_1_7_1";"DATACMNS-479"
"DATACMNS_1_5_3";"DATACMNS-359"
"DATACMNS_1_1_0";"DATACMNS-117"
"DATACMNS_1_1_0";"DATACMNS-238"
"DATACMNS_1_10_2";"DATACMNS-755"
"DATACMNS_1_3_2";"DATACMNS-239"
"DATACMNS_1_1_0";"DATACMNS-92"
"DATACMNS_1_12_2";"DATACMNS-912"
"DATACMNS_1_6_2";"DATACMNS-518"
"DATACMNS_1_7_2";"DATACMNS-519"
"DATACMNS_1_12_6";"DATACMNS-916"
"DATACMNS_1_0_0";"DATACMNS-98"
"DATACMNS_1_0_0";"DATACMNS-99"
"DATACMNS_1_0_0";"DATACMNS-19"
"DATACMNS_1_5_2";"DATACMNS-360"
"DATACMNS_1_5_2";"DATACMNS-362"
"DATACMNS_1_1_0";"DATACMNS-120"
"DATACMNS_1_5_2";"DATACMNS-363"
"DATACMNS_1_12_2";"DATACMNS-880"
"DATACMNS_1_10_2";"DATACMNS-760"
"DATACMNS_1_9_2";"DATACMNS-640"
"DATACMNS_1_10_2";"DATACMNS-761"
"DATACMNS_1_11_4";"DATACMNS-882"
"DATACMNS_1_5_2";"DATACMNS-366"
"DATACMNS_1_11_4";"DATACMNS-883"
"DATACMNS_1_1_0";"DATACMNS-125"
"DATACMNS_1_10_2";"DATACMNS-763"
"DATACMNS_1_12_3";"DATACMNS-921"
"DATACMNS_1_9_2";"DATACMNS-648"
"DATACMNS_1_10_2";"DATACMNS-769"
"DATACMNS_1_6_1";"DATACMNS-408"
"DATACMNS_1_11_2";"DATACMNS-804"
"DATACMNS_1_0_0";"DATACMNS-23"
"DATACMNS_1_2_1";"DATACMNS-132"
"DATACMNS_1_2_1";"DATACMNS-133"
"DATACMNS_1_5_3";"DATACMNS-376"
"DATACMNS_1_10_2";"DATACMNS-772"
"DATACMNS_1_6_2";"DATACMNS-410"
"DATACMNS_1_6_1";"DATACMNS-377"
"DATACMNS_1_10_2";"DATACMNS-773"
"DATACMNS_1_3_2";"DATACMNS-257"
"DATACMNS_1_6_3";"DATACMNS-412"
"DATACMNS_1_6_1";"DATACMNS-379"
"DATACMNS_1_11_4";"DATACMNS-896"
"DATACMNS_1_2_1";"DATACMNS-139"
"DATACMNS_1_6_3";"DATACMNS-415"
"DATACMNS_1_10_2";"DATACMNS-779"
"DATACMNS_1_11_4";"DATACMNS-812"
"DATACMNS_1_11_6";"DATACMNS-934"
"DATACMNS_1_6_3";"DATACMNS-419"
"DATACMNS_1_12_5";"DATACMNS-939"
"DATACMNS_1_0_0";"DATACMNS-38"
"DATACMNS_1_3_2";"DATACMNS-263"
"DATACMNS_1_6_1";"DATACMNS-385"
"DATACMNS_1_6_2";"DATACMNS-387"
"DATACMNS_1_4_1";"DATACMNS-300"
"DATACMNS_1_9_4";"DATACMNS-663"
"DATACMNS_1_4_1";"DATACMNS-304"
"DATACMNS_1_12_5";"DATACMNS-943"
"DATACMNS_1_10_2";"DATACMNS-789"
"DATACMNS_1_9_4";"DATACMNS-702"
"DATACMNS_1_6_1";"DATACMNS-429"
"DATACMNS_1_4_1";"DATACMNS-309"
"DATACMNS_1_0_0";"DATACMNS-40"
"DATACMNS_1_9_4";"DATACMNS-705"
"DATACMNS_1_0_0";"DATACMNS-42"
"DATACMNS_1_11_6";"DATACMNS-828"
"DATACMNS_1_11_4";"DATACMNS-829"
"DATACMNS_1_0_0";"DATACMNS-44"
"DATACMNS_1_0_0";"DATACMNS-45"
"DATACMNS_1_5_2";"DATACMNS-390"
"DATACMNS_1_3_2";"DATACMNS-271"
"DATACMNS_1_3_2";"DATACMNS-272"
"DATACMNS_1_0_0";"DATACMNS-153"
"DATACMNS_1_9_4";"DATACMNS-670"
"DATACMNS_1_2_1";"DATACMNS-154"
"DATACMNS_1_3_2";"DATACMNS-276"
"DATACMNS_1_6_3";"DATACMNS-432"
"DATACMNS_1_2_1";"DATACMNS-157"
"DATACMNS_1_0_0";"DATACMNS-158"
"DATACMNS_1_12_1";"DATACMNS-951"
"DATACMNS_1_11_4";"DATACMNS-831"
"DATACMNS_1_6_3";"DATACMNS-436"
"DATACMNS_1_9_4";"DATACMNS-711"
"DATACMNS_1_10_2";"DATACMNS-799"
"DATACMNS_1_8_5";"DATACMNS-715"
"DATACMNS_1_0_0";"DATACMNS-52"
"DATACMNS_1_8_5";"DATACMNS-717"
"DATACMNS_1_8_5";"DATACMNS-719"
"DATACMNS_1_0_0";"DATACMNS-55"
"DATACMNS_1_0_0";"DATACMNS-57"
"DATACMNS_1_4_1";"DATACMNS-281"
"DATACMNS_1_2_1";"DATACMNS-160"
"DATACMNS_1_4_1";"DATACMNS-283"
"DATACMNS_1_6_5";"DATACMNS-441"
"DATACMNS_1_5_1";"DATACMNS-320"
"DATACMNS_1_9_4";"DATACMNS-683"
"DATACMNS_1_8_2";"DATACMNS-562"
"DATACMNS_1_4_1";"DATACMNS-323"
"DATACMNS_1_8_6";"DATACMNS-565"
"DATACMNS_1_9_4";"DATACMNS-720"
"DATACMNS_1_7_3";"DATACMNS-566"
"DATACMNS_1_12_5";"DATACMNS-963"
"DATACMNS_1_9_4";"DATACMNS-722"
"DATACMNS_1_10_2";"DATACMNS-843"
"DATACMNS_1_5_1";"DATACMNS-327"
"DATACMNS_1_12_1";"DATACMNS-848"
"DATACMNS_1_9_1";"DATACMNS-609"
"DATACMNS_1_0_0";"DATACMNS-65"
"DATACMNS_1_0_0";"DATACMNS-68"
"DATACMNS_1_0_0";"DATACMNS-69"
"DATACMNS_1_2_1";"DATACMNS-170"
"DATACMNS_1_10_2";"DATACMNS-690"
"DATACMNS_1_9_4";"DATACMNS-692"
"DATACMNS_1_2_1";"DATACMNS-176"
"DATACMNS_1_6_5";"DATACMNS-453"
"DATACMNS_1_8_5";"DATACMNS-695"
"DATACMNS_1_5_1";"DATACMNS-333"
"DATACMNS_1_9_4";"DATACMNS-697"
"DATACMNS_1_9_3";"DATACMNS-733"
"DATACMNS_1_11_4";"DATACMNS-854"
"DATACMNS_1_12_1";"DATACMNS-856"
"DATACMNS_1_0_0";"DATACMNS-70"
"DATACMNS_1_10_1";"DATACMNS-736"
"DATACMNS_1_9_1";"DATACMNS-616"
"DATACMNS_1_12_1";"DATACMNS-859"
"DATACMNS_1_5_1";"DATACMNS-341"
"DATACMNS_1_8_4";"DATACMNS-583"
"DATACMNS_1_3_2";"DATACMNS-221"
"DATACMNS_1_5_3";"DATACMNS-343"
"DATACMNS_1_12_1";"DATACMNS-860"
"DATACMNS_1_5_1";"DATACMNS-345"
"DATACMNS_1_12_1";"DATACMNS-862"
"DATACMNS_1_11_4";"DATACMNS-863"
"DATACMNS_1_3_2";"DATACMNS-226"
"DATACMNS_1_7_2";"DATACMNS-501"
"DATACMNS_1_7_2";"DATACMNS-502"
"DATACMNS_1_3_2";"DATACMNS-228"
"DATACMNS_1_12_2";"DATACMNS-900"
"DATACMNS_1_1_0";"DATACMNS-108"
"DATACMNS_1_1_0";"DATACMNS-81"
"DATACMNS_1_1_0";"DATACMNS-109"
"DATACMNS_1_10_2";"DATACMNS-748"
"DATACMNS_1_7_3";"DATACMNS-509"
"DATACMNS_1_10_2";"DATACMNS-906"
