"IO_1_4";"IO-190"
"IO_2_4";"IO-390"
"IO_1_3_2";"IO-150"
"IO_1_4";"IO-272"
"IO_2_4";"IO-197"
"IO_2_0_1";"IO-274"
"IO_1_4";"IO-231"
"IO_2_3";"IO-354"
"IO_1_3";"IO-112"
"IO_2_0_1";"IO-277"
"IO_2_3";"IO-355"
"IO_1_3";"IO-113"
"IO_2_4";"IO-356"
"IO_2_5";"IO-512"
"IO_2_4";"IO-436"
"IO_1_2";"IO-90"
"IO_1_3_1";"IO-117"
"IO_1_2";"IO-91"
"IO_1_2";"IO-93"
"IO_2_1";"IO-319"
"IO_1_2";"IO-96"
"IO_1_2";"IO-99"
"IO_1_3_2";"IO-160"
"IO_1_4";"IO-161"
"IO_2_4";"IO-481"
"IO_1_4";"IO-163"
"IO_2_4";"IO-362"
"IO_2_4";"IO-484"
"IO_1_4";"IO-166"
"IO_1_0";"IO-243"
"IO_1_4";"IO-167"
"IO_1_4";"IO-201"
"IO_1_4";"IO-168"
"IO_2_3";"IO-323"
"IO_1_4";"IO-246"
"IO_1_4";"IO-202"
"IO_2_0_1";"IO-368"
"IO_1_4";"IO-248"
"IO_2_0";"IO-206"
"IO_1_4";"IO-207"
"IO_2_3";"IO-329"
"IO_1_4";"IO-209"
"IO_1_3_2";"IO-66"
"IO_2_4";"IO-492"
"IO_2_4";"IO-494"
"IO_1_4";"IO-252"
"IO_2_4";"IO-374"
"IO_1_1";"IO-132"
"IO_2_3";"IO-331"
"IO_2_1";"IO-298"
"IO_2_1";"IO-453"
"IO_2_0_1";"IO-299"
"IO_1_4";"IO-212"
"IO_1_3_2";"IO-179"
"IO_2_0";"IO-257"
"IO_1_3_2";"IO-136"
"IO_2_0";"IO-258"
"IO_2_3";"IO-336"
"IO_1_4";"IO-216"
"IO_1_4";"IO-217"
"IO_2_4";"IO-339"
"IO_1_3_2";"IO-74"
"IO_1_1";"IO-79"
"IO_1_4";"IO-180"
"IO_1_4";"IO-181"
"IO_2_0_1";"IO-260"
"IO_2_4";"IO-383"
"IO_1_4";"IO-185"
"IO_1_3_2";"IO-141"
"IO_2_0_1";"IO-263"
"IO_2_0";"IO-264"
"IO_2_4";"IO-462"
"IO_1_0";"IO-220"
"IO_1_2";"IO-187"
"IO_1_2";"IO-100"
"IO_2_4";"IO-343"
"IO_1_2";"IO-101"
"IO_2_0_1";"IO-266"
"IO_1_3";"IO-223"
"IO_2_4";"IO-466"
"IO_1_3_2";"IO-147"
"IO_2_1";"IO-302"
"IO_2_4";"IO-423"
"IO_2_1";"IO-303"
"IO_2_1";"IO-304"
"IO_2_4";"IO-502"
"IO_2_1";"IO-306"
"IO_2_1";"IO-307"
"IO_2_0_1";"IO-428"
"IO_1_2";"IO-83"
"IO_1_2";"IO-84"
