{"id":2697,"bug_id":"COMPRESS-332","text":"FramedSnappyCompressorInputStream.read() returns 0 when the end of stream has been reached rather than -1. It appears that this may be caused by SnappyCompressorInputStream.read(byte[], int, int) returning 0 instead of -1 at the end of stream when the exact number of bytes have been read.","file_goldset":["org.apache.commons.compress.compressors.snappy.SnappyCompressorInputStream"],"creation_date":"2016-01-26T14:12:44.000-06:00","resolution_date":"2016-01-29T20:38:24.000-06:00"}
{"id":2698,"bug_id":"COMPRESS-357","text":"BZip2CompressorOutputStream has an unsynchronized finished() method, and an unsynchronized finalize method. Finish checks to see if the output stream is null, and if it is not it calls various methods, some of which write to the output stream.       At some point the garbage collector call finalize(), which calls finish().    1) synchronize finish() or 2) don\u0027t call finish from finalize().","file_goldset":["org.apache.commons.compress.compressors.bzip2.BZip2CompressorOutputStream"],"creation_date":"2016-05-25T17:50:50.000-05:00","resolution_date":"2016-06-15T04:19:37.000-05:00"}
{"id":2699,"bug_id":"COMPRESS-171","text":"createArchiveInputStream detects text files less than 100 bytes as tar archives. The fix for COMPRESS-117 which modified ArchiveStreamFactory(). createArchiveInputStream(inputstream) results in short text files (empirically seems to be those \u003c\u003d 100 bytes) being detected as tar archives which obviously is not desirable if one wants to know whether or not the files are archives. I\u0027m not an expert on compressed archives but perhaps the heuristic that if a stream is interpretable as a tar file without an exception being thrown should only be applied on archives greater than 100 bytes?","file_goldset":["org.apache.commons.compress.archivers.ArchiveStreamFactory"],"creation_date":"2012-01-20T17:54:09.000-06:00","resolution_date":"2012-01-29T20:57:38.000-06:00"}
{"id":2700,"bug_id":"COMPRESS-178","text":"TarArchiveInputStream throws IllegalArgumentException instead of IOException. TarArchiveInputStream is throwing  IllegalArgumentException instead of IOException on corrupt files, in direct contradiction to the Javadoc. Here is a stack-trace:                                Expected behavior: TarArchiveInputStream should wrap the IllegalArgumentException in an IOException.","file_goldset":["org.apache.commons.compress.archivers.tar.TarArchiveInputStream","org.apache.commons.compress.archivers.TarTestCase"],"creation_date":"2012-02-21T15:27:31.000-06:00","resolution_date":"2012-02-23T01:05:25.000-06:00"}
{"id":2701,"bug_id":"COMPRESS-244","text":"Brief description large values with a first byte indicating at least 4 additional bytes shift an integer by at least 32bits thus leading to an overflow and an incorrect value - the value needs to be casted to long before the bitshift!","file_goldset":["org.apache.commons.compress.archivers.sevenz.SevenZFile"],"creation_date":"2013-11-25T12:36:51.000-06:00","resolution_date":"2013-11-27T05:36:33.000-06:00"}
{"id":2702,"bug_id":"COMPRESS-245","text":"TarArchiveInputStream#getNextTarEntry returns null prematurely. The attached archive decompressed with 1.6 only extracts part of the archive.       The file is created with tar cvzf in RHEL 6.5 and the contents look like this when extracted with the same tool:                                                                           with commons-compress-1.6 it looks like this:","file_goldset":["org.apache.commons.compress.archivers.tar.TarArchiveInputStreamTest","org.apache.commons.compress.archivers.tar.TarArchiveInputStream"],"creation_date":"2013-12-05T11:01:39.000-06:00","resolution_date":"2013-12-06T05:23:51.000-06:00"}
{"id":2703,"bug_id":"COMPRESS-273","text":"NullPointerException when creation fields/entries from scratch. However, when these 0-argument constructors are used, certain internal references are null, resulting in a NullPointerException soon after.  Either (1) these constructors should be non-public, (2) there should be documentation that certain fields need to be set later for an instance to be usable.","file_goldset":["org.apache.commons.compress.archivers.cpio.CpioArchiveEntry","org.apache.commons.compress.archivers.zip.UnrecognizedExtraField","org.apache.commons.compress.archivers.zip.ExtraFieldUtils","org.apache.commons.compress.archivers.zip.AbstractUnicodeExtraField"],"creation_date":"2014-04-11T04:13:32.000-05:00","resolution_date":"2014-04-18T14:14:16.000-05:00"}
