{"id":2727,"bug_id":"DATAMONGO-1263","text":"When an association between documents involves generic types, the type information is not correctly inferred at startup time resulting in missing indexes.      The index \"name\" inherited from AbstractProduct is created (book2.content.name) inside \"catalog\" , but the index defined on the Book class itself (isbn) is not created as Spring Data Mongo is only inferring type infromation from the ProductWrapper class definition (ProductWrapper \u003cT extends AbstractProduct\u003e). Spring Data MongoDB should be able to infer type information from the list declaration ( List\u003cProductWrapper\u003cBook\u003e\u003e ), becoming aware that Catalog contains a list of Books, hence indexes defined on Book should be created. If the wrapper class is defined as ProductWrapper\u003cT\u003e, then no indexes are created at all on Catalog.books2.content.","file_goldset":["org.springframework.data.mongodb.core.index.MongoPersistentEntityIndexResolverUnitTests","org.springframework.data.mongodb.core.index.MongoPersistentEntityIndexResolver"],"creation_date":"2015-07-30T09:03:41.000-05:00","resolution_date":"2015-11-09T19:09:44.000-06:00"}
{"id":2728,"bug_id":"DATAMONGO-505","text":"The execution of findByProperty() will fail as the given array (or collection) is not correctly translated into a collection of DBRefs. The reason is that ConvertingIterator treats the value as is and wants to create a DBRef from it. We need to unwrap the elements and convert them into DBRef instances one by one.","file_goldset":["org.springframework.data.mongodb.repository.query.ConvertingParameterAccessorUnitTests","org.springframework.data.mongodb.repository.query.ConvertingParameterAccessor"],"creation_date":"2012-08-14T03:07:56.000-05:00","resolution_date":"2012-08-15T10:09:59.000-05:00"}
{"id":2729,"bug_id":"DATAMONGO-987","text":"The following situation should never happen:   mongoTemplate.save(parent); //ok, it is persisted like we expected.     // The child attribute should be null, right? assertNull(persisted.getChild()); // it fails    I attached a project with the JUnit test which reproduces the problem for you.","file_goldset":["org.springframework.data.mongodb.core.convert.MappingMongoConverter","org.springframework.data.mongodb.core.convert.DbRefMappingMongoConverterUnitTests"],"creation_date":"2014-07-14T12:01:52.000-05:00","resolution_date":"2014-07-17T06:20:13.000-05:00"}
{"id":2730,"bug_id":"DATAMONGO-420","text":"Extra quotes being added to @Query values and fields. Quotes are being added to values passed into @Query annotations.         Whatever I pass into \"values\" or \"fields\" gets wrapped in quotes when inserted into the query sent to MongoDB.  -\u003e rendered as -  -\u003e This is not a valid query - the double quotes around it break it.  -\u003e rendered as -  -\u003e This is not a valid projection - the double quotes around it break it.    -\u003e This is not a valid projection - the double quotes around zero turn it into a string so it renders as \"true\" instead of 0/undefined.","file_goldset":["org.springframework.data.mongodb.repository.query.StringBasedMongoQueryUnitTests","org.springframework.data.mongodb.repository.query.StringBasedMongoQuery"],"creation_date":"2012-03-22T10:09:35.000-05:00","resolution_date":"2014-07-17T12:51:47.000-05:00"}
{"id":2731,"bug_id":"DATAMONGO-1290","text":"@Query annotation with byte[] parameter does not work. In a repository, these finders should be equivalent:     ... but only the first works.","file_goldset":["org.springframework.data.mongodb.repository.query.StringBasedMongoQuery","org.springframework.data.mongodb.repository.query.StringBasedMongoQueryUnitTests"],"creation_date":"2015-09-17T15:30:23.000-05:00","resolution_date":"2015-11-20T12:25:32.000-06:00"}
{"id":2732,"bug_id":"DATAMONGO-663","text":"org.springframework.data.mongodb.core.query.Field needs an equals method. The above class Field does not has an equals() method. But org.springframework.data.mongodb.core.query.Query has an equals method which is using the equals method of the Field class.","file_goldset":["org.springframework.data.mongodb.core.query.Field"],"creation_date":"2013-04-24T03:21:19.000-05:00","resolution_date":"2013-04-26T06:47:53.000-05:00"}
{"id":2733,"bug_id":"DATAMONGO-321","text":"An ID field of type integer is always saved as zero if not set by the user before calling save.  Throw exception to indicate an int field will not be autopopulated.. int id is saved as string.","file_goldset":["org.springframework.data.mongodb.core.convert.AbstractMongoConverter","org.springframework.data.mongodb.core.convert.MappingMongoConverterUnitTests","org.springframework.data.mongodb.core.QueryMapper","org.springframework.data.mongodb.core.convert.CustomConversions","org.springframework.data.mongodb.core.query.QueryMapperUnitTests","org.springframework.data.mongodb.core.convert.MappingMongoConverter"],"creation_date":"2011-11-17T01:53:43.000-06:00","resolution_date":"2011-12-01T08:54:08.000-06:00"}
{"id":2734,"bug_id":"DATAMONGO-1078","text":"@Query annotated repository query fails to map complex Id structure.. StringBasedMongoQuery converts any complex object to the according mongo type including type restrictions via _class.     end up being converted to:  So we need to check for the presence of typeKey when converting id properties.","file_goldset":["org.springframework.data.mongodb.core.MongoTemplate","org.springframework.data.mongodb.core.convert.MappingMongoConverter"],"creation_date":"2014-10-28T02:23:26.000-05:00","resolution_date":"2014-11-10T07:42:07.000-06:00"}
{"id":2735,"bug_id":"DATAMONGO-1289","text":"NullPointerException when saving an object with no \"id\" field or @Id annotation. If no field or property specified above is present in the Java class then an implicit \u0027_id\u0027 file will be generated by the driver but not mapped to a property or field of the Java class. Instead of this, I\u0027m seeing a NullPointerException when attempting to save an object that doesn\u0027t have an \"id\" field or an @Id annotated field.","file_goldset":["org.springframework.data.mongodb.repository.support.MongoRepositoryFactory","org.springframework.data.mongodb.repository.support.MappingMongoEntityInformation"],"creation_date":"2015-09-17T11:43:51.000-05:00","resolution_date":"2015-12-16T10:47:48.000-06:00"}
{"id":2736,"bug_id":"DATAMONGO-322","text":"Throw exception in a save operation if the POJO\u0027s ID field is null and field type is not String, BigInteger or ObjectId.. findById with int type id returns null.","file_goldset":["org.springframework.data.mongodb.repository.support.MongoRepositoryFactory","org.springframework.data.mongodb.repository.support.MongoRepositoryFactoryUnitTests","org.springframework.data.mongodb.core.MongoTemplateUnitTests","org.springframework.data.mongodb.core.MongoTemplate","org.springframework.data.mongodb.core.mapping.MongoSimpleTypes"],"creation_date":"2011-11-17T01:56:47.000-06:00","resolution_date":"2011-12-06T10:44:13.000-06:00"}
{"id":2737,"bug_id":"DATAMONGO-392","text":"Updating an object does not write type information for objects to be updated. I used 1.0.0. M5 version, and the type information (under _class key) was stored with object when it was necessary to be able to read it from database later.  RELEASE version that broke my application as it saves the objects without type information and later it is impossible to read it back to java model. What I found is that MappingMongoConverter.writeInternal(...) method that in turn calls addCustomTypeIfNecessary(...) (line 330) which puts type information into DBObject. During execution of convertToMongoType(...) (at line 851) removeTypeInfoRecursively(...) is called which clears type data saved earlier under _class key.   The second point is that there should be a way to persist the type information inferred from runtime along the persisted object and not just the class definition.","file_goldset":["org.springframework.data.mongodb.core.MongoTemplateTests","org.springframework.data.mongodb.core.MongoTemplate"],"creation_date":"2012-02-07T04:28:15.000-06:00","resolution_date":"2013-07-08T06:13:48.000-05:00"}
{"id":2738,"bug_id":"DATAMONGO-1088","text":"@Query $in does not remove \"_class\" property on collection of embedded objects . generates incorrect query.  Query should be without _class property e.g.:","file_goldset":["org.springframework.data.mongodb.core.MongoTemplate","org.springframework.data.mongodb.core.convert.MappingMongoConverter"],"creation_date":"2014-11-07T03:08:58.000-06:00","resolution_date":"2014-11-12T23:11:42.000-06:00"}
{"id":2739,"bug_id":"DATAMONGO-1406","text":"Query mapper does not use @Field field name when querying nested fields in combination with nested keywords. resolves the fields to the input query to the ones in the @Field annotations, except for these in embedded arrays. So, in the example above, resolution fields in DBObject remains resolution. While, the status field resolves to stat.    Which doesn\u0027t get any data, because there is no field called resolution (the field in mongo is res).   Notice the status and displays fields correctly get converted to the value in the @Field annotation. The correct query from getMappedObject should be:  This basically means that any queries that operate on fields (with a name different from the peristed name) in the inner list will fail.","file_goldset":["org.springframework.data.mongodb.core.convert.QueryMapper","org.springframework.data.mongodb.core.convert.QueryMapperUnitTests"],"creation_date":"2016-04-04T18:59:49.000-05:00","resolution_date":"2016-08-25T11:50:06.000-05:00"}
{"id":2740,"bug_id":"DATAMONGO-423","text":"Criteria.regex should use java.util.Pattern instead of $regex. throws this exception:","file_goldset":["org.springframework.data.mongodb.core.query.Criteria","org.springframework.data.mongodb.core.MongoTemplateTests","org.springframework.data.mongodb.core.query.QueryTests"],"creation_date":"2012-03-29T06:03:26.000-05:00","resolution_date":"2012-04-02T11:48:19.000-05:00"}
{"id":2741,"bug_id":"DATAMONGO-1123","text":"geoNear, does not return all matching elements, it returns only a max of 100 documents. I expect 1000 \"matching\" documents But i only get 100. There is some default being set, that restricts the result to 100.","file_goldset":["org.springframework.data.mongodb.core.MongoOperations"],"creation_date":"2014-12-17T09:39:36.000-06:00","resolution_date":"2015-01-07T06:15:01.000-06:00"}
{"id":2742,"bug_id":"DATAMONGO-647","text":"Using \"OrderBy\" in \"query by method name\" ignores the @Field annotation for field alias.. When the query is run, the database attempts to sort the results by \"score\" rather than my \"sr\" field name.","file_goldset":["org.springframework.data.mongodb.core.convert.QueryMapperUnitTests"],"creation_date":"2013-04-09T17:29:02.000-05:00","resolution_date":"2014-05-19T05:42:41.000-05:00"}
{"id":2743,"bug_id":"DATAMONGO-1126","text":"The query returns results but getTotalElements() and getTotalPages() always returns 0. Also when you try to get any other page than 0, no results return.                                      // expect 5 Items returned, total of 10 Items(SWORDS) in 2 Pages      // expect 5 Items returned, total of 30 Items in 6 Pages    Assert.assertEquals(30, results.getTotalElements()); // this is returning 0 Assert.assertEquals(6, results.getTotalPages());     // this is returning 0","file_goldset":["org.springframework.data.mongodb.repository.query.AbstractMongoQueryUnitTests","org.springframework.data.mongodb.repository.query.AbstractMongoQuery","org.springframework.data.mongodb.core.MongoOperations","org.springframework.data.mongodb.core.MongoTemplate","org.springframework.data.mongodb.repository.Person"],"creation_date":"2014-12-21T06:03:21.000-06:00","resolution_date":"2015-01-20T08:04:31.000-06:00"}
{"id":2744,"bug_id":"DATAMONGO-1133","text":"the aggretation uses the property name of a class rather than the name designated in @Field.","file_goldset":["org.springframework.data.mongodb.core.aggregation.AggregationTests","org.springframework.data.mongodb.core.aggregation.TypeBasedAggregationOperationContextUnitTests"],"creation_date":"2015-01-07T00:20:51.000-06:00","resolution_date":"2015-05-25T05:03:59.000-05:00"}
{"id":2745,"bug_id":"DATAMONGO-1232","text":"IgnoreCase should escape queries. The IgnoreCase query generator is subject to a sort of \"regex injection\" attack, because the query generator simply slaps ^. . $ around the string and passes it directly to MongoDB. This fails when the string contains any sort of special characters. In my case, I\u0027m trying to perform a case-insensitive find on an e-mail address with the + sign, a legal character, but the regex interprets this as 1. . *. The query generator needs to properly escape regex-special characters.","file_goldset":["org.springframework.data.mongodb.repository.query.MongoQueryCreator","org.springframework.data.mongodb.repository.query.MongoQueryCreatorUnitTests"],"creation_date":"2015-06-03T10:27:23.000-05:00","resolution_date":"2015-06-24T11:21:16.000-05:00"}
{"id":2746,"bug_id":"DATAMONGO-1236","text":"MongoOperations findAndModify and updateFirst do not include the _class in Map values. When a map of type LinkedHashMap\u003cString, Object\u003e  is updated via MongoOperations findAndModify or updateFirst, the _class field is not saved for the map values. Therefore, later reads of the data do not convert the value to the correct type, instead leaving it as LinkedHashMap.","file_goldset":["org.springframework.data.mongodb.core.convert.UpdateMapper","org.springframework.data.mongodb.core.convert.UpdateMapperUnitTests"],"creation_date":"2015-06-08T11:17:11.000-05:00","resolution_date":"2015-07-08T01:26:13.000-05:00"}
{"id":2747,"bug_id":"DATAMONGO-1307","text":"MongoTemplate has code like this in many places:  MongoExceptionTranslator, however, often does NOT return an exception. If it encounters an unknown exception it does this: // If we get here, we have an exception that resulted from user code, // rather than the persistence provider, so we return null to indicate // that translation should not occur. return null; MongoTemplate then \"eats\" the original exception and throws a null-pointer exception instead. MongoTemplate should throw the original exception if it gets null back from the exception translator.","file_goldset":["org.springframework.data.mongodb.core.MongoTemplate"],"creation_date":"2015-10-20T12:33:45.000-05:00","resolution_date":"2015-10-20T17:24:35.000-05:00"}
