{"key":"WFCORE-1027","title":"Inconsistent read-resource results with host scoped roles","description":"master-monitor should behave the same as slave-maintainer."}
{"key":"WFCORE-1062","title":"Deployments from the domain/data/content folder goes missing after few minutes if the Host controller is started with --backup option.","description":"Expected results: The cached deplpyments folder should never be removed from the HostController\u0027s domain/data/content folder."}
{"key":"WFCORE-815","title":"One profile can have more ancestors with same submodules","description":"No errors."}
{"key":"WFCORE-1028","title":"Poor handling of invalid roles","description":"The op should fail because the role doesn\u0027t exist, but there is no failure-description."}
{"key":"WFCORE-1007","title":"Warnings about missing notification descriptions when an operation removes an extension","description":"I think that the migration operation should not show those warnings."}
