{"id":342,"bug_id":"ZOOKEEPER-1535","text":"ZK Shell/Cli re-executes last command on exit. In the ZK 3.4.3 release\u0027s version of zkCli.sh, the last command that was executed is *re*-executed when you {{ctrl+d}} out of the shell. In the snippet below, {{ls}} is executed, and then {{ctrl+d}} is triggered (inserted below to illustrate), the output from {{ls}} appears again, due to the command being re-run.       {{ctrl+d}}  {{ls}}  {{ctrl+d}}  {{ls}}  {noformat}\n {noformat}","class_goldset":["src.java.main.org.apache.zookeeper.ZooKeeperMain"],"file_goldset":["src.java.main.org.apache.zookeeper.ZooKeeperMain"],"creation_date":"2012-08-14T23:56:40.000+0000","resolution_date":"2012-12-31T03:21:28.000+0000"}
{"id":344,"bug_id":"ZOOKEEPER-1619","text":"Allow spaces in URL. This format will work.  This format will not (notice the spaces around the comma)   {code}\n {code}\n\n {code}\n {code}","class_goldset":["src.java.main.org.apache.zookeeper.client.ConnectStringParser"],"file_goldset":["src.java.main.org.apache.zookeeper.client.ConnectStringParser"],"creation_date":"2013-01-11T15:57:16.000+0000","resolution_date":"2013-01-25T06:55:00.000+0000"}
{"id":349,"bug_id":"ZOOKEEPER-1700","text":"FLETest consistently failing - setLastSeenQuorumVerifier seems to be hanging. I\u0027m consistently seeing a failure on my laptop when running the FLETest \"testJoin\" test.                                {noformat}\n {noformat}","class_goldset":["src.java.test.org.apache.zookeeper.test.FLETest"],"file_goldset":["src.java.test.org.apache.zookeeper.test.FLETest"],"creation_date":"2013-05-08T00:43:31.000+0000","resolution_date":"2013-05-11T12:51:43.000+0000"}
{"id":356,"bug_id":"ZOOKEEPER-1781","text":"ZooKeeper Server fails if snapCount is set to 1 . If snapCount is set to 1, ZooKeeper Server can start but it fails with the below error:            int randRoll \u003d r.nextInt(snapCount/2);\n{code}","class_goldset":["src.java.main.org.apache.zookeeper.server.ZooKeeperServer"],"file_goldset":["src.java.main.org.apache.zookeeper.server.ZooKeeperServer"],"creation_date":"2013-10-04T01:19:27.000+0000","resolution_date":"2013-10-07T23:38:49.000+0000"}
