{"key":"NUTCH-1393","title":"Display consistent usage of GeneratorJob with 1.X","description":""}
{"key":"NUTCH-1484","title":"TableUtil unreverseURL fails on file:// URLs","description":""}
{"key":"NUTCH-1552","title":"possibility of a NPE in index-more plugin","description":""}
{"key":"NUTCH-1563","title":"FetchSchedule#getFields is never used by GeneraterJob","description":""}
{"key":"NUTCH-956","title":"solrindex issues","description":""}
