{"key":"2459","title":"Size of file open/save dialogs incorrect on dual displays","description":""}
{"key":"2542","title":"Pasting Text Should End Current Undoable Edit","description":""}
{"key":"2560","title":"jEdit4.3pre5 file system browser, keyboard handling","description":""}
{"key":"2571","title":"Line number not highlighted when the line is selected","description":""}
{"key":"2595","title":"caret/display position w/ multiple views open","description":""}
{"key":"2636","title":"Clearing a Register doesn\u0027t work persistently","description":""}
{"key":"2720","title":"FSB delete action on directory not working","description":""}
{"key":"2752","title":"jEdit freezes on regexpr \"||\"","description":""}
