{"id":479,"bug_id":"100387","text":"CTabFolder creates and disposes a Shell on every MouseHover. CTabFolder.showToolTip()","file_goldset":["org.eclipse.swt.custom.CTabFolder"],"creation_date":"2005-06-16 08:44:00","resolution_date":"2005-08-05 12:14:00"}
{"id":480,"bug_id":"102794","text":"GridLayout has change behaviour between 3.0.2 and 3.1. public static void main(String[] args) {\n        Display display \u003d new Display();\n\n        Shell shell \u003d new Shell(display);\n\n        shell.setLayout(new FillLayout());\n\n        ScrolledComposite sc1 \u003d new ScrolledComposite(shell, SWT.H_SCROLL\n                | SWT.V_SCROLL);\n        Composite editor \u003d new Composite(sc1, SWT.SHADOW_NONE);\n        sc1.setContent(editor);\n        sc1.setLayout(new FillLayout());\n\n        GridLayout layout \u003d new GridLayout();\n\n        layout.numColumns \u003d 6;\n        layout.makeColumnsEqualWidth \u003d true;\n        editor.setLayout(layout);\n\n        Label boxLabel \u003d new Label(editor, SWT.NONE);\n        boxLabel.setText(\"My label\");\n\n        Text textBox \u003d new Text(editor, SWT.H_SCROLL | SWT.V_SCROLL | SWT.MULTI\n                | SWT.BORDER);\n        textBox.setText(\"Some text for the text box\\nAlso with a new line\");\n\n        // do layout bits\n        GridData labelData \u003d new GridData(SWT.RIGHT, SWT.TOP, false, false);\n        boxLabel.setLayoutData(labelData);\n\n        GridData textBoxData \u003d new GridData(SWT.FILL, SWT.CENTER, true, false,\n                5, 1);\n        textBoxData.widthHint \u003d 400;\n        textBox.setLayoutData(textBoxData);\n\n        sc1.setExpandHorizontal(true);\n        sc1.setExpandVertical(true);\n        sc1.setMinSize(editor.computeSize(SWT.DEFAULT, SWT.DEFAULT));\n\n        shell.pack();\n        shell.open();\n\n        while (!shell.isDisposed()) {\n            if (!display.readAndDispatch())\n                display.sleep();\n        }\n        display.dispose();\n    }","file_goldset":["org.eclipse.swt.layout.GridLayout"],"creation_date":"2005-07-05 17:56:00","resolution_date":"2005-08-05 12:14:00"}
{"id":481,"bug_id":"104150","text":"[Patch] Table cursor separated from table selection when clicking on grid lines or empty space. table.getLinesVisible()  table.setLinesVisible(true)","file_goldset":["org.eclipse.swt.custom.TableCursor"],"creation_date":"2005-07-16 19:58:00","resolution_date":"2006-03-15 15:21:00"}
{"id":482,"bug_id":"104545","text":"Make default size of empty composites smaller. static final int DEFAULT_WIDTH\t\u003d 64;\n static final int DEFAULT_HEIGHT\t\u003d 64;","file_goldset":["org.eclipse.swt.widgets.CoolBar"],"creation_date":"2005-07-20 14:21:00","resolution_date":"2009-08-27 04:54:00"}
{"id":486,"bug_id":"117574","text":"RIGHT_TO_LEFT |  DOUBLE_BUFFERED don\u0027t get along. public static void main(String[] args) {\n\tDisplay display \u003d new Display();\n\tShell shell \u003d new Shell(display, SWT.SHELL_TRIM | SWT.RIGHT_TO_LEFT | SWT.DOUBLE_BUFFERED);\n\tshell.addListener(SWT.Paint, new Listener() {\n\t\tpublic void handleEvent(Event event) {\n\t\t\tSystem.out.println(event.gc.getClipping());\n\t\t\tevent.gc.drawString(\"This is broken \" + event.gc.getClipping(), 10, 10);\n\t\t}\n\t});\n\tshell.open();\n\twhile (!shell.isDisposed()) {\n\t\tif (!display.readAndDispatch()) display.sleep();\n\t}\n\tdisplay.dispose ();\n}","file_goldset":["org.eclipse.swt.graphics.GC","org.eclipse.swt.widgets.Composite"],"creation_date":"2005-11-22 15:22:00","resolution_date":"2005-11-28 17:40:00"}
{"id":491,"bug_id":"78634","text":"ImageData.getTransparencyMask - incorrect javadoc or implementation wrong. public ImageData getTransparencyMask()","file_goldset":["org.eclipse.swt.graphics.ImageData"],"creation_date":"2004-11-15 12:29:00","resolution_date":"2005-06-22 10:00:00"}
{"id":492,"bug_id":"78854","text":"Memory leak in ClipboardProxy.getFunc(). ClipboardProxy.getFunc()  OS.gtk_selection_data_set()  OS.g_free()","file_goldset":["org.eclipse.swt.dnd.Clipboard","org.eclipse.swt.dnd.DragSource"],"creation_date":"2004-11-17 12:17:00","resolution_date":"2004-12-21 13:21:00"}
{"id":495,"bug_id":"81242","text":"[JUnit] GP in Clipboard.getContents. Local Time \u003d Wed  Elapsed Time \u003d 107","file_goldset":["org.eclipse.swt.browser.Browser","org.eclipse.swt.dnd.DragSource","org.eclipse.swt.dnd.DropTarget","org.eclipse.swt.graphics.Device","org.eclipse.swt.graphics.FontData","org.eclipse.swt.graphics.GC","org.eclipse.swt.internal.BidiUtil","org.eclipse.swt.widgets.ColorDialog","org.eclipse.swt.widgets.DirectoryDialog","org.eclipse.swt.widgets.Display","org.eclipse.swt.widgets.FileDialog","org.eclipse.swt.widgets.FontDialog","org.eclipse.swt.widgets.MessageBox","org.eclipse.swt.widgets.Tracker"],"creation_date":"2004-12-15 12:07:00","resolution_date":"2005-04-15 10:32:00"}
{"id":496,"bug_id":"81264","text":"Table fails to setTopIndex after new items are added to the table. public static void main(String[] args) {\n\t\tfinal Display display \u003d new Display();\n\t\tShell shell \u003d new Shell(display);\n\t\tshell.setBounds(10,10,200,200);\n\t\tfinal Table table \u003d new Table(shell, SWT.NONE);\n\t\ttable.setBounds(10,10,100,100);\n\t\tfor (int i \u003d 0; i \u003c 99; i++) {\n\t\t\tnew TableItem(table, SWT.NONE).setText(\"item \" + i);\n\t\t}\n\t\t\n\t\ttable.setTopIndex(20);\n\n\t\tshell.open();\n\n\t\tSystem.out.println(\"top visible index: \" + table.getTopIndex());\n\t\t\n\t\tfor (int i \u003d 0; i \u003c 5; i++) {\n\t\t\tnew TableItem(table, SWT.NONE).setText(\"item \" + i);\n\t\t}\n\n\t\ttable.setTopIndex(40);\n\t\tSystem.out.println(\"top visible index: \" + table.getTopIndex());\n\t\t\n\t\twhile (!shell.isDisposed()) {\n\t\t\tif (!display.readAndDispatch()) display.sleep();\n\t\t}\n\t\tdisplay.dispose();\n\t}\n\n setTopTable(40)  setTopIndex(40)","file_goldset":["org.eclipse.swt.widgets.List","org.eclipse.swt.widgets.Table","org.eclipse.swt.widgets.Tree"],"creation_date":"2004-12-15 13:17:00","resolution_date":"2006-04-12 13:22:00"}
{"id":501,"bug_id":"83699","text":"Font reset to default after screen saver. StyledText.setFont(Font)  updateFont(Font, Font)  updateFont(Font, Font)  updateFont(Font, Font)  Composite.updateFont(Font, Font)  Composite.updateFont(Font, Font)  Composite.updateFont(Font, Font)  Composite.updateFont(Font, Font)  Composite.updateFont(Font, Font)  Composite.updateFont(Font, Font)  Composite.updateFont(Font, Font)  updateFont(Font, Font)  Display.updateFont()  Display.readAndDispatch()  Workbench.runEventLoop(Window$IExceptionHandler, Display)  Workbench.runUI()  Workbench.createAndRunWorkbench(Display, WorkbenchAdvisor)  PlatformUI.createAndRunWorkbench(Display, WorkbenchAdvisor)  IDEApplication.run(Object)  EclipseStarter.run(Object)","file_goldset":["org.eclipse.swt.widgets.Control"],"creation_date":"2005-01-26 06:03:00","resolution_date":"2005-02-05 10:38:00"}
{"id":503,"bug_id":"84609","text":"TableColumn has NPE while calling pack()  on last column. lvtTable.getColumn(0).pack();\nlvtTable.getColumn(1).pack();\nlvtTable.getColumn(2).pack();\n\n parent.getColumns()","file_goldset":["org.eclipse.swt.widgets.Table","org.eclipse.swt.widgets.TableColumn"],"creation_date":"2005-02-07 13:35:00","resolution_date":"2005-09-26 13:20:00"}
{"id":504,"bug_id":"86000","text":"ImageLoader Save - produces invalid JPEG images. package com.ibm.test.image;\n\nimport org.eclipse.swt.*;\nimport org.eclipse.swt.graphics.*;\n\npublic class ImageLoaderTest {\n\t\t\n\tpublic static void main(String[] args) {\n\t\tImageLoader loader;\n\t\tString dir\u003d\"c:\\\\image-problems\\\\\";\n\t\tString files[]\u003d{\n\t\t\t\t\"s34i3p04\",\n\t\t\t\t\"s34n3p04\",\n\t\t\t\t\"s35i3p04\",\n\t\t\t\t\"s35n3p04\",\n\t\t\t\t\"s36i3p04\",\n\t\t\t\t\"s36n3p04\",\n\t\t\t\t\"s37i3p04\",\n\t\t\t\t\"s37n3p04\",\n\t\t\t\t\"s38i3p04\",\n\t\t\t\t\"s38n3p04\",\n\t\t\t\t\"s39i3p04\",\n\t\t\t\t\"s39n3p04\"\n\t\t};\n\t\t\n\t\ttry {\n\t\t\tfor (int i\u003d0; i\u003cfiles.length; i++) {\n\t\t\tString filein  \u003d dir+files[i]+\".png\";\n\t\t\tString fileout \u003d dir+files[i]+\".jpg\";\n\t\t\t\n\t\t\tloader \u003d new ImageLoader();\n\t\t\tloader.load(filein);\n\t\t\tloader.save(fileout,SWT.IMAGE_JPEG);\n\t\t\t}\n\t\t} catch (SWTException e) {\n\t\t  e.printStackTrace();\n\t\t}\n\t}\n}","file_goldset":["org.eclipse.swt.internal.image.JPEGFileFormat"],"creation_date":"2005-02-21 14:47:00","resolution_date":"2005-02-23 18:02:00"}
{"id":506,"bug_id":"86631","text":"Javadoc wrong for Image(stream). try {}","file_goldset":["org.eclipse.swt.graphics.Image"],"creation_date":"2005-02-25 09:55:00","resolution_date":"2005-04-14 16:53:00"}
{"id":507,"bug_id":"87363","text":"Regression: MenuDetect no longer opens new menus. boolean showMenu (int x, int y) {\n\tEvent event \u003d new Event ();\n\tevent.x \u003d x;\n\tevent.y \u003d y;\n\tsendEvent (SWT.MenuDetect, event);\n\tif (!event.doit) return true;\n\tif (menu !\u003d null \u0026\u0026 !menu.isDisposed ()) {\n\t\tif (x !\u003d event.x || y !\u003d event.y) {\n\t\t\tmenu.setLocation (event.x, event.y);\n\t\t}\n\t\tmenu.setVisible (true);\n\t\treturn true;\n\t}\n\treturn false;\n}\n\n boolean showMenu (Menu menu, int x, int y) {\n\tEvent event \u003d new Event ();\n\tevent.x \u003d x;\n\tevent.y \u003d y;\n\tsendEvent (SWT.MenuDetect, event);\n\tif (!event.doit) return true;\n\tif (menu !\u003d null \u0026\u0026 !menu.isDisposed ()) {\n\t\tif (x !\u003d event.x || y !\u003d event.y) {\n\t\t\tmenu.setLocation (event.x, event.y);\n\t\t}\n\t\tmenu.setVisible (true);\n\t\treturn true;\n\t}\n\treturn false;\n}\n\n public static void main(String[] args) {\n\tDisplay display \u003d new Display();\n\tfinal Shell shell \u003d new Shell(display);\n\tshell.addListener(SWT.MenuDetect, new Listener() {\n\t\tint count \u003d 0;\n\t\tpublic void handleEvent(Event event) {\n\t\t\tMenu menu \u003d shell.getMenu();\n\t\t\tif (menu !\u003d null) menu.dispose();\n\t\t\tmenu \u003d new Menu(shell, SWT.POP_UP);\n\t\t\tMenuItem item \u003d new MenuItem(menu, SWT.PUSH);\n\t\t\titem.setText(\"Menu \" + count++);\n\t\t\tshell.setMenu(menu);\n\t\t}\n\t});\n\tshell.pack();\n\tshell.open();\n\twhile (!shell.isDisposed()) {\n\t\tif (!display.readAndDispatch()) display.sleep();\n\t}\n\tdisplay.dispose();\n}","file_goldset":["org.eclipse.swt.widgets.Table","org.eclipse.swt.widgets.Text","org.eclipse.swt.widgets.Tree","org.eclipse.swt.widgets.Widget"],"creation_date":"2005-03-08 08:00:00","resolution_date":"2005-03-08 08:50:00"}
{"id":508,"bug_id":"87460","text":"StyledText: Caret location not updated when line style is used. import org.eclipse.swt.*;\nimport org.eclipse.swt.custom.*;\nimport org.eclipse.swt.graphics.*;\nimport org.eclipse.swt.layout.*;\nimport org.eclipse.swt.widgets.*;\n\npublic class LineStyleCaretTest {\n  public static void main(String[] args) {\n    Display display \u003d new Display();\n    \n    Shell shell \u003d new Shell(display);\n    shell.setLayout(new FillLayout());\n    \n    Font font \u003d new Font(display, \"Arial\", 12, SWT.NORMAL);\n      \n    final StyledText text \u003d new StyledText(shell, SWT.MULTI);\n    text.setFont(font);\n    text.setText(\"Standard Widget Toolkit\");\n    text.setCaretOffset(text.getText().length());\n    \n    text.addLineStyleListener(new LineStyleListener() {\n      public void lineGetStyle(LineStyleEvent event) {\n        StyleRange[] styles \u003d new StyleRange[1];\n        \n        styles[0] \u003d new StyleRange();\n        styles[0].start  \u003d 0;\n        styles[0].length \u003d text.getText().length();\n        styles[0].fontStyle \u003d SWT.BOLD;\n        \n        event.styles \u003d styles;\n      }\n    });\n    \n    shell.setSize(300, 100);\n    shell.open();\n    \n    while (!shell.isDisposed()) {\n      if (!display.readAndDispatch()) {\n        display.sleep();\n      }\n    }\n    \n    font.dispose();\n    display.dispose();\n  }\n}","file_goldset":["org.eclipse.swt.custom.StyledText"],"creation_date":"2005-03-08 21:22:00","resolution_date":"2008-07-29 13:13:00"}
{"id":511,"bug_id":"87997","text":"TableEditor.dispose( ) causes NPE if linked Table is being disposed. TableEdtior.dispose( )  \n\nimport org.eclipse.swt.custom.TableEditor;\nimport org.eclipse.swt.events.*;\nimport org.eclipse.swt.widgets.*;\n\npublic class Test\n{\n    public static void main( String[ ] args )\n    {\n        Shell shell \u003d new Shell( );\n        Table table \u003d new Table( shell, 0 );\n        new TableColumn( table, 0 );\n        TableItem item \u003d new TableItem( table, 0 );\n        final TableEditor editor \u003d new TableEditor( table );\n        final Text text \u003d new Text( table, 0 );\n        editor.setEditor( text, item, 0 );\n        item.addDisposeListener( new DisposeListener( ) {\n            public void widgetDisposed( DisposeEvent e )\n            {\n                text.dispose( );\n                editor.dispose( ); // Triggers a NPE\n            }\n        } );\n        shell.dispose( );\n    }\n}","file_goldset":["org.eclipse.swt.widgets.Table","org.eclipse.swt.widgets.Tree"],"creation_date":"2005-03-14 19:21:00","resolution_date":"2005-04-06 12:50:00"}
{"id":513,"bug_id":"88829","text":"Table.setColumnOrder() may not fire enough Move events. Table.setColumnOrder(new int[] {4,1,2,3,0});","file_goldset":["org.eclipse.swt.widgets.Table"],"creation_date":"2005-03-22 20:41:00","resolution_date":"2005-04-06 17:05:00"}
{"id":515,"bug_id":"90258","text":"Table item not updated when item count \u003d\u003d 1. clearAll() table.setItemCount(1);\ntable.clearAll();\n\n private void handleSetData(Event event) {\n\n\tTableItem item\u003d (TableItem) event.item;\n\tint index\u003d fProposalTable.indexOf(item);\n\t\n\tICompletionProposal current\u003d fFilteredProposals[index];\n\t\n\titem.setText(current.getDisplayString());\n\titem.setImage(current.getImage());\n\titem.setData(current);\n}","file_goldset":["org.eclipse.swt.widgets.Table"],"creation_date":"2005-04-05 04:56:00","resolution_date":"2005-08-11 15:55:00"}
{"id":518,"bug_id":"93724","text":"Drag-and-drop creates signal names every time. byte[] buffer \u003d Converter.wcsToMbcs(null, \"drag_data_get\", true);\nOS.g_signal_connect(control.handle, buffer, DragGetData.getAddress(), 0);\t\nbuffer \u003d Converter.wcsToMbcs(null, \"drag_end\", true);\nOS.g_signal_connect(control.handle, buffer, DragEnd.getAddress(), 0);\nbuffer \u003d Converter.wcsToMbcs(null, \"drag_data_delete\", true);\nOS.g_signal_connect(control.handle, buffer, DragDataDelete.getAddress(), 0);","file_goldset":["org.eclipse.swt.dnd.DragSource","org.eclipse.swt.dnd.DropTarget"],"creation_date":"2005-05-04 17:35:00","resolution_date":"2005-05-30 15:14:00"}
{"id":522,"bug_id":"96916","text":"Spinner.setToolTipText() doesn\u0027t work. Spinner.setToolTipText()","file_goldset":["org.eclipse.swt.widgets.Combo","org.eclipse.swt.widgets.Control","org.eclipse.swt.widgets.Shell","org.eclipse.swt.widgets.Spinner"],"creation_date":"2005-05-27 03:44:00","resolution_date":"2005-08-05 12:14:00"}
{"id":523,"bug_id":"97651","text":"tree insert mark cheese. Tree.redraw() public static void main(String[] args) {\n\tfinal Display display \u003d new Display();\n\tfinal Shell shell \u003d new Shell(display);\n\tshell.setBounds(10, 10, 300, 300);\n\tfinal Tree tree \u003d new Tree(shell, SWT.NONE);\n\ttree.setBounds(10, 10, 200, 200);\n\tnew TreeItem(tree, SWT.NONE).setText(\"pre-root\");\n\tTreeItem root1 \u003d new TreeItem(tree, SWT.NONE);\n\troot1.setText(\"root\");\n\tTreeItem child \u003d new TreeItem(root1, SWT.NONE);\n\tchild.setText(\"child\");\n\tButton button \u003d new Button(shell, SWT.PUSH);\n\tbutton.setBounds(230,10,30,30);\n\tbutton.addSelectionListener(new SelectionAdapter() {\n\t\tpublic void widgetSelected(SelectionEvent e) {\n\t\t\ttree.redraw();\n\t\t}\n\t});\n\troot1.setExpanded(true);\n\ttree.setInsertMark(root1, false);\n\tshell.open();\n\twhile (!shell.isDisposed()) {\n\t\tif (!display.readAndDispatch()) display.sleep();\n\t}\n\tdisplay.dispose();\n}","file_goldset":["org.eclipse.swt.dnd.TreeDragUnderEffect","org.eclipse.swt.widgets.Tree"],"creation_date":"2005-05-31 14:43:00","resolution_date":"2005-06-03 13:04:00"}
