{"key":"31779","title":"[resources] UnifiedTree should ensure file/folder exists","description":"When the UnifiedTree finds a new file from the file system, it assumes that if the file is not an existing file, then it is a folder. This is not always true, because for different reasons a file returned by java.io.File.list/listFiles may not actually exist (our CoreFileSystemLibrary#getStat() returns 0).  At the first moment, the file is found in the file system and assumed to be a folder, and a corresponding resource is created in the workspace. At the second refresh, the folder corresponding to that resource is not found in the file system, and then it is removed from the workspace. And so on."}
{"key":"17707","title":"DAV: Reselecting the same location gives misleading warning","description":"If I choose Deploy -\u003e Target Site... on a project that is already deployed and I\nselect the same target site I get a warning error telling me I am delpoyed to\nthe site and confirming that I want to overwrite. It should just ignore in that\ncase.    3 Warning message"}
{"key":"19307","title":"FTP: Valid ftp url is rejected","description":"If I enter ott4f.ott.oti.com as my ftp URL it is rejected as invalid. On most \nftp programs I can enter ftp ott4f.ott.oti.com and it will connect so this \nformat should be an option - i.e. the ftp:// option should be acceptable."}
{"key":"19686","title":"hover help stops working after mousing over end of file","description":"Stay there for \nabout 3 secs or so, then mouse over some text in the java file where you would \nexpect hover help. The hover help no longer works for the file."}
{"key":"19976","title":"Dav: Choosing not to add a bad site should let user modify site properties","description":"If in Site Explorer you add a new site with a bogus url, the site shouldn\u0027t get \nadded. At present hitting \u003cFinish\u003e will inform you of the error but the site \nwill still get added."}
{"key":"23140","title":"[CVS EXTSSH] vulnerable to man in the middle attacks (dns poisoning, etc_","description":"However when using the Eclipse extssh component no history of host keys\nis kept.           4 In your auth logs you should get messages like:    Expected results:  Should get a prompt saying key changed."}
