{"key":"2542","title":"Pasting Text Should End Current Undoable Edit","description":"The text area should finish the existing undoable edit when the user \npastes text into it. In 4.2final and 4.3pre4, if you type some characters, \npaste some text, and then undo, it undos the typed characters and the \npasted text together.  It should undo each separately."}
{"key":"2571","title":"Line number not highlighted when the line is selected","description":"\\- When line of text is selected, or part of that line, the number of line is not highlighted in the gutter. This makes sense when the selection splits accross multiple lines, however on single line I guess the line number should be highlighted."}
{"key":"2720","title":"FSB delete action on directory not working","description":"FSB delete action invoked on a directory should \nrecursively delete the files and folders it contains \nand not just state \"Cannot delete file\"."}
