{"id":783,"bug_id":"DATAMONGO-315","text":"Query query \u003d query(where(\"type\").is(\"ad\"));\nquery.sort().on(\"rawBidPrice\", Order.DESCENDING);\nAd ad \u003d mongoTemplate.findOne(query, Ad.class);\n query.getSortOrder() Query query \u003d query(where(\"type\").is(\"ad\"));\nquery.sort().on(\"rawBidPrice\", Order.DESCENDING);\nquery.limit(1);\nList\u003cAd\u003e ads \u003d mongoTemplate.find(query, Ad.class);\nAd ad \u003d ads.isEmpty() ? null : ads.get(0);","file_goldset":["org.springframework.data.mongodb.core.MongoTemplateTests","org.springframework.data.mongodb.core.MongoTemplate"],"creation_date":"2011-11-09T10:21:33.000-06:00","resolution_date":"2011-11-14T20:30:06.000-06:00"}
{"id":784,"bug_id":"DATAMONGO-346","text":"Method remove(Object arg)","file_goldset":["org.springframework.data.mongodb.core.QueryMapper","org.springframework.data.mongodb.core.MongoTemplateTests"],"creation_date":"2011-12-10T04:44:04.000-06:00","resolution_date":"2011-12-14T11:32:32.000-06:00"}
{"id":785,"bug_id":"DATAMONGO-260","text":"class Foo {\n\n\n\n\n  String id;\n\n\n\n\n  Long number;\n\n\n\n\n  Long version;\n\n\n\n\n} \n\n\n\n\n\n\n function()  emit(this.number, this.version)\n\n\n\n\n function(key, values)  {\n\n\n\n\n\treturn Math.max.apply(Math, values);\n\n\n\n\n}","file_goldset":["org.springframework.data.mongodb.core.convert.AbstractMongoConverter","org.springframework.data.mongodb.core.mapreduce.MapReduceTests"],"creation_date":"2011-09-05T01:06:36.000-05:00","resolution_date":"2011-12-21T23:35:41.000-06:00"}
{"id":786,"bug_id":"DATAMONGO-385","text":"public interface TestRepository extends MongoRepository\u003cTestEntity, Long\u003e {  }\n\n\n\n\n\n\n\n\n\n\n\n\n @Document\n\n\n\n\npublic class TestEntity\n\n\n\n\n{\n\n\n\n\n  @Id\n\n\n\n\n  private Long id;\n\n\n\n\n  \n\n\n\n\n}","file_goldset":["org.springframework.data.mongodb.repository.support.MongoRepositoryFactoryUnitTests"],"creation_date":"2012-01-26T05:13:31.000-06:00","resolution_date":"2012-02-02T01:41:00.000-06:00"}
{"id":787,"bug_id":"DATAMONGO-392","text":"MappingMongoConverter.writeInternal(...)  addCustomTypeIfNecessary(...)  convertToMongoType(...)  removeTypeInfoRecursively(...)","file_goldset":["org.springframework.data.mongodb.core.MongoTemplateTests","org.springframework.data.mongodb.core.MongoTemplate"],"creation_date":"2012-02-07T04:28:15.000-06:00","resolution_date":"2013-07-08T06:13:48.000-05:00"}
