{"id":4008,"bug_id":"WFCORE-1908","text":"Tab completion suggest writing attribute which has access type metric and is not writable. CLI tab completion suggests attributes that are not writable and their access-type is metric Example    On attempt to write metric attribute, for example message-count, non writable error is printed        attribute(name\u003dmessage-count, value\u003d5)\n\n\n\n\n {\n\n\n\n\n    \"outcome\" \u003d\u003e \"failed\",\n\n\n\n\n    \"failure-description\" \u003d\u003e \"WFLYCTL0048: Attribute message-count is not writable\",\n\n\n\n\n    \"rolled-back\" \u003d\u003e true\n\n\n\n\n}","file_goldset":["org.jboss.as.cli.Util","org.jboss.as.cli.impl.AttributeNamePathCompleter","org.jboss.as.cli.parsing.test.AttributeNamePathCompletionTestCase"],"creation_date":"2016-10-31T08:13:57.000-05:00","resolution_date":"2016-11-02T21:27:51.000-05:00"}
{"id":4009,"bug_id":"WFCORE-1578","text":"Lets have some /socket-binding-group\u003dstandard-sockets/socket-binding with particular name. Then when I create some /socket-binding-group\u003dstandard-sockets/remote-destination-outbound-socket-binding or /socket-binding-group\u003dstandard-sockets/local-destination-outbound-socket-binding using same name as of already existing socket-binding resource, add operation is successful but when I perform server reload, it crashes as it is not able to parse configuration.  Start EAP and log to CLI create your own socket-binding resource and {remote|local}-destination-outbound-socket-binding resource with same names and perform reload      server crashes with following stacktrace in console log:                                      {remote|local} add()\n\n\n\n\n add(host\u003dlocalhost,port\u003d8765)\n\n\n\n\n add(socket-binding-ref\u003dhttp)\n\n\n\n\n {remote|local}","file_goldset":["org.jboss.as.server.services.net.SocketBindingAddHandler","org.jboss.as.controller.logging.ControllerLogger","org.jboss.as.server.services.net.RemoteDestinationOutboundSocketBindingAddHandler","org.jboss.as.server.services.net.LocalDestinationOutboundSocketBindingAddHandler"],"creation_date":"2016-06-07T05:13:13.000-05:00","resolution_date":"2016-06-30T22:42:01.000-05:00"}
{"id":4010,"bug_id":"WFCORE-1936","text":"If you tries to change such attributes you are informed that reload is necessary.  description(recursive\u003dtrue)","file_goldset":["org.jboss.as.server.services.net.OutboundSocketBindingResourceDefinition","org.jboss.as.controller.resource.AbstractSocketBindingResourceDefinition"],"creation_date":"2016-11-04T10:57:06.000-05:00","resolution_date":"2016-11-07T18:40:35.000-06:00"}
{"id":4011,"bug_id":"WFCORE-1635","text":"Write attribute on a new deployment scanner fails in batch. Creating a new deployment-scanner and altering it\u0027s attribute fails if done in single batch. Running the commands without batch or running batch on CLI embed-server works fine.                                             add(path\u003dlog, relative-to\u003d\"jboss.server.base.dir\", auto-deploy-exploded\u003dfalse, scan-enabled\u003dfalse)\n\n\n\n\n attribute(name\u003dscan-interval, value\u003d6000)\n\n\n\n\n add(path\u003dlog, relative-to\u003d\"jboss.server.base.dir\", auto-deploy-exploded\u003dfalse, scan-enabled\u003dfalse)\n\n\n\n\n attribute(name\u003dscan-interval, value\u003d6000)","file_goldset":["org.jboss.as.server.deployment.scanner.AbstractWriteAttributeHandler"],"creation_date":"2016-07-05T07:04:51.000-05:00","resolution_date":"2016-07-08T23:36:17.000-05:00"}
{"id":4012,"bug_id":"WFCORE-1959","text":"Deploying an empty managed exploded deployment to server group in domain fails. Deploying an empty exploded deployment created on domain controller fails with the following:                              {empty\u003dtrue} add()","file_goldset":["org.jboss.as.domain.controller.operations.coordination.ServerOperationResolver"],"creation_date":"2016-11-08T16:28:30.000-06:00","resolution_date":"2016-11-09T01:18:14.000-06:00"}
{"id":4013,"bug_id":"WFCORE-1572","text":"Suggestion list for argument value is not generated if the value contains a whitespace. When an argument value contains a space (eg. deploy /path/to/test-application. war --all-server-groups --headers\u003d{rollout id\u003dfoo}) and if user hits tab after the whitespace, suggestions are generated based on the command, rather than the current argument\u0027s name. {rollout id\u003dfoo}","file_goldset":["org.jboss.as.cli.parsing.ParserUtil","org.jboss.as.cli.parsing.test.CommandTestCase","org.jboss.as.cli.parsing.DefaultStateWithEndCharacter"],"creation_date":"2016-05-27T16:20:10.000-05:00","resolution_date":"2016-06-20T02:04:49.000-05:00"}
{"id":4014,"bug_id":"WFCORE-1590","text":"Default parameter length validating ignores setMinSize(0). With the following attribute definition: -          The following error is reported if an empty string is used as a parameter: -          static final SimpleAttributeDefinition REPLACEMENT \u003d new SimpleAttributeDefinitionBuilder(ElytronDescriptionConstants.REPLACEMENT, ModelType.STRING, false)\n\n\n\n\n        .setAllowExpression(true)\n\n\n\n\n        .setMinSize(0)\n\n\n\n\n        .setFlags(AttributeAccess.Flag.RESTART_RESOURCE_SERVICES)\n\n\n\n\n        .build();\n\n\n\n\n\n\n add(pattern\u003d\"@ELYTRON.ORG\", replacement\u003d\"\", replace-all\u003dtrue)","file_goldset":["org.jboss.as.controller.AbstractAttributeDefinitionBuilder","org.jboss.as.controller.test.WriteAttributeOperationTestCase","org.jboss.as.controller.AttributeDefinition","org.jboss.as.controller.SimpleAttributeDefinitionUnitTestCase","org.jboss.as.controller.operations.validation.BytesValidator"],"creation_date":"2016-06-12T14:18:43.000-05:00","resolution_date":"2016-08-11T15:17:26.000-05:00"}
{"id":4015,"bug_id":"WFCORE-1570","text":"When using rollout plans for EAP deployment scenarios I can create my own named rollout-plan for ease of use. I can then apply rollout command later on, referring with name of my own rollout plan that should be used.  When I create rollout-plan, I use command like:  see --name attribute given to name my rollout plan When I then refer to it I use following command:   see id attribute given to rollout header operation    group(rolling-to-servers\u003dfalse,max-failed-servers\u003d1) group(rolling-to-servers\u003dtrue,max-failure-percentage\u003d20)  {rollout id\u003dmy-rollout-plan}","file_goldset":["org.jboss.as.cli.parsing.operation.header.RolloutPlanState","org.jboss.as.cli.parsing.operation.header.RolloutPlanHeaderCallbackHandler","org.jboss.as.cli.operation.impl.RolloutPlanCompleter"],"creation_date":"2016-05-27T12:51:56.000-05:00","resolution_date":"2016-06-20T02:05:22.000-05:00"}
{"id":4016,"bug_id":"WFCORE-1718","text":"If Audit Logger is removed, destination handlers (i.e. its child nodes) are not removed properly. They are not present in the config file. They seem to be not removed \"internally\" though.  1. It is not possible to remove referenced File/Syslog handlers. If user tries to remove them the NullPointerException is given as a result. Try following commands:   Their output is:      2. AuditLog continues to send auditable events to previously referenced File/Syslog handlers. Create auditable event (e.g. /subsystem\u003dlogging/logger\u003dcom.arjuna:write-attribute(name\u003dlevel,value\u003dDEBUG)) See log in the file (WILDFLY_HOME/standalone/data/audit-log.log) See log in the syslog (/var/log/messages) remove()\n remove()\n {\n\n\n\n\n    \"outcome\" \u003d\u003e \"failed\",\n\n\n\n\n    \"failure-description\" \u003d\u003e \"WFLYCTL0158: Operation handler failed: java.lang.NullPointerException\",\n\n\n\n\n    \"rolled-back\" \u003d\u003e true\n\n\n\n\n}\n\n\n\n\n\n\n attribute(name\u003dlevel,value\u003dDEBUG)","file_goldset":["org.jboss.as.domain.management.audit.AccessAuditResourceDefinition","org.jboss.as.domain.management.audit.AuditLogLoggerResourceDefinition","org.jboss.as.domain.management.audit.AuditLogHandlerReferenceResourceDefinition"],"creation_date":"2016-08-16T09:49:11.000-05:00","resolution_date":"2016-08-31T21:54:29.000-05:00"}
{"id":4017,"bug_id":"WFCORE-1793","text":"add-content operation fails to overwrite existing content with overwrite\u003dtrue set when passing content by file path. Upon overwriting content in managed exploded deployments on wildfly-core, the following errors are produced:                                          {\"outcome\" \u003d\u003e \"success\"}\n\n\n\n\n {\"outcome\" \u003d\u003e \"success\"}\n\n\n\n\n {\"outcome\" \u003d\u003e \"success\"}\n\n\n\n\n {path\u003d/home/mjurc/testing/eap7-204/test.txt, target-path\u003dtest.txt} {path\u003d/home/mjurc/testing/eap7-204/test.txt, target-path\u003dtest.txt} {path\u003d/home/mjurc/testing/eap7-204/test.txt, target-path\u003dtest.txt}","file_goldset":["org.jboss.as.server.deployment.ExplodedDeploymentAddContentHandler","org.jboss.as.server.controller.resources.DeploymentAttributes"],"creation_date":"2016-09-14T08:08:21.000-05:00","resolution_date":"2016-09-20T21:22:42.000-05:00"}
{"id":4018,"bug_id":"WFCORE-1864","text":"Whitespaces are not removed from dependencies in module add command. Running module add --name\u003dfoo.bar --resources\u003dfoo.jar --dependencies\u003d[org.a, org.b ] will result in following dependencies in module.xml          {{\n...\n    \u003cdependencies\u003e\n        \u003cmodule name\u003d\"org.a\"/\u003e\n        \u003cmodule name\u003d\" org.b \"/\u003e\n    \u003c/dependencies\u003e\n...\n}}","file_goldset":["org.jboss.as.cli.handlers.module.ASModuleHandler","org.jboss.as.test.integration.management.cli.ModuleTestCase"],"creation_date":"2016-10-13T09:12:31.000-05:00","resolution_date":"2016-10-26T20:18:59.000-05:00"}
