{"id":5523,"bug_id":"DATACMNS-68","text":"The following code appears to work fine:  But this fails with the NPE below:","file_goldset":["org.springframework.data.util.ClassTypeInformation"],"creation_date":"2011-08-26T08:05:09.000-05:00","resolution_date":"2011-08-31T12:08:41.000-05:00"}
{"id":5524,"bug_id":"DATACMNS-594","text":"After the resolution of DATACMNS-590, we found another strange behaviour using Spring Data MongoDB, but only disabling the default type mapper resolution, which resolves the class type to map using an attribute.      Retrieving a Customer and navigate to ItemType will lead to a ClassCastException due the lost of generic type.","file_goldset":["org.springframework.data.util.ClassTypeInformation","org.springframework.data.util.TypeDiscoverer","org.springframework.data.util.ClassTypeInformationUnitTests","org.springframework.data.util.GenericArrayTypeInformation","org.springframework.data.util.ParameterizedTypeInformation"],"creation_date":"2014-11-14T03:39:52.000-06:00","resolution_date":"2014-11-19T09:32:12.000-06:00"}
{"id":5525,"bug_id":"DATACMNS-609","text":"This can easily be reproduced with the version 51d1c5d of git@github.com:spring-projects/spring-data-jpa-examples.git by adding an extra stanza like \u003cjpa:repositories base-package\u003d\"org.springframework.dummy\" /\u003e to simple-repository-context.xml and running XmlConfigCachingRepositoryTests.","file_goldset":["org.springframework.data.repository.config.RepositoryConfigurationExtensionSupport","org.springframework.data.repository.config.RepositoryConfigurationExtensionSupportUnitTests"],"creation_date":"2014-11-30T07:31:51.000-06:00","resolution_date":"2014-12-01T01:35:19.000-06:00"}
{"id":5526,"bug_id":"DATACMNS-114","text":"We have two repositories with a similar name suffix. Both repositories have a custom interface and implementation, also ending with a similar name suffix. When automatically scanning the repositories, and their custom implementation, the wrong custom implementation is wired to our repository bean.                          For example: We have a repository named ContractRepository with a custom interface ContractRepositoryCustom and an implementation ContractRepositoryImpl, all defined inside the same package. In another package we have a repository, for another entity type, named AnotherContractRepository with a custom interface AnotherContractRepositoryCustom and an implementation AnotherContractRepositoryImpl. When starting the application context, the contractRepository bean is linked to our anotherContractRepositoryImpl rather than the contractRepositoryImpl.","file_goldset":["org.springframework.data.repository.config.AbstractRepositoryConfigDefinitionParser"],"creation_date":"2011-12-19T03:21:41.000-06:00","resolution_date":"2011-12-20T03:35:19.000-06:00"}
{"id":5527,"bug_id":"DATACMNS-616","text":"Trying to use a custom Envers revision class:","file_goldset":["org.springframework.data.util.AnnotationDetectionFieldCallback"],"creation_date":"2014-12-17T02:25:54.000-06:00","resolution_date":"2014-12-17T07:20:00.000-06:00"}
{"id":5528,"bug_id":"DATACMNS-683","text":"Given following Java config class              , following Controller class                         and following JSP","file_goldset":["org.springframework.data.repository.support.DomainClassConverterUnitTests","org.springframework.data.repository.support.DomainClassConverter"],"creation_date":"2015-04-13T05:31:25.000-05:00","resolution_date":"2015-04-13T08:44:38.000-05:00"}
{"id":5529,"bug_id":"DATACMNS-157","text":"I try to define an interface method in a super repository interface and \u0027implement\u0027 this in an extending interface with @Query.  Tested in the latest nightly build:","file_goldset":["org.springframework.data.repository.core.support.DefaultRepositoryInformationUnitTests","org.springframework.data.repository.core.support.DefaultRepositoryInformation"],"creation_date":"2012-04-20T01:24:38.000-05:00","resolution_date":"2012-04-20T05:15:54.000-05:00"}
{"id":5530,"bug_id":"DATACMNS-160","text":"I attach a sample Maven project to reproduce the issue","file_goldset":["org.springframework.data.repository.core.support.DefaultRepositoryInformationUnitTests","org.springframework.data.repository.core.support.DefaultRepositoryInformation"],"creation_date":"2012-04-21T08:47:35.000-05:00","resolution_date":"2012-04-26T09:13:19.000-05:00"}
{"id":5531,"bug_id":"DATACMNS-695","text":"The issue is triggered querying a nested generic field qualified with a custom class (not primitive). Following snippet shows the nested field we are trying to query:","file_goldset":["org.springframework.data.mapping.context.AbstractMappingContextUnitTests","org.springframework.data.mapping.context.AbstractMappingContext"],"creation_date":"2015-05-13T09:08:15.000-05:00","resolution_date":"2015-05-13T09:37:39.000-05:00"}
{"id":5532,"bug_id":"DATACMNS-228","text":"When using Groovy classes with the mapping metadata sub-system, the Groovy compiler introduced fields like metaClass should not be considered a persistent property.","file_goldset":["org.springframework.data.mapping.context.AbstractMappingContextUnitTests","org.springframework.data.mapping.context.AbstractMappingContext"],"creation_date":"2012-09-10T02:05:09.000-05:00","resolution_date":"2012-09-10T06:29:13.000-05:00"}
{"id":5533,"bug_id":"DATACMNS-943","text":"The invoking call is","file_goldset":["org.springframework.data.repository.core.support.DefaultRepositoryInformation","org.springframework.data.repository.core.support.DefaultRepositoryInformationUnitTests"],"creation_date":"2016-10-04T21:54:22.000-05:00","resolution_date":"2016-11-24T16:25:00.000-06:00"}
{"id":5534,"bug_id":"DATACMNS-176","text":"When trying to persist an object [to MongoDB (spring-data-mongodb v1.1.0. M1)] that is in \"session\" scope and using a CGLIB proxy (ie: \"@Scope(value\u003d\"session\", proxyMode \u003d ScopedProxyMode.TARGET_CLASS)\") I receive a StackOverflowError.","file_goldset":["org.springframework.data.util.ClassTypeInformation"],"creation_date":"2012-05-21T11:47:05.000-05:00","resolution_date":"2012-09-13T10:21:33.000-05:00"}
{"id":5535,"bug_id":"DATACMNS-233","text":"Imagine the use case where you have an Order domain class which has a ManyToOne reference to Customer. When posting a new Order where Order.customer \u003d\u003d \"\" then a converter exception is thrown:       This is the code I used:","file_goldset":["org.springframework.data.repository.support.DomainClassConverter","org.springframework.data.repository.support.DomainClassConverterUnitTests"],"creation_date":"2012-09-14T07:38:12.000-05:00","resolution_date":"2012-09-17T01:05:34.000-05:00"}
{"id":5536,"bug_id":"DATACMNS-257","text":"Here an example:       1) create an entity like in example code snippet in MongoDb 2) try to perform find by id operation by calling MongoOperations.findOne","file_goldset":["org.springframework.data.mapping.PropertyPath","org.springframework.data.mapping.PropertyPathUnitTests"],"creation_date":"2012-11-29T02:29:27.000-06:00","resolution_date":"2012-12-12T23:20:27.000-06:00"}
{"id":5537,"bug_id":"DATACMNS-379","text":"If specified \",\"(comma only) in parameter value of sort, occurred the ArrayIndexOutOfBoundsException.","file_goldset":["org.springframework.data.web.SortHandlerMethodArgumentResolver","org.springframework.data.web.SortHandlerMethodArgumentResolverUnitTests"],"creation_date":"2013-10-08T11:52:55.000-05:00","resolution_date":"2013-12-05T06:01:44.000-06:00"}
{"id":5538,"bug_id":"DATACMNS-509","text":"I have a MVC method that is returning:","file_goldset":["org.springframework.data.repository.core.support.RepositoryFactorySupport","org.springframework.data.repository.core.support.DummyRepositoryFactory","org.springframework.data.repository.core.support.RepositoryFactorySupportUnitTests"],"creation_date":"2014-05-08T08:39:02.000-05:00","resolution_date":"2014-05-20T07:35:26.000-05:00"}
{"id":5539,"bug_id":"DATACMNS-511","text":"We use quite a few abstract MappedSuperclasses that have circular references and apparently this does not work. An example:","file_goldset":["org.springframework.data.util.TypeVariableTypeInformation"],"creation_date":"2014-05-22T00:04:43.000-05:00","resolution_date":"2014-05-31T05:54:31.000-05:00"}
{"id":5540,"bug_id":"DATACMNS-562","text":"This is the Class of entity used to save to mongodb.                                      This is the call entry:","file_goldset":["org.springframework.data.mapping.model.AbstractPersistentPropertyUnitTests","org.springframework.data.mapping.model.AbstractPersistentProperty"],"creation_date":"2014-08-19T01:25:20.000-05:00","resolution_date":"2014-08-19T07:50:41.000-05:00"}
