{"key":"LANG-879","title":"LocaleUtils test fails with new Locale \"ja_JP_JP_#u-ca-japanese\" of JDK7","description":"import static org.hamcrest.MatcherAssert.assertThat;\nimport static org.hamcrest.Matchers.equalTo;\n\nimport java.util.Locale;\n\nimport org.testng.annotations.Test;\n\nimport com.scispike.foundation.i18n.StringToLocaleConverter;\n\npublic class LocaleStringConverterTest {\n\n\tStringToLocaleConverter converter \u003d new StringToLocaleConverter();\n\n\tpublic void testStringToLocale(Locale l) {\n\t\tString s \u003d l.toString();\n\n\t\tassertThat(converter.convert(s), equalTo(l));\n\t}\n\n\t@Test\n\tpublic void testAllLocales() {\n\n\t\tLocale[] locales \u003d Locale.getAvailableLocales();\n\t\tfor (Locale l : locales) {\n\t\t\ttestStringToLocale(l);\n\t\t}\n\t}\n}\n\n\n import java.util.Locale;\n\nimport org.apache.commons.lang3.LocaleUtils;\nimport org.springframework.core.convert.converter.Converter;\n\npublic class StringToLocaleConverter implements Converter\u003cString, Locale\u003e {\n\n\t@Override\n\tpublic Locale convert(String source) {\n\t\tif (source \u003d\u003d null) {\n\t\t\treturn LocaleToStringConverter.DEFAULT;\n\t\t}\n\t\treturn LocaleUtils.toLocale(source);\n\t}\n}"}
{"key":"LANG-624","title":"SystemUtils.getJavaVersionAsFloat throws StringIndexOutOfBoundsException on Android runtime/Dalvik VM","description":"{noformat}\n\n {noformat}"}
{"key":"LANG-477","title":"ExtendedMessageFormat: OutOfMemory with custom format registry and a pattern containing single quotes","description":"{code:title\u003dExtendedMessageFormatTest.java|borderStyle\u003dsolid}\n\n private static Map\u003cString, Object\u003e formatRegistry \u003d new HashMap\u003cString, Object\u003e();    \n     static {\n        formatRegistry.put(DummyFormatFactory.DUMMY_FORMAT, new DummyFormatFactory());\n    }\n    \n     public static void main(String[] args) {\n        ExtendedMessageFormat mf \u003d new ExtendedMessageFormat(\"it\u0027\u0027s a {dummy} \u0027test\u0027!\", formatRegistry);\n        String formattedPattern \u003d mf.format(new String[] {\"great\"});\n        System.out.println(formattedPattern);\n    }\n {code}\n\n {code:title\u003dExtendedMessageFormat.java|borderStyle\u003dsolid}\n if (escapingOn \u0026\u0026 c[start] \u003d\u003d QUOTE) {\n        return appendTo \u003d\u003d null ? null : appendTo.append(QUOTE);\n}\n\nWORKING:\nif (escapingOn \u0026\u0026 c[start] \u003d\u003d QUOTE) {\n        next(pos);\n        return appendTo \u003d\u003d null ? null : appendTo.append(QUOTE);\n}\n{code}"}
{"key":"LANG-746","title":"NumberUtils does not handle upper-case hex: 0X and -0X","description":"NumberUtils.createNumber()  Integer.decode()"}
{"key":"LANG-346","title":"Dates.round() behaves incorrectly for minutes and seconds","description":"public void testRound()\n{\n    Calendar testCalendar \u003d Calendar.getInstance(TimeZone.getTimeZone(\"GMT\"));\n    testCalendar.set(2007, 6, 2, 8, 9, 50);\n    Date date \u003d testCalendar.getTime();\n    System.out.println(\"Before round() \" + date);\n    System.out.println(\"After round()  \" + DateUtils.round(date, Calendar.MINUTE));\n}\n\n Before round()  After round()   Before round()  After round()"}
{"key":"LANG-292","title":"unescapeXml(\"\u002612345678;\") should be \"\u002612345678;\"","description":"public void testNumberOverflow() throws Exception {\n        doTestUnescapeEntity(\"\u0026#12345678;\", \"\u0026#12345678;\");\n        doTestUnescapeEntity(\"x\u0026#12345678;y\", \"x\u0026#12345678;y\");\n        doTestUnescapeEntity(\"\u0026#x12345678;\", \"\u0026#x12345678;\");\n        doTestUnescapeEntity(\"x\u0026#x12345678;y\", \"x\u0026#x12345678;y\");\n    }"}
{"key":"LANG-788","title":"SerializationUtils throws ClassNotFoundException when cloning primitive classes","description":"{noformat}\n import org.apache.commons.lang3.SerializationUtils;\nimport org.junit.Test;\n\n\npublic class SerializationUtilsTest {\n\n\t\n\t@Test\n\tpublic void primitiveTypeClassSerialization(){\n\t\tClass\u003c?\u003e primitiveType \u003d int.class;\n\t\t\n\t\tClass\u003c?\u003e clone \u003d SerializationUtils.clone(primitiveType);\n\t\tassertEquals(primitiveType, clone);\n\t}\n}\n {noformat} \n\n {noformat}\n         protected Class\u003c?\u003e resolveClass(ObjectStreamClass desc) throws IOException, ClassNotFoundException {\n            String name \u003d desc.getName();\n            try {\n                return Class.forName(name, false, classLoader);\n            } catch (ClassNotFoundException ex) {\n            \ttry {\n            \t     return Class.forName(name, false, Thread.currentThread().getContextClassLoader());\n            \t} catch (Exception e) {\n\t\t     return super.resolveClass(desc);\n\t\t}\n            }\n        }\n {noformat}\n\n {noformat}\n     protected Class\u003c?\u003e resolveClass(ObjectStreamClass desc)\n\tthrows IOException, ClassNotFoundException\n    {\n\tString name \u003d desc.getName();\n\ttry {\n\t    return Class.forName(name, false, latestUserDefinedLoader());\n\t} catch (ClassNotFoundException ex) {\n\t    Class cl \u003d (Class) primClasses.get(name);\n\t    if (cl !\u003d null) {\n\t\treturn cl;\n\t    } else {\n\t\tthrow ex;\n\t    }\n\t}\n    }\n {noformat}"}
{"key":"LANG-645","title":"FastDateFormat.format() outputs incorrect week of year because locale isn\u0027t respected","description":"format() {code}\n import java.util.Calendar;\nimport java.util.Date;\nimport java.util.Locale;\nimport java.text.SimpleDateFormat;\n\nimport org.apache.commons.lang.time.FastDateFormat;\n\npublic class FastDateFormatWeekBugDemo {\n    public static void main(String[] args) {\n        Locale.setDefault(new Locale(\"en\", \"US\"));\n        Locale locale \u003d new Locale(\"sv\", \"SE\");\n\n        Calendar cal \u003d Calendar.getInstance(); // setting locale here doesn\u0027t change outcome\n        cal.set(2010, 0, 1, 12, 0, 0);\n        Date d \u003d cal.getTime();\n        System.out.println(\"Target date: \" + d);\n\n        FastDateFormat fdf \u003d FastDateFormat.getInstance(\"EEEE\u0027, week \u0027ww\", locale);\n        SimpleDateFormat sdf \u003d new SimpleDateFormat(\"EEEE\u0027, week \u0027ww\", locale);\n        System.out.println(\"FastDateFormat:   \" + fdf.format(d)); // will output \"FastDateFormat:   fredag, week 01\"\n        System.out.println(\"SimpleDateFormat: \" + sdf.format(d)); // will output \"SimpleDateFormat: fredag, week 53\"\n    }\n}\n {code}\n Locale.setDefault()"}
{"key":"LANG-480","title":"StringEscapeUtils.escapeHtml incorrectly converts unicode characters above U+00FFFF into 2 characters","description":"import org.apache.commons.lang.*;\n\npublic class J2 {\n    public static void main(String[] args) throws Exception {\n        // this is the utf8 representation of the character:\n        // COUNTING ROD UNIT DIGIT THREE\n        // in unicode\n        // codepoint: U+1D362\n        byte[] data \u003d new byte[] { (byte)0xF0, (byte)0x9D, (byte)0x8D, (byte)0xA2 };\n\n        //output is: \u0026amp;#55348;\u0026amp;#57186;\n        // should be: \u0026amp;#119650;\n        System.out.println(\"\u0027\" + StringEscapeUtils.escapeHtml(new String(data, \"UTF8\")) + \"\u0027\");\n    }\n}"}
{"key":"LANG-300","title":"NumberUtils.createNumber throws NumberFormatException for one digit long","description":"isDigits(numeric.substring(1)) numeric.substring(1)"}
{"key":"LANG-363","title":"StringEscapeUtils.escapeJavaScript() method did not escape \u0027/\u0027 into \u0027\\/\u0027, it will make IE render page uncorrectly","description":"document.getElementById(\"test\") document.getElementById(\"test\") String s \u003d \"\u003cscript\u003ealert(\u0027aaa\u0027);\u003c/script\u003e\";\n  String str \u003d org.springframework.web.util.JavaScriptUtils.javaScriptEscape(s);\n  System.out.println(\"Spring JS Escape : \"+str);\n  str \u003d org.apache.commons.lang.StringEscapeUtils.escapeJavaScript(s);\n  System.out.println(\"Apache Common Lang JS Escape : \"+ str);"}
{"key":"LANG-662","title":"org.apache.commons.lang3.math.Fraction does not reduce (Integer.MIN_VALUE, 2^k)","description":"class Fraction  public void testReducedFactory_int_int()  f \u003d Fraction.getReducedFraction(Integer.MIN_VALUE, 2);\n\t\tassertEquals(Integer.MIN_VALUE / 2, f.getNumerator());\n\t\tassertEquals(1, f.getDenominator());\n\n\t public void testReduce()  f \u003d Fraction.getFraction(Integer.MIN_VALUE, 2);\n\t\tresult \u003d f.reduce();\n\t\tassertEquals(Integer.MIN_VALUE / 2, result.getNumerator());\n\t\tassertEquals(1, result.getDenominator());\n{code}"}
{"key":"LANG-832","title":"FastDateParser does not handle unterminated quotes correctly","description":"{IsNd}"}
{"key":"LANG-538","title":"DateFormatUtils.format does not correctly change Calendar TimeZone in certain situations","description":"Calenar.getTime()  {noformat}\n   public void testFormat_CalendarIsoMsZulu() {\n    final String dateTime \u003d \"2009-10-16T16:42:16.000Z\";\n\n    // more commonly constructed with: cal \u003d new GregorianCalendar(2009, 9, 16, 8, 42, 16)\n    // for the unit test to work in any time zone, constructing with GMT-8 rather than default locale time zone\n    GregorianCalendar cal \u003d new GregorianCalendar(TimeZone.getTimeZone(\"GMT-8\"));\n    cal.clear();\n    cal.set(2009, 9, 16, 8, 42, 16);\n\n\n    FastDateFormat format \u003d FastDateFormat.getInstance(\"yyyy-MM-dd\u0027T\u0027HH:mm:ss.SSS\u0027Z\u0027\", TimeZone.getTimeZone(\"GMT\"));\n    assertEquals(\"dateTime\", dateTime, format.format(cal));\n  }\n {noformat}\n\n {noformat}\n   public void testFormat_CalendarIsoMsZulu() {\n    final String dateTime \u003d \"2009-10-16T16:42:16.000Z\";\n    GregorianCalendar cal \u003d new GregorianCalendar(TimeZone.getTimeZone(\"GMT-8\"));\n    cal.clear();\n    cal.set(2009, 9, 16, 8, 42, 16);\n    cal.getTime();\n\n    FastDateFormat format \u003d FastDateFormat.getInstance(\"yyyy-MM-dd\u0027T\u0027HH:mm:ss.SSS\u0027Z\u0027\", TimeZone.getTimeZone(\"GMT\"));\n    assertEquals(\"dateTime\", dateTime, format.format(cal));\n  }\n {noformat}"}
{"key":"LANG-315","title":"StopWatch: suspend() acts as split(), if followed by stop()","description":"suspend()  split() stop();  StopWatch sw \u003d new StopWatch();\n\n        sw.start();\n        Thread.sleep(1000);\n        sw.suspend();\n        // Time 1 (ok)\n        System.out.println(sw.getTime());\n\n        Thread.sleep(2000);\n        // Time 1 (again, ok)\n        System.out.println(sw.getTime());\n\n        sw.resume();\n        Thread.sleep(3000);\n        sw.suspend();\n        // Time 2 (ok)\n        System.out.println(sw.getTime());\n\n        Thread.sleep(4000);\n        // Time 2 (again, ok)\n        System.out.println(sw.getTime());\n\n        Thread.sleep(5000);\n        sw.stop();\n        // Time 2 (should be, but is Time 3 \u003d\u003e NOT ok)\n        System.out.println(sw.getTime());\n\n\n stop()"}
{"key":"LANG-432","title":"Fix case-insensitive string handling","description":"Case()"}
{"key":"LANG-710","title":"StringIndexOutOfBoundsException when calling unescapeHtml4(\"\u0026#03\")","description":"unescapeHtml4()"}
{"key":"LANG-857","title":"StringIndexOutOfBoundsException in CharSequenceTranslator","description":"{code:java}\n @Test\npublic void testEscapeSurrogatePairs() throws Exception {\n    assertEquals(\"\\uD83D\\uDE30\", StringEscapeUtils.escapeCsv(\"\\uD83D\\uDE30\"));\n}\n {code}\n\n {code}\n {code}\n\n public final void translate(CharSequence input, Writer out) throws IOException"}
{"key":"LANG-552","title":"StringUtils replaceEach - Bug or Missing Documentation ","description":"{code}\n import static org.junit.Assert.assertEquals;\n\nimport org.apache.commons.lang.StringUtils;\nimport org.junit.Test;\n\n\npublic class StringUtilsTest {\n\n\t@Test\n\tpublic void replaceEach(){\n\t\tString original \u003d \"Hello World!\";\n\t\tString[] searchList \u003d {\"Hello\", \"World\"};\n\t\tString[] replacementList \u003d {\"Greetings\", null};\n\t\tString result \u003d StringUtils.replaceEach(original, searchList, replacementList);\n\t\tassertEquals(\"Greetings !\", result);\n\t\t//perhaps this is ok as well\n                //assertEquals(\"Greetings World!\", result);\n                //or even\n\t\t//assertEquals(\"Greetings null!\", result);\n\t}\n\n\t\n}\n {code}"}
