{"key":"77","title":"addDays(0) changes value of MutableDateTime","description":"final MutableDateTime mdt \u003d new MutableDateTime(2011, 10, 30, 3, 0, 0, 0, DateTimeZone.forID(\"Europe/Berlin\"));\nSystem.out.println(\"Start date: \" + mdt + \" (\" + mdt.toInstant().getMillis() + \")\");\nmdt.addHours(-1);\nSystem.out.println(\"addHours(-1): \" + mdt + \" (\" + mdt.toInstant().getMillis() + \")\");\nmdt.addHours(0);\nSystem.out.println(\"addHours(0): \" + mdt + \" (\" + mdt.toInstant().getMillis() + \")\");\nmdt.addDays(0);\nSystem.out.println(\"addDays(0): \" + mdt + \" (\" + mdt.toInstant().getMillis() + \")\");\n addHours(-1) addHours(0) addDays(0) addDays(0)"}
{"key":"18","title":"NPE in DateTimeZoneBuilder","description":"PrecalculatedZone.create() ZoneInfoCompiler.verbose() static {\n cVerbose.set(Boolean.FALSE);\n }\n public static boolean verbose() {\n return cVerbose.get();\n }\n public static boolean verbose(){\n Boolean verbose \u003d cVerbose.get();\n return (verbose !\u003d null) ? verbose : false;\n}\n @Test\n public void testDateTimeZoneBuilder() throws Exception {\n getTestDataTimeZoneBuilder().toDateTimeZone(\"TestDTZ1\", true);\n Thread t \u003d new Thread(new Runnable() {\n @Override\n public void run() {\n getTestDataTimeZoneBuilder().toDateTimeZone(\"TestDTZ2\", true);\n }\n });\n t.start();\n t.join();\n }\n\n  private DateTimeZoneBuilder getTestDataTimeZoneBuilder() {\n return new DateTimeZoneBuilder()\n .addCutover(1601, \u0027w\u0027, 1, 1, 1, false, 7200000)\n .setStandardOffset(3600000)\n .addRecurringSavings(\"\", 3600000, 1601, Integer.MAX_VALUE, \u0027w\u0027, 3, -1, 1, false, 7200000)\n .addRecurringSavings(\"\", 0, 1601, Integer.MAX_VALUE, \u0027w\u0027, 10, -1, 1, false, 10800000);\n }"}
{"key":"79","title":"none standard PeriodType without year throws exception","description":"Period p \u003d new Period(new DateTime(startDate.getTime()), new DateTime(endDate.getTime()), PeriodType.forFields(new DurationFieldType[]{DurationFieldType.months(), DurationFieldType.weeks()})).normalizedStandard(PeriodType.forFields(new DurationFieldType[]{DurationFieldType.months(), DurationFieldType.weeks()}));\nreturn p.getMonths();\n withYearsRemoved() throws the  Period p \u003d new Period(new DateTime(startDate.getTime()), new DateTime(endDate.getTime()), PeriodType.standard()).normalizedStandard(PeriodType.standard());\nreturn p.getMonths();\n Period p \u003d new Period(new DateTime(startDate.getTime()), new DateTime(endDate.getTime()), PeriodType.standard().withYearsRemoved()).normalizedStandard(PeriodType.standard().withYearsRemoved());\nreturn p.getMonths();"}
{"key":"21","title":"DateTimeFormat.parseInto sometimes miscalculates year (2.2)","description":"public void testParseInto_monthDay_feb29_startOfYear() {\n DateTimeFormatter f \u003d DateTimeFormat.forPattern(\"M d\").withLocale(Locale.UK);\n MutableDateTime result \u003d new MutableDateTime(2000, 1, 1, 0, 0, 0, 0, NEWYORK);\n assertEquals(4, f.parseInto(result, \"2 29\", 0));\n assertEquals(new MutableDateTime(2000, 2, 29, 0, 0, 0, 0, NEWYORK), result);\n }"}
{"key":"88","title":"Constructing invalid Partials","description":"Partial a \u003d new Partial(new DateTimeFieldType[] { year(), hourOfDay() }, new int[] { 1, 1});\nPartial b \u003d new Partial(year(), 1).with(hourOfDay(), 1);\nassert(a \u003d\u003d b);\n new Partial(new DateTimeFieldType[] { clockhourOfDay(), hourOfDay() }, new int[] { 1, 1}); // throws Types array must not contain duplicate\nnew Partial(clockhourOfDay(), 1).with(hourOfDay(), 1); // #\u003cPartial [clockhourOfDay\u003d1, hourOfDay\u003d1]\u003e\n new Partial(clockhourOfDay(), 1) with(hourOfDay(), 1) isEqual(new Partial(hourOfDay() ,1).with(clockhourOfDay(), 1)) // throws objects must have matching field types"}
{"key":"22","title":"Days#daysBetween throw exception for MonthDay with 29 February","description":"final LocalDate january12012 \u003d new LocalDate(2012, 1,1);\nfinal LocalDate february292012 \u003d new LocalDate(2012, 2, 29);\n// OK\nassertEquals(59, Days.daysBetween(january12012, february292012).getDays());\n\nfinal MonthDay january1 \u003d new MonthDay(1,1);\nfinal MonthDay february29 \u003d new MonthDay(2, 29);\n// FAIL\nassertEquals(59, Days.daysBetween(january1, february29).getDays());"}
{"key":"93","title":"Partial.with fails with NPE","description":"new Partial(yearOfCentury(), 1) with(weekyear(), 1);\n// NullPointerException\n// org.joda.time.Partial.with (Partial.java:447)"}
{"key":"28","title":"Questionable behaviour of GJChronology when dates pass 1BC","description":"Chronology chronology \u003d GJChronology.getInstance();\n\nLocalDate start \u003d new LocalDate(2013, 5, 31, chronology);\nLocalDate expectedEnd \u003d new LocalDate(-1, 5, 31, chronology); // 1 BC\nassertThat(start.minusYears(2013), is(equalTo(expectedEnd)));\nassertThat(start.plus(Period.years(-2013)), is(equalTo(expectedEnd)));"}
