{"key":"AMQP-190","title":"CachingConnectionFactory leaks channels when synchronized with a TransactionManager","description":"It seems that when I use RabbitTemplate, channelTransacted\u003dtrue, to convertAndSend() a message to an exchange within the context of a synchronized TransactionManager (e.g. an active transaction on the current thread), the channel is never closed, hence new publishes will always get their \"own\", shiny, new channel (that is never closed or released to the channel pool) until Rabbit can\u0027t handle any more channels.       convertAndSend()"}
{"key":"AMQP-340","title":"Wrong RabbitMQ credentials are not considered as fatal error by SimpleMessageListenerContainer","description":"If I connect an AmqpInboundChannelAdapter to the RabbitMQ (3.1.0) with wrong credentials (wrong password) the SimpleMessageListenerContainer doesn\u0027t detect the real reason and continues to restart the consumer in a seemingly endless loop.   start()  SimpleMessageListenerContainer.run()"}
{"key":"AMQP-502","title":"Fanout binding is not created due to missing routing key","description":"Currently i am using spring-cloud-starter-bus-amqp which in terms references spring-amqp 1.4.3. when i declare a rabbitlistener like this:                                                                                                                                                                         @RabbitListener(\n\n\n\n\n      bindings \u003d @QueueBinding(\n\n\n\n\n          value \u003d @Queue(\n\n\n\n\n              autoDelete \u003d \"true\"\n\n\n\n\n          ),\n\n\n\n\n          exchange \u003d @Exchange(\n\n\n\n\n              type \u003d \"fanout\",\n\n\n\n\n              value \u003d \"mytest.broadcast\",\n\n\n\n\n              autoDelete \u003d \"true\"\n\n\n\n\n          ),\n\n\n\n\n          key \u003d \"#\"\n\n\n\n\n      )\n\n\n\n\n  )\n\n\n\n\n  public void processBroadcast(String data) {\n\n\n\n\n    int i \u003d 0;\n\n\n\n\n  }\n\n\n\n\n\n\n {} {} {}"}
{"key":"AMQP-516","title":"Setting autoDelete or exclusive to anything, including \"true\" in @Queue without a queue name results in them being disabled","description":"The following queue declaration will result in a queue being declared with auto delete and exclusive set to false:                             @RabbitListener(bindings \u003d @QueueBinding(\n\n\n\n\n    value \u003d @Queue(autoDelete \u003d \"true\", exclusive \u003d \"true\"),\n\n\n\n\n    exchange \u003d @Exchange(value \u003d \"myFanout\", type \u003d ExchangeTypes.FANOUT, durable \u003d \"true\")\n\n\n\n\n))\n\n\n\n\n\n\n if (!StringUtils.hasText(queueName)) {\n\n\n\n\n    queueName \u003d UUID.randomUUID().toString();\n\n\n\n\n    if (!StringUtils.hasText(bindingQueue.exclusive())) {\n\n\n\n\n        exclusive \u003d true;\n\n\n\n\n    }\n\n\n\n\n    if (!StringUtils.hasText(bindingQueue.autoDelete())) {\n\n\n\n\n        autoDelete \u003d true;\n\n\n\n\n    }\n\n\n\n\n}\n\n\n\n\nelse {\n\n\n\n\n    exclusive \u003d resolveExpressionAsBoolean(bindingQueue.exclusive());\n\n\n\n\n    autoDelete \u003d resolveExpressionAsBoolean(bindingQueue.autoDelete());\n\n\n\n\n}\n\n\n\n\n\n\n String e \u003d bindingQueue.exclusive();\n\n\n\n\nif (!StringUtils.hasText(e) || resolveExpressionAsBoolean(e)) {\n\n\n\n\n    exclusive \u003d true\n\n\n\n\n}"}
{"key":"AMQP-653","title":"RabbitMessagingTemplate doesn\u0027t take advantage of RabbitTemplate\u0027s registered converters","description":"When using RabbitTemplate in a Spring Boot application, it\u0027s very easy to register a Spring AMQP Message Converter. Just add this to your code:     However, if you switch to RabbitMessagingTemplate, that bean no longer works, because RabbitMessagingTemplate doesn\u0027t offer to look up RabbitTemplate\u0027s converters, and instead relies on its own.  @Bean\n\n\n\n\nJackson2JsonMessageConverter jackson2JsonMessageConverter() {\n\n\n\n\n\treturn new Jackson2JsonMessageConverter();\n\n\n\n\n}"}
{"key":"AMQP-656","title":"Unable to refer to the default exchange using @Argument within a @RabbitListener","description":"For example, you should be able to configure a queue to use the default exchange as part of the dead letter config similar to the following:                             @Argument @RabbitListener(bindings \u003d\n\n\n\n\n        @QueueBinding(\n\n\n\n\n            value \u003d @Queue(\n\n\n\n\n                value \u003d \"app.events.myEvent\",\n\n\n\n\n                durable \u003d \"true\",\n\n\n\n\n                exclusive \u003d \"false\",\n\n\n\n\n                autoDelete \u003d \"false\",\n\n\n\n\n                arguments \u003d {\n\n\n\n\n                        @Argument(name\u003d\"x-dead-letter-exchange\", value \u003d \"\"),\n\n\n\n\n                        @Argument(name\u003d\"x-dead-letter-routing-key\", value\u003d\"app.dlq\")\n\n\n\n\n                }),\n\n\n\n\n            exchange \u003d @Exchange(value\u003d\"amq.topic\", durable \u003d \"true\", type \u003d \"topic\"),\n\n\n\n\n            key\u003d\"event.app.myEvent.v1\"\n\n\n\n\n        ))\n\n\n\n\n\n\n @Bean\n\n\n\n\n    public Queue appMyEventQueue() {\n\n\n\n\n        return QueueBuilder.durable(\"app.events.myEvent\")\n\n\n\n\n            .withArgument(\"x-dead-letter-exchange\", \"\")\n\n\n\n\n            .withArgument(\"x-dead-letter-routing-key\", deadLetterQueue().getName())\n\n\n\n\n            .build();\n\n\n\n\n    }"}
