system;bugId;has_ob;has_eb;has_sr;has_other;has_code
WFCORE;WFCORE-1027;x;x;x;x;x
WFCORE;WFCORE-1578;x;x;x;x;x
DATACMNS;DATACMNS-114;x;x;x;x;x
DATAMONGO;DATAMONGO-1263;x;x;x;x;x
WFCORE;WFCORE-1908;x;x;x;x;x
WFCORE;WFCORE-229;x;x;x;x;
DATAMONGO;DATAMONGO-987;x;x;x;x;x
CONFIGURATION;CONFIGURATION-214;x;x;x;x;x
DATAMONGO;DATAMONGO-505;x;x;x;x;x
WFCORE;WFCORE-763;x;x;x;x;
WFCORE;WFCORE-1062;x;x;x;x;
AMQP;AMQP-290;x;x;x;x;
SWARM;SWARM-863;x;x;x;x;x
DATAMONGO;DATAMONGO-1290;x;x;x;x;x
DATACMNS;DATACMNS-228;x;x;x;;
WFCORE;WFCORE-604;x;x;x;x;x
WFCORE;WFCORE-1936;x;x;x;x;x
WFCORE;WFCORE-1572;x;x;x;;x
DATAMONGO;DATAMONGO-392;x;x;x;x;x
DATAMONGO;DATAMONGO-423;x;x;x;x;x
DATAMONGO;DATAMONGO-1078;x;x;x;x;x
COMPRESS;COMPRESS-273;x;x;x;x;x
WFCORE;WFCORE-754;x;x;x;x;
WFCORE;WFCORE-1714;x;x;x;x;
AMQP;AMQP-340;x;x;x;;x
CONFIGURATION;CONFIGURATION-481;x;x;x;x;x
DATACMNS;DATACMNS-233;x;x;x;x;x
DATAMONGO;DATAMONGO-1289;x;x;x;x;x
WFCORE;WFCORE-626;x;x;x;x;x
WFCORE;WFCORE-1657;x;x;x;x;
WFCORE;WFCORE-1570;x;x;x;x;x
DATAMONGO;DATAMONGO-1088;x;x;x;x;x
AMQP;AMQP-516;x;x;x;x;x
WFCORE;WFCORE-815;x;x;x;x;x
DATAMONGO;DATAMONGO-647;x;x;x;x;x
DATAMONGO;DATAMONGO-1123;x;x;x;x;x
ENTESB;ENTESB-3099;x;x;x;x;
DATAMONGO;DATAMONGO-1406;x;x;x;x;x
WFCORE;WFCORE-1864;x;x;x;x;x
DATAMONGO;DATAMONGO-1126;x;x;x;x;x
DATAMONGO;DATAMONGO-1232;x;x;x;;
WFCORE;WFCORE-1007;x;x;x;x;x
DATAMONGO;DATAMONGO-1236;x;x;x;;
