system;bugId;has_ob;has_eb;has_sr;has_other;has_code
IO;IO-180;x;x;;x;x
DATAMONGO;DATAMONGO-987;x;x;x;x;x
DATACMNS;DATACMNS-114;x;x;x;x;x
WFCORE;WFCORE-1578;x;x;x;x;x
WFCORE;WFCORE-1908;x;x;x;x;x
DATAMONGO;DATAMONGO-1263;x;x;x;x;x
WFCORE;WFCORE-1027;x;x;x;x;x
WFCORE;WFCORE-1354;x;x;;x;x
COMPRESS;COMPRESS-332;x;x;;x;x
DATAMONGO;DATAMONGO-505;x;x;x;x;x
AMQP;AMQP-340;x;x;x;;x
WFCORE;WFCORE-815;x;x;x;x;x
WFCORE;WFCORE-604;x;x;x;x;x
SWARM;SWARM-863;x;x;x;x;x
COMPRESS;COMPRESS-357;x;x;;x;x
COMPRESS;COMPRESS-171;x;x;;;x
WFCORE;WFCORE-1607;x;x;;x;x
DATACMNS;DATACMNS-233;x;x;x;x;x
DATAMONGO;DATAMONGO-420;x;x;;x;x
AMQP;AMQP-434;x;x;;;x
DATAMONGO;DATAMONGO-1290;x;x;x;x;x
DATAMONGO;DATAMONGO-423;x;x;x;x;x
WFCORE;WFCORE-626;x;x;x;x;x
DATAMONGO;DATAMONGO-663;x;x;x;x;x
CONFIGURATION;CONFIGURATION-214;x;x;x;x;x
WFCORE;WFCORE-1007;x;x;x;x;x
WFCORE;WFCORE-1212;x;x;;x;x
WFCORE;WFCORE-1028;x;x;;x;x
DATACMNS;DATACMNS-441;x;x;;;x
CONFIGURATION;CONFIGURATION-275;x;x;;;x
DATAMONGO;DATAMONGO-1289;x;x;x;x;x
DATAMONGO;DATAMONGO-1078;x;x;x;x;x
WFCORE;WFCORE-1715;x;x;;x;x
AMQP;AMQP-516;x;x;x;x;x
COMPRESS;COMPRESS-245;x;x;;x;x
WFCORE;WFCORE-1936;x;x;x;x;x
DATAMONGO;DATAMONGO-392;x;x;x;x;x
WFCORE;WFCORE-687;x;x;x;x;x
WFCORE;WFCORE-1572;x;x;x;;x
CONFIGURATION;CONFIGURATION-481;x;x;x;x;x
AMQP;AMQP-633;x;x;;x;x
DATAMONGO;DATAMONGO-1088;x;x;x;x;x
DATAMONGO;DATAMONGO-1406;x;x;x;x;x
COMPRESS;COMPRESS-273;x;x;x;x;x
WFCORE;WFCORE-1570;x;x;x;x;x
DATAMONGO;DATAMONGO-1123;x;x;x;x;x
WFCORE;WFCORE-1864;x;x;x;x;x
DATAMONGO;DATAMONGO-647;x;x;x;x;x
DATAMONGO;DATAMONGO-1126;x;x;x;x;x
DATAMONGO;DATAMONGO-1133;x;x;;x;x
DATAMONGO;DATAMONGO-1307;x;x;;x;x
