system;bugId;has_ob;has_eb;has_sr;has_other;has_code
WFCORE;WFCORE-1611;x;;x;x;
COMPRESS;COMPRESS-309;x;;x;x;x
DATACMNS;DATACMNS-68;x;;x;x;x
DATAMONGO;DATAMONGO-430;x;;x;x;
WFCORE;WFCORE-727;x;;x;x;
WFCORE;WFCORE-1229;x;;x;x;
DATAMONGO;DATAMONGO-1263;x;x;x;x;x
DATACMNS;DATACMNS-594;x;;x;x;
WFCORE;WFCORE-267;x;;x;x;x
WFCORE;WFCORE-1027;x;x;x;x;x
WFCORE;WFCORE-1908;x;x;x;x;x
IO;IO-252;x;;x;x;
AMQP;AMQP-190;x;;x;x;x
DATAMONGO;DATAMONGO-938;x;;x;x;x
WFCORE;WFCORE-1578;x;x;x;x;x
CONFIGURATION;CONFIGURATION-214;x;x;x;x;x
DATACMNS;DATACMNS-609;x;;x;;x
DATAMONGO;DATAMONGO-1290;x;x;x;x;x
SWARM;SWARM-757;x;;x;x;
DATAMONGO;DATAMONGO-952;x;;x;x;x
DATACMNS;DATACMNS-114;x;x;x;x;x
WFCORE;WFCORE-916;x;;x;x;
WFCORE;WFCORE-716;x;;x;x;x
DATAMONGO;DATAMONGO-467;x;;x;x;x
IO;IO-481;x;;x;x;x
AMQP;AMQP-332;x;;x;x;
WFCORE;WFCORE-229;x;x;x;x;
WFCORE;WFCORE-1936;x;x;x;x;x
DATACMNS;DATACMNS-157;x;;x;x;x
CONFIGURATION;CONFIGURATION-241;x;;x;x;x
WFCORE;WFCORE-997;x;;x;x;
DATAMONGO;DATAMONGO-987;x;x;x;x;x
WFCORE;WFCORE-763;x;x;x;x;
SWARM;SWARM-751;x;;x;x;
DATAMONGO;DATAMONGO-1289;x;x;x;x;x
DATACMNS;DATACMNS-616;x;;x;x;x
WFCORE;WFCORE-1635;x;;x;x;x
DATAMONGO;DATAMONGO-505;x;x;x;x;x
WFCORE;WFCORE-1346;x;;x;x;x
WFCORE;WFCORE-500;x;;x;x;
AMQP;AMQP-290;x;x;x;x;
WFCORE;WFCORE-1959;x;;x;x;x
DATAMONGO;DATAMONGO-1027;x;;x;x;
CONFIGURATION;CONFIGURATION-259;x;;x;x;x
DATACMNS;DATACMNS-683;x;;x;x;x
DATAMONGO;DATAMONGO-1360;x;;x;x;x
DATACMNS;DATACMNS-160;x;;x;x;x
COMPRESS;COMPRESS-131;x;;x;x;x
WFCORE;WFCORE-701;x;;x;x;x
DATAMONGO;DATAMONGO-523;x;;x;x;x
WFCORE;WFCORE-765;x;;x;x;
SWARM;SWARM-793;x;;x;x;
WFCORE;WFCORE-1590;x;;x;x;x
AMQP;AMQP-340;x;x;x;;x
WFCORE;WFCORE-1062;x;x;x;x;
WFCORE;WFCORE-495;x;;x;x;x
CONFIGURATION;CONFIGURATION-332;x;;x;x;x
DATACMNS;DATACMNS-695;x;;x;x;x
DATAMONGO;DATAMONGO-1068;x;;x;x;x
DATAMONGO;DATAMONGO-1288;x;;x;;x
COMPRESS;COMPRESS-176;x;;x;x;
DATACMNS;DATACMNS-228;x;x;x;;
SWARM;SWARM-863;x;x;x;x;x
DATAMONGO;DATAMONGO-585;x;;x;x;x
WFCORE;WFCORE-989;x;;x;x;x
AMQP;AMQP-502;x;;x;x;x
WFCORE;WFCORE-754;x;x;x;x;
WFCORE;WFCORE-499;x;;x;x;
COMPRESS;COMPRESS-184;x;;x;x;
CONFIGURATION;CONFIGURATION-347;x;;;x;x
WFCORE;WFCORE-1333;x;;x;;
WFCORE;WFCORE-1718;x;;x;x;x
DATAMONGO;DATAMONGO-1436;x;;x;x;
DATAMONGO;DATAMONGO-1050;x;;x;x;x
DATACMNS;DATACMNS-176;x;;x;x;x
WFCORE;WFCORE-58;x;;x;x;
DATACMNS;DATACMNS-943;x;;x;x;x
WFCORE;WFCORE-815;x;x;x;x;x
AMQP;AMQP-516;x;x;x;x;x
ENTESB;ENTESB-3099;x;x;x;x;
COMPRESS;COMPRESS-187;x;;x;x;
CONFIGURATION;CONFIGURATION-408;x;;x;x;x
DATAMONGO;DATAMONGO-629;x;;x;x;x
DATAMONGO;DATAMONGO-1078;x;x;x;x;x
WFCORE;WFCORE-1115;x;;x;x;
WFCORE;WFCORE-604;x;x;x;x;x
WFCORE;WFCORE-1572;x;x;x;;x
DATAMONGO;DATAMONGO-1438;x;;x;x;x
DATACMNS;DATACMNS-233;x;x;x;x;x
WFCORE;WFCORE-1714;x;x;x;x;
CONFIGURATION;CONFIGURATION-481;x;x;x;x;x
DATAMONGO;DATAMONGO-571;x;;x;x;x
DATAMONGO;DATAMONGO-1088;x;x;x;x;x
WFCORE;WFCORE-798;x;;x;x;
AMQP;AMQP-653;x;;x;x;x
COMPRESS;COMPRESS-189;x;;x;x;x
WFCORE;WFCORE-892;x;;x;x;
WFCORE;WFCORE-638;x;;x;x;
DATAMONGO;DATAMONGO-1123;x;x;x;x;x
DATAMONGO;DATAMONGO-688;x;;x;x;x
WFCORE;WFCORE-1570;x;x;x;x;x
DATAMONGO;DATAMONGO-1394;x;;x;x;x
DATACMNS;DATACMNS-257;x;;x;x;x
CONFIGURATION;CONFIGURATION-627;x;;x;x;x
WFCORE;WFCORE-268;x;;x;x;
WFCORE;WFCORE-1765;x;;x;x;x
AMQP;AMQP-656;x;;x;x;x
DATAMONGO;DATAMONGO-398;x;;x;x;
DATAMONGO;DATAMONGO-1126;x;x;x;x;x
COMPRESS;COMPRESS-252;x;;x;x;
WFCORE;WFCORE-942;x;;x;x;
DATACMNS;DATACMNS-379;x;;x;x;
DATAMONGO;DATAMONGO-392;x;x;x;x;x
SWARM;SWARM-485;x;;x;x;
WFCORE;WFCORE-1657;x;x;x;x;
WFCORE;WFCORE-626;x;x;x;x;x
DATAMONGO;DATAMONGO-1406;x;x;x;x;x
WFCORE;WFCORE-145;x;;x;x;
DATAMONGO;DATAMONGO-413;x;;x;x;x
DATAMONGO;DATAMONGO-1202;x;;x;x;x
DATAMONGO;DATAMONGO-702;x;;x;;x
WFCORE;WFCORE-1214;x;;x;x;x
SWARM;SWARM-528;x;;x;x;x
COMPRESS;COMPRESS-273;x;x;x;x;x
WFCORE;WFCORE-896;x;;x;x;
DATACMNS;DATACMNS-509;x;;x;x;x
DATAMONGO;DATAMONGO-1486;x;;x;x;x
DATAMONGO;DATAMONGO-1232;x;x;x;;
WFCORE;WFCORE-1793;x;;x;x;x
WFCORE;WFCORE-285;x;;x;x;
WFCORE;WFCORE-230;x;;x;x;
SWARM;SWARM-486;x;;x;x;x
DATAMONGO;DATAMONGO-717;x;;x;x;x
COMPRESS;COMPRESS-278;x;;x;x;x
DATAMONGO;DATAMONGO-423;x;x;x;x;x
WFCORE;WFCORE-955;x;;x;x;x
WFCORE;WFCORE-1198;x;;x;x;x
DATAMONGO;DATAMONGO-1250;x;;x;x;x
DATACMNS;DATACMNS-511;x;;x;x;x
SWARM;SWARM-553;x;;x;x;
DATAMONGO;DATAMONGO-721;x;;x;x;x
WFCORE;WFCORE-868;x;;x;x;
WFCORE;WFCORE-1864;x;x;x;x;x
DATAMONGO;DATAMONGO-602;x;;x;x;x
DATAMONGO;DATAMONGO-1236;x;x;x;;
WFCORE;WFCORE-1288;x;;x;x;
WFCORE;WFCORE-980;x;;x;x;
WFCORE;WFCORE-442;x;;x;x;x
DATACMNS;DATACMNS-562;x;;x;x;x
DATAMONGO;DATAMONGO-805;x;;x;x;x
WFCORE;WFCORE-876;x;;x;x;x
DATAMONGO;DATAMONGO-897;x;;x;x;x
WFCORE;WFCORE-949;x;;x;x;x
DATAMONGO;DATAMONGO-892;x;;x;x;x
WFCORE;WFCORE-940;x;;x;x;
DATAMONGO;DATAMONGO-647;x;x;x;x;x
WFCORE;WFCORE-931;x;;x;x;
DATAMONGO;DATAMONGO-745;x;;x;x;x
WFCORE;WFCORE-1007;x;x;x;x;x
