{"key":"COMPRESS-332","title":"FramedSnappyCompressorInputStream.read returns invalid value at end of stream.","description":"FramedSnappyCompressorInputStream.read() returns 0 when the end of stream has been reached rather than -1. It appears that this may be caused by SnappyCompressorInputStream.read(byte[], int, int) returning 0 instead of -1 at the end of stream when the exact number of bytes have been read. FramedSnappyCompressorInputStream.read()"}
{"key":"COMPRESS-171","title":"createArchiveInputStream detects text files less than 100 bytes as tar archives","description":"The fix for COMPRESS-117 which modified ArchiveStreamFactory(). createArchiveInputStream(inputstream) results in short text files (empirically seems to be those \u003c\u003d 100 bytes) being detected as tar archives which obviously is not desirable if one wants to know whether or not the files are archives. I\u0027m not an expert on compressed archives but perhaps the heuristic that if a stream is interpretable as a tar file without an exception being thrown should only be applied on archives greater than 100 bytes? ArchiveStreamFactory() createArchiveInputStream(inputstream)"}
{"key":"COMPRESS-357","title":"BZip2CompressorOutputStream can affect output stream incorrectly","description":"BZip2CompressorOutputStream has an unsynchronized finished() method, and an unsynchronized finalize method. Finish checks to see if the output stream is null, and if it is not it calls various methods, some of which write to the output stream.       At some point the garbage collector call finalize(), which calls finish().    1) synchronize finish() or 2) don\u0027t call finish from finalize().  finished()  s.close();\ns \u003d null;\n finalize() finish() finish()  finish()  finalize() finalize()"}
{"key":"COMPRESS-245","title":"TarArchiveInputStream#getNextTarEntry returns null prematurely","description":"The attached archive decompressed with 1.6 only extracts part of the archive.       The file is created with tar cvzf in RHEL 6.5 and the contents look like this when extracted with the same tool:                                                                           with commons-compress-1.6 it looks like this:                                                   FileInputStream fin \u003d new FileInputStream(\"exampletar.tar.gz\");\n\nGZIPInputStream gin \u003d new GZIPInputStream(fin);\n\nTarArchiveInputStream tin \u003d new TarArchiveInputStream(gin);            TarArchiveEntry entry;\n\n             tin.getNextTarEntry()"}
{"key":"COMPRESS-273","title":"NullPointerException when creation fields/entries from scratch","description":"However, when these 0-argument constructors are used, certain internal references are null, resulting in a NullPointerException soon after.  Either (1) these constructors should be non-public, (2) there should be documentation that certain fields need to be set later for an instance to be usable.      org.apache.commons.compress.archivers.zip.UnicodeCommentExtraField var0 \u003d new org.apache.commons.compress.archivers.zip.UnicodeCommentExtraField();\n    org.apache.commons.compress.archivers.zip.ZipShort var1 \u003d var0.getLocalFileDataLength();"}
