{"key":"4354","title":"Errors on Deployment Diagram","description":"I\u0027m not sure if these two errors are related, but they occured in the same set\nof operations while placing Components and Nodes on a Deployment Diagram. Also\nperhaps related is the fact that Associations which are visible in the property\npanel connecting two Components aren\u0027t being displayed on the diagram. Exception in thread \"AWT-EventQueue-0\" java.lang.IllegalStateException: Both the source port and dest port fig must be defined on a org.argouml.uml.diagram.ui.FigAssociation before the edge can be layed out \tat org.tigris.gef.presentation.FigEdgePoly.layoutEdge(FigEdgePoly.java:130) \tat org.tigris.gef.presentation.FigEdgePoly.computeRouteImpl(FigEdgePoly.java:89) \tat org.tigris.gef.presentation.FigEdge.computeRoute(FigEdge.java:169) \tat org.tigris.gef.base.LayerPerspective.edgeAdded(LayerPerspective.java:222) \tat org.tigris.gef.graph.MutableGraphSupport.fireEdgeAdded(MutableGraphSupport.java:323) \tat org.argouml.uml.diagram.deployment.DeploymentDiagramGraphModel.addEdge(DeploymentDiagramGraphModel.java:320) \tat org.argouml.uml.diagram.deployment.DeploymentDiagramGraphModel.addNodeRelatedEdges(DeploymentDiagramGraphModel.java:337) \tat org.tigris.gef.base.ModePlace.mouseReleased(ModePlace.java:194) \tat org.argouml.uml.diagram.ui.AddExistingNodeCommand.execute(AddExistingNodeCommand.java:160) \tat org.argouml.uml.diagram.ui.DnDJGraph.drop(DnDJGraph.java:200) \tat java.awt.dnd.DropTarget.drop(Unknown Source) \tat sun.awt.dnd.SunDropTargetContextPeer.processDropMessage(Unknown Source) \tat sun.awt.dnd.SunDropTargetContextPeer.access$800(Unknown Source) \tat sun.awt.dnd.SunDropTargetContextPeer$EventDispatcher.dispatchDropEvent(Unknown Source) \tat sun.awt.dnd.SunDropTargetContextPeer$EventDispatcher.dispatchEvent(Unknown Source) \tat sun.awt.dnd.SunDropTargetEvent.dispatch(Unknown Source) \tat java.awt.Component.dispatchEventImpl(Unknown Source) \tat java.awt.Container.dispatchEventImpl(Unknown Source) \tat java.awt.Component.dispatchEvent(Unknown Source) \tat java.awt.LightweightDispatcher.retargetMouseEvent(Unknown Source) \tat java.awt.LightweightDispatcher.processDropTargetEvent(Unknown Source) \tat java.awt.LightweightDispatcher.dispatchEvent(Unknown Source) \tat java.awt.Container.dispatchEventImpl(Unknown Source) \tat java.awt.Window.dispatchEventImpl(Unknown Source) \tat java.awt.Component.dispatchEvent(Unknown Source) \tat java.awt.EventQueue.dispatchEvent(Unknown Source) \tat java.awt.EventDispatchThread.pumpOneEventForHierarchy(Unknown Source) \tat java.awt.EventDispatchThread.pumpEventsForHierarchy(Unknown Source) \tat java.awt.EventDispatchThread.pumpEvents(Unknown Source) \tat java.awt.EventDispatchThread.pumpEvents(Unknown Source) \tat java.awt.EventDispatchThread.run(Unknown Source) ERROR: Edge rejected. Its source end is attached to Component$Impl  ID: -64--88-1-100--5d4b0696:10c795a88a1:-8000:0000000000003DD7  MID: -64--88-1-100--5d4b0696:10c795a88a1:-8000:0000000000000388  OPCKG: -64--88-1-100--5d4b0696:10c795a88a1:-8000:0000000000000622 but this is not in the graph model (DeploymentDiagramGraphModel.java:267)"}
{"key":"1671","title":"extra \u003csearchpath\u003e added every time project is saved","description":"Testcase: 1 start argouml 0.13.2 2 create a class and name it \u0027A\u0027 3 create an attr \u0027newAttr\u0027 by doubleclicking in the attr compartment 4 create an oper by doubleclicking in the attr compartment 5 save project as \u0027test.zargo\u0027 6 make a copy of test.zargo 7 make new project (important!) 8 open test.zargo 9 save Theoretically, the two . zargo files should be identically since there\nwere made no changes. The following analysis reveals differences in the 5 files contained in\nthe zip file test.zargo. These differences should be fixed, because\nthey will affect the files iteratively at every save/load cycle. (The test case is very simple. Ideally, the analysis should be done\nwith a project that has all diagram types and all cases in it.) 1 test.argo The line\n  \u003csearchpath href\u003d\"PROJECT_DIR\" /\u003e\nwas added. 2 test.todo OK, identical 3 test.xmi OK, identical 4 test_ClassDiagram1. pgml a strange empty FigGroup is added:\n  \u003cgroup name\u003d\"Fig1\"\n       description\u003d\"org.tigris.gef.presentation.FigGroup[0, 0, 0, 0]\"\n       fill\u003d\"1\"\n       fillcolor\u003d\"-1\"\n       stroke\u003d\"1\"\n       strokecolor\u003d\"-16777216\"\n  \u003e\n    \u003cprivate\u003e\n    \u003c/private\u003e\n    \n  \u003c/group\u003e 5 test_UsecaseDiagram1. pgml OK, identical (of course, it was empty)"}
{"key":"4031","title":"TagDefinition of type Enumeration problem - AndroMDA profile","description":"Open the ArgoUML compatible (single file version) AndroMDA profile and look for the TagDefinition @andromda. hibernate.generator.class which is owned by the stereotype \u003c\u003cEntity\u003e\u003e. The type of the TagDefinition should be HibernateGeneratorClass but instead it shows up as what looks like an internal xmi.id and is greyed out."}
{"key":"1884","title":"view todo-items by poster: selected item deselected by argo","description":"view todo-items by poster. Open any of the poster groups. Select one of the todo items. It will be automatically deselected after about one second. Cross-checked V0.12, same problem occures."}
{"key":"4362","title":"Exception thrown drawing generalization","description":"This is the same problem as issue 4354 but collab diagrams. Place 2 collaborations and draw a generalization between them, an exception is\nthrown. Linus, is it okay to commit a similar fix to that of issue 4354?"}
{"key":"4037","title":"Excessive redraws in some diagrams in CVS version (regression from 0.20)","description":"I see ArgoUML taking upwards of 40% of my processor time on some diagrams. For instance, I have one project in which the two most complicated class\ndiagrams burn 50% or so of my processor time. Running the Quartz Debug application, I see that on those two diagrams the\ndiagram is being entirely repainted constantly. This is not the case on any of\nthe other diagrams. I have a big screen (1920x1200), so this takes quite a bit of time. So I went back to the 0.20 release version, and I don\u0027t see this behavior (in\nfact, the CPU load is better even on the other drawings). I built the CVS version using \"build.sh package\", then copied the . jar files to\nthe proper place inside another copy of the application. It otherwise seems to\nwork fine. Examining things further, it is not the complexity that causes this redrawing;\nit is the presence of certain Association edges in the current diagram. In the attached CA3Design.zargo file, you can see this in the \"Hardware\nResources\" and \"Active Objects\" class diagrams. I have made a simple diagram with one association that triggers this behavior. Look at the \"Redraw Problem Demonstrated\" class diagram. If you open the context menu on the Association and choose\n\"Navigability/bidirectional\" the constant repainting stops."}
{"key":"2144","title":"Use Case property tab: Operations are not listed","description":"Operations are not listed in the Use Case Property Tab\nfurthermore, there is no possibility to create operations on use cases."}
{"key":"4364","title":"Dragging association onto diagram creates n-ary diamond","description":"There\u0027s also an exception thrown. 1 Start ArgoUML 2 Place 2 classes and association them 3 Drag the association from explorer onto diagram I think I can see the problem here. Will investigate tomorrow.  java.lang.ClassCastException \tat org.argouml.uml.diagram.static_structure.ui.ClassDiagramRenderer.getFigEdgeFor(ClassDiagramRenderer.java:166) \tat org.tigris.gef.base.LayerPerspective.edgeAdded(LayerPerspective.java:217) \tat org.tigris.gef.graph.MutableGraphSupport.fireEdgeAdded(MutableGraphSupport.java:323) \tat org.argouml.uml.diagram.static_structure.ClassDiagramGraphModel.addEdge(ClassDiagramGraphModel.java:424) \tat org.argouml.uml.diagram.static_structure.ClassDiagramGraphModel.addNodeRelatedEdges(ClassDiagramGraphModel.java:490) INFO: Adding an edge of type org.omg.uml.foundation.core.AssociationEnd$Impl to class diagram. (ClassDiagramGraphModel.java:406) \tat org.tigris.gef.base.ModePlace.mouseReleased(ModePlace.java:194) \tat org.argouml.uml.diagram.ui.AddExistingNodeCommand.execute(AddExistingNodeCommand.java:160) \tat org.argouml.uml.diagram.ui.DnDJGraph.drop(DnDJGraph.java:200) \tat java.awt.dnd.DropTarget.drop(DropTarget.java:398) \tat sun.awt.dnd.SunDropTargetContextPeer.processDropMessage(SunDropTargetContextPeer.java:542) \tat sun.awt.dnd.SunDropTargetContextPeer.access$800(SunDropTargetContextPeer.java:52) \tat sun.awt.dnd.SunDropTargetContextPeer$EventDispatcher.dispatchDropEvent(SunDropTargetContextPeer.java:805) \tat sun.awt.dnd.SunDropTargetContextPeer$EventDispatcher.dispatchEvent(SunDropTargetContextPeer.java:743) \tat sun.awt.dnd.SunDropTargetEvent.dispatch(SunDropTargetEvent.java:29) \tat java.awt.Component.dispatchEventImpl(Component.java:3494) \tat java.awt.Container.dispatchEventImpl(Container.java:1627) \tat java.awt.Component.dispatchEvent(Component.java:3477) \tat java.awt.LightweightDispatcher.retargetMouseEvent(Container.java:3483) \tat java.awt.LightweightDispatcher.processDropTargetEvent(Container.java:3269) \tat java.awt.LightweightDispatcher.dispatchEvent(Container.java:3123) \tat java.awt.Container.dispatchEventImpl(Container.java:1613) \tat java.awt.Window.dispatchEventImpl(Window.java:1606) \tat java.awt.Component.dispatchEvent(Component.java:3477) \tat java.awt.EventQueue.dispatchEvent(EventQueue.java:456) \tat java.awt.EventDispatchThread.pumpOneEventForHierarchy(EventDispatchThread.java:201) \tat java.awt.EventDispatchThread.pumpEventsForHierarchy(EventDispatchThread.java:151) \tat java.awt.EventDispatchThread.pumpEvents(EventDispatchThread.java:145) \tat java.awt.EventDispatchThread.pumpEvents(EventDispatchThread.java:137) \tat java.awt.EventDispatchThread.run(EventDispatchThread.java:100)"}
{"key":"2145","title":"Use Case Property Tab: Attributes are not listed","description":"Attributes are not listed in the Use Case Property Tab\nfurthermore, there is no possibility to create attributes on use cases."}
{"key":"4367","title":"deleting call self action throws InvalidElementException and makes Argo unstable","description":"steps: 1 - create a *new file* 2 - create a sequence diagram 3 - create 2 classifier roles 4 - create new call action from 1st to 2nd 5 - create new call action from 2nd to it self 6 - assign a name to calls 7 - select call action in step 5 8 - Right click and select delete from model At this time Argo is complete unstable 9 - Save \u0026 get a report (0.22b2 only) Found in 0.22B1 and B2, probably older releases too"}
{"key":"4043","title":"Names of states disappear when project is loaded","description":"Make a state chart. Name the states in it. Save it. Load it. The state names are\nno longer displayed. build from CVS HEAD on 7 March 2006."}
{"key":"2225","title":"Allow the user to create diagrams without selecting a classifier/operation","description":"This issue requests the following enhancement:\nAllow the user to create diagrams without selecting a classifier/operation\nfirst The UML standard says that a Collaboration diagram needs (can not \nexist\nwithout) at least a \"Classifier\" or \"Operation\" - if I interpret the\nstandard well. But a user should be able to start ArgoUML and draw some Collaboration\ndiagrams, without first defining e.g. a class. The same applies to e.g. a Statechart diagram. Which would mean that, formally, the user is making a mistake here. There are many ways to handle \"user mistakes\" with varying degrees of\nuser-friendlyness. One such way is to not allow him to do so, by e.g.\ndownlighting toolbuttons. Another way, in which ArgoUML excells, is to allow the mistake, and \nwarn the\nuser with a critic (which is a non-obstructive way), and give hime the\npossibility to correct the error. Hence the following proposal: 1 Do not downlight the collaboration \u0026 statechart diagram creation functions any more - never. 2 Create a critic to warn for a missing classifier/operation/modelelement for these diagrams. 3 Allow the user to change the namespace \u0026 represented xxx of a collaboration \u0026 statemachine."}
{"key":"4049","title":"Updating the role phrase of an association on a diagram does not update the connections pane","description":"Changing the role phrase of an association end does not change the connections\npanel until you change tabs and back again. This should happen immediately."}
{"key":"2460","title":"[Java] Missing label on radiobuttons in Import Sources -\u003e Java","description":"Missing label on radiobuttons in Import Sources -\u003e Java In the \"Import Sources\" dialog, tab \"Java\":\nThe 2nd radiobutton pair does not have a label, conform to the 1st one. It should read: \"Arrays modelled as\", and the buttons: \"Datatypes\" \nand \"Multiplicity 1. . n\"."}
{"key":"4085","title":"Exception adding deferrable event in Action State","description":"An IllegalArgumentException is thrown when you select from the Deferrable Events\npane of the Action State property panel when you choose Select -\u003e Add... from\nthe context (popup) menu. java.lang.IllegalArgumentException: Unrecognized object [ActionState$Impl  ID:\n. :00000000000018EB  MID: . :00000000000005E9  OPCKG: . :0000000000000622/class\norg.omg.uml.behavioralelements.activitygraphs.ActionState$Impl] \tat org.argouml.model.mdr.FacadeMDRImpl.illegalArgument(FacadeMDRImpl.java:4150) \tat org.argouml.model.mdr.FacadeMDRImpl.illegalArgumentObject(FacadeMDRImpl.java:4125) \tat org.argouml.model.mdr.FacadeMDRImpl.getTrigger(FacadeMDRImpl.java:3416) \tat org.argouml.uml.ui.behavior.activity_graphs.ActionAddEventAsTrigger.getSelected(ActionAddEventAsTrigger.java:79) \tat org.argouml.uml.ui.AbstractActionAddModelElement.actionPerformed(AbstractActionAddModelElement.java:79) \tat javax.swing.AbstractButton.fireActionPerformed(Unknown Source)"}
{"key":"2472","title":"Wrong keyboard focus in Settings dialog after close \u0026 reopen","description":"The keyboard focus (indicated by a blue rectangle) location remains after closing the Settings dialog box with the close button in the window border and reopening it. 1. Select in the Menu Edit -\u003e Settings... The keyboard focus is initially on the Preferences tab. 2. Click on the last checkmark. The keyboard focus is indicated by a blue rectangle around this item. 3. Close the dialog box with the close button in the top right corner of the window border. 4. Select in the Menu Edit -\u003e Settings... The keyboard focus is now still on the last checkbox. This is wrong; it should be as in 1 above. 5. Close the dialog with the Cancel button. 6. Select in the Menu Edit -\u003e Settings... The keyboard focus is again on the Preferences tab. So, in this case it is OK."}
{"key":"2618","title":"Editing association rolename adds +, ++, +++","description":"When I first create an association I see + and +, one for each role. If I double click on a \"+\" and type in a role name \"foo\", I now see \"++foo\", and the role name property is recorded as \"+foo\". To fix, the parsing of the in-diagram user-entered text must process and strip off any visibility characters (+, -, #)."}
{"key":"3100","title":"new package or class shown with funny name in explorer","description":"After adding a new package, the package is shown in the explorer with a funny \nname: \"(anon Package)\" or \"(anon Class)\". My guess it stands for \"anonymous \npackage\" or \"anonymous class\", however this came to me after many hours or \nthinking. I wonder why this cryptic description whas chosen? Why not write the \nwhole string, there\u0027s plenty of room."}
{"key":"3164","title":"Entering an internal transition via PropPanel does not update state","description":"When the designer enters an internal transition (do, entry, exit, or \"plain\" internal transition), the state in the diagram is not updated accordingly. Editing the fields in the state fig itself behaves correctly and does update the model."}
{"key":"4100","title":"Exception in UMLModelElementListModel2 when deleting","description":"An exception occurs in the following circumstances: 1 Draw 2 classes with a Generalization between them. 2 Show the proppanel of the Generalization. 3 Delete from model the parent class. [org.netbeans.mdr.Logger] INFORMATIONAL *********** Exception occurred ************ at Sat Mar 18 16:30:35 CET 2006 javax.jmi.reflect.InvalidObjectException: Object with MOFID . :000000000000077C no longer exists. at org.netbeans.mdr.handlers.BaseObjectHandler. _getDelegate(BaseObjectHandler.java:353) at org.netbeans.mdr.handlers.AssociationHandler. _handleQuery(AssociationHandler.java:105) at org.omg.uml.foundation.core.AParentSpecialization$Impl.getSpecialization(Unknown Source) \tat org.argouml.model.mdr.FacadeMDRImpl.getSpecializations(FacadeMDRImpl.java:3223) at org.argouml.uml.ui.foundation.core.UMLGeneralizableElementSpecializationListModel.buildModelList(UMLGeneralizableElementSpecializationListModel.java:50) at org.argouml.uml.ui.UMLModelElementListModel2.propertyChange(UMLModelElementListModel2.java:117) \tat org.argouml.model.mdr.ModelEventPumpMDRImpl.fire(ModelEventPumpMDRImpl.java:438) at org.argouml.model.mdr.ModelEventPumpMDRImpl.change(ModelEventPumpMDRImpl.java:357) \tat org.netbeans.mdr.util.EventNotifier$EventsDelivery.run(EventNotifier.java:270) \tat java.lang.Thread.run(Unknown Source)"}
{"key":"3619","title":"Self association invisible after Add to Diagram","description":"Adding a Class with an Association to itself to a Class diagram creates an\ninvisible edge (with a very helpful critic note attached saying it should be\nmade more visible). There doesn\u0027t appear to be any way to resize or move it and\nif there\u0027s more than one for a single class the labels overlap so that they are\nunreadable."}
{"key":"4103","title":"Exception when deleting transition","description":"The following causes an exception: 1 Create a statechart diagram.with 2 states and a transition. 2 Make the transition visible in the explorer. 3 Delete one of the states. [org.netbeans.mdr.Logger] INFORMATIONAL *********** Exception occurred ************ at Sun Mar 19 17:39:53 CET 2006 javax.jmi.reflect.InvalidObjectException: Object with MOFID . :00000000000007F7 no longer exists. at org.netbeans.mdr.handlers.BaseObjectHandler. _getDelegate(BaseObjectHandler.java:353) at org.netbeans.mdr.handlers.InstanceHandler.getInstanceDelegate(InstanceHandler.java:48) \tat org.netbeans.mdr.handlers.InstanceHandler._handleGetR(InstanceHandler.java:103) at org.omg.uml.behavioralelements.statemachines.Transition$Impl.getTrigger(Unknown Source) \tat org.argouml.model.mdr.FacadeMDRImpl.getTrigger(FacadeMDRImpl.java:3413) at org.argouml.uml.notation.uml.TransitionNotationUml.toString(TransitionNotationUml.java:430) \tat org.argouml.ui.explorer.ExplorerTree.convertValueToText(ExplorerTree.java:256) at javax.swing.tree.DefaultTreeCellRenderer.getTreeCellRendererComponent(DefaultTreeCellRenderer.java:331) at org.argouml.uml.ui.UMLTreeCellRenderer.getTreeCellRendererComponent(UMLTreeCellRenderer.java:78) at javax.swing.plaf.basic.BasicTreeUI$NodeDimensionsHandler.getNodeDimensions(BasicTreeUI.java:2693) at javax.swing.tree.AbstractLayoutCache.getNodeDimensions(AbstractLayoutCache.java:475) at javax.swing.tree.VariableHeightLayoutCache$TreeStateNode.updatePreferredSize(VariableHeightLayoutCache.java:1342) at javax.swing.tree.VariableHeightLayoutCache$TreeStateNode.updatePreferredSize(VariableHeightLayoutCache.java:1333) at javax.swing.tree.VariableHeightLayoutCache.treeNodesChanged(VariableHeightLayoutCache.java:418) at javax.swing.plaf.basic.BasicTreeUI$Handler.treeNodesChanged(BasicTreeUI.java:3667) at javax.swing.tree.DefaultTreeModel.fireTreeNodesChanged(DefaultTreeModel.java:466) \tat javax.swing.tree.DefaultTreeModel.nodesChanged(DefaultTreeModel.java:328) \tat javax.swing.tree.DefaultTreeModel.nodeChanged(DefaultTreeModel.java:261) \tat org.argouml.ui.explorer.ExplorerTreeNode.nodeModified(ExplorerTreeNode.java:102) at org.argouml.ui.explorer.ExplorerTreeModel.traverseModified(ExplorerTreeModel.java:237) at org.argouml.ui.explorer.ExplorerTreeModel.traverseModified(ExplorerTreeModel.java:233) at org.argouml.ui.explorer.ExplorerTreeModel.traverseModified(ExplorerTreeModel.java:233) at org.argouml.ui.explorer.ExplorerTreeModel.traverseModified(ExplorerTreeModel.java:233) at org.argouml.ui.explorer.ExplorerTreeModel.traverseModified(ExplorerTreeModel.java:233) at org.argouml.ui.explorer.ExplorerTreeModel.traverseModified(ExplorerTreeModel.java:233) at org.argouml.ui.explorer.ExplorerTreeModel.modelElementChanged(ExplorerTreeModel.java:213) at org.argouml.ui.explorer.ExplorerEventAdaptor.propertyChange(ExplorerEventAdaptor.java:196) \tat org.argouml.model.mdr.ModelEventPumpMDRImpl.fire(ModelEventPumpMDRImpl.java:438) at org.argouml.model.mdr.ModelEventPumpMDRImpl.change(ModelEventPumpMDRImpl.java:357) \tat org.netbeans.mdr.util.EventNotifier$EventsDelivery.run(EventNotifier.java:270) \tat java.lang.Thread.run(Thread.java:595)"}
{"key":"3631","title":"Perspectives settings should be included in settings menu","description":"The \"perspectives\" settings for the Explorer is too well hidden. It should be\nincluded in the general Settings dialog at a minimum."}
{"key":"4130","title":"Exception when startng new project with Node selected","description":"A \"no longer exists\" exception hapens when selecting \"New...\" for the attached project. 1. Load the attached project. 2. In the Deployment diagram, select the only Node. 3. Select \"New...\". Answer No. [org.netbeans.mdr.Logger] INFORMATIONAL *********** Exception occurred ************ at Sun Mar 26 23:13:55 CEST 2006 javax.jmi.reflect.InvalidObjectException: Object with MOFID 10-0-0-9--3049a8a5:10a386296b1:-8000:0000000000000CBD no longer exists. at org.netbeans.mdr.handlers.BaseObjectHandler. _getDelegate(BaseObjectHandler.java:353) at org.netbeans.mdr.handlers.InstanceHandler.getInstanceDelegate(InstanceHandler.java:48) at org.netbeans.mdr.handlers.InstanceHandler. _handleGetR(InstanceHandler.java:103) \tat org.omg.uml.foundation.core.Node$Impl.getDeployedComponent(Unknown Source) at org.argouml.model.mdr.FacadeMDRImpl.getDeployedComponents(FacadeMDRImpl.java:2605) at org.argouml.uml.ui.foundation.core.UMLNodeDeployedComponentListModel.buildModelList(PropPanelNode.java:107) at org.argouml.uml.ui.UMLModelElementListModel2.propertyChange(UMLModelElementListModel2.java:117) \tat org.argouml.model.mdr.ModelEventPumpMDRImpl.fire(ModelEventPumpMDRImpl.java:438) at org.argouml.model.mdr.ModelEventPumpMDRImpl.change(ModelEventPumpMDRImpl.java:357) \tat org.netbeans.mdr.util.EventNotifier$EventsDelivery.run(EventNotifier.java:270) \tat java.lang.Thread.run(Unknown Source) [org.netbeans.mdr.Logger] INFORMATIONAL *********** Exception occurred ************ at Sun Mar 26 23:13:55 CEST 2006 javax.jmi.reflect.InvalidObjectException: Object with MOFID 10-0-0-9--3049a8a5:10a386296b1:-8000:0000000000000CBD no longer exists. at org.netbeans.mdr.handlers.BaseObjectHandler. _getDelegate(BaseObjectHandler.java:353) at org.netbeans.mdr.handlers.InstanceHandler.getInstanceDelegate(InstanceHandler.java:48) at org.netbeans.mdr.handlers.InstanceHandler. _handleGetR(InstanceHandler.java:103) \tat org.omg.uml.foundation.core.Node$Impl.getDeployedComponent(Unknown Source) at org.argouml.model.mdr.FacadeMDRImpl.getDeployedComponents(FacadeMDRImpl.java:2605) at org.argouml.uml.ui.foundation.core.UMLNodeDeployedComponentListModel.buildModelList(PropPanelNode.java:107) at org.argouml.uml.ui.UMLModelElementListModel2.propertyChange(UMLModelElementListModel2.java:117) \tat org.argouml.model.mdr.ModelEventPumpMDRImpl.fire(ModelEventPumpMDRImpl.java:438) at org.argouml.model.mdr.ModelEventPumpMDRImpl.change(ModelEventPumpMDRImpl.java:357) \tat org.netbeans.mdr.util.EventNotifier$EventsDelivery.run(EventNotifier.java:270) \tat java.lang.Thread.run(Unknown Source)"}
{"key":"3665","title":"Activity Diagram drop not properly constrained","description":"Create a Use Case in a Use Case Diagram\nCreate an Activity Diagram in the Use Case\nCreate a 2nd Activity Diagram in the same Use Case\nCreate a Start state in the Activity Diagram\nSelect the 1st Activity Diagram\nFrom the Explorer pane, drag the Start node contained by the 2nd Activity Graph\nonto the Diagram pane (which now contains the 1st Activity Graph) ArgoUML throws several CompositionViolationExceptions."}
{"key":"4155","title":"File Save overwrites without confirmation","description":"If you create a new project and then select File-\u003eSave and specify an existing\nfilename, the file will be overwritten without any warning or confirmation. The\nFile-\u003eSave As operation does ask for confirmation, so there are apparently two\ndifferent code paths."}
{"key":"3711","title":"Strip diagrams from poseidon *.xmi file","description":"tried loading an XMI formatted file that was created with poseidon UML and\nreceived the following beauty.  java.lang.IllegalArgumentException \tat org.argouml.kernel.Project.addModel(Project.java:417) \tat org.argouml.persistence.XMIParser.readModels(XMIParser.java:125) \tat org.argouml.persistence.XmiFilePersister.doLoad(XmiFilePersister.java:174) \tat org.argouml.uml.ui.ActionFileOperations.loadProject(ActionFileOperations.java:163) \tat org.argouml.uml.ui.ActionOpenProject.actionPerformed(ActionOpenProject.java:133) \tat javax.swing.AbstractButton.fireActionPerformed(AbstractButton.java:1849) \tat javax.swing.AbstractButton$Handler.actionPerformed(AbstractButton.java:2169) \tat javax.swing.DefaultButtonModel.fireActionPerformed(DefaultButtonModel.java:420) \tat javax.swing.DefaultButtonModel.setPressed(DefaultButtonModel.java:258) \tat javax.swing.AbstractButton.doClick(AbstractButton.java:302) \tat javax.swing.plaf.basic.BasicMenuItemUI.doClick(BasicMenuItemUI.java:1000) \tat javax.swing.plaf.basic.BasicMenuItemUI$Handler.mouseReleased(BasicMenuItemUI.java:1041) \tat java.awt.Component.processMouseEvent(Component.java:5488) \tat javax.swing.JComponent.processMouseEvent(JComponent.java:3093) \tat java.awt.Component.processEvent(Component.java:5253) \tat java.awt.Container.processEvent(Container.java:1966) \tat java.awt.Component.dispatchEventImpl(Component.java:3955) \tat java.awt.Container.dispatchEventImpl(Container.java:2024) \tat java.awt.Component.dispatchEvent(Component.java:3803) \tat java.awt.LightweightDispatcher.retargetMouseEvent(Container.java:4212) \tat java.awt.LightweightDispatcher.processMouseEvent(Container.java:3892) \tat java.awt.LightweightDispatcher.dispatchEvent(Container.java:3822) \tat java.awt.Container.dispatchEventImpl(Container.java:2010) \tat java.awt.Window.dispatchEventImpl(Window.java:1766) \tat java.awt.Component.dispatchEvent(Component.java:3803) \tat java.awt.EventQueue.dispatchEvent(EventQueue.java:463) \tat java.awt.EventDispatchThread.pumpOneEventForHierarchy(EventDispatchThread.java:234) \tat java.awt.EventDispatchThread.pumpEventsForHierarchy(EventDispatchThread.java:163) \tat java.awt.EventDispatchThread.pumpEvents(EventDispatchThread.java:157) \tat java.awt.EventDispatchThread.pumpEvents(EventDispatchThread.java:149) \tat java.awt.EventDispatchThread.run(EventDispatchThread.java:110)"}
{"key":"4162","title":"checklist uses \u003cattribute\u003e where it should use \u003cclass\u003e","description":"in the checklist for a class attribute, there is this item: \"does \u003cattribute\u003e apply to all instances of class \u003cattribute\u003e including\ninstances of subclasses?\" it should read: \"does \u003cattribute\u003e apply to all instances of class \u003cattribute\u0027s containing class\u003e\nincluding instances of subclasses?\""}
{"key":"3774","title":"Do not set namespace of Model when adding to diagram","description":"To repeat:\nStart argouml. Drag the created defaultmodel into the class diagram. Here is the backtrace: [echo] --- Executing ArgoUML --- [argouml] log4j:WARN No appenders could be found for logger (org.argouml.uml.diagram.static_structure.ClassDiagramGraphModel). [argouml] log4j:WARN Please initialize the log4j system properly. [argouml] javax.jmi.reflect.CompositionCycleException [argouml]     at org.netbeans.mdr.storagemodel.StorableObject.setComposite (StorableObject.java:275) [argouml]     at org.netbeans.mdr.storagemodel.AssocEndIndexSet.add (AssocEndIndexSet.java:150) [argouml]     at org.netbeans.mdr.storagemodel.StorableAssociation.addLink (StorableAssociation.java:370) [argouml]     at org.netbeans.mdr.handlers.AssociationHandler. _handleLocalAdd (AssociationHandler.java:161) [argouml]     at org.netbeans.mdr.handlers.AssociationHandler. _handleAdd (AssociationHandler.java:150) [argouml]     at org.omg.uml.foundation.core.ANamespaceOwnedElement$Impl.add (Unknown Source) [argouml]     at org.omg.uml.foundation.core.ANamespaceOwnedElement$Impl. _add (Unknown Source) [argouml]     at org.netbeans.mdr.handlers.InstanceHandler. _handleSetR (InstanceHandler.java:149) [argouml]     at org.omg.uml.modelmanagement.Model$Impl.setNamespace(Unknown Source) [argouml]     at org.argouml.model.mdr.CoreHelperMDRImpl.addOwnedElement (CoreHelperMDRImpl.java:1972) [argouml]     at org.argouml.model.AbstractCoreHelperDecorator.addOwnedElement (AbstractCoreHelperDecorator.java:620) [argouml]     at org.argouml.uml.diagram.static_structure.ClassDiagramGraphModel.addNode (ClassDiagramGraphModel.java:355) [argouml]     at org.tigris.gef.base.ModePlace.mouseReleasedModePlace.java:18 9 [argouml]     at org.argouml.uml.diagram.ui.AddExistingNodeCommand.execute (AddExistingNodeCommand.java:151) [argouml]     at org.argouml.uml.diagram.ui.DnDJGraph.drop (DnDJGraph.java:176)   [argouml]     at java.awt.dnd.DropTarget.drop(DropTarget.java:398)   [argouml]     at sun.awt.dnd.SunDropTargetContextPeer.processDropMessage (SunDropTargetContextPeer.java:542)   [argouml]     at sun.awt.dnd.SunDropTargetContextPeer.access$800 (SunDropTargetContextPeer.java:52)   [argouml]     at  sun.awt.dnd.SunDropTargetContextPeer$EventDispatcher.dispatchDropEvent (SunDropTargetContextPeer.java:805)   [argouml]     at  sun.awt.dnd.SunDropTargetContextPeer$EventDispatcher.dispatchEvent (SunDropTargetContextPeer.java:743)   [argouml]     at sun.awt.dnd.SunDropTargetEvent.dispatch (SunDropTargetEvent.java:29)   [argouml]     at java.awt.Component.dispatchEventImpl(Component.java:3494)   [argouml]     at java.awt.Container.dispatchEventImpl(Container.java:1627)   [argouml]     at java.awt.Component.dispatchEvent(Component.java:3477)   [argouml]     at java.awt.LightweightDispatcher.retargetMouseEvent (Container.java:3483)   [argouml]     at java.awt.LightweightDispatcher.processDropTargetEvent (Container.java:3269)   [argouml]     at java.awt.LightweightDispatcher.dispatchEvent (Container.java:3123)   [argouml]     at java.awt.Container.dispatchEventImpl(Container.java:1613)   [argouml]     at java.awt.Window.dispatchEventImpl(Window.java:1606)   [argouml]     at java.awt.Component.dispatchEvent(Component.java:3477)   [argouml]     at java.awt.EventQueue.dispatchEvent(EventQueue.java:456)   [argouml]     at java.awt.EventDispatchThread.pumpOneEventForHierarchy (EventDispatchThread.java:201)   [argouml]     at java.awt.EventDispatchThread.pumpEventsForHierarchy (EventDispatchThread.java:151)   [argouml]     at java.awt.EventDispatchThread.pumpEvents (EventDispatchThread.java:145)   [argouml]     at java.awt.EventDispatchThread.pumpEvents (EventDispatchThread.java:137)   [argouml]     at java.awt.EventDispatchThread.run (EventDispatchThread.java:100)"}
{"key":"4181","title":"Drawing associationclass broken","description":"It is impossible to draw an associationclass on the diagram. When you try, the edge does not attach, and you get the following exception: Exception in thread \"AWT-EventQueue-0\" java.lang.ClassCastException: org.argouml.uml.diagram.ui.FigAssociationClass \tat org.argouml.model.mdr.ModelEventPumpMDRImpl.registerModelEvent(ModelEventPumpMDRImpl.java:461) \tat org.argouml.model.mdr.ModelEventPumpMDRImpl.addModelEventListener(ModelEventPumpMDRImpl.java:170) \tat org.argouml.uml.diagram.ui.FigNodeModelElement.addElementListener(FigNodeModelElement.java:1674) \tat org.argouml.uml.diagram.static_structure.ui.FigClass.updateListeners(FigClass.java:878) \tat org.argouml.uml.diagram.ui.FigNodeModelElement.setOwner(FigNodeModelElement.java:1208) \tat org.argouml.uml.diagram.static_structure.ui.FigClass.\u003cinit\u003e(FigClass.java:152) \tat org.argouml.uml.diagram.ui.FigClassAssociationClass.\u003cinit\u003e(FigClassAssociationClass.java:56) \tat org.argouml.uml.diagram.ui.ModeCreateAssociationClass.endAttached(ModeCreateAssociationClass.java:75) \tat org.tigris.gef.base.ModeCreatePolyEdge.mouseReleased(ModeCreatePolyEdge.java:250) \tat org.tigris.gef.base.ModeManager.mouseReleased(ModeManager.java:220) \tat org.tigris.gef.base.Editor.mouseReleased(Editor.java:772) \tat java.awt.AWTEventMulticaster.mouseReleased(AWTEventMulticaster.java:231) \tat java.awt.Component.processMouseEvent(Component.java:5488) \tat javax.swing.JComponent.processMouseEvent(JComponent.java:3126) \tat org.tigris.gef.graph.presentation.JGraphInternalPane.processMouseEvent(JGraph.java:640) \tat java.awt.Component.processEvent(Component.java:5253) \tat java.awt.Container.processEvent(Container.java:1966) \tat java.awt.Component.dispatchEventImpl(Component.java:3955) \tat java.awt.Container.dispatchEventImpl(Container.java:2024) \tat java.awt.Component.dispatchEvent(Component.java:3803) \tat java.awt.LightweightDispatcher.retargetMouseEvent(Container.java:4212) \tat java.awt.LightweightDispatcher.processMouseEvent(Container.java:3892) \tat java.awt.LightweightDispatcher.dispatchEvent(Container.java:3822) \tat java.awt.Container.dispatchEventImpl(Container.java:2010) \tat java.awt.Window.dispatchEventImpl(Window.java:1774) \tat java.awt.Component.dispatchEvent(Component.java:3803) \tat java.awt.EventQueue.dispatchEvent(EventQueue.java:463) \tat java.awt.EventDispatchThread.pumpOneEventForHierarchy(EventDispatchThread.java:242) \tat java.awt.EventDispatchThread.pumpEventsForHierarchy(EventDispatchThread.java:163) \tat java.awt.EventDispatchThread.pumpEvents(EventDispatchThread.java:157) \tat java.awt.EventDispatchThread.pumpEvents(EventDispatchThread.java:149) \tat java.awt.EventDispatchThread.run(EventDispatchThread.java:110)"}
{"key":"3790","title":"Exception when saving to a readonly directory","description":"To reproduce the error:\n1 Open a zargo-File (I tried to open a zargo-file created under 0.20. alpha3) \n2 Try to save it after performing some changes. Stacktrace: java.lang.NullPointerException \tat org.argouml.persistence.ZargoFilePersister.doSave(ZargoFilePersister.java:214) \tat org.argouml.persistence.AbstractFilePersister.save(AbstractFilePersister.java:197) \tat org.argouml.ui.ProjectBrowser.trySave(ProjectBrowser.java:980) \tat org.argouml.ui.ProjectBrowser.trySave(ProjectBrowser.java:946) \tat org.argouml.uml.ui.ActionSaveProject.actionPerformed(ActionSaveProject.java:96) \tat javax.swing.AbstractButton.fireActionPerformed(AbstractButton.java:1849) \tat javax.swing.AbstractButton$Handler.actionPerformed(AbstractButton.java:2169) \tat javax.swing.DefaultButtonModel.fireActionPerformed(DefaultButtonModel.java:420) \tat javax.swing.DefaultButtonModel.setPressed(DefaultButtonModel.java:258) \tat javax.swing.AbstractButton.doClick(AbstractButton.java:302) \tat javax.swing.plaf.basic.BasicMenuItemUI.doClick(BasicMenuItemUI.java:1000) \tat javax.swing.plaf.basic.BasicMenuItemUI$Handler.mouseReleased(BasicMenuItemUI.java:1041) \tat java.awt.Component.processMouseEvent(Component.java:5488) \tat javax.swing.JComponent.processMouseEvent(JComponent.java:3126) \tat java.awt.Component.processEvent(Component.java:5253) \tat java.awt.Container.processEvent(Container.java:1966) \tat java.awt.Component.dispatchEventImpl(Component.java:3955) \tat java.awt.Container.dispatchEventImpl(Container.java:2024) \tat java.awt.Component.dispatchEvent(Component.java:3803) \tat java.awt.LightweightDispatcher.retargetMouseEvent(Container.java:4212) \tat java.awt.LightweightDispatcher.processMouseEvent(Container.java:3892) \tat java.awt.LightweightDispatcher.dispatchEvent(Container.java:3822) \tat java.awt.Container.dispatchEventImpl(Container.java:2010) \tat java.awt.Window.dispatchEventImpl(Window.java:1774) \tat java.awt.Component.dispatchEvent(Component.java:3803) \tat java.awt.EventQueue.dispatchEvent(EventQueue.java:463) \tat java.awt.EventDispatchThread.pumpOneEventForHierarchy(EventDispatchThread.java:242) \tat java.awt.EventDispatchThread.pumpEventsForHierarchy(EventDispatchThread.java:163) \tat java.awt.EventDispatchThread.pumpEvents(EventDispatchThread.java:157) \tat java.awt.EventDispatchThread.pumpEvents(EventDispatchThread.java:149) \tat java.awt.EventDispatchThread.run(EventDispatchThread.java:110)"}
{"key":"4194","title":"Exception: Class PropPanelTaggedValue for Panel not found","description":"When selecting a TaggedValue in the explorer, you get an exception complaining that: \"Class org.argouml.uml.ui.foundation.core.PropPanelTaggedValue for Panel not found!\" AFAIK, you only can do this from within the Composite-Centric explorer perspective. Indeed, the TaggedValue is a ModelElement, but has no Proppanel. Should it have one? Simply excluding the TaggedValue in TabProps.setTarget() is not sufficient - still exceptions are thrown."}
{"key":"3803","title":"Direct entry into text fields on drawings results in doubled first character","description":"For instance, in a statechart, select a previously unselected transition. Now \nthe first character that you type will be doubled in the text field. This is \nannoying. Under Tiger 10.4 with an updated Java VM (via Web Start)."}
{"key":"4200","title":"Activity diagrams vanish in a new Package","description":"Activity diagrams vanish in a Package. That is how you can get the defect: stand on the main Model folder; right mouse click and choose from droped meniu \"Add Package\"; new package appears; rename the package; there are some diagrams below, so i jus drag them one by one using right mouse button and releasing over the package; the package remains unchanged (i expected it should become expandable like a\ndiagram in the tree); in selected package Properties Owned Elements I can see my diagrams, but\ndouble click does not allow me to review them."}
{"key":"3812","title":"Exception opening project - FigCommentPort class not found","description":"When I open my recent project, I got this error : org.argouml.persistence.OpenException \tat org.argouml.persistence.DiagramMemberFilePersister.load(DiagramMemberFilePersister.java:74) \tat org.argouml.persistence.UmlFilePersister.doLoad(UmlFilePersister.java:355) \tat org.argouml.persistence.ZargoFilePersister.doLoad(ZargoFilePersister.java:319) \tat org.argouml.ui.ProjectBrowser.loadProject(ProjectBrowser.java:1114) \tat org.argouml.uml.ui.ActionReopenProject.actionPerformed(ActionReopenProject.java:86) \tat javax.swing.AbstractButton.fireActionPerformed(AbstractButton.java:1849) \tat javax.swing.AbstractButton$Handler.actionPerformed(AbstractButton.java:2169) \tat javax.swing.DefaultButtonModel.fireActionPerformed(DefaultButtonModel.java:420) \tat javax.swing.DefaultButtonModel.setPressed(DefaultButtonModel.java:258) \tat javax.swing.AbstractButton.doClick(AbstractButton.java:302) \tat javax.swing.plaf.basic.BasicMenuItemUI.doClick(BasicMenuItemUI.java:1000) \tat javax.swing.plaf.basic.BasicMenuItemUI$Handler.mouseReleased(BasicMenuItemUI.java:1041) \tat java.awt.AWTEventMulticaster.mouseReleased(AWTEventMulticaster.java:231) \tat java.awt.Component.processMouseEvent(Component.java:5488) \tat javax.swing.JComponent.processMouseEvent(JComponent.java:3126) \tat java.awt.Component.processEvent(Component.java:5253) \tat java.awt.Container.processEvent(Container.java:1966) \tat java.awt.Component.dispatchEventImpl(Component.java:3955) \tat java.awt.Container.dispatchEventImpl(Container.java:2024) \tat java.awt.Component.dispatchEvent(Component.java:3803) \tat java.awt.LightweightDispatcher.retargetMouseEvent(Container.java:4212) \tat java.awt.LightweightDispatcher.processMouseEvent(Container.java:3892) \tat java.awt.LightweightDispatcher.dispatchEvent(Container.java:3822) \tat java.awt.Container.dispatchEventImpl(Container.java:2010) \tat java.awt.Window.dispatchEventImpl(Window.java:1774) \tat java.awt.Component.dispatchEvent(Component.java:3803) \tat java.awt.EventQueue.dispatchEvent(EventQueue.java:463) \tat java.awt.EventDispatchThread.pumpOneEventForHierarchy(EventDispatchThread.java:242) \tat java.awt.EventDispatchThread.pumpEventsForHierarchy(EventDispatchThread.java:163) \tat java.awt.EventDispatchThread.pumpEvents(EventDispatchThread.java:157) \tat java.awt.EventDispatchThread.pumpEvents(EventDispatchThread.java:149) \tat java.awt.EventDispatchThread.run(EventDispatchThread.java:110) Caused by: java.lang.IndexOutOfBoundsException: Index: 0, Size: 0 \tat java.util.ArrayList.RangeCheck(ArrayList.java:547) \tat java.util.ArrayList.get(ArrayList.java:322) \tat org.argouml.persistence.FigEdgeHandler.addObject(FigEdgeHandler.java:111) \tat org.tigris.gef.persistence.pgml.PrivateHandler.gotElement(PrivateHandler.java:61) \tat org.argouml.persistence.PrivateHandler.gotElement(PrivateHandler.java:109) \tat org.tigris.gef.persistence.pgml.BaseHandler.endElement(BaseHandler.java:174) \tat com.sun.org.apache.xerces.internal.parsers.AbstractSAXParser.endElement(AbstractSAXParser.java:633) \tat com.sun.org.apache.xerces.internal.impl.XMLDocumentFragmentScannerImpl.scanEndElement(XMLDocumentFragmentScannerImpl.java:1241) \tat com.sun.org.apache.xerces.internal.impl.XMLDocumentFragmentScannerImpl$FragmentContentDispatcher.dispatch(XMLDocumentFragmentScannerImpl.java:1685) \tat com.sun.org.apache.xerces.internal.impl.XMLDocumentFragmentScannerImpl.scanDocument(XMLDocumentFragmentScannerImpl.java:368) \tat com.sun.org.apache.xerces.internal.parsers.XML11Configuration.parse(XML11Configuration.java:834) \tat com.sun.org.apache.xerces.internal.parsers.XML11Configuration.parse(XML11Configuration.java:764) \tat com.sun.org.apache.xerces.internal.parsers.XMLParser.parse(XMLParser.java:148) \tat com.sun.org.apache.xerces.internal.parsers.AbstractSAXParser.parse(AbstractSAXParser.java:1242) \tat javax.xml.parsers.SAXParser.parse(SAXParser.java:375) \tat org.tigris.gef.persistence.pgml.PGMLStackParser.readDiagram(PGMLStackParser.java:149) \tat org.tigris.gef.persistence.pgml.PGMLStackParser.readDiagram(PGMLStackParser.java:118) \tat org.argouml.persistence.DiagramMemberFilePersister.load(DiagramMemberFilePersister.java:67) \t... 31 more Caused by: java.lang.IndexOutOfBoundsException: Index: 0, Size: 0 \tat java.util.ArrayList.RangeCheck(ArrayList.java:547) \tat java.util.ArrayList.get(ArrayList.java:322) \tat org.argouml.persistence.FigEdgeHandler.addObject(FigEdgeHandler.java:111) \tat org.tigris.gef.persistence.pgml.PrivateHandler.gotElement(PrivateHandler.java:61) \tat org.argouml.persistence.PrivateHandler.gotElement(PrivateHandler.java:109) \tat org.tigris.gef.persistence.pgml.BaseHandler.endElement(BaseHandler.java:174) \tat com.sun.org.apache.xerces.internal.parsers.AbstractSAXParser.endElement(AbstractSAXParser.java:633) \tat com.sun.org.apache.xerces.internal.impl.XMLDocumentFragmentScannerImpl.scanEndElement(XMLDocumentFragmentScannerImpl.java:1241) \tat com.sun.org.apache.xerces.internal.impl.XMLDocumentFragmentScannerImpl$FragmentContentDispatcher.dispatch(XMLDocumentFragmentScannerImpl.java:1685) \tat com.sun.org.apache.xerces.internal.impl.XMLDocumentFragmentScannerImpl.scanDocument(XMLDocumentFragmentScannerImpl.java:368) \tat com.sun.org.apache.xerces.internal.parsers.XML11Configuration.parse(XML11Configuration.java:834) \tat com.sun.org.apache.xerces.internal.parsers.XML11Configuration.parse(XML11Configuration.java:764) \tat com.sun.org.apache.xerces.internal.parsers.XMLParser.parse(XMLParser.java:148) \tat com.sun.org.apache.xerces.internal.parsers.AbstractSAXParser.parse(AbstractSAXParser.java:1242) \tat javax.xml.parsers.SAXParser.parse(SAXParser.java:375) \tat org.tigris.gef.persistence.pgml.PGMLStackParser.readDiagram(PGMLStackParser.java:149) \tat org.tigris.gef.persistence.pgml.PGMLStackParser.readDiagram(PGMLStackParser.java:118) \tat org.argouml.persistence.DiagramMemberFilePersister.load(DiagramMemberFilePersister.java:67) \tat org.argouml.persistence.UmlFilePersister.doLoad(UmlFilePersister.java:355) \tat org.argouml.persistence.ZargoFilePersister.doLoad(ZargoFilePersister.java:319) \tat org.argouml.ui.ProjectBrowser.loadProject(ProjectBrowser.java:1114) \tat org.argouml.uml.ui.ActionReopenProject.actionPerformed(ActionReopenProject.java:86) \tat javax.swing.AbstractButton.fireActionPerformed(AbstractButton.java:1849) \tat javax.swing.AbstractButton$Handler.actionPerformed(AbstractButton.java:2169) \tat javax.swing.DefaultButtonModel.fireActionPerformed(DefaultButtonModel.java:420) \tat javax.swing.DefaultButtonModel.setPressed(DefaultButtonModel.java:258) \tat javax.swing.AbstractButton.doClick(AbstractButton.java:302) \tat javax.swing.plaf.basic.BasicMenuItemUI.doClick(BasicMenuItemUI.java:1000) \tat javax.swing.plaf.basic.BasicMenuItemUI$Handler.mouseReleased(BasicMenuItemUI.java:1041) \tat java.awt.AWTEventMulticaster.mouseReleased(AWTEventMulticaster.java:231) \tat java.awt.Component.processMouseEvent(Component.java:5488) \tat javax.swing.JComponent.processMouseEvent(JComponent.java:3126) \tat java.awt.Component.processEvent(Component.java:5253) \tat java.awt.Container.processEvent(Container.java:1966) \tat java.awt.Component.dispatchEventImpl(Component.java:3955) \tat java.awt.Container.dispatchEventImpl(Container.java:2024) \tat java.awt.Component.dispatchEvent(Component.java:3803) \tat java.awt.LightweightDispatcher.retargetMouseEvent(Container.java:4212) \tat java.awt.LightweightDispatcher.processMouseEvent(Container.java:3892) \tat java.awt.LightweightDispatcher.dispatchEvent(Container.java:3822) \tat java.awt.Container.dispatchEventImpl(Container.java:2010) \tat java.awt.Window.dispatchEventImpl(Window.java:1774) \tat java.awt.Component.dispatchEvent(Component.java:3803) \tat java.awt.EventQueue.dispatchEvent(EventQueue.java:463) \tat java.awt.EventDispatchThread.pumpOneEventForHierarchy(EventDispatchThread.java:242) \tat java.awt.EventDispatchThread.pumpEventsForHierarchy(EventDispatchThread.java:163) \tat java.awt.EventDispatchThread.pumpEvents(EventDispatchThread.java:157) \tat java.awt.EventDispatchThread.pumpEvents(EventDispatchThread.java:149) \tat java.awt.EventDispatchThread.run(EventDispatchThread.java:110)"}
{"key":"4222","title":"Operation and argument names refresh incorrectly","description":"When you change the name of an argument of a operation in a class it doesn\u0027t\nwork in some circunstances. 1 Create a new class 2 Create new operation in the class 3 Add argument (set the name of the argument) 4 The diagram doesn\u0027t refresh this name and save the project with the default\nname  of the argument. It also changes the name of the operation. 5 Next time you open the project all this doens\u0027t happen"}
{"key":"3882","title":"Transitions names are not refreshed","description":"When I create a transition in a activity diagram, it doesn\u0027t refresh the name \nof the transition at the hierarchical selection tree. The program uses the \ndefined Trigger instead the name there."}
{"key":"4231","title":"Open exception - Cannot find context namespace while initializing activity diagram","description":"Please report this problem at http://argouml.tigris.org/project_bugs.html\nError opening file : CasinoDevWorkflow.zargo\n System Info:\nArgoUML version : 0.21.2\nJava Version : 1.5.0_07\nJava Vendor : Sun Microsystems Inc. Java Vendor URL : http://java.sun.com/\nJava Home Directory : C:\\Java\\jre1.5.0_07\nJava Classpath : c:\\DevTools\\argoUML\\argouml.jar\nOperation System : Windows XP, Version 5.1\nArchitecture : x86\nUser Name : Alec Clews\nUser Home Directory : C:\\Documents and Settings\\Alec Clews\nCurrent Directory : C:\\DevTools\\argoUML\nJVM Total Memory : 14888960\nJVM Free Memory : 1250640 Error occurred at : 29 May 2006 07:11:54 GMT Cause : java.lang.IllegalStateException: Cannot find context namespace while initializing activity diagram at org.tigris.gef.persistence.pgml.PGMLHandler.initDiagram(PGMLHandler.java:112) at org.tigris.gef.persistence.pgml.PGMLHandler. (PGMLHandler.java:72) at org.tigris.gef.persistence.pgml.InitialHandler.startElement(InitialHandler.java:62) at com.sun.org.apache.xerces.internal.parsers.AbstractSAXParser.startElement(Unknown Source) at com.sun.org.apache.xerces.internal.impl.dtd.XMLDTDValidator.startElement(Unknown Source) at com.sun.org.apache.xerces.internal.impl.XMLDocumentFragmentScannerImpl.scanStartElement(Unknown Source) at com.sun.org.apache.xerces.internal.impl.XMLDocumentScannerImpl$ContentDispatcher.scanRootElementHook(Unknown Source) at com.sun.org.apache.xerces.internal.impl.XMLDocumentFragmentScannerImpl$FragmentContentDispatcher.dispatch(Unknown Source) at com.sun.org.apache.xerces.internal.impl.XMLDocumentFragmentScannerImpl.scanDocument(Unknown Source) at com.sun.org.apache.xerces.internal.parsers.XML11Configuration.parse(Unknown Source) at com.sun.org.apache.xerces.internal.parsers.XML11Configuration.parse(Unknown Source) at com.sun.org.apache.xerces.internal.parsers.XMLParser.parse(Unknown Source) at com.sun.org.apache.xerces.internal.parsers.AbstractSAXParser.parse(Unknown Source) at javax.xml.parsers.SAXParser.parse(Unknown Source) at org.tigris.gef.persistence.pgml.PGMLStackParser.readDiagram(PGMLStackParser.java:150) at org.tigris.gef.persistence.pgml.PGMLStackParser.readDiagram(PGMLStackParser.java:119) at org.argouml.persistence.DiagramMemberFilePersister.load(DiagramMemberFilePersister.java:67) at org.argouml.persistence.UmlFilePersister.doLoad(UmlFilePersister.java:355) at org.argouml.persistence.ZargoFilePersister.doLoad(ZargoFilePersister.java:341) at org.argouml.ui.ProjectBrowser.loadProject(ProjectBrowser.java:1239) at org.argouml.uml.ui.ActionOpenProject.actionPerformed(ActionOpenProject.java:160) at javax.swing.AbstractButton.fireActionPerformed(Unknown Source) at javax.swing.AbstractButton$Handler.actionPerformed(Unknown Source) at javax.swing.DefaultButtonModel.fireActionPerformed(Unknown Source) at javax.swing.DefaultButtonModel.setPressed(Unknown Source) at javax.swing.AbstractButton.doClick(Unknown Source) at javax.swing.plaf.basic.BasicMenuItemUI.doClick(Unknown Source) at javax.swing.plaf.basic.BasicMenuItemUI$Handler.mouseReleased(Unknown Source) at java.awt.AWTEventMulticaster.mouseReleased(Unknown Source) at java.awt.Component.processMouseEvent(Unknown Source) at javax.swing.JComponent.processMouseEvent(Unknown Source) at java.awt.Component.processEvent(Unknown Source) at java.awt.Container.processEvent(Unknown Source) at java.awt.Component.dispatchEventImpl(Unknown Source) at java.awt.Container.dispatchEventImpl(Unknown Source) at java.awt.Component.dispatchEvent(Unknown Source) at java.awt.LightweightDispatcher.retargetMouseEvent(Unknown Source) at java.awt.LightweightDispatcher.processMouseEvent(Unknown Source) at java.awt.LightweightDispatcher.dispatchEvent(Unknown Source) at java.awt.Container.dispatchEventImpl(Unknown Source) at java.awt.Window.dispatchEventImpl(Unknown Source) at java.awt.Component.dispatchEvent(Unknown Source) at java.awt.EventQueue.dispatchEvent(Unknown Source) at java.awt.EventDispatchThread.pumpOneEventForHierarchy(Unknown Source) at java.awt.EventDispatchThread.pumpEventsForHierarchy(Unknown Source) at java.awt.EventDispatchThread.pumpEvents(Unknown Source) at java.awt.EventDispatchThread.pumpEvents(Unknown Source) at java.awt.EventDispatchThread.run(Unknown Source) ------- Full exception : org.argouml.persistence.OpenException: java.lang.IllegalStateException: Cannot find context namespace while initializing activity diagram at org.argouml.persistence.DiagramMemberFilePersister.load(DiagramMemberFilePersister.java:74) at org.argouml.persistence.UmlFilePersister.doLoad(UmlFilePersister.java:355) at org.argouml.persistence.ZargoFilePersister.doLoad(ZargoFilePersister.java:341) at org.argouml.ui.ProjectBrowser.loadProject(ProjectBrowser.java:1239) at org.argouml.uml.ui.ActionOpenProject.actionPerformed(ActionOpenProject.java:160) at javax.swing.AbstractButton.fireActionPerformed(Unknown Source) at javax.swing.AbstractButton$Handler.actionPerformed(Unknown Source) at javax.swing.DefaultButtonModel.fireActionPerformed(Unknown Source) at javax.swing.DefaultButtonModel.setPressed(Unknown Source) at javax.swing.AbstractButton.doClick(Unknown Source) at javax.swing.plaf.basic.BasicMenuItemUI.doClick(Unknown Source) at javax.swing.plaf.basic.BasicMenuItemUI$Handler.mouseReleased(Unknown Source) at java.awt.AWTEventMulticaster.mouseReleased(Unknown Source) at java.awt.Component.processMouseEvent(Unknown Source) at javax.swing.JComponent.processMouseEvent(Unknown Source) at java.awt.Component.processEvent(Unknown Source) at java.awt.Container.processEvent(Unknown Source) at java.awt.Component.dispatchEventImpl(Unknown Source) at java.awt.Container.dispatchEventImpl(Unknown Source) at java.awt.Component.dispatchEvent(Unknown Source) at java.awt.LightweightDispatcher.retargetMouseEvent(Unknown Source) at java.awt.LightweightDispatcher.processMouseEvent(Unknown Source) at java.awt.LightweightDispatcher.dispatchEvent(Unknown Source) at java.awt.Container.dispatchEventImpl(Unknown Source) at java.awt.Window.dispatchEventImpl(Unknown Source) at java.awt.Component.dispatchEvent(Unknown Source) at java.awt.EventQueue.dispatchEvent(Unknown Source) at java.awt.EventDispatchThread.pumpOneEventForHierarchy(Unknown Source) at java.awt.EventDispatchThread.pumpEventsForHierarchy(Unknown Source) at java.awt.EventDispatchThread.pumpEvents(Unknown Source) at java.awt.EventDispatchThread.pumpEvents(Unknown Source) at java.awt.EventDispatchThread.run(Unknown Source) Caused by: java.lang.IllegalStateException: Cannot find context namespace while initializing activity diagram at org.tigris.gef.persistence.pgml.PGMLHandler.initDiagram(PGMLHandler.java:112) at org.tigris.gef.persistence.pgml.PGMLHandler. (PGMLHandler.java:72) at org.tigris.gef.persistence.pgml.InitialHandler.startElement(InitialHandler.java:62) at com.sun.org.apache.xerces.internal.parsers.AbstractSAXParser.startElement(Unknown Source) at com.sun.org.apache.xerces.internal.impl.dtd.XMLDTDValidator.startElement(Unknown Source) at com.sun.org.apache.xerces.internal.impl.XMLDocumentFragmentScannerImpl.scanStartElement(Unknown Source) at com.sun.org.apache.xerces.internal.impl.XMLDocumentScannerImpl$ContentDispatcher.scanRootElementHook(Unknown Source) at com.sun.org.apache.xerces.internal.impl.XMLDocumentFragmentScannerImpl$FragmentContentDispatcher.dispatch(Unknown Source) at com.sun.org.apache.xerces.internal.impl.XMLDocumentFragmentScannerImpl.scanDocument(Unknown Source) at com.sun.org.apache.xerces.internal.parsers.XML11Configuration.parse(Unknown Source) at com.sun.org.apache.xerces.internal.parsers.XML11Configuration.parse(Unknown Source) at com.sun.org.apache.xerces.internal.parsers.XMLParser.parse(Unknown Source) at com.sun.org.apache.xerces.internal.parsers.AbstractSAXParser.parse(Unknown Source) at javax.xml.parsers.SAXParser.parse(Unknown Source) at org.tigris.gef.persistence.pgml.PGMLStackParser.readDiagram(PGMLStackParser.java:150) at org.tigris.gef.persistence.pgml.PGMLStackParser.readDiagram(PGMLStackParser.java:119) at org.argouml.persistence.DiagramMemberFilePersister.load(DiagramMemberFilePersister.java:67) ... 31 more java.lang.IllegalStateException: Cannot find context namespace while initializing activity diagram at org.argouml.uml.diagram.activity.ui.UMLActivityDiagram.initialize(UMLActivityDiagram.java:118) at org.tigris.gef.persistence.pgml.PGMLHandler.initDiagram(PGMLHandler.java:108) at org.tigris.gef.persistence.pgml.PGMLHandler. (PGMLHandler.java:72) at org.tigris.gef.persistence.pgml.InitialHandler.startElement(InitialHandler.java:62) at com.sun.org.apache.xerces.internal.parsers.AbstractSAXParser.startElement(Unknown Source) at com.sun.org.apache.xerces.internal.impl.dtd.XMLDTDValidator.startElement(Unknown Source) at com.sun.org.apache.xerces.internal.impl.XMLDocumentFragmentScannerImpl.scanStartElement(Unknown Source) at com.sun.org.apache.xerces.internal.impl.XMLDocumentScannerImpl$ContentDispatcher.scanRootElementHook(Unknown Source) at com.sun.org.apache.xerces.internal.impl.XMLDocumentFragmentScannerImpl$FragmentContentDispatcher.dispatch(Unknown Source) at com.sun.org.apache.xerces.internal.impl.XMLDocumentFragmentScannerImpl.scanDocument(Unknown Source) at com.sun.org.apache.xerces.internal.parsers.XML11Configuration.parse(Unknown Source) at com.sun.org.apache.xerces.internal.parsers.XML11Configuration.parse(Unknown Source) at com.sun.org.apache.xerces.internal.parsers.XMLParser.parse(Unknown Source) at com.sun.org.apache.xerces.internal.parsers.AbstractSAXParser.parse(Unknown Source) at javax.xml.parsers.SAXParser.parse(Unknown Source) at org.tigris.gef.persistence.pgml.PGMLStackParser.readDiagram(PGMLStackParser.java:150) at org.tigris.gef.persistence.pgml.PGMLStackParser.readDiagram(PGMLStackParser.java:119) at org.argouml.persistence.DiagramMemberFilePersister.load(DiagramMemberFilePersister.java:67) at org.argouml.persistence.UmlFilePersister.doLoad(UmlFilePersister.java:355) at org.argouml.persistence.ZargoFilePersister.doLoad(ZargoFilePersister.java:341) at org.argouml.ui.ProjectBrowser.loadProject(ProjectBrowser.java:1239) at org.argouml.uml.ui.ActionOpenProject.actionPerformed(ActionOpenProject.java:160) at javax.swing.AbstractButton.fireActionPerformed(Unknown Source) at javax.swing.AbstractButton$Handler.actionPerformed(Unknown Source) at javax.swing.DefaultButtonModel.fireActionPerformed(Unknown Source) at javax.swing.DefaultButtonModel.setPressed(Unknown Source) at javax.swing.AbstractButton.doClick(Unknown Source) at javax.swing.plaf.basic.BasicMenuItemUI.doClick(Unknown Source) at javax.swing.plaf.basic.BasicMenuItemUI$Handler.mouseReleased(Unknown Source) at java.awt.AWTEventMulticaster.mouseReleased(Unknown Source) at java.awt.Component.processMouseEvent(Unknown Source) at javax.swing.JComponent.processMouseEvent(Unknown Source) at java.awt.Component.processEvent(Unknown Source) at java.awt.Container.processEvent(Unknown Source) at java.awt.Component.dispatchEventImpl(Unknown Source) at java.awt.Container.dispatchEventImpl(Unknown Source) at java.awt.Component.dispatchEvent(Unknown Source) at java.awt.LightweightDispatcher.retargetMouseEvent(Unknown Source) at java.awt.LightweightDispatcher.processMouseEvent(Unknown Source) at java.awt.LightweightDispatcher.dispatchEvent(Unknown Source) at java.awt.Container.dispatchEventImpl(Unknown Source) at java.awt.Window.dispatchEventImpl(Unknown Source) at java.awt.Component.dispatchEvent(Unknown Source) at java.awt.EventQueue.dispatchEvent(Unknown Source) at java.awt.EventDispatchThread.pumpOneEventForHierarchy(Unknown Source) at java.awt.EventDispatchThread.pumpEventsForHierarchy(Unknown Source) at java.awt.EventDispatchThread.pumpEvents(Unknown Source) at java.awt.EventDispatchThread.pumpEvents(Unknown Source) at java.awt.EventDispatchThread.run(Unknown Source)"}
{"key":"3923","title":"Problem importing Poseidon activity diagrams from XMI","description":"There is a bug in Beta 3 which prevents you using the activity diagram for AndroMDA. Here is what I\u0027ve done: 1) Import an XMI from Poseidon, which works well with AndroMDA (the PiggyBank example). Everything went fine. 2) If I add my activity diagram under the use case diagram I always get a new activity graph, so I have 2 activity graphs alltogether. I cannot add an activity diagram under the imported activity graph. Please see the screenshot I attached. See: http://argouml.tigris.org/servlets/ReadMsg?list\u003ddev\u0026msgNo\u003d19267 Screenshot: http://argouml.tigris.org/servlets/GetAttachment?list\u003ddev\u0026msgId\u003d770688\u0026attachId\u003d1 3) This code, which works with Poseidon, won\u0027t work with ArgoUML: Collection actionStates \u003d getModel(). getAllActionStates(); for (Iterator iterActionState \u003d actionStates.iterator(); iterActionState.hasNext();) { ActionStateFacade actionState \u003d (ActionStateFacade) iterActionState.next(); actionState is always \"null\". 4) Importing the activity diagram from Poseidon works and the result can be processed by AndroMDA but if you are making the activity diagram from the beginning with ArgoUML, it won\u0027t work because of the error above (nr. 3). So, it seems that ArgoUML still has a problem with activity diagram... Thanks, Lofi."}
{"key":"4245","title":"Repaint exception when creating sequence diagram","description":"I get the following exception the first time a sequence diagram is created. I\u0027ve tried catching it in the debugger and looking at the context, but didn\u0027t\nsee anything obvious which would indicate what is causing the problem. This appears to be the same problem that both Michiel and I reported in comments\nto issue 4174 (which has since been closed). Exception in thread \"AWT-EventQueue-0\" java.lang.NullPointerException \tat java.awt.Rectangle.setBounds(Unknown Source) \tat javax.swing.RepaintManager.collectDirtyComponents(Unknown Source) \tat javax.swing.RepaintManager.paintDirtyRegions(Unknown Source) \tat javax.swing.SystemEventQueueUtilities$ComponentWorkRequest.run(Unknown Source) \tat java.awt.event.InvocationEvent.dispatch(Unknown Source) \tat java.awt.EventQueue.dispatchEvent(Unknown Source) \tat java.awt.EventDispatchThread.pumpOneEventForHierarchy(Unknown Source) \tat java.awt.EventDispatchThread.pumpEventsForHierarchy(Unknown Source) \tat java.awt.EventDispatchThread.pumpEvents(Unknown Source) \tat java.awt.EventDispatchThread.pumpEvents(Unknown Source) \tat java.awt.EventDispatchThread.run(Unknown Source)"}
{"key":"4272","title":"InvalidElementException in Checklist","description":"The following causes a complete crash of ArgoUML due to InvalidElementException: 1 Draw 2 Classes. 2 Draw an association between them. 3 Delete from model the association. 4 Again, draw an association between these classes. 5 Click on the Checklist tab. 6 Minimize the ArgoUML window. 7 Show the screen again. This shows an empty ArgoUML window. The last 2 steps are only needed to show the\nsevereness of the problem. This issue is similar to issue 4182. The exception: Exception in thread \"AWT-EventQueue-0\" org.argouml.model.InvalidElementException: UUID: 10-0-0-9--c3a8a2a:10bd3d01e34:-8000:00000000000009AC         at org.argouml.model.mdr.FacadeMDRImpl.getName(FacadeMDRImpl.java:4403)         at org.argouml.ocl.CriticOclEvaluator.evalToString(CriticOclEvaluator.java:64)         at org.argouml.uml.cognitive.checklist.UMLCheckItem.expand(UMLCheckItem.java:87)         at org.argouml.cognitive.checklist.CheckItem.getDescription(CheckItem.java:128)         at org.argouml.cognitive.checklist.ui.TableModelChecklist.getValueAt(TabChecklist.java:363)         at javax.swing.JTable.getValueAt(Unknown Source)         at javax.swing.JTable.prepareRenderer(Unknown Source)         at javax.swing.plaf.basic.BasicTableUI.paintCell(Unknown Source)         at javax.swing.plaf.basic.BasicTableUI.paintCells(Unknown Source)         at javax.swing.plaf.basic.BasicTableUI.paint(Unknown Source)         at javax.swing.plaf.ComponentUI.update(Unknown Source)         at javax.swing.JComponent.paintComponent(Unknown Source)         at javax.swing.JComponent.paint(Unknown Source)         at javax.swing.JComponent.paintChildren(Unknown Source)         at javax.swing.JComponent.paint(Unknown Source)         at javax.swing.JViewport.paint(Unknown Source)         at javax.swing.JComponent.paintChildren(Unknown Source)         at javax.swing.JComponent.paint(Unknown Source)         at javax.swing.JComponent.paintChildren(Unknown Source)         at javax.swing.JComponent.paint(Unknown Source)         at javax.swing.JComponent.paintChildren(Unknown Source)         at javax.swing.JComponent.paint(Unknown Source)         at javax.swing.JComponent.paintChildren(Unknown Source)         at javax.swing.JComponent.paint(Unknown Source)         at javax.swing.JComponent.paintWithOffscreenBuffer(Unknown Source)         at javax.swing.JComponent.paintDoubleBuffered(Unknown Source)         at javax.swing.JComponent._paintImmediately(Unknown Source)         at javax.swing.JComponent.paintImmediately(Unknown Source)         at javax.swing.RepaintManager.paintDirtyRegions(Unknown Source)         at javax.swing.SystemEventQueueUtilities$ComponentWorkRequest.run(Unknown Source)         at java.awt.event.InvocationEvent.dispatch(Unknown Source)         at java.awt.EventQueue.dispatchEvent(Unknown Source)         at java.awt.EventDispatchThread.pumpOneEventForHierarchy(Unknown Source)         at java.awt.EventDispatchThread.pumpEventsForHierarchy(Unknown Source)         at java.awt.EventDispatchThread.pumpEvents(Unknown Source)         at java.awt.EventDispatchThread.pumpEvents(Unknown Source)         at java.awt.EventDispatchThread.run(Unknown Source) Caused by: javax.jmi.reflect.InvalidObjectException: Object with MOFID 10-0-0-9--c3a8a2a:10bd3d01e34:-8000:00000000000009AC no longer exists.         at org.netbeans.mdr.handlers.BaseObjectHandler._getDelegate(BaseObjectHandler.java:353)         at org.netbeans.mdr.handlers.InstanceHandler.getInstanceDelegate(InstanceHandler.java:48)         at org.netbeans.mdr.handlers.InstanceHandler._handleGet(InstanceHandler.java:193)         at org.omg.uml.foundation.core.UmlAssociation$Impl.getName(Unknown Source)         at org.argouml.model.mdr.FacadeMDRImpl.getName(FacadeMDRImpl.java:4394)         ... 36 more"}
{"key":"3945","title":"Exception assigning an operation to a callevent","description":"The following Exception happens when assigning an operatioon to a callevent in \nthe following way: 1 Start ArgoUML. 2 Draw a class. 3 Create an operation for the class. 4 Select the class, and create a statechart diagram. 5 Create 2 states and a transition. 6 Rightclick the trigger fiels of the transition and create a new callevent. 7 Create a parameter for this callevent. 8 Set the type of the parameter to int and the initial value to 1, and give it a name. 9 Navigate to the callevent, and select the \"newOperation\" from the dropdown. Bang: [argouml] [org.netbeans.mdr.Logger] INFORMATIONAL *********** Exception \noccurred ************ at Mon Feb 13 13:03:31 CET 2006\n  [argouml] java.lang.IllegalArgumentException: handle: CallEvent$Impl  \nID: . :0000000000000786  MID: . :00000000000004FE  OPCKG: . :0000000000000622 or \noperation:   [argouml]     at  org.argouml.model.mdr.CommonBehaviorHelperMDRImpl.setOperation (CommonBehaviorHelperMDRImpl.java:249)   [argouml]     at  org.argouml.model.AbstractCommonBehaviorHelperDecorator.setOperation (AbstractCommonBehaviorHelperDecorator.java:152)   [argouml]     at  org.argouml.uml.ui.behavior.state_machines.UMLCallEventOperationComboBox2.actio nPerformed(PropPanelCallEvent.java:91)   [argouml]     at javax.swing.JComboBox.fireActionEvent(JComboBox.java:1197)   [argouml]     at javax.swing.JComboBox.contentsChanged(JComboBox.java:1268)   [argouml]     at javax.swing.AbstractListModel.fireContentsChanged (AbstractListModel.java:100)   [argouml]     at org.argouml.uml.ui.UMLComboBoxModel2.fireContentsChanged (UMLComboBoxModel2.java:501)   [argouml]     at org.argouml.uml.ui.UMLComboBoxModel2.setSelectedItem (UMLComboBoxModel2.java:391)   [argouml]     at org.argouml.uml.ui.UMLComboBoxModel2.removeElement (UMLComboBoxModel2.java:402)   [argouml]     at org.argouml.uml.ui.UMLComboBoxModel2.propertyChange (UMLComboBoxModel2.java:168)   [argouml]     at org.argouml.model.mdr.ModelEventPumpMDRImpl.fire (ModelEventPumpMDRImpl.java:437)   [argouml]     at org.argouml.model.mdr.ModelEventPumpMDRImpl.change (ModelEventPumpMDRImpl.java:356)   [argouml]     at org.netbeans.mdr.util.EventNotifier$EventsDelivery.run (EventNotifier.java:270)   [argouml]     at java.lang.Thread.run(Thread.java:595)"}
{"key":"3947","title":"bad behaviour in sequence diagrams when remove simple states or call actions","description":"I have created a sequence diagram for an use case. I have added to it some \nclassified roles and some callings and returns, in one of the returns of a \ncall the \u0027activity\u0027 doens\u0027t finish at the point of the return and this causes \nthat I can\u0027t insert new call at the lane. When I reload the seuqence diagram \nto check if the problem persist the white rectangle that indicates the \nduration of the call doesn\u0027t appear in any lane for any call and is imposible \nto add new calls. This makes these diagrams impossible to use."}
{"key":"4276","title":"InvalidObjectException when deleting 2 classes at once","description":"1 Draw 2 classes. 2 Select them both. 3 Delete from Model (in the menu, or by rightclicking). javax.jmi.reflect.InvalidObjectException: Object with MOFID 127-0-0-2--249892a7:10bd8531009:-8000:00000000000007E2 no longer exists. \tat org.netbeans.mdr.handlers.BaseObjectHandler._getDelegate(BaseObjectHandler.java:353) \tat org.netbeans.mdr.handlers.BaseObjectHandler.refMetaObject(BaseObjectHandler.java:292) \tat org.argouml.model.mdr.ModelEventPumpMDRImpl.registerModelEvent(ModelEventPumpMDRImpl.java:446) \tat org.argouml.model.mdr.ModelEventPumpMDRImpl.addModelEventListener(ModelEventPumpMDRImpl.java:152) \tat org.argouml.model.AbstractModelEventPump.addModelEventListener(AbstractModelEventPump.java:63) \tat org.argouml.uml.ui.UMLModelElementListModel2.setTarget(UMLModelElementListModel2.java:305) \tat org.argouml.uml.ui.UMLModelElementListModel2.targetRemoved(UMLModelElementListModel2.java:429) \tat org.argouml.uml.ui.PropPanel.fireTargetRemoved(PropPanel.java:529) \tat org.argouml.uml.ui.PropPanel.targetRemoved(PropPanel.java:483) \tat org.argouml.uml.ui.TabProps.fireTargetRemoved(TabProps.java:849) \tat org.argouml.uml.ui.TabProps.targetRemoved(TabProps.java:789) \tat org.argouml.ui.DetailsPane.fireTargetRemoved(DetailsPane.java:677) \tat org.argouml.ui.DetailsPane.targetRemoved(DetailsPane.java:605) \tat org.argouml.ui.targetmanager.TargetManager.fireTargetRemoved(TargetManager.java:809) \tat org.argouml.ui.targetmanager.TargetManager.internalOnSetTarget(TargetManager.java:478) \tat org.argouml.ui.targetmanager.TargetManager.removeTarget(TargetManager.java:642) \tat org.argouml.ui.targetmanager.TargetManager$TargetRemover.remove(TargetManager.java:1116) \tat org.argouml.ui.targetmanager.TargetManager$Remover.propertyChange(TargetManager.java:1107) \tat org.argouml.model.mdr.ModelEventPumpMDRImpl.fire(ModelEventPumpMDRImpl.java:412) \tat org.argouml.model.mdr.ModelEventPumpMDRImpl.change(ModelEventPumpMDRImpl.java:334) \tat org.netbeans.mdr.util.EventNotifier$EventsDelivery.run(EventNotifier.java:270) \tat java.lang.Thread.run(Thread.java:595)"}
{"key":"4279","title":"InvalidElementException when setting notation language on project load","description":"I had a project loaded and cleared it using File-\u003eNew, then tried to load a new\nproject and got the following exception. The only way to load a new project\nafter it got into this state was to restart ArgoUML. Error opening file : issue4274-Softiam.zargo  System Info: ArgoUML version : PRE-0.22.alpha2 Java Version : 1.5.0_02 Java Vendor : Sun Microsystems Inc. Java Vendor URL : http://java.sun.com/ Java Home Directory : C:\\Program Files\\Java\\jre1.5.0_02 Java Classpath : \\argouml-core-lib\\build-eclipse;C:\\eclipse-workspace\\argouml-core-lib\\antlrall-2.7.2.jar;C:\\eclipse-workspace\\argouml-core-lib\\commons-logging-1.0.2.jar;C:\\eclipse-workspace\\argouml-core-lib\\log4j-1.2.6.jar;C:\\eclipse-workspace\\argouml-core-lib\\ocl-argo-1.1.jar;C:\\eclipse-workspace\\argouml-core-lib\\toolbar-1.2.jar;C:\\eclipse-workspace\\argouml-core-lib\\swidgets-0.1.4.jar;C:\\eclipse-workspace\\argouml-core-lib\\gef-0.11.3M10.jar;C:\\eclipse-workspace\\argouml-core-model\\build-eclipse;C:\\eclipse-workspace\\argouml-core-model-mdr\\build-eclipse;C:\\eclipse-workspace\\argouml-core-model-mdr\\lib\\jmi.jar;C:\\eclipse-workspace\\argouml-core-model-mdr\\lib\\jmiutils.jar;C:\\eclipse-workspace\\argouml-core-model-mdr\\lib\\mdrapi.jar;C:\\eclipse-workspace\\argouml-core-model-mdr\\lib\\mof.jar;C:\\eclipse-workspace\\argouml-core-model-mdr\\lib\\nbmdr.jar;C:\\eclipse-workspace\\argouml-core-model-mdr\\lib\\openide-util.jar;\\argouml-core-tools\\build-eclipse;C:\\eclipse-workspace\\argouml-core-tools\\ant-1.6.2\\lib\\ant.jar;C:\\eclipse-workspace\\argouml-core-tools\\junit-3.8.1\\junit.jar;C:\\eclipse-workspace\\argouml-core-tools\\lib\\easymock12.jar;C:\\eclipse-workspace\\argouml\\build-eclipse;C:\\eclipse-workspace\\argouml-core-lib\\antlrall-2.7.2.jar;C:\\eclipse-workspace\\argouml-core-lib\\commons-logging-1.0.2.jar;C:\\eclipse-workspace\\argouml-core-lib\\log4j-1.2.6.jar;C:\\eclipse-workspace\\argouml-core-lib\\ocl-argo-1.1.jar;C:\\eclipse-workspace\\argouml-core-lib\\toolbar-1.2.jar;C:\\eclipse-workspace\\argouml-core-lib\\swidgets-0.1.4.jar;C:\\eclipse-workspace\\argouml-core-lib\\gef-0.11.3M10.jar;C:\\eclipse-workspace\\argouml-core-model\\build-eclipse;C:\\eclipse-workspace\\argouml-core-lib\\log4j-1.2.6.jar;C:\\eclipse-workspace\\argouml-core-tools\\ant-1.6.2\\lib\\ant.jar;C:\\eclipse-workspace\\argouml-core-tools\\junit-3.8.1\\junit.jar;C:\\eclipse-workspace\\argouml-core-tools\\lib\\easymock12.jar Operation System : Windows XP, Version 5.1 Architecture : x86 User Name : tom.morris User Home Directory : C:\\Documents and Settings\\tom.morris Current Directory : C:\\eclipse-workspace\\argouml JVM Total Memory : 68018176 JVM Free Memory : 12835120 Error occurred at : Fri Jun 16 11:46:16 EDT 2006 Cause : org.argouml.model.InvalidElementException: javax.jmi.reflect.InvalidObjectException: Object with MOFID -64--88-1-100-116c26bc:10bdbac263d:-8000:0000000000001005 no longer exists. at org.argouml.model.mdr.FacadeMDRImpl.getBase(FacadeMDRImpl.java:1651) at org.argouml.model.mdr.CoreHelperMDRImpl.getSource(CoreHelperMDRImpl.java:1233) at org.argouml.model.AbstractCoreHelperDecorator.getSource(AbstractCoreHelperDecorator.java:380) at org.argouml.uml.diagram.ui.FigEdgeModelElement.getSource(FigEdgeModelElement.java:1132) at org.argouml.uml.diagram.ui.FigEdgeModelElement.updateClassifiers(FigEdgeModelElement.java:1022) at org.argouml.uml.diagram.ui.FigEdgeModelElement.renderingChanged(FigEdgeModelElement.java:712) at org.argouml.uml.diagram.ui.FigEdgeModelElement.notationChanged(FigEdgeModelElement.java:898) at org.argouml.application.events.ArgoEventPump.handleFireNotationEvent(ArgoEventPump.java:190) at org.argouml.application.events.ArgoEventPump.handleFireEvent(ArgoEventPump.java:264) at org.argouml.application.events.ArgoEventPump.doFireEvent(ArgoEventPump.java:298) at org.argouml.application.events.ArgoEventPump.fireEvent(ArgoEventPump.java:282) at org.argouml.kernel.ProjectSettings.fireEvent(ProjectSettings.java:425) at org.argouml.kernel.ProjectSettings.setNotationLanguage(ProjectSettings.java:116) at org.argouml.persistence.ArgoParser.handleNotationLanguage(ArgoParser.java:307) at org.argouml.persistence.ArgoParser.handleEndElement(ArgoParser.java:174) at org.argouml.persistence.SAXParserBase.endElement(SAXParserBase.java:247) at com.sun.org.apache.xerces.internal.parsers.AbstractSAXParser.endElement(Unknown Source) at com.sun.org.apache.xerces.internal.impl.XMLDocumentFragmentScannerImpl.scanEndElement(Unknown Source) at com.sun.org.apache.xerces.internal.impl.XMLDocumentFragmentScannerImpl$FragmentContentDispatcher.dispatch(Unknown Source) at com.sun.org.apache.xerces.internal.impl.XMLDocumentFragmentScannerImpl.scanDocument(Unknown Source) at com.sun.org.apache.xerces.internal.parsers.XML11Configuration.parse(Unknown Source) at com.sun.org.apache.xerces.internal.parsers.XML11Configuration.parse(Unknown Source) at com.sun.org.apache.xerces.internal.parsers.XMLParser.parse(Unknown Source) at com.sun.org.apache.xerces.internal.parsers.AbstractSAXParser.parse(Unknown Source) at javax.xml.parsers.SAXParser.parse(Unknown Source) at org.argouml.persistence.SAXParserBase.parse(SAXParserBase.java:146) at org.argouml.persistence.ArgoParser.readProject(ArgoParser.java:90) at org.argouml.persistence.UmlFilePersister.doLoad(UmlFilePersister.java:343) at org.argouml.persistence.ZargoFilePersister.doLoad(ZargoFilePersister.java:341) at org.argouml.ui.ProjectBrowser.loadProject(ProjectBrowser.java:1281) at org.argouml.uml.ui.ActionOpenProject.actionPerformed(ActionOpenProject.java:164) at javax.swing.AbstractButton.fireActionPerformed(Unknown Source) at javax.swing.AbstractButton$Handler.actionPerformed(Unknown Source) at javax.swing.DefaultButtonModel.fireActionPerformed(Unknown Source) at javax.swing.DefaultButtonModel.setPressed(Unknown Source) at javax.swing.plaf.basic.BasicButtonListener.mouseReleased(Unknown Source) at java.awt.AWTEventMulticaster.mouseReleased(Unknown Source) at java.awt.AWTEventMulticaster.mouseReleased(Unknown Source) at java.awt.Component.processMouseEvent(Unknown Source) at javax.swing.JComponent.processMouseEvent(Unknown Source) at java.awt.Component.processEvent(Unknown Source) at java.awt.Container.processEvent(Unknown Source) at java.awt.Component.dispatchEventImpl(Unknown Source) at java.awt.Container.dispatchEventImpl(Unknown Source) at java.awt.Component.dispatchEvent(Unknown Source) at java.awt.LightweightDispatcher.retargetMouseEvent(Unknown Source) at java.awt.LightweightDispatcher.processMouseEvent(Unknown Source) at java.awt.LightweightDispatcher.dispatchEvent(Unknown Source) at java.awt.Container.dispatchEventImpl(Unknown Source) at java.awt.Window.dispatchEventImpl(Unknown Source) at java.awt.Component.dispatchEvent(Unknown Source) at java.awt.EventQueue.dispatchEvent(Unknown Source) at java.awt.EventDispatchThread.pumpOneEventForHierarchy(Unknown Source) at java.awt.EventDispatchThread.pumpEventsForHierarchy(Unknown Source) at java.awt.EventDispatchThread.pumpEvents(Unknown Source) at java.awt.EventDispatchThread.pumpEvents(Unknown Source) at java.awt.EventDispatchThread.run(Unknown Source) Caused by: javax.jmi.reflect.InvalidObjectException: Object with MOFID -64--88-1-100-116c26bc:10bdbac263d:-8000:0000000000001005 no longer exists. at org.netbeans.mdr.handlers.BaseObjectHandler. _getDelegate(BaseObjectHandler.java:353) at org.netbeans.mdr.handlers.InstanceHandler.getInstanceDelegate(InstanceHandler.java:48) at org.netbeans.mdr.handlers.InstanceHandler. _handleGetR(InstanceHandler.java:103) at org.omg.uml.behavioralelements.usecases.Include$Impl.getBase(Unknown Source) at org.argouml.model.mdr.FacadeMDRImpl.getBase(FacadeMDRImpl.java:1644) ... 56 more ------- Full exception : org.argouml.persistence.OpenException: org.argouml.model.InvalidElementException: javax.jmi.reflect.InvalidObjectException: Object with MOFID -64--88-1-100-116c26bc:10bdbac263d:-8000:0000000000001005 no longer exists. at org.argouml.persistence.UmlFilePersister.doLoad(UmlFilePersister.java:363) at org.argouml.persistence.ZargoFilePersister.doLoad(ZargoFilePersister.java:341) at org.argouml.ui.ProjectBrowser.loadProject(ProjectBrowser.java:1281) at org.argouml.uml.ui.ActionOpenProject.actionPerformed(ActionOpenProject.java:164) at javax.swing.AbstractButton.fireActionPerformed(Unknown Source) at javax.swing.AbstractButton$Handler.actionPerformed(Unknown Source) at javax.swing.DefaultButtonModel.fireActionPerformed(Unknown Source) at javax.swing.DefaultButtonModel.setPressed(Unknown Source) at javax.swing.plaf.basic.BasicButtonListener.mouseReleased(Unknown Source) at java.awt.AWTEventMulticaster.mouseReleased(Unknown Source) at java.awt.AWTEventMulticaster.mouseReleased(Unknown Source) at java.awt.Component.processMouseEvent(Unknown Source) at javax.swing.JComponent.processMouseEvent(Unknown Source) at java.awt.Component.processEvent(Unknown Source) at java.awt.Container.processEvent(Unknown Source) at java.awt.Component.dispatchEventImpl(Unknown Source) at java.awt.Container.dispatchEventImpl(Unknown Source) at java.awt.Component.dispatchEvent(Unknown Source) at java.awt.LightweightDispatcher.retargetMouseEvent(Unknown Source) at java.awt.LightweightDispatcher.processMouseEvent(Unknown Source) at java.awt.LightweightDispatcher.dispatchEvent(Unknown Source) at java.awt.Container.dispatchEventImpl(Unknown Source) at java.awt.Window.dispatchEventImpl(Unknown Source) at java.awt.Component.dispatchEvent(Unknown Source) at java.awt.EventQueue.dispatchEvent(Unknown Source) at java.awt.EventDispatchThread.pumpOneEventForHierarchy(Unknown Source) at java.awt.EventDispatchThread.pumpEventsForHierarchy(Unknown Source) at java.awt.EventDispatchThread.pumpEvents(Unknown Source) at java.awt.EventDispatchThread.pumpEvents(Unknown Source) at java.awt.EventDispatchThread.run(Unknown Source) Caused by: org.argouml.model.InvalidElementException: javax.jmi.reflect.InvalidObjectException: Object with MOFID -64--88-1-100-116c26bc:10bdbac263d:-8000:0000000000001005 no longer exists. at org.argouml.model.mdr.FacadeMDRImpl.getBase(FacadeMDRImpl.java:1651) at org.argouml.model.mdr.CoreHelperMDRImpl.getSource(CoreHelperMDRImpl.java:1233) at org.argouml.model.AbstractCoreHelperDecorator.getSource(AbstractCoreHelperDecorator.java:380) at org.argouml.uml.diagram.ui.FigEdgeModelElement.getSource(FigEdgeModelElement.java:1132) at org.argouml.uml.diagram.ui.FigEdgeModelElement.updateClassifiers(FigEdgeModelElement.java:1022) at org.argouml.uml.diagram.ui.FigEdgeModelElement.renderingChanged(FigEdgeModelElement.java:712) at org.argouml.uml.diagram.ui.FigEdgeModelElement.notationChanged(FigEdgeModelElement.java:898) at org.argouml.application.events.ArgoEventPump.handleFireNotationEvent(ArgoEventPump.java:190) at org.argouml.application.events.ArgoEventPump.handleFireEvent(ArgoEventPump.java:264) at org.argouml.application.events.ArgoEventPump.doFireEvent(ArgoEventPump.java:298) at org.argouml.application.events.ArgoEventPump.fireEvent(ArgoEventPump.java:282) at org.argouml.kernel.ProjectSettings.fireEvent(ProjectSettings.java:425) at org.argouml.kernel.ProjectSettings.setNotationLanguage(ProjectSettings.java:116) at org.argouml.persistence.ArgoParser.handleNotationLanguage(ArgoParser.java:307) at org.argouml.persistence.ArgoParser.handleEndElement(ArgoParser.java:174) at org.argouml.persistence.SAXParserBase.endElement(SAXParserBase.java:247) at com.sun.org.apache.xerces.internal.parsers.AbstractSAXParser.endElement(Unknown Source) at com.sun.org.apache.xerces.internal.impl.XMLDocumentFragmentScannerImpl.scanEndElement(Unknown Source) at com.sun.org.apache.xerces.internal.impl.XMLDocumentFragmentScannerImpl$FragmentContentDispatcher.dispatch(Unknown Source) at com.sun.org.apache.xerces.internal.impl.XMLDocumentFragmentScannerImpl.scanDocument(Unknown Source) at com.sun.org.apache.xerces.internal.parsers.XML11Configuration.parse(Unknown Source) at com.sun.org.apache.xerces.internal.parsers.XML11Configuration.parse(Unknown Source) at com.sun.org.apache.xerces.internal.parsers.XMLParser.parse(Unknown Source) at com.sun.org.apache.xerces.internal.parsers.AbstractSAXParser.parse(Unknown Source) at javax.xml.parsers.SAXParser.parse(Unknown Source) at org.argouml.persistence.SAXParserBase.parse(SAXParserBase.java:146) at org.argouml.persistence.ArgoParser.readProject(ArgoParser.java:90) at org.argouml.persistence.UmlFilePersister.doLoad(UmlFilePersister.java:343) ... 29 more Caused by: javax.jmi.reflect.InvalidObjectException: Object with MOFID -64--88-1-100-116c26bc:10bdbac263d:-8000:0000000000001005 no longer exists. at org.netbeans.mdr.handlers.BaseObjectHandler. _getDelegate(BaseObjectHandler.java:353) at org.netbeans.mdr.handlers.InstanceHandler.getInstanceDelegate(InstanceHandler.java:48) at org.netbeans.mdr.handlers.InstanceHandler. _handleGetR(InstanceHandler.java:103) at org.omg.uml.behavioralelements.usecases.Include$Impl.getBase(Unknown Source) at org.argouml.model.mdr.FacadeMDRImpl.getBase(FacadeMDRImpl.java:1644) ... 56 more"}
{"key":"3974","title":"Methods and properties not updated in class diagrams","description":"If I change the name of a method or property in a class diagrams, it won\u0027t be\nupdated until I reload the diagram, or add a parameter. The same thing happens\nif I change the visibility or modifier (static for example) of a method or property. Although I\u0027m not sure, I believe that this bug was not present in the last\nversion I\u0027ve used (0.20. alpha5)."}
{"key":"4281","title":"Deleting the context of a StateMachine should not delete the StateMachine","description":"If you currently delete an operation, then its StateMachine and\nStatechartDiagram are deleted too. That is not necessary - the namespace that owns the StateMachine still exists."}
{"key":"4007","title":"Exception when deleting other diagram","description":"An exception occurs when deleting a diagram indirectly that is not the current one. 1. Load the attached zargo. 2. Go to the activity diagram. 3. In the explorer, select class A, and delete from model. 4. Answer Yes to the dialog. This causes following exception: [echo] --- Executing ArgoUML --- [argouml] [org.netbeans.mdr.Logger] INFORMATIONAL *********** Exception occurred ************ at Sun Feb 26 20:40:03 CET 2006 [argouml] javax.jmi.reflect.InvalidObjectException: Object with MOFID . :00000000000007DD no longer exists. [argouml]     at org.netbeans.mdr.handlers.BaseObjectHandler. _getDelegate(BaseObjectHandler.java:353) [argouml]     at org.netbeans.mdr.handlers.InstanceHandler.getInstanceDelegate(InstanceHandler.java:48) [argouml]     at org.netbeans.mdr.handlers.InstanceHandler. _handleGetR(InstanceHandler.java:103) [argouml]     at org.omg.uml.behavioralelements.statemachines.SimpleState$Impl.getDoActivity(Unknown Source) [argouml]     at org.argouml.model.mdr.FacadeMDRImpl.getDoActivity(FacadeMDRImpl.java:2765) [argouml]     at org.argouml.uml.diagram.state.ui.FigState.updateListeners(FigState.java:150) [argouml]     at org.argouml.uml.diagram.ui.FigNodeModelElement.setOwner(FigNodeModelElement.java:1236) [argouml]     at org.argouml.uml.diagram.state.ui.FigState.setOwner(FigState.java:110)   [argouml]     at org.tigris.gef.presentation.Fig.removeFromDiagram(Fig.java:705) [argouml]     at org.tigris.gef.presentation.FigNode.removeFromDiagram(FigNode.java:230) [argouml]     at org.argouml.uml.diagram.ui.FigNodeModelElement.removeFromDiagram(FigNodeModelElement.java:1569)   [argouml]     at org.argouml.kernel.Project.removeFigs(Project.java:1055)   [argouml]     at org.argouml.kernel.Project.trashInternal(Project.java:969)   [argouml]     at org.argouml.kernel.Project.moveToTrash(Project.java:947) [argouml]     at org.argouml.uml.diagram.ui.FigNodeModelElement.propertyChange(FigNodeModelElement.java:910) [argouml]     at org.argouml.model.mdr.ModelEventPumpMDRImpl.fire(ModelEventPumpMDRImpl.java:437) [argouml]     at org.argouml.model.mdr.ModelEventPumpMDRImpl.change(ModelEventPumpMDRImpl.java:356) [argouml]     at org.netbeans.mdr.util.EventNotifier$EventsDelivery.run(EventNotifier.java:270)   [argouml]     at java.lang.Thread.run(Thread.java:595) [argouml] log4j:WARN No appenders could be found for logger (org.argouml.ui.targetmanager.TargetManager). [argouml] log4j:WARN Please initialize the log4j system properly. [argouml] java.lang.NullPointerException [argouml]     at javax.swing.SwingUtilities.computeIntersection(SwingUtilities.java:417) [argouml]     at javax.swing.RepaintManager.paintDirtyRegions(RepaintManager.java:430) [argouml]     at org.argouml.uml.diagram.ui.TabDiagram.setTarget(TabDiagram.java:195) [argouml]     at org.argouml.uml.diagram.ui.TabDiagram.targetSet(TabDiagram.java:372) [argouml]     at org.argouml.ui.targetmanager.TargetManager.fireTargetSet(TargetManager.java:783) [argouml]     at org.argouml.ui.targetmanager.TargetManager.internalOnSetTarget(TargetManager.java:487) [argouml]     at org.argouml.ui.targetmanager.TargetManager.setTarget(TargetManager.java:467) [argouml]     at org.argouml.uml.diagram.ui.UMLDiagram.propertyChange(UMLDiagram.java:484) [argouml]     at org.argouml.model.mdr.ModelEventPumpMDRImpl.fire(ModelEventPumpMDRImpl.java:437) [argouml]     at org.argouml.model.mdr.ModelEventPumpMDRImpl.change(ModelEventPumpMDRImpl.java:356) [argouml]     at org.netbeans.mdr.util.EventNotifier$EventsDelivery.run(EventNotifier.java:270)   [argouml]     at java.lang.Thread.run(Thread.java:595) [argouml] [org.netbeans.mdr.Logger] INFORMATIONAL *********** Exception occurred ************ at Sun Feb 26 20:40:03 CET 2006 [argouml] javax.jmi.reflect.InvalidObjectException: Object with MOFID . :00000000000007DE no longer exists. [argouml]     at org.netbeans.mdr.handlers.BaseObjectHandler. _getDelegate(BaseObjectHandler.java:353) [argouml]     at org.netbeans.mdr.handlers.InstanceHandler.getInstanceDelegate(InstanceHandler.java:48) [argouml]     at org.netbeans.mdr.handlers.InstanceHandler. _handleGetR(InstanceHandler.java:103) [argouml]     at org.omg.uml.behavioralelements.statemachines.SimpleState$Impl.getExit(Unknown Source) [argouml]     at org.argouml.model.mdr.FacadeMDRImpl.getExit(FacadeMDRImpl.java:1821) [argouml]     at org.argouml.uml.notation.uml.StateBodyNotationUml.toString(StateBodyNotationUml.java:85) [argouml]     at org.argouml.uml.diagram.state.ui.FigState.updateInternal(FigState.java:278) [argouml]     at org.argouml.uml.diagram.state.ui.FigState.modelChanged(FigState.java:131) [argouml]     at org.argouml.uml.diagram.ui.FigNodeModelElement.propertyChange(FigNodeModelElement.java:942) [argouml]     at org.argouml.model.mdr.ModelEventPumpMDRImpl.fire(ModelEventPumpMDRImpl.java:437) [argouml]     at org.argouml.model.mdr.ModelEventPumpMDRImpl.change(ModelEventPumpMDRImpl.java:356) [argouml]     at org.netbeans.mdr.util.EventNotifier$EventsDelivery.run(EventNotifier.java:270)   [argouml]     at java.lang.Thread.run(Thread.java:595) [argouml] [org.netbeans.mdr.Logger] INFORMATIONAL *********** Exception occurred ************ at Sun Feb 26 20:40:03 CET 2006 [argouml] javax.jmi.reflect.InvalidObjectException: Object with MOFID . :00000000000007DE no longer exists. [argouml]     at org.netbeans.mdr.handlers.BaseObjectHandler. _getDelegate(BaseObjectHandler.java:353) [argouml]     at org.netbeans.mdr.handlers.InstanceHandler.getInstanceDelegate(InstanceHandler.java:48) [argouml]     at org.netbeans.mdr.handlers.InstanceHandler. _handleGetR(InstanceHandler.java:103) [argouml]     at org.omg.uml.behavioralelements.statemachines.SimpleState$Impl.getExit(Unknown Source) [argouml]     at org.argouml.model.mdr.FacadeMDRImpl.getExit(FacadeMDRImpl.java:1821) [argouml]     at org.argouml.uml.notation.uml.StateBodyNotationUml.toString(StateBodyNotationUml.java:85) [argouml]     at org.argouml.uml.diagram.state.ui.FigState.updateInternal(FigState.java:278) [argouml]     at org.argouml.uml.diagram.state.ui.FigState.modelChanged(FigState.java:131) [argouml]     at org.argouml.uml.diagram.ui.FigNodeModelElement.propertyChange(FigNodeModelElement.java:942) [argouml]     at org.argouml.model.mdr.ModelEventPumpMDRImpl.fire(ModelEventPumpMDRImpl.java:437) [argouml]     at org.argouml.model.mdr.ModelEventPumpMDRImpl.change(ModelEventPumpMDRImpl.java:356) [argouml]     at org.netbeans.mdr.util.EventNotifier$EventsDelivery.run(EventNotifier.java:270)   [argouml]     at java.lang.Thread.run(Thread.java:595)"}
{"key":"4324","title":"Wrong default extension while saving","description":"Steps to reproduce: - Create a new project, add a component, save it with name \"foo\" and extension \". uml\" - Now, do some changes, and resave the project. The default file name is \"foo.uml\" (correct) but the default extension is \". zargo\"! If I press \"save\", I get a foo.uml.zargo file. That\u0027s not good. Maybe we should alreaedy save the chosen extension, or just deduce it from the file name. Moreover, the file name gets cancelled when the extension is changed. But I fear it\u0027s a FileChooserDialog issue..."}
{"key":"4330","title":"Exception in \"Send email to expert\"","description":"Steps to reproduce: - select an active critic from the ToDoPane - press the \"send email to expert\" button The following exception is thrown (stack from the console, no pop-ups appear): Exception in thread \"AWT-EventQueue-0\" java.lang.NullPointerException \tat org.argouml.ui.cmd.ActionEmailExpert.actionPerformed(ActionEmailExpert.java:57) \tat javax.swing.AbstractButton.fireActionPerformed(Unknown Source) \tat javax.swing.AbstractButton$Handler.actionPerformed(Unknown Source) \tat javax.swing.DefaultButtonModel.fireActionPerformed(Unknown Source) \tat javax.swing.DefaultButtonModel.setPressed(Unknown Source) \tat javax.swing.plaf.basic.BasicButtonListener.mouseReleased(Unknown Source) \tat java.awt.AWTEventMulticaster.mouseReleased(Unknown Source) \tat java.awt.AWTEventMulticaster.mouseReleased(Unknown Source) \tat java.awt.Component.processMouseEvent(Unknown Source) \tat javax.swing.JComponent.processMouseEvent(Unknown Source) \tat java.awt.Component.processEvent(Unknown Source) \tat java.awt.Container.processEvent(Unknown Source) \tat java.awt.Component.dispatchEventImpl(Unknown Source) \tat java.awt.Container.dispatchEventImpl(Unknown Source) \tat java.awt.Component.dispatchEvent(Unknown Source) \tat java.awt.LightweightDispatcher.retargetMouseEvent(Unknown Source) \tat java.awt.LightweightDispatcher.processMouseEvent(Unknown Source) \tat java.awt.LightweightDispatcher.dispatchEvent(Unknown Source) \tat java.awt.Container.dispatchEventImpl(Unknown Source) \tat java.awt.Window.dispatchEventImpl(Unknown Source) \tat java.awt.Component.dispatchEvent(Unknown Source) \tat java.awt.EventQueue.dispatchEvent(Unknown Source) \tat java.awt.EventDispatchThread.pumpOneEventForHierarchy(Unknown Source) \tat java.awt.EventDispatchThread.pumpEventsForHierarchy(Unknown Source) \tat java.awt.EventDispatchThread.pumpEvents(Unknown Source) \tat java.awt.EventDispatchThread.pumpEvents(Unknown Source) \tat java.awt.EventDispatchThread.run(Unknown Source)"}
{"key":"4342","title":"Delete from model does not enable \"Save Project\"","description":"When an item is removed using \"Delete from model\" the \"Save Project\" entry in\nthe \"File\" menu is not enabled."}
{"key":"4349","title":"Activity Diagram not refreshed after deletion of a Action State","description":"Steps to repeat bug. 1 Delete all the transiton associted with the action state you want to delete. 2 Delete the action state. Nothing happens the action state does not get removed form the Activity Diagram\nand as soon as you save the model. The action state does get remove and the\nfollowing error is generated. An inconsistency has been detected when saving the model.These have been\nrepaired and are reported below. The save will continue with the model having\nbeen amended as described. org.argouml.uml.diagram.activity.ui.FigActionState\n\"Deleted Action State\" -- Removed: model element no longer in the repository Thankyou"}
