{"key":"HHH-4576","title":"Tests in MySQL using different case for objects as defined in configuration","description":"The test below uses different case for object names than defined in XML files. In standard MySQL configuration, it causes a failure, as the object names are case sensitive. Test: BulkManipulationTest#testSimpleNativeSQLInsert - Pickup x PICKUP \nSame for:\n  MySQLCustomSQLTest.testEntityStoredProcedure\n  MySQLCustomSQLTest.testHandSQL"}
{"key":"HHH-4583","title":"Incorrect handling of empty conjunction and disjunction","description":"As spec says CriteriaBuilder.and(. .) returns TRUE for a conjunction of zero predicates. Unfortunately Hibernate throws IllegalArgumentException with cause set to SQL syntax exception: java.lang.IllegalArgumentException: org.hibernate.hql.ast.QuerySyntaxException: unexpected token: null near line 1, column 65 [select generatedAlias0 from foo.Client as generatedAlias0 where ] \tat org.hibernate.ejb.AbstractEntityManagerImpl.convert(AbstractEntityManagerImpl.java:791) \tat org.hibernate.ejb.AbstractEntityManagerImpl.createQuery(AbstractEntityManagerImpl.java:148) \tat org.hibernate.ejb.criteria.CriteriaQueryCompiler.compile(CriteriaQueryCompiler.java:104) \tat org.hibernate.ejb.AbstractEntityManagerImpl.createQuery(AbstractEntityManagerImpl.java:158) \tat foo.CriteriaApiTest.noPredicatesInAnd(CriteriaApiTest.java:43) \tat sun.reflect.NativeMethodAccessorImpl.invoke0(Native Method) \tat sun.reflect.NativeMethodAccessorImpl.invoke(NativeMethodAccessorImpl.java:39) \tat sun.reflect.DelegatingMethodAccessorImpl.invoke(DelegatingMethodAccessorImpl.java:25) \tat java.lang.reflect.Method.invoke(Method.java:597) \tat org.junit.runners.model.FrameworkMethod$1.runReflectiveCall(FrameworkMethod.java:44) \tat org.junit.internal.runners.model.ReflectiveCallable.run(ReflectiveCallable.java:15) \tat org.junit.runners.model.FrameworkMethod.invokeExplosively(FrameworkMethod.java:41) \tat org.junit.internal.runners.statements.InvokeMethod.evaluate(InvokeMethod.java:20) \tat org.junit.internal.runners.statements.RunBefores.evaluate(RunBefores.java:28) \tat org.junit.internal.runners.statements.RunAfters.evaluate(RunAfters.java:31) \tat org.junit.runners.BlockJUnit4ClassRunner.runChild(BlockJUnit4ClassRunner.java:73) \tat org.junit.runners.BlockJUnit4ClassRunner.runChild(BlockJUnit4ClassRunner.java:46) \tat org.junit.runners.ParentRunner.runChildren(ParentRunner.java:180) \tat org.junit.runners.ParentRunner.access$000(ParentRunner.java:41) \tat org.junit.runners.ParentRunner$1.evaluate(ParentRunner.java:173) \tat org.junit.internal.runners.statements.RunBefores.evaluate(RunBefores.java:28) \tat org.junit.internal.runners.statements.RunAfters.evaluate(RunAfters.java:31) \tat org.junit.runners.ParentRunner.run(ParentRunner.java:220) \tat org.eclipse.jdt.internal.junit4.runner.JUnit4TestReference.run(JUnit4TestReference.java:46) \tat org.eclipse.jdt.internal.junit.runner.TestExecution.run(TestExecution.java:38) \tat org.eclipse.jdt.internal.junit.runner.RemoteTestRunner.runTests(RemoteTestRunner.java:467) \tat org.eclipse.jdt.internal.junit.runner.RemoteTestRunner.runTests(RemoteTestRunner.java:683) \tat org.eclipse.jdt.internal.junit.runner.RemoteTestRunner.run(RemoteTestRunner.java:390) \tat org.eclipse.jdt.internal.junit.runner.RemoteTestRunner.main(RemoteTestRunner.java:197) Caused by: org.hibernate.hql.ast.QuerySyntaxException: unexpected token: null near line 1, column 65 [select generatedAlias0 from foo.Client as generatedAlias0 where ] \tat org.hibernate.hql.ast.QuerySyntaxException.convert(QuerySyntaxException.java:54) \tat org.hibernate.hql.ast.QuerySyntaxException.convert(QuerySyntaxException.java:47) \tat org.hibernate.hql.ast.ErrorCounter.throwQueryException(ErrorCounter.java:82) \tat org.hibernate.hql.ast.QueryTranslatorImpl.parse(QueryTranslatorImpl.java:284) \tat org.hibernate.hql.ast.QueryTranslatorImpl.doCompile(QueryTranslatorImpl.java:182) \tat org.hibernate.hql.ast.QueryTranslatorImpl.compile(QueryTranslatorImpl.java:136) \tat org.hibernate.engine.query.HQLQueryPlan.\u003cinit\u003e(HQLQueryPlan.java:101) \tat org.hibernate.engine.query.HQLQueryPlan.\u003cinit\u003e(HQLQueryPlan.java:80) \tat org.hibernate.engine.query.QueryPlanCache.getHQLQueryPlan(QueryPlanCache.java:94) \tat org.hibernate.impl.AbstractSessionImpl.getHQLQueryPlan(AbstractSessionImpl.java:156) \tat org.hibernate.impl.AbstractSessionImpl.createQuery(AbstractSessionImpl.java:135) \tat org.hibernate.impl.SessionImpl.createQuery(SessionImpl.java:1586) \tat org.hibernate.ejb.AbstractEntityManagerImpl.createQuery(AbstractEntityManagerImpl.java:133) \t... 27 more"}
{"key":"HHH-4614","title":"(javassist) Instrumented model with abstract MappedSuperclass and field access doesn\u0027t work","description":"Notes: - no matter if you use annotation or mapping files, test will fail using javassist (it used to fail with previous version too) See attached testcase to reproduce the problem. Guideline: - testcase the pattern used in hb-core, just using annotations - run org.hibernate.test.instrument2.runtime.JAVASSISTInstrumentationTest - easy to switch from annotation to mapping files in org.hibernate.test.instrument2.cases.AbstractExecutable (comment/uncomment specific lines in getAnnotatedClasses and getXmlFiles)"}
{"key":"HHH-4617","title":"Using materialized blobs with Postgresql causes error","description":"I have entity with byte[] property annotated as @Lob and lazy fetch type, when table is createad the created column is of type oid, but when the column is read in application, the Hibernate reads the OID value instead of bytes under given oid. It\u0027s behavior like to read / write bytea. If i remember well, auto-creating table with Hibernate creates oid column. The proper behavior for dealing in PostgreSQL (and this behavior is in Hibernate 3.4) is to use oids."}
{"key":"HHH-4647","title":"Problems with @JoinColumn referencedColumnName and quoted column and table names","description":"There are really two separate issues here, but the test case reduction and patches are so small (and involve related functionality) they are combined. #1: A referencedColumnName that references a quoted target column cannot be found. The test case is app.TestReferencedColumnName#testQuotedReferencedColumnName(). The patch is hibernate-annotations. patch. #2: An invalid referencedColumnName (including the unquoted version of a valid column) results in an infinite loop in o.h.c.Configuration$MappingsImpl#getPhysicalColumnName(). The test case is app.TestReferencedColumnName#testInvalidReferencedColumnNameOnQuotedTable. The patch is hibernate-core. patch. It looks like the same issue exists with getLogicalColumnName(), but I\u0027m not sure where this is used (i.e. how to test it) so I left it alone."}
{"key":"HHH-4767","title":"Bug in how Criteria Subquery selections are handled","description":"basically the specified selectio is never applied"}
{"key":"HHH-4775","title":"CriteriaBuilder#notEqual being interpreted oppositely","description":"The NOT gets NOT\u0027ed :?"}
{"key":"HHH-5042","title":"TableGenerator does not increment hibernate_sequences.next_hi_value anymore after having exhausted the current lo-range","description":"This bug is new in 3.5 In version 3.5 class MultipleHiLoPerTableGenerator.java was modified introducing a new increment variable IntegralDataTypeHolder value; along with int lo; The problem in the new code is that only value get\u0027s incremented whilst variable lo is still used to check when a new hiVal must be obtained. if ( lo \u003e maxLo ) { IntegralDataTypeHolder hiVal \u003d (IntegralDataTypeHolder) doWorkInNewTransaction( session ); as lo is never incremented, MultipleHiLoPerTableGenerator continues to deliver numbers without ever update hibernate_sequences. next_hi_value on the database (only one unique update is propagates at the first insert) This lead to duplicate keys as soon another session from another sessionfactory tries to insert new objects on the concerning table. Please see attached testcase. IMPORTANT ADVICE TO RUN THE TESTCASE: as the testcase uses 2 sessionfactories hibernate.hbm2ddl.auto\u003dcreate cannot be used!! Schema has to be exported separately and the testcase must run without hbm2ddl.auto property! Here the schema for HSQLDB: create table A (oid bigint not null, name varchar(255), version integer not null, primary key (oid), unique (name)) create table hibernate_sequences ( sequence_name varchar(255),  sequence_next_hi_value integer )"}
