{"key":"MAHOUT-1284","title":"DummyRecordWriter\u0027s bug with reused Writables","description":"It is a recommended practice to reuse the Writable objects. DummyRecordWriter, which is used for testing in Mahout, however keeps the same Writable instance in a map: next time that the user reuses the Writable object, the internal map of DummyRecordWriter changes as well. This makes DummyRecordWriter fail for testing the MapReduce jobs that reuse the Writables."}
{"key":"MAHOUT-1285","title":"Arff loader can misparse string data as double","description":"Have successfully loaded numerous ARFF files with Mahout (originally generated via WEKA). The files contain randomly generated data. For a specific random seed, the following exception is thrown: java.lang.NumberFormatException: For input string: \"b1shkt70694difsmmmdv0ikmoh\" \tat sun.misc.FloatingDecimal.readJavaFormatString(FloatingDecimal.java:1241) \tat java.lang.Double.parseDouble(Double.java:540) \tat org.apache.mahout.utils.vectors.arff.MapBackedARFFModel.processNumeric(MapBackedARFFModel.java:146) \tat org.apache.mahout.utils.vectors.arff.MapBackedARFFModel.getValue(MapBackedARFFModel.java:97) \tat org.apache.mahout.utils.vectors.arff.ARFFIterator.computeNext(ARFFIterator.java:77) \tat org.apache.mahout.utils.vectors.arff.ARFFIterator.computeNext(ARFFIterator.java:30) \tat com.google.common.collect.AbstractIterator.tryToComputeNext(AbstractIterator.java:143) \tat com.google.common.collect.AbstractIterator.hasNext(AbstractIterator.java:138) \tat org.apache.mahout.utils.vectors.io.SequenceFileVectorWriter.write(SequenceFileVectorWriter.java:44) \tat org.apache.mahout.utils.vectors.arff.Driver.writeFile(Driver.java:251) \tat org.apache.mahout.utils.vectors.arff.Driver.main(Driver.java:145) \tat libInterfaces.MahoutTraceBuilder.generateMahoutFile(MahoutTraceBuilder.java:38) \tat libInterfaces.MahoutTraceBuilder.generateMahoutReader(MahoutTraceBuilder.java:42) \tat tests.InputTester.testMahoutMeansShift(InputTester.java:111)"}
{"key":"MAHOUT-1314","title":"StreamingKMeansReducer throws NullPointerException when REDUCE_STREAMING_KMEANS is set to true","description":"when REDUCE_STREAMING_KMEANS option is set to true (-rskm) the reducer fails with NullPointerException. the problem is in the reduce method itself: on line 60 ( return input.getCentroid(); ) it should be input.getCentroid(). clone(); similar to line 81. full stack trace: java.lang.NullPointerException \tat com.google.common.base.Preconditions.checkNotNull(Preconditions.java:191) \tat org.apache.mahout.math.random.WeightedThing.\u003cinit\u003e(WeightedThing.java:31) \tat org.apache.mahout.math.neighborhood.BruteSearch.searchFirst(BruteSearch.java:133) \tat org.apache.mahout.clustering.ClusteringUtils.estimateDistanceCutoff(ClusteringUtils.java:100) \tat org.apache.mahout.clustering.streaming.mapreduce.StreamingKMeansThread.call(StreamingKMeansThread.java:64) \tat org.apache.mahout.clustering.streaming.mapreduce.StreamingKMeansReducer.reduce(StreamingKMeansReducer.java:66) \tat org.apache.mahout.clustering.streaming.mapreduce.StreamingKMeansReducer.reduce(StreamingKMeansReducer.java:1) \tat org.apache.hadoop.mapreduce.Reducer.run(Reducer.java:176) \tat org.apache.hadoop.mapred.ReduceTask.runNewReducer(ReduceTask.java:650) \tat org.apache.hadoop.mapred.ReduceTask.run(ReduceTask.java:418) \tat org.apache.hadoop.mapred.LocalJobRunner$Job.run(LocalJobRunner.java:260) it happens every time the REDUCE_STREAMING_KMEANS is set to true."}
{"key":"MAHOUT-1317","title":"Clarify some of the messages in Preconditions.checkArgument","description":"In experimenting with things, I was getting some errors from RowSimilarityJob, that in looking at the source I realized were a little incomplete as to what the true issue was. In this case, they were of the form: Preconditions.checkArgument(maxSimilaritiesPerRow \u003e 0, \"Incorrect maximum number of similarities per row!\") ; Here, it is known that the actual issue is that the parameter must be zero (or negative), not just that it\u0027s \"incorrect\", and a (trivial) change to the error message might save some folks some time... especially newbies like myself. A quick grep of the code showed a few more cases like that across the code base that would be (apparently) easy to fix and maybe save folks time when they get the relevant error."}
{"key":"MAHOUT-1320","title":"BallKMeansTest.testClustering is unstable","description":"From time to time this test fails with following in build log: {noformat} Tests run: 3, Failures: 1, Errors: 0, Skipped: 0, Time elapsed: 48.134 sec \u003c\u003c\u003c FAILURE! - in org.apache.mahout.clustering.streaming.cluster.BallKMeansTest testClustering(org.apache.mahout.clustering.streaming.cluster.BallKMeansTest)  Time elapsed: 2.051 sec  \u003c\u003c\u003c FAILURE! java.lang.AssertionError: expected:\u003c625.0\u003e but was:\u003c796.0\u003e \tat org.junit.Assert.fail(Assert.java:88) \tat org.junit.Assert.failNotEquals(Assert.java:743) \tat org.junit.Assert.assertEquals(Assert.java:494) \tat org.junit.Assert.assertEquals(Assert.java:592) \tat org.apache.mahout.clustering.streaming.cluster.BallKMeansTest.testClustering(BallKMeansTest.java:119) {noformat} Here is a bit more of build log output, which also shows other tests were running in parallel with this one: {noformat} [INFO] --- maven-surefire-plugin:2.15:test (default-test) @ mahout-core --- [INFO] Surefire report directory: /home/jenkins/jenkins-slave/workspace/Mahout-Quality/trunk/core/target/surefire-reports [INFO] parallel\u003d\u0027classes\u0027, perCoreThreadCount\u003dfalse, threadCount\u003d1, useUnlimitedThreads\u003dfalse ------------------------------------------------------- T E S T S ------------------------------------------------------- ------------------------------------------------------- T E S T S ------------------------------------------------------- Running org.apache.mahout.common.distance.TestChebyshevMeasure Tests run: 1, Failures: 0, Errors: 0, Skipped: 0, Time elapsed: 0.043 sec - in org.apache.mahout.common.distance.TestChebyshevMeasure Running org.apache.mahout.common.distance.TestMinkowskiMeasure Running org.apache.mahout.common.distance.TestMahalanobisDistanceMeasure Running org.apache.mahout.common.distance.TestManhattanDistanceMeasure Running org.apache.mahout.common.distance.CosineDistanceMeasureTest Running org.apache.mahout.common.distance.TestTanimotoDistanceMeasure Tests run: 1, Failures: 0, Errors: 0, Skipped: 0, Time elapsed: 0.143 sec - in org.apache.mahout.common.distance.TestMinkowskiMeasure Tests run: 1, Failures: 0, Errors: 0, Skipped: 0, Time elapsed: 0.078 sec - in org.apache.mahout.common.distance.TestMahalanobisDistanceMeasure Running org.apache.mahout.common.distance.TestWeightedManhattanDistanceMeasure Tests run: 1, Failures: 0, Errors: 0, Skipped: 0, Time elapsed: 0.099 sec - in org.apache.mahout.common.distance.TestManhattanDistanceMeasure Tests run: 1, Failures: 0, Errors: 0, Skipped: 0, Time elapsed: 0.075 sec - in org.apache.mahout.common.distance.CosineDistanceMeasureTest Tests run: 2, Failures: 0, Errors: 0, Skipped: 0, Time elapsed: 0.094 sec - in org.apache.mahout.common.distance.TestTanimotoDistanceMeasure Running org.apache.mahout.common.distance.TestWeightedEuclideanDistanceMeasureTest Running org.apache.mahout.common.distance.TestEuclideanDistanceMeasure Running org.apache.mahout.common.iterator.TestFixedSizeSampler Tests run: 2, Failures: 0, Errors: 0, Skipped: 0, Time elapsed: 0.135 sec - in org.apache.mahout.common.distance.TestWeightedManhattanDistanceMeasure Running org.apache.mahout.common.iterator.CountingIteratorTest Tests run: 2, Failures: 0, Errors: 0, Skipped: 0, Time elapsed: 0.009 sec - in org.apache.mahout.common.iterator.CountingIteratorTest Tests run: 5, Failures: 0, Errors: 0, Skipped: 0, Time elapsed: 0.073 sec - in org.apache.mahout.common.iterator.TestFixedSizeSampler Tests run: 2, Failures: 0, Errors: 0, Skipped: 0, Time elapsed: 0.111 sec - in org.apache.mahout.common.distance.TestWeightedEuclideanDistanceMeasureTest Tests run: 1, Failures: 0, Errors: 0, Skipped: 0, Time elapsed: 0.121 sec - in org.apache.mahout.common.distance.TestEuclideanDistanceMeasure Running org.apache.mahout.common.iterator.TestSamplingIterator Running org.apache.mahout.common.iterator.TestStableFixedSizeSampler Running org.apache.mahout.common.DummyRecordWriterTest Running org.apache.mahout.common.StringUtilsTest Tests run: 5, Failures: 0, Errors: 0, Skipped: 0, Time elapsed: 0.093 sec - in org.apache.mahout.common.iterator.TestStableFixedSizeSampler Tests run: 1, Failures: 0, Errors: 0, Skipped: 0, Time elapsed: 0.113 sec - in org.apache.mahout.common.DummyRecordWriterTest Running org.apache.mahout.common.AbstractJobTest Running org.apache.mahout.common.IntPairWritableTest Tests run: 3, Failures: 0, Errors: 0, Skipped: 0, Time elapsed: 0.02 sec - in org.apache.mahout.common.IntPairWritableTest Running org.apache.mahout.common.lucene.AnalyzerUtilsTest Tests run: 2, Failures: 0, Errors: 0, Skipped: 0, Time elapsed: 0.07 sec - in org.apache.mahout.common.lucene.AnalyzerUtilsTest Running org.apache.mahout.clustering.topdown.PathDirectoryTest Tests run: 5, Failures: 0, Errors: 0, Skipped: 0, Time elapsed: 0.007 sec - in org.apache.mahout.clustering.topdown.PathDirectoryTest Running org.apache.mahout.clustering.topdown.postprocessor.ClusterCountReaderTest Tests run: 2, Failures: 0, Errors: 0, Skipped: 0, Time elapsed: 0.505 sec - in org.apache.mahout.common.StringUtilsTest Running org.apache.mahout.clustering.classify.ClusterClassificationDriverTest Running org.apache.mahout.clustering.topdown.postprocessor.ClusterOutputPostProcessorTest Running org.apache.mahout.clustering.spectral.TestVectorCache Running org.apache.mahout.clustering.spectral.TestVectorMatrixMultiplicationJob Running org.apache.mahout.clustering.spectral.TestMatrixDiagonalizeJob Running org.apache.mahout.clustering.lda.cvb.TestCVBModelTrainer Running org.apache.mahout.clustering.spectral.TestAffinityMatrixInputJob Running org.apache.mahout.clustering.spectral.TestUnitVectorizerJob Tests run: 3, Failures: 0, Errors: 0, Skipped: 0, Time elapsed: 1.356 sec - in org.apache.mahout.common.AbstractJobTest Running org.apache.mahout.clustering.canopy.TestCanopyCreation Tests run: 1, Failures: 0, Errors: 0, Skipped: 0, Time elapsed: 1.046 sec - in org.apache.mahout.clustering.spectral.TestVectorMatrixMultiplicationJob Tests run: 2, Failures: 0, Errors: 0, Skipped: 0, Time elapsed: 1.288 sec - in org.apache.mahout.clustering.spectral.TestMatrixDiagonalizeJob Tests run: 3, Failures: 0, Errors: 0, Skipped: 0, Time elapsed: 1.624 sec - in org.apache.mahout.clustering.spectral.TestVectorCache Tests run: 6, Failures: 0, Errors: 0, Skipped: 0, Time elapsed: 2.713 sec - in org.apache.mahout.common.iterator.TestSamplingIterator Tests run: 1, Failures: 0, Errors: 0, Skipped: 0, Time elapsed: 1.054 sec - in org.apache.mahout.clustering.spectral.TestUnitVectorizerJob Tests run: 2, Failures: 0, Errors: 0, Skipped: 0, Time elapsed: 1.518 sec - in org.apache.mahout.clustering.spectral.TestAffinityMatrixInputJob Running org.apache.mahout.clustering.kmeans.TestRandomSeedGenerator Tests run: 1, Failures: 0, Errors: 0, Skipped: 0, Time elapsed: 2.609 sec - in org.apache.mahout.clustering.topdown.postprocessor.ClusterCountReaderTest Running org.apache.mahout.clustering.kmeans.TestEigenSeedGenerator Running org.apache.mahout.clustering.kmeans.TestKmeansClustering Running org.apache.mahout.clustering.TestGaussianAccumulators Running org.apache.mahout.clustering.iterator.TestClusterClassifier Tests run: 1, Failures: 0, Errors: 0, Skipped: 0, Time elapsed: 3.065 sec - in org.apache.mahout.clustering.topdown.postprocessor.ClusterOutputPostProcessorTest Running org.apache.mahout.clustering.fuzzykmeans.TestFuzzyKmeansClustering Running org.apache.mahout.clustering.TestClusterInterface Tests run: 8, Failures: 0, Errors: 0, Skipped: 0, Time elapsed: 0.203 sec - in org.apache.mahout.clustering.TestClusterInterface Tests run: 1, Failures: 0, Errors: 0, Skipped: 0, Time elapsed: 1.746 sec - in org.apache.mahout.clustering.kmeans.TestEigenSeedGenerator Tests run: 1, Failures: 0, Errors: 0, Skipped: 0, Time elapsed: 1.897 sec - in org.apache.mahout.clustering.kmeans.TestRandomSeedGenerator Running org.apache.mahout.clustering.streaming.cluster.StreamingKMeansTest Running org.apache.mahout.clustering.streaming.cluster.BallKMeansTest Running org.apache.mahout.math.stats.OnlineAucTest Running org.apache.mahout.math.stats.SamplerTest Running org.apache.mahout.math.VarintTest Tests run: 8, Failures: 0, Errors: 0, Skipped: 0, Time elapsed: 0.031 sec - in org.apache.mahout.math.VarintTest Tests run: 1, Failures: 0, Errors: 0, Skipped: 0, Time elapsed: 0.294 sec - in org.apache.mahout.math.stats.SamplerTest Tests run: 3, Failures: 0, Errors: 0, Skipped: 0, Time elapsed: 5.821 sec - in org.apache.mahout.clustering.classify.ClusterClassificationDriverTest Running org.apache.mahout.math.hadoop.stochasticsvd.SSVDCommonTest Running org.apache.mahout.math.hadoop.stats.BasicStatsTest Running org.apache.mahout.math.hadoop.TestDistributedRowMatrix Tests run: 1, Failures: 0, Errors: 0, Skipped: 0, Time elapsed: 0.175 sec - in org.apache.mahout.math.hadoop.stochasticsvd.SSVDCommonTest Running org.apache.mahout.math.hadoop.stochasticsvd.LocalSSVDPCASparseTest Tests run: 6, Failures: 0, Errors: 0, Skipped: 0, Time elapsed: 6.366 sec - in org.apache.mahout.clustering.TestGaussianAccumulators Running org.apache.mahout.math.hadoop.stochasticsvd.LocalSSVDSolverSparseSequentialTest Tests run: 3, Failures: 0, Errors: 0, Skipped: 0, Time elapsed: 5.578 sec - in org.apache.mahout.math.stats.OnlineAucTest Tests run: 12, Failures: 0, Errors: 0, Skipped: 0, Time elapsed: 7.893 sec - in org.apache.mahout.clustering.iterator.TestClusterClassifier Running org.apache.mahout.math.hadoop.stochasticsvd.LocalSSVDSolverDenseTest Running org.apache.mahout.math.hadoop.solver.TestDistributedConjugateGradientSolverCLI Tests run: 17, Failures: 0, Errors: 0, Skipped: 0, Time elapsed: 15.419 sec - in org.apache.mahout.clustering.canopy.TestCanopyCreation Running org.apache.mahout.math.hadoop.solver.TestDistributedConjugateGradientSolver Tests run: 4, Failures: 0, Errors: 0, Skipped: 0, Time elapsed: 13.33 sec - in org.apache.mahout.math.hadoop.stats.BasicStatsTest Running org.apache.mahout.math.hadoop.similarity.TestVectorDistanceSimilarityJob Tests run: 3, Failures: 0, Errors: 0, Skipped: 0, Time elapsed: 20.475 sec - in org.apache.mahout.clustering.kmeans.TestKmeansClustering Running org.apache.mahout.math.hadoop.similarity.cooccurrence.measures.VectorSimilarityMeasuresTest Tests run: 7, Failures: 0, Errors: 0, Skipped: 0, Time elapsed: 0.076 sec - in org.apache.mahout.math.hadoop.similarity.cooccurrence.measures.VectorSimilarityMeasuresTest Running org.apache.mahout.math.hadoop.similarity.cooccurrence.RowSimilarityJobTest Tests run: 11, Failures: 0, Errors: 0, Skipped: 0, Time elapsed: 17.855 sec - in org.apache.mahout.math.hadoop.TestDistributedRowMatrix Tests run: 5, Failures: 0, Errors: 0, Skipped: 0, Time elapsed: 4.63 sec - in org.apache.mahout.math.hadoop.similarity.TestVectorDistanceSimilarityJob Running org.apache.mahout.math.hadoop.decomposer.TestDistributedLanczosSolverCLI Running org.apache.mahout.math.VectorWritableTest Tests run: 100, Failures: 0, Errors: 0, Skipped: 0, Time elapsed: 1.046 sec - in org.apache.mahout.math.VectorWritableTest Running org.apache.mahout.math.ssvd.SequentialOutOfCoreSvdTest Tests run: 1, Failures: 0, Errors: 0, Skipped: 0, Time elapsed: 16.541 sec - in org.apache.mahout.math.hadoop.solver.TestDistributedConjugateGradientSolverCLI Tests run: 1, Failures: 0, Errors: 0, Skipped: 0, Time elapsed: 16.658 sec - in org.apache.mahout.math.hadoop.solver.TestDistributedConjugateGradientSolver Running org.apache.mahout.math.neighborhood.LocalitySensitiveHashSearchTest Tests run: 1, Failures: 0, Errors: 0, Skipped: 0, Time elapsed: 25.045 sec - in org.apache.mahout.math.hadoop.stochasticsvd.LocalSSVDSolverSparseSequentialTest Running org.apache.mahout.math.neighborhood.SearchSanityTest Tests run: 2, Failures: 0, Errors: 0, Skipped: 0, Time elapsed: 33.918 sec - in org.apache.mahout.clustering.fuzzykmeans.TestFuzzyKmeansClustering Running org.apache.mahout.math.MatrixWritableTest Tests run: 4, Failures: 0, Errors: 0, Skipped: 0, Time elapsed: 13.944 sec - in org.apache.mahout.math.hadoop.similarity.cooccurrence.RowSimilarityJobTest Tests run: 2, Failures: 0, Errors: 0, Skipped: 0, Time elapsed: 0.08 sec - in org.apache.mahout.math.MatrixWritableTest Running org.apache.mahout.vectorizer.DocumentProcessorTest Running org.apache.mahout.vectorizer.HighDFWordsPrunerTest Tests run: 2, Failures: 0, Errors: 0, Skipped: 0, Time elapsed: 1.631 sec - in org.apache.mahout.vectorizer.HighDFWordsPrunerTest Running org.apache.mahout.math.neighborhood.SearchQualityTest Running org.apache.mahout.vectorizer.encoders.ContinuousValueEncoderTest Tests run: 2, Failures: 0, Errors: 0, Skipped: 0, Time elapsed: 0.062 sec - in org.apache.mahout.vectorizer.encoders.ContinuousValueEncoderTest Tests run: 1, Failures: 0, Errors: 0, Skipped: 0, Time elapsed: 2.581 sec - in org.apache.mahout.vectorizer.DocumentProcessorTest Tests run: 2, Failures: 0, Errors: 0, Skipped: 0, Time elapsed: 34.304 sec - in org.apache.mahout.math.hadoop.stochasticsvd.LocalSSVDPCASparseTest Running org.apache.mahout.vectorizer.encoders.ConstantValueEncoderTest Running org.apache.mahout.vectorizer.encoders.InteractionValueEncoderTest Tests run: 2, Failures: 0, Errors: 0, Skipped: 0, Time elapsed: 0.113 sec - in org.apache.mahout.vectorizer.encoders.ConstantValueEncoderTest Tests run: 3, Failures: 0, Errors: 0, Skipped: 0, Time elapsed: 0.137 sec - in org.apache.mahout.vectorizer.encoders.InteractionValueEncoderTest Running org.apache.mahout.vectorizer.encoders.WordLikeValueEncoderTest Tests run: 4, Failures: 0, Errors: 0, Skipped: 0, Time elapsed: 0.174 sec - in org.apache.mahout.vectorizer.encoders.WordLikeValueEncoderTest Running org.apache.mahout.vectorizer.encoders.TextValueEncoderTest Running org.apache.mahout.vectorizer.SparseVectorsFromSequenceFilesTest Running org.apache.mahout.vectorizer.collocations.llr.GramTest Tests run: 7, Failures: 0, Errors: 0, Skipped: 0, Time elapsed: 0.082 sec - in org.apache.mahout.vectorizer.collocations.llr.GramTest Tests run: 3, Failures: 0, Errors: 0, Skipped: 0, Time elapsed: 0.544 sec - in org.apache.mahout.vectorizer.encoders.TextValueEncoderTest Running org.apache.mahout.vectorizer.collocations.llr.GramKeyGroupComparatorTest Tests run: 1, Failures: 0, Errors: 0, Skipped: 0, Time elapsed: 0.069 sec - in org.apache.mahout.vectorizer.collocations.llr.GramKeyGroupComparatorTest Running org.apache.mahout.vectorizer.collocations.llr.GramKeyPartitionerTest Tests run: 1, Failures: 0, Errors: 0, Skipped: 0, Time elapsed: 0.061 sec - in org.apache.mahout.vectorizer.collocations.llr.GramKeyPartitionerTest Running org.apache.mahout.vectorizer.collocations.llr.LLRReducerTest Running org.apache.mahout.vectorizer.collocations.llr.CollocReducerTest Tests run: 1, Failures: 0, Errors: 0, Skipped: 0, Time elapsed: 0.552 sec - in org.apache.mahout.vectorizer.collocations.llr.LLRReducerTest Tests run: 1, Failures: 0, Errors: 0, Skipped: 0, Time elapsed: 0.369 sec - in org.apache.mahout.vectorizer.collocations.llr.CollocReducerTest Running org.apache.mahout.vectorizer.collocations.llr.CollocMapperTest Running org.apache.mahout.vectorizer.collocations.llr.GramKeyTest Tests run: 2, Failures: 0, Errors: 0, Skipped: 0, Time elapsed: 0.081 sec - in org.apache.mahout.vectorizer.collocations.llr.GramKeyTest Tests run: 2, Failures: 0, Errors: 0, Skipped: 0, Time elapsed: 0.693 sec - in org.apache.mahout.vectorizer.collocations.llr.CollocMapperTest Running org.apache.mahout.vectorizer.DictionaryVectorizerTest Running org.apache.mahout.vectorizer.EncodedVectorsFromSequenceFilesTest Tests run: 3, Failures: 1, Errors: 0, Skipped: 0, Time elapsed: 48.134 sec \u003c\u003c\u003c FAILURE! - in org.apache.mahout.clustering.streaming.cluster.BallKMeansTest testClustering(org.apache.mahout.clustering.streaming.cluster.BallKMeansTest)  Time elapsed: 2.051 sec  \u003c\u003c\u003c FAILURE! java.lang.AssertionError: expected:\u003c625.0\u003e but was:\u003c796.0\u003e \tat org.junit.Assert.fail(Assert.java:88) \tat org.junit.Assert.failNotEquals(Assert.java:743) \tat org.junit.Assert.assertEquals(Assert.java:494) \tat org.junit.Assert.assertEquals(Assert.java:592) \tat org.apache.mahout.clustering.streaming.cluster.BallKMeansTest.testClustering(BallKMeansTest.java:119) {noformat} Last time test failed it was on ubuntu-1 node, but it\u0027s also randomly successful on same node so it doesn\u0027t seem to be caused by something node specific."}
{"key":"MAHOUT-1336","title":"HighDFWordsPrunerTest is failing silently","description":"Apparently ToolRunner does not allow the --mapred option. The validation is not very foolproof, so there is a resulting silent failure in HighDFWordsPrunerTest. Error message: {noformat} org.apache.commons.cli2.OptionException: Unexpected --mapred while processing Options \tat org.apache.commons.cli2.commandline.Parser.parse(Parser.java:99) \tat org.apache.mahout.vectorizer.SparseVectorsFromSequenceFiles.run(SparseVectorsFromSequenceFiles.java:154) \tat org.apache.hadoop.util.ToolRunner.run(ToolRunner.java:65) \tat org.apache.mahout.vectorizer.HighDFWordsPrunerTest.runTest(HighDFWordsPrunerTest.java:111) \tat org.apache.mahout.vectorizer.HighDFWordsPrunerTest.testHighDFWordsPruning(HighDFWordsPrunerTest.java:85) ... Usage: [--minSupport \u003cminSupport\u003e --analyzerName \u003canalyzerName\u003e --chunkSize \u003cchunkSize\u003e --output \u003coutput\u003e --input \u003cinput\u003e --minDF \u003cminDF\u003e --maxDFSigma \u003cmaxDFSigma\u003e --maxDFPercent \u003cmaxDFPercent\u003e --weight \u003cweight\u003e --norm \u003cnorm\u003e --minLLR \u003cminLLR\u003e --numReducers \u003cnumReducers\u003e --maxNGramSize \u003cngramSize\u003e --overwrite --help --sequentialAccessVector --namedVector --logNormalize] O {noformat}"}
{"key":"MAHOUT-1339","title":"Add RAT check; fix copyright headers","description":"Many files in the project don\u0027t carry the standard license header. There is a plugin called RAT that automates these checks. The attached patch adds a suitable RAT config, and fixes the errors it identifies. (I\u0027m not yet proposing making the check part of the build.)"}
{"key":"MAHOUT-1349","title":"Clusterdumper/loadTermDictionary crashes when highest index in (sparse) dictionary vector is larger than dictionary vector size?","description":"I\u0027m not sure if I\u0027m doing something wrong here, or if ClusterDumper does\nnot support my (fairly simple) use case I had a repository of 500K documents, for which I generated the input\nvectors and a dictionary using some custom code (not seq2sparse etc). I hashed the features with max size 5M (because I didn\u0027t know how many\nfeatures were in the dataset and wanted to minimize collisions). The kmeans ran fine and generate sensible looking results, but when I tried\nto run ClusterDumper I got the following error: #bash\u003e bin/mahout clusterdump -dt sequencefile -d completed/5159bba4e4b0718d03c8cf79_/EmailContentAnalytics_dict_5159bba4e4b0718d03c8cf79/part-* -i test-kmeans/clusters-19 -b 10 -n 10 -sp 10 -o ~/test-kmeans-out Running on hadoop, using /usr/bin/hadoop and HADOOP_CONF_DIR\u003d MAHOUT-JOB: /opt/mahout-distribution-0.7/mahout-examples-0.7-job.jar 13/05/17 08:26:41 INFO common.AbstractJob: Command line arguments: {--dictionary\u003d[completed/5159bba4e4b0718d03c8cf79_/EmailContentAnalytics_dict_5159bba4e4b0718d03c8cf79/part-*], --dictionaryType\u003d[sequencefile], --distanceMeasure\u003d[org.apache.mahout.common.distance.SquaredEuclideanDistanceMeasure], --endPhase\u003d[2147483647], --input\u003d[test-kmeans/clusters-19], --numWords\u003d[10], --output\u003d[/usr/share/tomcat6/test-kmeans-out], --outputFormat\u003d[TEXT], --samplePoints\u003d[10], --startPhase\u003d[0], --substring\u003d[10], --tempDir\u003d[temp]} Exception in thread \"main\" java.lang.ArrayIndexOutOfBoundsException: 698948 at org.apache.mahout.clustering.AbstractCluster.formatVector(AbstractCluster.java:350) at org.apache.mahout.clustering.AbstractCluster.asFormatString(AbstractCluster.java:306) at org.apache.mahout.utils.clustering.ClusterDumperWriter.write(ClusterDumperWriter.java:54) at org.apache.mahout.utils.clustering.AbstractClusterWriter.write(AbstractClusterWriter.java:169) at org.apache.mahout.utils.clustering.AbstractClusterWriter.write(AbstractClusterWriter.java:156) at org.apache.mahout.utils.clustering.ClusterDumper.printClusters(ClusterDumper.java:187) at org.apache.mahout.utils.clustering.ClusterDumper.run(ClusterDumper.java:153) (...) The error is when it tries to access the dictionary for the feature with\nindex 698948 Looking at the dictionary loading code ( http://grepcode.com/file/repo1.maven.org/maven2/org.apache.mahout/mahout-integration/0.7/org/apache/mahout/utils/vectors/VectorHelper.java#VectorHelper.loadTermDictionary%28java.io.File%29 -  checked 0.8 and it hasn\u0027t changed) It looks like the dictionary array is sized for the number of unique\nkeywords, not the highest index: OpenObjectIntHashMap dict \u003d new OpenObjectIntHashMap();\n//...\n  String [] dictionary \u003d new String[dict.size()]; After I ran my custom dictionary/feature generation code I discovered I\nonly had 517,327 unique features, therefore it is not surprising it would\ndie on an index \u003e\u003d 517327 (though I don\u0027t understand why it didn\u0027t die when trying to load the dictionary file) Is there any reason why the VectorHelper code should not create a\ndictionary array that has size the highest index read from the dictionary\nsequence file (which can be easily calculated during the preceding loop)? Or am I misunderstanding something? It worked fine when I reduced the hash size to be \u003c\u003d than the total number\nof features, but this is not desirable in general (for me) since I don\u0027t\nknow the number of features before I run the job (and if I guess too high\nthen ClusterDumper crashes) Alex Piggott\nIKANOW"}
{"key":"MAHOUT-1358","title":"StreamingKMeansThread throws IllegalArgumentException when REDUCE_STREAMING_KMEANS is set to true","description":"Running StreamingKMeans Clustering with REDUCE_STREAMING_KMEANS \u003d true and when no estimatedDistanceCutoff is specified, throws the following error {Code} java.lang.IllegalArgumentException: Must have nonzero number of training and test vectors. Asked for %.1f %% of %d vectors for test [10.000000149011612, 0] \tat com.google.common.base.Preconditions.checkArgument(Preconditions.java:120) \tat org.apache.mahout.clustering.streaming.cluster.BallKMeans.splitTrainTest(BallKMeans.java:176) \tat org.apache.mahout.clustering.streaming.cluster.BallKMeans.cluster(BallKMeans.java:192) \tat org.apache.mahout.clustering.streaming.mapreduce.StreamingKMeansReducer.getBestCentroids(StreamingKMeansReducer.java:107) \tat org.apache.mahout.clustering.streaming.mapreduce.StreamingKMeansReducer.reduce(StreamingKMeansReducer.java:73) \tat org.apache.mahout.clustering.streaming.mapreduce.StreamingKMeansReducer.reduce(StreamingKMeansReducer.java:37) \tat org.apache.hadoop.mapreduce.Reducer.run(Reducer.java:177) \tat org.apache.hadoop.mapred.ReduceTask.runNewReducer(ReduceTask.java:649) \tat org.apache.hadoop.mapred.ReduceTask.run(ReduceTask.java:418) \tat org.apache.hadoop.mapred.LocalJobRunner$Job.run(LocalJobRunner.java:398) {Code} The issue is caused by the following code in StreamingKMeansThread.call() {Code} Iterator\u003cCentroid\u003e datapointsIterator \u003d datapoints.iterator(); if (estimateDistanceCutoff \u003d\u003d StreamingKMeansDriver.INVALID_DISTANCE_CUTOFF) { List\u003cCentroid\u003e estimatePoints \u003d Lists.newArrayListWithExpectedSize(NUM_ESTIMATE_POINTS); while (datapointsIterator.hasNext() \u0026\u0026 estimatePoints.size() \u003c NUM_ESTIMATE_POINTS) { estimatePoints.add(datapointsIterator.next()); } estimateDistanceCutoff \u003d ClusteringUtils.estimateDistanceCutoff(estimatePoints, searcher.getDistanceMeasure()); } StreamingKMeans clusterer \u003d new StreamingKMeans(searcher, numClusters, estimateDistanceCutoff); while (datapointsIterator.hasNext()) { clusterer.cluster(datapointsIterator.next()); } {Code} The code is using the same iterator twice, and it fails on the second use for obvious reasons."}
{"key":"MAHOUT-1396","title":"Accidental use of commons-math won\u0027t work with next Hadoop 2 release","description":"The project uses commons-math3, since about a year ago. However there is a use of old commons-math (2.2) lurking: core/src/main/java/org/apache/mahout/classifier/sgd/TPrior.java:\nimport org.apache.commons.math.special.Gamma; This happens to have worked since commons-math has been pulled in by hadoop-common. But it no longer is in HEAD: http://svn.apache.org/viewvc/hadoop/common/trunk/hadoop-common-project/hadoop-common/pom.xml?view\u003dmarkup So this will no longer compile against the latest Hadoop. I believe it will also not actually run again the latest Hadoop, even if one were to use a version compiled versus older Hadoop 2, since the class that uses it is used in the context of Writables -- that is, outside the client environment that might happen to have packaged commons-math -- and so would fail on the cluster. The change is trivial, to import the commons-math3 class. I\u0027ve verified that tests pass and a patch is attached. Question is how much of a \u0027blocker\u0027 this should be for the pending release. It would cause it to stop working with the next Hadoop 2 release, so would be useful to get in, IMHO."}
{"key":"MAHOUT-1410","title":"clusteredPoints do not contain a vector id","description":"When clustering non-named vectors there are no vector ids in clusteredPoints so the other values there, cluster id, vector values, distance-squared, pdf, cannot be tied to any known vector."}
{"key":"MAHOUT-1030","title":"Regression: Clustered Points Should be WeightedPropertyVectorWritable not WeightedVectorWritable","description":"Looks like this won\u0027t make it into this build. Pretty widespread impact on code and tests and I don\u0027t know which properties were implemented in the old version. I will create a JIRA and post my interim results. On 6/8/12 12:21 PM, Jeff Eastman wrote: \u003e That\u0027s a reversion that evidently got in when the new ClusterClassificationDriver was introduced. It should be a pretty easy fix and I will see if I can make the change before Paritosh cuts the release bits tonight. \u003e \u003e On 6/7/12 1:00 PM, Pat Ferrel wrote: \u003e\u003e It appears that in kmeans the clusteredPoints are now written as WeightedVectorWritable where in mahout 0.6 they were WeightedPropertyVectorWritable? This means that the distance from the centroid is no longer stored here? Why? I hope I\u0027m wrong because that is not a welcome change. How is one to order clustered docs by distance from cluster centroid? \u003e\u003e \u003e\u003e I\u0027m sure I could calculate the distance but that would mean looking up the centroid for the cluster id given in the above WeightedVectorWritable, which means iterating through all the clusters for each clustered doc. In my case the number of clusters could be fairly large. \u003e\u003e \u003e\u003e Am I missing something? \u003e\u003e \u003e\u003e \u003e"}
{"key":"MAHOUT-1261","title":"TasteHadoopUtils.idToIndex can return an int that has size Integer.MAX_VALUE","description":"I\u0027m running ItemSimilarityJob on a very large (~600M by 4B) matrix that\u0027s very sparse (total set of associations is 630MB). The job fails because of an IndexException in ToUserVectorsReducer. TasteHadoopUtils.idToIndex(long id) hashes a long with:\n0x7fffffff \u0026 Longs.hashCode(id) (line o.a.m.cf.taste.hadoop.TasteHadoopUtils:57). For some id (I don\u0027t know what value), the result returned is Integer.MAX_VALUE. This cannot be set in the userVector because the cardinality of that is also Integer.MAX_VALUE and it throws an exception. So, the issue is that values from 0 to INT_MAX are returned by idToIndex but the vector only has 0 to INT_MAX - 1 possible entries. It\u0027s a nasty little off-by-one bug. I\u0027m thinking of just % size when setting. [~ssc] \u0026 everyone else, thoughts? :)"}
