{"key":"SOLR-4489","title":"StringIndexOutOfBoundsException in SpellCheckComponent ","description":"My SOLR request params are as shown below. spellcheck\u003dtrue\u0026enableElevation\u003dtrue\u0026facet\u003dtrue\u0026spellcheck.q\u003dminecraft\u0026spellcheck.extendedResults\u003dtrue\u0026spellcheck.maxCollations\u003d10\u0026spellcheck.collate\u003dtrue\u0026wt\u003djavabin\u0026defType\u003dedismax\u0026spellcheck.onlyMorePopular\u003dtrue  etc. Note: this work fine many use cases, however it fails for some query terms.  Feb 22, 2013 11:06:04 AM org.apache.solr.common.SolrException log SEVERE: null:java.lang.StringIndexOutOfBoundsException: String index out of range: -5 \tat java.lang.AbstractStringBuilder.replace(AbstractStringBuilder.java:797) \tat java.lang.StringBuilder.replace(StringBuilder.java:271) \tat org.apache.solr.spelling.SpellCheckCollator.getCollation(SpellCheckCollator.java:190) \tat org.apache.solr.spelling.SpellCheckCollator.collate(SpellCheckCollator.java:75) \tat org.apache.solr.handler.component.SpellCheckComponent.addCollationsToResponse(SpellCheckComponent.java:203) \tat org.apache.solr.handler.component.SpellCheckComponent.process(SpellCheckComponent.java:180) \tat org.apache.solr.handler.component.SearchHandler.handleRequestBody(SearchHandler.java:206) \tat org.apache.solr.handler.RequestHandlerBase.handleRequest(RequestHandlerBase.java:129) \tat org.apache.solr.core.SolrCore.execute(SolrCore.java:1699) \tat org.apache.solr.servlet.SolrDispatchFilter.execute(SolrDispatchFilter.java:455) \tat org.apache.solr.servlet.SolrDispatchFilter.doFilter(SolrDispatchFilter.java:276) \tat org.eclipse.jetty.servlet.ServletHandler$CachedChain.doFilter(ServletHandler.java:1337) \tat org.eclipse.jetty.servlet.ServletHandler.doHandle(ServletHandler.java:484) \tat org.eclipse.jetty.server.handler.ScopedHandler.handle(ScopedHandler.java:119) \tat org.eclipse.jetty.security.SecurityHandler.handle(SecurityHandler.java:524) \tat org.eclipse.jetty.server.session.SessionHandler.doHandle(SessionHandler.java:233) \tat org.eclipse.jetty.server.handler.ContextHandler.doHandle(ContextHandler.java:1065) \tat org.eclipse.jetty.servlet.ServletHandler.doScope(ServletHandler.java:413) \tat org.eclipse.jetty.server.session.SessionHandler.doScope(SessionHandler.java:192) \tat org.eclipse.jetty.server.handler.ContextHandler.doScope(ContextHandler.java:999) \tat org.eclipse.jetty.server.handler.ScopedHandler.handle(ScopedHandler.java:117) \tat org.eclipse.jetty.server.handler.ContextHandlerCollection.handle(ContextHandlerCollection.java:250) \tat org.eclipse.jetty.server.handler.HandlerCollection.handle(HandlerCollection.java:149) \tat org.eclipse.jetty.server.handler.HandlerWrapper.handle(HandlerWrapper.java:111) \tat org.eclipse.jetty.server.Server.handle(Server.java:351) \tat org.eclipse.jetty.server.AbstractHttpConnection.handleRequest(AbstractHttpConnection.java:454) \tat org.eclipse.jetty.server.BlockingHttpConnection.handleRequest(BlockingHttpConnection.java:47) \tat org.eclipse.jetty.server.AbstractHttpConnection.headerComplete(AbstractHttpConnection.java:890) \tat org.eclipse.jetty.server.AbstractHttpConnection$RequestHandler.headerComplete(AbstractHttpConnection.java:944) \tat org.eclipse.jetty.http.HttpParser.parseNext(HttpParser.java:634) \tat org.eclipse.jetty.http.HttpParser.parseAvailable(HttpParser.java:230) \tat org.eclipse.jetty.server.BlockingHttpConnection.handle(BlockingHttpConnection.java:66) \tat org.eclipse.jetty.server.bio.SocketConnector$ConnectorEndPoint.run(SocketConnector.java:254) \tat org.eclipse.jetty.util.thread.QueuedThreadPool.runJob(QueuedThreadPool.java:599) \tat org.eclipse.jetty.util.thread.QueuedThreadPool$3.run(QueuedThreadPool.java:534) \tat java.lang.Thread.run(Thread.java:680)"}
{"key":"SOLR-4817","title":"Solr should not fall back to the back compat built in solr.xml in SolrCloud mode.","description":"A hard error is much more useful, and this built in solr.xml is not very good for solrcloud - with the old style solr.xml with cores in it, you won\u0027t have persistence and with the new style, it\u0027s not really ideal either. I think it makes it easier to debug solr.home to fail on this instead - but just in solrcloud mode for now due to back compat. We might want to pull the whole internal solr.xml for 5.0."}
{"key":"SOLR-5083","title":"Move JDK-1.0-style hidden classes into inner classes of SolrRequestParsers (to prevent uptodate javac bugs)","description":"This is one place in Solr where we have crazy Java 1.0 classes which are not inner classes but in the same Java file but next to each other. This leads to problems on updating, because javac cannot determine if the class files needs updating. All those classes should be either in separate java files or should be inner classes"}
{"key":"SOLR-5107","title":"LukeRequestHandler throws NullPointerException when numTerms\u003d0","description":"Defaults example http://localhost:8983/solr/collection1/admin/luke?fl\u003dcat\u0026numTerms\u003d0 yields  {code} ERROR org.apache.solr.core.SolrCore  – java.lang.NullPointerException \tat org.apache.solr.handler.admin.LukeRequestHandler.getDetailedFieldInfo(LukeRequestHandler.java:610) \tat org.apache.solr.handler.admin.LukeRequestHandler.getIndexedFieldsInfo(LukeRequestHandler.java:378) \tat org.apache.solr.handler.admin.LukeRequestHandler.handleRequestBody(LukeRequestHandler.java:160) \tat org.apache.solr.handler.RequestHandlerBase.handleRequest(RequestHandlerBase.java:135) \tat org.apache.solr.core.SolrCore.execute(SolrCore.java:1845) \tat org.apache.solr.servlet.SolrDispatchFilter.execute(SolrDispatchFilter.java:666) \tat org.apache.solr.servlet.SolrDispatchFilter.doFilter(SolrDispatchFilter.java:369) \tat org.apache.solr.servlet.SolrDispatchFilter.doFilter(SolrDispatchFilter.java:158) \tat org.eclipse.jetty.servlet.ServletHandler$CachedChain.doFilter(ServletHandler.java:1419) \tat org.eclipse.jetty.servlet.ServletHandler.doHandle(ServletHandler.java:455) \tat org.eclipse.jetty.server.handler.ScopedHandler.handle(ScopedHandler.java:137) \tat org.eclipse.jetty.security.SecurityHandler.handle(SecurityHandler.java:557) \tat org.eclipse.jetty.server.session.SessionHandler.doHandle(SessionHandler.java:231) \tat org.eclipse.jetty.server.handler.ContextHandler.doHandle(ContextHandler.java:1075) \tat org.eclipse.jetty.servlet.ServletHandler.doScope(ServletHandler.java:384) \tat org.eclipse.jetty.server.session.SessionHandler.doScope(SessionHandler.java:193) \tat org.eclipse.jetty.server.handler.ContextHandler.doScope(ContextHandler.java:1009) \tat org.eclipse.jetty.server.handler.ScopedHandler.handle(ScopedHandler.java:135) \tat org.eclipse.jetty.server.handler.ContextHandlerCollection.handle(ContextHandlerCollection.java:255) \tat org.eclipse.jetty.server.handler.HandlerCollection.handle(HandlerCollection.java:154) \tat org.eclipse.jetty.server.handler.HandlerWrapper.handle(HandlerWrapper.java:116) \tat org.eclipse.jetty.server.Server.handle(Server.java:368) \tat org.eclipse.jetty.server.AbstractHttpConnection.handleRequest(AbstractHttpConnection.java:489) \tat org.eclipse.jetty.server.BlockingHttpConnection.handleRequest(BlockingHttpConnection.java:53) \tat org.eclipse.jetty.server.AbstractHttpConnection.headerComplete(AbstractHttpConnection.java:942) \tat org.eclipse.jetty.server.AbstractHttpConnection$RequestHandler.headerComplete(AbstractHttpConnection.java:1004) \tat org.eclipse.jetty.http.HttpParser.parseNext(HttpParser.java:640) \tat org.eclipse.jetty.http.HttpParser.parseAvailable(HttpParser.java:235) \tat org.eclipse.jetty.server.BlockingHttpConnection.handle(BlockingHttpConnection.java:72) \tat org.eclipse.jetty.server.bio.SocketConnector$ConnectorEndPoint.run(SocketConnector.java:264) \tat org.eclipse.jetty.util.thread.QueuedThreadPool.runJob(QueuedThreadPool.java:608) \tat org.eclipse.jetty.util.thread.QueuedThreadPool$3.run(QueuedThreadPool.java:543) \tat java.lang.Thread.run(Thread.java:722) {code}"}
{"key":"SOLR-5122","title":"spellcheck.collateMaxCollectDocs estimates seem to be meaninless -- can lead to \"ArithmeticException: / by zero\"","description":"As part of SOLR-4952 SpellCheckCollatorTest started using RandomMergePolicy, and this (aparently) led to a failure in testEstimatedHitCounts. As far as i can tell: the test assumes that specific values would be returned as the _estimated_ \"hits\" for a colleation, and it appears that the change in MergePolicy however resulted in different segments with different term stats, causing the estimation code to produce different values then what is expected. I made a quick attempt to improve the test to: * expect explicit exact values only when spellcheck.collateMaxCollectDocs is set such that the \"estimate\u0027 should actually be exact (ie: collateMaxCollectDocs  \u003d\u003d 0 or collateMaxCollectDocs greater then the num docs in the index * randomize the values used for collateMaxCollectDocs and confirm that the estimates are never more then the num docs in the index This lead to an odd \"ArithmeticException: / by zero\" error in the test, which seems to suggest that there is a genuine bug in the code for estimating the hits that only gets tickled in certain mergepolicy/segment/collateMaxCollectDocs combinations. *Update:* This appears to be a general problem with collecting docs out of order and the estimation of hits -- i believe even if there is no divide by zero error, the estimates are largely meaningless since the docs are collected out of order."}
{"key":"SOLR-5150","title":"HdfsIndexInput may not fully read requested bytes.","description":"Patrick Hunt noticed that our HdfsDirectory code was a bit behind Blur here - the read call we are using may not read all of the requested bytes - it returns the number of bytes actually written - which we ignore. Blur moved to using a seek and then readFully call - synchronizing across the two calls to deal with clones. We have seen that really kills performance, and using the readFully call that lets you pass the position rather than first doing a seek, performs much better and does not require the synchronization. I also noticed that the seekInternal impl should not seek but be a no op since we are seeking on the read."}
{"key":"SOLR-5188","title":"Logging isn\u0027t working in branch_4x or trunk","description":"The logging section of the UI isn\u0027t working on branch_4x or trunk. The /solr/admin/info/logging handler response has an error tag saying Logging Not Initialized. The problem can be seen by starting the example in the latest checkout from branch_4x or trunk. The logging UI in the version 4.4 example is working fine."}
{"key":"SOLR-5227","title":"attempting to configured a dynamicField as required, or using a default value, should fail.","description":"In SOLR-5222 Pascal noted that he did not get the behavior expected when using sortMissingLast with a dynamicField using docValues in Solr \u003c 4.5 -- but up to Solr 4.4, docValues required a default value, so he should have gotten a hard error as soon as he tried specifying a default value on a dynamicField."}
{"key":"SOLR-5240","title":"SolrCloud node doesn\u0027t (quickly) come all the way back","description":"Killing a single node and bringing it back up can result in \"waiting until we see more replicas up...\""}
{"key":"SOLR-5243","title":"killing a shard in one collection can result in leader election in a different collection","description":"Discovered while doing some more ad-hoc testing... if I create two collections with the same shard name and then kill the leader in one, it can sometimes cause a leader election in the other (leaving the first leaderless)."}
{"key":"SOLR-5246","title":"Shard splitting should support collections configured with a hash router and routeField.","description":"Follow up with work done in SOLR-5017: Shard splitting doesn\u0027t support collections configured with a hash router and routeField."}
{"key":"SOLR-5291","title":"Solrj does not propagate the root cause to the user for many errors.","description":"This is a frustrating little bug because it forces you to look at the logs for any insight into what happened - the error message in the exception you get with Solrj is very generic."}
{"key":"SOLR-5295","title":"The createshard collection API creates maxShardsPerNode number of replicas if replicationFactor is not specified","description":"As reported by Brett Hoerner on solr-user: http://www.mail-archive.com/solr-user@lucene.apache.org/msg89545.html {quote} It seems that changes in 4.5 collection configuration now require users to set a maxShardsPerNode (or it defaults to 1). Maybe this was the case before, but with the new CREATESHARD API it seems a very restrictive. I\u0027ve just created a very simple test collection on 3 machines where I set maxShardsPerNode at collection creation time to 1, and I made 3 shards. Everything is good. Now I want a 4th shard, it seems impossible to create because the cluster \"knows\" I should only have 1 shard per node. Yet my problem doesn\u0027t require more hardware, I just my new shard to exist on one of the existing servers. So I try again -- I create a collection with 3 shards and set maxShardsPerNode to 1000 (just as a silly test). Everything is good. Now I add shard4 and it immediately tries to add 1000 replicas of shard4... {quote}"}
{"key":"SOLR-5296","title":"Creating a collection with implicit router adds shard ranges to each shard","description":"Creating a collection with implicit router adds shard ranges to each shard. Using the Example A from SolrCloud wiki:\nbq. http://localhost:8983/solr/admin/collections?action\u003dCREATE\u0026name\u003dmyimplicitcollection3\u0026numShards\u003d2\u0026maxShardsPerNode\u003d5\u0026router.name\u003dimplicit\u0026shards\u003ds1,s2\u0026replicationFactor\u003d2 The following clusterstate is created: {quote} \"myimplicitcollection3\":{     \"shards\":{       \"s1\":{         \"range\":\"80000000-ffffffff\",         \"state\":\"active\",         \"replicas\":{           \"core_node1\":{             \"state\":\"active\",             \"base_url\":\"http://192.168.1.5:8983/solr\",             \"core\":\"myimplicitcollection3_s1_replica2\",             \"node_name\":\"192.168.1.5:8983_solr\"},           \"core_node3\":{             \"state\":\"active\",             \"base_url\":\"http://192.168.1.5:7574/solr\",             \"core\":\"myimplicitcollection3_s1_replica1\",             \"node_name\":\"192.168.1.5:7574_solr\",             \"leader\":\"true\"}}},       \"s2\":{         \"range\":\"0-7fffffff\",         \"state\":\"active\",         \"replicas\":{           \"core_node2\":{             \"state\":\"active\",             \"base_url\":\"http://192.168.1.5:8983/solr\",             \"core\":\"myimplicitcollection3_s2_replica2\",             \"node_name\":\"192.168.1.5:8983_solr\"},           \"core_node4\":{             \"state\":\"active\",             \"base_url\":\"http://192.168.1.5:7574/solr\",             \"core\":\"myimplicitcollection3_s2_replica1\",             \"node_name\":\"192.168.1.5:7574_solr\",             \"leader\":\"true\"}}}},     \"maxShardsPerNode\":\"5\",     \"router\":{\"name\":\"implicit\"},     \"replicationFactor\":\"2\"} {quote} Collections with implicit router should not have shard ranges at all. Note that the createshard API does the right thing."}
