{"key":"ZOOKEEPER-1179","title":"NettyServerCnxn does not properly close socket on 4 letter word requests","description":"When calling a 4-letter-word to a server configured to use NettyServerCnxnFactory, the factory will not properly cancel all the keys and close the socket after sending the response for the 4lw. The close request will throw this exception, and the thread will not shut down: 2011-09-13 12:14:17,546 - WARN  [New I/O server worker #1-1:NettyServerCnxnFactory$CnxnChannelHandler@117] - Exception caught [id: 0x009300cc, /1.1.1.1:38542 \u003d\u003e /139.172.114.138:2181] EXCEPTION: java.io.IOException: A non-blocking socket operation could not be completed immediately java.io.IOException: A non-blocking socket operation could not be completed immediately \tat sun.nio.ch.SocketDispatcher.close0(Native Method) \tat sun.nio.ch.SocketDispatcher.preClose(SocketDispatcher.java:44) \tat sun.nio.ch.SocketChannelImpl.implCloseSelectableChannel(SocketChannelImpl.java:684) \tat java.nio.channels.spi.AbstractSelectableChannel.implCloseChannel(AbstractSelectableChannel.java:201) \tat java.nio.channels.spi.AbstractInterruptibleChannel.close(AbstractInterruptibleChannel.java:97) \tat org.jboss.netty.channel.socket.nio.NioWorker.close(NioWorker.java:593) \tat org.jboss.netty.channel.socket.nio.NioServerSocketPipelineSink.handleAcceptedSocket(NioServerSocketPipelineSink.java:119) \tat org.jboss.netty.channel.socket.nio.NioServerSocketPipelineSink.eventSunk(NioServerSocketPipelineSink.java:76) \tat org.jboss.netty.channel.Channels.close(Channels.java:720) \tat org.jboss.netty.channel.AbstractChannel.close(AbstractChannel.java:208) \tat org.apache.zookeeper.server.NettyServerCnxn.close(NettyServerCnxn.java:116) \tat org.apache.zookeeper.server.NettyServerCnxn.cleanupWriterSocket(NettyServerCnxn.java:241) \tat org.apache.zookeeper.server.NettyServerCnxn.access$0(NettyServerCnxn.java:231) \tat org.apache.zookeeper.server.NettyServerCnxn$CommandThread.run(NettyServerCnxn.java:314) \tat org.apache.zookeeper.server.NettyServerCnxn$CommandThread.start(NettyServerCnxn.java:305) \tat org.apache.zookeeper.server.NettyServerCnxn.checkFourLetterWord(NettyServerCnxn.java:674) \tat org.apache.zookeeper.server.NettyServerCnxn.receiveMessage(NettyServerCnxn.java:791) \tat org.apache.zookeeper.server.NettyServerCnxnFactory$CnxnChannelHandler.processMessage(NettyServerCnxnFactory.java:217) \tat org.apache.zookeeper.server.NettyServerCnxnFactory$CnxnChannelHandler.messageReceived(NettyServerCnxnFactory.java:141) \tat org.jboss.netty.channel.Channels.fireMessageReceived(Channels.java:274) \tat org.jboss.netty.channel.Channels.fireMessageReceived(Channels.java:261) \tat org.jboss.netty.channel.socket.nio.NioWorker.read(NioWorker.java:350) \tat org.jboss.netty.channel.socket.nio.NioWorker.processSelectedKeys(NioWorker.java:281) \tat org.jboss.netty.channel.socket.nio.NioWorker.run(NioWorker.java:201) \tat org.jboss.netty.util.internal.IoWorkerRunnable.run(IoWorkerRunnable.java:46) \tat java.util.concurrent.ThreadPoolExecutor$Worker.runTask(ThreadPoolExecutor.java:886) \tat java.util.concurrent.ThreadPoolExecutor$Worker.run(ThreadPoolExecutor.java:908) \tat java.lang.Thread.run(Thread.java:619)"}
{"key":"ZOOKEEPER-1474","title":"Cannot build Zookeeper with IBM Java: use of Sun MXBean classes","description":"zookeeper.server.NIOServerCnxn and zookeeper.server.NettyServerCnxn imports com.sun.management.UnixOperatingSystemMXBean . This OperatingSystemMXBean class is not implemented by IBM or open java. In my case, I need IBM Java so I can run zookeeper in Power ppc64 servers."}
{"key":"ZOOKEEPER-1499","title":"clientPort config changes not backwards-compatible","description":"With the new reconfig logic, clientPort\u003d2181 in the zoo.cfg file no longer gets read, and clients can\u0027t connect without adding ;2181 to the end of their server lines."}
{"key":"ZOOKEEPER-1535","title":"ZK Shell/Cli re-executes last command on exit","description":"In the ZK 3.4.3 release\u0027s version of zkCli.sh, the last command that was executed is *re*-executed when you {{ctrl+d}} out of the shell. In the snippet below, {{ls}} is executed, and then {{ctrl+d}} is triggered (inserted below to illustrate), the output from {{ls}} appears again, due to the command being re-run. {noformat} [zk: zookeeper.example.com:2181(CONNECTED) 0] ls /blah [foo] [zk: zookeeper.example.com:2181(CONNECTED) 1] \u003cctrl+d\u003e [foo] $ {noformat}"}
{"key":"ZOOKEEPER-1573","title":"Unable to load database due to missing parent node","description":"While replaying txnlog on data tree, the server has a code to detect missing parent node. This code block was last modified as part of ZOOKEEPER-1333. In our production, we found a case where this check is return false positive. The sequence of txns is as follows: zxid 1:  create /prefix/a zxid 2:  create /prefix/a/b zxid 3:  delete /prefix/a/b zxid 4:  delete /prefix/a The server start capturing snapshot at zxid 1. However, by the time it traversing the data tree down to /prefix, txn 4 is already applied and /prefix have no children. When the server restore from snapshot, it process txnlog starting from zxid 2. This txn generate missing parent error and the server refuse to start up. The same check allow me to discover bug in ZOOKEEPER-1551, but I don\u0027t know if we have any option beside removing this check to solve this issue."}
{"key":"ZOOKEEPER-1619","title":"Allow spaces in URL","description":"Currently, spaces are not allowed in the url. This format will work. {code}\n10.10.1.1:2181,10.10.1.2:2181/usergrid\n{code} This format will not (notice the spaces around the comma) {code}\n10.10.1.1:2181 , 10.10.1.2:2181/usergrid\n{code} Please add a trim to both the port and the hostname parsing."}
{"key":"ZOOKEEPER-1629","title":"testTransactionLogCorruption occasionally fails","description":"It seems that testTransactionLogCorruption is very flaky,for example fails here: https://builds.apache.org/job/ZooKeeper-trunk-jdk7/500/ https://builds.apache.org/job/ZooKeeper-trunk-jdk7/502/ https://builds.apache.org/job/ZooKeeper-trunk-jdk7/503/#showFailuresLink also fails for older builds (no longer on the website), for example all builds from 381 to 399."}
{"key":"ZOOKEEPER-1642","title":"Leader loading database twice","description":"The leader server currently loads the database before running leader election when trying to figure out the zxid it needs to use for the election and again when it starts leading. This is problematic for larger databases so we should remove the redundant load if possible. The code references are: # getLastLoggedZxid() in QuorumPeer;\n# loadData() in ZooKeeperServer."}
{"key":"ZOOKEEPER-1667","title":"Watch event isn\u0027t handled correctly when a client reestablish to a server","description":"When a client reestablish to a server, it will send the watches which have not been triggered. But the code in DataTree does not handle it correctly. It is obvious, we just do not notice it :) scenario: 1) Client a set a data watch on /d, then disconnect, client b delete /d and create it again. When client a reestablish to zk, it will receive a NodeCreated rather than a NodeDataChanged. 2) Client a set a exists watch on /e(not exist), then disconnect, client b create /e. When client a reestablish to zk, it will receive a NodeDataChanged rather than a NodeCreated."}
{"key":"ZOOKEEPER-1691","title":"Add a flag to disable standalone mode","description":"Currently you cannot use dynamic reconfiguration to bootstrap zookeeper cluster because the server goes into standalone mode when there is only one server in the cluster. --Michi"}
{"key":"ZOOKEEPER-1700","title":"FLETest consistently failing - setLastSeenQuorumVerifier seems to be hanging","description":"I\u0027m consistently seeing a failure on my laptop when running the FLETest \"testJoin\" test. What seems to be happening is that the call to setLastSeenQuorumVerifier is hanging. See the following log from the test, notice 17:35:57 for the period in question. Note that I turned on debug logging and added a few log messages around the call to setLastSeenQuorumVerifier (you can see the code enter but never leave) Note: I\u0027ve applied ZOOKEEPER-1324 to trunk code and then run this test but that doesn\u0027t seem to help. Also note that this test is passing consistently when run against branch-3.4. {noformat} 2013-05-07 17:35:57,859 [myid:] - INFO  [QuorumPeer[myid\u003d0]/0:0:0:0:0:0:0:0:11221:Follower@65] - FOLLOWING - LEADER ELECTION TOOK - 16 2013-05-07 17:35:57,859 [myid:] - INFO  [QuorumPeer[myid\u003d1]/0:0:0:0:0:0:0:0:11224:Leader@436] - LEADING - LEADER ELECTION TOOK - 17 2013-05-07 17:35:57,863 [myid:] - INFO  [QuorumPeer[myid\u003d1]/0:0:0:0:0:0:0:0:11224:FileTxnSnapLog@270] - Snapshotting: 0x0 to /home/phunt/dev/zookeeper-trunk/build/test/tmp/test3690487600947307322.junit.dir/version-2/snapshot.0 2013-05-07 17:35:57,873 [myid:] - INFO  [LearnerHandler-/127.0.0.1:34262:LearnerHandler@269] - Follower sid: 0 : info : 0.0.0.0:11222:11223:participant;0.0.0.0:11221 2013-05-07 17:35:57,878 [myid:] - INFO  [LearnerHandler-/127.0.0.1:34262:LearnerHandler@328] - Synchronizing with Follower sid: 0 maxCommittedLog\u003d0x0 minCommittedLog\u003d0x0 peerLastZxid\u003d0x0 2013-05-07 17:35:57,878 [myid:] - DEBUG [LearnerHandler-/127.0.0.1:34262:LearnerHandler@395] - committedLog is empty but leader and follower are in sync, zxid\u003d0x0 2013-05-07 17:35:57,878 [myid:] - INFO  [LearnerHandler-/127.0.0.1:34262:LearnerHandler@404] - Sending DIFF 2013-05-07 17:35:57,879 [myid:] - DEBUG [LearnerHandler-/127.0.0.1:34262:LearnerHandler@411] - Sending NEWLEADER message to 0 2013-05-07 17:35:57,880 [myid:] - INFO  [QuorumPeer[myid\u003d0]/0:0:0:0:0:0:0:0:11221:Learner@331] - Getting a diff from the leader 0x0 2013-05-07 17:35:57,885 [myid:] - INFO  [QuorumPeer[myid\u003d0]/0:0:0:0:0:0:0:0:11221:Learner@457] - Learner received NEWLEADER message 2013-05-07 17:35:57,885 [myid:] - INFO  [QuorumPeer[myid\u003d0]/0:0:0:0:0:0:0:0:11221:Learner@460] - NEWLEADER calling configfromstring 2013-05-07 17:35:57,885 [myid:] - INFO  [QuorumPeer[myid\u003d0]/0:0:0:0:0:0:0:0:11221:Learner@462] - NEWLEADER setting quorum verifier 2013-05-07 17:35:57,886 [myid:] - WARN  [QuorumPeer[myid\u003d0]/0:0:0:0:0:0:0:0:11221:QuorumPeer@1218] - setLastSeenQuorumVerifier called with stale config 0. Current version: 0 2013-05-07 17:36:01,880 [myid:] - INFO  [QuorumPeer[myid\u003d1]/0:0:0:0:0:0:0:0:11224:Leader@585] - Shutting down 2013-05-07 17:36:01,881 [myid:] - INFO  [QuorumPeer[myid\u003d1]/0:0:0:0:0:0:0:0:11224:Leader@591] - Shutdown called java.lang.Exception: shutdown Leader! reason: Waiting for a quorum of followers, only synced with sids: [ [1] ] \tat org.apache.zookeeper.server.quorum.Leader.shutdown(Leader.java:591) \tat org.apache.zookeeper.server.quorum.Leader.lead(Leader.java:487) \tat org.apache.zookeeper.server.quorum.QuorumPeer.run(QuorumPeer.java:949) 2013-05-07 17:36:01,881 [myid:] - INFO  [QuorumPeer[myid\u003d1]/0:0:0:0:0:0:0:0:11224:ZooKeeperServer@398] - shutting down 2013-05-07 17:36:01,881 [myid:] - INFO  [LearnerCnxAcceptor-0.0.0.0/0.0.0.0:11225:Leader$LearnerCnxAcceptor@398] - exception while shutting down acceptor: java.net.SocketException: Socket closed 2013-05-07 17:36:01,882 [myid:] - WARN  [QuorumPeer[myid\u003d1]/0:0:0:0:0:0:0:0:11224:QuorumPeer@979] - PeerState set to LOOKING 2013-05-07 17:36:01,882 [myid:] - INFO  [QuorumPeer[myid\u003d1]/0:0:0:0:0:0:0:0:11224:QuorumPeer@863] - LOOKING 2013-05-07 17:36:01,883 [myid:] - DEBUG [QuorumPeer[myid\u003d1]/0:0:0:0:0:0:0:0:11224:QuorumPeer@792] - Initializing leader election protocol... {noformat}"}
{"key":"ZOOKEEPER-1732","title":"ZooKeeper server unable to join established ensemble","description":"I have a test in which I do a rolling restart of three ZooKeeper servers and it was failing from time to time. I ran the tests in a loop until the failure came out and it seems that at some point one of the servers is unable to join the enssemble formed by the other two."}
{"key":"ZOOKEEPER-1750","title":"Race condition producing NPE in NIOServerCnxn.toString","description":"The socket is closed and the variable \"sock\" is set to null for normal reasons, but the toString_ method is called before \"sock\" can be set again, producing a NullPointerException. Stack trace: 2013-08-29 01:49:19,991 6277 [CommitProcWorkThread-3] WARN org.apache.zookeeper.server.WorkerService  - Unexpected exception java.lang.NullPointerException     at org.apach.zookeeper.server.NIOServerCnxn.toString(NIOServerCnxn.java:961)     at java.lang.String.valueOf(String.java:2854)     at java.lang.StringBuilder.append(StringBuilder.java:128)     at org.apache.zookeeper.server.NIOServerCnxn.process(NIOServerCnxn.java:1104)     at org.apache.zookeeper.server.WatchManager.triggerWatch(WatchManager.java:120)     at org.apache.zookeeper.server.WatchManager.triggerWatch(WatchManager.java:92)     at org.apache.zookeeper.server.DataTree.createNode(DataTree.java:544)     at org.apache.zookeeper.server.DataTree.processTxn(DataTree.java:805)     at org.apache.zookeeper.server.ZKDatabase.processTxn(ZKDatabase.java:319)     at org.apache.zookeeper.server.ZooKeeperServer.processTxn(ZooKeeperServer.java:967)     at org.apache.zookeeper.server.FinalRequestProcessor.processRequest(FinalRequestProcessor.java:115)     at org.apache.zookeeper.server.quorum.Leader$ToBeAppliedRequestProcessor.processRequest(Leader.java:859)     at org.apache.zookeeper.server.quorum.CommitProcessor$CommitWorkRequest.doWork(CommitProcessor.java:271)     at org.apache.zookeeper.server.WorkerService$ScheduledWorkRequest.run(WorkerService.java:152)     at java.util.concurrent.ThreadPoolExecutor.runWorker(ThreadPoolExecutor.java:1145)     at java.util.concurrent.ThreadPoolExecutor$Worker.run(ThreadPoolExecutor.java:615)     at java.lang.Thread.run(Thread.java:722)"}
{"key":"ZOOKEEPER-1753","title":"ClientCnxn is not properly releasing the resources, which are used to ping RwServer","description":"While pinging to the RwServer, ClientCnxn is opening a socket and using BufferedReader. These are not properly closed in finally block and could cause leaks on exceptional cases. ClientCnxn#pingRwServer()\n{code}\n            try {\n                Socket sock \u003d new Socket(addr.getHostName(), addr.getPort());\n                BufferedReader br \u003d new BufferedReader(\n                        new InputStreamReader(sock.getInputStream()));\n                ...... sock.close();\n                br.close();\n            } catch (ConnectException e) {\n                // ignore, this just means server is not up\n            } catch (IOException e) {\n                // some unexpected error, warn about it\n                LOG.warn(\"Exception while seeking for r/w server \" +\n                        e.getMessage(), e);\n            }\n{code}"}
{"key":"ZOOKEEPER-1755","title":"Concurrent operations of four letter \u0027dump\u0027 ephemeral command and killSession causing NPE","description":"Potential problem occurs, when executing four letter \u0027dump\u0027 command and at the meantime zkserver has triggered session closure and removing the related information from the DataTree. Please see the exception: {code} java.lang.NullPointerException \tat org.apache.zookeeper.server.DataTree.dumpEphemerals(DataTree.java:1278) \tat org.apache.zookeeper.server.DataTreeTest$1.run(DataTreeTest.java:82) {code}"}
{"key":"ZOOKEEPER-1769","title":"ZooInspector can\u0027t display node data/metadata/ACLs","description":"There seem to be a few bugs in the trunk that prevent ZooInspector to load the node viewers ( the 3 tabs in the main windows when you select a ZK node in the tree don\u0027t show up any more ). Apparently it has been introduced 2 years ago after a refactoring about icons and another about partially fixing a typo (\"veiwer\" -\u003e \"viewer\"). Note: the bug is only in trunk, 3.4 is fine."}
{"key":"ZOOKEEPER-1774","title":"QuorumPeerMainTest fails consistently with \"complains about host\" assertion failure","description":"QuorumPeerMainTest fails consistently with \"complains about host\" assertion failure.  {noformat} 2013-10-01 16:09:17,962 [myid:] - INFO  [main:JUnit4ZKTestRunner$LoggedInvokeMethod@54] - TEST METHOD FAILED testBadPeerAddressInQuorum java.lang.AssertionError: complains about host \tat org.junit.Assert.fail(Assert.java:91) \tat org.junit.Assert.assertTrue(Assert.java:43) \tat org.apache.zookeeper.server.quorum.QuorumPeerMainTest.testBadPeerAddressInQuorum(QuorumPeerMainTest.java:434) \tat sun.reflect.NativeMethodAccessorImpl.invoke0(Native Method) \tat sun.reflect.NativeMethodAccessorImpl.invoke(NativeMethodAccessorImpl.java:39) \tat sun.reflect.DelegatingMethodAccessorImpl.invoke(DelegatingMethodAccessorImpl.java:25) \tat java.lang.reflect.Method.invoke(Method.java:597) \tat org.junit.runners.model.FrameworkMethod$1.runReflectiveCall(FrameworkMethod.java:44) \tat org.junit.internal.runners.model.ReflectiveCallable.run(ReflectiveCallable.java:15) \tat org.junit.runners.model.FrameworkMethod.invokeExplosively(FrameworkMethod.java:41) \tat org.junit.internal.runners.statements.InvokeMethod.evaluate(InvokeMethod.java:20) \tat org.apache.zookeeper.JUnit4ZKTestRunner$LoggedInvokeMethod.evaluate(JUnit4ZKTestRunner.java:52) \tat org.junit.rules.TestWatchman$1.evaluate(TestWatchman.java:48) \tat org.junit.runners.BlockJUnit4ClassRunner.runChild(BlockJUnit4ClassRunner.java:76) \tat org.junit.runners.BlockJUnit4ClassRunner.runChild(BlockJUnit4ClassRunner.java:50) \tat org.junit.runners.ParentRunner$3.run(ParentRunner.java:193) \tat org.junit.runners.ParentRunner$1.schedule(ParentRunner.java:52) \tat org.junit.runners.ParentRunner.runChildren(ParentRunner.java:191) \tat org.junit.runners.ParentRunner.access$000(ParentRunner.java:42) \tat org.junit.runners.ParentRunner$2.evaluate(ParentRunner.java:184) \tat org.junit.runners.ParentRunner.run(ParentRunner.java:236) \tat junit.framework.JUnit4TestAdapter.run(JUnit4TestAdapter.java:39) \tat org.apache.tools.ant.taskdefs.optional.junit.JUnitTestRunner.run(JUnitTestRunner.java:518) \tat org.apache.tools.ant.taskdefs.optional.junit.JUnitTestRunner.launch(JUnitTestRunner.java:1052) \tat org.apache.tools.ant.taskdefs.optional.junit.JUnitTestRunner.main(JUnitTestRunner.java:906) 2013-10-01 16:09:17,963 [myid:] - INFO  [main:ZKTestCase$1@65] - FAILED testBadPeerAddressInQuorum java.lang.AssertionError: complains about host \tat org.junit.Assert.fail(Assert.java:91) \tat org.junit.Assert.assertTrue(Assert.java:43) \tat org.apache.zookeeper.server.quorum.QuorumPeerMainTest.testBadPeerAddressInQuorum(QuorumPeerMainTest.java:434) \tat sun.reflect.NativeMethodAccessorImpl.invoke0(Native Method) \tat sun.reflect.NativeMethodAccessorImpl.invoke(NativeMethodAccessorImpl.java:39) \tat sun.reflect.DelegatingMethodAccessorImpl.invoke(DelegatingMethodAccessorImpl.java:25) \tat java.lang.reflect.Method.invoke(Method.java:597) \tat org.junit.runners.model.FrameworkMethod$1.runReflectiveCall(FrameworkMethod.java:44) \tat org.junit.internal.runners.model.ReflectiveCallable.run(ReflectiveCallable.java:15) \tat org.junit.runners.model.FrameworkMethod.invokeExplosively(FrameworkMethod.java:41) \tat org.junit.internal.runners.statements.InvokeMethod.evaluate(InvokeMethod.java:20) \tat org.apache.zookeeper.JUnit4ZKTestRunner$LoggedInvokeMethod.evaluate(JUnit4ZKTestRunner.java:52) \tat org.junit.rules.TestWatchman$1.evaluate(TestWatchman.java:48) \tat org.junit.runners.BlockJUnit4ClassRunner.runChild(BlockJUnit4ClassRunner.java:76) \tat org.junit.runners.BlockJUnit4ClassRunner.runChild(BlockJUnit4ClassRunner.java:50) \tat org.junit.runners.ParentRunner$3.run(ParentRunner.java:193) \tat org.junit.runners.ParentRunner$1.schedule(ParentRunner.java:52) \tat org.junit.runners.ParentRunner.runChildren(ParentRunner.java:191) \tat org.junit.runners.ParentRunner.access$000(ParentRunner.java:42) \tat org.junit.runners.ParentRunner$2.evaluate(ParentRunner.java:184) \tat org.junit.runners.ParentRunner.run(ParentRunner.java:236) \tat junit.framework.JUnit4TestAdapter.run(JUnit4TestAdapter.java:39) \tat org.apache.tools.ant.taskdefs.optional.junit.JUnitTestRunner.run(JUnitTestRunner.java:518) \tat org.apache.tools.ant.taskdefs.optional.junit.JUnitTestRunner.launch(JUnitTestRunner.java:1052) \tat org.apache.tools.ant.taskdefs.optional.junit.JUnitTestRunner.main(JUnitTestRunner.java:906) {noformat}"}
{"key":"ZOOKEEPER-1781","title":"ZooKeeper Server fails if snapCount is set to 1 ","description":"If snapCount is set to 1, ZooKeeper Server can start but it fails with the below error: 2013-10-02 18:09:07,600 [myid:1] - ERROR [SyncThread:1:SyncRequestProcessor@151] - Severe unrecoverable error, exiting java.lang.IllegalArgumentException: n must be positive         at java.util.Random.nextInt(Random.java:300)         at org.apache.zookeeper.server.SyncRequestProcessor.run(SyncRequestProcessor.java:93) In source code,  it maybe be supposed that snapCount must be 2 or more: {code:title\u003dorg.apache.zookeeper.server.SyncRequestProcessor.java|borderStyle\u003dsolid} 91             // we do this in an attempt to ensure that not all ofthe servers 92             // in the ensemble take a snapshot at the same time 93             int randRoll \u003d r.nextInt(snapCount/2); {code} I think this supposition is not bad because snapCount \u003d 1 is not realistic setting... But, it may be better to mention this restriction in documentation or add a validation in the source code."}
{"key":"ZOOKEEPER-1783","title":"Distinguish initial configuration from first established configuration","description":"We need a way to distinguish an initial config of a server and an initial config of a running ensemble (before any reconfigs happen). Currently both have version 0. The version of a config increases with each reconfiguration, so the problem is just with the initial config."}
{"key":"ZOOKEEPER-1815","title":"Tolerate incorrectly set system hostname in tests","description":"A bunch of tests will fail with UnknownHostException errors when the hostname is incorrectly set on the system that you are running tests on."}
{"key":"ZOOKEEPER-1837","title":"Fix JMXEnv checks (potential race conditions)","description":"The following failures in ZooKeeper-3.4-WinVS2008_java and ZooKeeper-trunk-WinVS2008_java require fixing: [junit] junit.framework.AssertionFailedError: expected:\u003c0\u003e but was:\u003c1\u003e     [junit] \tat junit.framework.Assert.fail(Assert.java:47)     [junit] \tat junit.framework.Assert.failNotEquals(Assert.java:283)     [junit] \tat junit.framework.Assert.assertEquals(Assert.java:64)     [junit] \tat junit.framework.Assert.assertEquals(Assert.java:195)     [junit] \tat junit.framework.Assert.assertEquals(Assert.java:201)     [junit] \tat org.apache.zookeeper.test.JMXEnv.ensureOnly(JMXEnv.java:138)     [junit] \tat org.apache.zookeeper.test.ClientBase.startServer(ClientBase.java:417)     [junit] \tat org.apache.zookeeper.test.ZooKeeperQuotaTest.testQuota(ZooKeeperQuotaTest.java:80)     [junit] \tat sun.reflect.NativeMethodAccessorImpl.invoke0(Native Method)     [junit] \tat sun.reflect.NativeMethodAccessorImpl.invoke(NativeMethodAccessorImpl.java:39)     [junit] \tat sun.reflect.DelegatingMethodAccessorImpl.invoke(DelegatingMethodAccessorImpl.java:25)     [junit] \tat java.lang.reflect.Method.invoke(Method.java:597)     [junit] \tat org.junit.runners.model.FrameworkMethod$1.runReflectiveCall(FrameworkMethod.java:44)     [junit] \tat org.junit.internal.runners.model.ReflectiveCallable.run(ReflectiveCallable.java:15)     [junit] \tat org.junit.runners.model.FrameworkMethod.invokeExplosively(FrameworkMethod.java:41)     [junit] \tat org.junit.internal.runners.statements.InvokeMethod.evaluate(InvokeMethod.java:20) [junit] junit.framework.AssertionFailedError: expected:\u003c0\u003e but was:\u003c1\u003e     [junit] \tat junit.framework.Assert.fail(Assert.java:47)     [junit] \tat junit.framework.Assert.failNotEquals(Assert.java:283)     [junit] \tat junit.framework.Assert.assertEquals(Assert.java:64)     [junit] \tat junit.framework.Assert.assertEquals(Assert.java:195)     [junit] \tat junit.framework.Assert.assertEquals(Assert.java:201)     [junit] \tat org.apache.zookeeper.test.JMXEnv.ensureOnly(JMXEnv.java:138)     [junit] \tat org.apache.zookeeper.test.ClientBase.startServer(ClientBase.java:417)     [junit] \tat org.apache.zookeeper.test.ZooKeeperQuotaTest.testQuota(ZooKeeperQuotaTest.java:80)     [junit] \tat sun.reflect.NativeMethodAccessorImpl.invoke0(Native Method)     [junit] \tat sun.reflect.NativeMethodAccessorImpl.invoke(NativeMethodAccessorImpl.java:39)     [junit] \tat sun.reflect.DelegatingMethodAccessorImpl.invoke(DelegatingMethodAccessorImpl.java:25)     [junit] \tat java.lang.reflect.Method.invoke(Method.java:597)     [junit] \tat org.junit.runners.model.FrameworkMethod$1.runReflectiveCall(FrameworkMethod.java:44)     [junit] \tat org.junit.internal.runners.model.ReflectiveCallable.run(ReflectiveCallable.java:15)     [junit] \tat org.junit.runners.model.FrameworkMethod.invokeExplosively(FrameworkMethod.java:41)     [junit] \tat org.junit.internal.runners.statements.InvokeMethod.evaluate(InvokeMethod.java:20)     [junit] \tat org.apache.zookeeper.JUnit4ZKTestRunner$LoggedInvokeMethod.evaluate(JUnit4ZKTestRunner.java:52) [ junit.framework.AssertionFailedError: expected [0x142e5f027b50001] expected:\u003c1\u003e but was:\u003c0\u003e \tat org.apache.zookeeper.test.JMXEnv.ensureAll(JMXEnv.java:115) \tat org.apache.zookeeper.test.ClientBase.createClient(ClientBase.java:197) \tat org.apache.zookeeper.test.ClientBase.createClient(ClientBase.java:171) \tat org.apache.zookeeper.test.ClientBase.createClient(ClientBase.java:156) \tat org.apache.zookeeper.test.ClientBase.createClient(ClientBase.java:149) \tat org.apache.zookeeper.ZooKeeperTest.testDeleteRecursive(ZooKeeperTest.java:45) \tat org.apache.zookeeper.JUnit4ZKTestRunner$LoggedInvokeMethod.evaluate(JUnit4ZKTestRunner.java:52)"}
{"key":"ZOOKEEPER-876","title":"Unnecessary snapshot transfers between new leader and followers","description":"When starting a new leadership, unnecessary snapshot transfers happen between new leader and followers. This is so because of multiple small bugs. 1 the comparison of zxids is done based on a new proposal, instead of the last logged zxid. (LearnerHandler.java ~ 297) 2 if follower is one zxid behind, the check of the interval of committed logs excludes the follower. (LearnerHandler.java ~ 277) 3 the bug reported in ZOOKEEPER-874 (commitLogs are empty after recover)."}
