{"id":83,"bug_id":"2542","text":"Pasting Text Should End Current Undoable Edit. The text area should finish the existing undoable edit when the user \npastes text into it.   It should undo each separately.","method_goldset":["org.gjt.sp.jedit.Registers:paste(JEditTextArea, char, boolean)"],"creation_date":"2006-5-27 22:49:10","resolution_date":"2006-5-28 15:33:54"}
{"id":85,"bug_id":"2571","text":"This makes sense when the selection splits accross multiple lines, however on single line I guess the line number should be highlighted.","method_goldset":["org.gjt.sp.jedit.search.SearchAndReplace:replace(View)"],"creation_date":"2006-7-17 18:34:33","resolution_date":"2006-7-18 09:55:46"}
{"id":88,"bug_id":"2720","text":"FSB delete action invoked on a directory should \nrecursively delete the files and folders it contains \nand not just state \"Cannot delete file\".","method_goldset":["org.gjt.sp.jedit.io.FileVFS:_delete(Object, String, Component)"],"creation_date":"2006-11-9 12:52:48","resolution_date":"2006-11-11 22:05:08"}
