{"id":101,"bug_id":"MAHOUT-1030","text":"Regression: Clustered Points Should be WeightedPropertyVectorWritable not WeightedVectorWritable. ","method_goldset":["org.apache.mahout.clustering.classify.ClusterClassificationDriver:selectCluster(Path, List\u003cCluster\u003e, ClusterClassifier, Path, Double, boolean)","org.apache.mahout.clustering.classify.ClusterClassificationMapper:populateClusterModels(Path, Configuration)","org.apache.mahout.clustering.meanshift.MeanShiftCanopyClusterMapper:getCanopies(Configuration)","org.apache.mahout.clustering.meanshift.MeanShiftCanopyClusterMapper:setup(Context)","org.apache.mahout.clustering.topdown.postprocessor.ClusterOutputPostProcessor:process()","org.apache.mahout.clustering.topdown.postprocessor.ClusterOutputPostProcessor:putVectorInRespectiveCluster(String, WeightedVectorWritable)","org.apache.mahout.clustering.topdown.postprocessor.ClusterOutputPostProcessor:writeVectorToCluster(Writer, WeightedVectorWritable)","org.apache.mahout.clustering.topdown.postprocessor.ClusterOutputPostProcessorMapper:map(IntWritable, WeightedVectorWritable, Context)","org.apache.mahout.clustering.topdown.postprocessor.ClusterCountReaderTest:verifyThatNumberOfClustersIsCorrect(Configuration, Path)","org.apache.mahout.clustering.topdown.postprocessor.ClusterOutputPostProcessorTest:assertBottomLevelCluster(Path)","org.apache.mahout.utils.vectors.lucene.ClusterLabels:getClusterLabels(Integer, Collection\u003cWeightedVectorWritable\u003e)"],"creation_date":"2012-6-9 11:08:56","resolution_date":"2013-12-7 22:08:46"}
{"id":107,"bug_id":"MAHOUT-1317","text":"Clarify some of the messages in Preconditions.checkArgument. ","method_goldset":["org.apache.mahout.cf.taste.impl.common.SamplingLongPrimitiveIterator:SamplingLongPrimitiveIterator(RandomWrapper, LongPrimitiveIterator, double)","org.apache.mahout.cf.taste.impl.common.WeightedRunningAverage:changeDatum(double, double)","org.apache.mahout.cf.taste.impl.similarity.GenericItemSimilarity.ItemItemSimilarity:ItemItemSimilarity(long, long, double)","org.apache.mahout.cf.taste.impl.similarity.GenericUserSimilarity.UserUserSimilarity:UserUserSimilarity(long, long, double)","org.apache.mahout.classifier.df.data.DataLoader:parseString(Attribute[], Set\u003cString\u003e[], CharSequence, boolean)","org.apache.mahout.classifier.df.data.Dataset:valueOf(int, String)","org.apache.mahout.classifier.df.mapreduce.partial.TreeID:treeId()","org.apache.mahout.classifier.df.mapreduce.partial.TreeID:TreeID(int, int)","org.apache.mahout.classifier.naivebayes.training.WeightsMapper:setup(Context)","org.apache.mahout.math.neighborhood.BruteSearch:search(Vector, int)","org.apache.mahout.math.neighborhood.FastProjectionSearch:FastProjectionSearch(DistanceMeasure, int, int)","org.apache.mahout.math.neighborhood.ProjectionSearch:ProjectionSearch(DistanceMeasure, int, int)","org.apache.mahout.math.neighborhood.SearchQualityTest.StripWeight:apply(WeightedThing\u003cVector\u003e)","org.apache.mahout.cf.taste.example.kddcup.KDDCupDataModel:KDDCupDataModel(File, boolean, double)","org.apache.mahout.cf.taste.impl.model.cassandra.CassandraDataModel:CassandraDataModel(String, int, String)","org.apache.mahout.utils.SplitInput:validate()","org.apache.mahout.math.als.AlternatingLeastSquaresSolver:addLambdaTimesNuiTimesE(Matrix, double, int)","org.apache.mahout.math.als.AlternatingLeastSquaresSolver:createRiIiMaybeTransposed(Vector)","org.apache.mahout.math.als.AlternatingLeastSquaresSolver:solve(Iterable\u003cVector\u003e, Vector, double, int)","org.apache.mahout.math.random.ChineseRestaurant:ChineseRestaurant(double, double)"],"creation_date":"2013-8-23 13:05:58","resolution_date":"2013-11-22 14:56:55"}
{"id":115,"bug_id":"MAHOUT-1409","text":"There is a \u003e in the test for the correct index where there should be a \u003e\u003d","method_goldset":["org.apache.mahout.math.MatrixVectorView:MatrixVectorView(Matrix, int, int, int, int)"],"creation_date":"2014-1-23 20:16:24","resolution_date":"2014-1-24 14:05:38"}
