{"id":87,"bug_id":"DERBY-3024","text":"Validation of shared plans hurts scalability. To investigate whether there was anything in the SQL execution layer that prevented scaling on a multi-CPU machine, I wrote a multi-threaded test which continuously executed \"VALUES 1\" using a PreparedStatement. I ran the test on a machine with 8 CPUs and expected the throughput to be proportional to the number of concurrent clients up to 8 clients (the same as the number of CPUs). However, the throughput only had a small increase from 1 to 2 clients, and adding more clients did not increase the throughput. Looking at the test in a profiler, it seems like the threads are spending a lot of time waiting to enter synchronization blocks in GenericPreparedStatement.upToDate() and BaseActivation.checkStatementValidity() (both of which are synchronized on the a GenericPreparedStatement object).   When I made that change, the test scaled more or less perfectly up to 8 concurrent threads.  GenericPreparedStatement.upToDate()  BaseActivation.checkStatementValidity()","class_goldset":["java.engine.org.apache.derby.impl.store.access.btree.index.B2IFactory","java.engine.org.apache.derby.impl.store.access.heap.HeapConglomerateFactory","java.engine.org.apache.derby.impl.store.raw.data.FileContainer","java.engine.org.apache.derby.impl.store.raw.data.InputStreamContainer","java.engine.org.apache.derby.impl.store.raw.data.RAFContainer","java.engine.org.apache.derby.impl.store.raw.data.TempRAFContainer","java.testing.org.apache.derbyTesting.functionTests.tests.lang.DBInJarTest"],"file_goldset":["java.engine.org.apache.derby.impl.store.access.btree.index.B2IFactory","java.engine.org.apache.derby.impl.store.access.heap.HeapConglomerateFactory","java.engine.org.apache.derby.impl.store.raw.data.FileContainer","java.engine.org.apache.derby.impl.store.raw.data.InputStreamContainer","java.engine.org.apache.derby.impl.store.raw.data.RAFContainer","java.engine.org.apache.derby.impl.store.raw.data.TempRAFContainer","java.testing.org.apache.derbyTesting.functionTests.tests.lang.DBInJarTest"],"creation_date":"2007-08-23T10:24:31.000+0000","resolution_date":"2012-10-02T08:45:01.000+0000"}
{"id":89,"bug_id":"DERBY-4269","text":"Failover did not succeed in 2 min.: testReplication_Local_3_p6_autocommit_OK. Failover did not succeed.             testReplication_Local_3_p6_autocommit_OK(org.apache.derbyTesting.functionTests.tests.replicationTests.ReplicationRun_Local_3_p6)","class_goldset":["java.engine.org.apache.derby.iapi.util.DoubleProperties","java.testing.org.apache.derbyTesting.functionTests.tests.replicationTests.ReplicationRun_Local_3_p6"],"file_goldset":["java.engine.org.apache.derby.iapi.util.DoubleProperties","java.testing.org.apache.derbyTesting.functionTests.tests.replicationTests.ReplicationRun_Local_3_p6"],"creation_date":"2009-06-12T11:40:38.000+0000","resolution_date":"2012-07-04T15:05:19.000+0000"}
{"id":91,"bug_id":"DERBY-4647","text":"BaseTestCase.execJavaCmd() does not work with weme 6.2. Spawning a java process with BaseTestCase.execJavaCmd() does not work with weme 6.2, I think because the boot classpath does not get passed.   The error is actually\n.  execJavaProcess does pick up the j9 executable but does not pass on the other settings.        BaseTestCase.execJavaCmd()","class_goldset":["java.testing.org.apache.derbyTesting.functionTests.tests.store.BootLockMinion","java.testing.org.apache.derbyTesting.functionTests.tests.store.BootLockTest"],"file_goldset":["java.testing.org.apache.derbyTesting.functionTests.tests.store.BootLockMinion","java.testing.org.apache.derbyTesting.functionTests.tests.store.BootLockTest"],"creation_date":"2010-05-07T18:34:26.000+0000","resolution_date":"2012-09-12T23:20:04.000+0000"}
{"id":92,"bug_id":"DERBY-4669","text":"ClassLoaderBootTest fails if derbyclient.jar comes before derby.jar on the classpath. If derbyclient.jar comes before derby.jar on the classpath, and the build is sane, the test fails.                                                                                     testBootingAnAlreadyBootedDatabase(org.apache.derbyTesting.functionTests.tests.store.ClassLoaderBootTest) testBootingDatabaseShutdownByAnotherCLR(org.apache.derbyTesting.functionTests.tests.store.ClassLoaderBootTest)","class_goldset":["java.client.org.apache.derby.client.am.ClobLocatorInputStream","java.client.org.apache.derby.client.am.ClobLocatorReader","java.client.org.apache.derby.client.am.PreparedStatement","java.client.org.apache.derby.client.net.EncodedInputStream","java.client.org.apache.derby.client.net.Utf8CcsidManager","java.engine.org.apache.derby.iapi.services.info.JVMInfo"],"file_goldset":["java.client.org.apache.derby.client.am.ClobLocatorInputStream","java.client.org.apache.derby.client.am.ClobLocatorReader","java.client.org.apache.derby.client.am.PreparedStatement","java.client.org.apache.derby.client.net.EncodedInputStream","java.client.org.apache.derby.client.net.Utf8CcsidManager","java.engine.org.apache.derby.iapi.services.info.JVMInfo"],"creation_date":"2010-05-20T10:08:54.000+0000","resolution_date":"2012-07-03T20:11:12.000+0000"}
{"id":93,"bug_id":"DERBY-4873","text":"NullPointerException in testBoundaries with ibm jvm 1.6 . With the line skipping the testBoundaries fixture of the InternationalConnectTest commented out, I get the following stack when I run the test with ibm 1.6:                                        testBoundaries(org.apache.derbyTesting.functionTests.tests.jdbcapi.InternationalConnectTest)","class_goldset":["java.engine.org.apache.derby.impl.store.raw.data.BaseDataFileFactory"],"file_goldset":["java.engine.org.apache.derby.impl.store.raw.data.BaseDataFileFactory"],"creation_date":"2010-10-28T23:45:13.000+0000","resolution_date":"2012-10-31T10:01:49.000+0000"}
{"id":97,"bug_id":"DERBY-5251","text":"make ErrorCodeTest pass in non-English locale. lang.ErrorCodeTest will fail in Chinese Locale:                                   test_errorcode(org.apache.derbyTesting.functionTests.tests.lang.ErrorCodeTest\n)","class_goldset":["java.testing.org.apache.derbyTesting.functionTests.tests.lang.ErrorCodeTest"],"file_goldset":["java.testing.org.apache.derbyTesting.functionTests.tests.lang.ErrorCodeTest"],"creation_date":"2011-05-29T09:27:15.000+0000","resolution_date":"2012-09-12T23:20:05.000+0000"}
{"id":99,"bug_id":"DERBY-5377","text":"AssertionFailedError in testCaseCS4595B_NonUniqueIndex in AccessTest. testCaseCS4595B_NonUniqueIndex(org.apache.derbyTesting.functionTests.tests.store.AccessTest)","class_goldset":["java.testing.org.apache.derbyTesting.functionTests.tests.store.AccessTest"],"file_goldset":["java.testing.org.apache.derbyTesting.functionTests.tests.store.AccessTest"],"creation_date":"2011-08-08T14:44:29.000+0000","resolution_date":"2012-09-26T21:28:32.000+0000"}
{"id":100,"bug_id":"DERBY-5407","text":"When run across the network, dblook produces unusable DDL for VARCHAR FOR BIT DATA columns.. In private correspondence, Mani Afschar Yazdi reports that dblook omits the length specification for VARCHAR FOR BIT DATA columns when run across the network. Embedded dblook runs fine.        This produces the following DDL for the table:   A similar experiment using an embedded database produces usable DDL which includes a length specification for the VARCHAR FOR BIT DATA column. varchar( 20 )  VARCHAR ()","class_goldset":["java.engine.org.apache.derby.catalog.types.BaseTypeIdImpl","java.testing.org.apache.derbyTesting.functionTests.tests.lang.SystemCatalogTest"],"file_goldset":["java.engine.org.apache.derby.catalog.types.BaseTypeIdImpl","java.testing.org.apache.derbyTesting.functionTests.tests.lang.SystemCatalogTest"],"creation_date":"2011-09-12T13:50:38.000+0000","resolution_date":"2012-07-25T18:30:35.000+0000"}
{"id":101,"bug_id":"DERBY-5424","text":"On z/OS testConnectWrongSubprotocolWithSystemProperty(org.apache.derbyTesting.functionTests.tests.tools.ConnectWrongSubprotocolTest)junit.framework.Asserti ailedError. With the release candidate  10.8.2.1 - (1170221) I saw the following two failures on z/OS in testConnectWrongSubprotoctestolWithoutSystemProperty There were 2 failures:                           testConnectWrongSubprotocolWithSystemProperty(org.apache.derbyTesting.functionTests.tests.tools.ConnectWrongSubprotocolTest) testConnectWrongSubprotoctestolWithoutSystemProperty(org.apache.derbyTesting.functionTests.tests.tools.ConnectWrongSubprotocolTest) String ijResult \u003d runIjScript(ijScript, useSystemProperties);       \n                assertTrue(ijResult.indexOf(\"08001\") \u003e -1);","class_goldset":["java.testing.org.apache.derbyTesting.functionTests.tests.tools.ConnectWrongSubprotocolTest"],"file_goldset":["java.testing.org.apache.derbyTesting.functionTests.tests.tools.ConnectWrongSubprotocolTest"],"creation_date":"2011-09-20T19:24:29.000+0000","resolution_date":"2012-06-25T23:25:31.000+0000"}
{"id":102,"bug_id":"DERBY-5531","text":"Assert failure when inserting NULL into indexed column with territory-based collation. colldb;territory\u003den;collation\u003dTERRITORY_BASED; varchar(10)","class_goldset":["java.engine.org.apache.derby.impl.sql.compile.ResultColumnList","java.engine.org.apache.derby.impl.store.access.btree.OpenBTree","java.testing.org.apache.derbyTesting.functionTests.tests.lang.CollationTest"],"file_goldset":["java.engine.org.apache.derby.impl.sql.compile.ResultColumnList","java.engine.org.apache.derby.impl.store.access.btree.OpenBTree","java.testing.org.apache.derbyTesting.functionTests.tests.lang.CollationTest"],"creation_date":"2011-12-12T12:34:21.000+0000","resolution_date":"2012-08-28T16:28:04.000+0000"}
{"id":104,"bug_id":"DERBY-5567","text":"AlterTableTest#testDropColumn fails: drop view cannot be performed due to dependency. Saw this when running suitesAll on 10.8.2.2:                                          Prior to this, though, I saw this on the console, but no error/failure.                                                    testDropColumn(org.apache.derbyTesting.functionTests.tests.lang.AlterTableTest)","class_goldset":["java.engine.org.apache.derby.iapi.sql.dictionary.ViewDescriptor"],"file_goldset":["java.engine.org.apache.derby.iapi.sql.dictionary.ViewDescriptor"],"creation_date":"2012-01-05T13:35:04.000+0000","resolution_date":"2012-10-09T18:55:11.000+0000"}
{"id":106,"bug_id":"DERBY-5663","text":"Getting NPE when trying to set derby.language.logStatementText property to true inside a junit suite.. This causes the large data suite to run into NPE (NPE can be seen in runall.out) as shown below. Not sure what I am doing wrong while trying to set the property, which results in NPE.                                                                                                                 patch(DERBY5663_patch1.txt)","class_goldset":["java.testing.org.apache.derbyTesting.functionTests.tests.largedata.LobLimitsTest","java.testing.org.apache.derbyTesting.junit.SystemPropertyTestSetup"],"file_goldset":["java.testing.org.apache.derbyTesting.functionTests.tests.largedata.LobLimitsTest","java.testing.org.apache.derbyTesting.junit.SystemPropertyTestSetup"],"creation_date":"2012-03-18T04:45:11.000+0000","resolution_date":"2012-09-18T15:06:48.000+0000"}
{"id":107,"bug_id":"DERBY-5740","text":"Remove unsued code in AlterTableConstantaction.columnDroppedAndTriggerDependencies. The following code is executed, but the results are not used:\n\t\t\tCollectNodesVisitor visitor \u003d new CollectNodesVisitor(ColumnReference.class);\n\t\t\tstmtnode.accept(visitor);\n\t\t\tVector refs \u003d visitor.getList();  \u003c--- never used  CollectNodesVisitor visitor \u003d new CollectNodesVisitor(ColumnReference.class);\n\t\t\tstmtnode.accept(visitor);\n\t\t\tVector refs \u003d visitor.getList();","class_goldset":["java.engine.org.apache.derby.impl.sql.execute.AlterTableConstantAction"],"file_goldset":["java.engine.org.apache.derby.impl.sql.execute.AlterTableConstantAction"],"creation_date":"2012-05-03T12:31:43.000+0000","resolution_date":"2012-10-01T09:16:02.000+0000"}
{"id":109,"bug_id":"DERBY-5816","text":"store.ServicePropertiesFileTest fails on z/OS. store.ServicePropertiesFileTest fails on z/OS with two failures below.                                               testSevicePropertiesFileWithBackup(org.apache.derbyTesting.functionTests.tests.store.ServicePropertiesFileTest) testSevicePropertiesFileCorruptedWithBackup(org.apache.derbyTesting.functionTests.tests.store.ServicePropertiesFileTe\nst) {```\n@    @    k@   }","class_goldset":["java.engine.org.apache.derby.impl.services.monitor.StorageFactoryService","java.testing.org.apache.derbyTesting.functionTests.tests.store.ServicePropertiesFileTest"],"file_goldset":["java.engine.org.apache.derby.impl.services.monitor.StorageFactoryService","java.testing.org.apache.derbyTesting.functionTests.tests.store.ServicePropertiesFileTest"],"creation_date":"2012-06-13T20:12:35.000+0000","resolution_date":"2012-06-25T23:03:11.000+0000"}
{"id":113,"bug_id":"DERBY-5912","text":"testIsValidImplemented fails for NetworkServer in some slow running machines/configurations. The following test has been seen to fail as below  in some runs where the machine is under heavy load  and slow running options are specified and the isValid() call takes more than a second to return.                   isValid()  testIsValidImplemented(org.apache.derbyTesting.functionTests.tests.jdbc4.ConnectionTest) assertTrue(getConnection().isValid(1));","class_goldset":["java.drda.org.apache.derby.impl.drda.DRDAConnThread","java.testing.org.apache.derbyTesting.functionTests.tests.jdbc4.ConnectionMethodsTest","java.testing.org.apache.derbyTesting.functionTests.tests.jdbc4.ConnectionTest"],"file_goldset":["java.drda.org.apache.derby.impl.drda.DRDAConnThread","java.testing.org.apache.derbyTesting.functionTests.tests.jdbc4.ConnectionMethodsTest","java.testing.org.apache.derbyTesting.functionTests.tests.jdbc4.ConnectionTest"],"creation_date":"2012-08-29T00:43:59.000+0000","resolution_date":"2012-08-30T23:45:43.000+0000"}
{"id":114,"bug_id":"DERBY-5916","text":"java.lang.NullPointerException org.apache.derby.impl.store.raw.data.BaseDataFileFactory.stop() connecting to network server. I got a report of the exception below trying to connect to  database with absolute path and network server and the database name attribute.                            {1}","class_goldset":["java.engine.org.apache.derby.impl.store.raw.data.BaseDataFileFactory"],"file_goldset":["java.engine.org.apache.derby.impl.store.raw.data.BaseDataFileFactory"],"creation_date":"2012-09-01T04:16:09.000+0000","resolution_date":"2012-10-08T21:50:54.000+0000"}
{"id":117,"bug_id":"DERBY-6053","text":"Client should use a prepared statement rather than regular statement for Connection.setTransactionIsolation. client.am.Connection setTransactionIsolation()  setTransactionIsolation()   private Statement setTransactionIsolationStmt \u003d null;\n createStatementX(java.sql.ResultSet.TYPE_FORWARD_ONLY,\n                            java.sql.ResultSet.CONCUR_READ_ONLY,\n                            holdability());\n private void setTransactionIsolationX(int level)\n setTransactionIsolationStmt.executeUpdate(\n                \"SET CURRENT ISOLATION \u003d \" + levelString);\n\n\n \n\nimport java.sql.*;\nimport java.net.*;\nimport java.io.*;\nimport org.apache.derby.drda.NetworkServerControl;\n\n/**\n * Client template starts its own NetworkServer and runs some SQL against it.\n * The SQL or JDBC API calls can be modified to reproduce issues\n * \n */public class SetTransactionIsolation {\n    public static Statement s;\n    \n    public static void main(String[] args) throws Exception {\n        try {\n            // Load the driver. Not needed for network server.\n            \n            Class.forName(\"org.apache.derby.jdbc.ClientDriver\");\n            // Start Network Server\n            startNetworkServer();\n            // If connecting to a customer database. Change the URL\n            Connection conn \u003d DriverManager\n                    .getConnection(\"jdbc:derby://localhost:1527/wombat;create\u003dtrue\");\n            // clean up from a previous run\n            s \u003d conn.createStatement();\n            try {\n                s.executeUpdate(\"DROP TABLE T\");\n            } catch (SQLException se) {\n                if (!se.getSQLState().equals(\"42Y55\"))\n                    throw se;\n            }\n\n            for (int i \u003d 0; i \u003c 50000; i++) {\n\t\tconn.setTransactionIsolation(Connection.TRANSACTION_REPEATABLE_READ);\n\t\tconn.setTransactionIsolation(Connection.TRANSACTION_SERIALIZABLE);\n\n\t    }\n            \n            // rs.close();\n            // ps.close();\n            runtimeInfo();\n            conn.close();\n            // Shutdown the server\n            shutdownServer();\n        } catch (SQLException se) {\n            while (se !\u003d null) {\n                System.out.println(\"SQLState\u003d\" + se.getSQLState()\n                        + se.getMessage());\n                se.printStackTrace();\n                se \u003d se.getNextException();\n            }\n        }\n    }\n    \n    /**\n     * starts the Network server\n     * \n     */\n    public static void startNetworkServer() throws SQLException {\n        Exception failException \u003d null;\n        try {\n            \n            NetworkServerControl networkServer \u003d new NetworkServerControl(\n                    InetAddress.getByName(\"localhost\"), 1527);\n            \n            networkServer.start(new PrintWriter(System.out));\n            \n            // Wait for the network server to start\n            boolean started \u003d false;\n            int retries \u003d 10; // Max retries \u003d max seconds to wait\n            \n            while (!started \u0026\u0026 retries \u003e 0) {\n                try {\n                    // Sleep 1 second and then ping the network server\n                    Thread.sleep(1000);\n                    networkServer.ping();\n                    \n                    // If ping does not throw an exception the server has\n                    // started\n                    started \u003d true;\n                } catch (Exception e) {\n                    retries--;\n                    failException \u003d e;\n                }\n                \n            }\n            \n            // Check if we got a reply on ping\n            if (!started) {\n                throw failException;\n            }\n        } catch (Exception e) {\n            SQLException se \u003d new SQLException(\"Error starting network  server\");\n            se.initCause(failException);\n            throw se;\n        }\n    }\n    \n    public static void shutdownServer() throws Exception {\n        NetworkServerControl networkServer \u003d new NetworkServerControl(\n                InetAddress.getByName(\"localhost\"), 1527);\n        networkServer.shutdown();\n    }\n    \n    public static void runtimeInfo() throws Exception {\n        NetworkServerControl networkServer \u003d new NetworkServerControl(\n                InetAddress.getByName(\"localhost\"), 1527);\n        System.out.println(networkServer.getRuntimeInfo());\n    }\n    \n}","class_goldset":["java.client.org.apache.derby.client.am.Connection"],"file_goldset":["java.client.org.apache.derby.client.am.Connection"],"creation_date":"2013-01-25T15:02:53.000+0000","resolution_date":"2013-02-28T22:43:45.000+0000"}
{"id":118,"bug_id":"DERBY-6058","text":"2 ClassNotFoundException failures on trunk with ibm\u0027s weme6.2 since build 1433263. Since the build of 1433263 on trunk, we see the following test failures:                                                                                                          noSpecialCollation(org.apache.derbyTesting.functionTests.tests.lang.TableFunctionTest) specialCollation(org.apache.derbyTesting.functionTests.tests.lang.TableFunctionTest)","class_goldset":["java.testing.org.apache.derbyTesting.functionTests.tests.lang.TableFunctionTest"],"file_goldset":["java.testing.org.apache.derbyTesting.functionTests.tests.lang.TableFunctionTest"],"creation_date":"2013-01-28T22:57:49.000+0000","resolution_date":"2013-01-29T13:40:36.000+0000"}
{"id":120,"bug_id":"DERBY-6079","text":"100\u0027s of errors in nightly test run on weme after jacoco property/priviledges checkin. 100\u0027s of errors in nightly test, all seem to be a null pointer while processing policy files during setup.  The only change being tested in this run was For instance:                                            testAll(org.apache.derbyTesting.functionTests.tests.lang.NativeAuthenticationServiceTest)","class_goldset":["java.testing.org.apache.derbyTesting.junit.BaseTestCase","java.testing.org.apache.derbyTesting.junit.SecurityManagerSetup"],"file_goldset":["java.testing.org.apache.derbyTesting.junit.BaseTestCase","java.testing.org.apache.derbyTesting.junit.SecurityManagerSetup"],"creation_date":"2013-02-20T00:51:03.000+0000","resolution_date":"2013-02-22T17:29:17.000+0000"}
{"id":121,"bug_id":"DERBY-6092","text":"testPositionAgressive(org.apache.derbyTesting.functionTests.tests.jdbcapi.BlobClob4BlobTest)j fails with : \u0027The handle is invalid.: java.io.IOException\u0027.. testPositionAgressive(org.apache.derbyTesting.functionTests.tests.jdbcapi.BlobClob4BlobTest)","class_goldset":["java.testing.org.apache.derbyTesting.functionTests.tests.jdbcapi.BlobClob4BlobTest"],"file_goldset":["java.testing.org.apache.derbyTesting.functionTests.tests.jdbcapi.BlobClob4BlobTest"],"creation_date":"2013-02-26T00:48:14.000+0000","resolution_date":"2013-04-10T08:29:25.000+0000"}
{"id":123,"bug_id":"DERBY-6108","text":"suites.All no longer runs with weme 6.2 . Since revision 1454647 the suites.All no longer kicks off with weme 6.2. The stack trace (which does not get copied to my apache location because the test doesn\u0027t finish) looks like this:                                                suite()","class_goldset":["java.testing.org.apache.derbyTesting.junit.JDBCDataSource"],"file_goldset":["java.testing.org.apache.derbyTesting.junit.JDBCDataSource"],"creation_date":"2013-03-13T17:14:01.000+0000","resolution_date":"2013-03-20T17:57:56.000+0000"}
{"id":124,"bug_id":"DERBY-6131","text":"select from view with \"upper\" and \"in\" list throws a ClassCastException. #4 failed with \"org.apache.derby.impl.sql.compile.SimpleStringOperatorNode incompatible with org.apache.derby.impl.sql.compile.ColumnReference: java.lang.ClassCastException\" If the view is created as \"create myView (name) as select t1.name from myTbl1 t1\", the query worked fine. varchar(1000) varchar(1000)","class_goldset":["java.engine.org.apache.derby.impl.sql.compile.PredicateList","java.testing.org.apache.derbyTesting.functionTests.tests.lang._Suite","java.testing.org.apache.derbyTesting.junit.BaseJDBCTestCase"],"file_goldset":["java.engine.org.apache.derby.impl.sql.compile.PredicateList","java.testing.org.apache.derbyTesting.functionTests.tests.lang._Suite","java.testing.org.apache.derbyTesting.junit.BaseJDBCTestCase"],"creation_date":"2013-03-27T13:17:37.000+0000","resolution_date":"2013-04-10T19:12:46.000+0000"}
{"id":126,"bug_id":"DERBY-6138","text":"org.apache.derbyTesting.functionTests.tests.store.ClassLoaderBootTest fails with  sealing violation: package org.apache.derby.iapi.services.sanity is sealed depending on classpath order. Depending on classpath order, I believe if derbyclient.jar is before derby.jar in the classpath ClassLoaderBootTest fails with a sealing violation., There were 2 errors:                                                                                            testBootingDatabaseShutdownByAnotherCLR(org.apache.derbyTesting.functionTests.tests.store.ClassLoaderBootTest)","class_goldset":["java.client.org.apache.derby.client.am.LogWriter"],"file_goldset":["java.client.org.apache.derby.client.am.LogWriter"],"creation_date":"2013-04-02T18:14:31.000+0000","resolution_date":"2013-04-02T21:30:05.000+0000"}
{"id":127,"bug_id":"DERBY-6150","text":"Add automatic cleanup of connections opened with openDefaultConnection(). In JDBCBaseTestCase, the default connection is automatically rolled back and closed but connections opened with openDefaultConnection() can stay open and hold locks and affect other tests if the database can not be cleaned because locks are held.  openDefaultConnection()  tearDown()","class_goldset":["java.testing.org.apache.derbyTesting.junit.BaseJDBCTestCase"],"file_goldset":["java.testing.org.apache.derbyTesting.junit.BaseJDBCTestCase"],"creation_date":"2013-04-04T00:58:03.000+0000","resolution_date":"2013-04-07T13:41:09.000+0000"}
