{"id":65,"bug_id":"DERBY-4624","text":"Broken logic for avoiding testing across midnight in TimestampArithTest. 2 If the current time is after 23:58 and before 23:59, the code sleeps until 23:59, the test will wait until 23:59 before it starts, making it even more likely that it will cross midnight while running. 3 The code is executed after the Calendar object has been initialized, so if this code is ever triggered and waits until after midnight, the TODAY field is guaranteed to be yesterday when the test starts executing. while (calendar.get(Calendar.HOUR) \u003d\u003d 23\n\t\t\t\t\t\t\u0026\u0026 calendar.get(Calendar.MINUTE) \u003e\u003d 58) {\n\t\t\t\t\ttry {\n\t\t\t\t\t\tThread.sleep((60 - calendar.get(Calendar.SECOND)) * 1000);\n\t\t\t\t\t} catch (InterruptedException ie) {\n\t\t\t\t\t\t// ignore it\n\t\t\t\t\t}\n\t\t\t\t}\n\n calendar.get(Calendar.HOUR)  calendar.get(Calendar.HOUR)","class_goldset":["org.apache.derbyTesting.functionTests.tests.lang.TimestampArithTest"],"file_goldset":["org.apache.derbyTesting.functionTests.tests.lang.TimestampArithTest"],"creation_date":"2010-04-21T10:30:55.000+0000","resolution_date":"2010-05-19T07:57:41.000+0000"}
{"id":66,"bug_id":"DERBY-4654","text":"Restriction.toSQL() doesn\u0027t escape special characters. org.apache.derby.vti.Restriction.toSQL() adds double quotes around column names, but it does not escape the special characters (like double quotes) in the column names, so the returned string may not be valid SQL.   org.apache.derby.vti.Restriction.toSQL()  Restriction.doubleQuote()  IdUtil.normalToDelimited()","class_goldset":["org.apache.derby.vti.Restriction","org.apache.derbyTesting.functionTests.tests.lang.RestrictedVTITest"],"file_goldset":["org.apache.derby.vti.Restriction","org.apache.derbyTesting.functionTests.tests.lang.RestrictedVTITest"],"creation_date":"2010-05-12T10:27:40.000+0000","resolution_date":"2010-05-14T09:01:50.000+0000"}
{"id":67,"bug_id":"DERBY-4664","text":"Change Derby internal stored procedures to avoid DriverManager.getConnection(\"jdbc:default:connection\") as it may be recognized by other Drivers. Some Derby internal Stored procedures and functions call DriverManager.getConnection(\"jdbc:default:connection\"); and this url can be recognized by another Driver in the same classpath that is used for server side JDBC for another product. For example the below occurred in NetworkServer when JCC was also loaded because the JCC Type 2 driver is used for server side JDBC:                                    DriverManager.getConnection(\"jdbc:default:connection\");  SystemProcedures.getDefaultConn()  InternalDriver.activeDriver()","class_goldset":["org.apache.derby.impl.jdbc.LOBStoredProcedure"],"file_goldset":["org.apache.derby.impl.jdbc.LOBStoredProcedure"],"creation_date":"2010-05-18T23:56:12.000+0000","resolution_date":"2010-05-26T00:21:26.000+0000"}
{"id":68,"bug_id":"DERBY-4665","text":"Unidiomatic error handling in TimestampArithTest. TimestampArithTest contains some error handling code that prevents the underlying error from being reported to the JUnit framework, and it may even terminate the JVM running the tests on some errors.        printStackTrace(sqle);\n\t\t\t\t\tfail(\"Unexpected exception from statement \u0027\" + sql + \"\u0027\");\n\n {\n\t\t\tSystem.out.println(s + \" is not a proper timestamp string.\");\n\t\t\tSystem.out.println(e.getClass().getName() + \": \" + e.getMessage());\n\t\t\te.printStackTrace();\n\t\t\tSystem.exit(1);\n\t\t\treturn null;\n\t\t}","class_goldset":["org.apache.derbyTesting.functionTests.tests.lang.TimestampArithTest","org.apache.derbyTesting.functionTests.tests.lang.TimestampArithTest.OneTest"],"file_goldset":["org.apache.derbyTesting.functionTests.tests.lang.TimestampArithTest","org.apache.derbyTesting.functionTests.tests.lang.TimestampArithTest.OneTest"],"creation_date":"2010-05-19T08:12:33.000+0000","resolution_date":"2010-05-19T14:01:43.000+0000"}
{"id":72,"bug_id":"DERBY-4718","text":" Correct wrong main() method in LocalizedDisplayScriptTest and LocalizedAttributeScriptTest. There are \"public static void main()\" in both LocalizedDisplayScriptTest and LocalizedAttributeScriptTest. Obviously, the two medthods have wrong signature, they don\u0027t have \"String[] args\". public static void main()","class_goldset":["org.apache.derbyTesting.functionTests.tests.i18n.LocalizedAttributeScriptTest","org.apache.derbyTesting.functionTests.tests.i18n.LocalizedDisplayScriptTest"],"file_goldset":["org.apache.derbyTesting.functionTests.tests.i18n.LocalizedAttributeScriptTest","org.apache.derbyTesting.functionTests.tests.i18n.LocalizedDisplayScriptTest"],"creation_date":"2010-06-28T07:48:44.000+0000","resolution_date":"2010-06-28T10:16:03.000+0000"}
{"id":79,"bug_id":"DERBY-4835","text":"Trigger plan does not recompile with upgrade from 10.5.3.0 to 10.6.1.0 causing  java.lang.NoSuchMethodError. Trigger plan does not recompile on upgrade from 10.5.3.0 to 10.6.1.0  causing the following exception  the first time the trigger is fired after upgrade.                                 tidlggls(blt_number,create_date,update_date,propagation_date,glossary_status,\n     time_stamp,min_max_size )\n  tidlrblt(BLT,BLT_SIZE,MIN_MAX_SIZE)  GeneratedMe\nthod; if (fromVersion.majorVersionNumber \u003e\u003d DataDictionary.DD_VERSION_DERBY_10_5)\n\t\t\t\tbootingDictionary.updateMetadataSPSes(tc);\n\t\t\telse\n\t\t\t\tbootingDictionary.clearSPSPlans();\n\n clearSPSPlans()","class_goldset":["org.apache.derby.impl.sql.catalog.DD_Version","org.apache.derbyTesting.functionTests.tests.upgradeTests.BasicSetup"],"file_goldset":["org.apache.derby.impl.sql.catalog.DD_Version","org.apache.derbyTesting.functionTests.tests.upgradeTests.BasicSetup"],"creation_date":"2010-10-06T16:05:13.000+0000","resolution_date":"2010-10-15T18:13:00.000+0000"}
{"id":80,"bug_id":"DERBY-4873","text":"NullPointerException in testBoundaries with ibm jvm 1.6 . With the line skipping the testBoundaries fixture of the InternationalConnectTest commented out, I get the following stack when I run the test with ibm 1.6:                                        testBoundaries(org.apache.derbyTesting.functionTests.tests.jdbcapi.InternationalConnectTest)","class_goldset":["org.apache.derby.impl.store.raw.data.BaseDataFileFactory"],"file_goldset":["org.apache.derby.impl.store.raw.data.BaseDataFileFactory"],"creation_date":"2010-10-28T23:45:13.000+0000","resolution_date":"2012-10-31T10:01:49.000+0000"}
{"id":81,"bug_id":"DERBY-4884","text":"DatabasePropertyTestSetup cannot change static properties in encrypted databases. DatabasePropertyTestSetup needs to reboot the database in order to set static properties. In tests with encrypted databases, the database cannot be rebooted because the boot password is only known inside the setUp() method of the decorator created by Decorator.encryptedDatabase(). One of the problems that results from this, is that BlobClob4Blob test cannot reduce the lock timeout for the encrypted variant of the test. Since there are four test cases that wait for a lock timeout, the test takes almost four minutes longer than it would have if the lock timeout had been reduced. setUp()  Decorator.encryptedDatabase()","class_goldset":["org.apache.derbyTesting.functionTests.tests.jdbcapi.BlobClob4BlobTest","org.apache.derbyTesting.functionTests.tests.jdbcapi.DatabaseMetaDataTest","org.apache.derbyTesting.functionTests.tests.lang.DeadlockModeTest","org.apache.derbyTesting.junit.Decorator","org.apache.derbyTesting.junit.DriverManagerConnector","org.apache.derbyTesting.junit.JDBCDataSource"],"file_goldset":["org.apache.derbyTesting.functionTests.tests.jdbcapi.BlobClob4BlobTest","org.apache.derbyTesting.functionTests.tests.jdbcapi.DatabaseMetaDataTest","org.apache.derbyTesting.functionTests.tests.lang.DeadlockModeTest","org.apache.derbyTesting.junit.Decorator","org.apache.derbyTesting.junit.DriverManagerConnector","org.apache.derbyTesting.junit.JDBCDataSource"],"creation_date":"2010-11-04T11:15:07.000+0000","resolution_date":"2010-11-09T10:18:30.000+0000"}
{"id":83,"bug_id":"DERBY-4889","text":"Different byte to boolean conversion on embedded and client. The following code prints \"true\" with the embedded driver and \"false\" with the client driver:   If setByte() is replaced with setInt(), they both print \"true\". PreparedStatement ps \u003d c.prepareStatement(\"values cast(? as boolean)\");\n        ps.setByte(1, (byte) 32);\n        ResultSet rs \u003d ps.executeQuery();\n        rs.next();\n        System.out.println(rs.getBoolean(1));\n\n If setByte()  setInt()","class_goldset":["org.apache.derby.impl.drda.DRDAConnThread","org.apache.derbyTesting.functionTests.tests.jdbcapi.ParameterMappingTest"],"file_goldset":["org.apache.derby.impl.drda.DRDAConnThread","org.apache.derbyTesting.functionTests.tests.jdbcapi.ParameterMappingTest"],"creation_date":"2010-11-06T01:06:56.000+0000","resolution_date":"2010-11-08T18:56:38.000+0000"}
{"id":84,"bug_id":"DERBY-4892","text":"Unsafe use of BigDecimal constructors. The problem appears when the build does not use the Java 1.4 libraries.   The compiled byte-code will therefore use those Java 5 constructors, and the code will fail at run-time if ever executed on a Java 1.4 JVM.    You\u0027ll see two errors of this kind:                  test_06_casts(org.apache.derbyTesting.functionTests.tests.lang.UDTTest)","class_goldset":["org.apache.derby.client.am.Cursor","org.apache.derbyTesting.functionTests.tests.lang.Price","org.apache.derbyTesting.system.oe.client.Submitter"],"file_goldset":["org.apache.derby.client.am.Cursor","org.apache.derbyTesting.functionTests.tests.lang.Price","org.apache.derbyTesting.system.oe.client.Submitter"],"creation_date":"2010-11-06T09:14:51.000+0000","resolution_date":"2010-11-08T08:03:10.000+0000"}
