{"id":131,"bug_id":"HHH-4617","text":"Using materialized blobs with Postgresql causes error. I have entity with byte[] property annotated as @Lob and lazy fetch type, when table is createad the created column is of type oid, but when the column is read in application, the Hibernate reads the OID value instead of bytes under given oid.  If i remember well, auto-creating table with Hibernate creates oid column.  @Lob","class_goldset":["org.hibernate.Hibernate","org.hibernate.cfg.annotations.SimpleValueBinder","org.hibernate.dialect.Dialect","org.hibernate.dialect.PostgreSQLDialect","org.hibernate.test.lob.ClobLocatorTest","org.hibernate.test.lob.MaterializedBlobTest","org.hibernate.type.BlobType","org.hibernate.type.CharacterArrayClobType","org.hibernate.type.ClobType","org.hibernate.type.MaterializedBlobType","org.hibernate.type.MaterializedClobType","org.hibernate.type.PrimitiveCharacterArrayClobType","org.hibernate.type.WrappedMaterializedBlobType"],"file_goldset":["org.hibernate.Hibernate","org.hibernate.cfg.annotations.SimpleValueBinder","org.hibernate.dialect.Dialect","org.hibernate.dialect.PostgreSQLDialect","org.hibernate.test.lob.ClobLocatorTest","org.hibernate.test.lob.MaterializedBlobTest","org.hibernate.type.BlobType","org.hibernate.type.CharacterArrayClobType","org.hibernate.type.ClobType","org.hibernate.type.MaterializedBlobType","org.hibernate.type.MaterializedClobType","org.hibernate.type.PrimitiveCharacterArrayClobType","org.hibernate.type.WrappedMaterializedBlobType"],"creation_date":"2009-11-28T09:42:08.000-0800","resolution_date":"2011-02-02T20:09:36.000-0800"}
{"id":132,"bug_id":"HHH-4647","text":"Problems with @JoinColumn referencedColumnName and quoted column and table names. #1: A referencedColumnName that references a quoted target column cannot be found.    #2: An invalid referencedColumnName (including the unquoted version of a valid column) results in an infinite loop in o.h.c.Configuration$MappingsImpl#getPhysicalColumnName().     testQuotedReferencedColumnName() getPhysicalColumnName() getLogicalColumnName()","class_goldset":["org.hibernate.cfg.Configuration.MappingsImpl","org.hibernate.test.annotations.backquotes.BackquoteTest"],"file_goldset":["org.hibernate.cfg.Configuration.MappingsImpl","org.hibernate.test.annotations.backquotes.BackquoteTest"],"creation_date":"2009-12-07T17:52:36.000-0800","resolution_date":"2010-07-03T10:18:23.000-0700"}
{"id":135,"bug_id":"HHH-5042","text":"TableGenerator does not increment hibernate_sequences.next_hi_value anymore after having exhausted the current lo-range. The problem in the new code is that only value get\u0027s incremented whilst variable lo is still used to check when a new hiVal must be obtained.   as lo is never incremented, MultipleHiLoPerTableGenerator continues to deliver numbers without ever update hibernate_sequences. next_hi_value on the database (only one unique update is propagates at the first insert) This lead to duplicate keys as soon another session from another sessionfactory tries to insert new objects on the concerning table.        class MultipleHiLoPerTableGenerator IntegralDataTypeHolder value;\n int lo;\n\n IntegralDataTypeHolder hiVal \u003d (IntegralDataTypeHolder) doWorkInNewTransaction( session );\n\n varchar(255) varchar(255)","class_goldset":["org.hibernate.id.MultipleHiLoPerTableGenerator","org.hibernate.id.SequenceGenerator","org.hibernate.id.SequenceHiLoGenerator","org.hibernate.id.enhanced.OptimizerFactory"],"file_goldset":["org.hibernate.id.MultipleHiLoPerTableGenerator","org.hibernate.id.SequenceGenerator","org.hibernate.id.SequenceHiLoGenerator","org.hibernate.id.enhanced.OptimizerFactory"],"creation_date":"2010-03-26T03:06:09.000-0700","resolution_date":"2010-05-11T14:27:32.000-0700"}
