{"id":216,"bug_id":"MAHOUT-1261","text":"TasteHadoopUtils.idToIndex can return an int that has size Integer.MAX_VALUE. The job fails because of an IndexException in ToUserVectorsReducer.  For some id (I don\u0027t know what value), the result returned is Integer.MAX_VALUE. This cannot be set in the userVector because the cardinality of that is also Integer.MAX_VALUE and it throws an exception. So, the issue is that values from 0 to INT_MAX are returned by idToIndex but the vector only has 0 to INT_MAX - 1 possible entries.     Longs.hashCode(id)","class_goldset":["core.src.main.java.org.apache.mahout.cf.taste.hadoop.TasteHadoopUtils"],"file_goldset":["core.src.main.java.org.apache.mahout.cf.taste.hadoop.TasteHadoopUtils"],"creation_date":"2013-06-13T15:09:15.000+0000","resolution_date":"2013-11-28T14:47:19.000+0000"}
{"id":219,"bug_id":"MAHOUT-1314","text":"StreamingKMeansReducer throws NullPointerException when REDUCE_STREAMING_KMEANS is set to true. when REDUCE_STREAMING_KMEANS option is set to true (-rskm) the reducer fails with NullPointerException.     full stack trace:              return input.getCentroid();  input.getCentroid() clone();","class_goldset":["core.src.main.java.org.apache.mahout.clustering.streaming.mapreduce.StreamingKMeansReducer"],"file_goldset":["core.src.main.java.org.apache.mahout.clustering.streaming.mapreduce.StreamingKMeansReducer"],"creation_date":"2013-08-18T14:07:48.000+0000","resolution_date":"2013-11-18T07:53:51.000+0000"}
{"id":220,"bug_id":"MAHOUT-1317","text":"Clarify some of the messages in Preconditions.checkArgument. Here, it is known that the actual issue is that the parameter must be zero (or negative), not just that it\u0027s \"incorrect\", and a (trivial) change to the error message might save some folks some time... especially newbies like myself.  Preconditions.checkArgument(maxSimilaritiesPerRow \u003e 0, \"Incorrect maximum number of similarities per row!\");","class_goldset":["core.src.main.java.org.apache.mahout.cf.taste.hadoop.als.SolveExplicitFeedbackMapper","core.src.main.java.org.apache.mahout.cf.taste.hadoop.als.SolveImplicitFeedbackMapper","core.src.main.java.org.apache.mahout.cf.taste.hadoop.similarity.item.ItemSimilarityJob","core.src.main.java.org.apache.mahout.cf.taste.impl.common.SamplingLongPrimitiveIterator","core.src.main.java.org.apache.mahout.cf.taste.impl.common.WeightedRunningAverage","core.src.main.java.org.apache.mahout.cf.taste.impl.eval.AbstractDifferenceRecommenderEvaluator","core.src.main.java.org.apache.mahout.cf.taste.impl.eval.GenericRecommenderIRStatsEvaluator","core.src.main.java.org.apache.mahout.cf.taste.impl.eval.IRStatisticsImpl","core.src.main.java.org.apache.mahout.cf.taste.impl.recommender.SamplingCandidateItemsStrategy","core.src.main.java.org.apache.mahout.cf.taste.impl.recommender.TopItems","core.src.main.java.org.apache.mahout.cf.taste.impl.similarity.GenericItemSimilarity","core.src.main.java.org.apache.mahout.cf.taste.impl.similarity.GenericUserSimilarity","core.src.main.java.org.apache.mahout.classifier.df.data.DataConverter","core.src.main.java.org.apache.mahout.classifier.df.data.DataLoader","core.src.main.java.org.apache.mahout.classifier.df.data.Dataset","core.src.main.java.org.apache.mahout.classifier.df.mapreduce.partial.Step1Mapper","core.src.main.java.org.apache.mahout.classifier.df.mapreduce.partial.TreeID","core.src.main.java.org.apache.mahout.classifier.naivebayes.training.WeightsMapper","core.src.main.java.org.apache.mahout.clustering.kmeans.RandomSeedGenerator","core.src.main.java.org.apache.mahout.clustering.streaming.mapreduce.StreamingKMeansDriver","core.src.main.java.org.apache.mahout.common.iterator.SamplingIterator","core.src.main.java.org.apache.mahout.math.Varint","core.src.main.java.org.apache.mahout.math.hadoop.similarity.cooccurrence.RowSimilarityJob","core.src.main.java.org.apache.mahout.math.neighborhood.BruteSearch","core.src.main.java.org.apache.mahout.math.neighborhood.FastProjectionSearch","core.src.main.java.org.apache.mahout.math.neighborhood.ProjectionSearch","core.src.test.java.org.apache.mahout.math.neighborhood.SearchQualityTest","core.src.test.java.org.apache.mahout.math.neighborhood.SearchQualityTest.StripWeight","examples.src.main.java.org.apache.mahout.cf.taste.example.kddcup.KDDCupDataModel","integration.src.main.java.org.apache.mahout.cf.taste.impl.model.cassandra.CassandraDataModel","integration.src.main.java.org.apache.mahout.cf.taste.impl.model.mongodb.MongoDBDataModel","integration.src.main.java.org.apache.mahout.utils.SplitInput","integration.src.main.java.org.apache.mahout.utils.vectors.lucene.LuceneIterator","math.src.main.java.org.apache.mahout.math.CholeskyDecomposition","math.src.main.java.org.apache.mahout.math.als.AlternatingLeastSquaresSolver","math.src.main.java.org.apache.mahout.math.random.ChineseRestaurant","math.src.main.java.org.apache.mahout.math.random.Empirical"],"file_goldset":["core.src.main.java.org.apache.mahout.cf.taste.hadoop.als.SolveExplicitFeedbackMapper","core.src.main.java.org.apache.mahout.cf.taste.hadoop.als.SolveImplicitFeedbackMapper","core.src.main.java.org.apache.mahout.cf.taste.hadoop.similarity.item.ItemSimilarityJob","core.src.main.java.org.apache.mahout.cf.taste.impl.common.SamplingLongPrimitiveIterator","core.src.main.java.org.apache.mahout.cf.taste.impl.common.WeightedRunningAverage","core.src.main.java.org.apache.mahout.cf.taste.impl.eval.AbstractDifferenceRecommenderEvaluator","core.src.main.java.org.apache.mahout.cf.taste.impl.eval.GenericRecommenderIRStatsEvaluator","core.src.main.java.org.apache.mahout.cf.taste.impl.eval.IRStatisticsImpl","core.src.main.java.org.apache.mahout.cf.taste.impl.recommender.SamplingCandidateItemsStrategy","core.src.main.java.org.apache.mahout.cf.taste.impl.recommender.TopItems","core.src.main.java.org.apache.mahout.cf.taste.impl.similarity.GenericItemSimilarity","core.src.main.java.org.apache.mahout.cf.taste.impl.similarity.GenericUserSimilarity","core.src.main.java.org.apache.mahout.classifier.df.data.DataConverter","core.src.main.java.org.apache.mahout.classifier.df.data.DataLoader","core.src.main.java.org.apache.mahout.classifier.df.data.Dataset","core.src.main.java.org.apache.mahout.classifier.df.mapreduce.partial.Step1Mapper","core.src.main.java.org.apache.mahout.classifier.df.mapreduce.partial.TreeID","core.src.main.java.org.apache.mahout.classifier.naivebayes.training.WeightsMapper","core.src.main.java.org.apache.mahout.clustering.kmeans.RandomSeedGenerator","core.src.main.java.org.apache.mahout.clustering.streaming.mapreduce.StreamingKMeansDriver","core.src.main.java.org.apache.mahout.common.iterator.SamplingIterator","core.src.main.java.org.apache.mahout.math.Varint","core.src.main.java.org.apache.mahout.math.hadoop.similarity.cooccurrence.RowSimilarityJob","core.src.main.java.org.apache.mahout.math.neighborhood.BruteSearch","core.src.main.java.org.apache.mahout.math.neighborhood.FastProjectionSearch","core.src.main.java.org.apache.mahout.math.neighborhood.ProjectionSearch","core.src.test.java.org.apache.mahout.math.neighborhood.SearchQualityTest","core.src.test.java.org.apache.mahout.math.neighborhood.SearchQualityTest.StripWeight","examples.src.main.java.org.apache.mahout.cf.taste.example.kddcup.KDDCupDataModel","integration.src.main.java.org.apache.mahout.cf.taste.impl.model.cassandra.CassandraDataModel","integration.src.main.java.org.apache.mahout.cf.taste.impl.model.mongodb.MongoDBDataModel","integration.src.main.java.org.apache.mahout.utils.SplitInput","integration.src.main.java.org.apache.mahout.utils.vectors.lucene.LuceneIterator","math.src.main.java.org.apache.mahout.math.CholeskyDecomposition","math.src.main.java.org.apache.mahout.math.als.AlternatingLeastSquaresSolver","math.src.main.java.org.apache.mahout.math.random.ChineseRestaurant","math.src.main.java.org.apache.mahout.math.random.Empirical"],"creation_date":"2013-08-23T18:05:58.000+0000","resolution_date":"2013-11-22T20:56:55.000+0000"}
{"id":221,"bug_id":"MAHOUT-1320","text":"BallKMeansTest.testClustering is unstable. From time to time this test fails with following in build log:          Here is a bit more of build log output, which also shows other tests were running in parallel with this one:                                                                                                                                                                {noformat}\n testClustering(org.apache.mahout.clustering.streaming.cluster.BallKMeansTest)   {noformat}\n\n\n {noformat}\n testClustering(org.apache.mahout.clustering.streaming.cluster.BallKMeansTest)   {noformat}","class_goldset":["core.src.test.java.org.apache.mahout.clustering.streaming.cluster.BallKMeansTest","core.src.test.java.org.apache.mahout.clustering.streaming.cluster.DataUtils","core.src.test.java.org.apache.mahout.clustering.streaming.cluster.StreamingKMeansTest","core.src.test.java.org.apache.mahout.clustering.streaming.mapreduce.StreamingKMeansTestMR"],"file_goldset":["core.src.test.java.org.apache.mahout.clustering.streaming.cluster.BallKMeansTest","core.src.test.java.org.apache.mahout.clustering.streaming.cluster.DataUtils","core.src.test.java.org.apache.mahout.clustering.streaming.cluster.StreamingKMeansTest","core.src.test.java.org.apache.mahout.clustering.streaming.mapreduce.StreamingKMeansTestMR"],"creation_date":"2013-08-29T09:07:09.000+0000","resolution_date":"2013-09-17T18:36:11.000+0000"}
{"id":222,"bug_id":"MAHOUT-1336","text":"HighDFWordsPrunerTest is failing silently. Apparently ToolRunner does not allow the --mapred option. The validation is not very foolproof, so there is a resulting silent failure in HighDFWordsPrunerTest. Error message:                {noformat}\n {noformat}","class_goldset":["core.src.test.java.org.apache.mahout.vectorizer.HighDFWordsPrunerTest"],"file_goldset":["core.src.test.java.org.apache.mahout.vectorizer.HighDFWordsPrunerTest"],"creation_date":"2013-09-17T04:35:54.000+0000","resolution_date":"2013-09-17T05:48:18.000+0000"}
{"id":224,"bug_id":"MAHOUT-1349","text":"Clusterdumper/loadTermDictionary crashes when highest index in (sparse) dictionary vector is larger than dictionary vector size?. The kmeans ran fine and generate sensible looking results, but when I tried\nto run ClusterDumper I got the following error:                                       It worked fine when I reduced the hash size to be \u003c\u003d than the total number\nof features, but this is not desirable in general (for me) since I don\u0027t\nknow the number of features before I run the job (and if I guess too high\nthen ClusterDumper crashes)  OpenObjectIntHashMap dict \u003d new OpenObjectIntHashMap();\n//...\n  String [] dictionary \u003d new String[dict.size()];","class_goldset":["integration.src.main.java.org.apache.mahout.utils.vectors.VectorHelper"],"file_goldset":["integration.src.main.java.org.apache.mahout.utils.vectors.VectorHelper"],"creation_date":"2013-11-01T12:59:17.000+0000","resolution_date":"2013-12-08T23:35:34.000+0000"}
{"id":225,"bug_id":"MAHOUT-1358","text":"StreamingKMeansThread throws IllegalArgumentException when REDUCE_STREAMING_KMEANS is set to true. Running StreamingKMeans Clustering with REDUCE_STREAMING_KMEANS \u003d true and when no estimatedDistanceCutoff is specified, throws the following error                            {Code}\n\n {Code}\n\n StreamingKMeansThread.call()\n\n {Code}\n     Iterator\u003cCentroid\u003e datapointsIterator \u003d datapoints.iterator();\n    if (estimateDistanceCutoff \u003d\u003d StreamingKMeansDriver.INVALID_DISTANCE_CUTOFF) {\n      List\u003cCentroid\u003e estimatePoints \u003d Lists.newArrayListWithExpectedSize(NUM_ESTIMATE_POINTS);\n      while (datapointsIterator.hasNext() \u0026\u0026 estimatePoints.size() \u003c NUM_ESTIMATE_POINTS) {\n        estimatePoints.add(datapointsIterator.next());\n      }\n      estimateDistanceCutoff \u003d ClusteringUtils.estimateDistanceCutoff(estimatePoints, searcher.getDistanceMeasure());\n    }\n\n    StreamingKMeans clusterer \u003d new StreamingKMeans(searcher, numClusters, estimateDistanceCutoff);\n    while (datapointsIterator.hasNext()) {\n      clusterer.cluster(datapointsIterator.next());\n    }\n{Code}","class_goldset":["core.src.main.java.org.apache.mahout.clustering.streaming.mapreduce.StreamingKMeansThread"],"file_goldset":["core.src.main.java.org.apache.mahout.clustering.streaming.mapreduce.StreamingKMeansThread"],"creation_date":"2013-11-18T07:58:22.000+0000","resolution_date":"2013-11-18T17:55:25.000+0000"}
{"id":226,"bug_id":"MAHOUT-1396","text":"Accidental use of commons-math won\u0027t work with next Hadoop 2 release. So this will no longer compile against the latest Hadoop. I believe it will also not actually run again the latest Hadoop, even if one were to use a version compiled versus older Hadoop 2, since the class that uses it is used in the context of Writables -- that is, outside the client environment that might happen to have packaged commons-math -- and so would fail on the cluster.     import org.apache.commons.math.special.Gamma;","class_goldset":["core.src.main.java.org.apache.mahout.classifier.sgd.TPrior"],"file_goldset":["core.src.main.java.org.apache.mahout.classifier.sgd.TPrior"],"creation_date":"2014-01-15T08:02:41.000+0000","resolution_date":"2014-01-15T17:30:41.000+0000"}
