{"id":342,"bug_id":"ZOOKEEPER-1535","text":"ZK Shell/Cli re-executes last command on exit. In the ZK 3.4.3 release\u0027s version of zkCli.sh, the last command that was executed is *re*-executed when you {{ctrl+d}} out of the shell. In the snippet below, {{ls}} is executed, and then {{ctrl+d}} is triggered (inserted below to illustrate), the output from {{ls}} appears again, due to the command being re-run.       {{ctrl+d}}  {{ls}}  {{ctrl+d}}  {{ls}}  {noformat}\n {noformat}","class_goldset":["src.java.main.org.apache.zookeeper.ZooKeeperMain"],"file_goldset":["src.java.main.org.apache.zookeeper.ZooKeeperMain"],"creation_date":"2012-08-14T23:56:40.000+0000","resolution_date":"2012-12-31T03:21:28.000+0000"}
{"id":344,"bug_id":"ZOOKEEPER-1619","text":"Allow spaces in URL. Currently, spaces are not allowed in the url.   This format will not (notice the spaces around the comma)   {code}\n {code}\n\n {code}\n {code}","class_goldset":["src.java.main.org.apache.zookeeper.client.ConnectStringParser"],"file_goldset":["src.java.main.org.apache.zookeeper.client.ConnectStringParser"],"creation_date":"2013-01-11T15:57:16.000+0000","resolution_date":"2013-01-25T06:55:00.000+0000"}
{"id":346,"bug_id":"ZOOKEEPER-1642","text":"Leader loading database twice. The leader server currently loads the database before running leader election when trying to figure out the zxid it needs to use for the election and again when it starts leading.    getLastLoggedZxid()  loadData()","class_goldset":["src.java.main.org.apache.zookeeper.server.ZooKeeperServer"],"file_goldset":["src.java.main.org.apache.zookeeper.server.ZooKeeperServer"],"creation_date":"2013-02-08T10:30:06.000+0000","resolution_date":"2013-05-16T17:33:30.000+0000"}
{"id":349,"bug_id":"ZOOKEEPER-1700","text":"FLETest consistently failing - setLastSeenQuorumVerifier seems to be hanging. I\u0027m consistently seeing a failure on my laptop when running the FLETest \"testJoin\" test. What seems to be happening is that the call to setLastSeenQuorumVerifier is hanging. See the following log from the test, notice 17:35:57 for the period in question. Note that I turned on debug logging and added a few log messages around the call to setLastSeenQuorumVerifier (you can see the code enter but never leave)                             {noformat}\n {noformat}","class_goldset":["src.java.test.org.apache.zookeeper.test.FLETest"],"file_goldset":["src.java.test.org.apache.zookeeper.test.FLETest"],"creation_date":"2013-05-08T00:43:31.000+0000","resolution_date":"2013-05-11T12:51:43.000+0000"}
{"id":352,"bug_id":"ZOOKEEPER-1753","text":"ClientCnxn is not properly releasing the resources, which are used to ping RwServer. These are not properly closed in finally block and could cause leaks on exceptional cases.   pingRwServer()\n{code}\n             try {\n                Socket sock \u003d new Socket(addr.getHostName(), addr.getPort());\n                BufferedReader br \u003d new BufferedReader(\n                        new InputStreamReader(sock.getInputStream()));\n                ......\n                sock.close();\n                br.close();\n            } catch (ConnectException e) {\n                // ignore, this just means server is not up\n            } catch (IOException e) {\n                // some unexpected error, warn about it\n                LOG.warn(\"Exception while seeking for r/w server \" +\n                        e.getMessage(), e);\n            }\n {code}","class_goldset":["src.java.main.org.apache.zookeeper.ClientCnxn"],"file_goldset":["src.java.main.org.apache.zookeeper.ClientCnxn"],"creation_date":"2013-09-05T14:37:15.000+0000","resolution_date":"2013-09-18T13:15:20.000+0000"}
{"id":353,"bug_id":"ZOOKEEPER-1755","text":"Concurrent operations of four letter \u0027dump\u0027 ephemeral command and killSession causing NPE. Potential problem occurs, when executing four letter \u0027dump\u0027 command and at the meantime zkserver has triggered session closure and removing the related information from the DataTree. Please see the exception:      {code}\n {code}","class_goldset":["src.java.main.org.apache.zookeeper.server.DataTree","src.java.test.org.apache.zookeeper.server.DataTreeUnitTest","src.java.test.org.apache.zookeeper.test.DataTreeTest"],"file_goldset":["src.java.main.org.apache.zookeeper.server.DataTree","src.java.test.org.apache.zookeeper.server.DataTreeUnitTest","src.java.test.org.apache.zookeeper.test.DataTreeTest"],"creation_date":"2013-09-07T18:12:11.000+0000","resolution_date":"2014-02-19T01:38:55.000+0000"}
{"id":355,"bug_id":"ZOOKEEPER-1774","text":"QuorumPeerMainTest fails consistently with \"complains about host\" assertion failure. QuorumPeerMainTest fails consistently with \"complains about host\" assertion failure.                                                          {noformat}\n {noformat}","class_goldset":["src.java.test.org.apache.zookeeper.server.quorum.QuorumPeerMainTest"],"file_goldset":["src.java.test.org.apache.zookeeper.server.quorum.QuorumPeerMainTest"],"creation_date":"2013-10-01T23:14:39.000+0000","resolution_date":"2013-10-08T05:28:27.000+0000"}
{"id":356,"bug_id":"ZOOKEEPER-1781","text":"ZooKeeper Server fails if snapCount is set to 1 . If snapCount is set to 1, ZooKeeper Server can start but it fails with the below error:            int randRoll \u003d r.nextInt(snapCount/2);\n{code}","class_goldset":["src.java.main.org.apache.zookeeper.server.ZooKeeperServer"],"file_goldset":["src.java.main.org.apache.zookeeper.server.ZooKeeperServer"],"creation_date":"2013-10-04T01:19:27.000+0000","resolution_date":"2013-10-07T23:38:49.000+0000"}
