{"id":6607,"bug_id":"COMPRESS-244","text":"7z reading of UINT64 data type is wrong for big values. ","file_goldset":["org.apache.commons.compress.archivers.sevenz.SevenZFile"],"creation_date":"2013-11-25T12:36:51.000-06:00","resolution_date":"2013-11-27T05:36:33.000-06:00"}
{"id":6608,"bug_id":"COMPRESS-245","text":"TarArchiveInputStream#getNextTarEntry returns null prematurely. ","file_goldset":["org.apache.commons.compress.archivers.tar.TarArchiveInputStreamTest","org.apache.commons.compress.archivers.tar.TarArchiveInputStream"],"creation_date":"2013-12-05T11:01:39.000-06:00","resolution_date":"2013-12-06T05:23:51.000-06:00"}
{"id":6609,"bug_id":"COMPRESS-252","text":"Writing 7z empty entries produces incorrect or corrupt archive. ","file_goldset":["org.apache.commons.compress.archivers.sevenz.SevenZOutputFileTest","org.apache.commons.compress.archivers.sevenz.SevenZOutputFile"],"creation_date":"2013-12-18T16:12:34.000-06:00","resolution_date":"2014-01-08T05:19:52.000-06:00"}
