{"id":6610,"bug_id":"COMPRESS-276","text":"NullPointerException in ZipArchiveOutputStream with invalid entries. ","file_goldset":["org.apache.commons.compress.archivers.sevenz.SevenZFile","org.apache.commons.compress.archivers.sevenz.SevenZOutputFile","org.apache.commons.compress.archivers.dump.DumpArchiveInputStream","org.apache.commons.compress.archivers.tar.TarArchiveInputStream","org.apache.commons.compress.archivers.tar.TarArchiveOutputStream","org.apache.commons.compress.archivers.arj.ArjArchiveInputStream","org.apache.commons.compress.archivers.zip.ZipArchiveOutputStream"],"creation_date":"2014-04-11T05:03:17.000-05:00","resolution_date":"2014-04-13T08:33:29.000-05:00"}
{"id":6611,"bug_id":"COMPRESS-273","text":"NullPointerException when creation fields/entries from scratch. ","file_goldset":["org.apache.commons.compress.archivers.cpio.CpioArchiveEntry","org.apache.commons.compress.archivers.zip.UnrecognizedExtraField","org.apache.commons.compress.archivers.zip.ExtraFieldUtils","org.apache.commons.compress.archivers.zip.AbstractUnicodeExtraField"],"creation_date":"2014-04-11T04:13:32.000-05:00","resolution_date":"2014-04-18T14:14:16.000-05:00"}
{"id":6612,"bug_id":"COMPRESS-278","text":"Incorrect handling of NUL username and group Tar.gz entries. ","file_goldset":["org.apache.commons.compress.archivers.tar.TarUtilsTest","org.apache.commons.compress.archivers.tar.TarUtils"],"creation_date":"2014-04-18T16:09:05.000-05:00","resolution_date":"2014-04-19T06:01:10.000-05:00"}
