{"id":6705,"bug_id":"DATACMNS-68","text":"NullPointerException in AbstractPersistentProperty::getComponentType(). ","file_goldset":["org.springframework.data.util.ClassTypeInformation"],"creation_date":"2011-08-26T08:05:09.000-05:00","resolution_date":"2011-08-31T12:08:41.000-05:00"}
{"id":6706,"bug_id":"DATACMNS-19","text":"Invalid entity metadata when domain class implements persistable. ","file_goldset":["org.springframework.data.repository.PagingAndSortingRepository","org.springframework.data.repository.Repository"],"creation_date":"2011-02-28T02:07:47.000-06:00","resolution_date":"2011-03-02T00:11:20.000-06:00"}
{"id":6707,"bug_id":"DATACMNS-42","text":"MappingContext does not map BigDecimal correctly. ","file_goldset":["org.springframework.data.mapping.MappingBeanHelper"],"creation_date":"2011-06-03T20:44:13.000-05:00","resolution_date":"2011-06-06T15:52:18.000-05:00"}
{"id":6708,"bug_id":"DATACMNS-57","text":"Use of parameterized type in constructor_ arguments is not supported. ","file_goldset":["org.springframework.data.util.TypeDiscoverer","org.springframework.data.util.TypeDiscovererUnitTests"],"creation_date":"2011-07-26T08:39:54.000-05:00","resolution_date":"2011-07-28T08:48:21.000-05:00"}
