{"id":6782,"bug_id":"DATAMONGO-430","text":"Query criteria is not considered in the query. ","file_goldset":["org.springframework.data.mongodb.core.QueryMapper","org.springframework.data.mongodb.core.query.QueryMapperUnitTests"],"creation_date":"2012-04-10T03:35:56.000-05:00","resolution_date":"2012-04-10T07:38:52.000-05:00"}
{"id":6783,"bug_id":"DATAMONGO-315","text":"MongoTemplate.findOne(query) methods ignore SortOrder on query. ","file_goldset":["org.springframework.data.mongodb.core.MongoTemplateTests","org.springframework.data.mongodb.core.MongoTemplate"],"creation_date":"2011-11-09T10:21:33.000-06:00","resolution_date":"2011-11-14T20:30:06.000-06:00"}
{"id":6784,"bug_id":"DATAMONGO-321","text":"An ID field of type integer is always saved as zero if not set by the user before calling save.  Throw exception to indicate an int field will not be autopopulated.. ","file_goldset":["org.springframework.data.mongodb.core.convert.AbstractMongoConverter","org.springframework.data.mongodb.core.convert.MappingMongoConverterUnitTests","org.springframework.data.mongodb.core.QueryMapper","org.springframework.data.mongodb.core.convert.CustomConversions","org.springframework.data.mongodb.core.query.QueryMapperUnitTests","org.springframework.data.mongodb.core.convert.MappingMongoConverter"],"creation_date":"2011-11-17T01:53:43.000-06:00","resolution_date":"2011-12-01T08:54:08.000-06:00"}
{"id":6785,"bug_id":"DATAMONGO-392","text":"Updating an object does not write type information for objects to be updated. ","file_goldset":["org.springframework.data.mongodb.core.MongoTemplateTests","org.springframework.data.mongodb.core.MongoTemplate"],"creation_date":"2012-02-07T04:28:15.000-06:00","resolution_date":"2013-07-08T06:13:48.000-05:00"}
{"id":6786,"bug_id":"DATAMONGO-322","text":"Throw exception in a save operation if the POJO\u0027s ID field is null and field type is not String, BigInteger or ObjectId.. ","file_goldset":["org.springframework.data.mongodb.repository.support.MongoRepositoryFactory","org.springframework.data.mongodb.repository.support.MongoRepositoryFactoryUnitTests","org.springframework.data.mongodb.core.MongoTemplateUnitTests","org.springframework.data.mongodb.core.MongoTemplate","org.springframework.data.mongodb.core.mapping.MongoSimpleTypes"],"creation_date":"2011-11-17T01:56:47.000-06:00","resolution_date":"2011-12-06T10:44:13.000-06:00"}
{"id":6787,"bug_id":"DATAMONGO-346","text":"MongoTemplate.remove(Object arg) not working. ","file_goldset":["org.springframework.data.mongodb.core.QueryMapper","org.springframework.data.mongodb.core.MongoTemplateTests"],"creation_date":"2011-12-10T04:44:04.000-06:00","resolution_date":"2011-12-14T11:32:32.000-06:00"}
{"id":6788,"bug_id":"DATAMONGO-260","text":"MapReduce fails when using with Long as key-type.. ","file_goldset":["org.springframework.data.mongodb.core.convert.AbstractMongoConverter","org.springframework.data.mongodb.core.mapreduce.MapReduceTests"],"creation_date":"2011-09-05T01:06:36.000-05:00","resolution_date":"2011-12-21T23:35:41.000-06:00"}
{"id":6789,"bug_id":"DATAMONGO-387","text":"Executing query methods with GeoPage results doesn\u0027t work. ","file_goldset":["org.springframework.data.mongodb.repository.query.AbstractMongoQuery","org.springframework.data.mongodb.repository.query.MongoQueryCreator","org.springframework.data.mongodb.repository.AbstractPersonRepositoryIntegrationTests","org.springframework.data.mongodb.repository.query.PartTreeMongoQuery","org.springframework.data.mongodb.repository.PersonRepository"],"creation_date":"2012-02-01T05:16:08.000-06:00","resolution_date":"2012-02-01T05:46:00.000-06:00"}
{"id":6790,"bug_id":"DATAMONGO-385","text":"MongoRepositoryFactory does not support id classes of type java.lang.Long. ","file_goldset":["org.springframework.data.mongodb.repository.support.MongoRepositoryFactoryUnitTests"],"creation_date":"2012-01-26T05:13:31.000-06:00","resolution_date":"2012-02-02T01:41:00.000-06:00"}
{"id":6791,"bug_id":"DATAMONGO-398","text":"Fails to store org.osgi.service.event.Event. ","file_goldset":["org.springframework.data.mongodb.core.convert.MappingMongoConverterUnitTests","org.springframework.data.mongodb.core.convert.MappingMongoConverter"],"creation_date":"2012-02-10T07:11:53.000-06:00","resolution_date":"2012-02-10T07:22:05.000-06:00"}
