{"id":6800,"bug_id":"DATAMONGO-663","text":"org.springframework.data.mongodb.core.query.Field needs an equals method. ","file_goldset":["org.springframework.data.mongodb.core.query.Field"],"creation_date":"2013-04-24T03:21:19.000-05:00","resolution_date":"2013-04-26T06:47:53.000-05:00"}
{"id":6801,"bug_id":"DATAMONGO-688","text":"There is no precedence between @Id annotation and field named \"id\" - both are attempted to be used. ","file_goldset":["org.springframework.data.mongodb.core.mapping.MongoPersistentProperty","org.springframework.data.mongodb.core.mapping.MongoMappingContextUnitTests","org.springframework.data.mongodb.core.mapping.BasicMongoPersistentEntity","org.springframework.data.mongodb.core.mapping.BasicMongoPersistentProperty"],"creation_date":"2013-06-03T14:11:53.000-05:00","resolution_date":"2013-07-08T03:12:11.000-05:00"}
{"id":6802,"bug_id":"DATAMONGO-702","text":"Spring Data MongoDB projection search, is not properly configured with respective Java Pojo. ","file_goldset":["org.springframework.data.mongodb.core.MongoTemplateTests","org.springframework.data.mongodb.core.MongoTemplate"],"creation_date":"2013-06-20T00:12:30.000-05:00","resolution_date":"2013-07-09T02:35:34.000-05:00"}
{"id":6803,"bug_id":"DATAMONGO-717","text":"Application context is not properly distributed to persistent entities. ","file_goldset":["org.springframework.data.mongodb.config.AbstractMongoConfigurationUnitTests"],"creation_date":"2013-07-10T11:13:46.000-05:00","resolution_date":"2013-07-10T14:09:31.000-05:00"}
{"id":6804,"bug_id":"DATAMONGO-721","text":"Polymorphic attribute type not persisted on update operations. ","file_goldset":["org.springframework.data.mongodb.core.convert.QueryMapper"],"creation_date":"2013-07-11T11:36:06.000-05:00","resolution_date":"2013-07-16T04:40:15.000-05:00"}
