{"id":6882,"bug_id":"SWARM-586","text":"IllegalStateException when accessing monitoring endpoints. ","file_goldset":["org.wildfly.swarm.monitor.runtime.HttpContexts"],"creation_date":"2016-08-04T14:47:13.000-05:00","resolution_date":"2016-08-05T02:22:44.000-05:00"}
{"id":6883,"bug_id":"SWARM-564","text":"Can\u0027t get underlying PostgreSQL database connection from datasource. ","file_goldset":["org.wildfly.swarm.datasources.DatasourcesFraction"],"creation_date":"2016-07-14T18:54:23.000-05:00","resolution_date":"2016-08-20T02:03:27.000-05:00"}
{"id":6884,"bug_id":"SWARM-479","text":"Hot Swap of static content for JAXRSArchive doesn\u0027t work. ","file_goldset":["org.wildfly.swarm.jaxrs.internal.DefaultJAXRSWarDeploymentFactory"],"creation_date":"2016-05-23T18:39:03.000-05:00","resolution_date":"2016-06-01T19:42:56.000-05:00"}
{"id":6885,"bug_id":"SWARM-485","text":"Using a JAX-RS provider that extends JacksonJaxbJsonProvider throws a  java.lang.NoClassDefFoundError Link Error. ","file_goldset":["org.wildfly.swarm.jaxrs.JAXRSArquillianTest"],"creation_date":"2016-05-26T18:01:46.000-05:00","resolution_date":"2016-06-02T03:48:53.000-05:00"}
{"id":6886,"bug_id":"SWARM-500","text":"Can\u0027t Run javaee7-samples Stateless EJB Example. ","file_goldset":["org.wildfly.swarm.ejb.remote.EJBRemoteFraction"],"creation_date":"2016-06-07T00:59:12.000-05:00","resolution_date":"2016-06-16T18:12:43.000-05:00"}
{"id":6887,"bug_id":"SWARM-528","text":"swarm.http.port and swarm.port.offset do not work with @ArquillianResource URL baseURL. ","file_goldset":["org.wildfly.swarm.arquillian.resources.SwarmURLResourceProvider"],"creation_date":"2016-06-22T02:53:46.000-05:00","resolution_date":"2016-07-21T12:11:11.000-05:00"}
{"id":6888,"bug_id":"SWARM-486","text":"Can\u0027t load project-stages.yml on classpath with Arq. ","file_goldset":["org.wildfly.swarm.container.ProjectStagesTest"],"creation_date":"2016-05-28T18:25:37.000-05:00","resolution_date":"2016-07-27T08:33:48.000-05:00"}
{"id":6889,"bug_id":"SWARM-553","text":"Error with logging fraction when using PeriodicSizeRotatingFileHandler. ","file_goldset":["org.wildfly.swarm.container.runtime.RuntimeServer"],"creation_date":"2016-07-08T19:50:16.000-05:00","resolution_date":"2016-07-29T06:31:15.000-05:00"}
