{"id":7142,"bug_id":"WFCORE-1607","text":"Removing children of security-realm always finishes with {\"outcome\" \u003d\u003e \"success\"}. ","file_goldset":["org.jboss.as.domain.management.security.SecurityRealmChildRemoveHandler"],"creation_date":"2016-06-17T12:23:38.000-05:00","resolution_date":"2016-07-07T02:45:16.000-05:00"}
{"id":7143,"bug_id":"WFCORE-1354","text":"Cannot clone a profile with a remoting subsystem but no io subsystem. ","file_goldset":["org.jboss.as.subsystem.test.AbstractSubsystemBaseTest","org.jboss.as.remoting.RemotingExtension"],"creation_date":"2016-02-03T00:19:08.000-06:00","resolution_date":"2016-02-15T20:05:47.000-06:00"}
{"id":7144,"bug_id":"WFCORE-1346","text":"extension remove reports sucess even if the extension does not exist. ","file_goldset":["org.jboss.as.controller.extension.ExtensionRemoveHandler","org.wildfly.core.test.standalone.extension.remove.ExtensionRemoveTestCase"],"creation_date":"2016-02-02T07:24:08.000-06:00","resolution_date":"2016-03-22T01:00:41.000-05:00"}
{"id":7145,"bug_id":"WFCORE-1765","text":"unclear NullPointerException if the deployment-scanner element is removed from the configuration. ","file_goldset":["org.jboss.as.controller.ParallelBootOperationStepHandler"],"creation_date":"2016-09-05T16:22:02.000-05:00","resolution_date":"2016-09-06T22:20:53.000-05:00"}
