{"id":7062,"bug_id":"WFCORE-1120","text":"Launcher sets \"-Djava.net.preferIPv4Stack\u003dtrue\" also with IPv6 profile. ","file_goldset":["org.wildfly.core.launcher.CommandBuilderTest","org.wildfly.core.launcher.Arguments"],"creation_date":"2015-11-10T12:21:50.000-06:00","resolution_date":"2015-11-17T16:48:53.000-06:00"}
{"id":7063,"bug_id":"WFCORE-1136","text":"Subsystem parser tests fail when woodstox parser is on classpath. ","file_goldset":["org.jboss.as.subsystem.test.transformers.subsystem.map_to_child_resource.TransformerAttachmentAndInspectModelSubsystemTestCase","org.jboss.as.subsystem.test.TestParser"],"creation_date":"2015-11-17T16:00:10.000-06:00","resolution_date":"2015-12-04T19:15:01.000-06:00"}
{"id":7064,"bug_id":"WFCORE-1134","text":"A java.lang.Error in Stage.DONE can lead to hangs. ","file_goldset":["org.jboss.as.controller.remote.ModelControllerClientOperationHandler","org.jboss.as.protocol.mgmt.ActiveOperationSupport","org.jboss.as.test.integration.domain.suites.DomainTestSuite","org.jboss.as.domain.controller.operations.coordination.DomainFinalResultHandler","org.jboss.as.protocol.mgmt.ManagementRequestContext","org.jboss.as.controller.remote.OperationAttachmentsProxy","org.jboss.as.controller.remote.TransactionalProtocolOperationHandler","org.jboss.as.protocol.mgmt.ActiveOperation","org.jboss.as.controller.logging.ControllerLogger","org.jboss.as.protocol.mgmt.ManagementResponseHeader","org.jboss.as.controller.remote.ResponseAttachmentInputStreamSupportTestCase","org.jboss.as.test.integration.domain.extension.ExtensionSetup","org.jboss.as.protocol.mgmt.AbstractMessageHandler"],"creation_date":"2015-11-16T21:40:20.000-06:00","resolution_date":"2015-12-16T22:49:00.000-06:00"}
