{"id":7057,"bug_id":"WFCORE-1188","text":"Exiting CLI requires stty sane command to be issued on Linux. ","file_goldset":["org.jboss.as.cli.impl.CommandContextImpl","org.jboss.as.cli.impl.Console"],"creation_date":"2015-12-04T23:12:51.000-06:00","resolution_date":"2015-12-16T22:46:12.000-06:00"}
{"id":7058,"bug_id":"WFCORE-1214","text":"Operation headers not propagated to domain servers when \u0027composite\u0027 op is used. ","file_goldset":["org.jboss.as.domain.controller.operations.coordination.OperationCoordinatorStepHandler","org.jboss.as.domain.controller.operations.coordination.DomainRolloutStepHandler"],"creation_date":"2015-12-11T23:17:45.000-06:00","resolution_date":"2015-12-16T22:48:39.000-06:00"}
{"id":7059,"bug_id":"WFCORE-1212","text":"TestModule does not clean up after itself properly. ","file_goldset":["org.jboss.as.test.module.util.TestModule"],"creation_date":"2015-12-11T18:04:50.000-06:00","resolution_date":"2015-12-16T22:55:15.000-06:00"}
{"id":7060,"bug_id":"WFCORE-1210","text":"Transformations are not triggered for aliases. ","file_goldset":["org.jboss.as.controller.registry.AliasEntry","org.jboss.as.controller.transform.TransformersImpl","org.jboss.as.controller.transform.CompositeOperationTransformer"],"creation_date":"2015-12-11T14:47:25.000-06:00","resolution_date":"2015-12-16T22:57:43.000-06:00"}
{"id":7061,"bug_id":"WFCORE-1198","text":"CLI does not resolve multiple properties if one property is undefined. ","file_goldset":["org.jboss.as.cli.parsing.ExpressionBaseState","org.jboss.as.cli.parsing.test.PropertyReplacementTestCase"],"creation_date":"2015-12-09T09:30:00.000-06:00","resolution_date":"2015-12-23T05:08:33.000-06:00"}
