{"id":7146,"bug_id":"WFCORE-1309","text":"Applying patch - \"no space available\" not specific enough. ","file_goldset":["org.jboss.as.patching.runner.PatchToolImpl","org.jboss.as.patching.IoUtils","org.jboss.as.patching.logging.PatchLogger"],"creation_date":"2016-01-19T13:43:54.000-06:00","resolution_date":"2016-02-03T08:13:21.000-06:00"}
{"id":7147,"bug_id":"WFCORE-1333","text":"Editing of default deployment scanner\u0027s relative-to attribute can cause server crash. ","file_goldset":["org.jboss.as.server.deployment.scanner.DeploymentScannerDefinition","org.jboss.as.server.deployment.scanner.logging.DeploymentScannerLogger"],"creation_date":"2016-01-27T03:12:39.000-06:00","resolution_date":"2016-04-07T00:21:18.000-05:00"}
{"id":7148,"bug_id":"WFCORE-1311","text":"WFCORE-893 Fix breaks mixed-domain. ","file_goldset":["org.jboss.as.remoting.RemotingExtension"],"creation_date":"2016-01-19T22:40:20.000-06:00","resolution_date":"2016-01-27T19:40:41.000-06:00"}
