{"id":7065,"bug_id":"WFCORE-1481","text":"list-add operation doesn\u0027t work on login-modules attribute. ","file_goldset":["org.jboss.as.controller.operations.global.WriteAttributeHandler","org.jboss.as.controller.AbstractWriteAttributeHandler","org.jboss.as.controller.operations.global.AbstractCollectionHandler","org.jboss.as.controller.operations.global.ReadAttributeHandler","org.jboss.as.controller.operation.global.EnhancedSyntaxTestCase","org.jboss.as.controller.operation.global.CollectionOperationsTestCase"],"creation_date":"2016-04-18T14:48:59.000-05:00","resolution_date":"2016-07-26T02:42:04.000-05:00"}
{"id":7066,"bug_id":"WFCORE-1428","text":"log-file.stream attribute is of type LONG but contains a string. ","file_goldset":["org.jboss.as.logging.LogFileResourceDefinition"],"creation_date":"2016-03-04T14:45:35.000-06:00","resolution_date":"2016-03-18T22:17:52.000-05:00"}
{"id":7067,"bug_id":"WFCORE-1439","text":"Allow for testsuite to pass on French OS. ","file_goldset":["org.jboss.as.test.manualmode.management.cli.ManagementOpTimeoutTestCase","org.jboss.as.server.deployment.scanner.XmlCompletionScannerTest","org.jboss.as.server.deployment.scanner.XmlCompletionScanner","org.jboss.as.test.integration.mgmt.access.ConfigurationChangesHistoryTestCase","org.jboss.as.server.deployment.scanner.logging.DeploymentScannerLogger","org.jboss.as.test.integration.mgmt.access.ValidateAddressOrOperationTestCase","org.jboss.as.test.integration.domain.suites.ResponseStreamTestCase"],"creation_date":"2016-03-17T15:20:26.000-05:00","resolution_date":"2016-03-18T22:18:45.000-05:00"}
{"id":7068,"bug_id":"WFCORE-1437","text":"Using JKS truststore leads to \"FIPS mode: only SunJSSE TrustManagers may be used\". ","file_goldset":["org.jboss.as.domain.management.security.FileTrustManagerService"],"creation_date":"2016-03-16T17:00:04.000-05:00","resolution_date":"2016-03-19T00:44:11.000-05:00"}
{"id":7069,"bug_id":"WFCORE-1452","text":"Socket binding resources do not register a requirement for their interface. ","file_goldset":["org.jboss.as.server.services.net.SocketBindingAddHandler","org.jboss.as.server.services.net.BindingAddHandler","org.jboss.as.server.services.net.BindingInterfaceHandler"],"creation_date":"2016-03-28T21:29:48.000-05:00","resolution_date":"2016-03-30T14:44:25.000-05:00"}
{"id":7070,"bug_id":"WFCORE-1453","text":"module patched in a one-off not included in the next cp is not port-forwarded from the prev cp. ","file_goldset":["org.jboss.as.patching.runner.PatchingTasks","org.jboss.as.patching.runner.PatchMergeUnitTestCase","org.jboss.as.patching.runner.PatchingTask","org.jboss.as.patching.runner.PatchingTaskDescription","org.jboss.as.patching.runner.IdentityPatchRunner","org.jboss.as.test.patching.CPRollingbackOneOffTestCase","org.jboss.as.patching.metadata.ModuleItem","org.jboss.as.patching.runner.IdentityPatchContext"],"creation_date":"2016-03-29T20:21:07.000-05:00","resolution_date":"2016-03-31T15:57:24.000-05:00"}
{"id":7071,"bug_id":"WFCORE-1464","text":"LogContexts are not removed for ear subdeployments. ","file_goldset":["org.jboss.as.logging.deployments.AbstractLoggingDeploymentProcessor"],"creation_date":"2016-04-05T16:34:51.000-05:00","resolution_date":"2016-04-05T20:52:05.000-05:00"}
{"id":7072,"bug_id":"WFCORE-1373","text":"Unable to specify custom configuration directory via -Djboss.server.config.dir. ","file_goldset":["org.wildfly.core.embedded.EmbeddedProcessFactory"],"creation_date":"2016-02-15T11:24:44.000-06:00","resolution_date":"2016-04-16T11:13:34.000-05:00"}
{"id":7073,"bug_id":"WFCORE-1493","text":"org.jboss.as.host.controller.Main.getHostSystemProperties() doesn\u0027t propagate -Djdk.launcher.addexports.%d\u003d%s value properly. ","file_goldset":["org.jboss.as.host.controller.Main"],"creation_date":"2016-04-20T20:05:27.000-05:00","resolution_date":"2016-05-20T03:11:49.000-05:00"}
