{"id":258,"bug_id":"PIG-2767","text":"PigStorage()  ;\nDESCRIBE dereferenced;\n\n nested_tuple.f3;\nDESCRIBE uses_dereferenced;\n\n {f1: int, nested_tuple: (f2: int,\nf3: int)} {f1: int, f2: int}","class_goldset":["src.org.apache.pig.newplan.logical.expression.DereferenceExpression","test.org.apache.pig.test.TestPigServer"],"file_goldset":["src.org.apache.pig.newplan.logical.expression.DereferenceExpression","test.org.apache.pig.test.TestPigServer"],"creation_date":"2012-06-25T14:11:20.000+0000","resolution_date":"2013-04-22T20:13:20.000+0000"}
{"id":259,"bug_id":"PIG-2828","text":"Object field1 \u003d o1.get(fieldNum);\n                Object field2 \u003d o2.get(fieldNum);\n                if (!typeFound) {\n                    datatype \u003d DataType.findType(field1);\n                    typeFound \u003d true;\n                }\n                return DataType.compare(field1, field2, datatype, datatype);","class_goldset":["src.org.apache.pig.builtin.TOP","src.org.apache.pig.data.DataType","test.org.apache.pig.test.TestNull"],"file_goldset":["src.org.apache.pig.builtin.TOP","src.org.apache.pig.data.DataType","test.org.apache.pig.test.TestNull"],"creation_date":"2012-07-19T10:03:16.000+0000","resolution_date":"2013-06-04T07:02:17.000+0000"}
{"id":261,"bug_id":"PIG-2970","text":"{noformat}\n {\n     4          sym \u003d daily.symbol;\n     5          uniq_sym \u003d distinct sym;\n     6          --ignoring uniq_sym result\n     7          generate group, daily;\n     8  } {noformat}","class_goldset":["src.org.apache.pig.PigServer","src.org.apache.pig.backend.hadoop.executionengine.HExecutionEngine","test.org.apache.pig.test.TestEvalPipelineLocal"],"file_goldset":["src.org.apache.pig.PigServer","src.org.apache.pig.backend.hadoop.executionengine.HExecutionEngine","test.org.apache.pig.test.TestEvalPipelineLocal"],"creation_date":"2012-10-12T20:58:03.000+0000","resolution_date":"2013-05-02T00:46:08.000+0000"}
{"id":262,"bug_id":"PIG-3060","text":"{code}\n {(t:chararray)} {\n  c1 \u003d foreach A generate FLATTEN(a1);\n  generate COUNT(c1);\n} ;\n{code}","class_goldset":["src.org.apache.pig.backend.hadoop.executionengine.physicalLayer.relationalOperators.POForEach","test.org.apache.pig.test.TestEvalPipelineLocal"],"file_goldset":["src.org.apache.pig.backend.hadoop.executionengine.physicalLayer.relationalOperators.POForEach","test.org.apache.pig.test.TestEvalPipelineLocal"],"creation_date":"2012-11-20T08:29:04.000+0000","resolution_date":"2013-04-08T18:16:12.000+0000"}
{"id":263,"bug_id":"PIG-3114","text":"{code:title\u003dtest.pig|borderStyle\u003dsolid}\n {\n    $C \u003d ORDER $QUERY BY total DESC, $A;\n}  AS total;\n\nqueries_ordered \u003d my_macro_1(queries_count, query);\n\n ;\n{code}","class_goldset":["src.org.apache.pig.PigServer","test.org.apache.pig.pigunit.PigTest","test.org.apache.pig.pigunit.pig.PigServer","test.org.apache.pig.test.pigunit.TestPigTest"],"file_goldset":["src.org.apache.pig.PigServer","test.org.apache.pig.pigunit.PigTest","test.org.apache.pig.pigunit.pig.PigServer","test.org.apache.pig.test.pigunit.TestPigTest"],"creation_date":"2013-01-04T01:49:42.000+0000","resolution_date":"2013-09-27T20:40:04.000+0000"}
{"id":265,"bug_id":"PIG-3267","text":"{code}\n ;\n{code}\n\n {code}\n {code}","class_goldset":["src.org.apache.pig.backend.hadoop.executionengine.physicalLayer.relationalOperators.POStore","test.org.apache.pig.test.TestMRCompiler"],"file_goldset":["src.org.apache.pig.backend.hadoop.executionengine.physicalLayer.relationalOperators.POStore","test.org.apache.pig.test.TestMRCompiler"],"creation_date":"2013-04-03T21:14:30.000+0000","resolution_date":"2013-04-12T00:30:56.000+0000"}
{"id":266,"bug_id":"PIG-3290","text":"{noformat}\n {noformat}","class_goldset":["src.org.apache.pig.newplan.logical.expression.DereferenceExpression"],"file_goldset":["src.org.apache.pig.newplan.logical.expression.DereferenceExpression"],"creation_date":"2013-04-23T17:28:01.000+0000","resolution_date":"2013-04-24T07:15:41.000+0000"}
{"id":267,"bug_id":"PIG-3292","text":"{code}\n {\n  y \u003d a.x;\n  pair \u003d cross a.x, y;\n  generate flatten(pair);\n}\n\n dump b;\n{code}\n\n {code}\n {code}\n\n {code}\n {\n  y \u003d foreach a generate -(-x);\n  pair \u003d cross a.x, y;\n  generate flatten(pair);\n}\n\n dump b;\n{code}","class_goldset":["src.org.apache.pig.newplan.logical.relational.LOCross","test.org.apache.pig.test.TestEvalPipelineLocal"],"file_goldset":["src.org.apache.pig.newplan.logical.relational.LOCross","test.org.apache.pig.test.TestEvalPipelineLocal"],"creation_date":"2013-04-24T08:06:41.000+0000","resolution_date":"2013-10-01T17:53:45.000+0000"}
{"id":268,"bug_id":"PIG-3310","text":"{code}\n as shop;\n\nEXPLAIN K;\nDUMP K;\n{code}\n\n {code}\n {code}\n\n {code}\n {code}\n {code}\n    {code}\n\n {code}\n {code}\n\n LOSplitOutput.getSchema()","class_goldset":["src.org.apache.pig.newplan.logical.relational.LOSplitOutput"],"file_goldset":["src.org.apache.pig.newplan.logical.relational.LOSplitOutput"],"creation_date":"2013-05-03T07:59:57.000+0000","resolution_date":"2013-05-30T18:57:12.000+0000"}
{"id":269,"bug_id":"PIG-3316","text":";\ndump A;","class_goldset":["src.org.apache.pig.builtin.ToDate","test.org.apache.pig.test.TestDefaultDateTimeZone"],"file_goldset":["src.org.apache.pig.builtin.ToDate","test.org.apache.pig.test.TestDefaultDateTimeZone"],"creation_date":"2013-05-08T19:01:36.000+0000","resolution_date":"2013-05-10T20:46:39.000+0000"}
{"id":270,"bug_id":"PIG-3329","text":"RANK b;\ndump d;","class_goldset":["src.org.apache.pig.backend.hadoop.executionengine.mapReduceLayer.MRCompiler","src.org.apache.pig.backend.hadoop.executionengine.mapReduceLayer.MapReduceOper"],"file_goldset":["src.org.apache.pig.backend.hadoop.executionengine.mapReduceLayer.MRCompiler","src.org.apache.pig.backend.hadoop.executionengine.mapReduceLayer.MapReduceOper"],"creation_date":"2013-05-17T03:44:41.000+0000","resolution_date":"2013-06-09T22:13:00.000+0000"}
{"id":273,"bug_id":"PIG-3379","text":"{code:title\u003dtemp.pig}\n {\n  DistinctDevices \u003d DISTINCT Events.deviceId;\n  nbDevices \u003d SIZE(DistinctDevices);\n\n  DistinctDevices \u003d FILTER Events BY eventName \u003d\u003d \u0027xuaHeartBeat\u0027;\n  nbDevicesWatching \u003d SIZE(DistinctDevices);\n\n  GENERATE $0*60000 as timeStamp, nbDevices as nbDevices, nbDevicesWatching as nbDevicesWatching;\n}\n GENERATE timeStamp;\ndescribe A;\n{code}\n {code}\n {code}","class_goldset":["src.org.apache.pig.PigServer","src.org.apache.pig.newplan.logical.expression.ProjectExpression","src.org.apache.pig.newplan.logical.relational.LOInnerLoad","src.org.apache.pig.parser.LogicalPlanBuilder","test.org.apache.pig.test.TestEvalPipeline2"],"file_goldset":["src.org.apache.pig.PigServer","src.org.apache.pig.newplan.logical.expression.ProjectExpression","src.org.apache.pig.newplan.logical.relational.LOInnerLoad","src.org.apache.pig.parser.LogicalPlanBuilder","test.org.apache.pig.test.TestEvalPipeline2"],"creation_date":"2013-07-16T18:37:26.000+0000","resolution_date":"2013-08-23T21:07:12.000+0000"}
{"id":276,"bug_id":"PIG-3495","text":"{code}\n PigStorage()  myfuncs.square(age);\ndump b;\n{code}","class_goldset":["src.org.apache.pig.scripting.ScriptEngine"],"file_goldset":["src.org.apache.pig.scripting.ScriptEngine"],"creation_date":"2013-10-02T21:40:25.000+0000","resolution_date":"2013-10-03T18:06:35.000+0000"}
{"id":277,"bug_id":"PIG-3510","text":";\n{code}\n{code:title\u003done filter}\n ;\n{code}","class_goldset":["src.org.apache.pig.newplan.logical.optimizer.LogicalPlanOptimizer"],"file_goldset":["src.org.apache.pig.newplan.logical.optimizer.LogicalPlanOptimizer"],"creation_date":"2013-10-09T23:02:45.000+0000","resolution_date":"2013-10-10T20:14:03.000+0000"}
