{"id":661,"bug_id":"CONFIGURATION-214","text":"bsh % p \u003d new org.apache.commons.configuration.PropertiesConfiguration();\nbsh % p.setProperty(\"foo\", 6);\nbsh % p.getLong(\"foo\");\n// Error: // Uncaught Exception: Method Invocation p.getLong : at Line: 3 : in file: \u003cunknown file\u003e : p .getLong ( \"foo\" )\n PropertyConverter.toLong()","file_goldset":["org.apache.commons.configuration.TestBaseConfiguration","org.apache.commons.configuration.PropertyConverter","org.apache.commons.configuration.TestPropertyConverter"],"creation_date":"2006-05-26T21:35:46.000-05:00","resolution_date":"2006-06-02T02:55:45.000-05:00"}
{"id":662,"bug_id":"CONFIGURATION-241","text":"clearProperty() ConfigurationFactory configurationFactory \u003d new ConfigurationFactory();\n configurationFactory.setConfigurationURL(configFileURL);\nConfiguration configuration \u003d ConfigurationFactory.getConfiguration();\nconfiguration.addConfigurationListener(new ConfigurationListener() {\n    public void configurationChanged(ConfigurationEvent e) \n{\n        System.out.println(e.getPropertyName() + \": \" + e.getPropertyValue());\n    }\n});\nSystem.out.println(configuration.getProperty(\"name.first\")); // prints \"Mike\"\n configuration.claerProperty(\"name.first\") ; // no output whatsoever\nSystem.out.println(configuration.getProperty(\"name.first\")); // prints \"null\"","file_goldset":["org.apache.commons.configuration.TestCompositeConfiguration","org.apache.commons.configuration.CompositeConfiguration"],"creation_date":"2006-12-02T00:03:48.000-06:00","resolution_date":"2006-12-02T18:45:38.000-06:00"}
{"id":663,"bug_id":"CONFIGURATION-259","text":"URL configURL \u003d getClass().getResource(configFile);\nConfigurationFactory factory \u003d new ConfigurationFactory();\nfactory.setConfigurationURL(configURL);\nmyConfig \u003d factory.getConfiguration();\n DefaultConfigurationBuilder builder \u003d new DefaultConfigurationBuilder();\n            builder.setURL(configURL);\n            myConfig \u003d builder.getConfiguration();","file_goldset":["org.apache.commons.configuration.ConfigurationFactory"],"creation_date":"2007-03-28T08:47:56.000-05:00","resolution_date":"2007-03-30T09:35:55.000-05:00"}
{"id":664,"bug_id":"CONFIGURATION-275","text":"ConfigurationUtils.append()","file_goldset":["org.apache.commons.configuration.AbstractConfiguration"],"creation_date":"2007-05-25T17:12:43.000-05:00","resolution_date":"2007-07-09T20:36:22.000-05:00"}
{"id":665,"bug_id":"CONFIGURATION-283","text":"import org.apache.commons.configuration.CombinedConfiguration;\nimport org.apache.commons.configuration.ConfigurationException;\nimport org.apache.commons.configuration.PropertiesConfiguration;\nimport junit.framework.TestCase;\npublic class TestProp extends TestCase {\n\tpublic void testprop() throws ConfigurationException \n{\n\t\t// test.properties contains :\n\t\t//    without_escape\u003daa,bb\n\t\t//    with_escape\u003daa\\,bb\n\t\t//    with_2escapes\u003daa\\\\,bb\n\t\t\n\t\tString prop_filename \u003d \"c:\\\\tmp\\\\test.properties\";\n\t\tPropertiesConfiguration properties_config \u003d new PropertiesConfiguration(prop_filename);\n\t\tCombinedConfiguration   combined_config   \u003d new CombinedConfiguration();\n\t\tcombined_config.addConfiguration(properties_config);\n\t\t\n\t\tSystem.out.println(\"Properties config\");\n\t\tSystem.out.println(properties_config.getString(\"without_escape\"));\n\t\tSystem.out.println(properties_config.getString(\"with_escape\"));\n\t\tSystem.out.println(properties_config.getString(\"with_2escapes\"));\n\n\t\tSystem.out.println(\"\\nCombined config\");\n\t\tSystem.out.println(combined_config.getString(\"without_escape\"));\n\t\tSystem.out.println(combined_config.getString(\"with_escape\"));\n\t\tSystem.out.println(combined_config.getString(\"with_2escapes\"));\n\t\t\n\t}\n}","file_goldset":["org.apache.commons.configuration.ConfigurationUtils","org.apache.commons.configuration.TestConfigurationUtils","org.apache.commons.configuration.TestCombinedConfiguration"],"creation_date":"2007-07-02T12:38:23.000-05:00","resolution_date":"2007-07-12T20:02:18.000-05:00"}
{"id":666,"bug_id":"CONFIGURATION-332","text":"public void testSaveWithDataConfiguration() throws ConfigurationException\n{\n    File file \u003d new File(\"target/testsave.properties\");\n    if (file.exists()) {\n        assertTrue(file.delete());\n    }\n\n    PropertiesConfiguration config \u003d new PropertiesConfiguration(file);\n\n    DataConfiguration dataConfig \u003d new DataConfiguration(config);\n\n    dataConfig.setProperty(\"foo\", \"bar\");\n    assertEquals(\"bar\", config.getProperty(\"foo\"));\n    config.save();\n\n    // reload the file\n    PropertiesConfiguration config2 \u003d new PropertiesConfiguration(file);\n    assertFalse(\"empty configuration\", config2.isEmpty());\n}","file_goldset":["org.apache.commons.configuration.DataConfiguration","org.apache.commons.configuration.TestPropertiesConfiguration"],"creation_date":"2008-07-04T15:54:10.000-05:00","resolution_date":"2008-08-01T19:48:30.000-05:00"}
{"id":667,"bug_id":"CONFIGURATION-347","text":"getKeys()","file_goldset":["org.apache.commons.configuration.TestFileConfiguration","org.apache.commons.configuration.AbstractFileConfiguration"],"creation_date":"2008-11-05T21:06:22.000-06:00","resolution_date":"2008-11-06T07:29:11.000-06:00"}
{"id":668,"bug_id":"CONFIGURATION-408","text":"public static void main(String[] args)\n  {\n    try\n    {\n\n      PropertiesConfiguration config \u003d new PropertiesConfiguration();     \n\n      File newProps \u003d new File(\"foo.properties\");\n\n      config.setProperty(\"foo\", \"http://www.google.com/\");     \n\n      config.save(newProps);\n\n      \n\n    }\n    catch (Exception e){}\n  }","file_goldset":["org.apache.commons.configuration.TestPropertiesConfiguration"],"creation_date":"2010-02-11T01:01:05.000-06:00","resolution_date":"2010-03-14T14:35:48.000-05:00"}
{"id":669,"bug_id":"CONFIGURATION-481","text":"{myvar}  combinedConfig.getConfiguration(\"test\") configurationAt(\"products/product[@name\u003d\u0027abc\u0027]\", true) getString(\"desc\")\n\n {myvar}","file_goldset":["org.apache.commons.configuration.TestDefaultConfigurationBuilder","org.apache.commons.configuration.DefaultConfigurationBuilder","org.apache.commons.configuration.interpol.ConfigurationInterpolator"],"creation_date":"2012-02-26T20:27:46.000-06:00","resolution_date":"2012-02-29T21:15:55.000-06:00"}
{"id":670,"bug_id":"CONFIGURATION-487","text":"DataConfiguration.get()  PropertyConverter.to()  get()","file_goldset":["org.apache.commons.configuration.PropertyConverter","org.apache.commons.configuration.TestDataConfiguration","org.apache.commons.configuration.TestPropertyConverter"],"creation_date":"2012-03-17T17:03:03.000-05:00","resolution_date":"2012-03-17T20:11:31.000-05:00"}
{"id":671,"bug_id":"CONFIGURATION-627","text":"builder \u003d\n\n        new FileBasedConfigurationBuilder\u003cXMLConfiguration\u003e(\n\n                XMLConfiguration.class)\n\n                        .configure(params.xml()\n\n                                .setFileName(\n\n                                        propsFile.getCanonicalPath())\n\n                                .setValidating(false));\n\n\n\nconfig \u003d builder.getConfiguration();\n\n\n\n private static boolean isPropertyWriteable(Object bean, String propName)  org.apache.commons.configuration2.AbstractConfiguration.setProperty(java.lang.String,java.lang.Object)","file_goldset":["org.apache.commons.configuration2.builder.TestPropertiesBuilderParametersImpl"],"creation_date":"2016-05-04T22:54:12.000-05:00","resolution_date":"2016-10-06T19:54:41.000-05:00"}
