{"id":725,"bug_id":"DATAMONGO-462","text":"@PersistenceConstructor","file_goldset":["org.springframework.data.mongodb.core.convert.MappingMongoConverterUnitTests","org.springframework.data.mongodb.core.convert.CustomConversions","org.springframework.data.mongodb.core.convert.MongoConverters","org.springframework.data.mongodb.core.convert.CustomConversionsUnitTests"],"creation_date":"2012-06-19T08:57:02.000-05:00","resolution_date":"2012-06-19T10:00:45.000-05:00"}
{"id":726,"bug_id":"DATAMONGO-1263","text":"class Book  class AbstractProduct  class ProductWrapper  class Catalog","file_goldset":["org.springframework.data.mongodb.core.index.MongoPersistentEntityIndexResolverUnitTests","org.springframework.data.mongodb.core.index.MongoPersistentEntityIndexResolver"],"creation_date":"2015-07-30T09:03:41.000-05:00","resolution_date":"2015-11-09T19:09:44.000-06:00"}
{"id":727,"bug_id":"DATAMONGO-938","text":"Criteria.where(\"location\") within(new Box(lowerLeft, upperRight));","file_goldset":["org.springframework.data.mongodb.core.mapreduce.MapReduceTests","org.springframework.data.mongodb.core.MongoTemplate"],"creation_date":"2014-05-21T06:09:48.000-05:00","resolution_date":"2014-06-17T22:56:12.000-05:00"}
{"id":728,"bug_id":"DATAMONGO-1290","text":"Optional\u003cSampleDomainObject\u003e findBySampleData(byte[] sampleDate) @Query(\"{ \u0027sampleData\u0027 : ?0 }\")\n\n\n\n\nOptional\u003cSampleDomainObject\u003e findBySampleDateWithAnnotation(byte[] sampleData)","file_goldset":["org.springframework.data.mongodb.repository.query.StringBasedMongoQuery","org.springframework.data.mongodb.repository.query.StringBasedMongoQueryUnitTests"],"creation_date":"2015-09-17T15:30:23.000-05:00","resolution_date":"2015-11-20T12:25:32.000-06:00"}
{"id":729,"bug_id":"DATAMONGO-467","text":"@Document @Id String id;\n\n\n\n\n\n\n QUser.id.eq(\"4f43b6a384aea4e77d403709\")","file_goldset":["org.springframework.data.mongodb.repository.support.SpringDataMongodbSerializerUnitTests"],"creation_date":"2012-06-24T08:58:49.000-05:00","resolution_date":"2012-06-25T04:13:59.000-05:00"}
{"id":730,"bug_id":"DATAMONGO-952","text":"@Query @Query(fields \u003d \"{ \u0027email\u0027 : 1 }\")\n\n\n\n\nUser findByEmail(String email)\n\n\n\n\n\n\n @Query","file_goldset":["org.springframework.data.mongodb.repository.query.PartTreeMongoQuery"],"creation_date":"2014-06-10T22:45:47.000-05:00","resolution_date":"2014-06-18T03:56:07.000-05:00"}
{"id":731,"bug_id":"DATAMONGO-1289","text":"@Id","file_goldset":["org.springframework.data.mongodb.repository.support.MongoRepositoryFactory","org.springframework.data.mongodb.repository.support.MappingMongoEntityInformation"],"creation_date":"2015-09-17T11:43:51.000-05:00","resolution_date":"2015-12-16T10:47:48.000-06:00"}
{"id":732,"bug_id":"DATAMONGO-969","text":"eq()  in() @Document\n\n\n\n\npublic class User {\n\n\n\n\n    @Id String id;\n\n\n\n\n}\n\n\n\n\n\n\n\n\n\n Collection\u003cString\u003e collection \u003d new ArrayList\u003c\u003e();\n\n\n\n\ncollection.add(\"abcdef.....\");\n\n\n\n\nIterable\u003cUser\u003e user \u003d userRepository.findAll(QUser.user.id.in(collection));","file_goldset":["org.springframework.data.mongodb.repository.support.SpringDataMongodbSerializerUnitTests","org.springframework.data.mongodb.repository.support.SpringDataMongodbSerializer","org.springframework.data.mongodb.repository.AbstractPersonRepositoryIntegrationTests"],"creation_date":"2014-06-26T16:28:13.000-05:00","resolution_date":"2014-07-09T12:48:45.000-05:00"}
{"id":733,"bug_id":"DATAMONGO-505","text":"class Entity {\n\n\n\n\n\n\n\n\n\n  Long id;\n\n\n\n\n  @DBRef\n\n\n\n\n  Property property;\n\n\n\n\n}\n\n\n\n\n\n\n\n\n\n class Property {\n\n\n\n\n  Long id;\n\n\n\n\n}\n\n\n\n\n\n\n\n\n\n interface EntityRepository extends Repository\u003cEntity, Long\u003e {\n\n\n\n\n\n\n\n\n\n  Entity findByPropertyIn(Property... property);\n\n\n\n\n}\n\n\n\n\n\n\n findByProperty()","file_goldset":["org.springframework.data.mongodb.repository.query.ConvertingParameterAccessorUnitTests","org.springframework.data.mongodb.repository.query.ConvertingParameterAccessor"],"creation_date":"2012-08-14T03:07:56.000-05:00","resolution_date":"2012-08-15T10:09:59.000-05:00"}
{"id":734,"bug_id":"DATAMONGO-1360","text":"query.addCriteria(where(\"createdDate\").lte(LocalDateTime.now()));","file_goldset":["org.springframework.data.mongodb.core.MongoTemplate","org.springframework.data.mongodb.core.geo.AbstractGeoSpatialTests","org.springframework.data.mongodb.core.Venue"],"creation_date":"2016-01-16T07:47:34.000-06:00","resolution_date":"2016-01-20T14:42:07.000-06:00"}
{"id":735,"bug_id":"DATAMONGO-987","text":"@Document @Document\n\n\n\n\nclass Parent {\n\n\n\n\n     @Id\n\n\n\n\n     private String id;\n\n\n\n\n     private String name;\n\n\n\n\n     @DBref(lazy\u003dtrue)\n\n\n\n\n     private Child child;\n\n\n\n\n\n\n\n\n\n    // getters and setters ommited\n\n\n\n\n}\n\n\n\n\n\n\n @Document\n\n\n\n\nclass Child {\n\n\n\n\n      @Id\n\n\n\n\n       private String id;\n\n\n\n\n       private String name;\n\n\n\n\n      //getters and setters ommited\n\n\n\n\n}\n\n\n\n\n\n\n Parent parent \u003d new Parent();\n\n\n\n\nparent.setName(\"Daddy\");\n\n\n\n\nmongoTemplate.save(parent); //ok, it is persisted like we expected.\n\n\n\n\n// Than we try to load this same entity from the database\n\n\n\n\nCriteria criteria \u003d Criteria.where(\"_id\").is(parent.getId());\n\n\n\n\nParent persisted \u003d mongoTemplate.findOne(new Query(criteria), Parent.class);\n\n\n\n\n// The child attribute should be null, right?\n\n\n\n\nassertNull(persisted.getChild()); // it fails","file_goldset":["org.springframework.data.mongodb.core.convert.MappingMongoConverter","org.springframework.data.mongodb.core.convert.DbRefMappingMongoConverterUnitTests"],"creation_date":"2014-07-14T12:01:52.000-05:00","resolution_date":"2014-07-17T06:20:13.000-05:00"}
{"id":736,"bug_id":"DATAMONGO-420","text":"@Query @Query { ?0 }\n { ?1 }\n someMethod( String values, String fields ) String values \u003d \"value : \u0027things\u0027\";\n   { \"value : \u0027things\u0027\" }\n   String values \u003d \"field : 0\";\n   { \"field : 0\" }\n   String values \u003d \"field\\\" : \\\"0\";","file_goldset":["org.springframework.data.mongodb.repository.query.StringBasedMongoQueryUnitTests","org.springframework.data.mongodb.repository.query.StringBasedMongoQuery"],"creation_date":"2012-03-22T10:09:35.000-05:00","resolution_date":"2014-07-17T12:51:47.000-05:00"}
{"id":737,"bug_id":"DATAMONGO-1288","text":"org.springframework.data.mongodb.core.query.Update.inc(String, Number)","file_goldset":["org.springframework.data.mongodb.core.convert.CustomConversions","org.springframework.data.mongodb.core.convert.MongoConverters","org.springframework.data.mongodb.core.convert.UpdateMapperUnitTests"],"creation_date":"2015-09-16T23:51:16.000-05:00","resolution_date":"2016-02-11T13:09:46.000-06:00"}
{"id":738,"bug_id":"DATAMONGO-523","text":"@TypeAlias @Document @TypeAlias","file_goldset":["org.springframework.data.mongodb.core.convert.MappingMongoConverterUnitTests"],"creation_date":"2012-09-01T03:39:51.000-05:00","resolution_date":"2012-09-03T06:26:10.000-05:00"}
{"id":739,"bug_id":"DATAMONGO-1053","text":"package com.instantly.pipeline.engine.model;\n\n\n\n\n\n\n\n\n\nimport javax.persistence.Id;\n\n\n\n\n\n\n\n\n\npublic class Foobar {\n\n\n\n\n\n\n\n\n\n    @Id\n\n\n\n\n    String id;\n\n\n\n\n    \n\n\n\n\n    private Number language;\n\n\n\n\n\n\n\n\n\n    public String getId() {\n\n\n\n\n        return id;\n\n\n\n\n    }\n\n\n\n\n\n\n\n\n\n    public void setId(String id) {\n\n\n\n\n        this.id \u003d id;\n\n\n\n\n    }\n\n\n\n\n\n\n\n\n\n    public Number getLanguage() {\n\n\n\n\n        return language;\n\n\n\n\n    }\n\n\n\n\n\n\n\n\n\n    public void setLanguage(Number language) {\n\n\n\n\n        this.language \u003d language;\n\n\n\n\n    }\n\n\n\n\n}","file_goldset":["org.springframework.data.mongodb.core.mapping.BasicMongoPersistentEntity","org.springframework.data.mongodb.core.mapping.BasicMongoPersistentEntityUnitTests"],"creation_date":"2014-09-12T12:14:49.000-05:00","resolution_date":"2014-10-10T02:32:22.000-05:00"}
{"id":740,"bug_id":"DATAMONGO-1438","text":"@Document","file_goldset":["org.springframework.data.mongodb.core.convert.MongoConvertersUnitTests","org.springframework.data.mongodb.core.convert.MongoConverters"],"creation_date":"2016-05-26T14:01:14.000-05:00","resolution_date":"2016-05-26T14:03:47.000-05:00"}
{"id":741,"bug_id":"DATAMONGO-1394","text":"public class Book {\n\n\n\n\n     @DBRef\n\n\n\n\n     private Library library;\n\n\n\n\n} \n\n\n\n\n\n\n\n\n\n\n\n\n public class Library {\n\n\n\n\n     @Id\n\n\n\n\n     private String id;\n\n\n\n\n}\n\n\n\n\n\n\n\n\n\n\n\n\n ;\n\n\n\n\nQBook book \u003d QBook.book;\n\n\n\n\nBooleanExpression exp \u003d book.library.id.eq(library_id);\n\n\n\n\n    \n\n\n\n\nList\u003cBook\u003e list \u003d bookRepository.findAll(exp);  // EMPTY\n\n\n\n\n\n\n Library library \u003d libraryRepository.findById(library_id);\n\n\n\n\nQBook book \u003d QBook.book;\n\n\n\n\nBooleanExpression exp \u003d book.library.eq(library);\n\n\n\n\n\n\n\n\n\nList\u003cBook\u003e list \u003d bookRepository.findAll(exp);  // EXPECTED ITEMS\n\n\n\n\n\n\n List\u003cBook\u003e list \u003d bookRepository.findByLibraryId(library_id) // EXPECTED ITEMS","file_goldset":["org.springframework.data.mongodb.repository.support.SpringDataMongodbSerializer","org.springframework.data.mongodb.repository.support.QuerydslRepositorySupportTests"],"creation_date":"2016-03-09T10:36:46.000-06:00","resolution_date":"2016-07-27T09:01:01.000-05:00"}
{"id":742,"bug_id":"DATAMONGO-585","text":"class which implements Runnable.  \nThose","file_goldset":["org.springframework.data.mongodb.core.MongoDbUtils"],"creation_date":"2012-12-01T08:28:43.000-06:00","resolution_date":"2012-12-03T02:47:10.000-06:00"}
{"id":743,"bug_id":"DATAMONGO-1068","text":"public class Room {\n\n\n\n\n\t\tprivate String name;\n\n\n\n\n\t\tprivate List\u003cDate\u003e occupied;\n\n\n\n\n\t}\n\n\n\n\n\n\n {\n\n\n\n\n\t\toccupied : {\n\n\n\n\n\t\t\t$not : {\n\n\n\n\n\t\t\t\t$elemMatch : {\n\n\n\n\n\t\t\t\t\t$gte : start,\n\n\n\n\n\t\t\t\t\t$lte : end\n\n\n\n\n\t\t\t\t}\n\n\n\n\n\t\t\t}\n\n\n\n\n\t\t}\n\n\n\n\n\t}\n\n\n\n\n\n\n Criteria c1 \u003d new Criteria().gte(start).lte(end);\n\n\n\n\n\tCriteria c \u003d Criteria.where(\"occupied\").not().elemMatch(c1);\n\n\n\n\n\n\n {\n\n\n\n\n\toccupied : {\n\n\n\n\n\t\t$not : {\n\n\n\n\n\t\t\t$elemMatch : {\n\n\n\n\n\t\t\t}\n\n\n\n\n\t\t}\n\n\n\n\n\t}\n\n\n\n\n}\n\n\n\n\n\n\n elemMatch(Criteria)","file_goldset":["org.springframework.data.mongodb.core.query.Criteria","org.springframework.data.mongodb.core.query.CriteriaTests"],"creation_date":"2014-10-08T19:43:32.000-05:00","resolution_date":"2014-10-21T03:27:47.000-05:00"}
{"id":744,"bug_id":"DATAMONGO-1050","text":"class A {\n\n\n\n\n private String id; //stored in mongo as \"id\"\n\n\n\n\n private String name;\n\n\n\n\n}\n\n\n\n\n\n\n\n\n\n class B {\n\n\n\n\n  private String id; // stored in mongo as \"_id\"\n\n\n\n\n  private List\u003cA\u003e innerDocs;\n\n\n\n\n}\n\n\n\n\n\n\n @Data @NoArgsConstructor","file_goldset":["org.springframework.data.mongodb.core.mapping.BasicMongoPersistentPropertyUnitTests","org.springframework.data.mongodb.core.convert.QueryMapperUnitTests","org.springframework.data.mongodb.core.convert.MappingMongoConverterUnitTests","org.springframework.data.mongodb.core.mapping.BasicMongoPersistentProperty"],"creation_date":"2014-09-09T03:41:12.000-05:00","resolution_date":"2014-11-10T07:19:13.000-06:00"}
{"id":745,"bug_id":"DATAMONGO-629","text":"Query q \u003d query {\n\n\n\n\n\t\t\"id\" : /zzz/\n\n\n\n\n\t} {\n\n\n\n\n\t\t\"count\" : \"test\",\n\n\n\n\n\t\t\"query\" : {\n\n\n\n\n\t\t\t\"_id\" : /zzz/\n\n\n\n\n\t\t}\n\n\n\n\n\t find()  count()","file_goldset":["org.springframework.data.mongodb.core.convert.QueryMapper","org.springframework.data.mongodb.core.MongoTemplateTests","org.springframework.data.mongodb.core.convert.QueryMapperUnitTests","org.springframework.data.mongodb.core.mapping.MongoMappingContext"],"creation_date":"2013-03-22T04:08:25.000-05:00","resolution_date":"2013-03-27T04:22:53.000-05:00"}
{"id":746,"bug_id":"DATAMONGO-1406","text":";\n\n\n\n\n\n\n@Document(collection \u003d \"Computer\")\n\n\n\n\npublic class Computer\n\n\n\n\n{\n\n\n\n\n   @Id\n\n\n\n\n   private String _id;\n\n\n\n\n\n\n\n\n\n   private String batchId;\n\n\n\n\n\n\n\n\n\n  @Field(\"stat\")\n\n\n\n\n   private String status;\n\n\n\n\n\n\n\n\n\n   @Field(\"disp\")\n\n\n\n\n   private List\u003cMonitor\u003e displays;\n\n\n\n\n\n\n\n\n\n   //setters and getters\n\n\n\n\n}\n\n\n\n\n\n\n\n\n\npublic class Monitor {\n\n\n\n\n   @Field(\"res\")\n\n\n\n\n   private String resolution;\n\n\n\n\n\n\n\n\n\n  // setters/getters\n\n\n\n\n}\n\n\n\n\n\n\n protected \u003cS, T\u003e List\u003cT\u003e doFind(String collectionName, DBObject query, DBObject fields, Class\u003cS\u003e entityClass,\n\n\n\n\n\t\t\tCursorPreparer preparer, DbObjectCallback\u003cT\u003e objectCallback)\n\n\n\n\n\n\n\n\n\n DBObject mappedQuery \u003d queryMapper.getMappedObject(query, entity);\n\n\n\n\n\n\n @Field @Field","file_goldset":["org.springframework.data.mongodb.core.convert.QueryMapper","org.springframework.data.mongodb.core.convert.QueryMapperUnitTests"],"creation_date":"2016-04-04T18:59:49.000-05:00","resolution_date":"2016-08-25T11:50:06.000-05:00"}
{"id":747,"bug_id":"DATAMONGO-1078","text":"@Query(\"{\u0027_id\u0027: {$in: ?0}}\")\n\n\n\n\nList\u003cUser\u003e findByUserIds(Collection\u003cMyUserId\u003e userIds) {$in: [ {_class:\"com.sampleuser.MyUserId\", userId:\"....\", sampleId:\"....\"}","file_goldset":["org.springframework.data.mongodb.core.MongoTemplate","org.springframework.data.mongodb.core.convert.MappingMongoConverter"],"creation_date":"2014-10-28T02:23:26.000-05:00","resolution_date":"2014-11-10T07:42:07.000-06:00"}
{"id":748,"bug_id":"DATAMONGO-1486","text":"Map\u003cInteger, Map\u003cPlatform, String\u003e\u003e descriptions \u003d new HashMap\u003c\u003e();\n\n\n\n\n\n\n public void setAlternateDescriptionMap(int compositeId, Map\u003cInteger, Map\u003cPlatform, String\u003e\u003e alternateDescriptionsMap) {\n\n\n\n\n\t\tQuery query \u003d new Query();\n\n\n\n\n\t\tquery.addCriteria(Criteria.where(\"_id\").is(compositeId));\n\n\n\n\n\t\tUpdate update \u003d new Update();\n\n\n\n\n\t\tupdate.set(\"alternateDescriptionMap\", alternateDescriptionsMap);\n\n\n\n\n\n\n\n\n\n\t\tcoreMongoTemplate.updateFirst(query, update, \"product\");\n\n\n\n\n\t}\n\n\n\n\n\n\n MappingMongoConverter.convertMongoType()","file_goldset":["org.springframework.data.mongodb.core.convert.MappingMongoConverter","org.springframework.data.mongodb.core.convert.UpdateMapperUnitTests"],"creation_date":"2016-09-07T16:46:53.000-05:00","resolution_date":"2016-09-08T08:31:45.000-05:00"}
{"id":749,"bug_id":"DATAMONGO-1088","text":"@Query(value \u003d \"{ embedded : { $in : ?0} }\")\n\n\n\n\n\tList\u003cFoo\u003e findByEmbeddedIn2(Collection\u003cEmbeddedObject\u003e c)","file_goldset":["org.springframework.data.mongodb.core.MongoTemplate","org.springframework.data.mongodb.core.convert.MappingMongoConverter"],"creation_date":"2014-11-07T03:08:58.000-06:00","resolution_date":"2014-11-12T23:11:42.000-06:00"}
{"id":750,"bug_id":"DATAMONGO-1498","text":"@JsonProperty(\"myDate\")\n\n\n\n\n    private DateTime myDate;\n\n\n\n\n\n\n @JsonUnwrapped @JsonProperty(\"myDate\")\n\n\n\n\n    @JsonUnwrapped\n\n\n\n\n    private DateTime myDate;\n\n\n\n\n\n\n @JsonUnwrapped","file_goldset":["org.springframework.data.mongodb.config.MongoAuditingRegistrar","org.springframework.data.mongodb.config.AuditingViaJavaConfigRepositoriesTests","org.springframework.data.mongodb.repository.config.MongoRepositoryConfigurationExtension"],"creation_date":"2016-09-25T22:21:26.000-05:00","resolution_date":"2016-09-28T14:34:11.000-05:00"}
{"id":751,"bug_id":"DATAMONGO-571","text":"Scenario CrudRepository.findOne()  @Version CrudRepository.save()  @Version","file_goldset":["org.springframework.data.mongodb.core.MongoTemplateTests","org.springframework.data.mongodb.core.query.Update"],"creation_date":"2012-11-09T08:00:10.000-06:00","resolution_date":"2013-04-11T03:05:45.000-05:00"}
{"id":752,"bug_id":"DATAMONGO-315","text":"Query query \u003d query(where(\"type\").is(\"ad\"));\nquery.sort().on(\"rawBidPrice\", Order.DESCENDING);\nAd ad \u003d mongoTemplate.findOne(query, Ad.class);\n query.getSortOrder() Query query \u003d query(where(\"type\").is(\"ad\"));\nquery.sort().on(\"rawBidPrice\", Order.DESCENDING);\nquery.limit(1);\nList\u003cAd\u003e ads \u003d mongoTemplate.find(query, Ad.class);\nAd ad \u003d ads.isEmpty() ? null : ads.get(0);","file_goldset":["org.springframework.data.mongodb.core.MongoTemplateTests","org.springframework.data.mongodb.core.MongoTemplate"],"creation_date":"2011-11-09T10:21:33.000-06:00","resolution_date":"2011-11-14T20:30:06.000-06:00"}
{"id":753,"bug_id":"DATAMONGO-1043","text":"@Document","file_goldset":["org.springframework.data.mongodb.repository.query.SimpleMongoEntityMetadata","org.springframework.data.mongodb.repository.query.MongoQueryMethod"],"creation_date":"2014-09-01T05:30:48.000-05:00","resolution_date":"2014-11-28T11:27:09.000-06:00"}
{"id":754,"bug_id":"DATAMONGO-1123","text":"public GeoResults\u003cMyObject\u003e findByTypeAndLocationNear(MyObjectType type, Point p, Distance distance) {\n\n\n\n\n   final NearQuery nearQuery \u003d NearQuery.near(p).maxDistance(distance);\n\n\n\n\n   log.info(\"{}\",nearQuery.toDBObject());\n\n\n\n\n   return mongoTemplate.geoNear(nearQuery, MyObject.class);\n\n\n\n\n}\n\n\n\n\n\n\n {@link GeoResults}  {@link NearQuery}","file_goldset":["org.springframework.data.mongodb.core.MongoOperations"],"creation_date":"2014-12-17T09:39:36.000-06:00","resolution_date":"2015-01-07T06:15:01.000-06:00"}
{"id":755,"bug_id":"DATAMONGO-346","text":"Method remove(Object arg)","file_goldset":["org.springframework.data.mongodb.core.QueryMapper","org.springframework.data.mongodb.core.MongoTemplateTests"],"creation_date":"2011-12-10T04:44:04.000-06:00","resolution_date":"2011-12-14T11:32:32.000-06:00"}
{"id":756,"bug_id":"DATAMONGO-1126","text":"getTotalElements()  getTotalPages()  @Document\n\n\n\n\npublic class Item {\n\n\n\n\n\n\n\n\n\n    @Id\n\n\n\n\n    private String id;\n\n\n\n\n    private String type;\n\n\n\n\n}\n\n\n\n\n\n\n\n\n\n\n\n\n public interface ItemRepository extends MongoRepository\u003cItem, String\u003e {\n\n\n\n\n\n\n\n\n\n    Page\u003cItem\u003e findByIdIn(Collection ids, Pageable pageable);\n\n\n\n\n    Page\u003cItem\u003e findByTypeIn(Collection types, Pageable pageable);\n\n\n\n\n}\n\n\n\n\n\n\n\n\n\n\n\n\n @RunWith(SpringJUnit4ClassRunner.class)\n\n\n\n\n@ContextConfiguration(classes \u003d {MongoDbConfig.class})\n\n\n\n\n@TransactionConfiguration(defaultRollback \u003d false)\n\n\n\n\npublic class TestPageableIdIn {\n\n\n\n\n\n\n\n\n\n    @Autowired\n\n\n\n\n    private ItemRepository itemRepository;\n\n\n\n\n    \n\n\n\n\n    private List\u003cString\u003e allIds \u003d new LinkedList\u003c\u003e();\n\n\n\n\n\n\n\n\n\n    @Before\n\n\n\n\n    public void setUp() {\n\n\n\n\n        itemRepository.deleteAll();\n\n\n\n\n        String[] types \u003d {\"SWORD\", \"SHIELD\", \"ARMOUR\"};\n\n\n\n\n\n\n\n\n\n        // 10 items per type\n\n\n\n\n        for (String type : types) {\n\n\n\n\n            for (int i \u003d 0; i \u003c 10; i++) {\n\n\n\n\n                String id \u003d UUID.randomUUID().toString();\n\n\n\n\n                allIds.add(id);\n\n\n\n\n                itemRepository.save(new Item(id, type));\n\n\n\n\n            }\n\n\n\n\n        }\n\n\n\n\n    }\n\n\n\n\n\n\n\n\n\n    @Test\n\n\n\n\n    public void testPageableIdIn() {\n\n\n\n\n        \n\n\n\n\n        Pageable pageable \u003d new PageRequest(0, 5);\n\n\n\n\n        \n\n\n\n\n        // expect 5 Items returned, total of 10 Items(SWORDS) in 2 Pages\n\n\n\n\n        Page\u003cItem\u003e results \u003d itemRepository.findByTypeIn(Arrays.asList(\"SWORD\"), pageable);\n\n\n\n\n        Assert.assertEquals(5, results.getContent().size());\n\n\n\n\n        Assert.assertEquals(10, results.getTotalElements());\n\n\n\n\n        Assert.assertEquals(2, results.getTotalPages());\n\n\n\n\n        \n\n\n\n\n        // expect 5 Items returned, total of 30 Items in 6 Pages\n\n\n\n\n        results \u003d itemRepository.findByIdIn(allIds, pageable);\n\n\n\n\n        Assert.assertEquals(5, results.getContent().size());\n\n\n\n\n        Assert.assertEquals(30, results.getTotalElements()); // this is returning 0\n\n\n\n\n        Assert.assertEquals(6, results.getTotalPages());     // this is returning 0\n\n\n\n\n    }\n\n\n\n\n}","file_goldset":["org.springframework.data.mongodb.repository.query.AbstractMongoQueryUnitTests","org.springframework.data.mongodb.repository.query.AbstractMongoQuery","org.springframework.data.mongodb.core.MongoOperations","org.springframework.data.mongodb.core.MongoTemplate","org.springframework.data.mongodb.repository.Person"],"creation_date":"2014-12-21T06:03:21.000-06:00","resolution_date":"2015-01-20T08:04:31.000-06:00"}
{"id":757,"bug_id":"DATAMONGO-1133","text":"@Field","file_goldset":["org.springframework.data.mongodb.core.aggregation.AggregationTests","org.springframework.data.mongodb.core.aggregation.TypeBasedAggregationOperationContextUnitTests"],"creation_date":"2015-01-07T00:20:51.000-06:00","resolution_date":"2015-05-25T05:03:59.000-05:00"}
{"id":758,"bug_id":"DATAMONGO-1202","text":"@Indexed","file_goldset":["org.springframework.data.mongodb.core.index.MongoPersistentEntityIndexCreatorIntegrationTests","org.springframework.data.mongodb.core.index.IndexResolver","org.springframework.data.mongodb.core.index.MongoPersistentEntityIndexCreator","org.springframework.data.mongodb.core.index.MongoPersistentEntityIndexResolver"],"creation_date":"2015-04-14T02:36:40.000-05:00","resolution_date":"2015-06-01T00:45:42.000-05:00"}
{"id":759,"bug_id":"DATAMONGO-663","text":"class Field  equals()  boolean fieldsEqual \u003d this.fieldSpec \u003d\u003d null ? that.fieldSpec \u003d\u003d null : this.fieldSpec.equals(that.fieldSpec);","file_goldset":["org.springframework.data.mongodb.core.query.Field"],"creation_date":"2013-04-24T03:21:19.000-05:00","resolution_date":"2013-04-26T06:47:53.000-05:00"}
{"id":760,"bug_id":"DATAMONGO-260","text":"class Foo {\n\n\n\n\n  String id;\n\n\n\n\n  Long number;\n\n\n\n\n  Long version;\n\n\n\n\n} \n\n\n\n\n\n\n function()  emit(this.number, this.version)\n\n\n\n\n function(key, values)  {\n\n\n\n\n\treturn Math.max.apply(Math, values);\n\n\n\n\n}","file_goldset":["org.springframework.data.mongodb.core.convert.AbstractMongoConverter","org.springframework.data.mongodb.core.mapreduce.MapReduceTests"],"creation_date":"2011-09-05T01:06:36.000-05:00","resolution_date":"2011-12-21T23:35:41.000-06:00"}
{"id":761,"bug_id":"DATAMONGO-1250","text":"@Document @Document\n\n\n\n\npublic class MyPersistantObject  public Allocation allocation;\n\n\n\n\n     public BigDecimal value;\n\n\n\n\n\n\n\n\n\n     private final String code;\n\n\n\n\n\n\n\n\n\n         Allocation(String code) {\n\n\n\n\n            this.code \u003d code;\n\n\n\n\n        }\n\n\n\n\n\n\n\n\n\n         public static Converter\u003cAllocation, String\u003e writer() {\n\n\n\n\n            return new Converter\u003cAllocation, String\u003e() {\n\n\n\n\n                public String convert(Allocation allocation) {\n\n\n\n\n                    return allocation.getCode();\n\n\n\n\n                }\n\n\n\n\n            };\n\n\n\n\n        }\n\n\n\n\n\n\n\n\n\n         public static Converter\u003cString, Allocation\u003e reader() {\n\n\n\n\n            return new Converter\u003cString, Allocation\u003e() {\n\n\n\n\n                public Allocation convert(String source) {\n\n\n\n\n                    return Allocation.getByCode(source);\n\n\n\n\n                }\n\n\n\n\n            };\n\n\n\n\n        }\n\n\n\n\n\n\n\n\n\n         public static Allocation getByCode(String code)  return AVAILABLE;\n\n\n\n\n                 return ALLOCATED;\n\n\n\n\n             throw new IllegalArgumentException(\"Unable to get Allocation from: \" + code);\n\n\n\n\n         public String getCode() {\n\n\n\n\n            return code;\n\n\n\n\n        }\n\n\n\n\n     @Bean\n\n\n\n\n    public CustomConversions customConversions() {\n\n\n\n\n        return new CustomConversions(Arrays.asList(\n\n\n\n\n                MyPersistantObject.Allocation.reader(),\n\n\n\n\n                MyPersistantObject.Allocation.writer()\n\n\n\n\n        ));\n\n\n\n\n    }\n\n\n\n\n\n\n @Test\n\n\n\n\n    public void testConversion() {\n\n\n\n\n        Update update;\n\n\n\n\n        Query query;\n\n\n\n\n        MyPersistantObject returned;\n\n\n\n\n        MyPersistantObject myPersistantObject \u003d new MyPersistantObject();\n\n\n\n\n        myPersistantObject.allocation \u003d AVAILABLE;\n\n\n\n\n        myPersistantObject.value \u003d new BigDecimal(1234567);\n\n\n\n\n\n\n\n\n\n        mongoTemplate.save(myPersistantObject);\n\n\n\n\n\n\n\n\n\n        // Check it was saved correctly - first with invalid allocation to confirm conversion in query\n\n\n\n\n        query \u003d query(where(\"allocation\").is(ALLOCATED));\n\n\n\n\n        assertThat(mongoTemplate.findOne(query, MyPersistantObject.class), is(nullValue()));\n\n\n\n\n\n\n\n\n\n        // Check it was saved correctly - now with valid allocation to confirm conversion in query\n\n\n\n\n        query \u003d query(where(\"allocation\").is(AVAILABLE));\n\n\n\n\n        returned \u003d mongoTemplate.findOne(query, MyPersistantObject.class);\n\n\n\n\n        assertThat(returned.allocation, is(AVAILABLE));\n\n\n\n\n        assertThat(returned.value.longValue(), is(1234567L));\n\n\n\n\n\n\n\n\n\n        try {\n\n\n\n\n            // Update allocation from constant - will fail\n\n\n\n\n            update \u003d update(\"allocation\", ALLOCATED);\n\n\n\n\n            mongoTemplate.updateMulti(query, update, MyPersistantObject.class);\n\n\n\n\n        } catch (Exception e) {\n\n\n\n\n            System.err.println(\"failed to convert allocation: java.lang.IllegalArgumentException: can\u0027t serialize class converter_test.MyPersistantObject$Allocation\");\n\n\n\n\n        }\n\n\n\n\n\n\n\n\n\n        // Update allocation from string value - succeeds\n\n\n\n\n        update \u003d update(\"allocation\", ALLOCATED.getCode());\n\n\n\n\n        mongoTemplate.updateMulti(query, update, MyPersistantObject.class);\n\n\n\n\n        // Check allocation update\n\n\n\n\n        query \u003d query(where(\"allocation\").is(ALLOCATED));\n\n\n\n\n        returned \u003d mongoTemplate.findOne(query, MyPersistantObject.class);\n\n\n\n\n        assertThat(returned.allocation, is(ALLOCATED));\n\n\n\n\n\n\n\n\n\n        // Update value only - will fail: Caused by: java.lang.IllegalArgumentException: Unable to get MyPersistantObject.Allocation from: 54321\n\n\n\n\n        // Tries to use MyPersistantObject.Allocation converter to String\n\n\n\n\n        update \u003d update(\"value\", new BigDecimal(54321));\n\n\n\n\n        mongoTemplate.updateMulti(query, update, MyPersistantObject.class);\n\n\n\n\n        // Check value update\n\n\n\n\n        returned \u003d mongoTemplate.findAll(MyPersistantObject.class).get(0);\n\n\n\n\n        assertThat(returned.value.longValue(), is(54321L));\n\n\n\n\n    }","file_goldset":["org.springframework.data.mongodb.core.convert.UpdateMapper","org.springframework.data.mongodb.core.convert.UpdateMapperUnitTests"],"creation_date":"2015-07-03T21:07:44.000-05:00","resolution_date":"2015-07-04T10:10:16.000-05:00"}
{"id":762,"bug_id":"DATAMONGO-688","text":"@Id","file_goldset":["org.springframework.data.mongodb.core.mapping.MongoPersistentProperty","org.springframework.data.mongodb.core.mapping.MongoMappingContextUnitTests","org.springframework.data.mongodb.core.mapping.BasicMongoPersistentEntity","org.springframework.data.mongodb.core.mapping.BasicMongoPersistentProperty"],"creation_date":"2013-06-03T14:11:53.000-05:00","resolution_date":"2013-07-08T03:12:11.000-05:00"}
{"id":763,"bug_id":"DATAMONGO-1269","text":"@Test\n\n\n\n\npublic void SO_31799474() {\n\n\n\n\n\n\n\n\n\n\tSomeContent content \u003d new SomeContent();\n\n\n\n\n\tcontent.text \u003d \"foo\";\n\n\n\n\n\n\n\n\n\n\tSO31799474 entity \u003d new SO31799474();\n\n\n\n\n\tentity.id \u003d \"id-1\";\n\n\n\n\n\n\n\n\n\n\tentity.map \u003d Collections.singletonMap(Integer.valueOf(1), content);\n\n\n\n\n\n\n\n\n\n\ttemplate.save(entity);\n\n\n\n\n\n\n\n\n\n\tassertThat(template.findOne(query(where(\"map.1.text\").is(\"foo\")), SO31799474.class), notNullValue());\n\n\n\n\n}\n\n\n\n\n\n\n\n\n\n static class SO31799474 {\n\n\n\n\n\tString id;\n\n\n\n\n\tMap\u003cInteger, SomeContent\u003e map;\n\n\n\n\n\n\n\n\n\n\t@Override\n\n\n\n\n\tpublic String toString() {\n\n\n\n\n\t\treturn \"SO31799474 [id\u003d\" + id + \", map\u003d\" + map + \"]\";\n\n\n\n\n\t}\n\n\n\n\n\n\n\n\n\n}","file_goldset":["org.springframework.data.mongodb.core.convert.QueryMapper","org.springframework.data.mongodb.core.convert.UpdateMapper","org.springframework.data.mongodb.core.convert.QueryMapperUnitTests"],"creation_date":"2015-08-04T23:04:39.000-05:00","resolution_date":"2015-08-06T11:19:12.000-05:00"}
{"id":764,"bug_id":"DATAMONGO-385","text":"public interface TestRepository extends MongoRepository\u003cTestEntity, Long\u003e {  }\n\n\n\n\n\n\n\n\n\n\n\n\n @Document\n\n\n\n\npublic class TestEntity\n\n\n\n\n{\n\n\n\n\n  @Id\n\n\n\n\n  private Long id;\n\n\n\n\n  \n\n\n\n\n}","file_goldset":["org.springframework.data.mongodb.repository.support.MongoRepositoryFactoryUnitTests"],"creation_date":"2012-01-26T05:13:31.000-06:00","resolution_date":"2012-02-02T01:41:00.000-06:00"}
{"id":765,"bug_id":"DATAMONGO-392","text":"MappingMongoConverter.writeInternal(...)  addCustomTypeIfNecessary(...)  convertToMongoType(...)  removeTypeInfoRecursively(...)","file_goldset":["org.springframework.data.mongodb.core.MongoTemplateTests","org.springframework.data.mongodb.core.MongoTemplate"],"creation_date":"2012-02-07T04:28:15.000-06:00","resolution_date":"2013-07-08T06:13:48.000-05:00"}
{"id":766,"bug_id":"DATAMONGO-1307","text":"throw exceptionTranslator.translateExceptionIfPossible(ex);\n return null;","file_goldset":["org.springframework.data.mongodb.core.MongoTemplate"],"creation_date":"2015-10-20T12:33:45.000-05:00","resolution_date":"2015-10-20T17:24:35.000-05:00"}
{"id":767,"bug_id":"DATAMONGO-702","text":"@Field query.fields() @Field","file_goldset":["org.springframework.data.mongodb.core.MongoTemplateTests","org.springframework.data.mongodb.core.MongoTemplate"],"creation_date":"2013-06-20T00:12:30.000-05:00","resolution_date":"2013-07-09T02:35:34.000-05:00"}
{"id":768,"bug_id":"DATAMONGO-413","text":"List\u003cUser\u003e findByEmailOrAlias(String email, String alias) List\u003cUser\u003e findByEmailAndAlias(String email, String alias)","file_goldset":["org.springframework.data.mongodb.repository.query.MongoQueryCreator","org.springframework.data.mongodb.repository.query.MongoQueryCreatorUnitTests","org.springframework.data.mongodb.core.query.OrQuery"],"creation_date":"2012-03-09T17:21:02.000-06:00","resolution_date":"2012-03-12T04:51:50.000-05:00"}
{"id":769,"bug_id":"DATAMONGO-717","text":"@Override\n\n\n\n\n\tprotected \u003cT\u003e BasicMongoPersistentEntity\u003cT\u003e createPersistentEntity(TypeInformation\u003cT\u003e typeInformation) {\n\n\n\n\n\n\n\n\n\n\t\tBasicMongoPersistentEntity\u003cT\u003e entity \u003d new BasicMongoPersistentEntity\u003cT\u003e(typeInformation);\n\n\n\n\n\n\n\n\n\n\t\tif (context !\u003d null) {\n\n\n\n\n\t\t\tentity.setApplicationContext(context);\n\n\n\n\n\t\t}\n\n\n\n\n\n\n\n\n\n\t\treturn entity;\n\n\n\n\n\t}\n\n\n\n\n\n\n\n\n\n\t\n\n\n\n\n\t @Override\n\n\n\n\n\tpublic void setApplicationContext(ApplicationContext applicationContext) throws BeansException {\n\n\n\n\n\n\n\n\n\n\t\tthis.context \u003d applicationContext;\n\n\n\n\n\t\tsuper.setApplicationContext(applicationContext);\n\n\n\n\n\t}\n\n\n\n\n\n\n @Override\n\n\n\n\n\tpublic void setApplicationContext(ApplicationContext applicationContext) throws BeansException {\n\n\n\n\n\n\n\n\n\n\t\tthis.context \u003d applicationContext;\n\n\n\n\n\t\tsuper.setApplicationContext(applicationContext);\n\n\n\n\n                // Send the application context to ALL the PersistentEntities, not just ones created after this point\n\n\n\n\n               for (BasicMongoPersistentEntity entity : getPersistentEntities()) {\n\n\n\n\n                   entity.setApplicationContext(applicationContext);\n\n\n\n\n               }\n\n\n\n\n\t}\n\n\n\n\n\n\n testMultiTenantSave()  initialize()  @Bean\n\n\n\n\n\tpublic MongoMappingContext mongoMappingContext() throws ClassNotFoundException {\n\n\n\n\n\n\n\n\n\n\t\tMongoMappingContext mappingContext \u003d new MongoMappingContext();\n\n\n\n\n\t\tmappingContext.setInitialEntitySet(getInitialEntitySet());\n\n\n\n\n\t\tmappingContext.setSimpleTypeHolder(customConversions().getSimpleTypeHolder());\n\n\n\n\n\t\tmappingContext.initialize(); // \u003c----\n\n\n\n\n\n\n\n\n\n\t\treturn mappingContext;\n\n\n\n\n\t}","file_goldset":["org.springframework.data.mongodb.config.AbstractMongoConfigurationUnitTests"],"creation_date":"2013-07-10T11:13:46.000-05:00","resolution_date":"2013-07-10T14:09:31.000-05:00"}
{"id":770,"bug_id":"DATAMONGO-423","text":"c.find( new BasicDBObject( \"x\" ,\n\n\n\n\n                new BasicDBObject(\"$not\", new BasicDBObject(\"$regex\", \"b\") ) ) );\n\n\n\n\n\n\n c.find( new BasicDBObject( \"x\" ,\n\n\n\n\n                new BasicDBObject(\"$not\", Pattern.compile( \"b\" , Pattern.CASE_INSENSITIVE ) ) ) );","file_goldset":["org.springframework.data.mongodb.core.query.Criteria","org.springframework.data.mongodb.core.MongoTemplateTests","org.springframework.data.mongodb.core.query.QueryTests"],"creation_date":"2012-03-29T06:03:26.000-05:00","resolution_date":"2012-04-02T11:48:19.000-05:00"}
{"id":771,"bug_id":"DATAMONGO-721","text":"@Document\npublic class ParentClass {\n   private List\u003cChildClass\u003e list;\n}\n @Document mongoTemplate.updateFirst(Query.query(criteria), \n  new Update().push(\"list\", child));","file_goldset":["org.springframework.data.mongodb.core.convert.QueryMapper"],"creation_date":"2013-07-11T11:36:06.000-05:00","resolution_date":"2013-07-16T04:40:15.000-05:00"}
{"id":772,"bug_id":"DATAMONGO-602","text":"List\u003cBigInteger\u003e profileIds \u003d findProfileIds();\n\n\n\n\nPredicate predicate \u003d QProfileDocument.profileDocument.id.in(profileIds);\n\n\n\n\nIterable\u003cProfileDocument\u003e profiles \u003d profileRepository.findAll(predicate);","file_goldset":["org.springframework.data.mongodb.core.MongoTemplateTests"],"creation_date":"2013-01-30T02:22:53.000-06:00","resolution_date":"2013-08-07T10:11:51.000-05:00"}
{"id":773,"bug_id":"DATAMONGO-805","text":"Query query \u003d new Query(Criteria.where(\"parentField\").is(\"test\"));\n        query.fields().exclude(\"children\");\n        ParentClass parentClass \u003d mongoOperations.findOne(query, ParentClass.class);","file_goldset":["org.springframework.data.mongodb.core.convert.QueryMapper","org.springframework.data.mongodb.core.convert.QueryMapperUnitTests","org.springframework.data.mongodb.core.mapping.MappingTests"],"creation_date":"2013-12-02T06:34:36.000-06:00","resolution_date":"2014-01-14T05:35:09.000-06:00"}
{"id":774,"bug_id":"DATAMONGO-887","text":"public interface SourceRepository extends PagingAndSortingRepository\u003cMyEntity, ObjectId\u003e {\n\n\n\n\n}\n\n\n\n\n\n\n\n\n\n// Entity\n\n\n\n\n @Document(\"test_collection\")\n\n\n\n\npublic class MyEntity {\n\n\n\n\nprivate TreeMap\u003cString,MyClass\u003e treeMap;\n\n\n\n\n}\n\n\n\n\n\n\n\n\n\n// TreeMap value class\n\n\n\n\n public class MyClass {\n\n\n\n\nprivate String foo \u003d \"bar\";\n\n\n\n\n}","file_goldset":["org.springframework.data.mongodb.core.convert.MappingMongoConverterUnitTests"],"creation_date":"2014-03-20T21:01:31.000-05:00","resolution_date":"2014-03-27T04:28:55.000-05:00"}
{"id":775,"bug_id":"DATAMONGO-897","text":"MongoTemplate.findAndModify(...)  @DbRef @DbRef","file_goldset":["org.springframework.data.mongodb.core.convert.QueryMapper","org.springframework.data.mongodb.core.convert.UpdateMapperUnitTests"],"creation_date":"2014-04-01T04:38:51.000-05:00","resolution_date":"2014-04-14T23:48:22.000-05:00"}
{"id":776,"bug_id":"DATAMONGO-892","text":"parserContext.isNested()","file_goldset":["org.springframework.data.mongodb.config.MappingMongoConverterParserIntegrationTests","org.springframework.data.mongodb.config.MappingMongoConverterParser"],"creation_date":"2014-03-28T09:08:03.000-05:00","resolution_date":"2014-04-15T00:13:36.000-05:00"}
{"id":777,"bug_id":"DATAMONGO-647","text":"@Field(\"sr\")\n List\u003cAnswer\u003e findByQuestionIdOrderByScoreDesc(String questionId)","file_goldset":["org.springframework.data.mongodb.core.convert.QueryMapperUnitTests"],"creation_date":"2013-04-09T17:29:02.000-05:00","resolution_date":"2014-05-19T05:42:41.000-05:00"}
{"id":778,"bug_id":"DATAMONGO-745","text":"@Query(\"{\u0027snapshotId\u0027 : ?0 ,\u0027defects.id\u0027:{ $in:?1}}\")\nPage\u003cTest\u003e findBySnapshotIdAndDefects(ObjectId snapshotId, List\u003cInteger\u003e defectIds, Pageable pageable) {5225a5ece4b0a01629fce9c6\u003d{ \"_id\" : \n{ \"$oid\" : \"5225a5ece4b0a01629fce9c6\"}","file_goldset":["org.springframework.data.mongodb.repository.Person","org.springframework.data.mongodb.repository.AbstractPersonRepositoryIntegrationTests","org.springframework.data.mongodb.repository.PersonRepository"],"creation_date":"2013-09-03T02:15:08.000-05:00","resolution_date":"2014-06-17T22:51:44.000-05:00"}
