{"id":845,"bug_id":"WFCORE-1908","text":"attribute(name\u003dmessage-count, value\u003d5)\n\n\n\n\n {\n\n\n\n\n    \"outcome\" \u003d\u003e \"failed\",\n\n\n\n\n    \"failure-description\" \u003d\u003e \"WFLYCTL0048: Attribute message-count is not writable\",\n\n\n\n\n    \"rolled-back\" \u003d\u003e true\n\n\n\n\n}","file_goldset":["org.jboss.as.cli.Util","org.jboss.as.cli.impl.AttributeNamePathCompleter","org.jboss.as.cli.parsing.test.AttributeNamePathCompletionTestCase"],"creation_date":"2016-10-31T08:13:57.000-05:00","resolution_date":"2016-11-02T21:27:51.000-05:00"}
{"id":846,"bug_id":"WFCORE-1578","text":"{remote|local} add()\n\n\n\n\n add(host\u003dlocalhost,port\u003d8765)\n\n\n\n\n add(socket-binding-ref\u003dhttp)\n\n\n\n\n {remote|local}","file_goldset":["org.jboss.as.server.services.net.SocketBindingAddHandler","org.jboss.as.controller.logging.ControllerLogger","org.jboss.as.server.services.net.RemoteDestinationOutboundSocketBindingAddHandler","org.jboss.as.server.services.net.LocalDestinationOutboundSocketBindingAddHandler"],"creation_date":"2016-06-07T05:13:13.000-05:00","resolution_date":"2016-06-30T22:42:01.000-05:00"}
{"id":847,"bug_id":"WFCORE-267","text":"INFO: {\n\n\n\n\n    \"outcome\" \u003d\u003e \"success\",\n\n\n\n\n    \"result\" \u003d\u003e [\n\n\n\n\n        \"core-service\",\n\n\n\n\n        \"deployment\",\n\n\n\n\n        \"deployment-overlay\",\n\n\n\n\n        \"extension\",\n\n\n\n\n        \"interface\",\n\n\n\n\n        \"path\",\n\n\n\n\n        \"socket-binding-group\",\n\n\n\n\n        \"subsystem\",\n\n\n\n\n        \"system-property\"\n\n\n\n\n    ]\n\n\n\n\n}\n\n\n\n\n{\n\n\n\n\n    \"outcome\" \u003d\u003e \"success\",\n\n\n\n\n    \"result\" \u003d\u003e [\n\n\n\n\n        \"core-service\",\n\n\n\n\n        \"deployment\",\n\n\n\n\n        \"deployment-overlay\",\n\n\n\n\n        \"extension\",\n\n\n\n\n        \"interface\",\n\n\n\n\n        \"path\",\n\n\n\n\n        \"socket-binding-group\",\n\n\n\n\n        \"subsystem\",\n\n\n\n\n        \"system-property\"\n\n\n\n\n    ]\n\n\n\n\n}","file_goldset":["org.jboss.as.cli.CommandLineMain"],"creation_date":"2014-11-19T19:47:31.000-06:00","resolution_date":"2014-12-05T23:16:30.000-06:00"}
{"id":848,"bug_id":"WFCORE-716","text":"attribute(name\u003dsecurity-realm)\n\n\n\n\n {\n\n\n\n\n    \"outcome\" \u003d\u003e \"success\",\n\n\n\n\n    \"response-headers\" \u003d\u003e {\n\n\n\n\n        \"operation-requires-reload\" \u003d\u003e true,\n\n\n\n\n        \"process-state\" \u003d\u003e \"reload-required\"\n\n\n\n\n    }\n\n\n\n\n attribute(name\u003dsecurity-domain, value\u003dMgMtDom)\n\n\n\n\n {\n\n\n\n\n    \"outcome\" \u003d\u003e \"success\",\n\n\n\n\n    \"response-headers\" \u003d\u003e {\n\n\n\n\n        \"operation-requires-reload\" \u003d\u003e true,\n\n\n\n\n        \"process-state\" \u003d\u003e \"reload-required\"\n\n\n\n\n    }","file_goldset":["org.jboss.as.controller.CapabilityReferenceRecorder"],"creation_date":"2015-05-27T10:21:36.000-05:00","resolution_date":"2015-06-10T13:09:19.000-05:00"}
{"id":849,"bug_id":"WFCORE-1354","text":"clone(to-profile\u003dtest)","file_goldset":["org.jboss.as.subsystem.test.AbstractSubsystemBaseTest","org.jboss.as.remoting.RemotingExtension"],"creation_date":"2016-02-03T00:19:08.000-06:00","resolution_date":"2016-02-15T20:05:47.000-06:00"}
{"id":850,"bug_id":"WFCORE-1607","text":"{\"outcome\" \u003d\u003e \"success\"}","file_goldset":["org.jboss.as.domain.management.security.SecurityRealmChildRemoveHandler"],"creation_date":"2016-06-17T12:23:38.000-05:00","resolution_date":"2016-07-07T02:45:16.000-05:00"}
{"id":851,"bug_id":"WFCORE-1027","text":"{roles\u003dmaster-monitor}\n\n\n\n\n {\n\n\n\n\n                \"directory-grouping\" \u003d\u003e \"by-server\",\n\n\n\n\n                \"domain-controller\" \u003d\u003e {\"local\" \u003d\u003e {} {\"org.jboss.as.jmx\" \u003d\u003e undefined} {\n\n\n\n\n                    \"management\" \u003d\u003e undefined,\n\n\n\n\n                    \"public\" \u003d\u003e undefined,\n\n\n\n\n                    \"unsecure\" \u003d\u003e undefined\n\n\n\n\n                } {\"default\" \u003d\u003e undefined} {\"jmx\" \u003d\u003e undefined} {roles\u003dslave-maintainer}\n\n\n\n\n {roles\u003dslave-maintainer}\n\n\n\n\n {\"org.jboss.as.jmx\" \u003d\u003e undefined} {\n\n\n\n\n                \"management\" \u003d\u003e undefined,\n\n\n\n\n                \"public\" \u003d\u003e undefined,\n\n\n\n\n                \"unsecure\" \u003d\u003e undefined\n\n\n\n\n            } {\"default\" \u003d\u003e undefined} {\"jmx\" \u003d\u003e undefined}","file_goldset":["org.jboss.as.test.integration.domain.rbac.ListRoleNamesTestCase","org.jboss.as.test.integration.domain.rbac.WildcardReadsTestCase","org.jboss.as.test.integration.domain.rbac.JmxRBACProviderHostScopedRolesTestCase","org.jboss.as.test.integration.domain.rbac.RBACProviderHostScopedRolesTestCase","org.jboss.as.test.integration.domain.rbac.AbstractHostScopedRolesTestCase","org.jboss.as.controller.operations.global.GlobalOperationHandlers"],"creation_date":"2015-10-01T18:16:10.000-05:00","resolution_date":"2015-10-06T16:00:01.000-05:00"}
{"id":852,"bug_id":"WFCORE-1936","text":"description(recursive\u003dtrue)","file_goldset":["org.jboss.as.server.services.net.OutboundSocketBindingResourceDefinition","org.jboss.as.controller.resource.AbstractSocketBindingResourceDefinition"],"creation_date":"2016-11-04T10:57:06.000-05:00","resolution_date":"2016-11-07T18:40:35.000-06:00"}
{"id":853,"bug_id":"WFCORE-815","text":"add(name\u003dincludes, value\u003dmail-01)\n add(name\u003dincludes, value\u003dmail-02)\n\n {\n\n\n\n\n    \"outcome\" \u003d\u003e \"failed\",\n\n\n\n\n    \"failure-description\" \u003d\u003e {\"domain-failure-description\" \u003d\u003e \"WFLYCTL0401: Profile \u0027mail-01\u0027 defines subsystem \u0027mail\u0027 which is also defined in its ancestor profile \u0027mail-02\u0027. Overriding subsystems is not supported\"} add(name\u003dincludes, value\u003dmail-01)\n add(name\u003dincludes, value\u003dmail-02)","file_goldset":["org.jboss.as.host.controller.logging.HostControllerLogger","org.jboss.as.domain.controller.operations.SocketBindingGroupIncludesHandlerTestCase","org.jboss.as.domain.controller.operations.ProfileIncludesHandlerTestCase"],"creation_date":"2015-07-13T07:57:45.000-05:00","resolution_date":"2015-07-15T13:34:32.000-05:00"}
{"id":854,"bug_id":"WFCORE-1114","text":"AbstractDeploymentUnitService.getStatus()  TransformListener()","file_goldset":["org.jboss.as.server.deployment.AbstractDeploymentUnitService"],"creation_date":"2015-11-06T02:08:35.000-06:00","resolution_date":"2016-03-18T17:45:32.000-05:00"}
{"id":855,"bug_id":"WFCORE-495","text":"file(standalone.xml) file(standalone.xml)","file_goldset":["org.jboss.as.server.deployment.DeploymentFullReplaceHandler"],"creation_date":"2015-01-12T08:48:29.000-06:00","resolution_date":"2015-01-23T22:27:07.000-06:00"}
{"id":856,"bug_id":"WFCORE-1635","text":"add(path\u003dlog, relative-to\u003d\"jboss.server.base.dir\", auto-deploy-exploded\u003dfalse, scan-enabled\u003dfalse)\n\n\n\n\n attribute(name\u003dscan-interval, value\u003d6000)\n\n\n\n\n add(path\u003dlog, relative-to\u003d\"jboss.server.base.dir\", auto-deploy-exploded\u003dfalse, scan-enabled\u003dfalse)\n\n\n\n\n attribute(name\u003dscan-interval, value\u003d6000)","file_goldset":["org.jboss.as.server.deployment.scanner.AbstractWriteAttributeHandler"],"creation_date":"2016-07-05T07:04:51.000-05:00","resolution_date":"2016-07-08T23:36:17.000-05:00"}
{"id":857,"bug_id":"WFCORE-1428","text":"resource(include-runtime\u003dtrue)","file_goldset":["org.jboss.as.logging.LogFileResourceDefinition"],"creation_date":"2016-03-04T14:45:35.000-06:00","resolution_date":"2016-03-18T22:17:52.000-05:00"}
{"id":858,"bug_id":"WFCORE-1896","text":"content(archive\u003dtrue)  content()\n\n\n\n\n {\n\n\n\n\n    \"outcome\" \u003d\u003e \"success\",\n\n\n\n\n    \"result\" \u003d\u003e [\n\n\n\n\n        {\n\n\n\n\n            \"path\" \u003d\u003e \"jboss-kitchensink-ear-web.war\",\n\n\n\n\n            \"directory\" \u003d\u003e false,\n\n\n\n\n            \"file-size\" \u003d\u003e 63190L\n\n\n\n\n        } {\n\n\n\n\n            \"path\" \u003d\u003e \"jboss-kitchensink-ear-ejb.jar\",\n\n\n\n\n            \"directory\" \u003d\u003e false,\n\n\n\n\n            \"file-size\" \u003d\u003e 12256L\n\n\n\n\n        } {\n\n\n\n\n            \"path\" \u003d\u003e \"META-INF/maven/\",\n\n\n\n\n            \"directory\" \u003d\u003e true\n\n\n\n\n        } {\n\n\n\n\n            \"path\" \u003d\u003e \"META-INF/MANIFEST.MF\",\n\n\n\n\n            \"directory\" \u003d\u003e false,\n\n\n\n\n            \"file-size\" \u003d\u003e 130L\n\n\n\n\n        } {\n\n\n\n\n            \"path\" \u003d\u003e \"META-INF/application.xml\",\n\n\n\n\n            \"directory\" \u003d\u003e false,\n\n\n\n\n            \"file-size\" \u003d\u003e 802L\n\n\n\n\n        } {\n\n\n\n\n            \"path\" \u003d\u003e \"META-INF/kitchensink-ear-quickstart-ds.xml\",\n\n\n\n\n            \"directory\" \u003d\u003e false,\n\n\n\n\n            \"file-size\" \u003d\u003e 1955L\n\n\n\n\n        } {\n\n\n\n\n            \"path\" \u003d\u003e \"META-INF/\",\n\n\n\n\n            \"directory\" \u003d\u003e true\n\n\n\n\n        }\n\n\n\n\n     content(archive\u003dtrue)\n\n\n\n\n {\"outcome\" \u003d\u003e \"success\"}\n\n\n\n\n\n\n {\"outcome\" \u003d\u003e \"success\"}\n\n\n\n\n {\"outcome\" \u003d\u003e \"success\"}\n\n\n\n\n {\"outcome\" \u003d\u003e \"success\"}\n\n\n\n\n content(archive\u003dtrue)\n\n\n\n\n {\n\n\n\n\n    \"outcome\" \u003d\u003e \"success\",\n\n\n\n\n    \"result\" \u003d\u003e [\n\n\n\n\n        {\n\n\n\n\n            \"path\" \u003d\u003e \"jboss-kitchensink-ear-web.war\",\n\n\n\n\n            \"directory\" \u003d\u003e false,\n\n\n\n\n            \"file-size\" \u003d\u003e 63190L\n\n\n\n\n        } {\n\n\n\n\n            \"path\" \u003d\u003e \"jboss-kitchensink-ear-ejb.jar\",\n\n\n\n\n            \"directory\" \u003d\u003e false,\n\n\n\n\n            \"file-size\" \u003d\u003e 12256L\n\n\n\n\n        }","file_goldset":["org.jboss.as.repository.ContentFilter","org.jboss.as.repository.PathUtilTest","org.jboss.as.repository.PathUtil"],"creation_date":"2016-10-26T09:44:51.000-05:00","resolution_date":"2016-11-07T20:31:31.000-06:00"}
{"id":859,"bug_id":"WFCORE-989","text":"{\"server-group\" \u003d\u003e {\n\n\n\n\n        \"main-server-group\" \u003d\u003e {\"host\" \u003d\u003e {\"slave\" \u003d\u003e {\"main-three\" \u003d\u003e \"WFLYHC0153: Channel closed\"}","file_goldset":["org.jboss.as.host.controller.ServerInventoryImpl","org.jboss.as.host.controller.mgmt.ServerToHostProtocolHandler"],"creation_date":"2015-09-19T03:11:07.000-05:00","resolution_date":"2015-10-23T17:03:25.000-05:00"}
{"id":860,"bug_id":"WFCORE-922","text":"ModelNode.asPropertyList() The asPropertyList()","file_goldset":["org.jboss.as.host.controller.parsing.HostXml_4","org.jboss.as.host.controller.parsing.DomainXml_4","org.jboss.as.domain.management.parsing.ManagementXml_4","org.jboss.as.server.parsing.StandaloneXml_4"],"creation_date":"2015-08-26T21:07:03.000-05:00","resolution_date":"2015-08-28T22:36:44.000-05:00"}
{"id":861,"bug_id":"WFCORE-1590","text":"static final SimpleAttributeDefinition REPLACEMENT \u003d new SimpleAttributeDefinitionBuilder(ElytronDescriptionConstants.REPLACEMENT, ModelType.STRING, false)\n\n\n\n\n        .setAllowExpression(true)\n\n\n\n\n        .setMinSize(0)\n\n\n\n\n        .setFlags(AttributeAccess.Flag.RESTART_RESOURCE_SERVICES)\n\n\n\n\n        .build();\n\n\n\n\n\n\n add(pattern\u003d\"@ELYTRON.ORG\", replacement\u003d\"\", replace-all\u003dtrue)","file_goldset":["org.jboss.as.controller.AbstractAttributeDefinitionBuilder","org.jboss.as.controller.test.WriteAttributeOperationTestCase","org.jboss.as.controller.AttributeDefinition","org.jboss.as.controller.SimpleAttributeDefinitionUnitTestCase","org.jboss.as.controller.operations.validation.BytesValidator"],"creation_date":"2016-06-12T14:18:43.000-05:00","resolution_date":"2016-08-11T15:17:26.000-05:00"}
{"id":862,"bug_id":"WFCORE-1346","text":"{\"outcome\" \u003d\u003e \"success\"}","file_goldset":["org.jboss.as.controller.extension.ExtensionRemoveHandler","org.wildfly.core.test.standalone.extension.remove.ExtensionRemoveTestCase"],"creation_date":"2016-02-02T07:24:08.000-06:00","resolution_date":"2016-03-22T01:00:41.000-05:00"}
{"id":863,"bug_id":"WFCORE-1959","text":"{empty\u003dtrue} add()","file_goldset":["org.jboss.as.domain.controller.operations.coordination.ServerOperationResolver"],"creation_date":"2016-11-08T16:28:30.000-06:00","resolution_date":"2016-11-09T01:18:14.000-06:00"}
{"id":864,"bug_id":"WFCORE-701","text":"attribute(name\u003dstatus)\n\n\n\n\n {\n\n\n\n\n    \"outcome\" \u003d\u003e \"success\",\n\n\n\n\n    \"result\" \u003d\u003e \"FAILED\"\n\n\n\n\n}\n\n\n\n\n attribute(name\u003dserver-state)\n\n\n\n\n {\n\n\n\n\n    \"outcome\" \u003d\u003e \"success\",\n\n\n\n\n    \"result\" \u003d\u003e \"STOPPED\"\n\n\n\n\n}","file_goldset":["org.jboss.as.host.controller.ManagedServer"],"creation_date":"2015-05-19T15:06:17.000-05:00","resolution_date":"2016-03-30T14:44:00.000-05:00"}
{"id":865,"bug_id":"WFCORE-1718","text":"remove()\n remove()\n {\n\n\n\n\n    \"outcome\" \u003d\u003e \"failed\",\n\n\n\n\n    \"failure-description\" \u003d\u003e \"WFLYCTL0158: Operation handler failed: java.lang.NullPointerException\",\n\n\n\n\n    \"rolled-back\" \u003d\u003e true\n\n\n\n\n}\n\n\n\n\n\n\n attribute(name\u003dlevel,value\u003dDEBUG)","file_goldset":["org.jboss.as.domain.management.audit.AccessAuditResourceDefinition","org.jboss.as.domain.management.audit.AuditLogLoggerResourceDefinition","org.jboss.as.domain.management.audit.AuditLogHandlerReferenceResourceDefinition"],"creation_date":"2016-08-16T09:49:11.000-05:00","resolution_date":"2016-08-31T21:54:29.000-05:00"}
{"id":866,"bug_id":"WFCORE-1992","text":"{}  {path\u003d$SOME_PATH} {} {}\n\n\n\n\n\n\n\n\n\n\n\n\n {rdn-identifier\u003duid,otp-credential-mapper\u003d{}","file_goldset":["org.jboss.as.cli.parsing.test.ArgumentValueConverterTestCase","org.jboss.as.cli.parsing.arguments.ArgumentValueCallbackHandler"],"creation_date":"2016-11-15T14:35:44.000-06:00","resolution_date":"2016-11-17T22:27:41.000-06:00"}
{"id":867,"bug_id":"WFCORE-1715","text":"The doReload()  ServerInventoryService.stop()","file_goldset":["org.jboss.as.host.controller.operations.StartServersHandler"],"creation_date":"2016-08-15T19:04:54.000-05:00","resolution_date":"2016-08-31T21:55:37.000-05:00"}
{"id":868,"bug_id":"WFCORE-604","text":"{standalone|domaine} {standalone|domaine} {standalone|domaine} {standalone|domaine} {standalone|domaine}","file_goldset":["org.jboss.as.domain.controller.operations.deployment.DeploymentAddHandler","org.jboss.as.host.controller.mgmt.ServerToHostProtocolHandler","org.jboss.as.domain.controller.operations.ApplyRemoteMasterDomainModelHandler","org.jboss.as.host.controller.model.host.HostResourceDefinition","org.jboss.as.repository.LocalDeploymentFileRepository","org.jboss.as.domain.controller.operations.deployment.DeploymentFullReplaceHandler","org.jboss.as.host.controller.DomainModelControllerService","org.jboss.as.domain.controller.operations.deployment.DeploymentRemoveHandler","org.jboss.as.server.deploymentoverlay.DeploymentOverlayContentAdd","org.jboss.as.domain.controller.operations.deployment.ServerGroupDeploymentReplaceHandler","org.jboss.as.host.controller.RemoteDomainConnectionService","org.jboss.as.server.logging.ServerLogger","org.jboss.as.core.model.test.TestModelControllerService","org.jboss.as.server.deployment.DeploymentFullReplaceHandler","org.jboss.as.server.deployment.DeploymentAddHandlerTestCase","org.jboss.as.repository.logging.DeploymentRepositoryLogger","org.jboss.as.management.client.content.ManagedDMRContentTypeResource","org.jboss.as.core.model.test.LegacyKernelServicesImpl","org.jboss.as.domain.controller.operations.deployment.ServerGroupDeploymentAddHandler","org.jboss.as.subsystem.test.TestModelControllerService","org.jboss.as.server.controller.resources.ServerRootResourceDefinition","org.jboss.as.server.deploymentoverlay.DeploymentOverlayContentDefinition","org.jboss.as.repository.DeploymentFileRepository","org.jboss.as.server.test.InterfaceManagementUnitTestCase","org.jboss.as.host.controller.mgmt.MasterDomainControllerOperationHandlerImpl","org.jboss.as.host.controller.HostControllerService","org.jboss.as.domain.controller.operations.deployment.ServerGroupDeploymentRemoveHandler","org.jboss.as.management.client.content.ManagedDMRContentTypeAddHandler","org.jboss.as.repository.LocalFileRepository","org.jboss.as.server.ApplicationServerService","org.jboss.as.test.shared.ModelParserUtils","org.jboss.as.host.controller.ManagedServerOperationsFactory","org.jboss.as.domain.controller.resources.DomainRootDefinition","org.jboss.as.server.deployment.DeploymentRemoveHandler","org.jboss.as.domain.controller.resources.ServerGroupResourceDefinition","org.jboss.as.repository.ContentRepository","org.jboss.as.domain.controller.resources.DomainDeploymentResourceDefinition","org.jboss.as.server.mgmt.domain.RemoteFileRepositoryService","org.jboss.as.server.deployment.DeploymentReplaceHandler","org.jboss.as.server.deployment.DeploymentAddHandler"],"creation_date":"2015-03-18T09:19:35.000-05:00","resolution_date":"2015-03-25T18:39:26.000-05:00"}
{"id":869,"bug_id":"WFCORE-955","text":"add()\n {\n\n\n\n\n    \"outcome\" \u003d\u003e \"failed\",\n\n\n\n\n    \"failure-description\" \u003d\u003e \"java.lang.NullPointerException:null\"\n\n\n\n\n}\n\n\n\n\n add()","file_goldset":["org.jboss.as.controller.logging.ControllerLogger","org.jboss.as.controller.OperationContextImpl","org.jboss.as.controller.AbstractOperationContext","org.jboss.as.controller.capability.registry.IncludingResourceCapabilityScope","org.jboss.as.controller.SocketCapabilityResolutionUnitTestCase","org.jboss.as.controller.AbstractCapabilityResolutionTestCase"],"creation_date":"2015-08-27T14:34:07.000-05:00","resolution_date":"2015-09-04T13:33:34.000-05:00"}
{"id":870,"bug_id":"WFCORE-1028","text":"{roles\u003dslave-monitor}","file_goldset":["org.jboss.as.controller.logging.ControllerLogger","org.jboss.as.controller.operations.global.GlobalOperationHandlers","org.jboss.as.test.integration.domain.ServerManagementTestCase","org.jboss.as.controller.access.rbac.RoleMapper"],"creation_date":"2015-10-01T19:12:08.000-05:00","resolution_date":"2016-04-16T11:14:27.000-05:00"}
{"id":871,"bug_id":"WFCORE-1067","text":"context.getServiceRegistry(true)","file_goldset":["org.jboss.as.test.integration.domain.rbac.AbstractStandardRolesTestCase","org.jboss.as.test.integration.mgmt.access.StandardRolesBasicTestCase","org.jboss.as.domain.management.controller.CancelActiveOperationHandler","org.jboss.as.server.operations.ServerShutdownHandler","org.jboss.as.host.controller.operations.HostShutdownHandler"],"creation_date":"2015-10-21T12:22:10.000-05:00","resolution_date":"2015-12-04T17:40:21.000-06:00"}
{"id":872,"bug_id":"WFCORE-1546","text":"{\n\n\n\n\n    \"outcome\" \u003d\u003e \"failed\",\n\n\n\n\n    \"failure-description\" \u003d\u003e \"JBAS011539: Log level I   N   F   O is invalid.\",\n\n\n\n\n    \"rolled-back\" \u003d\u003e true\n\n\n\n\n}\n\n\n\n\n attribute(name\u003dvalue)\n\n\n\n\n {\n\n\n\n\n    \"outcome\" \u003d\u003e \"success\",\n\n\n\n\n    \"result\" \u003d\u003e \"ha ha ha\"\n\n\n\n\n}\n\n\n\n\n\n\n attribute(name\u003dlevel)\n\n\n\n\n {\n\n\n\n\n    \"outcome\" \u003d\u003e \"success\",\n\n\n\n\n    \"result\" \u003d\u003e \"INFO\"\n\n\n\n\n}\n\n\n\n\n attribute(name\u003dvalue)\n\n\n\n\n {\n\n\n\n\n    \"outcome\" \u003d\u003e \"success\",\n\n\n\n\n    \"result\" \u003d\u003e \"hahaha\"\n\n\n\n\n}","file_goldset":["org.jboss.as.cli.parsing.test.OperationParsingTestCase","org.jboss.as.cli.parsing.operation.PropertyValueState"],"creation_date":"2016-05-11T07:07:27.000-05:00","resolution_date":"2016-05-17T21:10:47.000-05:00"}
{"id":873,"bug_id":"WFCORE-2021","text":"{\"WFLYCTL0062: Composite operation failed and was rolled back. Steps that failed:\" \u003d\u003e {\"Operation step-1\" \u003d\u003e \"WFLYCTL0030: No resource definition is registered for address [(\\\"subsystem\\\" \u003d\u003e \\\"*\\\")]\"}","file_goldset":["org.jboss.as.cli.handlers.LsHandler"],"creation_date":"2016-11-21T08:50:23.000-06:00","resolution_date":"2016-12-06T12:06:09.000-06:00"}
{"id":874,"bug_id":"WFCORE-1214","text":"{blocking-timeout\u003d5;rollback-on-runtime-failure\u003dfalse}  {\n\n[Host Controller] 10:53:40,697 INFO  [stdout] (management-handler-thread - 3)     \"blocking-timeout\" \u003d\u003e \"5\",\n\n[Host Controller] 10:53:40,698 INFO  [stdout] (management-handler-thread - 3)     \"rollback-on-runtime-failure\" \u003d\u003e \"false\",\n\n[Host Controller] 10:53:40,698 INFO  [stdout] (management-handler-thread - 3)     \"caller-type\" \u003d\u003e \"user\",\n\n[Host Controller] 10:53:40,698 INFO  [stdout] (management-handler-thread - 3)     \"access-mechanism\" \u003d\u003e \"NATIVE\"\n\n[Host Controller] 10:53:40,698 INFO  [stdout] (management-handler-thread - 3) }","file_goldset":["org.jboss.as.domain.controller.operations.coordination.OperationCoordinatorStepHandler","org.jboss.as.domain.controller.operations.coordination.DomainRolloutStepHandler"],"creation_date":"2015-12-11T23:17:45.000-06:00","resolution_date":"2015-12-16T22:48:39.000-06:00"}
{"id":875,"bug_id":"WFCORE-876","text":"resource()","file_goldset":["org.jboss.as.cli.handlers.ifelse.IfElseControlFlow","org.jboss.as.cli.handlers.trycatch.TryCatchFinallyControlFlow","org.jboss.as.test.integration.management.cli.TryCatchFinallyTestCase","org.jboss.as.test.integration.management.cli.ifelse.NonExistingPathComparisonTestCase","org.jboss.as.test.integration.management.cli.ifelse.BasicIfElseTestCase"],"creation_date":"2015-08-12T07:52:43.000-05:00","resolution_date":"2015-09-18T13:23:39.000-05:00"}
{"id":876,"bug_id":"WFCORE-1493","text":"org.jboss.as.host.controller.Main.getHostSystemProperties()","file_goldset":["org.jboss.as.host.controller.Main"],"creation_date":"2016-04-20T20:05:27.000-05:00","resolution_date":"2016-05-20T03:11:49.000-05:00"}
{"id":877,"bug_id":"WFCORE-1765","text":"{xml}\n         {xml}","file_goldset":["org.jboss.as.controller.ParallelBootOperationStepHandler"],"creation_date":"2016-09-05T16:22:02.000-05:00","resolution_date":"2016-09-06T22:20:53.000-05:00"}
{"id":878,"bug_id":"WFCORE-1212","text":"TestModule.create()  mkdirs()  remove()  Once remove()  getModulesDir()","file_goldset":["org.jboss.as.test.module.util.TestModule"],"creation_date":"2015-12-11T18:04:50.000-06:00","resolution_date":"2015-12-16T22:55:15.000-06:00"}
{"id":879,"bug_id":"WFCORE-1572","text":"{rollout id\u003dfoo}","file_goldset":["org.jboss.as.cli.parsing.ParserUtil","org.jboss.as.cli.parsing.test.CommandTestCase","org.jboss.as.cli.parsing.DefaultStateWithEndCharacter"],"creation_date":"2016-05-27T16:20:10.000-05:00","resolution_date":"2016-06-20T02:04:49.000-05:00"}
{"id":880,"bug_id":"WFCORE-626","text":"clear(name\u003dattribute)\n get(name\u003dattribute, index\u003d0)\n add(name\u003dattribute, value\u003dtest)\n get(name\u003dattribute, index\u003d0)","file_goldset":["org.jboss.as.controller.operations.global.MapOperations","org.jboss.as.controller.operations.global.ListOperations"],"creation_date":"2015-04-06T15:53:19.000-05:00","resolution_date":"2015-04-15T13:17:29.000-05:00"}
{"id":881,"bug_id":"WFCORE-1793","text":"{\"outcome\" \u003d\u003e \"success\"}\n\n\n\n\n {\"outcome\" \u003d\u003e \"success\"}\n\n\n\n\n {\"outcome\" \u003d\u003e \"success\"}\n\n\n\n\n {path\u003d/home/mjurc/testing/eap7-204/test.txt, target-path\u003dtest.txt} {path\u003d/home/mjurc/testing/eap7-204/test.txt, target-path\u003dtest.txt} {path\u003d/home/mjurc/testing/eap7-204/test.txt, target-path\u003dtest.txt}","file_goldset":["org.jboss.as.server.deployment.ExplodedDeploymentAddContentHandler","org.jboss.as.server.controller.resources.DeploymentAttributes"],"creation_date":"2016-09-14T08:08:21.000-05:00","resolution_date":"2016-09-20T21:22:42.000-05:00"}
{"id":882,"bug_id":"WFCORE-949","text":"remove()","file_goldset":["org.jboss.as.subsystem.test.AdditionalInitialization","org.wildfly.core.test.standalone.mgmt.HTTPSManagementInterfaceTestCase","org.jboss.as.jmx.RemotingConnectorResource","org.jboss.as.server.operations.HttpManagementRemoveHandler","org.jboss.as.host.controller.resources.NativeManagementResourceDefinition","org.jboss.as.test.integration.domain.HTTPSManagementInterfaceTestCase","org.jboss.as.server.operations.NativeRemotingManagementRemoveHandler","org.jboss.as.server.operations.NativeManagementRemoveHandler","org.jboss.as.host.controller.resources.HttpManagementResourceDefinition","org.wildfly.core.test.standalone.mgmt.HTTPSConnectionWithCLITestCase","org.jboss.as.remoting.management.ManagementRemotingServices","org.jboss.as.remoting.logging.RemotingLogger","org.jboss.as.server.mgmt.NativeManagementResourceDefinition","org.jboss.as.host.controller.operations.HttpManagementRemoveHandler","org.jboss.as.server.mgmt.HttpManagementResourceDefinition"],"creation_date":"2015-09-03T05:08:35.000-05:00","resolution_date":"2015-09-21T18:59:23.000-05:00"}
{"id":883,"bug_id":"WFCORE-1570","text":"group(rolling-to-servers\u003dfalse,max-failed-servers\u003d1) group(rolling-to-servers\u003dtrue,max-failure-percentage\u003d20)  {rollout id\u003dmy-rollout-plan}","file_goldset":["org.jboss.as.cli.parsing.operation.header.RolloutPlanState","org.jboss.as.cli.parsing.operation.header.RolloutPlanHeaderCallbackHandler","org.jboss.as.cli.operation.impl.RolloutPlanCompleter"],"creation_date":"2016-05-27T12:51:56.000-05:00","resolution_date":"2016-06-20T02:05:22.000-05:00"}
{"id":884,"bug_id":"WFCORE-1198","text":"{PROFILE-NAME} {APP-VERSION} {VAR} add(auto-start\u003dtrue, group\u003d\"${PROFILE-NAME}${APP-VERSION}-server-group\")","file_goldset":["org.jboss.as.cli.parsing.ExpressionBaseState","org.jboss.as.cli.parsing.test.PropertyReplacementTestCase"],"creation_date":"2015-12-09T09:30:00.000-06:00","resolution_date":"2015-12-23T05:08:33.000-06:00"}
{"id":885,"bug_id":"WFCORE-1261","text":"attribute(name\u003dmax-history,value\u003d20)\n {\n\n\"outcome\" \u003d\u003e \"failed\",\n\n\"failure-description\" \u003d\u003e \"WFLYCTL0158: Operation handler failed: java.lang.IllegalStateException: WFLYCTL0188: Stage MODEL is already complete\",\n\n\"rolled-back\" \u003d\u003e true\n\n}","file_goldset":["org.jboss.as.domain.management.ConfigurationChangeResourceDefinition","org.wildfly.core.test.standalone.mgmt.api.core.ConfigurationChangesHistoryTestCase"],"creation_date":"2016-01-04T17:37:05.000-06:00","resolution_date":"2016-01-14T04:39:08.000-06:00"}
{"id":886,"bug_id":"WFCORE-1007","text":"migrate()\n\n\n\n\n {\n\n\n\n\n    \"outcome\" \u003d\u003e \"success\",\n\n\n\n\n    \"result\" \u003d\u003e {\"migration-warnings\" \u003d\u003e []}\n\n\n\n\n migrate()\n\n\n\n\n {\n\n\n\n\n    \"outcome\" \u003d\u003e \"success\",\n\n\n\n\n    \"result\" \u003d\u003e {\"migration-warnings\" \u003d\u003e []}\n\n\n\n\n migrate()\n\n\n\n\n {\n\n\n\n\n    \"outcome\" \u003d\u003e \"success\",\n\n\n\n\n    \"result\" \u003d\u003e {\"migration-warnings\" \u003d\u003e []}","file_goldset":["org.jboss.as.controller.logging.ControllerLogger","org.jboss.as.controller.AbstractOperationContext"],"creation_date":"2015-09-24T06:45:11.000-05:00","resolution_date":"2015-09-25T15:39:44.000-05:00"}
{"id":887,"bug_id":"WFCORE-1851","text":"content(depth\u003d1)  {\n\n\n\n\n    \"outcome\" \u003d\u003e \"success\",\n\n\n\n\n    \"result\" \u003d\u003e [\n\n\n\n\n        {\n\n\n\n\n            \"path\" \u003d\u003e \"jboss-kitchensink-ear-web.war\",\n\n\n\n\n            \"directory\" \u003d\u003e false,\n\n\n\n\n            \"file-size\" \u003d\u003e 63190L\n\n\n\n\n        } {\n\n\n\n\n            \"path\" \u003d\u003e \"jboss-kitchensink-ear-ejb.jar\",\n\n\n\n\n            \"directory\" \u003d\u003e false,\n\n\n\n\n            \"file-size\" \u003d\u003e 12256L\n\n\n\n\n        } {\n\n\n\n\n            \"path\" \u003d\u003e \"META-INF/\",\n\n\n\n\n            \"directory\" \u003d\u003e true\n\n\n\n\n        }\n\n\n\n\n     {\n\n\n\n\n    \"outcome\" \u003d\u003e \"success\",\n\n\n\n\n    \"result\" \u003d\u003e [\n\n\n\n\n        {\n\n\n\n\n            \"path\" \u003d\u003e \"META-INF/\",\n\n\n\n\n            \"directory\" \u003d\u003e true\n\n\n\n\n        } {\n\n\n\n\n            \"path\" \u003d\u003e \"META-INF/MANIFEST.MF\",\n\n\n\n\n            \"directory\" \u003d\u003e false,\n\n\n\n\n            \"file-size\" \u003d\u003e 130L\n\n\n\n\n        } {\n\n\n\n\n            \"path\" \u003d\u003e \"jboss-kitchensink-ear-web.war\",\n\n\n\n\n            \"directory\" \u003d\u003e false,\n\n\n\n\n            \"file-size\" \u003d\u003e 63190L\n\n\n\n\n        } {\n\n\n\n\n            \"path\" \u003d\u003e \"jboss-kitchensink-ear-ejb.jar\",\n\n\n\n\n            \"directory\" \u003d\u003e false,\n\n\n\n\n            \"file-size\" \u003d\u003e 12256L\n\n\n\n\n        } {\n\n\n\n\n            \"path\" \u003d\u003e \"META-INF/application.xml\",\n\n\n\n\n            \"directory\" \u003d\u003e false,\n\n\n\n\n            \"file-size\" \u003d\u003e 802L\n\n\n\n\n        } {\n\n\n\n\n            \"path\" \u003d\u003e \"META-INF/kitchensink-ear-quickstart-ds.xml\",\n\n\n\n\n            \"directory\" \u003d\u003e false,\n\n\n\n\n            \"file-size\" \u003d\u003e 1955L\n\n\n\n\n        }","file_goldset":["org.jboss.as.repository.ContentRepositoryTest","org.jboss.as.repository.PathUtil"],"creation_date":"2016-10-04T12:28:40.000-05:00","resolution_date":"2016-10-04T20:01:11.000-05:00"}
{"id":888,"bug_id":"WFCORE-687","text":"IdentityPatchContext.recordContentLoader(patchID, contentLoader)","file_goldset":["org.jboss.as.patching.installation.LayerTestCase","org.jboss.as.patching.metadata.PatchXmlUnitTestCase","org.jboss.as.patching.metadata.PatchXml","org.jboss.as.patching.metadata.PatchBuilder","org.jboss.as.patching.logging.PatchLogger","org.jboss.as.patching.metadata.PatchXmlUtils"],"creation_date":"2015-05-11T12:39:25.000-05:00","resolution_date":"2015-05-13T21:01:15.000-05:00"}
{"id":889,"bug_id":"WFCORE-1864","text":"{{\n...\n    \u003cdependencies\u003e\n        \u003cmodule name\u003d\"org.a\"/\u003e\n        \u003cmodule name\u003d\" org.b \"/\u003e\n    \u003c/dependencies\u003e\n...\n}}","file_goldset":["org.jboss.as.cli.handlers.module.ASModuleHandler","org.jboss.as.test.integration.management.cli.ModuleTestCase"],"creation_date":"2016-10-13T09:12:31.000-05:00","resolution_date":"2016-10-26T20:18:59.000-05:00"}
{"id":890,"bug_id":"WFCORE-442","text":"{read-only\u003d1} {\n\n\n\n\n                \"name\" \u003d\u003e \"jboss.server.temp.dir\",\n\n\n\n\n                \"path\" \u003d\u003e \"/Users/hbraun/dev/prj/wildfly-core/core-build/target/wildfly-core-1.0.0.Alpha14-SNAPSHOT/standalone/tmp\",\n\n\n\n\n                \"read-only\" \u003d\u003e true,\n\n\n\n\n                \"relative-to\" \u003d\u003e undefined\n\n\n\n\n            } {\n\n\n\n\n                \"name\" \u003d\u003e \"user.home\",\n\n\n\n\n                \"path\" \u003d\u003e \"/Users/hbraun\",\n\n\n\n\n                \"read-only\" \u003d\u003e true,\n\n\n\n\n                \"relative-to\" \u003d\u003e undefined\n\n\n\n\n            } {\n\n\n\n\n                \"name\" \u003d\u003e \"jboss.server.base.dir\",\n\n\n\n\n                \"path\" \u003d\u003e \"/Users/hbraun/dev/prj/wildfly-core/core-build/target/wildfly-core-1.0.0.Alpha14-SNAPSHOT/standalone\",\n\n\n\n\n                \"read-only\" \u003d\u003e true,\n\n\n\n\n                \"relative-to\" \u003d\u003e undefined\n\n\n\n\n            } {\n\n\n\n\n                \"name\" \u003d\u003e \"user.dir\",\n\n\n\n\n                \"path\" \u003d\u003e \"/Users/hbraun/dev/prj/wildfly-core/core-build/target/wildfly-core-1.0.0.Alpha14-SNAPSHOT\",\n\n\n\n\n                \"read-only\" \u003d\u003e true,\n\n\n\n\n                \"relative-to\" \u003d\u003e undefined\n\n\n\n\n            } {\n\n\n\n\n                \"name\" \u003d\u003e \"jboss.server.data.dir\",\n\n\n\n\n                \"path\" \u003d\u003e \"/Users/hbraun/dev/prj/wildfly-core/core-build/target/wildfly-core-1.0.0.Alpha14-SNAPSHOT/standalone/data\",\n\n\n\n\n                \"read-only\" \u003d\u003e true,\n\n\n\n\n                \"relative-to\" \u003d\u003e undefined\n\n\n\n\n            } {\n\n\n\n\n                \"name\" \u003d\u003e \"jboss.home.dir\",\n\n\n\n\n                \"path\" \u003d\u003e \"/Users/hbraun/dev/prj/wildfly-core/core-build/target/wildfly-core-1.0.0.Alpha14-SNAPSHOT\",\n\n\n\n\n                \"read-only\" \u003d\u003e true,\n\n\n\n\n                \"relative-to\" \u003d\u003e undefined\n\n\n\n\n            } {\n\n\n\n\n                \"name\" \u003d\u003e \"jboss.server.log.dir\",\n\n\n\n\n                \"path\" \u003d\u003e \"/Users/hbraun/dev/prj/wildfly-core/core-build/target/wildfly-core-1.0.0.Alpha14-SNAPSHOT/standalone/log\",\n\n\n\n\n                \"read-only\" \u003d\u003e true,\n\n\n\n\n                \"relative-to\" \u003d\u003e undefined\n\n\n\n\n            } {\n\n\n\n\n                \"name\" \u003d\u003e \"jboss.controller.temp.dir\",\n\n\n\n\n                \"path\" \u003d\u003e \"/Users/hbraun/dev/prj/wildfly-core/core-build/target/wildfly-core-1.0.0.Alpha14-SNAPSHOT/standalone/tmp\",\n\n\n\n\n                \"read-only\" \u003d\u003e true,\n\n\n\n\n                \"relative-to\" \u003d\u003e undefined\n\n\n\n\n            }","file_goldset":["org.jboss.as.controller.operations.global.GlobalOperationHandlers"],"creation_date":"2014-12-02T19:15:13.000-06:00","resolution_date":"2015-05-28T21:46:55.000-05:00"}
