{"id":27,"bug_id":"MATH-1021","text":"It looks like the HypergeometricDistribution.sample() method doesn\u0027t work as well as it used to with large integer values -- the example code below should return a sample between 0 and 50, but usually returns -50.","class_goldset":["org.apache.commons.math3.distribution.HypergeometricDistribution"],"method_goldset":["org.apache.commons.math3.distribution.HypergeometricDistribution:getNumericalMean()"],"creation_date":"2013-8-10 00:00:22","resolution_date":"2013-8-29 21:35:32"}
{"id":30,"bug_id":"MATH-221","text":"little java program + output that shows the bug:","class_goldset":["org.apache.commons.math.complex.Complex"],"method_goldset":["org.apache.commons.math.complex.Complex:equals(Object)"],"creation_date":"2008-8-29 13:31:56","resolution_date":"2008-8-29 15:52:38"}
{"id":33,"bug_id":"MATH-274","text":"testing for symmetric positive definite matrix in CholeskyDecomposition. I used this matrix:        I tried this matrix:","class_goldset":["org.apache.commons.math.linear.CholeskyDecompositionImpl"],"method_goldset":["org.apache.commons.math.linear.CholeskyDecompositionImpl:CholeskyDecompositionImpl(RealMatrix, double, double)"],"creation_date":"2009-6-4 19:24:12","resolution_date":"2009-6-4 20:11:26"}
{"id":34,"bug_id":"MATH-280","text":"This code:    normal.inverseCumulativeProbability(0.977249868051820); works fine  0 9986501019683698 (should return 3.0000...) 0 9999683287581673 (should return 4.0000...)","class_goldset":["org.apache.commons.math.analysis.solvers.UnivariateRealSolverUtils"],"method_goldset":["org.apache.commons.math.analysis.solvers.UnivariateRealSolverUtils:bracket(UnivariateRealFunction, double, double, double, int)"],"creation_date":"2009-7-6 21:26:57","resolution_date":"2009-7-7 09:21:22"}
{"id":35,"bug_id":"MATH-305","text":"This is the unittest:","class_goldset":["org.apache.commons.math.util.MathUtils"],"method_goldset":["org.apache.commons.math.util.MathUtils:distance(int[], int[])"],"creation_date":"2009-10-22 06:35:08","resolution_date":"2009-11-27 21:46:44"}
{"id":36,"bug_id":"MATH-318","text":"The following case computed by Fortran Lapack fails with version 2.0\n{code}\n    public void testMathpbx02() {","class_goldset":["org.apache.commons.math.linear.EigenDecompositionImpl"],"method_goldset":["org.apache.commons.math.linear.EigenDecompositionImpl:flipIfWarranted(int, int)"],"creation_date":"2009-11-6 15:09:36","resolution_date":"2009-11-6 15:12:47"}
{"id":38,"bug_id":"MATH-358","text":"The following test case shows the end event is not handled properly and an integration that should cover a 60s range in fact covers a 160s range, more than twice the specified range.","class_goldset":["org.apache.commons.math.ode.nonstiff.RungeKuttaIntegrator;org.apache.commons.math.ode.nonstiff.EmbeddedRungeKuttaIntegrator"],"method_goldset":["org.apache.commons.math.ode.nonstiff.EmbeddedRungeKuttaIntegrator:integrate(FirstOrderDifferentialEquations, double, double[], double, double[])","org.apache.commons.math.ode.nonstiff.RungeKuttaIntegrator:integrate(FirstOrderDifferentialEquations, double, double[], double, double[])"],"creation_date":"2010-3-24 17:25:37","resolution_date":"2010-3-24 22:13:19"}
{"id":40,"bug_id":"MATH-369","text":"invoke:","class_goldset":["org.apache.commons.math.analysis.solvers.BisectionSolver"],"method_goldset":["org.apache.commons.math.analysis.solvers.BisectionSolver:solve(UnivariateRealFunction, double, double, double)"],"creation_date":"2010-5-3 15:48:27","resolution_date":"2010-5-3 18:43:59"}
{"id":42,"bug_id":"MATH-482","text":"FastMath.max(50.0f, -50.0f) \u003d\u003e -50.0f; should be +50.0f. FastMath.max(50.0f, -50.0f) \u003d\u003e -50.0f; should be +50.0f.","class_goldset":["org.apache.commons.math.util.FastMath"],"method_goldset":["org.apache.commons.math.util.FastMath:max(float, float)"],"creation_date":"2011-1-17 19:52:10","resolution_date":"2011-1-17 20:01:32"}
{"id":46,"bug_id":"MATH-567","text":"A simple test case is :","class_goldset":["org.apache.commons.math.dfp.Dfp"],"method_goldset":["org.apache.commons.math.dfp.Dfp:Dfp(DfpField, double)","org.apache.commons.math.dfp.Dfp:toDouble()"],"creation_date":"2011-5-5 17:49:00","resolution_date":"2011-5-5 19:44:09"}
{"id":47,"bug_id":"MATH-60","text":"Please see the following code segment for more details:                   Note: Similarly, when I passed in the following inputs: input 2: (source \u003d 1 2 / -3, pos \u003d 0) input 3: ( source \u003d  -1 -2 / 3, pos \u003d 0)","class_goldset":["org.apache.commons.math.fraction.ProperFractionFormat"],"method_goldset":["org.apache.commons.math.fraction.ProperFractionFormat:parse(String, ParsePosition)"],"creation_date":"2006-5-14 04:20:21","resolution_date":"2006-6-5 10:16:21"}
{"id":49,"bug_id":"MATH-631","text":"The following unit test:","class_goldset":["org.apache.commons.math.analysis.solvers.BaseSecantSolver"],"method_goldset":["org.apache.commons.math.analysis.solvers.BaseSecantSolver:doSolve()"],"creation_date":"2011-7-23 23:48:27","resolution_date":"2011-9-8 12:13:59"}
{"id":50,"bug_id":"MATH-645","text":"The following piece of code","class_goldset":["org.apache.commons.math.linear.OpenMapRealVector"],"method_goldset":["org.apache.commons.math.linear.OpenMapRealVector:ebeMultiply(double[])","org.apache.commons.math.linear.OpenMapRealVector:ebeDivide(double[])","org.apache.commons.math.linear.OpenMapRealVector:ebeMultiply(RealVector)","org.apache.commons.math.linear.OpenMapRealVector:ebeDivide(RealVector)"],"creation_date":"2011-8-13 16:18:48","resolution_date":"2011-9-2 20:54:19"}
{"id":52,"bug_id":"MATH-691","text":"The code to reproduce it:","class_goldset":["org.apache.commons.math.stat.descriptive.SummaryStatistics"],"method_goldset":["org.apache.commons.math.stat.descriptive.SummaryStatistics:addValue(double)"],"creation_date":"2011-10-16 17:18:34","resolution_date":"2011-11-27 05:20:46"}
{"id":54,"bug_id":"MATH-713","text":"Function\n1 * x + 1 * y + 0 Constraints:\n1 * x + 0 * y \u003d 1","class_goldset":["org.apache.commons.math.optimization.linear.SimplexTableau"],"method_goldset":["org.apache.commons.math.optimization.linear.SimplexTableau:getSolution()"],"creation_date":"2011-11-25 16:35:02","resolution_date":"2011-11-28 20:17:44"}
{"id":58,"bug_id":"MATH-836","text":"When the double value is a large, negative number with many digits in the fractional part, and the maximal denominator is a big, positive integer (in the 100\u0027000s), two distinct bugs can manifest:  Calling Fraction(-33655.1677817278, 371880) returns the fraction 410517235/243036, which both has the wrong sign, and is far away from the absolute value of the given value  Calling Fraction(-43979.60679604749, 366081) returns the fraction -1651878166/256677, which should have* been reduced to -24654898/3831.","class_goldset":["org.apache.commons.math3.fraction.Fraction"],"method_goldset":["org.apache.commons.math3.fraction.Fraction:Fraction(double, double, int, int)"],"creation_date":"2012-7-31 17:04:25","resolution_date":"2012-8-4 16:27:26"}
{"id":60,"bug_id":"MATH-865","text":"If you give large values as lower/upper bounds (for example -Double.MAX_VALUE as a lower bound), the optimizer can call the fitness function with parameters set to NaN.","class_goldset":["org.apache.commons.math3.optimization.direct.CMAESOptimizer"],"method_goldset":["org.apache.commons.math3.optimization.direct.CMAESOptimizer:checkParameters()"],"creation_date":"2012-9-19 21:10:42","resolution_date":"2012-9-22 10:04:55"}
{"id":63,"bug_id":"MATH-929","text":"To reproduce:\n{code}\nAssert.assertEquals(0.398942280401433, new MultivariateNormalDistribution(new double[]{0}, new double[][]{{1}}).","class_goldset":["org.apache.commons.math3.distribution.MultivariateNormalDistribution"],"method_goldset":["org.apache.commons.math3.distribution.MultivariateNormalDistribution:density(double[])"],"creation_date":"2013-1-15 11:45:28","resolution_date":"2013-1-15 12:20:21"}
{"id":65,"bug_id":"MATH-942","text":"To reproduce:\n{code}\nList\u003cPair\u003cObject,Double\u003e\u003e list \u003d new ArrayList\u003cPair\u003cObject, Double\u003e\u003e();\nlist.add(new Pair\u003cObject, Double\u003e(new Object() {}, new Double(0)));\nlist.add(new Pair\u003cObject, Double\u003e(new Object() {}, new Double(1)));\nnew DiscreteDistribution\u003cObject\u003e(list).","class_goldset":["org.apache.commons.math3.distribution.DiscreteDistribution"],"method_goldset":["org.apache.commons.math3.distribution.DiscreteDistribution:sample(int)"],"creation_date":"2013-3-9 15:05:04","resolution_date":"2013-3-10 12:02:31"}
{"id":66,"bug_id":"MATH-949","text":"I\u0027ve put a test case below.","class_goldset":["org.apache.commons.math3.optim.nonlinear.scalar.noderiv.PowellOptimizer;org.apache.commons.math3.optim.nonlinear.scalar.gradient.NonLinearConjugateGradientOptimizer;org.apache.commons.math3.optim.nonlinear.scalar.noderiv.SimplexOptimizer;org.apache.commons.math3.optim.nonlinear.vector.jacobian.GaussNewtonOptimizer;org.apache.commons.math3.optim.nonlinear.scalar.noderiv.CMAESOptimizer;org.apache.commons.math3.optim.BaseOptimizer;org.apache.commons.math3.optim.nonlinear.vector.jacobian.LevenbergMarquardtOptimizer"],"method_goldset":["org.apache.commons.math3.optim.nonlinear.scalar.gradient.NonLinearConjugateGradientOptimizer:doOptimize()","org.apache.commons.math3.optim.nonlinear.scalar.noderiv.CMAESOptimizer:doOptimize()","org.apache.commons.math3.optim.nonlinear.vector.jacobian.GaussNewtonOptimizer:doOptimize()","org.apache.commons.math3.optim.nonlinear.scalar.noderiv.SimplexOptimizer:doOptimize()","org.apache.commons.math3.optim.BaseOptimizer:BaseOptimizer(ConvergenceChecker\u003cPAIR\u003e)","org.apache.commons.math3.optim.nonlinear.scalar.noderiv.PowellOptimizer:doOptimize()","org.apache.commons.math3.optim.nonlinear.vector.jacobian.LevenbergMarquardtOptimizer:doOptimize()"],"creation_date":"2013-3-15 18:11:56","resolution_date":"2013-3-20 11:38:17"}
