{"key":"HHH-4614","title":"(javassist) Instrumented model with abstract MappedSuperclass and field access doesn\u0027t work","description":"- no matter if you use annotation or mapping files, test will fail using javassist (it used to fail with previous version too) See attached testcase to reproduce the problem. Guideline: - testcase the pattern used in hb-core, just using annotations - run org.hibernate.test.instrument2.runtime.JAVASSISTInstrumentationTest - easy to switch from annotation to mapping files in org.hibernate.test.instrument2.cases.AbstractExecutable (comment/uncomment specific lines in getAnnotatedClasses and getXmlFiles)"}
{"key":"HHH-4617","title":"Using materialized blobs with Postgresql causes error","description":"I have entity with byte[] property annotated as @Lob and lazy fetch type, when table is createad the created column is of type oid, but when the column is read in application, the Hibernate reads the OID value instead of bytes under given oid.  If i remember well, auto-creating table with Hibernate creates oid column."}
{"key":"HHH-5042","title":"TableGenerator does not increment hibernate_sequences.next_hi_value anymore after having exhausted the current lo-range","description":"The problem in the new code is that only value get\u0027s incremented whilst variable lo is still used to check when a new hiVal must be obtained.   as lo is never incremented, MultipleHiLoPerTableGenerator continues to deliver numbers without ever update hibernate_sequences. next_hi_value on the database (only one unique update is propagates at the first insert) This lead to duplicate keys as soon another session from another sessionfactory tries to insert new objects on the concerning table. Please see attached testcase.  as the testcase uses 2 sessionfactories hibernate.hbm2ddl.auto\u003dcreate cannot be used!! Schema has to be exported separately and the testcase must run without hbm2ddl.auto property! Here the schema for HSQLDB:"}
