mean rec. rank;0.53333336;mean precision;0.013345593;mean recall;1.0;mean f1-score;0.025924817;mean average precision;0.31964523;% top 1;0.5;% top 5;0.5;% top 10;0.75
system;query ID;query key;rank;rec. rank;true positives;precision;false negatives;recall;f1 score;avg precision
SWARM_2016_8;1;SWARM-611;1;1.0;21;0.03797468;0;1.0;0.07317073;0.1452475
SWARM_2016_8;2;SWARM-615;45;0.022222223;1;0.0018214936;0;1.0;0.0036363634;0.022222223
SWARM_2016_8;3;SWARM-635;9;0.11111111;1;0.011764706;0;1.0;0.023255814;0.11111111
SWARM_2016_8;4;SWARM-657;1;1.0;1;0.0018214936;0;1.0;0.0036363634;1.0
