mean rec. rank;0.628876;mean precision;0.004524887;mean recall;1.0;mean f1-score;0.009005643;mean average precision;0.40911588;% top 1;0.5;% top 5;0.8333333;% top 10;0.8333333
system;query ID;query key;rank;rec. rank;true positives;precision;false negatives;recall;f1 score;avg precision
CONFIGURATION_2_0;1;CONFIGURATION-609;4;0.25;2;0.004524887;0;1.0;0.009009009;0.225
CONFIGURATION_2_0;2;CONFIGURATION-610;1;1.0;3;0.0067873304;0;1.0;0.013483146;0.4564394
CONFIGURATION_2_0;3;CONFIGURATION-618;1;1.0;2;0.004524887;0;1.0;0.009009009;0.625
CONFIGURATION_2_0;4;CONFIGURATION-622;2;0.5;2;0.004524887;0;1.0;0.009009009;0.5
CONFIGURATION_2_0;5;CONFIGURATION-634;1;1.0;2;0.004524887;0;1.0;0.009009009;0.625
CONFIGURATION_2_0;6;CONFIGURATION-627;43;0.023255814;1;0.0022624435;0;1.0;0.004514673;0.023255814
