mean rec. rank;0.6962963;mean precision;0.005433729;mean recall;1.0;mean f1-score;0.01078897;mean average precision;0.53417426;% top 1;0.5555556;% top 5;0.8888889;% top 10;1.0
system;query ID;query key;rank;rec. rank;true positives;precision;false negatives;recall;f1 score;avg precision
DATAMONGO_1_4_3;1;DATAMONGO-901;1;1.0;2;0.006006006;0;1.0;0.011940299;0.5188679
DATAMONGO_1_4_3;2;DATAMONGO-928;1;1.0;2;0.0046948357;0;1.0;0.009345795;1.0
DATAMONGO_1_4_3;3;DATAMONGO-938;3;0.33333334;2;0.004514673;0;1.0;0.008988764;0.2916667
DATAMONGO_1_4_3;4;DATAMONGO-963;2;0.5;1;0.0022371365;0;1.0;0.004464286;0.5
DATAMONGO_1_4_3;5;DATAMONGO-978;1;1.0;1;0.0021834061;0;1.0;0.0043572984;1.0
DATAMONGO_1_4_3;6;DATAMONGO-969;10;0.1;3;0.006993007;0;1.0;0.013888888;0.043547902
DATAMONGO_1_4_3;7;DATAMONGO-987;3;0.33333334;2;0.004494382;0;1.0;0.008948546;0.2916667
DATAMONGO_1_4_3;8;DATAMONGO-1001;1;1.0;6;0.013422819;0;1.0;0.026490066;0.328486
DATAMONGO_1_4_3;9;DATAMONGO-1008;1;1.0;2;0.0043572984;0;1.0;0.008676789;0.8333334
