mean rec. rank;1.0;mean precision;0.005154639;mean recall;1.0;mean f1-score;0.010256411;mean average precision;0.515625;% top 1;1.0;% top 5;1.0;% top 10;1.0
system;query ID;query key;rank;rec. rank;true positives;precision;false negatives;recall;f1 score;avg precision
AMQP_1_6_6;1;AMQP-682;1;1.0;2;0.005154639;0;1.0;0.010256411;0.515625
