mean rec. rank;0.7578436;mean precision;0.013275718;mean recall;1.0;mean f1-score;0.026131744;mean average precision;0.6605926;% top 1;0.65217394;% top 5;0.9130435;% top 10;0.9130435
system;query ID;query key;rank;rec. rank;true positives;precision;false negatives;recall;f1 score;avg precision
CONFIGURATION_1_4;1;CONFIGURATION-263;1;1.0;2;0.011299435;0;1.0;0.022346368;0.8333334
CONFIGURATION_1_4;2;CONFIGURATION-264;1;1.0;3;0.016949153;0;1.0;0.03333333;0.72222227
CONFIGURATION_1_4;3;CONFIGURATION-265;1;1.0;6;0.033898305;0;1.0;0.06557377;0.33142516
CONFIGURATION_1_4;4;CONFIGURATION-267;1;1.0;1;0.0056818184;0;1.0;0.011299435;1.0
CONFIGURATION_1_4;5;CONFIGURATION-268;2;0.5;4;0.02259887;0;1.0;0.044198897;0.37196973
CONFIGURATION_1_4;6;CONFIGURATION-270;1;1.0;2;0.011299435;0;1.0;0.022346368;1.0
CONFIGURATION_1_4;7;CONFIGURATION-269;2;0.5;3;0.016949153;0;1.0;0.03333333;0.32125604
CONFIGURATION_1_4;8;CONFIGURATION-274;1;1.0;2;0.011299435;0;1.0;0.022346368;1.0
CONFIGURATION_1_4;9;CONFIGURATION-279;1;1.0;2;0.011299435;0;1.0;0.022346368;1.0
CONFIGURATION_1_4;10;CONFIGURATION-280;1;1.0;2;0.011299435;0;1.0;0.022346368;0.8333334
CONFIGURATION_1_4;11;CONFIGURATION-277;4;0.25;1;0.0056497175;0;1.0;0.011235955;0.25
CONFIGURATION_1_4;12;CONFIGURATION-275;39;0.025641026;1;0.0056818184;0;1.0;0.011299435;0.025641026
CONFIGURATION_1_4;13;CONFIGURATION-283;3;0.33333334;3;0.016949153;0;1.0;0.03333333;0.16296296
CONFIGURATION_1_4;14;CONFIGURATION-282;1;1.0;1;0.0056497175;0;1.0;0.011235955;1.0
CONFIGURATION_1_4;15;CONFIGURATION-285;1;1.0;2;0.011299435;0;1.0;0.022346368;1.0
CONFIGURATION_1_4;16;CONFIGURATION-287;1;1.0;3;0.016949153;0;1.0;0.03333333;0.8055556
CONFIGURATION_1_4;17;CONFIGURATION-291;1;1.0;2;0.011363637;0;1.0;0.02247191;0.8333334
CONFIGURATION_1_4;18;CONFIGURATION-272;14;0.071428575;3;0.016949153;0;1.0;0.03333333;0.11370852
CONFIGURATION_1_4;19;CONFIGURATION-294;1;1.0;2;0.011363637;0;1.0;0.02247191;1.0
CONFIGURATION_1_4;20;CONFIGURATION-295;1;1.0;2;0.011299435;0;1.0;0.022346368;0.75
CONFIGURATION_1_4;21;CONFIGURATION-296;1;1.0;2;0.011363637;0;1.0;0.02247191;1.0
CONFIGURATION_1_4;22;CONFIGURATION-299;4;0.25;2;0.011299435;0;1.0;0.022346368;0.25
CONFIGURATION_1_4;23;CONFIGURATION-300;2;0.5;3;0.016949153;0;1.0;0.03333333;0.58888894
