mean rec. rank;0.70621055;mean precision;0.008635613;mean recall;1.0;mean f1-score;0.017075066;mean average precision;0.5795831;% top 1;0.53846157;% top 5;0.8717949;% top 10;0.94871795
system;query ID;query key;rank;rec. rank;true positives;precision;false negatives;recall;f1 score;avg precision
DATAMONGO_1_0_0;1;DATAMONGO-273;42;0.023809524;1;0.0034602077;0;1.0;0.006896552;0.023809524
DATAMONGO_1_0_0;2;DATAMONGO-294;1;1.0;1;0.0037453184;0;1.0;0.007462687;1.0
DATAMONGO_1_0_0;3;DATAMONGO-316;1;1.0;3;0.010309278;0;1.0;0.020408165;0.72549015
DATAMONGO_1_0_0;4;DATAMONGO-306;1;1.0;2;0.0069444445;0;1.0;0.013793104;0.8333334
DATAMONGO_1_0_0;5;DATAMONGO-315;2;0.5;2;0.007067138;0;1.0;0.014035089;0.3611111
DATAMONGO_1_0_0;6;DATAMONGO-319;1;1.0;4;0.013745705;0;1.0;0.027118646;0.8409091
DATAMONGO_1_0_0;7;DATAMONGO-309;1;1.0;2;0.0068965517;0;1.0;0.013698631;0.56666666
DATAMONGO_1_0_0;8;DATAMONGO-312;1;1.0;2;0.006849315;0;1.0;0.013605443;0.55
DATAMONGO_1_0_0;9;DATAMONGO-329;1;1.0;2;0.006968641;0;1.0;0.013840831;1.0
DATAMONGO_1_0_0;10;DATAMONGO-331;1;1.0;1;0.0034602077;0;1.0;0.006896552;1.0
DATAMONGO_1_0_0;11;DATAMONGO-325;1;1.0;2;0.0068965517;0;1.0;0.013698631;0.64285713
DATAMONGO_1_0_0;12;DATAMONGO-333;1;1.0;1;0.0035211267;0;1.0;0.007017544;1.0
DATAMONGO_1_0_0;13;DATAMONGO-321;10;0.1;6;0.025104603;0;1.0;0.04897959;0.0733098
DATAMONGO_1_0_0;14;DATAMONGO-199;64;0.015625;1;0.0034482758;0;1.0;0.0068728523;0.015625
DATAMONGO_1_0_0;15;DATAMONGO-318;2;0.5;2;0.007067138;0;1.0;0.014035089;0.3611111
DATAMONGO_1_0_0;16;DATAMONGO-322;8;0.125;5;0.019607844;0;1.0;0.038461536;0.12250163
DATAMONGO_1_0_0;17;DATAMONGO-298;2;0.5;3;0.010909091;0;1.0;0.021582734;0.3394309
DATAMONGO_1_0_0;18;DATAMONGO-343;1;1.0;6;0.020689655;0;1.0;0.040540542;0.51624584
DATAMONGO_1_0_0;19;DATAMONGO-346;9;0.11111111;2;0.007017544;0;1.0;0.013937283;0.06217807
DATAMONGO_1_0_0;20;DATAMONGO-260;3;0.33333334;2;0.006849315;0;1.0;0.013605443;0.4166667
DATAMONGO_1_0_0;21;DATAMONGO-336;1;1.0;2;0.008474576;0;1.0;0.016806722;0.64285713
DATAMONGO_1_0_0;22;DATAMONGO-373;2;0.5;2;0.0068965517;0;1.0;0.013698631;0.45
DATAMONGO_1_0_0;23;DATAMONGO-369;1;1.0;2;0.0076045627;0;1.0;0.015094339;1.0
DATAMONGO_1_0_0;24;DATAMONGO-376;1;1.0;2;0.007017544;0;1.0;0.013937283;1.0
DATAMONGO_1_0_0;25;DATAMONGO-368;1;1.0;2;0.0068259384;0;1.0;0.013559322;0.8333334
DATAMONGO_1_0_0;26;DATAMONGO-359;1;1.0;2;0.007142857;0;1.0;0.014184397;1.0
DATAMONGO_1_0_0;27;DATAMONGO-381;2;0.5;2;0.0070422534;0;1.0;0.013986013;0.4166667
DATAMONGO_1_0_0;28;DATAMONGO-387;2;0.5;5;0.01754386;0;1.0;0.03448276;0.26047078
DATAMONGO_1_0_0;29;DATAMONGO-358;1;1.0;2;0.007168459;0;1.0;0.014234876;0.8333334
DATAMONGO_1_0_0;30;DATAMONGO-385;2;0.5;1;0.004166667;0;1.0;0.008298756;0.5
DATAMONGO_1_0_0;31;DATAMONGO-398;2;0.5;2;0.0068728523;0;1.0;0.013651877;0.28333333
DATAMONGO_1_0_0;32;DATAMONGO-401;1;1.0;2;0.0068965517;0;1.0;0.013698631;1.0
DATAMONGO_1_0_0;33;DATAMONGO-382;1;1.0;2;0.0068728523;0;1.0;0.013651877;0.64285713
DATAMONGO_1_0_0;34;DATAMONGO-430;2;0.5;2;0.010152284;0;1.0;0.0201005;0.3409091
DATAMONGO_1_0_0;35;DATAMONGO-181;2;0.5;5;0.017667845;0;1.0;0.03472222;0.39754385
DATAMONGO_1_0_0;36;DATAMONGO-378;1;1.0;1;0.0034246575;0;1.0;0.006825939;1.0
DATAMONGO_1_0_0;37;DATAMONGO-380;2;0.5;2;0.0068259384;0;1.0;0.013559322;0.375
DATAMONGO_1_0_0;38;DATAMONGO-392;3;0.33333334;2;0.0069204154;0;1.0;0.013745705;0.30952382
DATAMONGO_1_0_0;39;DATAMONGO-354;1;1.0;3;0.010714286;0;1.0;0.021201413;0.8666666
