mean rec. rank;0.6130953;mean precision;0.012275047;mean recall;1.0;mean f1-score;0.024205882;mean average precision;0.5554565;% top 1;0.42857143;% top 5;0.71428573;% top 10;1.0
system;query ID;query key;rank;rec. rank;true positives;precision;false negatives;recall;f1 score;avg precision
AMQP_1_2_0;1;AMQP-331;1;1.0;1;0.0091743115;0;1.0;0.018181818;1.0
AMQP_1_2_0;2;AMQP-330;1;1.0;4;0.017316017;0;1.0;0.034042556;0.46790507
AMQP_1_2_0;3;AMQP-332;6;0.16666667;3;0.018404908;0;1.0;0.036144577;0.11890838
AMQP_1_2_0;4;AMQP-338;2;0.5;3;0.015544041;0;1.0;0.030612243;0.6388889
AMQP_1_2_0;5;AMQP-340;8;0.125;3;0.013274336;0;1.0;0.026200874;0.07915982
AMQP_1_2_0;6;AMQP-355;1;1.0;1;0.0040816325;0;1.0;0.008130081;1.0
AMQP_1_2_0;7;AMQP-351;2;0.5;2;0.008130081;0;1.0;0.016129032;0.5833334
