mean rec. rank;0.6066951;mean precision;0.018805975;mean recall;1.0;mean f1-score;0.036237616;mean average precision;0.50114095;% top 1;0.46153846;% top 5;0.6923077;% top 10;0.84615386
system;query ID;query key;rank;rec. rank;true positives;precision;false negatives;recall;f1 score;avg precision
CONFIGURATION_1_3;1;CONFIGURATION-230;1;1.0;3;0.018292682;0;1.0;0.03592814;0.7142857
CONFIGURATION_1_3;2;CONFIGURATION-233;1;1.0;2;0.0121951215;0;1.0;0.024096385;0.7
CONFIGURATION_1_3;3;CONFIGURATION-235;2;0.5;2;0.0121951215;0;1.0;0.024096385;0.29545456
CONFIGURATION_1_3;4;CONFIGURATION-229;1;1.0;2;0.0121951215;0;1.0;0.024096385;0.8333334
CONFIGURATION_1_3;5;CONFIGURATION-242;6;0.16666667;3;0.018867925;0;1.0;0.037037037;0.21313131
CONFIGURATION_1_3;6;CONFIGURATION-241;12;0.083333336;2;0.0121951215;0;1.0;0.024096385;0.08166666
CONFIGURATION_1_3;7;CONFIGURATION-232;1;1.0;3;0.018292682;0;1.0;0.03592814;0.72549015
CONFIGURATION_1_3;8;CONFIGURATION-252;1;1.0;2;0.0121951215;0;1.0;0.024096385;0.7
CONFIGURATION_1_3;9;CONFIGURATION-254;2;0.5;2;0.0121951215;0;1.0;0.024096385;0.5
CONFIGURATION_1_3;10;CONFIGURATION-255;1;1.0;2;0.0121951215;0;1.0;0.024096385;1.0
CONFIGURATION_1_3;11;CONFIGURATION-256;27;0.037037037;14;0.085365854;0;1.0;0.15730336;0.06813651
CONFIGURATION_1_3;12;CONFIGURATION-259;10;0.1;1;0.0060975607;0;1.0;0.012121212;0.1
CONFIGURATION_1_3;13;CONFIGURATION-253;2;0.5;2;0.0121951215;0;1.0;0.024096385;0.5833334
