mean rec. rank;0.46076122;mean precision;0.021062348;mean recall;1.0;mean f1-score;0.040690128;mean average precision;0.39547828;% top 1;0.3;% top 5;0.7;% top 10;0.75
system;query ID;query key;rank;rec. rank;true positives;precision;false negatives;recall;f1 score;avg precision
AMQP_1_0_0;1;AMQP-38;1;1.0;2;0.010204081;0;1.0;0.02020202;0.5117647
AMQP_1_0_0;2;AMQP-73;3;0.33333334;9;0.06923077;0;1.0;0.12949641;0.3193582
AMQP_1_0_0;3;AMQP-65;3;0.33333334;4;0.024691358;0;1.0;0.048192773;0.38333336
AMQP_1_0_0;4;AMQP-99;5;0.2;3;0.02112676;0;1.0;0.04137931;0.102111615
AMQP_1_0_0;5;AMQP-109;1;1.0;1;0.006024096;0;1.0;0.011976047;1.0
AMQP_1_0_0;6;AMQP-121;15;0.06666667;1;0.0060975607;0;1.0;0.012121212;0.06666667
AMQP_1_0_0;7;AMQP-122;2;0.5;7;0.035714287;0;1.0;0.068965524;0.2048908
AMQP_1_0_0;8;AMQP-124;1;1.0;2;0.012903226;0;1.0;0.025477707;1.0
AMQP_1_0_0;9;AMQP-125;10;0.1;5;0.034013607;0;1.0;0.065789476;0.16573545
AMQP_1_0_0;10;AMQP-148;1;1.0;3;0.015384615;0;1.0;0.03030303;1.0
AMQP_1_0_0;11;AMQP-151;1;1.0;2;0.012987013;0;1.0;0.025641026;0.537037
AMQP_1_0_0;12;AMQP-150;2;0.5;6;0.04225352;0;1.0;0.081081085;0.5531747
AMQP_1_0_0;13;AMQP-164;78;0.012820513;5;0.025510205;0;1.0;0.049751244;0.025904724
AMQP_1_0_0;14;AMQP-165;1;1.0;1;0.006329114;0;1.0;0.012578618;1.0
AMQP_1_0_0;15;AMQP-168;3;0.33333334;8;0.054054055;0;1.0;0.10256411;0.25916272
AMQP_1_0_0;16;AMQP-170;30;0.033333335;1;0.005586592;0;1.0;0.01111111;0.033333335
AMQP_1_0_0;17;AMQP-179;2;0.5;1;0.0066225166;0;1.0;0.013157894;0.5
AMQP_1_0_0;18;AMQP-223;11;0.09090909;1;0.006134969;0;1.0;0.0121951215;0.09090909
AMQP_1_0_0;19;AMQP-190;5;0.2;4;0.021276595;0;1.0;0.041666664;0.14468955
AMQP_1_0_0;20;AMQP-196;87;0.011494253;1;0.0051020407;0;1.0;0.010152284;0.011494253
