mean rec. rank;0.8888889;mean precision;0.019277446;mean recall;1.0;mean f1-score;0.037768055;mean average precision;0.7288626;% top 1;0.8333333;% top 5;1.0;% top 10;1.0
system;query ID;query key;rank;rec. rank;true positives;precision;false negatives;recall;f1 score;avg precision
CONFIGURATION_1_2;1;CONFIGURATION-214;3;0.33333334;3;0.028846154;0;1.0;0.05607477;0.2108379
CONFIGURATION_1_2;2;CONFIGURATION-220;1;1.0;2;0.01923077;0;1.0;0.037735853;1.0
CONFIGURATION_1_2;3;CONFIGURATION-228;1;1.0;2;0.01923077;0;1.0;0.037735853;0.5909091
CONFIGURATION_1_2;4;CONFIGURATION-227;1;1.0;1;0.009708738;0;1.0;0.019230768;1.0
CONFIGURATION_1_2;5;CONFIGURATION-281;1;1.0;2;0.019417476;0;1.0;0.038095236;0.5714286
CONFIGURATION_1_2;6;CONFIGURATION-412;1;1.0;2;0.01923077;0;1.0;0.037735853;1.0
