mean rec. rank;0.8333333;mean precision;0.006357819;mean recall;1.0;mean f1-score;0.012626325;mean average precision;0.6666667;% top 1;0.6666667;% top 5;1.0;% top 10;1.0
system;query ID;query key;rank;rec. rank;true positives;precision;false negatives;recall;f1 score;avg precision
AMQP_1_3_9;1;AMQP-438;1;1.0;1;0.0034722222;0;1.0;0.0069204154;1.0
AMQP_1_3_9;2;AMQP-446;2;0.5;2;0.008583691;0;1.0;0.017021278;0.375
AMQP_1_3_9;3;AMQP-447;1;1.0;2;0.007017544;0;1.0;0.013937283;0.625
