mean rec. rank;0.67479676;mean precision;0.006400045;mean recall;1.0;mean f1-score;0.012703153;mean average precision;0.6192412;% top 1;0.6666667;% top 5;0.6666667;% top 10;0.6666667
system;query ID;query key;rank;rec. rank;true positives;precision;false negatives;recall;f1 score;avg precision
AMQP_1_3_6;1;AMQP-432;1;1.0;1;0.0036630037;0;1.0;0.0072992695;1.0
AMQP_1_3_6;2;AMQP-434;41;0.024390243;1;0.005263158;0;1.0;0.010471204;0.024390243
AMQP_1_3_6;3;AMQP-468;1;1.0;3;0.0102739725;0;1.0;0.020338984;0.8333333
