mean rec. rank;0.5518707;mean precision;0.00712157;mean recall;1.0;mean f1-score;0.0140236495;mean average precision;0.5137147;% top 1;0.42857143;% top 5;0.71428573;% top 10;0.85714287
system;query ID;query key;rank;rec. rank;true positives;precision;false negatives;recall;f1 score;avg precision
DATAMONGO_1_6_4;1;DATAMONGO-1087;1;1.0;2;0.0041067763;0;1.0;0.00817996;0.75
DATAMONGO_1_6_4;2;DATAMONGO-1208;14;0.071428575;2;0.0041237115;0;1.0;0.008213553;0.08834587
DATAMONGO_1_6_4;3;DATAMONGO-1193;3;0.33333334;1;0.0028089888;0;1.0;0.0056022406;0.33333334
DATAMONGO_1_6_4;4;DATAMONGO-1229;1;1.0;2;0.004255319;0;1.0;0.008474576;1.0
DATAMONGO_1_6_4;5;DATAMONGO-1204;3;0.33333334;2;0.0041753654;0;1.0;0.008316008;0.25
DATAMONGO_1_6_4;6;DATAMONGO-1425;8;0.125;4;0.02631579;0;1.0;0.051282052;0.17432359
DATAMONGO_1_6_4;7;DATAMONGO-1437;1;1.0;1;0.0040650405;0;1.0;0.008097165;1.0
