mean rec. rank;1.0;mean precision;0.005586592;mean recall;1.0;mean f1-score;0.01111111;mean average precision;0.7;% top 1;1.0;% top 5;1.0;% top 10;1.0
system;query ID;query key;rank;rec. rank;true positives;precision;false negatives;recall;f1 score;avg precision
AMQP_1_4_4;1;AMQP-490;1;1.0;2;0.005586592;0;1.0;0.01111111;0.7
