mean rec. rank;1.0;mean precision;0.004149378;mean recall;1.0;mean f1-score;0.008264462;mean average precision;0.5067568;% top 1;1.0;% top 5;1.0;% top 10;1.0
system;query ID;query key;rank;rec. rank;true positives;precision;false negatives;recall;f1 score;avg precision
DATAMONGO_1_5_5;1;DATAMONGO-1216;1;1.0;2;0.004149378;0;1.0;0.008264462;0.5067568
