mean rec. rank;0.6111111;mean precision;0.0049531776;mean recall;1.0;mean f1-score;0.00985255;mean average precision;0.5251452;% top 1;0.33333334;% top 5;1.0;% top 10;1.0
system;query ID;query key;rank;rec. rank;true positives;precision;false negatives;recall;f1 score;avg precision
DATAMONGO_1_9_2;1;DATAMONGO-1471;2;0.5;4;0.0071813287;0;1.0;0.01426025;0.20876887
DATAMONGO_1_9_2;2;DATAMONGO-1465;1;1.0;2;0.0041067763;0;1.0;0.00817996;1.0
DATAMONGO_1_9_2;3;DATAMONGO-1486;3;0.33333334;2;0.0035714286;0;1.0;0.007117438;0.36666667
