mean rec. rank;0.75;mean precision;0.009599866;mean recall;1.0;mean f1-score;0.018947389;mean average precision;0.6740978;% top 1;0.5;% top 5;1.0;% top 10;1.0
system;query ID;query key;rank;rec. rank;true positives;precision;false negatives;recall;f1 score;avg precision
AMQP_1_2_1;1;AMQP-359;1;1.0;1;0.003816794;0;1.0;0.007604562;1.0
AMQP_1_2_1;2;AMQP-363;1;1.0;2;0.0074626864;0;1.0;0.014814814;1.0
AMQP_1_2_1;3;AMQP-365;2;0.5;5;0.01968504;0;1.0;0.038610037;0.2797243
AMQP_1_2_1;4;AMQP-385;2;0.5;2;0.007434944;0;1.0;0.014760147;0.4166667
