mean rec. rank;1.0;mean precision;0.013793103;mean recall;1.0;mean f1-score;0.027210884;mean average precision;0.67763156;% top 1;1.0;% top 5;1.0;% top 10;1.0
system;query ID;query key;rank;rec. rank;true positives;precision;false negatives;recall;f1 score;avg precision
AMQP_1_4_1;1;AMQP-469;1;1.0;4;0.013793103;0;1.0;0.027210884;0.67763156
