mean rec. rank;0.84343433;mean precision;0.0055841;mean recall;1.0;mean f1-score;0.011097803;mean average precision;0.5738803;% top 1;0.7777778;% top 5;0.8888889;% top 10;0.8888889
system;query ID;query key;rank;rec. rank;true positives;precision;false negatives;recall;f1 score;avg precision
DATAMONGO_1_5_6;1;DATAMONGO-996;1;1.0;2;0.004210526;0;1.0;0.008385744;0.5909091
DATAMONGO_1_5_6;2;DATAMONGO-995;1;1.0;2;0.004140787;0;1.0;0.008247423;1.0
DATAMONGO_1_5_6;3;DATAMONGO-1049;1;1.0;4;0.008333334;0;1.0;0.016528927;0.37799925
DATAMONGO_1_5_6;4;DATAMONGO-1062;1;1.0;1;0.0025445293;0;1.0;0.005076142;1.0
DATAMONGO_1_5_6;5;DATAMONGO-1058;2;0.5;3;0.006329114;0;1.0;0.012578618;0.275
DATAMONGO_1_5_6;6;DATAMONGO-1057;1;1.0;3;0.009375;0;1.0;0.018575853;0.77777773
DATAMONGO_1_5_6;7;DATAMONGO-1053;11;0.09090909;2;0.0042918455;0;1.0;0.008547008;0.052807488
DATAMONGO_1_5_6;8;DATAMONGO-1063;1;1.0;3;0.0062240665;0;1.0;0.012371135;0.39042935
DATAMONGO_1_5_6;9;DATAMONGO-1076;1;1.0;2;0.0048076925;0;1.0;0.009569379;0.7
