mean rec. rank;0.51878184;mean precision;0.0012628235;mean recall;0.98695654;mean f1-score;0.0025148757;mean average precision;0.4002459;% top 1;0.38260868;% top 5;0.67826086;% top 10;0.8
system;query ID;query key;rank;rec. rank;true positives;precision;false negatives;recall;f1 score;avg precision
WFCORE_1_0_0;1;WFCORE-5;16;0.0625;1;3.1615555E-4;0;1.0;6.321113E-4;0.0625
WFCORE_1_0_0;2;WFCORE-7;1;1.0;2;6.293266E-4;0;1.0;0.0012578616;0.7
WFCORE_1_0_0;3;WFCORE-8;10;0.1;1;3.154574E-4;0;1.0;6.3071586E-4;0.1
WFCORE_1_0_0;4;WFCORE-50;23;0.04347826;1;5.5555557E-4;0;1.0;0.0011104943;0.04347826
WFCORE_1_0_0;5;WFCORE-67;1;1.0;2;7.8400626E-4;0;1.0;0.0015667841;0.50934577
WFCORE_1_0_0;6;WFCORE-69;2;0.5;1;3.152585E-4;0;1.0;6.303183E-4;0.5
WFCORE_1_0_0;7;WFCORE-58;2;0.5;9;0.0028319699;0;1.0;0.005647945;0.061452296
WFCORE_1_0_0;8;WFCORE-79;2;0.5;2;9.469697E-4;0;1.0;0.0018921476;0.4166667
WFCORE_1_0_0;9;WFCORE-71;16;0.0625;4;0.0012710518;0;1.0;0.0025388766;0.046165407
WFCORE_1_0_0;10;WFCORE-64;3;0.33333334;2;6.301197E-4;0;1.0;0.0012594458;0.4166667
WFCORE_1_0_0;11;WFCORE-88;3;0.33333334;8;0.002532447;0;1.0;0.0050520995;0.22118266
WFCORE_1_0_0;12;WFCORE-82;1;1.0;10;0.0031695722;0;1.0;0.006319116;0.34512058
WFCORE_1_0_0;13;WFCORE-92;1;1.0;1;3.1476235E-4;0;1.0;6.293266E-4;1.0
WFCORE_1_0_0;14;WFCORE-72;3;0.33333334;1;3.194888E-4;0;1.0;6.3877355E-4;0.33333334
WFCORE_1_0_0;15;WFCORE-95;1;1.0;4;0.0012722646;0;1.0;0.002541296;0.44856533
WFCORE_1_0_0;16;WFCORE-46;9;0.11111111;14;0.00914435;0;1.0;0.018122979;0.2034485
WFCORE_1_0_0;17;WFCORE-117;4;0.25;1;3.170577E-4;0;1.0;6.3391443E-4;0.25
WFCORE_1_0_0;18;WFCORE-125;3;0.33333334;1;3.144654E-4;0;1.0;6.287331E-4;0.33333334
WFCORE_1_0_0;19;WFCORE-128;1;1.0;8;0.0025157232;0;1.0;0.0050188205;0.25615293
WFCORE_1_0_0;20;WFCORE-87;2;0.5;8;0.0026084122;0;1.0;0.005203252;0.22010015
WFCORE_1_0_0;21;WFCORE-132;2;0.5;1;3.1555697E-4;0;1.0;6.309149E-4;0.5
WFCORE_1_0_0;22;WFCORE-140;3;0.33333334;3;0.0010932945;0;1.0;0.002184201;0.15012039
WFCORE_1_0_0;23;WFCORE-154;12;0.083333336;1;4.8732944E-4;0;1.0;9.7418413E-4;0.083333336
WFCORE_1_0_0;24;WFCORE-205;1;1.0;1;3.1476235E-4;0;1.0;6.293266E-4;1.0
WFCORE_1_0_0;25;WFCORE-191;2;0.5;4;0.0039564786;0;1.0;0.007881774;0.39015153
WFCORE_1_0_0;26;WFCORE-190;7;0.14285715;1;8.8261254E-4;0;1.0;0.0017636684;0.14285715
WFCORE_1_0_0;27;WFCORE-196;1;1.0;4;0.0012590494;0;1.0;0.0025149323;0.28434342
WFCORE_1_0_0;28;WFCORE-207;17;0.05882353;2;6.3451775E-4;0;1.0;0.0012682307;0.032442067
WFCORE_1_0_0;29;WFCORE-233;10;0.1;1;3.2894738E-4;0;1.0;6.5767847E-4;0.1
WFCORE_1_0_0;30;WFCORE-226;1;1.0;1;3.7037037E-4;0;1.0;7.4046646E-4;1.0
WFCORE_1_0_0;31;WFCORE-221;0;0.0;0;0.0;1;0.0;0.0;0.0
WFCORE_1_0_0;32;WFCORE-243;1;1.0;1;3.28084E-4;0;1.0;6.559528E-4;1.0
WFCORE_1_0_0;33;WFCORE-202;1;1.0;3;9.4339624E-4;0;1.0;0.0018850141;0.43322256
WFCORE_1_0_0;34;WFCORE-268;4;0.25;2;6.319115E-4;0;1.0;0.0012630249;0.16499999
WFCORE_1_0_0;35;WFCORE-210;1;1.0;2;6.30517E-4;0;1.0;0.0012602395;1.0
WFCORE_1_0_0;36;WFCORE-213;4;0.25;40;0.012590494;0;1.0;0.024867889;0.24423794
WFCORE_1_0_0;37;WFCORE-145;9;0.11111111;3;9.475679E-4;0;1.0;0.0018933418;0.10900673
WFCORE_1_0_0;38;WFCORE-283;1;1.0;5;0.001651255;0;1.0;0.0032970654;0.37392688
WFCORE_1_0_0;39;WFCORE-286;3;0.33333334;1;3.182686E-4;0;1.0;6.3633465E-4;0.33333334
WFCORE_1_0_0;40;WFCORE-285;4;0.25;2;0.0012121212;2;0.5;0.0024183798;0.06373153
WFCORE_1_0_0;41;WFCORE-439;1;1.0;3;9.469697E-4;0;1.0;0.0018921476;0.35768044
WFCORE_1_0_0;42;WFCORE-449;1;1.0;1;3.144654E-4;0;1.0;6.287331E-4;1.0
WFCORE_1_0_0;43;WFCORE-267;224;0.004464286;1;3.1515915E-4;0;1.0;6.301197E-4;0.004464286
WFCORE_1_0_0;44;WFCORE-438;89;0.011235955;1;0.001150748;0;1.0;0.0022988506;0.011235955
WFCORE_1_0_0;45;WFCORE-451;2;0.5;3;9.4936707E-4;0;1.0;0.0018969332;0.30934578
WFCORE_1_0_0;46;WFCORE-229;43;0.023255814;11;0.0034602077;0;1.0;0.006896552;0.012755188
WFCORE_1_0_0;47;WFCORE-484;1;1.0;1;3.1515915E-4;0;1.0;6.301197E-4;1.0
WFCORE_1_0_0;48;WFCORE-492;4;0.25;2;6.303183E-4;0;1.0;0.0012598425;0.325
WFCORE_1_0_0;49;WFCORE-497;1;1.0;3;9.4936707E-4;0;1.0;0.0018969332;0.67011493
WFCORE_1_0_0;50;WFCORE-501;1;1.0;2;6.319115E-4;0;1.0;0.0012630249;0.8333334
WFCORE_1_0_0;51;WFCORE-507;643;0.00155521;1;3.1505985E-4;0;1.0;6.299212E-4;0.00155521
WFCORE_1_0_0;52;WFCORE-500;429;0.0023310024;1;3.8124286E-4;0;1.0;7.6219515E-4;0.0023310024
WFCORE_1_0_0;53;WFCORE-504;6;0.16666667;4;0.0012618296;0;1.0;0.0025204788;0.12528664
WFCORE_1_0_0;54;WFCORE-503;6;0.16666667;7;0.0024501225;0;1.0;0.004888268;0.07997705
WFCORE_1_0_0;55;WFCORE-513;1;1.0;1;3.1635558E-4;0;1.0;6.3251104E-4;1.0
WFCORE_1_0_0;56;WFCORE-514;1;1.0;1;3.1735958E-4;0;1.0;6.345178E-4;1.0
WFCORE_1_0_0;57;WFCORE-505;3;0.33333334;1;3.1456433E-4;0;1.0;6.289308E-4;0.33333334
WFCORE_1_0_0;58;WFCORE-495;126;0.007936508;1;3.1476235E-4;0;1.0;6.293266E-4;0.007936508
WFCORE_1_0_0;59;WFCORE-499;10;0.1;4;0.0015503876;0;1.0;0.0030959751;0.08007247
WFCORE_1_0_0;60;WFCORE-534;2;0.5;2;7.9239305E-4;0;1.0;0.0015835314;0.3
WFCORE_1_0_0;61;WFCORE-522;1;1.0;1;3.5174112E-4;0;1.0;7.0323487E-4;1.0
WFCORE_1_0_0;62;WFCORE-540;9;0.11111111;10;0.003144654;0;1.0;0.0062695923;0.026305232
WFCORE_1_0_0;63;WFCORE-541;1;1.0;1;3.8372984E-4;0;1.0;7.671653E-4;1.0
WFCORE_1_0_0;64;WFCORE-520;1;1.0;1;3.144654E-4;0;1.0;6.287331E-4;1.0
WFCORE_1_0_0;65;WFCORE-545;3;0.33333334;2;6.3071586E-4;0;1.0;0.0012606366;0.24358976
WFCORE_1_0_0;66;WFCORE-536;2;0.5;3;0.0020325202;0;1.0;0.004056795;0.4888889
WFCORE_1_0_0;67;WFCORE-566;3;0.33333334;6;0.0018951359;0;1.0;0.003783102;0.33038485
WFCORE_1_0_0;68;WFCORE-567;1;1.0;1;5.1626225E-4;0;1.0;0.0010319917;1.0
WFCORE_1_0_0;69;WFCORE-568;1;1.0;3;9.4398996E-4;0;1.0;0.0018861993;0.6333333
WFCORE_1_0_0;70;WFCORE-564;1;1.0;2;7.087172E-4;0;1.0;0.0014164306;1.0
WFCORE_1_0_0;71;WFCORE-553;1;1.0;5;0.0017029973;0;1.0;0.0034002038;0.8392857
WFCORE_1_0_0;72;WFCORE-552;3;0.33333334;4;0.0012626263;0;1.0;0.002522068;0.46944445
WFCORE_1_0_0;73;WFCORE-581;2;0.5;3;9.448819E-4;0;1.0;0.0018879799;0.1899082
WFCORE_1_0_0;74;WFCORE-547;1;1.0;4;0.0012590494;0;1.0;0.0025149323;0.69545454
WFCORE_1_0_0;75;WFCORE-591;1;1.0;1;3.1515915E-4;0;1.0;6.301197E-4;1.0
WFCORE_1_0_0;76;WFCORE-587;1;1.0;1;3.146633E-4;0;1.0;6.291286E-4;1.0
WFCORE_1_0_0;77;WFCORE-604;5;0.2;40;0.0126103405;0;1.0;0.024906602;0.13208033
WFCORE_1_0_0;78;WFCORE-623;1;1.0;1;3.1535793E-4;0;1.0;6.305171E-4;1.0
WFCORE_1_0_0;79;WFCORE-65;1;1.0;12;0.0060913707;0;1.0;0.012108982;0.23887722
WFCORE_1_0_0;80;WFCORE-632;1;1.0;12;0.003773585;0;1.0;0.007518797;0.23518004
WFCORE_1_0_0;81;WFCORE-489;1;1.0;1;3.294893E-4;0;1.0;6.5876154E-4;1.0
WFCORE_1_0_0;82;WFCORE-638;73;0.01369863;1;3.1515915E-4;0;1.0;6.301197E-4;0.01369863
WFCORE_1_0_0;83;WFCORE-232;2;0.5;5;0.0015733165;0;1.0;0.00314169;0.26299208
WFCORE_1_0_0;84;WFCORE-619;1;1.0;1;3.5625222E-4;0;1.0;7.122507E-4;1.0
WFCORE_1_0_0;85;WFCORE-627;9;0.11111111;1;3.166561E-4;0;1.0;6.3311175E-4;0.11111111
WFCORE_1_0_0;86;WFCORE-626;19;0.05263158;2;6.315125E-4;0;1.0;0.0012622278;0.035749752
WFCORE_1_0_0;87;WFCORE-580;1;1.0;2;6.2912866E-4;0;1.0;0.0012574662;0.5344828
WFCORE_1_0_0;88;WFCORE-625;31;0.032258064;3;9.4577554E-4;0;1.0;0.0018897637;0.028086022
WFCORE_1_0_0;89;WFCORE-230;142;0.0070422534;4;0.0012606366;0;1.0;0.0025180988;0.009804089
WFCORE_1_0_0;90;WFCORE-114;8;0.125;3;9.5117313E-4;0;1.0;0.0019005386;0.10215894
WFCORE_1_0_0;91;WFCORE-677;2;0.5;3;9.487666E-4;0;1.0;0.0018957346;0.50000006
WFCORE_1_0_0;92;WFCORE-681;2;0.5;1;3.1605564E-4;0;1.0;6.3191156E-4;0.5
WFCORE_1_0_0;93;WFCORE-676;320;0.003125;2;6.323111E-4;0;1.0;0.0012638231;0.0039044204
WFCORE_1_0_0;94;WFCORE-657;5;0.2;1;3.144654E-4;0;1.0;6.287331E-4;0.2
WFCORE_1_0_0;95;WFCORE-684;2;0.5;1;0.0010121458;0;1.0;0.002022245;0.5
WFCORE_1_0_0;96;WFCORE-687;9;0.11111111;6;0.0020590255;0;1.0;0.0041095894;0.14060602
WFCORE_1_0_0;97;WFCORE-694;30;0.033333335;1;3.1615555E-4;0;1.0;6.321113E-4;0.033333335
WFCORE_1_0_0;98;WFCORE-692;1;1.0;2;6.3131313E-4;0;1.0;0.0012618296;0.7
WFCORE_1_0_0;99;WFCORE-702;2;0.5;2;6.4935064E-4;0;1.0;0.0012978585;0.375
WFCORE_1_0_0;100;WFCORE-706;6;0.16666667;1;0.0011764705;0;1.0;0.0023501762;0.16666667
WFCORE_1_0_0;101;WFCORE-442;6;0.16666667;1;3.144654E-4;0;1.0;6.287331E-4;0.16666667
WFCORE_1_0_0;102;WFCORE-752;18;0.055555556;1;6.053269E-4;0;1.0;0.0012099214;0.055555556
WFCORE_1_0_0;103;WFCORE-763;115;0.008695652;2;6.2912866E-4;0;1.0;0.0012574662;0.008135704
WFCORE_1_0_0;104;WFCORE-765;5;0.2;1;3.1486145E-4;0;1.0;6.295247E-4;0.2
WFCORE_1_0_0;105;WFCORE-754;164;0.0060975607;1;3.1496063E-4;0;1.0;6.2972296E-4;0.0060975607
WFCORE_1_0_0;106;WFCORE-774;1;1.0;1;3.1595575E-4;0;1.0;6.3171197E-4;1.0
WFCORE_1_0_0;107;WFCORE-691;1;1.0;5;0.0015748031;0;1.0;0.0031446542;0.44033375
WFCORE_1_0_0;108;WFCORE-579;2;0.5;1;3.2583904E-4;0;1.0;6.5146585E-4;0.5
WFCORE_1_0_0;109;WFCORE-987;1;1.0;1;3.1456433E-4;0;1.0;6.289308E-4;1.0
WFCORE_1_0_0;110;WFCORE-1020;1;1.0;1;3.1476235E-4;0;1.0;6.293266E-4;1.0
WFCORE_1_0_0;111;WFCORE-1047;1;1.0;3;9.43693E-4;0;1.0;0.0018856066;0.34270862
WFCORE_1_0_0;112;WFCORE-1067;11;0.09090909;5;0.001572327;0;1.0;0.0031397173;0.071269825
WFCORE_1_0_0;113;WFCORE-683;1;1.0;1;3.1476235E-4;0;1.0;6.293266E-4;1.0
WFCORE_1_0_0;114;WFCORE-701;46;0.02173913;1;3.3840947E-4;0;1.0;6.7658996E-4;0.02173913
WFCORE_1_0_0;115;WFCORE-263;1;1.0;13;0.004475043;0;1.0;0.008910213;0.14779243
