mean rec. rank;0.75;mean precision;0.007281187;mean recall;1.0;mean f1-score;0.014451799;mean average precision;0.634377;% top 1;0.5;% top 5;1.0;% top 10;1.0
system;query ID;query key;rank;rec. rank;true positives;precision;false negatives;recall;f1 score;avg precision
DATAMONGO_1_2_3;1;DATAMONGO-752;1;1.0;2;0.0056338026;0;1.0;0.011204481;1.0
DATAMONGO_1_2_3;2;DATAMONGO-745;2;0.5;3;0.008928572;0;1.0;0.017699117;0.26875407
