mean rec. rank;0.78125;mean precision;0.008389756;mean recall;1.0;mean f1-score;0.016622512;mean average precision;0.69642854;% top 1;0.625;% top 5;1.0;% top 10;1.0
system;query ID;query key;rank;rec. rank;true positives;precision;false negatives;recall;f1 score;avg precision
IO_2_1;1;IO-303;1;1.0;2;0.011111111;0;1.0;0.021978023;0.75
IO_2_1;2;IO-302;1;1.0;2;0.010638298;0;1.0;0.02105263;1.0
IO_2_1;3;IO-304;1;1.0;1;0.005319149;0;1.0;0.01058201;1.0
IO_2_1;4;IO-298;4;0.25;1;0.005319149;0;1.0;0.01058201;0.25
IO_2_1;5;IO-306;1;1.0;2;0.012820513;0;1.0;0.025316456;0.5714286
IO_2_1;6;IO-307;2;0.5;1;0.005952381;0;1.0;0.01183432;0.5
IO_2_1;7;IO-319;1;1.0;2;0.010638298;0;1.0;0.02105263;1.0
IO_2_1;8;IO-453;2;0.5;1;0.005319149;0;1.0;0.01058201;0.5
