mean rec. rank;0.77575755;mean precision;0.00348735;mean recall;1.0;mean f1-score;0.006948091;mean average precision;0.6664493;% top 1;0.6363636;% top 5;1.0;% top 10;1.0
system;query ID;query key;rank;rec. rank;true positives;precision;false negatives;recall;f1 score;avg precision
DATAMONGO_1_7_2;1;DATAMONGO-1244;1;1.0;2;0.0037383179;0;1.0;0.00744879;0.6666667
DATAMONGO_1_7_2;2;DATAMONGO-1307;5;0.2;1;0.0019157088;0;1.0;0.0038240917;0.2
DATAMONGO_1_7_2;3;DATAMONGO-1276;1;1.0;1;0.0018939395;0;1.0;0.0037807182;1.0
DATAMONGO_1_7_2;4;DATAMONGO-1293;1;1.0;2;0.0038461538;0;1.0;0.007662835;1.0
DATAMONGO_1_7_2;5;DATAMONGO-1295;1;1.0;1;0.0019120459;0;1.0;0.0038167941;1.0
DATAMONGO_1_7_2;6;DATAMONGO-1335;1;1.0;2;0.0037313432;0;1.0;0.0074349437;0.75
DATAMONGO_1_7_2;7;DATAMONGO-1342;1;1.0;2;0.0042643924;0;1.0;0.008492569;1.0
DATAMONGO_1_7_2;8;DATAMONGO-1288;3;0.33333334;3;0.0056074765;0;1.0;0.011152416;0.13746439
DATAMONGO_1_7_2;9;DATAMONGO-1401;1;1.0;2;0.0037807184;0;1.0;0.007532957;0.54347825
DATAMONGO_1_7_2;10;DATAMONGO-1406;2;0.5;2;0.0038022813;0;1.0;0.0075757573;0.45
DATAMONGO_1_7_2;11;DATAMONGO-1368;2;0.5;2;0.003868472;0;1.0;0.007707129;0.5833334
