mean rec. rank;1.0;mean precision;0.003816794;mean recall;1.0;mean f1-score;0.007604562;mean average precision;0.625;% top 1;1.0;% top 5;1.0;% top 10;1.0
system;query ID;query key;rank;rec. rank;true positives;precision;false negatives;recall;f1 score;avg precision
DATAMONGO_1_8_6;1;DATAMONGO-1513;1;1.0;2;0.003816794;0;1.0;0.007604562;0.625
