mean rec. rank;0.8541666;mean precision;0.013703866;mean recall;1.0;mean f1-score;0.026997278;mean average precision;0.7947669;% top 1;0.75;% top 5;1.0;% top 10;1.0
system;query ID;query key;rank;rec. rank;true positives;precision;false negatives;recall;f1 score;avg precision
CONFIGURATION_1_9;1;CONFIGURATION-521;1;1.0;2;0.00913242;0;1.0;0.018099548;1.0
CONFIGURATION_1_9;2;CONFIGURATION-525;1;1.0;4;0.01826484;0;1.0;0.035874438;1.0
CONFIGURATION_1_9;3;CONFIGURATION-534;1;1.0;2;0.00913242;0;1.0;0.018099548;0.8333334
CONFIGURATION_1_9;4;CONFIGURATION-537;3;0.33333334;4;0.01826484;0;1.0;0.035874438;0.45119047
CONFIGURATION_1_9;5;CONFIGURATION-516;2;0.5;2;0.00913242;0;1.0;0.018099548;0.45
CONFIGURATION_1_9;6;CONFIGURATION-552;1;1.0;4;0.01826484;0;1.0;0.035874438;0.8875
CONFIGURATION_1_9;7;CONFIGURATION-555;1;1.0;2;0.0091743115;0;1.0;0.018181818;1.0
CONFIGURATION_1_9;8;CONFIGURATION-310;1;1.0;4;0.01826484;0;1.0;0.035874438;0.7361111
