mean rec. rank;0.8117647;mean precision;0.00960387;mean recall;1.0;mean f1-score;0.019014118;mean average precision;0.6111493;% top 1;0.8;% top 5;0.8;% top 10;0.8
system;query ID;query key;rank;rec. rank;true positives;precision;false negatives;recall;f1 score;avg precision
DATACMNS_1_6_1;1;DATACMNS-385;1;1.0;2;0.0058651026;0;1.0;0.011661808;1.0
DATACMNS_1_6_1;2;DATACMNS-408;1;1.0;4;0.011111111;0;1.0;0.021978023;0.5404041
DATACMNS_1_6_1;3;DATACMNS-377;1;1.0;4;0.010899182;0;1.0;0.021563342;0.89285713
DATACMNS_1_6_1;4;DATACMNS-379;17;0.05882353;2;0.007874016;0;1.0;0.015625;0.07486631
DATACMNS_1_6_1;5;DATACMNS-429;1;1.0;2;0.012269938;0;1.0;0.024242423;0.54761904
