mean rec. rank;0.33333334;mean precision;0.0035714286;mean recall;1.0;mean f1-score;0.007117438;mean average precision;0.21428572;% top 1;0.0;% top 5;1.0;% top 10;1.0
system;query ID;query key;rank;rec. rank;true positives;precision;false negatives;recall;f1 score;avg precision
DATAMONGO_1_9_5;1;DATAMONGO-1565;3;0.33333334;2;0.0035714286;0;1.0;0.007117438;0.21428572
