mean rec. rank;0.6722222;mean precision;0.009718974;mean recall;1.0;mean f1-score;0.01923185;mean average precision;0.55548364;% top 1;0.5;% top 5;1.0;% top 10;1.0
system;query ID;query key;rank;rec. rank;true positives;precision;false negatives;recall;f1 score;avg precision
DATACMNS_1_4_1;1;DATACMNS-283;2;0.5;3;0.014563107;0;1.0;0.028708136;0.34004474
DATACMNS_1_4_1;2;DATACMNS-281;1;1.0;2;0.01369863;0;1.0;0.027027028;0.6666667
DATACMNS_1_4_1;3;DATACMNS-300;1;1.0;2;0.0074626864;0;1.0;0.014814814;0.75
DATACMNS_1_4_1;4;DATACMNS-309;5;0.2;2;0.007633588;0;1.0;0.015151516;0.24285716
DATACMNS_1_4_1;5;DATACMNS-323;1;1.0;2;0.007380074;0;1.0;0.014652014;1.0
DATACMNS_1_4_1;6;DATACMNS-304;3;0.33333334;1;0.007575758;0;1.0;0.015037594;0.33333334
