mean rec. rank;0.46405232;mean precision;0.0026431673;mean recall;1.0;mean f1-score;0.0052713067;mean average precision;0.2980409;% top 1;0.33333334;% top 5;0.6666667;% top 10;0.6666667
system;query ID;query key;rank;rec. rank;true positives;precision;false negatives;recall;f1 score;avg precision
SWARM_2016_10_0;1;SWARM-710;1;1.0;2;0.0031948881;0;1.0;0.0063694264;0.510101
SWARM_2016_10_0;2;SWARM-757;3;0.33333334;1;0.0015948963;0;1.0;0.0031847134;0.33333334
SWARM_2016_10_0;3;SWARM-793;17;0.05882353;2;0.0031397175;0;1.0;0.006259781;0.05068836
