mean rec. rank;0.16666667;mean precision;0.012345679;mean recall;1.0;mean f1-score;0.024390245;mean average precision;0.19444445;% top 1;0.0;% top 5;0.0;% top 10;1.0
system;query ID;query key;rank;rec. rank;true positives;precision;false negatives;recall;f1 score;avg precision
COMPRESS_1_4;1;COMPRESS-187;6;0.16666667;2;0.012345679;0;1.0;0.024390245;0.19444445
