mean rec. rank;0.7315629;mean precision;0.005153296;mean recall;1.0;mean f1-score;0.010238401;mean average precision;0.56570894;% top 1;0.6923077;% top 5;0.7692308;% top 10;0.84615386
system;query ID;query key;rank;rec. rank;true positives;precision;false negatives;recall;f1 score;avg precision
DATACMNS_1_10_2;1;DATACMNS-748;7;0.14285715;1;0.0019011407;0;1.0;0.0037950664;0.14285715
DATACMNS_1_10_2;2;DATACMNS-750;1;1.0;2;0.003921569;0;1.0;0.0078125;0.7
DATACMNS_1_10_2;3;DATACMNS-755;1;1.0;2;0.003937008;0;1.0;0.007843137;0.8333334
DATACMNS_1_10_2;4;DATACMNS-761;1;1.0;2;0.006557377;0;1.0;0.013029316;1.0
DATACMNS_1_10_2;5;DATACMNS-763;1;1.0;2;0.003816794;0;1.0;0.007604562;0.5181818
DATACMNS_1_10_2;6;DATACMNS-772;1;1.0;4;0.0121951215;0;1.0;0.024096385;0.66590905
DATACMNS_1_10_2;7;DATACMNS-769;38;0.02631579;2;0.0040241447;0;1.0;0.008016032;0.019651402
DATACMNS_1_10_2;8;DATACMNS-773;1;1.0;4;0.007736944;0;1.0;0.015355087;0.43313748
DATACMNS_1_10_2;9;DATACMNS-789;128;0.0078125;1;0.0043290043;0;1.0;0.00862069;0.0078125
DATACMNS_1_10_2;10;DATACMNS-799;1;1.0;2;0.00390625;0;1.0;0.007782101;1.0
DATACMNS_1_10_2;11;DATACMNS-843;1;1.0;2;0.00877193;0;1.0;0.017391305;0.7
DATACMNS_1_10_2;12;DATACMNS-690;1;1.0;2;0.0038834952;0;1.0;0.007736944;1.0
DATACMNS_1_10_2;13;DATACMNS-906;3;0.33333334;1;0.0020120724;0;1.0;0.0040160646;0.33333334
