mean rec. rank;0.125;mean precision;0.0057142857;mean recall;1.0;mean f1-score;0.011363636;mean average precision;0.1125;% top 1;0.0;% top 5;0.0;% top 10;1.0
system;query ID;query key;rank;rec. rank;true positives;precision;false negatives;recall;f1 score;avg precision
AMQP_1_6_1;1;AMQP-633;8;0.125;2;0.0057142857;0;1.0;0.011363636;0.1125
