mean rec. rank;0.53571427;mean precision;0.005784366;mean recall;1.0;mean f1-score;0.011494589;mean average precision;0.27730602;% top 1;0.5;% top 5;0.5;% top 10;0.5
system;query ID;query key;rank;rec. rank;true positives;precision;false negatives;recall;f1 score;avg precision
DATAMONGO_1_8_1;1;DATAMONGO-1334;1;1.0;4;0.007751938;0;1.0;0.015384615;0.5119048
DATAMONGO_1_8_1;2;DATAMONGO-1394;14;0.071428575;2;0.003816794;0;1.0;0.007604562;0.042707294
