mean rec. rank;0.77777773;mean precision;0.019277446;mean recall;1.0;mean f1-score;0.037768055;mean average precision;0.69824743;% top 1;0.6666667;% top 5;0.8333333;% top 10;1.0
system;query ID;query key;rank;rec. rank;true positives;precision;false negatives;recall;f1 score;avg precision
CONFIGURATION_1_2;1;CONFIGURATION-214;6;0.16666667;3;0.028846154;0;1.0;0.05607477;0.21031748
CONFIGURATION_1_2;2;CONFIGURATION-220;1;1.0;2;0.01923077;0;1.0;0.037735853;1.0
CONFIGURATION_1_2;3;CONFIGURATION-228;2;0.5;2;0.01923077;0;1.0;0.037735853;0.3125
CONFIGURATION_1_2;4;CONFIGURATION-227;1;1.0;1;0.009708738;0;1.0;0.019230768;1.0
CONFIGURATION_1_2;5;CONFIGURATION-281;1;1.0;2;0.019417476;0;1.0;0.038095236;0.6666667
CONFIGURATION_1_2;6;CONFIGURATION-412;1;1.0;2;0.01923077;0;1.0;0.037735853;1.0
