mean rec. rank;0.6733333;mean precision;0.015300165;mean recall;1.0;mean f1-score;0.030051077;mean average precision;0.51918596;% top 1;0.6;% top 5;0.8;% top 10;1.0
system;query ID;query key;rank;rec. rank;true positives;precision;false negatives;recall;f1 score;avg precision
AMQP_1_1_2;1;AMQP-272;1;1.0;1;0.005076142;0;1.0;0.010101009;1.0
AMQP_1_1_2;2;AMQP-275;6;0.16666667;3;0.013761468;0;1.0;0.02714932;0.11458955
AMQP_1_1_2;3;AMQP-274;1;1.0;5;0.025906736;0;1.0;0.050505053;0.85090905
AMQP_1_1_2;4;AMQP-268;1;1.0;3;0.013574661;0;1.0;0.026785713;0.5064516
AMQP_1_1_2;5;AMQP-290;5;0.2;4;0.018181818;0;1.0;0.035714284;0.12397959
