mean rec. rank;0.6111111;mean precision;0.016058763;mean recall;1.0;mean f1-score;0.0315184;mean average precision;0.51381767;% top 1;0.33333334;% top 5;1.0;% top 10;1.0
system;query ID;query key;rank;rec. rank;true positives;precision;false negatives;recall;f1 score;avg precision
COMPRESS_1_1;1;COMPRESS-119;1;1.0;2;0.01904762;0;1.0;0.03738318;1.0
COMPRESS_1_1;2;COMPRESS-125;3;0.33333334;1;0.010638298;0;1.0;0.02105263;0.33333334
COMPRESS_1_1;3;COMPRESS-117;2;0.5;2;0.01904762;0;1.0;0.03738318;0.5
COMPRESS_1_1;4;COMPRESS-139;2;0.5;1;0.00952381;0;1.0;0.018867925;0.5
COMPRESS_1_1;5;COMPRESS-129;1;1.0;3;0.028571429;0;1.0;0.055555552;0.4162393
COMPRESS_1_1;6;COMPRESS-131;3;0.33333334;1;0.00952381;0;1.0;0.018867925;0.33333334
