mean rec. rank;0.18190385;mean precision;0.0017001512;mean recall;1.0;mean f1-score;0.0033869194;mean average precision;0.11421954;% top 1;0.09090909;% top 5;0.27272728;% top 10;0.45454547
system;query ID;query key;rank;rec. rank;true positives;precision;false negatives;recall;f1 score;avg precision
WFCORE_2_0_4;1;WFCORE-1188;4;0.25;2;6.056935E-4;0;1.0;0.0012106537;0.15948276
WFCORE_2_0_4;2;WFCORE-1214;10;0.1;2;5.9417705E-4;0;1.0;0.0011876485;0.057692308
WFCORE_2_0_4;3;WFCORE-1212;4;0.25;1;2.9691213E-4;0;1.0;5.9364794E-4;0.25
WFCORE_2_0_4;4;WFCORE-1213;21;0.04761905;2;5.963029E-4;0;1.0;0.0011918951;0.062271066
WFCORE_2_0_4;5;WFCORE-1210;7;0.14285715;3;9.904259E-4;0;1.0;0.001978892;0.0666321
WFCORE_2_0_4;6;WFCORE-1239;1;1.0;19;0.0056530796;0;1.0;0.011242605;0.4436115
WFCORE_2_0_4;7;WFCORE-1209;14;0.071428575;3;9.0470444E-4;0;1.0;0.0018077735;0.033034015
WFCORE_2_0_4;8;WFCORE-1198;52;0.01923077;2;5.934718E-4;0;1.0;0.0011862396;0.0102802785
WFCORE_2_0_4;9;WFCORE-1226;11;0.09090909;1;2.9770765E-4;0;1.0;5.952381E-4;0.09090909
WFCORE_2_0_4;10;WFCORE-1232;124;0.008064516;3;0.0024630541;0;1.0;0.004914005;0.008118602
WFCORE_2_0_4;11;WFCORE-1231;48;0.020833334;12;0.0057061343;0;1.0;0.011347517;0.074383155
