mean rec. rank;0.9166667;mean precision;0.0058809887;mean recall;1.0;mean f1-score;0.011674122;mean average precision;0.7417028;% top 1;0.8333333;% top 5;1.0;% top 10;1.0
system;query ID;query key;rank;rec. rank;true positives;precision;false negatives;recall;f1 score;avg precision
DATACMNS_1_12_1;1;DATACMNS-859;2;0.5;2;0.007194245;0;1.0;0.014285714;0.5833334
DATACMNS_1_12_1;2;DATACMNS-860;1;1.0;2;0.003875969;0;1.0;0.0077220076;1.0
DATACMNS_1_12_1;3;DATACMNS-856;1;1.0;1;0.0018903592;0;1.0;0.0037735852;1.0
DATACMNS_1_12_1;4;DATACMNS-862;1;1.0;2;0.006116208;0;1.0;0.012158056;0.54545456
DATACMNS_1_12_1;5;DATACMNS-848;1;1.0;2;0.0044444446;0;1.0;0.0088495575;0.75
DATACMNS_1_12_1;6;DATACMNS-951;1;1.0;2;0.011764706;0;1.0;0.023255814;0.5714286
