mean rec. rank;0.37147573;mean precision;7.5196294E-4;mean recall;0.9959184;mean f1-score;0.0015018743;mean average precision;0.3084448;% top 1;0.22857143;% top 5;0.54285717;% top 10;0.5714286
system;query ID;query key;rank;rec. rank;true positives;precision;false negatives;recall;f1 score;avg precision
WFCORE_2_1_0;1;WFCORE-1406;249;0.004016064;1;6.2189053E-4;0;1.0;0.0012430081;0.004016064
WFCORE_2_1_0;2;WFCORE-1432;3;0.33333334;1;4.0209087E-4;0;1.0;8.038585E-4;0.33333334
WFCORE_2_1_0;3;WFCORE-1394;1;1.0;1;3.2905562E-4;0;1.0;6.5789477E-4;1.0
WFCORE_2_1_0;4;WFCORE-1370;1;1.0;1;2.9877503E-4;0;1.0;5.973716E-4;1.0
WFCORE_2_1_0;5;WFCORE-1397;3;0.33333334;3;8.857396E-4;0;1.0;0.0017699115;0.2449495
WFCORE_2_1_0;6;WFCORE-1426;5;0.2;1;2.9515938E-4;0;1.0;5.9014454E-4;0.2
WFCORE_2_1_0;7;WFCORE-1398;2;0.5;1;2.9832937E-4;0;1.0;5.9648074E-4;0.5
WFCORE_2_1_0;8;WFCORE-1428;25;0.04;1;2.967359E-4;0;1.0;5.932958E-4;0.04
WFCORE_2_1_0;9;WFCORE-1430;11;0.09090909;1;2.9524654E-4;0;1.0;5.9031876E-4;0.09090909
WFCORE_2_1_0;10;WFCORE-1439;98;0.010204081;6;0.0028409092;1;0.85714287;0.005663049;0.0057467497
WFCORE_2_1_0;11;WFCORE-1420;22;0.045454547;2;9.136592E-4;0;1.0;0.0018256505;0.026105652
WFCORE_2_1_0;12;WFCORE-1435;2;0.5;2;5.91366E-4;0;1.0;0.001182033;0.2621951
WFCORE_2_1_0;13;WFCORE-1437;17;0.05882353;1;2.9594556E-4;0;1.0;5.91716E-4;0.05882353
WFCORE_2_1_0;14;WFCORE-1399;3;0.33333334;2;6.889425E-4;0;1.0;0.0013769364;0.1851852
WFCORE_2_1_0;15;WFCORE-1452;20;0.05;3;9.920635E-4;0;1.0;0.0019821606;0.05953033
WFCORE_2_1_0;16;WFCORE-1448;3;0.33333334;8;0.002365464;0;1.0;0.004719764;0.084762864
WFCORE_2_1_0;17;WFCORE-1450;1;1.0;1;3.3955858E-4;0;1.0;6.7888666E-4;1.0
WFCORE_2_1_0;18;WFCORE-1453;42;0.023809524;8;0.002532447;0;1.0;0.0050520995;0.033753388
WFCORE_2_1_0;19;WFCORE-1464;3;0.33333334;1;4.0016006E-4;0;1.0;8.0E-4;0.33333334
WFCORE_2_1_0;20;WFCORE-1373;19;0.05263158;1;2.9612082E-4;0;1.0;5.920663E-4;0.05263158
WFCORE_2_1_0;21;WFCORE-1395;55;0.018181818;2;5.904931E-4;0;1.0;0.0011802893;0.016964924
WFCORE_2_1_0;22;WFCORE-1456;2;0.5;4;0.0011844833;0;1.0;0.002366164;0.4063853
WFCORE_2_1_0;23;WFCORE-1486;1;1.0;1;2.9524654E-4;0;1.0;5.9031876E-4;1.0
WFCORE_2_1_0;24;WFCORE-1470;1;1.0;2;5.9154094E-4;0;1.0;0.0011823825;1.0
WFCORE_2_1_0;25;WFCORE-1501;6;0.16666667;3;8.862629E-4;0;1.0;0.0017709562;0.09371537
WFCORE_2_1_0;26;WFCORE-1525;1;1.0;2;5.980861E-4;0;1.0;0.0011954572;0.515873
WFCORE_2_1_0;27;WFCORE-1490;1706;5.8616645E-4;1;2.985966E-4;0;1.0;5.970149E-4;5.8616645E-4
WFCORE_2_1_0;28;WFCORE-1491;814;0.0012285012;1;4.7687173E-4;0;1.0;9.532889E-4;0.0012285012
WFCORE_2_1_0;29;WFCORE-1493;16;0.0625;1;2.9603316E-4;0;1.0;5.918911E-4;0.0625
WFCORE_2_1_0;30;WFCORE-1474;1;1.0;2;5.932958E-4;0;1.0;0.001185888;0.8333334
WFCORE_2_1_0;31;WFCORE-1528;122;0.008196721;4;0.001183432;0;1.0;0.0023640662;0.0090038795
WFCORE_2_1_0;32;WFCORE-1523;1;1.0;2;6.633499E-4;0;1.0;0.0013258203;0.50250626
WFCORE_2_1_0;33;WFCORE-1481;563;0.001776199;6;0.0017883755;0;1.0;0.003570366;0.0048618517
WFCORE_2_1_0;34;WFCORE-1563;2;0.5;1;2.9524654E-4;0;1.0;5.9031876E-4;0.5
WFCORE_2_1_0;35;WFCORE-1592;2;0.5;2;5.9772865E-4;0;1.0;0.0011947432;0.33333334
