mean rec. rank;0.61263317;mean precision;0.013528028;mean recall;1.0;mean f1-score;0.02661904;mean average precision;0.52217674;% top 1;0.44444445;% top 5;0.7777778;% top 10;0.8888889
system;query ID;query key;rank;rec. rank;true positives;precision;false negatives;recall;f1 score;avg precision
DATACMNS_1_1_0;1;DATACMNS-81;1;1.0;1;0.007518797;0;1.0;0.014925374;1.0
DATACMNS_1_1_0;2;DATACMNS-92;2;0.5;2;0.015748031;0;1.0;0.031007752;0.3611111
DATACMNS_1_1_0;3;DATACMNS-108;6;0.16666667;3;0.021276595;0;1.0;0.041666664;0.10607179
DATACMNS_1_1_0;4;DATACMNS-109;73;0.01369863;1;0.006369427;0;1.0;0.012658227;0.01369863
DATACMNS_1_1_0;5;DATACMNS-114;3;0.33333334;1;0.0058479533;0;1.0;0.011627907;0.33333334
DATACMNS_1_1_0;6;DATACMNS-125;1;1.0;2;0.018691588;0;1.0;0.03669725;1.0
DATACMNS_1_1_0;7;DATACMNS-120;2;0.5;1;0.0070422534;0;1.0;0.013986013;0.5
DATACMNS_1_1_0;8;DATACMNS-238;1;1.0;3;0.01898734;0;1.0;0.03726708;0.6969697
DATACMNS_1_1_0;9;DATACMNS-117;1;1.0;3;0.02027027;0;1.0;0.039735097;0.6884058
