mean rec. rank;0.071692415;mean precision;6.288754E-4;mean recall;1.0;mean f1-score;0.0012568987;mean average precision;0.047092922;% top 1;0.0;% top 5;0.0;% top 10;0.25
system;query ID;query key;rank;rec. rank;true positives;precision;false negatives;recall;f1 score;avg precision
WFCORE_2_0_7;1;WFCORE-1331;17;0.05882353;2;6.365372E-4;0;1.0;0.0012722645;0.031911764
WFCORE_2_0_7;2;WFCORE-1311;27;0.037037037;1;3.9510074E-4;0;1.0;7.898894E-4;0.037037037
WFCORE_2_0_7;3;WFCORE-1309;11;0.09090909;3;8.8862557E-4;0;1.0;0.0017756732;0.041645102
WFCORE_2_0_7;4;WFCORE-1333;10;0.1;2;5.952381E-4;0;1.0;0.0011897681;0.07777778
