mean rec. rank;0.45295003;mean precision;0.011060084;mean recall;1.0;mean f1-score;0.021857377;mean average precision;0.33473557;% top 1;0.42857143;% top 5;0.42857143;% top 10;0.42857143
system;query ID;query key;rank;rec. rank;true positives;precision;false negatives;recall;f1 score;avg precision
DATACMNS_1_2_1;1;DATACMNS-132;1;1.0;2;0.015625;0;1.0;0.03076923;0.64285713
DATACMNS_1_2_1;2;DATACMNS-139;1;1.0;2;0.010928961;0;1.0;0.02162162;1.0
DATACMNS_1_2_1;3;DATACMNS-154;71;0.014084507;2;0.010152284;0;1.0;0.0201005;0.019387932
DATACMNS_1_2_1;4;DATACMNS-157;18;0.055555556;2;0.010152284;0;1.0;0.0201005;0.054804806
DATACMNS_1_2_1;5;DATACMNS-160;22;0.045454547;2;0.010152284;0;1.0;0.0201005;0.057210032
DATACMNS_1_2_1;6;DATACMNS-133;1;1.0;3;0.015228426;0;1.0;0.030000001;0.5133333
DATACMNS_1_2_1;7;DATACMNS-176;18;0.055555556;1;0.005181347;0;1.0;0.010309278;0.055555556
