mean rec. rank;0.46198833;mean precision;0.011371665;mean recall;1.0;mean f1-score;0.022447662;mean average precision;0.2736486;% top 1;0.33333334;% top 5;0.6666667;% top 10;0.6666667
system;query ID;query key;rank;rec. rank;true positives;precision;false negatives;recall;f1 score;avg precision
AMQP_1_5_1;1;AMQP-540;1;1.0;2;0.007434944;0;1.0;0.014760147;0.51724136
AMQP_1_5_1;2;AMQP-542;3;0.33333334;6;0.01775148;0;1.0;0.034883723;0.25238863
AMQP_1_5_1;3;AMQP-541;19;0.05263158;2;0.008928572;0;1.0;0.017699117;0.051315792
