mean rec. rank;0.33333334;mean precision;0.010204081;mean recall;1.0;mean f1-score;0.02020202;mean average precision;0.36666667;% top 1;0.0;% top 5;1.0;% top 10;1.0
system;query ID;query key;rank;rec. rank;true positives;precision;false negatives;recall;f1 score;avg precision
AMQP_1_3_5;1;AMQP-421;3;0.33333334;2;0.010204081;0;1.0;0.02020202;0.36666667
