mean rec. rank;0.6722222;mean precision;0.016742771;mean recall;1.0;mean f1-score;0.032614823;mean average precision;0.5051362;% top 1;0.5;% top 5;1.0;% top 10;1.0
system;query ID;query key;rank;rec. rank;true positives;precision;false negatives;recall;f1 score;avg precision
CONFIGURATION_1_8;1;CONFIGURATION-487;3;0.33333334;3;0.01369863;0;1.0;0.027027028;0.3873016
CONFIGURATION_1_8;2;CONFIGURATION-495;5;0.2;3;0.01369863;0;1.0;0.027027028;0.123285495
CONFIGURATION_1_8;3;CONFIGURATION-501;2;0.5;2;0.00913242;0;1.0;0.018099548;0.5833334
CONFIGURATION_1_8;4;CONFIGURATION-504;1;1.0;10;0.0456621;0;1.0;0.08733625;0.5202301
CONFIGURATION_1_8;5;CONFIGURATION-540;1;1.0;2;0.00913242;0;1.0;0.018099548;0.75
CONFIGURATION_1_8;6;CONFIGURATION-546;1;1.0;2;0.00913242;0;1.0;0.018099548;0.6666667
