mean rec. rank;0.48935187;mean precision;0.00857577;mean recall;1.0;mean f1-score;0.016993875;mean average precision;0.42077026;% top 1;0.33333334;% top 5;0.6666667;% top 10;1.0
system;query ID;query key;rank;rec. rank;true positives;precision;false negatives;recall;f1 score;avg precision
COMPRESS_1_6;1;COMPRESS-241;1;1.0;1;0.0051020407;0;1.0;0.010152284;1.0
COMPRESS_1_6;2;COMPRESS-244;5;0.2;1;0.0051020407;0;1.0;0.010152284;0.2
COMPRESS_1_6;3;COMPRESS-245;9;0.11111111;2;0.010204081;0;1.0;0.02020202;0.1010101
COMPRESS_1_6;4;COMPRESS-249;1;1.0;2;0.010638298;0;1.0;0.02105263;0.5555556
COMPRESS_1_6;5;COMPRESS-252;8;0.125;2;0.010204081;0;1.0;0.02020202;0.08472222
COMPRESS_1_6;6;COMPRESS-256;2;0.5;2;0.010204081;0;1.0;0.02020202;0.5833334
