mean rec. rank;0.8333333;mean precision;0.010493117;mean recall;1.0;mean f1-score;0.020721681;mean average precision;0.6719316;% top 1;0.75;% top 5;1.0;% top 10;1.0
system;query ID;query key;rank;rec. rank;true positives;precision;false negatives;recall;f1 score;avg precision
COMPRESS_1_11;1;COMPRESS-348;1;1.0;2;0.0076045627;0;1.0;0.015094339;0.75
COMPRESS_1_11;2;COMPRESS-355;1;1.0;2;0.007751938;0;1.0;0.015384615;1.0
COMPRESS_1_11;3;COMPRESS-356;1;1.0;2;0.0076045627;0;1.0;0.015094339;0.8333334
COMPRESS_1_11;4;COMPRESS-351;3;0.33333334;5;0.019011406;0;1.0;0.03731343;0.104393005
