mean rec. rank;1.0;mean precision;0.008510638;mean recall;1.0;mean f1-score;0.016877638;mean average precision;0.55263156;% top 1;1.0;% top 5;1.0;% top 10;1.0
system;query ID;query key;rank;rec. rank;true positives;precision;false negatives;recall;f1 score;avg precision
AMQP_1_3_3;1;AMQP-396;1;1.0;2;0.008510638;0;1.0;0.016877638;0.55263156
