mean rec. rank;0.5416667;mean precision;0.003346092;mean recall;1.0;mean f1-score;0.0066672554;mean average precision;0.5416667;% top 1;0.5;% top 5;0.5;% top 10;0.5
system;query ID;query key;rank;rec. rank;true positives;precision;false negatives;recall;f1 score;avg precision
DATACMNS_1_9_2;1;DATACMNS-640;1;1.0;2;0.004494382;0;1.0;0.008948546;1.0
DATACMNS_1_9_2;2;DATACMNS-648;12;0.083333336;1;0.0021978023;0;1.0;0.004385965;0.083333336
