mean rec. rank;0.6666667;mean precision;0.00606261;mean recall;1.0;mean f1-score;0.012042135;mean average precision;0.54761904;% top 1;0.33333334;% top 5;1.0;% top 10;1.0
system;query ID;query key;rank;rec. rank;true positives;precision;false negatives;recall;f1 score;avg precision
COMPRESS_1_8_1;1;COMPRESS-287;2;0.5;1;0.004464286;0;1.0;0.008888889;0.5
COMPRESS_1_8_1;2;COMPRESS-289;1;1.0;2;0.009259259;0;1.0;0.018348625;0.64285713
COMPRESS_1_8_1;3;COMPRESS-297;2;0.5;1;0.004464286;0;1.0;0.008888889;0.5
