mean rec. rank;1.0;mean precision;0.0050125313;mean recall;1.0;mean f1-score;0.009975063;mean average precision;1.0;% top 1;1.0;% top 5;1.0;% top 10;1.0
system;query ID;query key;rank;rec. rank;true positives;precision;false negatives;recall;f1 score;avg precision
DATACMNS_1_11_2;1;DATACMNS-804;1;1.0;2;0.0050125313;0;1.0;0.009975063;1.0
