mean rec. rank;0.57051283;mean precision;0.016925141;mean recall;1.0;mean f1-score;0.03307334;mean average precision;0.42517456;% top 1;0.42857143;% top 5;0.85714287;% top 10;0.85714287
system;query ID;query key;rank;rec. rank;true positives;precision;false negatives;recall;f1 score;avg precision
COMPRESS_1_8;1;COMPRESS-270;1;1.0;4;0.018779343;0;1.0;0.03686636;0.2947476
COMPRESS_1_8;2;COMPRESS-277;1;1.0;1;0.0045045046;0;1.0;0.008968609;1.0
COMPRESS_1_8;3;COMPRESS-276;13;0.07692308;7;0.03153153;0;1.0;0.06113537;0.05261765
COMPRESS_1_8;4;COMPRESS-274;1;1.0;1;0.0051020407;0;1.0;0.010152284;1.0
COMPRESS_1_8;5;COMPRESS-273;3;0.33333334;4;0.018018018;0;1.0;0.03539823;0.20508659
COMPRESS_1_8;6;COMPRESS-278;4;0.25;2;0.009009009;0;1.0;0.017857144;0.2916667
COMPRESS_1_8;7;COMPRESS-286;3;0.33333334;7;0.03153153;0;1.0;0.06113537;0.13210315
