mean rec. rank;1.0;mean precision;0.005540166;mean recall;1.0;mean f1-score;0.011019284;mean average precision;1.0;% top 1;1.0;% top 5;1.0;% top 10;1.0
system;query ID;query key;rank;rec. rank;true positives;precision;false negatives;recall;f1 score;avg precision
DATAMONGO_1_2_4;1;DATAMONGO-829;1;1.0;2;0.005540166;0;1.0;0.011019284;1.0
