mean rec. rank;0.75;mean precision;0.0064985794;mean recall;1.0;mean f1-score;0.01290006;mean average precision;0.57638896;% top 1;0.5;% top 5;1.0;% top 10;1.0
system;query ID;query key;rank;rec. rank;true positives;precision;false negatives;recall;f1 score;avg precision
DATAMONGO_1_9_4;1;DATAMONGO-1521;1;1.0;3;0.009090909;0;1.0;0.018018018;0.5694445
DATAMONGO_1_9_4;2;DATAMONGO-1534;2;0.5;2;0.00390625;0;1.0;0.007782101;0.5833334
