mean rec. rank;0.4167605;mean precision;0.026800042;mean recall;1.0;mean f1-score;0.049765185;mean average precision;0.40662557;% top 1;0.33333334;% top 5;0.53333336;% top 10;0.6
system;query ID;query key;rank;rec. rank;true positives;precision;false negatives;recall;f1 score;avg precision
ENTESB_6_2_0;1;ENTESB-1035;8;0.125;1;0.004048583;0;1.0;0.008064516;0.125
ENTESB_6_2_0;2;ENTESB-2202;1;1.0;1;0.004;0;1.0;0.007968129;1.0
ENTESB_6_2_0;3;ENTESB-2592;3;0.33333334;2;0.008032128;0;1.0;0.015936255;0.19892474
ENTESB_6_2_0;4;ENTESB-2620;1;1.0;1;0.004132231;0;1.0;0.008230452;1.0
ENTESB_6_2_0;5;ENTESB-2582;13;0.07692308;15;0.060240965;0;1.0;0.11363637;0.1356569
ENTESB_6_2_0;6;ENTESB-2910;1;1.0;1;0.004166667;0;1.0;0.008298756;1.0
ENTESB_6_2_0;7;ENTESB-2913;37;0.027027028;6;0.026666667;0;1.0;0.051948056;0.07179516
ENTESB_6_2_0;8;ENTESB-2980;15;0.06666667;4;0.015936255;0;1.0;0.03137255;0.05758987
ENTESB_6_2_0;9;ENTESB-3008;4;0.25;10;0.04347826;0;1.0;0.083333336;0.3834473
ENTESB_6_2_0;10;ENTESB-3072;12;0.083333336;5;0.022727273;0;1.0;0.044444446;0.054471612
ENTESB_6_2_0;11;ENTESB-2787;32;0.03125;39;0.15537849;0;1.0;0.26896554;0.14682353
ENTESB_6_2_0;12;ENTESB-3040;1;1.0;3;0.011952192;0;1.0;0.023622049;0.7916667
ENTESB_6_2_0;13;ENTESB-3276;1;1.0;2;0.007968128;0;1.0;0.015810275;0.75
ENTESB_6_2_0;14;ENTESB-3099;127;0.007874016;1;0.003984064;0;1.0;0.007936508;0.007874016
ENTESB_6_2_0;15;ENTESB-4622;4;0.25;7;0.029288704;0;1.0;0.056910574;0.37613377
