mean rec. rank;0.8333333;mean precision;0.013974694;mean recall;1.0;mean f1-score;0.027479256;mean average precision;0.50020105;% top 1;0.6666667;% top 5;1.0;% top 10;1.0
system;query ID;query key;rank;rec. rank;true positives;precision;false negatives;recall;f1 score;avg precision
AMQP_1_5_2;1;AMQP-551;2;0.5;8;0.023391813;0;1.0;0.045714285;0.24797164
AMQP_1_5_2;2;AMQP-556;1;1.0;2;0.009708738;0;1.0;0.019230768;0.55263156
AMQP_1_5_2;3;AMQP-561;1;1.0;3;0.00882353;0;1.0;0.017492712;0.7
