mean rec. rank;0.5;mean precision;0.003629764;mean recall;1.0;mean f1-score;0.007233273;mean average precision;0.33333334;% top 1;0.0;% top 5;1.0;% top 10;1.0
system;query ID;query key;rank;rec. rank;true positives;precision;false negatives;recall;f1 score;avg precision
DATACMNS_1_11_6;1;DATACMNS-934;2;0.5;2;0.003629764;0;1.0;0.007233273;0.33333334
