mean rec. rank;0.40444443;mean precision;0.00880007;mean recall;1.0;mean f1-score;0.017370177;mean average precision;0.36927572;% top 1;0.2;% top 5;0.73333335;% top 10;0.93333334
system;query ID;query key;rank;rec. rank;true positives;precision;false negatives;recall;f1 score;avg precision
DATAMONGO_1_0_4;1;DATAMONGO-458;12;0.083333336;2;0.008196721;0;1.0;0.016260162;0.0702381
DATAMONGO_1_0_4;2;DATAMONGO-497;4;0.25;2;0.0064935065;0;1.0;0.012903227;0.16346154
DATAMONGO_1_0_4;3;DATAMONGO-508;4;0.25;2;0.007168459;0;1.0;0.014234876;0.13949275
DATAMONGO_1_0_4;4;DATAMONGO-505;6;0.16666667;2;0.008264462;0;1.0;0.016393442;0.09195402
DATAMONGO_1_0_4;5;DATAMONGO-523;6;0.16666667;1;0.0033444816;0;1.0;0.0066666664;0.16666667
DATAMONGO_1_0_4;6;DATAMONGO-527;2;0.5;2;0.02739726;0;1.0;0.05333333;0.3611111
DATAMONGO_1_0_4;7;DATAMONGO-532;1;1.0;1;0.003236246;0;1.0;0.006451613;1.0
DATAMONGO_1_0_4;8;DATAMONGO-530;1;1.0;2;0.0066006603;0;1.0;0.013114755;1.0
DATAMONGO_1_0_4;9;DATAMONGO-535;1;1.0;2;0.00952381;0;1.0;0.018867925;1.0
DATAMONGO_1_0_4;10;DATAMONGO-549;4;0.25;2;0.007633588;0;1.0;0.015151516;0.16203704
DATAMONGO_1_0_4;11;DATAMONGO-550;5;0.2;2;0.0069204154;0;1.0;0.013745705;0.225
DATAMONGO_1_0_4;12;DATAMONGO-551;5;0.2;2;0.007168459;0;1.0;0.014234876;0.225
DATAMONGO_1_0_4;13;DATAMONGO-553;6;0.16666667;6;0.02027027;0;1.0;0.039735097;0.19058497
DATAMONGO_1_0_4;14;DATAMONGO-585;2;0.5;1;0.0032467532;0;1.0;0.0064724917;0.5
DATAMONGO_1_0_4;15;DATAMONGO-471;3;0.33333334;2;0.006535948;0;1.0;0.012987012;0.24358976
