mean rec. rank;0.34186956;mean precision;4.2808946E-4;mean recall;1.0;mean f1-score;8.557738E-4;mean average precision;0.2751715;% top 1;0.2857143;% top 5;0.42857143;% top 10;0.5714286
system;query ID;query key;rank;rec. rank;true positives;precision;false negatives;recall;f1 score;avg precision
WFCORE_2_2_0;1;WFCORE-1546;60;0.016666668;2;5.884084E-4;0;1.0;0.0011761247;0.011793542
WFCORE_2_2_0;2;WFCORE-1557;5;0.2;1;3.2206118E-4;0;1.0;6.43915E-4;0.2
WFCORE_2_2_0;3;WFCORE-1554;1;1.0;1;2.975305E-4;0;1.0;5.94884E-4;1.0
WFCORE_2_2_0;4;WFCORE-1640;1;1.0;2;5.887548E-4;0;1.0;0.0011768166;0.54
WFCORE_2_2_0;5;WFCORE-1715;7;0.14285715;1;3.1725888E-4;0;1.0;6.3431653E-4;0.14285715
WFCORE_2_2_0;6;WFCORE-1657;37;0.027027028;1;2.9403117E-4;0;1.0;5.8788946E-4;0.027027028
WFCORE_2_2_0;7;WFCORE-1552;153;0.006535948;2;5.885815E-4;0;1.0;0.0011764705;0.004522679
