mean rec. rank;0.64625853;mean precision;0.01318534;mean recall;1.0;mean f1-score;0.02590951;mean average precision;0.48586252;% top 1;0.5;% top 5;0.85714287;% top 10;0.9285714
system;query ID;query key;rank;rec. rank;true positives;precision;false negatives;recall;f1 score;avg precision
COMPRESS_1_4_1;1;COMPRESS-197;2;0.5;2;0.0121951215;0;1.0;0.024096385;0.3125
COMPRESS_1_4_1;2;COMPRESS-209;3;0.33333334;1;0.006802721;0;1.0;0.013513514;0.33333334
COMPRESS_1_4_1;3;COMPRESS-200;1;1.0;6;0.036585364;0;1.0;0.07058824;0.26903984
COMPRESS_1_4_1;4;COMPRESS-203;1;1.0;2;0.0121951215;0;1.0;0.024096385;1.0
COMPRESS_1_4_1;5;COMPRESS-189;3;0.33333334;2;0.0121951215;0;1.0;0.024096385;0.25
COMPRESS_1_4_1;6;COMPRESS-201;1;1.0;2;0.013157895;0;1.0;0.025974028;0.75
COMPRESS_1_4_1;7;COMPRESS-212;3;0.33333334;2;0.0121951215;0;1.0;0.024096385;0.26666668
COMPRESS_1_4_1;8;COMPRESS-218;3;0.33333334;1;0.0060975607;0;1.0;0.012121212;0.33333334
COMPRESS_1_4_1;9;COMPRESS-219;1;1.0;2;0.0121951215;0;1.0;0.024096385;1.0
COMPRESS_1_4_1;10;COMPRESS-221;1;1.0;2;0.0121951215;0;1.0;0.024096385;0.515625
COMPRESS_1_4_1;11;COMPRESS-229;1;1.0;4;0.024390243;0;1.0;0.04761905;0.5572917
COMPRESS_1_4_1;12;COMPRESS-253;14;0.071428575;1;0.0060975607;0;1.0;0.012121212;0.071428575
COMPRESS_1_4_1;13;COMPRESS-262;1;1.0;2;0.0121951215;0;1.0;0.024096385;1.0
COMPRESS_1_4_1;14;COMPRESS-309;7;0.14285715;1;0.0060975607;0;1.0;0.012121212;0.14285715
