Method;System;% Top 1;% Top 5;% Top 10;MRR;MAP;Average Precision;Average Recall;F1;Amount of Queries;Alpha
BRTracer;AMQP_1_0_0;0.3;0.7;0.75;0.46076122;0.39547828;0.021062348;1.0;0.040690128;20;0.2
BugLocator;AMQP_1_0_0;0.25;0.65;0.85;0.40741262;0.36516836;0.021062348;1.0;0.040690128;20;0.2
BRTracer;AMQP_1_1_0;0.33333334;0.33333334;0.33333334;0.36675024;0.29070118;0.026327034;1.0;0.051050197;3;0.2
BugLocator;AMQP_1_1_0;0.33333334;0.33333334;0.33333334;0.3640523;0.25356486;0.026327034;1.0;0.051050197;3;0.2
BRTracer;AMQP_1_1_1;0.75;0.875;1.0;0.7928571;0.6515887;0.010177462;1.0;0.020111449;8;0.2
BugLocator;AMQP_1_1_1;0.75;0.75;1.0;0.7864583;0.6134189;0.010177462;1.0;0.020111449;8;0.2
BRTracer;AMQP_1_1_2;0.8;1.0;1.0;0.9;0.6165108;0.015300165;1.0;0.030051077;5;0.2
BugLocator;AMQP_1_1_2;0.6;0.8;1.0;0.6733333;0.51918596;0.015300165;1.0;0.030051077;5;0.2
BRTracer;AMQP_1_1_3;0.5;0.75;0.75;0.5833334;0.3156962;0.024862856;1.0;0.047158357;4;0.2
BugLocator;AMQP_1_1_3;0.5;0.5;1.0;0.5625;0.3488968;0.024862856;1.0;0.047158357;4;0.2
BRTracer;AMQP_1_1_4;0.33333334;1.0;1.0;0.48333335;0.4485028;0.08684655;0.875;0.15061872;3;0.2
BugLocator;AMQP_1_1_4;0.33333334;0.6666667;1.0;0.4333333;0.43989754;0.08684655;0.875;0.15061872;3;0.2
BRTracer;AMQP_1_2_0;0.42857143;0.71428573;1.0;0.6130953;0.5554565;0.012275047;1.0;0.024205882;7;0.2
BugLocator;AMQP_1_2_0;0.42857143;0.5714286;1.0;0.55595237;0.45920202;0.012275047;1.0;0.024205882;7;0.2
BRTracer;AMQP_1_2_1;0.5;1.0;1.0;0.75;0.6740978;0.009599866;1.0;0.018947389;4;0.2
BugLocator;AMQP_1_2_1;0.75;1.0;1.0;0.8333333;0.66357684;0.009599866;1.0;0.018947389;4;0.2
BRTracer;AMQP_1_3_0;0.75;1.0;1.0;0.875;0.7971131;0.0148773035;1.0;0.029121956;4;0.2
BugLocator;AMQP_1_3_0;0.5;1.0;1.0;0.75;0.5432668;0.0148773035;1.0;0.029121956;4;0.2
BRTracer;AMQP_1_3_3;1.0;1.0;1.0;1.0;0.55;0.008510638;1.0;0.016877638;1;0.2
BugLocator;AMQP_1_3_3;1.0;1.0;1.0;1.0;0.55263156;0.008510638;1.0;0.016877638;1;0.2
BRTracer;AMQP_1_3_4;0.0;0.0;0.0;0.083333336;0.09166667;0.0073260074;1.0;0.014545455;1;0.2
BugLocator;AMQP_1_3_4;1.0;1.0;1.0;1.0;0.54347825;0.0073260074;1.0;0.014545455;1;0.2
BRTracer;AMQP_1_3_5;1.0;1.0;1.0;1.0;0.75;0.010204081;1.0;0.02020202;1;0.2
BugLocator;AMQP_1_3_5;0.0;1.0;1.0;0.33333334;0.36666667;0.010204081;1.0;0.02020202;1;0.2
BRTracer;AMQP_1_3_6;0.6666667;0.6666667;0.6666667;0.67479676;0.6192412;0.006400045;1.0;0.012703153;3;0.2
BugLocator;AMQP_1_3_6;0.6666667;1.0;1.0;0.8333333;0.75252527;0.006400045;1.0;0.012703153;3;0.2
BRTracer;AMQP_1_3_7;1.0;1.0;1.0;1.0;0.5878137;0.015384615;1.0;0.03030303;1;0.2
BugLocator;AMQP_1_3_7;1.0;1.0;1.0;1.0;0.527027;0.015384615;1.0;0.03030303;1;0.2
BRTracer;AMQP_1_3_8;1.0;1.0;1.0;1.0;0.6252294;0.018705629;1.0;0.036464736;2;0.2
BugLocator;AMQP_1_3_8;0.5;1.0;1.0;0.625;0.58080345;0.018705629;1.0;0.036464736;2;0.2
BRTracer;AMQP_1_3_9;0.6666667;1.0;1.0;0.8333333;0.6666667;0.006357819;1.0;0.012626325;3;0.2
BugLocator;AMQP_1_3_9;0.33333334;1.0;1.0;0.6111111;0.5247475;0.006357819;1.0;0.012626325;3;0.2
BRTracer;AMQP_1_4_1;1.0;1.0;1.0;1.0;0.67763156;0.013793103;1.0;0.027210884;1;0.2
BugLocator;AMQP_1_4_1;1.0;1.0;1.0;1.0;0.81666666;0.013793103;1.0;0.027210884;1;0.2
BRTracer;AMQP_1_4_2;1.0;1.0;1.0;1.0;0.54236114;0.005472212;1.0;0.010884858;2;0.2
BugLocator;AMQP_1_4_2;0.0;0.0;0.5;0.083333336;0.07354071;0.005472212;1.0;0.010884858;2;0.2
BRTracer;AMQP_1_4_3;0.0;0.0;1.0;0.16666667;0.21031748;0.008287293;1.0;0.016438356;1;0.2
BugLocator;AMQP_1_4_3;0.0;0.0;0.0;0.071428575;0.09880952;0.008287293;1.0;0.016438356;1;0.2
BRTracer;AMQP_1_4_4;1.0;1.0;1.0;1.0;0.7;0.005586592;1.0;0.01111111;1;0.2
BugLocator;AMQP_1_4_4;1.0;1.0;1.0;1.0;0.64285713;0.005586592;1.0;0.01111111;1;0.2
BRTracer;AMQP_1_4_5;0.4;0.6;0.8;0.5311111;0.48556346;0.015326707;1.0;0.030079667;5;0.2
BugLocator;AMQP_1_4_5;0.2;0.6;0.6;0.37509805;0.3555917;0.015326707;1.0;0.030079667;5;0.2
BRTracer;AMQP_1_4_6;0.33333334;0.6666667;0.6666667;0.50775194;0.43823978;0.0045805248;1.0;0.009115941;3;0.2
BugLocator;AMQP_1_4_6;0.33333334;0.33333334;0.33333334;0.35754386;0.35687554;0.0045805248;1.0;0.009115941;3;0.2
BRTracer;AMQP_1_5_1;0.33333334;1.0;1.0;0.56666666;0.35280254;0.011371665;1.0;0.022447662;3;0.2
BugLocator;AMQP_1_5_1;0.33333334;0.6666667;0.6666667;0.46198833;0.2736486;0.011371665;1.0;0.022447662;3;0.2
BRTracer;AMQP_1_5_2;0.6666667;1.0;1.0;0.8333333;0.46603596;0.013974694;1.0;0.027479256;3;0.2
BugLocator;AMQP_1_5_2;0.6666667;1.0;1.0;0.8333333;0.50020105;0.013974694;1.0;0.027479256;3;0.2
BRTracer;AMQP_1_5_3;0.6;1.0;1.0;0.7666667;0.6208402;0.011176948;1.0;0.022025513;5;0.2
BugLocator;AMQP_1_5_3;0.4;0.8;0.8;0.55588233;0.41789493;0.011176948;1.0;0.022025513;5;0.2
BRTracer;AMQP_1_5_4;0.0;1.0;1.0;0.5;0.5;0.0028985508;1.0;0.0057803467;1;0.2
BugLocator;AMQP_1_5_4;0.0;1.0;1.0;0.2;0.2;0.0028985508;1.0;0.0057803467;1;0.2
BRTracer;AMQP_1_5_5;1.0;1.0;1.0;1.0;0.625;0.0057142857;1.0;0.011363636;1;0.2
BugLocator;AMQP_1_5_5;0.0;0.0;0.0;0.083333336;0.1004902;0.0057142857;1.0;0.011363636;1;0.2
BRTracer;AMQP_1_5_6;1.0;1.0;1.0;1.0;0.8088023;0.005766545;1.0;0.011456173;3;0.2
BugLocator;AMQP_1_5_6;0.33333334;1.0;1.0;0.51111114;0.3406566;0.005766545;1.0;0.011456173;3;0.2
BRTracer;AMQP_1_6_1;0.0;0.0;1.0;0.125;0.1125;0.0057142857;1.0;0.011363636;1;0.2
BugLocator;AMQP_1_6_1;0.0;0.0;1.0;0.11111111;0.087813616;0.0057142857;1.0;0.011363636;1;0.2
BRTracer;AMQP_1_6_2;0.33333334;0.6666667;1.0;0.4722222;0.36034545;0.0076321154;1.0;0.015140377;3;0.2
BugLocator;AMQP_1_6_2;0.0;0.6666667;0.6666667;0.2911111;0.24330522;0.0076321154;1.0;0.015140377;3;0.2
BRTracer;AMQP_1_6_3;0.6666667;0.6666667;1.0;0.72222215;0.4325397;0.009625894;1.0;0.019045956;3;0.2
BugLocator;AMQP_1_6_3;0.0;0.33333334;0.6666667;0.24786325;0.2081365;0.009625894;1.0;0.019045956;3;0.2
BRTracer;AMQP_1_6_4;1.0;1.0;1.0;1.0;1.0;0.002610966;1.0;0.0052083335;1;0.2
BugLocator;AMQP_1_6_4;0.0;1.0;1.0;0.33333334;0.33333334;0.002610966;1.0;0.0052083335;1;0.2
BRTracer;AMQP_1_6_6;1.0;1.0;1.0;1.0;0.515625;0.005154639;1.0;0.010256411;1;0.2
BugLocator;AMQP_1_6_6;0.0;0.0;1.0;0.14285715;0.19642857;0.005154639;1.0;0.010256411;1;0.2
