Method;System;% Top 1;% Top 5;% Top 10;MRR;MAP;Average Precision;Average Recall;F1;Amount of Queries;Alpha
BugLocator;ENTESB_6_2_0;0.33333334;0.53333336;0.6;0.4167605;0.40662557;0.026800042;1.0;0.049765185;15;0.2
BugLocator;ENTESB_6_2_1;0.5;0.5;0.5;0.5;0.44375;0.09090909;0.5;0.15384614;2;0.2
