Method;System;% Top 1;% Top 5;% Top 10;MRR;MAP;Average Precision;Average Recall;F1;Amount of Queries;Alpha
BRTracer;WFCORE_1_0_0;0.38260868;0.67826086;0.8;0.51878184;0.4002459;0.0012628235;0.98695654;0.0025148757;115;0.2
BugLocator;WFCORE_1_0_0;0.2347826;0.5217391;0.6173913;0.36664897;0.272964;0.0012628235;0.98695654;0.0025148757;115;0.2
BRTracer;WFCORE_1_0_1;0.0;0.0;1.0;0.16666667;0.11387171;0.002543235;1.0;0.005073567;1;0.2
BugLocator;WFCORE_1_0_1;0.0;0.0;0.0;0.03846154;0.04563978;0.002543235;1.0;0.005073567;1;0.2
BRTracer;WFCORE_1_0_2;1.0;1.0;1.0;1.0;0.76111114;4.7471118E-4;1.0;9.48924E-4;2;0.2
BugLocator;WFCORE_1_0_2;0.0;0.5;0.5;0.17045455;0.1575312;4.7471118E-4;1.0;9.48924E-4;2;0.2
BRTracer;WFCORE_2_0_0;0.4431818;0.75;0.8181818;0.59819096;0.4318738;0.001096104;1.0;0.0021860609;88;0.2
BugLocator;WFCORE_2_0_0;0.29545453;0.5568182;0.67045456;0.4148157;0.31252816;0.001096104;1.0;0.0021860609;88;0.2
BRTracer;WFCORE_2_0_1;0.25;0.75;0.75;0.51;0.21385294;0.0017090107;1.0;0.0034086478;4;0.2
BugLocator;WFCORE_2_0_1;0.25;0.5;0.75;0.43055555;0.20038259;0.0017090107;1.0;0.0034086478;4;0.2
BRTracer;WFCORE_2_0_10;0.11111111;0.6666667;0.6666667;0.3283311;0.20327762;0.001023627;1.0;0.0020443415;9;0.2
BugLocator;WFCORE_2_0_10;0.33333334;0.44444445;0.5555556;0.40888596;0.1975906;0.001023627;1.0;0.0020443415;9;0.2
BRTracer;WFCORE_2_0_2;0.0;0.0;0.0;0.02996718;0.014065176;0.0024888522;1.0;0.004960573;3;0.2
BugLocator;WFCORE_2_0_2;0.0;0.0;0.0;0.009893506;0.010242137;0.0024888522;1.0;0.004960573;3;0.2
BRTracer;WFCORE_2_0_3;0.5;0.5;1.0;0.5607143;0.42742977;0.001078257;1.0;0.0021529645;4;0.2
BugLocator;WFCORE_2_0_3;0.5;0.75;0.75;0.64772725;0.4445029;0.001078257;1.0;0.0021529645;4;0.2
BRTracer;WFCORE_2_0_4;0.09090909;0.36363637;0.72727275;0.2577122;0.14764617;0.0017001512;1.0;0.0033869194;11;0.2
BugLocator;WFCORE_2_0_4;0.09090909;0.27272728;0.45454547;0.18190385;0.11421954;0.0017001512;1.0;0.0033869194;11;0.2
BRTracer;WFCORE_2_0_5;0.5555556;0.8888889;0.8888889;0.7314815;0.6006026;7.2654337E-4;1.0;0.0014516729;9;0.2
BugLocator;WFCORE_2_0_5;0.44444445;0.7777778;0.8888889;0.60198414;0.5214904;7.2654337E-4;1.0;0.0014516729;9;0.2
BRTracer;WFCORE_2_0_6;1.0;1.0;1.0;1.0;1.0;0.0027472528;1.0;0.0054794517;1;0.2
BugLocator;WFCORE_2_0_6;1.0;1.0;1.0;1.0;1.0;0.0027472528;1.0;0.0054794517;1;0.2
BRTracer;WFCORE_2_0_7;0.25;0.5;1.0;0.44791666;0.29467654;6.288754E-4;1.0;0.0012568987;4;0.2
BugLocator;WFCORE_2_0_7;0.0;0.0;0.25;0.071692415;0.047092922;6.288754E-4;1.0;0.0012568987;4;0.2
BRTracer;WFCORE_2_0_8;0.0;0.0;1.0;0.11111111;0.07683215;6.159532E-4;1.0;0.001231148;1;0.2
BugLocator;WFCORE_2_0_8;0.0;0.0;0.0;0.02173913;0.023527794;6.159532E-4;1.0;0.001231148;1;0.2
BRTracer;WFCORE_2_1_0;0.4;0.62857145;0.74285716;0.5010972;0.38867286;7.5196294E-4;0.9959184;0.0015018743;35;0.2
BugLocator;WFCORE_2_1_0;0.22857143;0.54285717;0.5714286;0.37147573;0.3084448;7.5196294E-4;0.9959184;0.0015018743;35;0.2
BRTracer;WFCORE_2_2_0;0.2857143;0.5714286;0.71428573;0.37641722;0.3123111;4.2808946E-4;1.0;8.557738E-4;7;0.2
BugLocator;WFCORE_2_2_0;0.2857143;0.42857143;0.5714286;0.34186956;0.2751715;4.2808946E-4;1.0;8.557738E-4;7;0.2
BRTracer;WFCORE_3_0_0;0.26153848;0.50769234;0.64615387;0.38679254;0.3125642;6.9543533E-4;1.0;0.0013890543;65;0.2
BugLocator;WFCORE_3_0_0;0.10769231;0.4;0.50769234;0.24886355;0.19642201;6.9543533E-4;1.0;0.0013890543;65;0.2
