coder;dataset;proj;bug_id;issue_tupe
oscar;brt;eclipse-3.1;101874;task
oscar;brt;eclipse-3.1;103552;enhancement
oscar;brt;eclipse-3.1;78652;enhancement
oscar;brt;eclipse-3.1;84637;enhancement
oscar;brt;eclipse-3.1;88914;new_feature
oscar;brt;eclipse-3.1;92341;new_feature
oscar;brt;eclipse-3.1;96497;task
oscar;brt;eclipse-3.1;97766;new_feature
oscar;brt;swt-3.1;101354;other
oscar;brt;swt-3.1;103976;enhancement
oscar;brt;swt-3.1;80830;enhancement
oscar;brt;swt-3.1;83408;enhancement
oscar;lb;argouml-0.22;4178;enhancement
oscar;lb;derby-10.9.1.0;DERBY-1400;task
oscar;lb;derby-10.9.1.0;DERBY-4789;other
oscar;lb;derby-10.9.1.0;DERBY-5342;task
oscar;lb;derby-10.9.1.0;DERBY-6000;enhancement
oscar;lb;derby-10.9.1.0;DERBY-6044;other
oscar;lb;openjpa-2.2.0;OPENJPA-2231;enhancement
oscar;lb;pig-0.8.0;PIG-1566;enhancement
oscar;lb;pig-0.8.0;PIG-1712;enhancement
oscar;lb;pig-0.8.0;PIG-1876;enhancement
oscar;lb;solr-4.4.0;SOLR-2548;enhancement
oscar;lb;solr-4.4.0;SOLR-4764;enhancement
oscar;lb;solr-4.4.0;SOLR-5017;task
oscar;lb;solr-4.4.0;SOLR-5258;enhancement
oscar;lb;zookeeper-3.4.5;ZOOKEEPER-1096;enhancement
oscar;qq;apache-nutch-1.8;NUTCH-1381;enhancement
oscar;qq;apache-nutch-1.8;NUTCH-1405;enhancement
oscar;qq;apache-nutch-2.1;NUTCH-1370;enhancement
oscar;qq;apache-nutch-2.1;NUTCH-1501;other
oscar;qq;commons-math-3-3.0;MATH-878;new_feature
oscar;qq;tika-1.3;TIKA-991;enhancement
oscar;brt;eclipse-3.1;103514;other
oscar;brt;eclipse-3.1;125410;enhancement
oscar;brt;eclipse-3.1;80288;enhancement
oscar;brt;swt-3.1;91317;enhancement
oscar;lb;bookkeeper-4.1.0;BOOKKEEPER-248;task
oscar;lb;derby-10.9.1.0;DERBY-3069;enhancement
oscar;lb;derby-10.9.1.0;DERBY-5834;task
oscar;lb;derby-10.9.1.0;DERBY-5927;other
oscar;lb;derby-10.9.1.0;DERBY-6008;enhancement
oscar;lb;lucene-4.0;LUCENE-4466;enhancement
oscar;lb;pig-0.11.1;PIG-3470;enhancement
oscar;lb;pig-0.8.0;PIG-1782;new_feature
oscar;lb;pig-0.8.0;PIG-1809;other
oscar;lb;solr-4.4.0;SOLR-4221;new_feature
oscar;lb;tika-1.3;TIKA-1126;new_feature
oscar;lb;zookeeper-3.4.5;ZOOKEEPER-1759;enhancement
oscar;qq;apache-nutch-1.8;NUTCH-1407;enhancement
oscar;qq;apache-nutch-2.1;NUTCH-1532;other
oscar;qq;bookkeeper-4.1.0;BOOKKEEPER-330;other
oscar;qq;bookkeeper-4.1.0;BOOKKEEPER-431;other
oscar;qq;bookkeeper-4.1.0;BOOKKEEPER-472;new_feature
