{"codeSnippets": [], "creation_date": "2009-02-20T17:52:34.000-06:00", "description": "apach jackrabbit interest inputstream input stream implement read specifi amount underli stream act end stream reach http svn apach org repo asf jackrabbit trunk jackrabbit jcr server src main java org apach jackrabbit server boundedinputstream bound input stream java similar found project http svn mucommand com cgi bin viewvc cgi trunk sourc com mucommand boundedinputstream bound input stream java content type text 2fplain fplain view http www sunspotworld com doc purpl javadoc com sun spot peripher boundedinputstream bound input stream html", "fixed_files": ["org.apache.commons.io.input.BoundedInputStream"], "key": "IO-197", "original_text": "BoundedInputStream Apache Jackrabbit has an interesting InputStream implementation that reads up to a specified amount of bytes from an underlying stream, and then acts as if the end of the stream was reached:\nhttp://svn.apache.org/repos/asf/jackrabbit/trunk/jackrabbit-jcr-server/src/main/java/org/apache/jackrabbit/server/io/BoundedInputStream.java\nSimilar classes are also found in other projects:\nhttp://svn.mucommander.com/cgi-bin/viewvc.cgi/trunk/source/com/mucommander/io/BoundedInputStream.java?content-type=text%2Fplain&view=co\nhttps://www.sunspotworld.com/docs/Purple/javadoc/com/sun/spot/peripheral/BoundedInputStream.html", "resolution_date": "2010-09-29T01:29:43.000-05:00", "stackTraces": [], "title": "boundedinputstream bound input stream"}
{"codeSnippets": [], "creation_date": "2013-01-01T01:05:26.000-06:00", "description": "fix rel simpl add ident check begin method method affect org apach common ioutil util contentequ content equal inputstream input stream inputstream input stream org apach common ioutil util contentequ content equal reader reader org apach common ioutil util contentequalsignoreeol content equal ignor eol reader reader", "fixed_files": ["org.apache.commons.io.IOUtilsTestCase", "org.apache.commons.io.IOUtils"], "key": "IO-362", "original_text": "IOUtils.contentEquals* methods returns false if input1 == input2, should return true The fix should be relatively simple, just add an identity check to the beginning of the method:\nif(is1 == is2) \n{\n\n  return true;\n\n}\n\nThe methods affected are:\n\norg.apache.commons.io.IOUtils.contentEquals(InputStream, InputStream)\norg.apache.commons.io.IOUtils.contentEquals(Reader, Reader)\norg.apache.commons.io.IOUtils.contentEqualsIgnoreEOL(Reader, Reader)\n\n", "resolution_date": "2013-01-04T15:57:58.000-06:00", "stackTraces": [], "title": "ioutil util contentequ content equal method input1 input2"}
{"codeSnippets": [], "creation_date": "2013-04-07T21:46:15.000-05:00", "description": "wildcardfilefilt wildcard file filter ctor mean iocas sensit deleg ctor happen mean sensit mean intern call ctor featur make code harder read", "fixed_files": ["org.apache.commons.io.filefilter.WildcardFileFilter"], "key": "IO-374", "original_text": "WildcardFileFilter ctors should not use null to mean IOCase.SENSITIVE when delegating to other ctors WildcardFileFilter ctors should not use null to mean IOCase.SENSITIVE when delegating to other ctors.\nJust because null happens to mean case-sensitive, does not mean that internal calls to ctors should use that feature. It makes the code harder to read.", "resolution_date": "2013-04-07T22:09:08.000-05:00", "stackTraces": [], "title": "wildcardfilefilt wildcard file filter ctor mean iocas sensit deleg ctor"}
{"codeSnippets": [], "creation_date": "2012-08-22T07:20:31.000-05:00", "description": "org apach common compar lot inconsist javadoc java doc exampl org apach common compar namefilecompar name file compar http svn apach org viewvc common proper trunk src main java org apach common compar namefilecompar name file compar java view markup javadoc java doc list file list namefilecompar name file compar name compar sort list file array namefilecompar name file compar name insensit revers sort array work member namefilecompar name file compar declar compar file exampl compar file name revers reversecompar revers compar name compar compar file name insensit revers reversecompar revers compar name insensit compar compar sort method", "fixed_files": ["org.apache.commons.io.comparator.SizeFileComparator", "org.apache.commons.io.comparator.PathFileComparator", "org.apache.commons.io.comparator.LastModifiedFileComparator", "org.apache.commons.io.comparator.NameFileComparator", "org.apache.commons.io.comparator.CompositeFileComparator", "org.apache.commons.io.comparator.DefaultFileComparator", "org.apache.commons.io.comparator.ExtensionFileComparator", "org.apache.commons.io.comparator.DirectoryFileComparator", "org.apache.commons.io.comparator.DefaultFileComparatorTest", "org.apache.commons.io.comparator.ExtensionFileComparatorTest", "org.apache.commons.io.comparator.ComparatorAbstractTestCase", "org.apache.commons.io.comparator.CompositeFileComparatorTest", "org.apache.commons.io.comparator.NameFileComparatorTest", "org.apache.commons.io.comparator.SizeFileComparatorTest", "org.apache.commons.io.comparator.DirectoryFileComparatorTest", "org.apache.commons.io.comparator.PathFileComparatorTest", "org.apache.commons.io.comparator.LastModifiedFileComparatorTest"], "key": "IO-343", "original_text": "org.apache.commons.io.comparator Javadoc is inconsistent with real code Package org.apache.commons.io.comparator has a lot of inconsistent JavaDocs. \nFor example this class org.apache.commons.io.comparator.NameFileComparator\nhttp://svn.apache.org/viewvc/commons/proper/io/trunk/src/main/java/org/apache/commons/io/comparator/NameFileComparator.java?view=markup\nhas JavaDocs\n List<File> list = ...\n NameFileComparator.NAME_COMPARATOR.sort(list); ....\n File[] array = ...\n NameFileComparator.NAME_INSENSITIVE_REVERSE.sort(array);\nbut this will not work because all static members of NameFileComparator declared as Comparator<File> for example \n public static final Comparator<File> NAME_REVERSE = new ReverseComparator(NAME_COMPARATOR);\npublic static final Comparator<File> NAME_INSENSITIVE_REVERSE = new ReverseComparator(NAME_INSENSITIVE_COMPARATOR);\nand Comparator class doesn't have the sort() method.", "resolution_date": "2013-04-17T23:54:48.000-05:00", "stackTraces": [], "title": "org apach common compar javadoc inconsist real code"}
{"codeSnippets": [], "creation_date": "2012-11-06T16:28:54.000-06:00", "description": "size effect happen buffer size input stream divid request data size bug hidden charsequenceinputstream sequenc input stream reset method call think bbuf limit call charsequenceinputstream sequenc input stream read remain tail bbuf accumul attach test test fail datas data size divid run datas data size divid", "fixed_files": ["org.apache.commons.io.input.CharSequenceInputStreamTest", "org.apache.commons.io.input.CharSequenceInputStream"], "key": "IO-356", "original_text": "CharSequenceInputStream#reset() behaves incorrectly in case when buffer size is not dividable by data size The size effect happens when buffer size of input stream is not dividable by requested data size. The bug is hidden in CharSequenceInputStream#reset() method which should also call (I think) bbuf.limit(0) otherwise next call to CharSequenceInputStream#read() will return the remaining tail which bbuf has accumulated.\nIn the attached test case the test fails, if dataSize = 13 (not dividable by 10) and runs OK if dataSize = 20 (dividable by 10).", "resolution_date": "2013-04-24T00:17:31.000-05:00", "stackTraces": [], "title": "charsequenceinputstream sequenc input stream reset behav incorrectli buffer size divid data size"}
{"codeSnippets": [], "creation_date": "2012-07-24T17:12:48.000-05:00", "description": "wrote input stream stop reach configur size found applic download web page imag enforc max size avoid memori problem extrem larg page imag think gener common distribut pleas consid isn't appropri inclus pleas recommend better place open sourc share org apach common input java ioexcept java inputstream input stream input stream end amount read reach configur amount maxbyt max prevent outofmemoryexcept memori download larg file partial content accept author ken weiner maxbytesinputstream max input stream countinginputstream count input stream maxbyt max maxbytesinputstream max input stream inputstream input stream maxbyt max maxbyt max maxbyt max overrid afterread read afterread read math min maxbyt max getbytecount count overrid read ioexcept getbytecount count maxbyt max read overrid read ioexcept getbytecount count maxbyt max read overrid read len ioexcept getbytecount count maxbyt max read len", "fixed_files": ["org.apache.commons.io.input.BoundedInputStream"], "key": "IO-339", "original_text": "MaxBytesInputStream to limit size of bytes read I wrote an input stream that stops when it reaches a configured size in bytes.  I found it useful for applications that download web pages and images, but want to enforce a max size to avoid memory problems for extremely large pages/images.\nI was thinking that this class is generic and useful enough to include in the commons-io distribution.  Please consider it, and if it isn't appropriate for inclusion here, please recommend a better place to open source and share it.\n\n\n\n\n\npackage org.apache.commons.io.input;\n\n\n\nimport java.io.IOException;\n\nimport java.io.InputStream;\n\n\n\n/**\n\n * An input stream that will end when the amount of bytes read reaches\n\n * the configured amount of maxBytes.\n\n * This is useful for preventing OutOfMemoryExceptions when downloading\n\n * very large files in cases where getting partial content is acceptable.\n\n * @author Ken Weiner\n\n */\n\npublic class MaxBytesInputStream extends CountingInputStream {\n\n    private long maxBytes;\n\n\n\n    public MaxBytesInputStream(InputStream is, long maxBytes) {\n\n        super(is);\n\n        this.maxBytes = maxBytes;\n\n    }\n\n\n\n    @Override\n\n    protected void afterRead(int n) {\n\n        super.afterRead((int) Math.min(n, this.maxBytes - getByteCount()));\n\n    }\n\n\n\n    @Override\n\n    public int read() throws IOException {\n\n        if (getByteCount() < this.maxBytes) {\n\n            return super.read();\n\n        }\n\n        return -1;\n\n    }\n\n\n\n    @Override\n\n    public int read(byte[] b) throws IOException {\n\n        if (getByteCount() < this.maxBytes) {\n\n            return super.read(b);\n\n        }\n\n        return -1;\n\n    }\n\n\n\n    @Override\n\n    public int read(byte[] b, int off, int len) throws IOException {\n\n        if (getByteCount() < this.maxBytes) {\n\n            return super.read(b, off, len);\n\n        }\n\n        return -1;\n\n    }\n\n}\n\n\n", "resolution_date": "2013-05-16T14:38:59.000-05:00", "stackTraces": [], "title": "maxbytesinputstream max input stream limit size read"}
{"codeSnippets": [], "creation_date": "2013-06-02T11:53:45.000-05:00", "description": "fileutil file util docopyfil copi file input file size start copi copi consid complet origin file size reach method check input file size destin size fail file chang size copi start behaviour document help two size messag", "fixed_files": ["org.apache.commons.io.FileUtils"], "key": "IO-383", "original_text": "FileUtils.doCopyFile caches the file size; needs to be documented FileUtils.doCopyFile saves the input file size before starting the copy.\nThe copy is considered complete when the original file size is reached.\nThe method then checks the new input file size against the destination size.\nThis will fail if the file has changed in size since the copy started.\nThis behaviour should be documented; also it would help if the two sizes were shown in the exception message.", "resolution_date": "2013-06-02T13:18:10.000-05:00", "stackTraces": [], "title": "fileutil file util docopyfil copi file cach file size document"}
{"codeSnippets": [], "creation_date": "2013-07-10T09:44:56.000-05:00", "description": "fileutil file util sizeofdirectoryasbiginteg size directori big integ overflow call fileutil file util sizeof size file call sizeofdirectori size directori process subdirectori stand method work properli top level possibl solut creat big version call method check faster", "fixed_files": ["org.apache.commons.io.FileUtils", "org.apache.commons.io.FileUtilsTestCase"], "key": "IO-390", "original_text": "FileUtils.sizeOfDirectoryAsBigInteger can overflow FileUtils.sizeOfDirectoryAsBigInteger can overflow.\nThis is because it calls FileUtils.sizeOf(file) which calls sizeOfDirectory() for processing subdirectories.\nAs it stands, the method only works properly at the top level.\nA possible solution would be to create private \"Big\" versions of the called methods; these would not need all the checks so should be faster.", "resolution_date": "2013-07-10T11:49:38.000-05:00", "stackTraces": [], "title": "fileutil file util sizeofdirectoryasbiginteg size directori big integ overflow"}
{"codeSnippets": [], "creation_date": "2014-04-10T12:34:39.000-05:00", "description": "method filenameutil filenam util indexofextens index extens contain javadoc java doc comment param filenam filenam find path separ index separ charact charact comment obvious copi filenameutil filenam util indexoflastsepar index separ method make perfect sens javadoc java doc comment filenameutil filenam util indexofextens index extens read follow param filenam filenam find extens separ index extens separ charact charact", "fixed_files": ["org.apache.commons.io.FilenameUtils"], "key": "IO-436", "original_text": "Improper JavaDoc comment for FilenameUtils.indexOfExtension The method FilenameUtils.indexOfExtension contains this JavaDoc comment:\n  * @param filename  the filename to find the last path separator in, null returns -1\n  * @return the index of the last separator character, or -1 if there\n  * is no such character\nThis comment was obviously copied from the FilenameUtils.indexOfLastSeparator method, where it makes perfect sense.\nThe JavaDoc comment for FilenameUtils.indexOfExtension should rather read e.g. as follows:\n  * @param filename  the filename to find the last extension separator in, null returns -1\n  * @return the index of the last extension separator character, or -1 if there\n  * is no such character", "resolution_date": "2014-04-10T14:08:40.000-05:00", "stackTraces": [], "title": "improp javadoc java doc comment filenameutil filenam util indexofextens index extens"}
{"codeSnippets": [], "creation_date": "2014-01-30T22:57:15.000-06:00", "description": "filenameutil filenam util directorycontain directori contain abc abcd filenameutil filenam util directorycontain directori contain abc abcd implement simpl checkstartswith check start take separ consider", "fixed_files": ["org.apache.commons.io.FileUtilsDirectoryContainsTestCase"], "key": "IO-423", "original_text": "FilenameUtils.directoryContains assumes separator at end of parent path FilenameUtils.directoryContains(\"/abc\", \"/abcd\") returns true, while FilenameUtils.directoryContains(\"/abc/\", \"/abcd\") returns false.\nThe implementation does a simple checkStartsWith() without taking the separator into consideration.", "resolution_date": "2014-07-16T21:35:26.000-05:00", "stackTraces": [], "title": "filenameutil filenam util directorycontain directori contain assum separ end parent path"}
{"codeSnippets": [], "creation_date": "2014-12-03T12:48:42.000-06:00", "description": "ioexceptionwithcaus caus longer java ioexcept includ constructor take throwabl deprec intern usag revert ioexcept directli", "fixed_files": ["org.apache.commons.io.IOExceptionWithCause", "org.apache.commons.io.IOExceptionWithCauseTestCase", "org.apache.commons.io.FileSystemUtils", "org.apache.commons.io.TaggedIOException"], "key": "IO-462", "original_text": "IOExceptionWithCause no longer needed The class IOExceptionWithCause is no longer needed in Java 6, because IOException now includes a constructor that takes a Throwable.\nThe class should be deprecated and internal usage can revert to using IOException directly.", "resolution_date": "2014-12-09T13:49:43.000-06:00", "stackTraces": [], "title": "ioexceptionwithcaus caus longer"}
{"codeSnippets": [], "creation_date": "2015-01-06T21:35:56.000-06:00", "description": "consid follow file foodir foo dir file temp foo file foofil foo file file temp foo txt fileutil file util directorycontain directori contain foodir foo dir foofil foo file foofil foo file sibl foodir foo dir foodir foo dir contain foofil foo file due way filenameutil filenam util directorycontain directori contain implement method simpl startswith start comparison relat bug file filenameutil filenam util method believ fix", "fixed_files": ["org.apache.commons.io.FileUtilsDirectoryContainsTestCase"], "key": "IO-466", "original_text": "FileUtils.directoryContains returns wrong response due to startsWith comparison Consider the following:\n\n\n\nFile fooDir = new File(\"/temp/foo\");\n\nFile fooFile = new File(\"/temp/foo.txt\");\n\nFileUtils.directoryContains(fooDir, fooFile); // returns true, should return false\n\n\n\nfooFile is a sibling of fooDir.  fooDir does not contain fooFile.\nThis is due to the way FilenameUtils.directoryContains is implemented in that this method uses a simple 'startsWith' comparison.  A related bug is filed for the FilenameUtils method that I believe should be fixed as well.", "resolution_date": "2015-06-23T06:02:09.000-05:00", "stackTraces": [], "title": "fileutil file util directorycontain directori contain wrong respons due startswith start comparison"}
{"codeSnippets": [], "creation_date": "2015-06-19T18:19:48.000-05:00", "description": "time algorithm basic broken thread sleep imprecis counter error loop code follow testcas run second machin testrealwalltim test real wall time start system currenttimemilli current time milli fileutil file util waitfor wait file system println elaps system currenttimemilli current time milli start", "fixed_files": ["org.apache.commons.io.FileUtils"], "key": "IO-481", "original_text": "org.apache.commons.io.FileUtils#waitFor waits too long The timing algorithm is basically broken, since Thread.sleep is imprecise. There is also a counter error in the looping code. \nThe following testcase will never run in less than 4 seconds on my machine\n  public void testRealWallTime() \n{\n\n        long start = System.currentTimeMillis();\n\n        FileUtils.waitFor(new File(\"\"), 2);\n\n        System.out.println(\"elapsed = \" + (System.currentTimeMillis() - start));\n\n    }", "resolution_date": "2015-06-23T17:42:48.000-05:00", "stackTraces": [], "title": "org apach common fileutil file util waitfor wait wait"}
{"codeSnippets": [], "creation_date": "2015-08-06T11:15:06.000-05:00", "description": "embed filenam expos inject vector applic pass unsanit data function filenameutil file name util", "fixed_files": ["org.apache.commons.io.FilenameUtilsTestCase", "org.apache.commons.io.FilenameUtils"], "key": "IO-484", "original_text": "FilenameUtils should handle embedded null bytes embedding nulls in filenames exposes injection vectors if the application passes unsanitized data to some functions in FileNameUtils", "resolution_date": "2015-08-06T11:48:50.000-05:00", "stackTraces": [], "title": "filenameutil filenam util handl embed"}
{"codeSnippets": [], "creation_date": "2015-12-29T12:12:43.000-06:00", "description": "http github com apach common blob trunk src main java org apach common ioutil util java", "fixed_files": ["org.apache.commons.io.IOUtils"], "key": "IO-492", "original_text": "Typo: In an IOUtils.java comment it says \"focussed\" instead of \"focused\" See here: https://github.com/apache/commons-io/blob/trunk/src/main/java/org/apache/commons/io/IOUtils.java#L101", "resolution_date": "2015-12-29T15:40:37.000-06:00", "stackTraces": [], "title": "typo ioutil util java comment say focuss focus"}
{"codeSnippets": [], "creation_date": "2016-01-06T16:40:12.000-06:00", "description": "api doc org apach common directorywalk directori walker topic extern multi thread method handleiscancel handl cancel demo code type", "fixed_files": ["org.apache.commons.io.DirectoryWalker"], "key": "IO-494", "original_text": "Mismatch return type in api docs of class DirectoryWalker. In the api docs of class org.apache.commons.io.DirectoryWalker<T>, topic of 3.1 External / Multi-threaded.Method handleIsCancelled in demo code returns boolean but with a void return type.", "resolution_date": "2016-01-07T21:18:17.000-06:00", "stackTraces": [], "title": "mismatch type api doc directorywalk directori walker"}
{"codeSnippets": [], "creation_date": "2016-04-25T14:20:08.000-05:00", "description": "copi file directori thrown close stream suppress incorrectli propag caller", "fixed_files": ["org.apache.commons.io.FileSystemUtils", "org.apache.commons.io.FileUtils"], "key": "IO-502", "original_text": "Exceptions are suppressed incorrectly when copying files. When copying files or directories, exceptions thrown on closing streams are suppressed incorrectly and need to be propagated to the caller.", "resolution_date": "2016-04-27T17:32:47.000-05:00", "stackTraces": [], "title": "suppress incorrectli copi file"}
