{"key":"4354","title":"","description":"Also\nperhaps related is the fact that Associations which are visible in the property\npanel connecting two Components aren\u0027t being displayed on the diagram."}
{"key":"1671","title":"extra \u003csearchpath\u003e added every time project is saved","description":"The following analysis reveals differences in the 5 files contained in\nthe zip file test.zargo.     The line\n  \u003csearchpath href\u003d\"PROJECT_DIR\" /\u003e\nwas added.       a strange empty FigGroup is added:\n  \u003cgroup name\u003d\"Fig1\"\n       description\u003d\"org.tigris.gef.presentation.FigGroup[0, 0, 0, 0]\"\n       fill\u003d\"1\"\n       fillcolor\u003d\"-1\"\n       stroke\u003d\"1\"\n       strokecolor\u003d\"-16777216\"\n  \u003e\n    \u003cprivate\u003e\n    \u003c/private\u003e\n    \n  \u003c/group\u003e"}
{"key":"4031","title":"","description":"HibernateGeneratorClass but instead it shows up as what looks like an internal xmi.id and is greyed out."}
{"key":"4362","title":"Exception thrown drawing generalization","description":"Place 2 collaborations and draw a generalization between them, an exception is\nthrown."}
{"key":"1884","title":"view todo-items by poster: selected item deselected by argo","description":"It will be automatically deselected after about one second."}
{"key":"4037","title":"Excessive redraws in some diagrams in CVS version (regression from 0.20)","description":"I see ArgoUML taking upwards of 40% of my processor time on some diagrams. For instance, I have one project in which the two most complicated class\ndiagrams burn 50% or so of my processor time. Running the Quartz Debug application, I see that on those two diagrams the\ndiagram is being entirely repainted constantly. This is not the case on any of\nthe other diagrams.  So I went back to the 0.20 release version, and I don\u0027t see this behavior (in\nfact, the CPU load is better even on the other drawings).        If you open the context menu on the Association and choose\n\"Navigability/bidirectional\" the constant repainting stops."}
{"key":"4364","title":"Dragging association onto diagram creates n-ary diamond","description":"There\u0027s also an exception thrown."}
{"key":"2144","title":"Use Case property tab: Operations are not listed","description":"Operations are not listed in the Use Case Property Tab\nfurthermore, there is no possibility to create operations on use cases."}
{"key":"4043","title":"Names of states disappear when project is loaded","description":"The state names are\nno longer displayed."}
{"key":"4367","title":"deleting call self action throws InvalidElementException and makes Argo unstable","description":"At this time Argo is complete unstable"}
{"key":"4049","title":"Updating the role phrase of an association on a diagram does not update the connections pane","description":"Changing the role phrase of an association end does not change the connections\npanel until you change tabs and back again."}
{"key":"2145","title":"Use Case Property Tab: Attributes are not listed","description":"Attributes are not listed in the Use Case Property Tab\nfurthermore, there is no possibility to create attributes on use cases."}
{"key":"4085","title":"Exception adding deferrable event in Action State","description":"An IllegalArgumentException is thrown when you select from the Deferrable Events\npane of the Action State property panel when you choose Select -\u003e Add... from\nthe context (popup) menu."}
{"key":"2225","title":"","description":"Which would mean that, formally, the user is making a mistake here."}
{"key":"4100","title":"Exception in UMLModelElementListModel2 when deleting","description":"An exception occurs in the following circumstances:"}
{"key":"4103","title":"Exception when deleting transition","description":"The following causes an exception:"}
{"key":"2460","title":"[Java] Missing label on radiobuttons in Import Sources -\u003e Java","description":"Missing label on radiobuttons in Import Sources -\u003e Java In the \"Import Sources\" dialog, tab \"Java\":\nThe 2nd radiobutton pair does not have a label, conform to the 1st one."}
{"key":"4155","title":"File Save overwrites without confirmation","description":"If you create a new project and then select File-\u003eSave and specify an existing\nfilename, the file will be overwritten without any warning or confirmation. The\nFile-\u003eSave As operation does ask for confirmation, so there are apparently two\ndifferent code paths."}
{"key":"2618","title":"Editing association rolename adds +, ++, +++","description":"When I first create an association I see + and +, one for each role. If I double click on a \"+\" and type in a role name \"foo\", I now see \"++foo\", and the role name property is recorded as \"+foo\"."}
{"key":"4162","title":"checklist uses \u003cattribute\u003e where it should use \u003cclass\u003e","description":"in the checklist for a class attribute, there is this item:"}
{"key":"3100","title":"new package or class shown with funny name in explorer","description":"After adding a new package, the package is shown in the explorer with a funny \nname: \"(anon Package)\" or \"(anon Class)\"."}
{"key":"4181","title":"","description":"It is impossible to draw an associationclass on the diagram. When you try, the edge does not attach, and you get the following exception:"}
{"key":"3619","title":"Self association invisible after Add to Diagram","description":"Adding a Class with an Association to itself to a Class diagram creates an\ninvisible edge (with a very helpful critic note attached saying it should be\nmade more visible). There doesn\u0027t appear to be any way to resize or move it and\nif there\u0027s more than one for a single class the labels overlap so that they are\nunreadable."}
{"key":"4200","title":"Activity diagrams vanish in a new Package","description":"Activity diagrams vanish in a Package.    new package appears;    the package remains unchanged (i expected it should become expandable like a\ndiagram in the tree); in selected package Properties Owned Elements I can see my diagrams, but\ndouble click does not allow me to review them."}
{"key":"3631","title":"","description":"The \"perspectives\" settings for the Explorer is too well hidden."}
{"key":"4222","title":"Operation and argument names refresh incorrectly","description":"When you change the name of an argument of a operation in a class it doesn\u0027t\nwork in some circunstances.    4 The diagram doesn\u0027t refresh this name and save the project with the default\nname  of the argument. It also changes the name of the operation. 5 Next time you open the project all this doens\u0027t happen"}
{"key":"3665","title":"Activity Diagram drop not properly constrained","description":"ArgoUML throws several CompositionViolationExceptions."}
{"key":"4231","title":"Open exception - Cannot find context namespace while initializing activity diagram","description":""}
{"key":"3711","title":"","description":"tried loading an XMI formatted file that was created with poseidon UML and\nreceived the following beauty."}
{"key":"4245","title":"Repaint exception when creating sequence diagram","description":"I get the following exception the first time a sequence diagram is created."}
{"key":"3774","title":"","description":"Here is the backtrace:"}
{"key":"4272","title":"InvalidElementException in Checklist","description":"The following causes a complete crash of ArgoUML due to InvalidElementException:        This shows an empty ArgoUML window.   The exception:"}
{"key":"3790","title":"Exception when saving to a readonly directory","description":""}
{"key":"4276","title":"InvalidObjectException when deleting 2 classes at once","description":""}
{"key":"3803","title":"Direct entry into text fields on drawings results in doubled first character","description":"Now \nthe first character that you type will be doubled in the text field."}
{"key":"4279","title":"InvalidElementException when setting notation language on project load","description":"I had a project loaded and cleared it using File-\u003eNew, then tried to load a new\nproject and got the following exception. The only way to load a new project\nafter it got into this state was to restart ArgoUML."}
{"key":"3812","title":"Exception opening project - FigCommentPort class not found","description":"When I open my recent project, I got this error :"}
{"key":"4281","title":"","description":"If you currently delete an operation, then its StateMachine and\nStatechartDiagram are deleted too."}
{"key":"3882","title":"Transitions names are not refreshed","description":"When I create a transition in a activity diagram, it doesn\u0027t refresh the name \nof the transition at the hierarchical selection tree. The program uses the \ndefined Trigger instead the name there."}
{"key":"4324","title":"","description":"The default file name is \"foo.uml\" (correct) but the default extension is \". zargo\"! If I press \"save\", I get a foo.uml.zargo file.   Moreover, the file name gets cancelled when the extension is changed."}
{"key":"3923","title":"","description":"2) If I add my activity diagram under the use case diagram I always get a new activity graph, so I have 2 activity graphs alltogether. I cannot add an activity diagram under the imported activity graph. Please see the screenshot I attached.  Screenshot:         actionState is always \"null\". 4) Importing the activity diagram from Poseidon works and the result can be processed by AndroMDA but if you are making the activity diagram from the beginning with ArgoUML, it won\u0027t work because of the error above"}
{"key":"4330","title":"Exception in \"Send email to expert\"","description":"The following exception is thrown (stack from the console, no pop-ups appear):"}
{"key":"3945","title":"Exception assigning an operation to a callevent","description":"The following Exception happens when assigning an operatioon to a callevent in \nthe following way:"}
{"key":"4342","title":"Delete from model does not enable \"Save Project\"","description":"When an item is removed using \"Delete from model\" the \"Save Project\" entry in\nthe \"File\" menu is not enabled."}
{"key":"3947","title":"","description":"I have added to it some \nclassified roles and some callings and returns, in one of the returns of a \ncall the \u0027activity\u0027 doens\u0027t finish at the point of the return and this causes \nthat I can\u0027t insert new call at the lane. When I reload the seuqence diagram \nto check if the problem persist the white rectangle that indicates the \nduration of the call doesn\u0027t appear in any lane for any call and is imposible \nto add new calls."}
{"key":"4349","title":"Activity Diagram not refreshed after deletion of a Action State","description":"Nothing happens the action state does not get removed form the Activity Diagram\nand as soon as you save the model. The action state does get remove and the\nfollowing error is generated."}
{"key":"3974","title":"Methods and properties not updated in class diagrams","description":"If I change the name of a method or property in a class diagrams, it won\u0027t be\nupdated until I reload the diagram, or add a parameter. The same thing happens\nif I change the visibility or modifier (static for example) of a method or property."}
