{"key":"MAHOUT-1284","title":"","description":"This makes DummyRecordWriter fail for testing the MapReduce jobs that reuse the Writables."}
{"key":"MAHOUT-1285","title":"Arff loader can misparse string data as double","description":"For a specific random seed, the following exception is thrown:"}
{"key":"MAHOUT-1314","title":"StreamingKMeansReducer throws NullPointerException when REDUCE_STREAMING_KMEANS is set to true","description":"when REDUCE_STREAMING_KMEANS option is set to true (-rskm) the reducer fails with NullPointerException.     full stack trace:"}
{"key":"MAHOUT-1317","title":"","description":"Here, it is known that the actual issue is that the parameter must be zero (or negative), not just that it\u0027s \"incorrect\", and a (trivial) change to the error message might save some folks some time... especially newbies like myself."}
{"key":"MAHOUT-1320","title":"","description":"From time to time this test fails with following in build log:          Here is a bit more of build log output, which also shows other tests were running in parallel with this one:"}
{"key":"MAHOUT-1336","title":"HighDFWordsPrunerTest is failing silently","description":"Apparently ToolRunner does not allow the --mapred option. The validation is not very foolproof, so there is a resulting silent failure in HighDFWordsPrunerTest. Error message:"}
{"key":"MAHOUT-1339","title":"","description":"Many files in the project don\u0027t carry the standard license header."}
{"key":"MAHOUT-1349","title":"Clusterdumper/loadTermDictionary crashes when highest index in (sparse) dictionary vector is larger than dictionary vector size?","description":"The kmeans ran fine and generate sensible looking results, but when I tried\nto run ClusterDumper I got the following error:                                       It worked fine when I reduced the hash size to be \u003c\u003d than the total number\nof features, but this is not desirable in general (for me) since I don\u0027t\nknow the number of features before I run the job (and if I guess too high\nthen ClusterDumper crashes)"}
{"key":"MAHOUT-1358","title":"StreamingKMeansThread throws IllegalArgumentException when REDUCE_STREAMING_KMEANS is set to true","description":"Running StreamingKMeans Clustering with REDUCE_STREAMING_KMEANS \u003d true and when no estimatedDistanceCutoff is specified, throws the following error"}
{"key":"MAHOUT-1396","title":"Accidental use of commons-math won\u0027t work with next Hadoop 2 release","description":"So this will no longer compile against the latest Hadoop. I believe it will also not actually run again the latest Hadoop, even if one were to use a version compiled versus older Hadoop 2, since the class that uses it is used in the context of Writables -- that is, outside the client environment that might happen to have packaged commons-math -- and so would fail on the cluster."}
{"key":"MAHOUT-1410","title":"clusteredPoints do not contain a vector id","description":"When clustering non-named vectors there are no vector ids in clusteredPoints so the other values there, cluster id, vector values, distance-squared, pdf, cannot be tied to any known vector."}
{"key":"MAHOUT-1030","title":"Regression: Clustered Points Should be WeightedPropertyVectorWritable not WeightedVectorWritable","description":"\u003e\u003e It appears that in kmeans the clusteredPoints are now written as WeightedVectorWritable where in mahout 0.6 they were WeightedPropertyVectorWritable? This means that the distance from the centroid is no longer stored here?"}
{"key":"MAHOUT-1261","title":"TasteHadoopUtils.idToIndex can return an int that has size Integer.MAX_VALUE","description":"The job fails because of an IndexException in ToUserVectorsReducer.  For some id (I don\u0027t know what value), the result returned is Integer.MAX_VALUE. This cannot be set in the userVector because the cardinality of that is also Integer.MAX_VALUE and it throws an exception. So, the issue is that values from 0 to INT_MAX are returned by idToIndex but the vector only has 0 to INT_MAX - 1 possible entries."}
