{"key":"ZOOKEEPER-1179","title":"NettyServerCnxn does not properly close socket on 4 letter word requests","description":"When calling a 4-letter-word to a server configured to use NettyServerCnxnFactory, the factory will not properly cancel all the keys and close the socket after sending the response for the 4lw. The close request will throw this exception, and the thread will not shut down:"}
{"key":"ZOOKEEPER-1474","title":"Cannot build Zookeeper with IBM Java: use of Sun MXBean classes","description":"This OperatingSystemMXBean class is not implemented by IBM or open java."}
{"key":"ZOOKEEPER-1499","title":"clientPort config changes not backwards-compatible","description":"With the new reconfig logic, clientPort\u003d2181 in the zoo.cfg file no longer gets read, and clients can\u0027t connect without adding ;2181 to the end of their server lines."}
{"key":"ZOOKEEPER-1535","title":"ZK Shell/Cli re-executes last command on exit","description":"In the ZK 3.4.3 release\u0027s version of zkCli.sh, the last command that was executed is *re*-executed when you {{ctrl+d}} out of the shell. In the snippet below, {{ls}} is executed, and then {{ctrl+d}} is triggered (inserted below to illustrate), the output from {{ls}} appears again, due to the command being re-run."}
{"key":"ZOOKEEPER-1573","title":"Unable to load database due to missing parent node","description":"While replaying txnlog on data tree, the server has a code to detect missing parent node.     The server start capturing snapshot at zxid 1. However, by the time it traversing the data tree down to /prefix, txn 4 is already applied and /prefix have no children. When the server restore from snapshot, it process txnlog starting from zxid 2. This txn generate missing parent error and the server refuse to start up."}
{"key":"ZOOKEEPER-1619","title":"","description":"Currently, spaces are not allowed in the url.   This format will not (notice the spaces around the comma)"}
{"key":"ZOOKEEPER-1629","title":"testTransactionLogCorruption occasionally fails","description":"It seems that testTransactionLogCorruption is very flaky,for example fails here:"}
{"key":"ZOOKEEPER-1642","title":"Leader loading database twice","description":"The leader server currently loads the database before running leader election when trying to figure out the zxid it needs to use for the election and again when it starts leading."}
{"key":"ZOOKEEPER-1667","title":"","description":"When a client reestablish to a server, it will send the watches which have not been triggered.     When client a reestablish to zk, it will receive a NodeCreated rather than a NodeDataChanged.  When client a reestablish to zk, it will receive a NodeDataChanged rather than a NodeCreated."}
{"key":"ZOOKEEPER-1691","title":"","description":"Currently you cannot use dynamic reconfiguration to bootstrap zookeeper cluster because the server goes into standalone mode when there is only one server in the cluster."}
{"key":"ZOOKEEPER-1700","title":"FLETest consistently failing - setLastSeenQuorumVerifier seems to be hanging","description":"I\u0027m consistently seeing a failure on my laptop when running the FLETest \"testJoin\" test. What seems to be happening is that the call to setLastSeenQuorumVerifier is hanging. See the following log from the test, notice 17:35:57 for the period in question. Note that I turned on debug logging and added a few log messages around the call to setLastSeenQuorumVerifier (you can see the code enter but never leave)"}
{"key":"ZOOKEEPER-1732","title":"ZooKeeper server unable to join established ensemble","description":"I ran the tests in a loop until the failure came out and it seems that at some point one of the servers is unable to join the enssemble formed by the other two."}
{"key":"ZOOKEEPER-1750","title":"Race condition producing NPE in NIOServerCnxn.toString","description":"The socket is closed and the variable \"sock\" is set to null for normal reasons, but the toString_ method is called before \"sock\" can be set again, producing a NullPointerException."}
{"key":"ZOOKEEPER-1753","title":"ClientCnxn is not properly releasing the resources, which are used to ping RwServer","description":"These are not properly closed in finally block and could cause leaks on exceptional cases."}
{"key":"ZOOKEEPER-1755","title":"Concurrent operations of four letter \u0027dump\u0027 ephemeral command and killSession causing NPE","description":"Potential problem occurs, when executing four letter \u0027dump\u0027 command and at the meantime zkserver has triggered session closure and removing the related information from the DataTree. Please see the exception:"}
{"key":"ZOOKEEPER-1769","title":"ZooInspector can\u0027t display node data/metadata/ACLs","description":"There seem to be a few bugs in the trunk that prevent ZooInspector to load the node viewers ( the 3 tabs in the main windows when you select a ZK node in the tree don\u0027t show up any more )."}
{"key":"ZOOKEEPER-1774","title":"QuorumPeerMainTest fails consistently with \"complains about host\" assertion failure","description":"QuorumPeerMainTest fails consistently with \"complains about host\" assertion failure."}
{"key":"ZOOKEEPER-1781","title":"ZooKeeper Server fails if snapCount is set to 1 ","description":"If snapCount is set to 1, ZooKeeper Server can start but it fails with the below error:"}
{"key":"ZOOKEEPER-1783","title":"","description":"Currently both have version 0. The version of a config increases with each reconfiguration, so the problem is just with the initial config."}
{"key":"ZOOKEEPER-1815","title":"","description":"A bunch of tests will fail with UnknownHostException errors when the hostname is incorrectly set on the system that you are running tests on."}
{"key":"ZOOKEEPER-1837","title":"Fix JMXEnv checks (potential race conditions)","description":"The following failures in ZooKeeper-3.4-WinVS2008_java and ZooKeeper-trunk-WinVS2008_java require fixing:"}
{"key":"ZOOKEEPER-876","title":"Unnecessary snapshot transfers between new leader and followers","description":"When starting a new leadership, unnecessary snapshot transfers happen between new leader and followers.  1 the comparison of zxids is done based on a new proposal, instead of the last logged zxid.  2 if follower is one zxid behind, the check of the interval of committed logs excludes the follower.  3 the bug reported in ZOOKEEPER-874 (commitLogs are empty after recover)."}
