sys;defects4j_id;bug_id;src_folder;test_folder
Lang;11;LANG-807;[src/main/java];[src/test/java]
Lang;6;LANG-857;[src/main/java];[src/test/java]
Lang;4;LANG-882;[src/main/java];[src/test/java]
Lang;2;LANG-879;[src/main/java];[src/test/java]
Lang;9;LANG-832;[src/main/java];[src/test/java]
Lang;10;LANG-831;[src/main/java];[src/test/java]
Lang;7;LANG-822;[src/main/java];[src/test/java]
Lang;12;LANG-805;[src/main/java];[src/test/java]
Lang;13;LANG-788;[src/main/java];[src/test/java]
Lang;1;LANG-747;[src/main/java];[src/test/java]
Lang;16;LANG-746;[src/main/java];[src/test/java]
Lang;19;LANG-710;[src/main/java];[src/test/java]
Lang;26;LANG-645;[src/main/java];[src/test/java]
Lang;18;LANG-719;[src/main/java];[src/test/java]
Lang;21;LANG-677;[src/main/java];[src/test/java]
Lang;24;LANG-664;[src/main/java];[src/test/java]
Lang;22;LANG-662;[src/main/java];[src/test/java]
Lang;27;LANG-638;[src/main/java];[src/test/java]
Lang;33;LANG-587;[src/main/java];[src/test/java]
Lang;65;LANG-59;[src/java];[src/test]
Lang;38;LANG-538;[src/java];[src/test]
Lang;39;LANG-552;[src/java];[src/test]
Lang;32;LANG-586;[src/main/java];[src/test/java]
Lang;44;LANG-457;[src/java];[src/test]
Lang;36;LANG-521;[src/java];[src/test]
Lang;42;LANG-480;[src/java];[src/test]
Lang;43;LANG-477;[src/java];[src/test]
Lang;40;LANG-432;[src/java];[src/test]
Lang;45;LANG-419;[src/java];[src/test]
Lang;47;LANG-412;[src/java];[src/test]
Lang;48;LANG-393;[src/java];[src/test]
Lang;49;LANG-380;[src/java];[src/test]
Lang;50;LANG-368;[src/java];[src/test]
Lang;51;LANG-365;[src/java];[src/test]
Lang;52;LANG-363;[src/java];[src/test]
Lang;53;LANG-346;[src/java];[src/test]
Lang;54;LANG-328;[src/java];[src/test]
Lang;57;LANG-304;[src/java];[src/test]
Lang;55;LANG-315;[src/java];[src/test]
Lang;58;LANG-300;[src/java];[src/test]
Lang;59;LANG-299;[src/java];[src/test]
Lang;60;LANG-295;[src/java];[src/test]
Lang;62;LANG-292;[src/java];[src/test]
Lang;63;LANG-281;[src/java];[src/test]
Lang;64;LANG-259;[src/java];[src/test]
Lang;29;LANG-624;[src/main/java];[src/test/java]
Math;2;MATH-1021;[src/main/java];[src/test/java]
Math;101;MATH-198;[src/java];[src/test]
Math;102;MATH-175;[src/java];[src/test]
Math;103;MATH-167;[src/java];[src/test]
Math;3;MATH-1005;[src/main/java];[src/test/java]
Math;4;MATH-988;[src/main/java];[src/test/java]
Math;6;MATH-949;[src/main/java];[src/test/java]
Math;8;MATH-942;[src/main/java];[src/test/java]
Math;27;MATH-835;[src/main/java];[src/test/java]
Math;10;MATH-935;[src/main/java];[src/test/java]
Math;5;MATH-934;[src/main/java];[src/test/java]
Math;11;MATH-929;[src/main/java];[src/test/java]
Math;18;MATH-867;[src/main/java];[src/test/java]
Math;19;MATH-865;[src/main/java];[src/test/java]
Math;22;MATH-859;[src/main/java];[src/test/java]
Math;105;MATH-85;[src/java];[src/test]
Math;25;MATH-844;[src/main/java];[src/test/java]
Math;26;MATH-836;[src/main/java];[src/test/java]
Math;29;MATH-803;[src/main/java];[src/test/java]
Math;34;MATH-779;[src/main/java];[src/test/java]
Math;33;MATH-781;[src/main/java];[src/test/java]
Math;17;MATH-778;[src/main/java];[src/test/java]
Math;39;MATH-727;[src/main/java];[src/test/java]
Math;35;MATH-776;[src/main/java];[src/test/java]
Math;40;MATH-716;[src/main/java];[src/test/java]
Math;37;MATH-722;[src/main/java];[src/test/java]
Math;42;MATH-713;[src/main/java];[src/test/java]
Math;44;MATH-695;[src/main/java];[src/test/java]
Math;41;MATH-704;[src/main/java];[src/test/java]
Math;43;MATH-691;[src/main/java];[src/test/java]
Math;49;MATH-645;[src/main/java];[src/test/java]
Math;48;MATH-631;[src/main/java];[src/test/java]
Math;53;MATH-618;[src/main/java];[src/test/java]
Math;106;MATH-60;[src/java];[src/test]
Math;54;MATH-567;[src/main/java];[src/test/java]
Math;56;MATH-552;[src/main/java];[src/test/java]
Math;55;MATH-554;[src/main/java];[src/test/java]
Math;67;MATH-393;[src/main/java];[src/test/java]
Math;57;MATH-546;[src/main/java];[src/test/java]
Math;59;MATH-482;[src/main/java];[src/test/java]
Math;65;MATH-377;[src/main/java];[src/test/java]
Math;69;MATH-371;[src/main/java];[src/test/java]
Math;70;MATH-369;[src/main/java];[src/test/java]
Math;68;MATH-362;[src/main/java];[src/test/java]
Math;71;MATH-358;[src/main/java];[src/test/java]
Math;72;MATH-344;[src/main/java];[src/test/java]
Math;75;MATH-329;[src/main/java];[src/test/java]
Math;74;MATH-338;[src/main/java];[src/test/java]
Math;80;MATH-318;[src/main/java];[src/test/java]
Math;77;MATH-326;[src/main/java];[src/test/java]
Math;78;MATH-322;[src/main/java];[src/test/java]
Math;79;MATH-305;[src/main/java];[src/test/java]
Math;85;MATH-280;[src/java];[src/test]
Math;86;MATH-274;[src/java];[src/test]
Math;85;MATH-273;[src/java];[src/test]
Math;90;MATH-259;[src/java];[src/test]
Math;92;MATH-241;[src/java];[src/test]
Math;94;MATH-238;[src/java];[src/test]
Math;96;MATH-221;[src/java];[src/test]
Math;98;MATH-209;[src/java];[src/test]
Math;100;MATH-200;[src/java];[src/test]
Math;15;MATH-904;[src/main/java];[src/test/java]
Math;45;MATH-679;[src/main/java];[src/test/java]
Time;1;93;[src/main/java];[src/test/java]
Time;3;77;[src/main/java];[src/test/java]
Time;4;88;[src/main/java];[src/test/java]
Time;5;79;[src/main/java];[src/test/java]
Time;6;28;[src/main/java];[src/test/java]
Time;7;21;[src/main/java];[src/test/java]
Time;8;42;[src/main/java];[src/test/java]
Time;9;43;[src/main/java];[src/test/java]
Time;10;22;[src/main/java];[src/test/java]
Time;11;18;[src/main/java];[src/test/java]
