system;bug_id;creation_date;resolved_date
lang;LANG-259;2006-05-22T21:10:15.000+0000;2006-08-18T22:21:34.000+0000
lang;LANG-281;2006-10-05T16:51:37.000+0000;2006-10-07T00:23:28.000+0000
lang;LANG-292;2006-10-31T01:45:01.000+0000;2006-10-31T21:34:31.000+0000
lang;LANG-295;2006-10-31T22:16:13.000+0000;2006-10-31T23:01:13.000+0000
lang;LANG-299;2006-12-11T11:58:25.000+0000;2006-12-12T22:35:59.000+0000
lang;LANG-300;2006-12-19T17:47:43.000+0000;2006-12-19T21:50:46.000+0000
lang;LANG-303;2006-12-22T19:55:34.000+0000;2006-12-26T22:08:27.000+0000
lang;LANG-304;2006-12-22T20:32:58.000+0000;2006-12-22T20:35:51.000+0000
lang;LANG-315;2007-02-06T13:52:59.010+0000;2007-02-06T22:49:59.316+0000
lang;LANG-328;2007-04-16T23:11:44.884+0000;2007-05-01T23:50:11.133+0000
lang;LANG-346;2007-07-06T20:06:55.346+0000;2007-08-09T00:25:20.908+0000
lang;LANG-363;2007-10-23T07:12:48.497+0000;2007-10-26T06:09:17.412+0000
lang;LANG-365;2007-10-26T18:58:21.364+0000;2007-10-27T05:07:54.280+0000
lang;LANG-368;2007-10-30T13:52:38.896+0000;2007-10-31T03:59:37.721+0000
lang;LANG-380;2007-11-29T16:24:43.047+0000;2007-11-29T16:34:28.826+0000
lang;LANG-393;2008-01-03T13:46:49.001+0000;2008-01-13T07:00:40.020+0000
lang;LANG-412;2008-02-13T04:23:25.369+0000;2008-02-13T05:45:03.788+0000
lang;LANG-419;2008-03-26T17:05:47.527+0000;2008-05-11T05:18:15.091+0000
lang;LANG-432;2008-04-25T16:02:31.441+0000;2009-10-22T05:47:05.377+0000
lang;LANG-457;2008-09-08T20:00:51.532+0000;2008-11-05T16:33:36.529+0000
lang;LANG-477;2009-01-09T10:05:53.303+0000;2009-01-09T22:08:19.585+0000
lang;LANG-480;2009-01-20T17:36:44.226+0000;2009-03-01T20:55:06.263+0000
lang;LANG-521;2009-08-04T22:21:38.676+0000;2009-12-22T08:08:26.699+0000
lang;LANG-538;2009-10-16T16:47:39.802+0000;2009-12-17T06:05:11.668+0000
lang;LANG-552;2009-11-09T12:40:57.841+0000;2009-12-14T07:51:45.145+0000
lang;LANG-586;2010-02-04T20:51:15.812+0000;2010-02-04T21:59:56.219+0000
lang;LANG-587;2010-02-05T21:30:56.266+0000;2010-02-05T21:35:08.182+0000
lang;LANG-59;2005-10-26T07:22:00.000+0000;2006-07-21T05:15:42.000+0000
lang;LANG-624;2010-05-27T21:09:29.683+0000;2011-02-01T16:31:42.975+0000
lang;LANG-636;2010-07-21T10:55:08.350+0000;2011-01-11T00:28:11.369+0000
lang;LANG-638;2010-08-02T10:59:38.658+0000;2010-08-03T04:42:18.030+0000
lang;LANG-645;2010-08-20T14:11:08.688+0000;2010-09-08T06:10:03.965+0000
lang;LANG-658;2010-11-13T14:31:25.107+0000;2010-11-13T16:52:16.893+0000
lang;LANG-662;2010-12-06T22:40:30.438+0000;2011-01-17T04:30:27.248+0000
lang;LANG-664;2010-12-07T05:29:41.539+0000;2011-01-01T06:57:18.950+0000
lang;LANG-677;2011-02-02T15:08:33.495+0000;2011-03-03T04:35:08.464+0000
lang;LANG-710;2011-07-01T20:57:30.087+0000;2011-07-09T05:09:46.672+0000
lang;LANG-719;2011-07-13T17:00:52.375+0000;2011-07-13T17:02:13.776+0000
lang;LANG-746;2011-08-23T12:32:12.447+0000;2011-08-23T12:33:42.002+0000
lang;LANG-747;2011-08-23T12:50:49.288+0000;2013-07-26T01:06:08.612+0000
lang;LANG-788;2012-02-11T12:36:48.891+0000;2012-02-29T14:39:49.521+0000
lang;LANG-805;2012-06-09T13:46:34.694+0000;2012-06-09T15:06:42.149+0000
lang;LANG-807;2012-06-10T12:11:51.923+0000;2012-06-10T12:41:58.111+0000
lang;LANG-822;2012-09-12T21:22:47.606+0000;2012-11-11T13:18:53.210+0000
lang;LANG-831;2012-09-26T23:55:52.689+0000;2012-09-27T00:10:31.395+0000
lang;LANG-832;2012-09-27T00:27:58.603+0000;2012-09-27T00:56:48.670+0000
lang;LANG-857;2012-11-20T12:36:14.060+0000;2012-11-20T20:47:52.651+0000
lang;LANG-879;2013-03-18T21:46:29.122+0000;2013-05-30T22:13:22.145+0000
lang;LANG-882;2013-03-28T16:25:26.256+0000;2013-04-23T06:03:28.333+0000
math;MATH-1005;2013-07-12T09:39:41.108+0000;2013-07-12T11:32:18.950+0000
math;MATH-1021;2013-08-10T00:00:22.518+0000;2013-08-29T21:35:32.662+0000
math;MATH-166;2007-06-04T09:34:54.116+0000;2007-06-20T22:24:30.505+0000
math;MATH-167;2007-06-28T14:50:05.656+0000;2007-11-19T01:18:28.018+0000
math;MATH-175;2007-12-04T02:31:53.390+0000;2008-01-09T05:17:45.107+0000
math;MATH-198;2008-03-18T23:06:45.678+0000;2008-03-23T12:23:59.081+0000
math;MATH-200;2008-03-25T22:22:21.714+0000;2008-03-28T20:11:06.611+0000
math;MATH-209;2008-06-17T03:02:48.286+0000;2008-06-17T19:10:53.014+0000
math;MATH-221;2008-08-29T13:31:56.028+0000;2008-08-29T15:52:38.281+0000
math;MATH-238;2009-01-16T22:24:24.471+0000;2009-01-16T23:07:17.152+0000
math;MATH-241;2009-01-16T23:34:23.583+0000;2009-01-19T23:53:48.731+0000
math;MATH-259;2009-04-06T13:16:51.978+0000;2009-04-25T17:52:18.187+0000
math;MATH-273;2009-06-03T05:11:34.561+0000;2009-06-03T09:07:06.115+0000
math;MATH-274;2009-06-04T19:24:12.801+0000;2009-06-04T20:11:26.098+0000
math;MATH-280;2009-07-06T21:26:57.539+0000;2009-07-07T09:21:22.185+0000
math;MATH-305;2009-10-22T06:35:08.815+0000;2009-11-27T21:46:44.191+0000
math;MATH-318;2009-11-06T15:09:36.202+0000;2009-11-06T15:12:47.699+0000
math;MATH-322;2009-12-06T23:01:35.187+0000;2009-12-06T23:06:04.312+0000
math;MATH-326;2009-12-29T00:09:20.236+0000;2009-12-29T12:26:59.402+0000
math;MATH-329;2010-01-14T08:01:33.654+0000;2010-01-16T20:02:15.571+0000
math;MATH-338;2010-01-28T10:59:13.355+0000;2010-01-28T15:17:46.569+0000
math;MATH-344;2010-02-23T20:23:21.942+0000;2010-02-23T21:10:00.412+0000
math;MATH-358;2010-03-24T17:25:37.791+0000;2010-03-24T22:13:19.437+0000
math;MATH-362;2010-04-06T11:38:46.486+0000;2010-05-29T18:16:50.859+0000
math;MATH-369;2010-05-03T15:48:27.865+0000;2010-05-03T18:43:59.234+0000
math;MATH-371;2010-05-13T19:48:46.971+0000;2010-05-16T23:49:08.900+0000
math;MATH-377;2010-06-17T09:06:03.132+0000;2010-07-25T19:49:09.597+0000
math;MATH-393;2010-07-25T00:14:20.087+0000;2010-07-25T12:31:26.591+0000
math;MATH-482;2011-01-17T19:52:10.205+0000;2011-01-17T20:01:32.979+0000
math;MATH-546;2011-03-12T04:52:54.887+0000;2011-03-16T12:58:17.972+0000
math;MATH-552;2011-03-31T22:36:56.388+0000;2011-04-01T10:12:29.932+0000
math;MATH-554;2011-04-03T14:14:38.712+0000;2011-04-03T14:33:56.974+0000
math;MATH-567;2011-05-05T17:49:00.996+0000;2011-05-05T19:44:09.415+0000
math;MATH-60;2006-05-14T04:20:21.000+0000;2006-06-05T10:16:21.000+0000
math;MATH-618;2011-07-13T20:23:43.610+0000;2011-07-14T06:08:54.850+0000
math;MATH-631;2011-07-23T23:48:27.750+0000;2011-09-08T12:13:59.614+0000
math;MATH-645;2011-08-13T16:18:48.359+0000;2011-09-02T20:54:19.651+0000
math;MATH-679;2011-10-03T05:36:20.788+0000;2011-10-10T19:57:12.853+0000
math;MATH-691;2011-10-16T17:18:34.289+0000;2011-11-27T05:20:46.798+0000
math;MATH-695;2011-10-25T16:52:29.017+0000;2011-10-26T09:09:54.213+0000
math;MATH-704;2011-11-08T23:08:28.080+0000;2011-11-30T06:25:55.820+0000
math;MATH-713;2011-11-25T16:35:02.316+0000;2011-11-28T20:17:44.254+0000
math;MATH-716;2011-12-01T09:36:15.669+0000;2011-12-01T23:25:58.142+0000
math;MATH-722;2011-12-09T21:34:40.061+0000;2012-01-27T07:01:40.184+0000
math;MATH-727;2011-12-17T16:36:13.882+0000;2011-12-17T16:56:04.142+0000
math;MATH-776;2012-04-02T17:15:33.760+0000;2012-04-02T18:47:29.305+0000
math;MATH-778;2012-04-10T06:06:11.771+0000;2012-10-21T16:23:33.562+0000
math;MATH-779;2012-04-11T15:28:35.637+0000;2012-04-12T18:34:06.107+0000
math;MATH-781;2012-04-21T07:11:57.237+0000;2012-05-02T18:29:29.254+0000
math;MATH-803;2012-06-09T18:51:33.214+0000;2014-02-20T15:58:58.572+0000
math;MATH-835;2012-07-31T13:09:24.553+0000;2012-07-31T15:01:01.949+0000
math;MATH-836;2012-07-31T17:04:25.690+0000;2012-08-04T16:27:26.204+0000
math;MATH-844;2012-08-12T21:03:33.568+0000;2012-08-16T20:45:55.064+0000
math;MATH-859;2012-09-08T18:15:16.981+0000;2015-02-24T22:09:34.331+0000
math;MATH-85;2006-04-28T00:00:55.000+0000;2006-07-06T12:11:34.000+0000
math;MATH-865;2012-09-19T21:10:42.887+0000;2012-09-22T10:04:55.902+0000
math;MATH-867;2012-09-21T22:52:58.405+0000;2012-10-01T16:09:26.187+0000
math;MATH-904;2012-11-20T20:51:23.030+0000;2012-11-26T23:03:35.899+0000
math;MATH-927;2013-01-04T11:36:25.733+0000;2013-01-13T18:02:19.540+0000
math;MATH-929;2013-01-15T11:45:28.354+0000;2013-01-15T12:20:21.795+0000
math;MATH-934;2013-02-10T12:34:59.839+0000;2013-03-22T18:56:40.404+0000
math;MATH-935;2013-02-15T08:05:13.201+0000;2013-02-15T08:22:10.814+0000
math;MATH-942;2013-03-09T15:05:04.883+0000;2013-03-10T12:02:31.171+0000
math;MATH-949;2013-03-15T18:11:56.952+0000;2013-03-20T11:38:17.297+0000
math;MATH-988;2013-06-02T13:06:36.023+0000;2013-06-03T07:17:01.315+0000
time;18;2013-04-19T08:28:47Z;2013-04-19T14:48:33Z
time;21;2013-05-03T21:03:46Z;2013-07-21T00:13:03Z
time;22;2013-05-07T14:19:36Z;2013-06-16T10:28:45Z
time;28;2013-05-31T00:52:24Z;2013-08-16T13:42:26Z
time;42;2013-07-18T16:12:52Z;2013-07-20T11:08:53Z
time;43;2013-07-20T09:23:26Z;2013-07-20T11:08:53Z
time;77;2013-10-16T15:36:22Z;2013-11-27T12:50:47Z
time;79;2013-10-17T20:36:31Z;2013-11-01T14:07:10Z
time;88;2013-11-25T19:15:46Z;2013-11-27T12:50:47Z
time;93;2013-12-01T09:33:58Z;2013-12-02T19:14:54Z
