{"id":2,"bug_id":"LANG-292","text":"Following test (in EntitiesTest.java) fails:   public void testNumberOverflow() throws Exception {\n        doTestUnescapeEntity(\"\u0026#12345678;\", \"\u0026#12345678;\");\n        doTestUnescapeEntity(\"x\u0026#12345678;y\", \"x\u0026#12345678;y\");\n        doTestUnescapeEntity(\"\u0026#x12345678;\", \"\u0026#x12345678;\");\n        doTestUnescapeEntity(\"x\u0026#x12345678;y\", \"x\u0026#x12345678;y\");\n    }","class_goldset":["org.apache.commons.lang.Entities"],"method_goldset":["org.apache.commons.lang.Entities:unescape(String)","org.apache.commons.lang.Entities:unescape(Writer, String)"],"creation_date":"2006-10-31 01:45:01","resolution_date":"2006-10-31 21:34:31"}
{"id":4,"bug_id":"LANG-300","text":"NumberUtils.createNumber throws NumberFormatException for one digit long. NumberUtils.createNumber throws a NumberFormatException when parsing \"1l\", \"2l\" .     The condition isDigits(numeric.substring(1)), line 455 return false as numeric.substring(1) is an empty string for \"1l\" isDigits(numeric.substring(1)) numeric.substring(1)","class_goldset":["org.apache.commons.lang.math.NumberUtils"],"method_goldset":["org.apache.commons.lang.math.NumberUtils:createNumber(String)"],"creation_date":"2006-12-19 17:47:43","resolution_date":"2006-12-19 21:50:46"}
{"id":5,"bug_id":"LANG-315","text":"StopWatch: suspend() acts as split(), if followed by stop(). In my opinion, it is a bug that suspend() acts as split(), if followed by stop(); see below:     // Time 1 (ok)   // Time 1 (again, ok)     // Time 2 (ok)   // Time 2 (again, ok)    // Time 2 (should be, but is Time 3 \u003d\u003e NOT ok)  suspend/resume is like a pause, where time counter doesn\u0027t continue.  suspend()  split() stop();  StopWatch sw \u003d new StopWatch();\n\n        sw.start();\n        Thread.sleep(1000);\n        sw.suspend();\n        // Time 1 (ok)\n        System.out.println(sw.getTime());\n\n        Thread.sleep(2000);\n        // Time 1 (again, ok)\n        System.out.println(sw.getTime());\n\n        sw.resume();\n        Thread.sleep(3000);\n        sw.suspend();\n        // Time 2 (ok)\n        System.out.println(sw.getTime());\n\n        Thread.sleep(4000);\n        // Time 2 (again, ok)\n        System.out.println(sw.getTime());\n\n        Thread.sleep(5000);\n        sw.stop();\n        // Time 2 (should be, but is Time 3 \u003d\u003e NOT ok)\n        System.out.println(sw.getTime());\n\n\n stop()","class_goldset":["org.apache.commons.lang.time.StopWatch"],"method_goldset":["org.apache.commons.lang.time.StopWatch:stop()"],"creation_date":"2007-2-6 13:52:59","resolution_date":"2007-2-6 22:49:59"}
{"id":6,"bug_id":"LANG-346","text":"--2.1 produces Before round() Mon Jul 02 03:09:50 CDT 2007  --2.2 and 2.3 produces Before round() Mon Jul 02 03:09:50 CDT 2007 After round()  Mon Jul 02 03:01:00 CDT 2007 -- this appears to be wrong public void testRound()\n{\n    Calendar testCalendar \u003d Calendar.getInstance(TimeZone.getTimeZone(\"GMT\"));\n    testCalendar.set(2007, 6, 2, 8, 9, 50);\n    Date date \u003d testCalendar.getTime();\n    System.out.println(\"Before round() \" + date);\n    System.out.println(\"After round()  \" + DateUtils.round(date, Calendar.MINUTE));\n}\n\n Before round()  After round()   Before round()  After round()","class_goldset":["org.apache.commons.lang.time.DateUtils"],"method_goldset":["org.apache.commons.lang.time.DateUtils:modify(Calendar, int, boolean)"],"creation_date":"2007-7-6 20:06:55","resolution_date":"2007-8-9 00:25:20"}
{"id":7,"bug_id":"LANG-363","text":"StringEscapeUtils.escapeJavaScript() method did not escape \u0027/\u0027 into \u0027\\/\u0027, it will make IE render page uncorrectly. value \u003d \u0027\u003cscript\u003ealert(\\\u0027aaa\\\u0027);\u003c/script\u003e\u0027;this expression will make IE render page uncorrect, it should be document.getElementById(\"test\").    document.getElementById(\"test\") document.getElementById(\"test\") String s \u003d \"\u003cscript\u003ealert(\u0027aaa\u0027);\u003c/script\u003e\";\n  String str \u003d org.springframework.web.util.JavaScriptUtils.javaScriptEscape(s);\n  System.out.println(\"Spring JS Escape : \"+str);\n  str \u003d org.apache.commons.lang.StringEscapeUtils.escapeJavaScript(s);\n  System.out.println(\"Apache Common Lang JS Escape : \"+ str);","class_goldset":["org.apache.commons.lang.StringEscapeUtils"],"method_goldset":["org.apache.commons.lang.StringEscapeUtils:escapeJavaStyleString(Writer, String, boolean)"],"creation_date":"2007-10-23 07:12:48","resolution_date":"2007-10-26 06:09:17"}
{"id":9,"bug_id":"LANG-432","text":"{{String.to*Case()}} is locale-sensitive, this is usually not intended for case-insensitive comparisions.  Case()","class_goldset":["org.apache.commons.lang.StringUtils"],"method_goldset":["org.apache.commons.lang.StringUtils:containsIgnoreCase(String, String)"],"creation_date":"2008-4-25 16:02:31","resolution_date":"2009-10-22 05:47:05"}
{"id":11,"bug_id":"LANG-477","text":"ExtendedMessageFormat: OutOfMemory with custom format registry and a pattern containing single quotes. When using ExtendedMessageFormat with a custom format registry and a pattern conatining single quotes, an OutOfMemoryError will occur.           {code:title\u003dExtendedMessageFormatTest.java|borderStyle\u003dsolid}\n\n private static Map\u003cString, Object\u003e formatRegistry \u003d new HashMap\u003cString, Object\u003e();    \n     static {\n        formatRegistry.put(DummyFormatFactory.DUMMY_FORMAT, new DummyFormatFactory());\n    }\n    \n     public static void main(String[] args) {\n        ExtendedMessageFormat mf \u003d new ExtendedMessageFormat(\"it\u0027\u0027s a {dummy} \u0027test\u0027!\", formatRegistry);\n        String formattedPattern \u003d mf.format(new String[] {\"great\"});\n        System.out.println(formattedPattern);\n    }\n {code}\n\n {code:title\u003dExtendedMessageFormat.java|borderStyle\u003dsolid}\n if (escapingOn \u0026\u0026 c[start] \u003d\u003d QUOTE) {\n        return appendTo \u003d\u003d null ? null : appendTo.append(QUOTE);\n}\n\nWORKING:\nif (escapingOn \u0026\u0026 c[start] \u003d\u003d QUOTE) {\n        next(pos);\n        return appendTo \u003d\u003d null ? null : appendTo.append(QUOTE);\n}\n{code}","class_goldset":["org.apache.commons.lang.text.ExtendedMessageFormat"],"method_goldset":["org.apache.commons.lang.text.ExtendedMessageFormat:appendQuotedString(String, ParsePosition, StringBuffer, boolean)"],"creation_date":"2009-1-9 10:05:53","resolution_date":"2009-1-9 22:08:19"}
{"id":12,"bug_id":"LANG-480","text":"StringEscapeUtils.escapeHtml incorrectly converts unicode characters above U+00FFFF into 2 characters. Characters that are represented as a 2 characters internaly by java are incorrectly converted by the function.       \n\nimport org.apache.commons.lang.*;\n\npublic class J2 {\n    public static void main(String[] args) throws Exception {\n        // this is the utf8 representation of the character:\n        // COUNTING ROD UNIT DIGIT THREE\n        // in unicode\n        // codepoint: U+1D362\n        byte[] data \u003d new byte[] { (byte)0xF0, (byte)0x9D, (byte)0x8D, (byte)0xA2 };\n\n        //output is: \u0026amp;#55348;\u0026amp;#57186;\n        // should be: \u0026amp;#119650;\n        System.out.println(\"\u0027\" + StringEscapeUtils.escapeHtml(new String(data, \"UTF8\")) + \"\u0027\");\n    }\n}","class_goldset":["org.apache.commons.lang.Entities"],"method_goldset":["org.apache.commons.lang.Entities:escape(Writer, String)"],"creation_date":"2009-1-20 17:36:44","resolution_date":"2009-3-1 20:55:06"}
{"id":13,"bug_id":"LANG-538","text":"DateFormatUtils.format does not correctly change Calendar TimeZone in certain situations. If a Calendar object is constructed in certain ways a call to Calendar.setTimeZone does not correctly change the Calendars fields.   For example, the following unit test fails:    However, this unit test passes:   Calenar.getTime()  {noformat}\n   public void testFormat_CalendarIsoMsZulu() {\n    final String dateTime \u003d \"2009-10-16T16:42:16.000Z\";\n\n    // more commonly constructed with: cal \u003d new GregorianCalendar(2009, 9, 16, 8, 42, 16)\n    // for the unit test to work in any time zone, constructing with GMT-8 rather than default locale time zone\n    GregorianCalendar cal \u003d new GregorianCalendar(TimeZone.getTimeZone(\"GMT-8\"));\n    cal.clear();\n    cal.set(2009, 9, 16, 8, 42, 16);\n\n\n    FastDateFormat format \u003d FastDateFormat.getInstance(\"yyyy-MM-dd\u0027T\u0027HH:mm:ss.SSS\u0027Z\u0027\", TimeZone.getTimeZone(\"GMT\"));\n    assertEquals(\"dateTime\", dateTime, format.format(cal));\n  }\n {noformat}\n\n {noformat}\n   public void testFormat_CalendarIsoMsZulu() {\n    final String dateTime \u003d \"2009-10-16T16:42:16.000Z\";\n    GregorianCalendar cal \u003d new GregorianCalendar(TimeZone.getTimeZone(\"GMT-8\"));\n    cal.clear();\n    cal.set(2009, 9, 16, 8, 42, 16);\n    cal.getTime();\n\n    FastDateFormat format \u003d FastDateFormat.getInstance(\"yyyy-MM-dd\u0027T\u0027HH:mm:ss.SSS\u0027Z\u0027\", TimeZone.getTimeZone(\"GMT\"));\n    assertEquals(\"dateTime\", dateTime, format.format(cal));\n  }\n {noformat}","class_goldset":["org.apache.commons.lang3.time.FastDateFormat"],"method_goldset":["org.apache.commons.lang3.time.FastDateFormat:format(Calendar, StringBuffer)"],"creation_date":"2009-10-16 16:47:39","resolution_date":"2009-12-17 06:05:11"}
{"id":14,"bug_id":"LANG-552","text":"The following Test Case for replaceEach fails with a null pointer exception.                           {code}\n import static org.junit.Assert.assertEquals;\n\nimport org.apache.commons.lang.StringUtils;\nimport org.junit.Test;\n\n\npublic class StringUtilsTest {\n\n\t@Test\n\tpublic void replaceEach(){\n\t\tString original \u003d \"Hello World!\";\n\t\tString[] searchList \u003d {\"Hello\", \"World\"};\n\t\tString[] replacementList \u003d {\"Greetings\", null};\n\t\tString result \u003d StringUtils.replaceEach(original, searchList, replacementList);\n\t\tassertEquals(\"Greetings !\", result);\n\t\t//perhaps this is ok as well\n                //assertEquals(\"Greetings World!\", result);\n                //or even\n\t\t//assertEquals(\"Greetings null!\", result);\n\t}\n\n\t\n}\n {code}","class_goldset":["org.apache.commons.lang3.StringUtils"],"method_goldset":["org.apache.commons.lang3.StringUtils:replaceEach(String, String[], String[], boolean, int)"],"creation_date":"2009-11-9 12:40:57","resolution_date":"2009-12-14 07:51:45"}
{"id":16,"bug_id":"LANG-624","text":"SystemUtils.getJavaVersionAsFloat throws StringIndexOutOfBoundsException on Android runtime/Dalvik VM. {noformat}\n\n {noformat}","class_goldset":["org.apache.commons.lang3.SystemUtils"],"method_goldset":["org.apache.commons.lang3.SystemUtils:toJavaVersionInt(String)"],"creation_date":"2010-5-27 21:09:29","resolution_date":"2011-2-1 16:31:42"}
{"id":17,"bug_id":"LANG-645","text":"FastDateFormat.format() outputs incorrect week of year because locale isn\u0027t respected. FastDateFormat apparently doesn\u0027t respect the locale it was sent on creation when outputting week in year (e.g. \"ww\") in format(). It seems to use the settings of the system locale for firstDayOfWeek and minimalDaysInFirstWeek, which (depending on the year) may result in the incorrect week number being output. Here is a simple test program to demonstrate the problem by comparing with SimpleDateFormat, which gets the week number right:     FastDateFormat fdf \u003d FastDateFormat.getInstance(\"EEEE\u0027, week \u0027ww\", locale);\n        SimpleDateFormat sdf \u003d new SimpleDateFormat(\"EEEE\u0027, week \u0027ww\", locale);\n        System.out.println(\"FastDateFormat:   \" + fdf.format(d)); // will output \"FastDateFormat:   fredag, week 01\"\n        System.out.println(\"SimpleDateFormat: \" + sdf.format(d)); // will output \"SimpleDateFormat: fredag, week 53\"\n    }\n}\n{code}  format() {code}\n import java.util.Calendar;\nimport java.util.Date;\nimport java.util.Locale;\nimport java.text.SimpleDateFormat;\n\nimport org.apache.commons.lang.time.FastDateFormat;\n\npublic class FastDateFormatWeekBugDemo {\n    public static void main(String[] args) {\n        Locale.setDefault(new Locale(\"en\", \"US\"));\n        Locale locale \u003d new Locale(\"sv\", \"SE\");\n\n        Calendar cal \u003d Calendar.getInstance(); // setting locale here doesn\u0027t change outcome\n        cal.set(2010, 0, 1, 12, 0, 0);\n        Date d \u003d cal.getTime();\n        System.out.println(\"Target date: \" + d);\n\n        FastDateFormat fdf \u003d FastDateFormat.getInstance(\"EEEE\u0027, week \u0027ww\", locale);\n        SimpleDateFormat sdf \u003d new SimpleDateFormat(\"EEEE\u0027, week \u0027ww\", locale);\n        System.out.println(\"FastDateFormat:   \" + fdf.format(d)); // will output \"FastDateFormat:   fredag, week 01\"\n        System.out.println(\"SimpleDateFormat: \" + sdf.format(d)); // will output \"SimpleDateFormat: fredag, week 53\"\n    }\n}\n {code}\n Locale.setDefault()","class_goldset":["org.apache.commons.lang3.time.FastDateFormat"],"method_goldset":["org.apache.commons.lang3.time.FastDateFormat:format(Date)"],"creation_date":"2010-8-20 14:11:08","resolution_date":"2010-9-8 06:10:03"}
{"id":18,"bug_id":"LANG-662","text":"org.apache.commons.lang3.math.Fraction does not reduce (Integer.MIN_VALUE, 2^k). The greatestCommonDivisor method in class Fraction does not find the gcd of Integer.MIN_VALUE and 2^k, and this case can be triggered by taking Integer.MIN_VALUE as the numerator.    class Fraction  public void testReducedFactory_int_int()  f \u003d Fraction.getReducedFraction(Integer.MIN_VALUE, 2);\n\t\tassertEquals(Integer.MIN_VALUE / 2, f.getNumerator());\n\t\tassertEquals(1, f.getDenominator());\n\n\t public void testReduce()  f \u003d Fraction.getFraction(Integer.MIN_VALUE, 2);\n\t\tresult \u003d f.reduce();\n\t\tassertEquals(Integer.MIN_VALUE / 2, result.getNumerator());\n\t\tassertEquals(1, result.getDenominator());\n{code}","class_goldset":["org.apache.commons.lang3.math.Fraction"],"method_goldset":["org.apache.commons.lang3.math.Fraction:greatestCommonDivisor(int, int)"],"creation_date":"2010-12-6 22:40:30","resolution_date":"2011-1-17 04:30:27"}
{"id":19,"bug_id":"LANG-710","text":"StringIndexOutOfBoundsException when calling unescapeHtml4(\"\u0026#03\"). When calling unescapeHtml4() on the String \"\u0026#03\" (or any String that contains these characters) an Exception is thrown:        unescapeHtml4()","class_goldset":["org.apache.commons.lang3.text.translate.NumericEntityUnescaper"],"method_goldset":["org.apache.commons.lang3.text.translate.NumericEntityUnescaper:translate(CharSequence, int, Writer)"],"creation_date":"2011-7-1 20:57:30","resolution_date":"2011-7-9 05:09:46"}
{"id":21,"bug_id":"LANG-746","text":"NumberUtils does not handle upper-case hex: 0X and -0X. NumberUtils.createNumber() should work equally for 0x1234 and 0X1234; currently 0X1234 generates a NumberFormatException Integer.decode() handles both upper and lower case hex. NumberUtils.createNumber()  Integer.decode()","class_goldset":["org.apache.commons.lang3.math.NumberUtils"],"method_goldset":["org.apache.commons.lang3.math.NumberUtils:createNumber(String)"],"creation_date":"2011-8-23 12:32:12","resolution_date":"2011-8-23 12:33:42"}
{"id":22,"bug_id":"LANG-788","text":"SerializationUtils throws ClassNotFoundException when cloning primitive classes. If a serializable object contains a reference to a primitive class, e.g. int.class or int[].class, the SerializationUtils throw a ClassNotFoundException when trying to clone that object.            The SerializationUtils problem arises because the SerializationUtils internally use the ClassLoaderAwareObjectInputStream that overrides the ObjectInputStream\u0027s resoleClass method without delegating to the super method in case of a ClassNotFoundException.                            {noformat}\n import org.apache.commons.lang3.SerializationUtils;\nimport org.junit.Test;\n\n\npublic class SerializationUtilsTest {\n\n\t\n\t@Test\n\tpublic void primitiveTypeClassSerialization(){\n\t\tClass\u003c?\u003e primitiveType \u003d int.class;\n\t\t\n\t\tClass\u003c?\u003e clone \u003d SerializationUtils.clone(primitiveType);\n\t\tassertEquals(primitiveType, clone);\n\t}\n}\n {noformat} \n\n {noformat}\n         protected Class\u003c?\u003e resolveClass(ObjectStreamClass desc) throws IOException, ClassNotFoundException {\n            String name \u003d desc.getName();\n            try {\n                return Class.forName(name, false, classLoader);\n            } catch (ClassNotFoundException ex) {\n            \ttry {\n            \t     return Class.forName(name, false, Thread.currentThread().getContextClassLoader());\n            \t} catch (Exception e) {\n\t\t     return super.resolveClass(desc);\n\t\t}\n            }\n        }\n {noformat}\n\n {noformat}\n     protected Class\u003c?\u003e resolveClass(ObjectStreamClass desc)\n\tthrows IOException, ClassNotFoundException\n    {\n\tString name \u003d desc.getName();\n\ttry {\n\t    return Class.forName(name, false, latestUserDefinedLoader());\n\t} catch (ClassNotFoundException ex) {\n\t    Class cl \u003d (Class) primClasses.get(name);\n\t    if (cl !\u003d null) {\n\t\treturn cl;\n\t    } else {\n\t\tthrow ex;\n\t    }\n\t}\n    }\n {noformat}","class_goldset":["org.apache.commons.lang3.SerializationUtils"],"method_goldset":["org.apache.commons.lang3.SerializationUtils:ClassLoaderAwareObjectInputStream(InputStream, ClassLoader)","org.apache.commons.lang3.SerializationUtils:resolveClass(ObjectStreamClass)"],"creation_date":"2012-2-11 12:36:48","resolution_date":"2012-2-29 14:39:49"}
{"id":24,"bug_id":"LANG-832","text":"FastDateParser does not handle unterminated quotes correctly. FDP does not handled unterminated quotes the same way as SimpleDateFormat    The format is parsed as:  {IsNd}","class_goldset":["org.apache.commons.lang3.time.FastDateParser"],"method_goldset":["org.apache.commons.lang3.time.FastDateParser:init()"],"creation_date":"2012-9-27 00:27:58","resolution_date":"2012-9-27 00:56:48"}
{"id":25,"bug_id":"LANG-857","text":"StringIndexOutOfBoundsException in CharSequenceTranslator. You\u0027ll get the exception as shown below.          {code:java}\n @Test\npublic void testEscapeSurrogatePairs() throws Exception {\n    assertEquals(\"\\uD83D\\uDE30\", StringEscapeUtils.escapeCsv(\"\\uD83D\\uDE30\"));\n}\n {code}\n\n {code}\n {code}\n\n public final void translate(CharSequence input, Writer out) throws IOException","class_goldset":["org.apache.commons.lang3.text.translate.CharSequenceTranslator"],"method_goldset":["org.apache.commons.lang3.text.translate.CharSequenceTranslator:translate(CharSequence, Writer)"],"creation_date":"2012-11-20 12:36:14","resolution_date":"2012-11-20 20:47:52"}
{"id":26,"bug_id":"LANG-879","text":"LocaleUtils test fails with new Locale \"ja_JP_JP_#u-ca-japanese\" of JDK7. The Test below fails with the following error on JDK7, but succeeds on JDK6:                                                                                                                  \nimport static org.hamcrest.MatcherAssert.assertThat;\nimport static org.hamcrest.Matchers.equalTo;\n\nimport java.util.Locale;\n\nimport org.testng.annotations.Test;\n\nimport com.scispike.foundation.i18n.StringToLocaleConverter;\n\npublic class LocaleStringConverterTest {\n\n\tStringToLocaleConverter converter \u003d new StringToLocaleConverter();\n\n\tpublic void testStringToLocale(Locale l) {\n\t\tString s \u003d l.toString();\n\n\t\tassertThat(converter.convert(s), equalTo(l));\n\t}\n\n\t@Test\n\tpublic void testAllLocales() {\n\n\t\tLocale[] locales \u003d Locale.getAvailableLocales();\n\t\tfor (Locale l : locales) {\n\t\t\ttestStringToLocale(l);\n\t\t}\n\t}\n}\n\n\n import java.util.Locale;\n\nimport org.apache.commons.lang3.LocaleUtils;\nimport org.springframework.core.convert.converter.Converter;\n\npublic class StringToLocaleConverter implements Converter\u003cString, Locale\u003e {\n\n\t@Override\n\tpublic Locale convert(String source) {\n\t\tif (source \u003d\u003d null) {\n\t\t\treturn LocaleToStringConverter.DEFAULT;\n\t\t}\n\t\treturn LocaleUtils.toLocale(source);\n\t}\n}","class_goldset":["org.apache.commons.lang3.LocaleUtils"],"method_goldset":["org.apache.commons.lang3.LocaleUtils:toLocale(String)"],"creation_date":"2013-3-18 21:46:29","resolution_date":"2013-5-30 22:13:22"}
