{"key":"DATACMNS-19","title":"Invalid entity metadata when domain class implements persistable","description":"Latest snapshot (spring-data-jpa-1.0.0.BUILD-20110227.093237-171.jar) introduced a bug which makes find queries (with Specification API) to fail for domain objects which implement Persistable. I believe issue is either in JpaRepositoryFactory stragery for creating entity information - if domain class implements Persistable, PersistableEntityMetadata fixes domain class to Persistable.class which looses actual domain class. Here is relevant stack trace snippet:\n\n\n\n\n\n\njava.lang.IllegalArgumentException: Not an entity: interface org.springframework.data.domain.Persistable\n\n\n\n\n\tat org.hibernate.ejb.metamodel.MetamodelImpl.entity(MetamodelImpl.java:160)\n\n\n\n\n\tat org.hibernate.ejb.criteria.QueryStructure.from(QueryStructure.java:138)\n\n\n\n\n\tat org.hibernate.ejb.criteria.CriteriaQueryImpl.from(CriteriaQueryImpl.java:179)\n\n\n\n\n\tat org.springframework.data.jpa.repository.support.SimpleJpaRepository.applySpecificationToCriteria(SimpleJpaRepository.java:450)\n\n\n\n\n\tat org.springframework.data.jpa.repository.support.SimpleJpaRepository.getQuery(SimpleJpaRepository.java:385)\n\n\n\n\n\tat org.springframework.data.jpa.repository.support.SimpleJpaRepository.findAll(SimpleJpaRepository.java:267)\n\n\n\n\n\tat sun.reflect.NativeMethodAccessorImpl.invoke0(Native Method)\n\n\n\n\n\tat sun.reflect.NativeMethodAccessorImpl.invoke(NativeMethodAccessorImpl.java:39)\n\n\n\n\n\tat sun.reflect.DelegatingMethodAccessorImpl.invoke(DelegatingMethodAccessorImpl.java:25)\n\n\n\n\n\tat java.lang.reflect.Method.invoke(Method.java:597)\n\n\n\n\n\tat org.springframework.data.repository.support.RepositoryFactorySupport$QueryExecuterMethodInterceptor.executeMethodOn(RepositoryFactorySupport.java:268)\n\n\n\n\n\tat org.springframework.data.repository.support.RepositoryFactorySupport$QueryExecuterMethodInterceptor.invoke(RepositoryFactorySupport.java:249)\n\n\n\n\n\tat org.springframework.aop.framework.ReflectiveMethodInvocation.proceed(ReflectiveMethodInvocation.java:172)\n\n\n\n\n\tat org.springframework.transaction.interceptor.TransactionInterceptor.invoke(TransactionInterceptor.java:110)\n\n\n\n\n\tat org.springframework.aop.framework.ReflectiveMethodInvocation.proceed(ReflectiveMethodInvocation.java:172)\n\n\n\n\n\tat org.springframework.dao.support.PersistenceExceptionTranslationInterceptor.invoke(PersistenceExceptionTranslationInterceptor.java:155)\n\n\n\n\n\tat org.springframework.aop.framework.ReflectiveMethodInvocation.proceed(ReflectiveMethodInvocation.java:172)\n\n\n\n\n\tat org.springframework.aop.framework.JdkDynamicAopProxy.invoke(JdkDynamicAopProxy.java:202)\n\n\n\n\n\tat $Proxy60.findAll(Unknown Source)\n\n\n\n\n\tat sun.reflect.NativeMethodAccessorImpl.invoke0(Native Method)\n\n\n\n\n\tat sun.reflect.NativeMethodAccessorImpl.invoke(NativeMethodAccessorImpl.java:39)\n\n\n\n\n\tat sun.reflect.DelegatingMethodAccessorImpl.invoke(DelegatingMethodAccessorImpl.java:25)\n\n\n\n\n\tat java.lang.reflect.Method.invoke(Method.java:597)\n\n\n\n\n\tat org.springframework.aop.support.AopUtils.invokeJoinpointUsingReflection(AopUtils.java:309)\n\n\n\n\n\tat org.springframework.aop.framework.ReflectiveMethodInvocation.invokeJoinpoint(ReflectiveMethodInvocation.java:183)\n\n\n\n\n\tat org.springframework.aop.framework.ReflectiveMethodInvocation.proceed(ReflectiveMethodInvocation.java:150)\n\n\n\n\n\tat org.springframework.transaction.interceptor.TransactionInterceptor.invoke(TransactionInterceptor.java:110)\n\n\n\n\n\tat org.springframework.aop.framework.ReflectiveMethodInvocation.proceed(ReflectiveMethodInvocation.java:172)\n\n\n\n\n\tat org.springframework.aop.framework.JdkDynamicAopProxy.invoke(JdkDynamicAopProxy.java:202)\n\n\n\n\n\tat $Proxy61.findAll(Unknown Source)\n\n\n\n\n\n","creation_date":"2011-02-28T02:07:47.000-06:00","resolution_date":"2011-03-02T00:11:20.000-06:00","fixed_files":["org.springframework.data.repository.PagingAndSortingRepository","org.springframework.data.repository.Repository"]}
{"key":"DATACMNS-23","title":"PageImpl can not be constructed with empty content","description":"When passing empty list to PageImpl constructor (e.g. in a test, when mocking repository method which returns Page), PageRequest is instantiated with \"content.size()\" as page size, but 0 size is not allowed argument value in PageRequest.\nBTW, 1.0 M5 DATACMNS is not marked as released in JIRA, but it is, as part of or together with DATAJPA 1.0 M2 release.","creation_date":"2011-03-25T03:17:27.000-05:00","resolution_date":"2011-03-31T23:41:16.000-05:00","fixed_files":["org.springframework.data.domain.PageImpl","org.springframework.data.domain.PageImplUnitTests","org.springframework.data.domain.Page"]}
{"key":"DATACMNS-38","title":"StackOverflowError on self-referencing Objects","description":"Hi, i get the following error when starting a testcase:\n\n\n\n\n\n\n06:55:19,554 ERROR TestContextManager:324 - Caught exception while allowing TestExecutionListener [org.springframework.test.context.support.DependencyInjectionTestExecutionListener@49198ff2] to prepare test instance [null(example.SiteServiceTest)]\n\n\n\n\njava.lang.IllegalStateException: Failed to load ApplicationContext\n\n\n\n\n\tat org.springframework.test.context.TestContext.getApplicationContext(TestContext.java:308)\n\n\n\n\n\tat org.springframework.test.context.support.DependencyInjectionTestExecutionListener.injectDependencies(DependencyInjectionTestExecutionListener.java:109)\n\n\n\n\n\tat org.springframework.test.context.support.DependencyInjectionTestExecutionListener.prepareTestInstance(DependencyInjectionTestExecutionListener.java:75)\n\n\n\n\n\tat org.springframework.test.context.TestContextManager.prepareTestInstance(TestContextManager.java:321)\n\n\n\n\n\tat org.springframework.test.context.junit4.SpringJUnit4ClassRunner.createTest(SpringJUnit4ClassRunner.java:220)\n\n\n\n\n\tat org.springframework.test.context.junit4.SpringJUnit4ClassRunner$1.runReflectiveCall(SpringJUnit4ClassRunner.java:301)\n\n\n\n\n\tat org.junit.internal.runners.model.ReflectiveCallable.run(ReflectiveCallable.java:15)\n\n\n\n\n\tat org.springframework.test.context.junit4.SpringJUnit4ClassRunner.methodBlock(SpringJUnit4ClassRunner.java:303)\n\n\n\n\n\tat org.springframework.test.context.junit4.SpringJUnit4ClassRunner.runChild(SpringJUnit4ClassRunner.java:240)\n\n\n\n\n\tat org.junit.runners.BlockJUnit4ClassRunner.runChild(BlockJUnit4ClassRunner.java:50)\n\n\n\n\n\tat org.junit.runners.ParentRunner$3.run(ParentRunner.java:193)\n\n\n\n\n\tat org.junit.runners.ParentRunner$1.schedule(ParentRunner.java:52)\n\n\n\n\n\tat org.junit.runners.ParentRunner.runChildren(ParentRunner.java:191)\n\n\n\n\n\tat org.junit.runners.ParentRunner.access$000(ParentRunner.java:42)\n\n\n\n\n\tat org.junit.runners.ParentRunner$2.evaluate(ParentRunner.java:184)\n\n\n\n\n\tat org.springframework.test.context.junit4.statements.RunBeforeTestClassCallbacks.evaluate(RunBeforeTestClassCallbacks.java:61)\n\n\n\n\n\tat org.springframework.test.context.junit4.statements.RunAfterTestClassCallbacks.evaluate(RunAfterTestClassCallbacks.java:70)\n\n\n\n\n\tat org.junit.runners.ParentRunner.run(ParentRunner.java:236)\n\n\n\n\n\tat org.springframework.test.context.junit4.SpringJUnit4ClassRunner.run(SpringJUnit4ClassRunner.java:180)\n\n\n\n\n\tat org.eclipse.jdt.internal.junit4.runner.JUnit4TestReference.run(JUnit4TestReference.java:49)\n\n\n\n\n\tat org.eclipse.jdt.internal.junit.runner.TestExecution.run(TestExecution.java:38)\n\n\n\n\n\tat org.eclipse.jdt.internal.junit.runner.RemoteTestRunner.runTests(RemoteTestRunner.java:467)\n\n\n\n\n\tat org.eclipse.jdt.internal.junit.runner.RemoteTestRunner.runTests(RemoteTestRunner.java:683)\n\n\n\n\n\tat org.eclipse.jdt.internal.junit.runner.RemoteTestRunner.run(RemoteTestRunner.java:390)\n\n\n\n\n\tat org.eclipse.jdt.internal.junit.runner.RemoteTestRunner.main(RemoteTestRunner.java:197)\n\n\n\n\nCaused by: org.springframework.beans.factory.BeanCreationException: Error creating bean with name \u0027siteService\u0027: FactoryBean threw exception on object creation; nested exception is java.lang.StackOverflowError\n\n\n\n\n\tat org.springframework.beans.factory.support.FactoryBeanRegistrySupport.doGetObjectFromFactoryBean(FactoryBeanRegistrySupport.java:149)\n\n\n\n\n\tat org.springframework.beans.factory.support.FactoryBeanRegistrySupport.getObjectFromFactoryBean(FactoryBeanRegistrySupport.java:102)\n\n\n\n\n\tat org.springframework.beans.factory.support.AbstractBeanFactory.getObjectForBeanInstance(AbstractBeanFactory.java:1429)\n\n\n\n\n\tat org.springframework.beans.factory.support.AbstractBeanFactory.doGetBean(AbstractBeanFactory.java:302)\n\n\n\n\n\tat org.springframework.beans.factory.support.AbstractBeanFactory.getBean(AbstractBeanFactory.java:190)\n\n\n\n\n\tat org.springframework.beans.factory.support.DefaultListableBeanFactory.preInstantiateSingletons(DefaultListableBeanFactory.java:580)\n\n\n\n\n\tat org.springframework.context.support.AbstractApplicationContext.finishBeanFactoryInitialization(AbstractApplicationContext.java:895)\n\n\n\n\n\tat org.springframework.context.support.AbstractApplicationContext.refresh(AbstractApplicationContext.java:425)\n\n\n\n\n\tat org.springframework.test.context.support.AbstractGenericContextLoader.loadContext(AbstractGenericContextLoader.java:84)\n\n\n\n\n\tat org.springframework.test.context.support.AbstractGenericContextLoader.loadContext(AbstractGenericContextLoader.java:1)\n\n\n\n\n\tat org.springframework.test.context.TestContext.loadApplicationContext(TestContext.java:280)\n\n\n\n\n\tat org.springframework.test.context.TestContext.getApplicationContext(TestContext.java:304)\n\n\n\n\n\t... 24 more\n\n\n\n\nCaused by: java.lang.StackOverflowError\n\n\n\n\n\tat java.util.HashMap$HashIterator.\u003cinit\u003e(HashMap.java:795)\n\n\n\n\n\tat java.util.HashMap$EntryIterator.\u003cinit\u003e(HashMap.java:849)\n\n\n\n\n\tat java.util.HashMap$EntryIterator.\u003cinit\u003e(HashMap.java:849)\n\n\n\n\n\tat java.util.HashMap.newEntryIterator(HashMap.java:863)\n\n\n\n\n\tat java.util.HashMap$EntrySet.iterator(HashMap.java:967)\n\n\n\n\n\tat java.util.AbstractMap.hashCode(AbstractMap.java:492)\n\n\n\n\n\tat org.springframework.util.ObjectUtils.nullSafeHashCode(ObjectUtils.java:286)\n\n\n\n\n\tat org.springframework.data.util.TypeDiscoverer.hashCode(TypeDiscoverer.java:230)\n\n\n\n\n\tat org.springframework.data.util.ClassTypeInformation.hashCode(ClassTypeInformation.java:79)\n\n\n\n\n\tat org.springframework.util.ObjectUtils.nullSafeHashCode(ObjectUtils.java:286)\n\n\n\n\n\tat org.springframework.data.util.TypeDiscoverer.hashCode(TypeDiscoverer.java:231)\n\n\n\n\n\tat org.springframework.data.util.ClassTypeInformation.hashCode(ClassTypeInformation.java:79)\n\n\n\n\n\tat org.springframework.util.ObjectUtils.nullSafeHashCode(ObjectUtils.java:286)\n\n\n\n\n\tat org.springframework.data.util.TypeDiscoverer.hashCode(TypeDiscoverer.java:231)\n\n\n\n\n\tat org.springframework.data.util.ClassTypeInformation.hashCode(ClassTypeInformation.java:79)\n\n\n\n\n\tat org.springframework.util.ObjectUtils.nullSafeHashCode(ObjectUtils.java:286)\n\n\n\n\n\tat org.springframework.data.util.TypeDiscoverer.hashCode(TypeDiscoverer.java:231)\n\n\n\n\n\tat org.springframework.data.util.ClassTypeInformation.hashCode(ClassTypeInformation.java:79)\n\n\n\n\n\tat org.springframework.util.ObjectUtils.nullSafeHashCode(ObjectUtils.java:286)\n\n\n\n\n\tat org.springframework.data.util.TypeDiscoverer.hashCode(TypeDiscoverer.java:231)\n\n\n\n\n\tat org.springframework.data.util.ClassTypeInformation.hashCode(ClassTypeInformation.java:79)\n\n\n\n\n\tat org.springframework.util.ObjectUtils.nullSafeHashCode(ObjectUtils.java:286)\n\n\n\n\n\tat org.springframework.data.util.TypeDiscoverer.hashCode(TypeDiscoverer.java:231)\n\n\n\n\n\tat org.springframework.data.util.ClassTypeInformation.hashCode(ClassTypeInformation.java:79)\n\n\n\n\n\tat org.springframework.util.ObjectUtils.nullSafeHashCode(ObjectUtils.java:286)\n\n\n\n\n\tat org.springframework.data.util.TypeDiscoverer.hashCode(TypeDiscoverer.java:231)\n\n\n\n\n\tat org.springframework.data.util.ClassTypeInformation.hashCode(ClassTypeInformation.java:79)\n\n\n\n\n\tat org.springframework.util.ObjectUtils.nullSafeHashCode(ObjectUtils.java:286)\n\n\n\n\n\tat org.springframework.data.util.TypeDiscoverer.hashCode(TypeDiscoverer.java:231)\n\n\n\n\n\tat org.springframework.data.util.ClassTypeInformation.hashCode(ClassTypeInformation.java:79)\n\n\n\n\n\tat org.springframework.util.ObjectUtils.nullSafeHashCode(ObjectUtils.java:286)\n\n\n\n\n\tat org.springframework.data.util.TypeDiscoverer.hashCode(TypeDiscoverer.java:231)\n\n\n\n\n\tat org.springframework.data.util.ClassTypeInformation.hashCode(ClassTypeInformation.java:79)\n\n\n\n\n\n\nHere is my applicationContext.xml:\n\n\n\n\n\n\n\u003c?xml version\u003d\"1.0\" encoding\u003d\"UTF-8\"?\u003e\n\n\n\n\n\u003cbeans xmlns\u003d\"http://www.springframework.org/schema/beans\"\n\n\n\n\n    xmlns:xsi\u003d\"http://www.w3.org/2001/XMLSchema-instance\"\n\n\n\n\n    xmlns:context\u003d\"http://www.springframework.org/schema/context\"\n\n\n\n\n    xmlns:spring-data\u003d\"http://www.springframework.org/schema/data/mongo\"\n\n\n\n\n    xsi:schemaLocation\u003d\"\n\n\n\n\n        http://www.springframework.org/schema/beans\n\n\n\n\n        http://www.springframework.org/schema/beans/spring-beans.xsd\n\n\n\n\n        http://www.springframework.org/schema/context\n\n\n\n\n        http://www.springframework.org/schema/context/spring-context.xsd\n\n\n\n\n        http://www.springframework.org/schema/data/mongo\n\n\n\n\n        http://www.springframework.org/schema/data/mongo/spring-mongo.xsd\"\u003e\n\n\n\n\n    \n\n\n\n\n    \u003cspring-data:mongo id\u003d\"mongo\" host\u003d\"localhost\" port\u003d\"27017\"/\u003e\n\n\n\n\n    \n\n\n\n\n    \u003cbean id\u003d\"mongoTemplate\" class\u003d\"org.springframework.data.document.mongodb.MongoTemplate\"\u003e\n\n\n\n\n        \u003cconstructor-arg ref\u003d\"mongo\"/\u003e\n\n\n\n\n        \u003cconstructor-arg value\u003d\"testdb\"/\u003e\n\n\n\n\n        \u003cconstructor-arg value\u003d\"testcollection\"/\u003e\n\n\n\n\n        \u003cconstructor-arg\u003e\n\n\n\n\n            \u003cspring-data:mapping-converter/\u003e\n\n\n\n\n        \u003c/constructor-arg\u003e\n\n\n\n\n    \u003c/bean\u003e\n\n\n\n\n    \n\n\n\n\n    \u003cspring-data:repositories base-package\u003d\"example.service\"\u003e\n\n\n\n\n        \u003cspring-data:repository id\u003d\"siteService\"/\u003e\n\n\n\n\n    \u003c/spring-data:repositories\u003e\n\n\n\n\n    \n\n\n\n\n    \u003ccontext:annotation-config/\u003e\n\n\n\n\n\t\n\n\n\n\n\u003c/beans\u003e\n\n\n\n\n\n\nThe Testcase:\n\n\n\n\n\n\npackage example.service;\n\n\n\n\n\n\n\n\n\nimport java.util.List;\n\n\n\n\n\n\n\n\n\nimport javax.inject.Inject;\n\n\n\n\n\n\n\n\n\nimport junit.framework.TestCase;\n\n\n\n\n\n\n\n\n\nimport org.junit.Assert;\n\n\n\n\nimport org.junit.Test;\n\n\n\n\nimport org.junit.runner.RunWith;\n\n\n\n\nimport org.springframework.test.context.ContextConfiguration;\n\n\n\n\nimport org.springframework.test.context.junit4.SpringJUnit4ClassRunner;\n\n\n\n\n\n\n\n\n\nimport example.Site;\n\n\n\n\nimport example.query.SiteQuery;\n\n\n\n\n\n\n\n\n\n@RunWith(SpringJUnit4ClassRunner.class)\n\n\n\n\n@ContextConfiguration(locations \u003d \"classpath:/applicationContext.xml\")\n\n\n\n\npublic class SiteServiceTest extends TestCase {\n\n\n\n\n    \n\n\n\n\n    @Inject\n\n\n\n\n    protected SiteService siteService;\n\n\n\n\n    \n\n\n\n\n    public SiteService getSiteService() {\n\n\n\n\n        return siteService;\n\n\n\n\n    }\n\n\n\n\n    \n\n\n\n\n    public void setSiteService(SiteService newSiteService) {\n\n\n\n\n        siteService \u003d newSiteService;\n\n\n\n\n    }\n\n\n\n\n    \n\n\n\n\n    @Test\n\n\n\n\n    public void test() {\n\n\n\n\n        List\u003cSite\u003e sites \u003d null;\n\n\n\n\n        \n\n\n\n\n        sites \u003d siteService.findAll(SiteQuery.getForAlias(\"/\"));\n\n\n\n\n        Assert.assertNull(sites);\n\n\n\n\n    }\n\n\n\n\n}\n\n\n\n\n\n\nThe classes:\n\n\n\n\n\n\npackage example.site;\n\n\n\n\n\n\n\n\n\nimport java.util.*;\n\n\n\n\n\n\n\n\n\nimport org.springframework.data.document.mongodb.mapping.DBRef;\n\n\n\n\nimport org.springframework.data.document.mongodb.mapping.Document;\n\n\n\n\n\n\n\n\n\nimport com.google.code.morphia.annotations.Entity;\n\n\n\n\n\n\n\n\n\n@Document\n\n\n\n\n@Entity\n\n\n\n\npublic class Site {\n\n\n\n\n    \n\n\n\n\n    private static final long serialVersionUID \u003d -6751151047717976403L;\n\n\n\n\n    \n\n\n\n\n    @Id\n\n\n\n\n    protected String id;\n\n\n\n\n    protected List\u003cString\u003e aliases \u003d new ArrayList\u003cString\u003e();\n\n\n\n\n    protected Boolean eligibleForSitemap \u003d Boolean.TRUE;\n\n\n\n\n    @DBRef\n\n\n\n\n    protected Site parent;\n\n\n\n\n    \n\n\n\n\n    public List\u003cString\u003e getAliases() {\n\n\n\n\n        return aliases;\n\n\n\n\n    }\n\n\n\n\n    \n\n\n\n\n    public void setAliases(List\u003cString\u003e newAliases) {\n\n\n\n\n        aliases \u003d newAliases;\n\n\n\n\n    }\n\n\n\n\n    \n\n\n\n\n    public Boolean getEligibleForSitemap() {\n\n\n\n\n        return eligibleForSitemap;\n\n\n\n\n    }\n\n\n\n\n    \n\n\n\n\n    public void setEligibleForSitemap(Boolean newEligibleForSitemap) {\n\n\n\n\n        eligibleForSitemap \u003d newEligibleForSitemap;\n\n\n\n\n    }\n\n\n\n\n    \n\n\n\n\n    public Site getParent() {\n\n\n\n\n        return parent;\n\n\n\n\n    }\n\n\n\n\n    \n\n\n\n\n    public void setParent(Site newParent) {\n\n\n\n\n        parent \u003d newParent;\n\n\n\n\n    }\n\n\n\n\n}\n\n\n\n\n\n\n\n\n\n\n\n\npackage example.query;\n\n\n\n\n\n\n\n\n\nimport com.mysema.query.types.Predicate;\n\n\n\n\n\n\n\n\n\nimport example.QSite;\n\n\n\n\n\n\n\n\n\npublic class SiteQuery {\n\n\n\n\n    \n\n\n\n\n    public static Predicate getForAlias(String alias) {\n\n\n\n\n        return QSite.site.aliases.contains(alias);\n\n\n\n\n    }\n\n\n\n\n}\n\n\n\n\n\n\nmy Dependencies:\n\n\n\n\n\n\n\u003cdependency\u003e\n\n\n\n\n\t\u003cgroupId\u003eorg.springframework.data\u003c/groupId\u003e\n\n\n\n\n\t\u003cartifactId\u003espring-data-mongodb\u003c/artifactId\u003e\n\n\n\n\n\t\u003cversion\u003e1.0.0.M2\u003c/version\u003e\n\n\n\n\n\u003c/dependency\u003e\n\n\n\n\n\u003cdependency\u003e\n\n\n\n\n\t\u003cgroupId\u003ecglib\u003c/groupId\u003e\n\n\n\n\n\t\u003cartifactId\u003ecglib\u003c/artifactId\u003e\n\n\n\n\n\t\u003cversion\u003e2.2\u003c/version\u003e\n\n\n\n\n\u003c/dependency\u003e\n\n\n\n\n\u003cdependency\u003e  \n\n\n\n\n\t\u003cgroupId\u003ecom.mysema.querydsl\u003c/groupId\u003e  \n\n\n\n\n\t\u003cartifactId\u003equerydsl-mongodb\u003c/artifactId\u003e  \n\n\n\n\n\t\u003cversion\u003e2.1.2\u003c/version\u003e  \n\n\n\n\n\u003c/dependency\u003e\n\n\n\n\n\n\nI\u0027ve found out, that if I comment the parent out, everything is fine ... so I guess the introspection-process of the spring-data library got a bug.","creation_date":"2011-05-05T22:05:54.000-05:00","resolution_date":"2011-05-18T10:15:43.000-05:00","fixed_files":["org.springframework.data.util.ArrayTypeDiscoverer","org.springframework.data.util.TypeVariableTypeInformation","org.springframework.data.util.TypeDiscoverer","org.springframework.data.util.ClassTypeInformation","org.springframework.data.util.TypeDiscovererUnitTests","org.springframework.data.util.ClassTypeInformationUnitTests"]}
{"key":"DATACMNS-40","title":"Rename @RepositoryProxy to @RepositoryDefinition","description":"","creation_date":"2011-05-23T02:44:13.000-05:00","resolution_date":"2011-05-24T08:34:56.000-05:00","fixed_files":["org.springframework.data.repository.config.AbstractRepositoryConfigDefinitionParser","org.springframework.data.repository.support.DefaultRepositoryMetadataUnitTests"]}
{"key":"DATACMNS-42","title":"MappingContext does not map BigDecimal correctly","description":"","creation_date":"2011-06-03T20:44:13.000-05:00","resolution_date":"2011-06-06T15:52:18.000-05:00","fixed_files":["org.springframework.data.mapping.MappingBeanHelper"]}
{"key":"DATACMNS-44","title":"ParametersParameterAccessor iterator will never iterate...","description":"In the ParametersParameterAccessor class, the BindableParameterIterator is invalid : \nThe hasNext() method test \"values.length \u003c\u003d currentIndex;\" instead of \"values.length \u003e\u003d currentIndex;\" ...","creation_date":"2011-06-05T11:19:52.000-05:00","resolution_date":"2011-06-07T12:44:49.000-05:00","fixed_files":["org.springframework.data.repository.query.ParametersParameterAccessor"]}
{"key":"DATACMNS-45","title":"Property check for repository methods fails for properties starting with _","description":"If you have a class\n\n\n\n\n\n\nclass Person {\n\n\n\n\n  private int _age;\n\n\n\n\n  \n\n\n\n\n  public int getAge() {\n\n\n\n\n    return _age;\n\n\n\n\n  }\n\n\n\n\n}\n\n\n\n\n\n\nand a repository interface\n\n\n\n\n\n\ninterface PersonRepository extends Repository\u003cPerson, Long\u003e {\n\n\n\n\n  Person findByAge(int age);\n\n\n\n\n}\n\n\n\n\n\n\ncreating a proxy instance for the interface will fail with an exception claiming that no property age is found. This is due to the fact that TypeDiscoverer is currently only considering fields right now and we should think about if it makes sense to make it really property aware.\nA workaround to simply use findBy_Age fails as well as {} is used as custom delimiter to manually define property paths. So we should at least guard the code to correctly resolve _age in case there\u0027s no content in front of the {}.","creation_date":"2011-06-07T09:26:52.000-05:00","resolution_date":"2011-06-08T14:46:07.000-05:00","fixed_files":["org.springframework.data.repository.query.parser.Property","org.springframework.data.repository.query.parser.PropertyUnitTests","org.springframework.data.util.TypeDiscoverer","org.springframework.data.util.ClassTypeInformationUnitTests"]}
{"key":"DATACMNS-55","title":"java.util.Properties cannot be stored to mongodb","description":"When a field is of type java.util.Properties, the MongoMappingContext reports a ClassCastException.\n\n\n\n\n\n\nCaused by: java.lang.ClassCastException: java.lang.Class cannot be cast to java.lang.reflect.ParameterizedType\n\n\n\n\n\tat org.springframework.data.util.TypeDiscoverer.getMapValueType(TypeDiscoverer.java:201)\n\n\n\n\n\tat org.springframework.data.util.ClassTypeInformation.getMapValueType(ClassTypeInformation.java:29)\n\n\n\n\n\tat org.springframework.data.mapping.AbstractMappingContext.getNestedTypeToAdd(AbstractMappingContext.java:253)\n\n\n\n\n\t...\n\n\n\n\n\n","creation_date":"2011-07-18T03:13:42.000-05:00","resolution_date":"2011-07-28T08:31:29.000-05:00","fixed_files":["org.springframework.data.util.TypeDiscoverer","org.springframework.data.util.TypeDiscovererUnitTests"]}
{"key":"DATACMNS-57","title":"Use of parameterized type in constructor arguments is not supported","description":"When an object contains a List of another object (no simple types), the MongoMappingConverter finds correct generic type for the field, but when this field is used in the PersistenceConstructor, the type is considered to be the raw type and then no information is available to convert batck the DBObject instances for this list.\nIn the TypeDiscover class, the method getParameterTypes(Constructor\u003c?\u003e) use the reflection method Class\u003c?\u003e[] Constructor.getParameterTypes() that give no hint on the generic parameter types. I replaced this call with Type[] Constructor::getGenericParameterTypes(), that has solved my problem.","creation_date":"2011-07-26T08:39:54.000-05:00","resolution_date":"2011-07-28T08:48:21.000-05:00","fixed_files":["org.springframework.data.util.TypeDiscoverer","org.springframework.data.util.TypeDiscovererUnitTests"]}
{"key":"DATACMNS-68","title":"NullPointerException in AbstractPersistentProperty::getComponentType()","description":"\n\n\n\n\n\nclass TestClassSet extends TreeSet\u003cObject\u003e { }\n\n\n\n\n\n\n\n\n\nclass TestClassComplex {\n\n\n\n\n    private String id;\n\n\n\n\n    private TestClassSet testClassSet;\n\n\n\n\n\n\n\n\n\n    public String getId() {\n\n\n\n\n        return id;\n\n\n\n\n    }\n\n\n\n\n\n\n\n\n\n    public TestClassSet getTestClassSet() {\n\n\n\n\n        return testClassSet;\n\n\n\n\n    }\n\n\n\n\n\n\n\n\n\n    public void setTestClassSet(TestClassSet testClassSet) {\n\n\n\n\n        this.testClassSet \u003d testClassSet;\n\n\n\n\n    }\n\n\n\n\n}\n\n\n\n\n\n\nThe following code appears to work fine:\n\n\n\n\n\n\nList\u003cTestClassSet\u003e o \u003d mongoTemplate.findAll(TestClassSet.class);\n\n\n\n\n\n\nBut this fails with the NPE below:\n\n\n\n\n\n\nList\u003cTestClassComplex\u003e o \u003d mongoTemplate.findAll(TestClassComplex.class);\n\n\n\n\n\n\n\n\n\n\n\n\njava.lang.NullPointerException: null\n\n\n\n\n        at org.springframework.data.mapping.model.AbstractPersistentProperty.getComponentType(AbstractPersistentProperty.java:147) ~[spring-data-commons-core-1.2.0.BUILD-20110826.083456-44.jar:na]\n\n\n\n\n        at org.springframework.data.mapping.model.AbstractPersistentProperty.isComplexType(AbstractPersistentProperty.java:136) ~[spring-data-commons-core-1.2.0.BUILD-20110826.083456-44.jar:na]\n\n\n\n\n        at org.springframework.data.mapping.model.AbstractPersistentProperty.isEntity(AbstractPersistentProperty.java:143) ~[spring-data-commons-core-1.2.0.BUILD-20110826.083456-44.jar:na]\n\n\n\n\n        at org.springframework.data.mapping.context.AbstractMappingContext.getNestedTypeToAdd(AbstractMappingContext.java:316) ~[spring-data-commons-core-1.2.0.BUILD-20110826.083456-44.jar:na]\n\n\n\n\n        at org.springframework.data.mapping.context.AbstractMappingContext.access$100(AbstractMappingContext.java:65) ~[spring-data-commons-core-1.2.0.BUILD-20110826.083456-44.jar:na]\n\n\n\n\n        at org.springframework.data.mapping.context.AbstractMappingContext$1.doWith(AbstractMappingContext.java:267) ~[spring-data-commons-core-1.2.0.BUILD-20110826.083456-44.jar:na]\n\n\n\n\n        at org.springframework.util.ReflectionUtils.doWithFields(ReflectionUtils.java:513) ~[spring-core-3.0.5.RELEASE.jar:3.0.5.RELEASE]\n\n\n\n\n        at org.springframework.data.mapping.context.AbstractMappingContext.addPersistentEntity(AbstractMappingContext.java:244) ~[spring-data-commons-core-1.2.0.BUILD-20110826.083456-44.jar:na]\n\n\n\n\n        at org.springframework.data.mapping.context.AbstractMappingContext.getPersistentEntity(AbstractMappingContext.java:165) ~[spring-data-commons-core-1.2.0.BUILD-20110826.083456-44.jar:na]\n\n\n\n\n        at org.springframework.data.mapping.context.AbstractMappingContext.getPersistentEntity(AbstractMappingContext.java:140) ~[spring-data-commons-core-1.2.0.BUILD-20110826.083456-44.jar:na]\n\n\n\n\n        at org.springframework.data.mapping.context.AbstractMappingContext.getPersistentEntity(AbstractMappingContext.java:65) ~[spring-data-commons-core-1.2.0.BUILD-20110826.083456-44.jar:na]\n\n\n\n\n        at org.springframework.data.mongodb.core.MongoTemplate.determineCollectionName(MongoTemplate.java:1105) ~[spring-data-mongodb-1.0.0.BUILD-20110826.114729-388.jar:na]\n\n\n\n\n        at org.springframework.data.mongodb.core.MongoTemplate.findAll(MongoTemplate.java:786) ~[spring-data-mongodb-1.0.0.BUILD-20110826.114729-388.jar:na]\n\n\n\n\n        ...\n\n\n\n\n\n","creation_date":"2011-08-26T08:05:09.000-05:00","resolution_date":"2011-08-31T12:08:41.000-05:00","fixed_files":["org.springframework.data.util.ClassTypeInformation"]}
{"key":"DATACMNS-98","title":"ClassCastException on getReturnedDomainClass for variable types","description":"ClassCastException on getReturnedDomainClass for variable types.\nThe base interface:\n\n\n\n\n\n\n@NoRepositoryBean\n\n\n\n\npublic interface BaseRepository\u003cT extends BaseEntity\u003e extends JpaRepository\u003cT, Long\u003e {\n\n\n\n\n\n\n\n\n\n    List\u003cT\u003e findByExternalIdIn(List\u003cString\u003e externalIds);\n\n\n\n\n\n\n\n\n\n}\n\n\n\n\n\n\nThe repository interface:\n\n\n\n\n\n\npublic interface FooRepository extends BaseRepository\u003cFoo\u003e {\n\n\n\n\n\n\n\n\n\n}\n\n\n\n\n\n\nThe class where the exception is thrown:\n\n\n\n\n\n\norg.springframework.data.repository.util.ClassUtils\n\n\n\n\n\n\nThe line where the exception is thrown:\n\n\n\n\n\n\nreturn componentType instanceof ParameterizedType ? (Class\u003c?\u003e) ((ParameterizedType) componentType).getRawType()\n\n\n\n\n\t\t\t\t\t: (Class\u003c?\u003e) componentType;\n\n\n\n\n\n\nThe exception:\n\n\n\n\n\n\nCaused by: java.lang.ClassCastException: sun.reflect.generics.reflectiveObjects.TypeVariableImpl cannot be cast to java.lang.Class\n\n\n\n\n\tat org.springframework.data.repository.util.ClassUtils.getReturnedDomainClass(ClassUtils.java:64) ~[spring-data-commons-core-1.1.0.RELEASE.jar:na]\n\n\n\n\n\tat org.springframework.data.repository.query.QueryMethod.getDomainClass(QueryMethod.java:124) ~[spring-data-commons-core-1.1.0.RELEASE.jar:na]\n\n\n\n\n\tat org.springframework.data.repository.query.QueryMethod.getNamedQueryName(QueryMethod.java:115) ~[spring-data-commons-core-1.1.0.RELEASE.jar:na]\n\n\n\n\n\tat org.springframework.data.jpa.repository.query.JpaQueryLookupStrategy$DeclaredQueryLookupStrategy.resolveQuery(JpaQueryLookupStrategy.java:118) ~[spring-data-jpa-1.0.1.RELEASE.jar:na]\n\n\n\n\n\tat org.springframework.data.jpa.repository.query.JpaQueryLookupStrategy$CreateIfNotFoundQueryLookupStrategy.resolveQuery(JpaQueryLookupStrategy.java:157) ~[spring-data-jpa-1.0.1.RELEASE.jar:na]\n\n\n\n\n\tat org.springframework.data.jpa.repository.query.JpaQueryLookupStrategy$AbstractQueryLookupStrategy.resolveQuery(JpaQueryLookupStrategy.java:71) ~[spring-data-jpa-1.0.1.RELEASE.jar:na]\n\n\n\n\n\tat org.springframework.data.repository.core.support.RepositoryFactorySupport$QueryExecutorMethodInterceptor.\u003cinit\u003e(RepositoryFactorySupport.java:303) ~[spring-data-commons-core-1.1.0.RELEASE.jar:na]\n\n\n\n\n\tat org.springframework.data.repository.core.support.RepositoryFactorySupport.getRepository(RepositoryFactorySupport.java:157) ~[spring-data-commons-core-1.1.0.RELEASE.jar:na]\n\n\n\n\n\tat org.springframework.data.repository.core.support.RepositoryFactoryBeanSupport.getObject(RepositoryFactoryBeanSupport.java:120) ~[spring-data-commons-core-1.1.0.RELEASE.jar:na]\n\n\n\n\n\tat org.springframework.data.repository.core.support.RepositoryFactoryBeanSupport.getObject(RepositoryFactoryBeanSupport.java:39) ~[spring-data-commons-core-1.1.0.RELEASE.jar:na]\n\n\n\n\n\tat org.springframework.beans.factory.support.FactoryBeanRegistrySupport.doGetObjectFromFactoryBean(FactoryBeanRegistrySupport.java:142) ~[spring-beans-3.0.6.RELEASE.jar:3.0.6.RELEASE]\n\n\n\n\n\t... 35 common frames omitted\n\n\n\n\n\n ","creation_date":"2011-11-15T08:25:01.000-06:00","resolution_date":"2011-11-23T00:10:08.000-06:00","fixed_files":["org.springframework.data.repository.util.ClassUtilsUnitTests","org.springframework.data.repository.util.ClassUtils","org.springframework.data.util.TypeDiscoverer","org.springframework.data.util.TypeInformation","org.springframework.data.repository.query.QueryMethod"]}
