{"id":481,"bug_id":"104150","text":"[Patch] Table cursor separated from table selection when clicking on grid lines or empty space. When using a table cursor, there are two kinds of table regions that have the potential to separate the table cursor from the table selection when clicked on: 1) grid lines (table.getLinesVisible() \u003d\u003d true) 2) empty space to the left of the first cell of each row (SWT.FULL_SELECTION)   To reproduce the problem, use snippet 96 with an added table.setLinesVisible(true). table.getLinesVisible()  table.setLinesVisible(true)","file_goldset":["org.eclipse.swt.custom.TableCursor"],"creation_date":"2005-07-16 19:58:00","resolution_date":"2006-03-15 15:21:00"}
{"id":482,"bug_id":"104545","text":"Make default size of empty composites smaller. Background: When you write an RCP app and enable the cool bar, the cool bar will initially be empty, but 64x64 pixels in size. On Windows, you cannot see the border of the empty coolbar so the user gets a big empty space at the top of their window and might be confused.  static final int DEFAULT_WIDTH\t\u003d 64;\n static final int DEFAULT_HEIGHT\t\u003d 64;","file_goldset":["org.eclipse.swt.widgets.CoolBar"],"creation_date":"2005-07-20 14:21:00","resolution_date":"2009-08-27 04:54:00"}
{"id":486,"bug_id":"117574","text":"RIGHT_TO_LEFT |  DOUBLE_BUFFERED don\u0027t get along. Example:    Doesn\u0027t draw anything.  public static void main(String[] args) {\n\tDisplay display \u003d new Display();\n\tShell shell \u003d new Shell(display, SWT.SHELL_TRIM | SWT.RIGHT_TO_LEFT | SWT.DOUBLE_BUFFERED);\n\tshell.addListener(SWT.Paint, new Listener() {\n\t\tpublic void handleEvent(Event event) {\n\t\t\tSystem.out.println(event.gc.getClipping());\n\t\t\tevent.gc.drawString(\"This is broken \" + event.gc.getClipping(), 10, 10);\n\t\t}\n\t});\n\tshell.open();\n\twhile (!shell.isDisposed()) {\n\t\tif (!display.readAndDispatch()) display.sleep();\n\t}\n\tdisplay.dispose ();\n}","file_goldset":["org.eclipse.swt.graphics.GC","org.eclipse.swt.widgets.Composite"],"creation_date":"2005-11-22 15:22:00","resolution_date":"2005-11-28 17:40:00"}
{"id":496,"bug_id":"81264","text":"Table fails to setTopIndex after new items are added to the table. Here\u0027s my testcase to demonstrate the problem:                   Table.setTopIndex fails to position to the correct table item if new items are added to the table after the shell is opened. The first call to setTopIndex succeeds. The table is correctly positioned at item 20. After adding new table items to the table, calling setTopTable(40) has no effect. Calling getTopIndex continues to return 20.      public static void main(String[] args) {\n\t\tfinal Display display \u003d new Display();\n\t\tShell shell \u003d new Shell(display);\n\t\tshell.setBounds(10,10,200,200);\n\t\tfinal Table table \u003d new Table(shell, SWT.NONE);\n\t\ttable.setBounds(10,10,100,100);\n\t\tfor (int i \u003d 0; i \u003c 99; i++) {\n\t\t\tnew TableItem(table, SWT.NONE).setText(\"item \" + i);\n\t\t}\n\t\t\n\t\ttable.setTopIndex(20);\n\n\t\tshell.open();\n\n\t\tSystem.out.println(\"top visible index: \" + table.getTopIndex());\n\t\t\n\t\tfor (int i \u003d 0; i \u003c 5; i++) {\n\t\t\tnew TableItem(table, SWT.NONE).setText(\"item \" + i);\n\t\t}\n\n\t\ttable.setTopIndex(40);\n\t\tSystem.out.println(\"top visible index: \" + table.getTopIndex());\n\t\t\n\t\twhile (!shell.isDisposed()) {\n\t\t\tif (!display.readAndDispatch()) display.sleep();\n\t\t}\n\t\tdisplay.dispose();\n\t}\n\n setTopTable(40)  setTopIndex(40)","file_goldset":["org.eclipse.swt.widgets.List","org.eclipse.swt.widgets.Table","org.eclipse.swt.widgets.Tree"],"creation_date":"2004-12-15 13:17:00","resolution_date":"2006-04-12 13:22:00"}
{"id":503,"bug_id":"84609","text":"TableColumn has NPE while calling pack()  on last column. Consider followed code, table has only 3 columns:       On third call I get caught NPE (in debugger) in TableColumn (line 356), because parent.getColumns() (in TableColumn:354) returns array with 4 elements (always one more as existing in the table), and the last element is always null.   lvtTable.getColumn(0).pack();\nlvtTable.getColumn(1).pack();\nlvtTable.getColumn(2).pack();\n\n parent.getColumns()","file_goldset":["org.eclipse.swt.widgets.Table","org.eclipse.swt.widgets.TableColumn"],"creation_date":"2005-02-07 13:35:00","resolution_date":"2005-09-26 13:20:00"}
{"id":504,"bug_id":"86000","text":"ImageLoader Save - produces invalid JPEG images. The ImageLoader Save function appears to be producing bad JPG images.  Simple test case below loads\n PNG Files and Saves them as JPEG. Many files were tested and the majority \n did produced the proper JPG images as expected.          \n \n \npackage com.ibm.test.image;\n\nimport org.eclipse.swt.*;\nimport org.eclipse.swt.graphics.*;\n\npublic class ImageLoaderTest {\n\t\t\n\tpublic static void main(String[] args) {\n\t\tImageLoader loader;\n\t\tString dir\u003d\"c:\\\\image-problems\\\\\";\n\t\tString files[]\u003d{\n\t\t\t\t\"s34i3p04\",\n\t\t\t\t\"s34n3p04\",\n\t\t\t\t\"s35i3p04\",\n\t\t\t\t\"s35n3p04\",\n\t\t\t\t\"s36i3p04\",\n\t\t\t\t\"s36n3p04\",\n\t\t\t\t\"s37i3p04\",\n\t\t\t\t\"s37n3p04\",\n\t\t\t\t\"s38i3p04\",\n\t\t\t\t\"s38n3p04\",\n\t\t\t\t\"s39i3p04\",\n\t\t\t\t\"s39n3p04\"\n\t\t};\n\t\t\n\t\ttry {\n\t\t\tfor (int i\u003d0; i\u003cfiles.length; i++) {\n\t\t\tString filein  \u003d dir+files[i]+\".png\";\n\t\t\tString fileout \u003d dir+files[i]+\".jpg\";\n\t\t\t\n\t\t\tloader \u003d new ImageLoader();\n\t\t\tloader.load(filein);\n\t\t\tloader.save(fileout,SWT.IMAGE_JPEG);\n\t\t\t}\n\t\t} catch (SWTException e) {\n\t\t  e.printStackTrace();\n\t\t}\n\t}\n}","file_goldset":["org.eclipse.swt.internal.image.JPEGFileFormat"],"creation_date":"2005-02-21 14:47:00","resolution_date":"2005-02-23 18:02:00"}
{"id":508,"bug_id":"87460","text":"StyledText: Caret location not updated when line style is used. In the snippet below, there is a StyledText with a line style listener. In the line style listener, a bold font style is set, changing the width of the rendered text.  However, this does not happen.                                             \n\nimport org.eclipse.swt.*;\nimport org.eclipse.swt.custom.*;\nimport org.eclipse.swt.graphics.*;\nimport org.eclipse.swt.layout.*;\nimport org.eclipse.swt.widgets.*;\n\npublic class LineStyleCaretTest {\n  public static void main(String[] args) {\n    Display display \u003d new Display();\n    \n    Shell shell \u003d new Shell(display);\n    shell.setLayout(new FillLayout());\n    \n    Font font \u003d new Font(display, \"Arial\", 12, SWT.NORMAL);\n      \n    final StyledText text \u003d new StyledText(shell, SWT.MULTI);\n    text.setFont(font);\n    text.setText(\"Standard Widget Toolkit\");\n    text.setCaretOffset(text.getText().length());\n    \n    text.addLineStyleListener(new LineStyleListener() {\n      public void lineGetStyle(LineStyleEvent event) {\n        StyleRange[] styles \u003d new StyleRange[1];\n        \n        styles[0] \u003d new StyleRange();\n        styles[0].start  \u003d 0;\n        styles[0].length \u003d text.getText().length();\n        styles[0].fontStyle \u003d SWT.BOLD;\n        \n        event.styles \u003d styles;\n      }\n    });\n    \n    shell.setSize(300, 100);\n    shell.open();\n    \n    while (!shell.isDisposed()) {\n      if (!display.readAndDispatch()) {\n        display.sleep();\n      }\n    }\n    \n    font.dispose();\n    display.dispose();\n  }\n}","file_goldset":["org.eclipse.swt.custom.StyledText"],"creation_date":"2005-03-08 21:22:00","resolution_date":"2008-07-29 13:13:00"}
{"id":511,"bug_id":"87997","text":"TableEditor.dispose( ) causes NPE if linked Table is being disposed. If the table is in the process of being\ndisposed, the columns will have already been disposed and this will result in a\nNPE. Specifically this prevents one from adding a dispose listener on the Table\nor a TableItem and trying to dispose of the associated editor, as in the code\nbelow. Further if the dispose listener is set on the parent of the Table, a\n\"Widget is disposed\" exception will be thrown instead of the NPE.      TableEdtior.dispose( )  \n\nimport org.eclipse.swt.custom.TableEditor;\nimport org.eclipse.swt.events.*;\nimport org.eclipse.swt.widgets.*;\n\npublic class Test\n{\n    public static void main( String[ ] args )\n    {\n        Shell shell \u003d new Shell( );\n        Table table \u003d new Table( shell, 0 );\n        new TableColumn( table, 0 );\n        TableItem item \u003d new TableItem( table, 0 );\n        final TableEditor editor \u003d new TableEditor( table );\n        final Text text \u003d new Text( table, 0 );\n        editor.setEditor( text, item, 0 );\n        item.addDisposeListener( new DisposeListener( ) {\n            public void widgetDisposed( DisposeEvent e )\n            {\n                text.dispose( );\n                editor.dispose( ); // Triggers a NPE\n            }\n        } );\n        shell.dispose( );\n    }\n}","file_goldset":["org.eclipse.swt.widgets.Table","org.eclipse.swt.widgets.Tree"],"creation_date":"2005-03-14 19:21:00","resolution_date":"2005-04-06 12:50:00"}
{"id":513,"bug_id":"88829","text":"Table.setColumnOrder() may not fire enough Move events. - start with five columns, all different widths - do Table.setColumnOrder(new int[] {4,1,2,3,0}); - SWT.Move events are fired for columns 0 and 4 because they swapped positions  Table.setColumnOrder(new int[] {4,1,2,3,0});","file_goldset":["org.eclipse.swt.widgets.Table"],"creation_date":"2005-03-22 20:41:00","resolution_date":"2005-04-06 17:05:00"}
{"id":515,"bug_id":"90258","text":"Table item not updated when item count \u003d\u003d 1. Everything works fine, except for the case I set the item count to 1, in which case I do not receive an SWT.SetData notification.   One funny thing is that in the variable view, the debugger displays the updated contents of table.items[0] after calling clearAll(), but I have verified that the data is never ever set. The display fails to update. My code looks like this:               clearAll() table.setItemCount(1);\ntable.clearAll();\n\n private void handleSetData(Event event) {\n\n\tTableItem item\u003d (TableItem) event.item;\n\tint index\u003d fProposalTable.indexOf(item);\n\t\n\tICompletionProposal current\u003d fFilteredProposals[index];\n\t\n\titem.setText(current.getDisplayString());\n\titem.setImage(current.getImage());\n\titem.setData(current);\n}","file_goldset":["org.eclipse.swt.widgets.Table"],"creation_date":"2005-04-05 04:56:00","resolution_date":"2005-08-11 15:55:00"}
{"id":518,"bug_id":"93724","text":"Drag-and-drop creates signal names every time. Here is an example of some code in DragSource.java for GTK+:       Rather than converting the names for the signals every time, these signal names should be defined in OS.java so that they can be only created once. byte[] buffer \u003d Converter.wcsToMbcs(null, \"drag_data_get\", true);\nOS.g_signal_connect(control.handle, buffer, DragGetData.getAddress(), 0);\t\nbuffer \u003d Converter.wcsToMbcs(null, \"drag_end\", true);\nOS.g_signal_connect(control.handle, buffer, DragEnd.getAddress(), 0);\nbuffer \u003d Converter.wcsToMbcs(null, \"drag_data_delete\", true);\nOS.g_signal_connect(control.handle, buffer, DragDataDelete.getAddress(), 0);","file_goldset":["org.eclipse.swt.dnd.DragSource","org.eclipse.swt.dnd.DropTarget"],"creation_date":"2005-05-04 17:35:00","resolution_date":"2005-05-30 15:14:00"}
{"id":523,"bug_id":"97651","text":"tree insert mark cheese. - run the snippet below - the insert line is set to be under the \"root\" item - collapse the root item -\u003e problem 1: this makes most of the insert line go away, except for its pointy ends.  - press the button to the right of the Table: this does a Tree.redraw(), and note that the insert line reappears, so I guess it never really meant to go away -\u003e problem 2: now expand the root item again and its insert mark gets copied to below the child item in addition to its initial location. This is cheese, as can be seen by damaging part of this line with another window                       Tree.redraw() public static void main(String[] args) {\n\tfinal Display display \u003d new Display();\n\tfinal Shell shell \u003d new Shell(display);\n\tshell.setBounds(10, 10, 300, 300);\n\tfinal Tree tree \u003d new Tree(shell, SWT.NONE);\n\ttree.setBounds(10, 10, 200, 200);\n\tnew TreeItem(tree, SWT.NONE).setText(\"pre-root\");\n\tTreeItem root1 \u003d new TreeItem(tree, SWT.NONE);\n\troot1.setText(\"root\");\n\tTreeItem child \u003d new TreeItem(root1, SWT.NONE);\n\tchild.setText(\"child\");\n\tButton button \u003d new Button(shell, SWT.PUSH);\n\tbutton.setBounds(230,10,30,30);\n\tbutton.addSelectionListener(new SelectionAdapter() {\n\t\tpublic void widgetSelected(SelectionEvent e) {\n\t\t\ttree.redraw();\n\t\t}\n\t});\n\troot1.setExpanded(true);\n\ttree.setInsertMark(root1, false);\n\tshell.open();\n\twhile (!shell.isDisposed()) {\n\t\tif (!display.readAndDispatch()) display.sleep();\n\t}\n\tdisplay.dispose();\n}","file_goldset":["org.eclipse.swt.dnd.TreeDragUnderEffect","org.eclipse.swt.widgets.Tree"],"creation_date":"2005-05-31 14:43:00","resolution_date":"2005-06-03 13:04:00"}
