{"key":"BOOKKEEPER-291","title":"BKMBeanRegistry uses log4j directly","description":"It should use slf4j."}
{"key":"BOOKKEEPER-371","title":"NPE in hedwig hub client causes hedwig hub to shut down.","description":"The hedwig client was connected to a remote region hub that restarted resulting in the channel getting disconnected.                               The channel was retrieved without checking if it was closed and then getPipeline(). getLast() was called which returned a null value resulting in a NPE. Moreover, we need to check if the returned Response handler is not null because there is a race here if channel.close() is called after we retrieve the channel and before we call messageConsumed()."}
{"key":"BOOKKEEPER-376","title":"LedgerManagers should consider \u0027underreplication\u0027 node as a special Znode","description":"Saw this while running the RW tests:"}
