{"key":"TIKA-1014","title":"Allow custom MimeTypesReader","description":"The current MimeTypesReader is package protected with private fields. It would be great to allow subclassing this Reader to support custom behavior."}
{"key":"TIKA-1047","title":"Provide a JAX-RS to detect only the mediatype","description":"The problem I have with this is that I need to send the entire document to get all metadata. To detect the mediatype, only a few bytes are often necessary and so I\u0027d like to only send, say 8K or so, to the server and let it tell me the mediatype."}
{"key":"TIKA-1074","title":"Extraction should continue if an exception is hit visiting an embedded document","description":"In that issue, a problematic document (still not sure if document is corrupt, or possible POI bug) caused an exception when visiting the embedded documents. If I change Tika to suppress that exception, the rest of the document extracts fine. So somehow I think we should be more robust here, and maybe log the exception, or save/record the exception(s) somewhere so after parsing the app could decide what to do about them ..."}
