{"id":4496,"bug_id":"DATAMONGO-1263","text":"Missing indexes in associations involving generic types. When an association between documents involves generic types, the type information is not correctly inferred at startup time resulting in missing indexes.  Given:  When defining a class Catalog with a list of \"wrapped\" books:  The index \"name\" inherited from AbstractProduct is created (book2.content.name) inside \"catalog\" , but the index defined on the Book class itself (isbn) is not created as Spring Data Mongo is only inferring type infromation from the ProductWrapper class definition (ProductWrapper \u003cT extends AbstractProduct\u003e).  If the wrapper class is defined as ProductWrapper\u003cT\u003e, then no indexes are created at all on Catalog.books2.content. class Book  class AbstractProduct  class ProductWrapper  class Catalog","file_goldset":["org.springframework.data.mongodb.core.index.MongoPersistentEntityIndexResolverUnitTests","org.springframework.data.mongodb.core.index.MongoPersistentEntityIndexResolver"],"creation_date":"2015-07-30T09:03:41.000-05:00","resolution_date":"2015-11-09T19:09:44.000-06:00"}
{"id":4497,"bug_id":"DATAMONGO-1290","text":"@Query annotation with byte[] parameter does not work. ... but only the first works. Please find an example project with test attached! Optional\u003cSampleDomainObject\u003e findBySampleData(byte[] sampleDate) @Query(\"{ \u0027sampleData\u0027 : ?0 }\")\n\n\n\n\nOptional\u003cSampleDomainObject\u003e findBySampleDateWithAnnotation(byte[] sampleData)","file_goldset":["org.springframework.data.mongodb.repository.query.StringBasedMongoQuery","org.springframework.data.mongodb.repository.query.StringBasedMongoQueryUnitTests"],"creation_date":"2015-09-17T15:30:23.000-05:00","resolution_date":"2015-11-20T12:25:32.000-06:00"}
{"id":4498,"bug_id":"DATAMONGO-1250","text":"Custom converter implementation not used in updates. I have a custom (de)serialiser for an enumerated type, and it works perfectly when saving and loading a @Document annotated POJO. It also works when building and executing a Query object. However when used in an Update, it is either ignored, or called in situations where it shouldn\u0027t. Please clone https://github.com/patrickherrera/converter_test.git for a full test application. In brief there is a POJO and for the purposes of the test it has a static enum with the desired converters:                                                 There is a unit test that drives a few scenarios:                                                By use of a positive and negative case, it appears that the converter is being called correctly when used in the Query builder. When it comes to an Update, the Enum is unable to be serialised correctly, and an exception is thrown to that effect.  So it appears that the customer converter for converting from my Enum is not called in this situation.  The BigDecimal is converted to a String by an existing converter I assume, but then my customer converter is called to try and convert the numeric String into an Allocation Enum which of course fails.  That second variant never seems to be called in MappingMongoConverter, but perhaps if that type information was passed then it would not use my Allocation converter. Without type information it seems the default is just to use the first converter that can handle the input type, in this case a String.   @Document @Document\n\n\n\n\npublic class MyPersistantObject  public Allocation allocation;\n\n\n\n\n     public BigDecimal value;\n\n\n\n\n\n\n\n\n\n     private final String code;\n\n\n\n\n\n\n\n\n\n         Allocation(String code) {\n\n\n\n\n            this.code \u003d code;\n\n\n\n\n        }\n\n\n\n\n\n\n\n\n\n         public static Converter\u003cAllocation, String\u003e writer() {\n\n\n\n\n            return new Converter\u003cAllocation, String\u003e() {\n\n\n\n\n                public String convert(Allocation allocation) {\n\n\n\n\n                    return allocation.getCode();\n\n\n\n\n                }\n\n\n\n\n            };\n\n\n\n\n        }\n\n\n\n\n\n\n\n\n\n         public static Converter\u003cString, Allocation\u003e reader() {\n\n\n\n\n            return new Converter\u003cString, Allocation\u003e() {\n\n\n\n\n                public Allocation convert(String source) {\n\n\n\n\n                    return Allocation.getByCode(source);\n\n\n\n\n                }\n\n\n\n\n            };\n\n\n\n\n        }\n\n\n\n\n\n\n\n\n\n         public static Allocation getByCode(String code)  return AVAILABLE;\n\n\n\n\n                 return ALLOCATED;\n\n\n\n\n             throw new IllegalArgumentException(\"Unable to get Allocation from: \" + code);\n\n\n\n\n         public String getCode() {\n\n\n\n\n            return code;\n\n\n\n\n        }\n\n\n\n\n     @Bean\n\n\n\n\n    public CustomConversions customConversions() {\n\n\n\n\n        return new CustomConversions(Arrays.asList(\n\n\n\n\n                MyPersistantObject.Allocation.reader(),\n\n\n\n\n                MyPersistantObject.Allocation.writer()\n\n\n\n\n        ));\n\n\n\n\n    }\n\n\n\n\n\n\n @Test\n\n\n\n\n    public void testConversion() {\n\n\n\n\n        Update update;\n\n\n\n\n        Query query;\n\n\n\n\n        MyPersistantObject returned;\n\n\n\n\n        MyPersistantObject myPersistantObject \u003d new MyPersistantObject();\n\n\n\n\n        myPersistantObject.allocation \u003d AVAILABLE;\n\n\n\n\n        myPersistantObject.value \u003d new BigDecimal(1234567);\n\n\n\n\n\n\n\n\n\n        mongoTemplate.save(myPersistantObject);\n\n\n\n\n\n\n\n\n\n        // Check it was saved correctly - first with invalid allocation to confirm conversion in query\n\n\n\n\n        query \u003d query(where(\"allocation\").is(ALLOCATED));\n\n\n\n\n        assertThat(mongoTemplate.findOne(query, MyPersistantObject.class), is(nullValue()));\n\n\n\n\n\n\n\n\n\n        // Check it was saved correctly - now with valid allocation to confirm conversion in query\n\n\n\n\n        query \u003d query(where(\"allocation\").is(AVAILABLE));\n\n\n\n\n        returned \u003d mongoTemplate.findOne(query, MyPersistantObject.class);\n\n\n\n\n        assertThat(returned.allocation, is(AVAILABLE));\n\n\n\n\n        assertThat(returned.value.longValue(), is(1234567L));\n\n\n\n\n\n\n\n\n\n        try {\n\n\n\n\n            // Update allocation from constant - will fail\n\n\n\n\n            update \u003d update(\"allocation\", ALLOCATED);\n\n\n\n\n            mongoTemplate.updateMulti(query, update, MyPersistantObject.class);\n\n\n\n\n        } catch (Exception e) {\n\n\n\n\n            System.err.println(\"failed to convert allocation: java.lang.IllegalArgumentException: can\u0027t serialize class converter_test.MyPersistantObject$Allocation\");\n\n\n\n\n        }\n\n\n\n\n\n\n\n\n\n        // Update allocation from string value - succeeds\n\n\n\n\n        update \u003d update(\"allocation\", ALLOCATED.getCode());\n\n\n\n\n        mongoTemplate.updateMulti(query, update, MyPersistantObject.class);\n\n\n\n\n        // Check allocation update\n\n\n\n\n        query \u003d query(where(\"allocation\").is(ALLOCATED));\n\n\n\n\n        returned \u003d mongoTemplate.findOne(query, MyPersistantObject.class);\n\n\n\n\n        assertThat(returned.allocation, is(ALLOCATED));\n\n\n\n\n\n\n\n\n\n        // Update value only - will fail: Caused by: java.lang.IllegalArgumentException: Unable to get MyPersistantObject.Allocation from: 54321\n\n\n\n\n        // Tries to use MyPersistantObject.Allocation converter to String\n\n\n\n\n        update \u003d update(\"value\", new BigDecimal(54321));\n\n\n\n\n        mongoTemplate.updateMulti(query, update, MyPersistantObject.class);\n\n\n\n\n        // Check value update\n\n\n\n\n        returned \u003d mongoTemplate.findAll(MyPersistantObject.class).get(0);\n\n\n\n\n        assertThat(returned.value.longValue(), is(54321L));\n\n\n\n\n    }","file_goldset":["org.springframework.data.mongodb.core.convert.UpdateMapper","org.springframework.data.mongodb.core.convert.UpdateMapperUnitTests"],"creation_date":"2015-07-03T21:07:44.000-05:00","resolution_date":"2015-07-04T10:10:16.000-05:00"}
