{"id":4559,"bug_id":"WFCORE-267","text":"CLI prints output twice if using cli client jar. If you are using the CLI client jar, all output is printed twice. This is because JBoss logging is not set up and by default CommandContextImpl is printing log messages to standard out. The output will look something like this:                               INFO: {\n\n\n\n\n    \"outcome\" \u003d\u003e \"success\",\n\n\n\n\n    \"result\" \u003d\u003e [\n\n\n\n\n        \"core-service\",\n\n\n\n\n        \"deployment\",\n\n\n\n\n        \"deployment-overlay\",\n\n\n\n\n        \"extension\",\n\n\n\n\n        \"interface\",\n\n\n\n\n        \"path\",\n\n\n\n\n        \"socket-binding-group\",\n\n\n\n\n        \"subsystem\",\n\n\n\n\n        \"system-property\"\n\n\n\n\n    ]\n\n\n\n\n}\n\n\n\n\n{\n\n\n\n\n    \"outcome\" \u003d\u003e \"success\",\n\n\n\n\n    \"result\" \u003d\u003e [\n\n\n\n\n        \"core-service\",\n\n\n\n\n        \"deployment\",\n\n\n\n\n        \"deployment-overlay\",\n\n\n\n\n        \"extension\",\n\n\n\n\n        \"interface\",\n\n\n\n\n        \"path\",\n\n\n\n\n        \"socket-binding-group\",\n\n\n\n\n        \"subsystem\",\n\n\n\n\n        \"system-property\"\n\n\n\n\n    ]\n\n\n\n\n}","file_goldset":["org.jboss.as.cli.CommandLineMain"],"creation_date":"2014-11-19T19:47:31.000-06:00","resolution_date":"2014-12-05T23:16:30.000-06:00"}
{"id":4560,"bug_id":"WFCORE-495","text":"WFLY won\u0027t startup due to \"WFLYCTL0212: Duplicate resource [(\\\"deployment\\\" \u003d\u003e \\\"xxx.war\\\")]\". WFLY won\u0027t startup due to \"WFLYCTL0212: Duplicate resource [(\\\"deployment\\\" \u003d\u003e \\\"xxx.war\\\")]\" If you firstly deploy a . war application by CLI command, then deploy 2nd time same . war application by copying it to /depolyment directory. After server restart, it shows:          1. start wildfly and deploy a . war application by CLI. 2. copy same . war application to /deployment directory 3. restart wildfly to see the error message. This happens because step 2 does a \"full-replace-deployment\" operation which does not remove content from standalone/data/content/aa/2d0425dd53572294d591b56efdee2680539eaf/content and deployment info from configuration file(standalone.xml). Therefore, you will have xxx.war in standalone/data/content and configuration file(standalone.xml), also a xxx.war and xxx.war.deployed file inside /standalone/deployments. A second time server restart will cause a duplicate resource error. file(standalone.xml) file(standalone.xml)","file_goldset":["org.jboss.as.server.deployment.DeploymentFullReplaceHandler"],"creation_date":"2015-01-12T08:48:29.000-06:00","resolution_date":"2015-01-23T22:27:07.000-06:00"}
{"id":4561,"bug_id":"WFCORE-701","text":"Inconsistent domain server status reports between server-config resource and server resource. When a managed server fails in some way, the server status reporting is inconsistent between the /host\u003d\u003chost\u003e/server-config\u003d\u003cserver\u003e resources and the /host\u003d\u003chost\u003e/server\u003d\u003cserver\u003e resource. To reproduce, run domain.sh, find the pid of a server process, and kill -9 \u003cthepid\u003e. Then with the CLI:           attribute(name\u003dstatus)\n\n\n\n\n {\n\n\n\n\n    \"outcome\" \u003d\u003e \"success\",\n\n\n\n\n    \"result\" \u003d\u003e \"FAILED\"\n\n\n\n\n}\n\n\n\n\n attribute(name\u003dserver-state)\n\n\n\n\n {\n\n\n\n\n    \"outcome\" \u003d\u003e \"success\",\n\n\n\n\n    \"result\" \u003d\u003e \"STOPPED\"\n\n\n\n\n}","file_goldset":["org.jboss.as.host.controller.ManagedServer"],"creation_date":"2015-05-19T15:06:17.000-05:00","resolution_date":"2016-03-30T14:44:00.000-05:00"}
{"id":4562,"bug_id":"WFCORE-604","text":" After failed to deploy, remain deployment information in JBOSS_HOME/{standalone|domaine}/data/content directory. - After failed to deploy, remain deployment information in JBOSS_HOME/{standalone|domaine}/data/content directory     1. Fail to deploy application via jboss-cli 2. Find deployment info in JBOSS_HOME/{standalone|domaine}/data/content, but there are no standalone.xml in \u003cdeployments\u003e tag. 3. Fix deployment and success to deploy. 4. Find \"new\" deployment info in JBOSS_HOME/{standalone|domaine}/data/content, and the old deployment info will be still there.     - The deployment information which created when deploy was failed remains in JBOSS_HOME/{standalone|domaine}/data/content.   {standalone|domaine} {standalone|domaine} {standalone|domaine} {standalone|domaine} {standalone|domaine}","file_goldset":["org.jboss.as.domain.controller.operations.deployment.DeploymentAddHandler","org.jboss.as.host.controller.mgmt.ServerToHostProtocolHandler","org.jboss.as.domain.controller.operations.ApplyRemoteMasterDomainModelHandler","org.jboss.as.host.controller.model.host.HostResourceDefinition","org.jboss.as.repository.LocalDeploymentFileRepository","org.jboss.as.domain.controller.operations.deployment.DeploymentFullReplaceHandler","org.jboss.as.host.controller.DomainModelControllerService","org.jboss.as.domain.controller.operations.deployment.DeploymentRemoveHandler","org.jboss.as.server.deploymentoverlay.DeploymentOverlayContentAdd","org.jboss.as.domain.controller.operations.deployment.ServerGroupDeploymentReplaceHandler","org.jboss.as.host.controller.RemoteDomainConnectionService","org.jboss.as.server.logging.ServerLogger","org.jboss.as.core.model.test.TestModelControllerService","org.jboss.as.server.deployment.DeploymentFullReplaceHandler","org.jboss.as.server.deployment.DeploymentAddHandlerTestCase","org.jboss.as.repository.logging.DeploymentRepositoryLogger","org.jboss.as.management.client.content.ManagedDMRContentTypeResource","org.jboss.as.core.model.test.LegacyKernelServicesImpl","org.jboss.as.domain.controller.operations.deployment.ServerGroupDeploymentAddHandler","org.jboss.as.subsystem.test.TestModelControllerService","org.jboss.as.server.controller.resources.ServerRootResourceDefinition","org.jboss.as.server.deploymentoverlay.DeploymentOverlayContentDefinition","org.jboss.as.repository.DeploymentFileRepository","org.jboss.as.server.test.InterfaceManagementUnitTestCase","org.jboss.as.host.controller.mgmt.MasterDomainControllerOperationHandlerImpl","org.jboss.as.host.controller.HostControllerService","org.jboss.as.domain.controller.operations.deployment.ServerGroupDeploymentRemoveHandler","org.jboss.as.management.client.content.ManagedDMRContentTypeAddHandler","org.jboss.as.repository.LocalFileRepository","org.jboss.as.server.ApplicationServerService","org.jboss.as.test.shared.ModelParserUtils","org.jboss.as.host.controller.ManagedServerOperationsFactory","org.jboss.as.domain.controller.resources.DomainRootDefinition","org.jboss.as.server.deployment.DeploymentRemoveHandler","org.jboss.as.domain.controller.resources.ServerGroupResourceDefinition","org.jboss.as.repository.ContentRepository","org.jboss.as.domain.controller.resources.DomainDeploymentResourceDefinition","org.jboss.as.server.mgmt.domain.RemoteFileRepositoryService","org.jboss.as.server.deployment.DeploymentReplaceHandler","org.jboss.as.server.deployment.DeploymentAddHandler"],"creation_date":"2015-03-18T09:19:35.000-05:00","resolution_date":"2015-03-25T18:39:26.000-05:00"}
{"id":4563,"bug_id":"WFCORE-626","text":"Global list-get operation can inadvertently create list elements. Consider the following sequence of operations:     #2 will return \u003cundefined\u003e as expected.  However, it returns \u003cundefined\u003e. This is because #2 will create the missing element at index 0 causing #3 to operate on index 1. clear(name\u003dattribute)\n get(name\u003dattribute, index\u003d0)\n add(name\u003dattribute, value\u003dtest)\n get(name\u003dattribute, index\u003d0)","file_goldset":["org.jboss.as.controller.operations.global.MapOperations","org.jboss.as.controller.operations.global.ListOperations"],"creation_date":"2015-04-06T15:53:19.000-05:00","resolution_date":"2015-04-15T13:17:29.000-05:00"}
{"id":4564,"bug_id":"WFCORE-442","text":"AbstractMultiTargetHandler-based handlers do not propagate failures to the top level failure-description. An example is worth a thousand words:                                                                                                                                 One item in the set has a failure description but the overall response does not.  {read-only\u003d1} {\n\n\n\n\n                \"name\" \u003d\u003e \"jboss.server.temp.dir\",\n\n\n\n\n                \"path\" \u003d\u003e \"/Users/hbraun/dev/prj/wildfly-core/core-build/target/wildfly-core-1.0.0.Alpha14-SNAPSHOT/standalone/tmp\",\n\n\n\n\n                \"read-only\" \u003d\u003e true,\n\n\n\n\n                \"relative-to\" \u003d\u003e undefined\n\n\n\n\n            } {\n\n\n\n\n                \"name\" \u003d\u003e \"user.home\",\n\n\n\n\n                \"path\" \u003d\u003e \"/Users/hbraun\",\n\n\n\n\n                \"read-only\" \u003d\u003e true,\n\n\n\n\n                \"relative-to\" \u003d\u003e undefined\n\n\n\n\n            } {\n\n\n\n\n                \"name\" \u003d\u003e \"jboss.server.base.dir\",\n\n\n\n\n                \"path\" \u003d\u003e \"/Users/hbraun/dev/prj/wildfly-core/core-build/target/wildfly-core-1.0.0.Alpha14-SNAPSHOT/standalone\",\n\n\n\n\n                \"read-only\" \u003d\u003e true,\n\n\n\n\n                \"relative-to\" \u003d\u003e undefined\n\n\n\n\n            } {\n\n\n\n\n                \"name\" \u003d\u003e \"user.dir\",\n\n\n\n\n                \"path\" \u003d\u003e \"/Users/hbraun/dev/prj/wildfly-core/core-build/target/wildfly-core-1.0.0.Alpha14-SNAPSHOT\",\n\n\n\n\n                \"read-only\" \u003d\u003e true,\n\n\n\n\n                \"relative-to\" \u003d\u003e undefined\n\n\n\n\n            } {\n\n\n\n\n                \"name\" \u003d\u003e \"jboss.server.data.dir\",\n\n\n\n\n                \"path\" \u003d\u003e \"/Users/hbraun/dev/prj/wildfly-core/core-build/target/wildfly-core-1.0.0.Alpha14-SNAPSHOT/standalone/data\",\n\n\n\n\n                \"read-only\" \u003d\u003e true,\n\n\n\n\n                \"relative-to\" \u003d\u003e undefined\n\n\n\n\n            } {\n\n\n\n\n                \"name\" \u003d\u003e \"jboss.home.dir\",\n\n\n\n\n                \"path\" \u003d\u003e \"/Users/hbraun/dev/prj/wildfly-core/core-build/target/wildfly-core-1.0.0.Alpha14-SNAPSHOT\",\n\n\n\n\n                \"read-only\" \u003d\u003e true,\n\n\n\n\n                \"relative-to\" \u003d\u003e undefined\n\n\n\n\n            } {\n\n\n\n\n                \"name\" \u003d\u003e \"jboss.server.log.dir\",\n\n\n\n\n                \"path\" \u003d\u003e \"/Users/hbraun/dev/prj/wildfly-core/core-build/target/wildfly-core-1.0.0.Alpha14-SNAPSHOT/standalone/log\",\n\n\n\n\n                \"read-only\" \u003d\u003e true,\n\n\n\n\n                \"relative-to\" \u003d\u003e undefined\n\n\n\n\n            } {\n\n\n\n\n                \"name\" \u003d\u003e \"jboss.controller.temp.dir\",\n\n\n\n\n                \"path\" \u003d\u003e \"/Users/hbraun/dev/prj/wildfly-core/core-build/target/wildfly-core-1.0.0.Alpha14-SNAPSHOT/standalone/tmp\",\n\n\n\n\n                \"read-only\" \u003d\u003e true,\n\n\n\n\n                \"relative-to\" \u003d\u003e undefined\n\n\n\n\n            }","file_goldset":["org.jboss.as.controller.operations.global.GlobalOperationHandlers"],"creation_date":"2014-12-02T19:15:13.000-06:00","resolution_date":"2015-05-28T21:46:55.000-05:00"}
