{"key":"MATH-718","title":"inverseCumulativeProbability of BinomialDistribution returns wrong value for large trials.","description":"The inverseCumulativeProbability method of the BinomialDistributionImpl class returns wrong value for large trials.    This returns 499525, though it should be 499999."}
{"key":"MATH-775","title":"In the ListPopulation constructor, the check for a negative populationLimit should occur first.","description":"In the ListPopulation constructor, the check to see whether the populationLimit is positive should occur before the check to see if the number of chromosomes is greater than the populationLimit."}
{"key":"MATH-778","title":"Dfp Dfp.multiply(int x) does not comply with the general contract FieldElement.multiply(int n)","description":"In class {{org.apache.commons.math3.Dfp}},  the method {{multiply(int n)}} is limited to {{0 \u003c\u003d n \u003c\u003d 9999}}. This is not consistent with the general contract of {{FieldElement.multiply(int n)}}, where there should be no limitation on the values of {{n}}."}
{"key":"MATH-779","title":"ListPopulation Iterator allows you to remove chromosomes from the population.","description":"Calling the iterator method of ListPopulation returns an iterator of the protected modifiable list. Before returning the iterator we should wrap it in an unmodifiable list."}
{"key":"MATH-782","title":"BrentOptimizer: User-defined check block is badly placed","description":"The CM implementation of Brent\u0027s original algorithm was supposed to allow for a user-defined stopping criterion (in addition to Brent\u0027s default one). However, it turns out that this additional block of code is not at the right location, implying an unwanted early exit."}
{"key":"MATH-905","title":"FastMath.[cosh, sinh] do not support the same range of values as the Math counterparts","description":"cosh(double) and sinh(double):\nMath.cosh(709.783) \u003d 8.991046692770538E307\nFastMath.cosh(709.783) \u003d Infinity\nMath.sinh(709.783) \u003d 8.991046692770538E307\nFastMath.sinh(709.783) \u003d Infinity\n\u003d\u003d\u003d\u003e This is due to using exp( x )/2 for values of |x|\nabove 20: the result sometimes should not overflow,\nbut exp( x ) does, so we end up with some infinity. \u003d\u003d\u003d\u003e for values of |x| \u003e\u003d StrictMath.log(Double.MAX_VALUE),\nexp will overflow, so you need to use that instead:\nfor x positive:\ndouble t \u003d exp(x*0.5);\nreturn (0.5*t)*t;\nfor x negative:\ndouble t \u003d exp(-x*0.5);\nreturn (-0.5*t)*t;"}
