{"codeSnippets": [], "creation_date": "2015-05-13T09:08:15.000-05:00", "description": "found report issu upgrad spring data mongodb mongo librari releas releas issu trigger queri nest gener field qualifi custom primit follow snippet show nest field tri queri extern option intern field option intern call mongooper mongo oper nullpointerexcept pointer origin abstractmappingcontext map context spring data common notic issu start version releas librari commit", "fixed_files": ["org.springframework.data.mapping.context.AbstractMappingContextUnitTests", "org.springframework.data.mapping.context.AbstractMappingContext"], "key": "DATACMNS-695", "original_text": "Potential NullPointerException in AbstractMappingContext We found the reported issue upgrading Spring Data MongoDB library from 1.3.5.RELEASE to 1.5.5.RELEASE. The issue is triggered querying a nested generic field qualified with a custom class (not primitive). Following snippet shows the nested field we are trying to query:\n\n\n\n\n\n\npublic class External{\n\n\n\n\n ..\n\n\n\n\n private Optional<Internal> field = new Optional<Internal>();\n\n\n\n\n ..\n\n\n\n\n}\n\n\n\n\n\n\nThe call to mongoOperations throws a NullPointerException originating from AbstractMappingContext. It is a Spring Data Commons class and we noticed that the issue starts from version 1.7.2.RELEASE of this library, just after commit 02046da.", "resolution_date": "2015-05-13T09:37:39.000-05:00", "stackTraces": [], "title": "potenti nullpointerexcept pointer abstractmappingcontext map context"}
{"codeSnippets": [], "creation_date": "2015-06-10T01:29:16.000-05:00", "description": "repositoryexampl repositori exampl jparepositori jpa repositori user string query timeout work queri user transact timeout propag propag requir list user findall2 find all2 queri timeout work transact timeout appli document show suppos work exactli overrid transact timeout propag propag requir list user findal find recommend order debug put breakpoint entitymanagerfactoryutil entiti manag factori util applytransactiontimeout appli transact timeout", "fixed_files": ["org.springframework.data.repository.core.support.TransactionalRepositoryProxyPostProcessor", "org.springframework.data.repository.core.support.TransactionRepositoryProxyPostProcessorUnitTests", "org.springframework.data.repository.core.support.RepositoryFactorySupportUnitTests", "org.springframework.data.repository.core.support.RepositoryFactorySupport"], "key": "DATACMNS-715", "original_text": "@Transactional customizations not applied correctly on redeclared methods \n\n\n\n\n\npublic interface RepositoryExample extends JpaRepository<User, String>{\n\n\n\n\n\t\n\n\n\n\n        // This Query's timeout just works \n\n\n\n\n\t@Query(\"FROM User\")\n\n\n\n\n\t@Transactional(timeout = 10,propagation = Propagation.REQUIRED)\n\n\n\n\n\tpublic List<User> findAll2();\n\n\n\n\n\t\n\n\n\n\n        //The query below - timeout doesn't work , the @Transactional timeout is not being applied\n\n\n\n\n        // Although in the documentation it shows it suppose to work exactly as below \n\n\n\n\n        @Override\t\n\n\n\n\n\t@Transactional(timeout = 10,propagation = Propagation.REQUIRED)\n\n\n\n\n\tpublic List<User> findAll();\n\n\n\n\n}\n\n\n\n\n\n\nRecommendation: In order to debug it put breakpoint in  EntityManagerFactoryUtils.applyTransactionTimeout", "resolution_date": "2015-06-17T07:36:14.000-05:00", "stackTraces": [], "title": "transact custom appli correctli redeclar method"}
{"codeSnippets": [], "creation_date": "2015-06-18T08:32:08.000-05:00", "description": "", "fixed_files": ["org.springframework.data.util.AnnotatedTypeScanner"], "key": "DATACMNS-717", "original_text": "AnnotatedTypeScanner does not use context classloader for loading found types ", "resolution_date": "2015-06-18T08:55:28.000-05:00", "stackTraces": [], "title": "annotatedtypescann annot type scanner context classload load found type"}
{"codeSnippets": [], "creation_date": "2015-06-22T01:10:57.000-05:00", "description": "", "fixed_files": ["org.springframework.data.util.VersionUnitTests", "org.springframework.data.util.Version"], "key": "DATACMNS-719", "original_text": "Version fails to parse input string with non-numerical suffix ", "resolution_date": "2015-06-22T02:46:03.000-05:00", "stackTraces": [], "title": "version fail pars input string non numer suffix"}
