{"key":"MATH-482","title":"FastMath.max(50.0f, -50.0f) \u003d\u003e -50.0f; should be +50.0f","description":"FastMath.max(50.0f, -50.0f) \u003d\u003e -50.0f; should be +50.0f.  The bug was not detected by the test case \"testMinMaxFloat()\" because that has a bug too - it tests doubles, not floats."}
{"key":"MATH-274","title":"testing for symmetric positive definite matrix in CholeskyDecomposition","description":"I used this matrix:       And it works fine, because it is symmetric positive definite I tried this matrix:       And it should throw an exception but it does not."}
{"key":"MATH-318","title":"wrong result in eigen decomposition","description":"Some results computed by EigenDecompositionImpl are wrong. The following case computed by Fortran Lapack fails with version 2.0\n{code}\n    public void testMathpbx02() {"}
{"key":"MATH-949","title":"LevenbergMarquardtOptimizer reports 0 iterations","description":"The method LevenbergMarquardtOptimizer.getIterations() does not report the correct number of iterations; It always returns 0.  I\u0027ve put a test case below. Notice how the evaluations count is correctly incremented, but the iterations count is not."}
{"key":"MATH-567","title":"class Dfp toDouble method return -inf whan Dfp value is 0 \"zero\"","description":"If the Dfp\u0027s value is 0 \"zero\", the toDouble() method returns a  negative infini.    A simple test case is :"}
{"key":"MATH-691","title":"Statistics.setVarianceImpl makes getStandardDeviation produce NaN","description":"Invoking SummaryStatistics.setVarianceImpl(new Variance(true/false) makes getStandardDeviation produce NaN. The code to reproduce it:"}
{"key":"MATH-929","title":"MultivariateNormalDistribution.density(double[]) returns wrong value when the dimension is odd","description":"To reproduce:\n{code}\nAssert.assertEquals(0.398942280401433, new MultivariateNormalDistribution(new double[]{0}, new double[][]{{1}})."}
{"key":"MATH-836","title":"Fraction(double, int) constructor_ strange behaviour","description":"The Fraction constructor_ Fraction(double, int) takes a double value and a int maximal denominator, and approximates a fraction. When the double value is a large, negative number with many digits in the fractional part, and the maximal denominator is a big, positive integer (in the 100\u0027000s), two distinct bugs can manifest: 1: the constructor_ returns a positive Fraction. Calling Fraction(-33655.1677817278, 371880) returns the fraction 410517235/243036, which both has the wrong sign, and is far away from the absolute value of the given value 2: the constructor_ does not manage to reduce the Fraction properly. Calling Fraction(-43979.60679604749, 366081) returns the fraction -1651878166/256677, which should have* been reduced to -24654898/3831."}
{"key":"MATH-358","title":"ODE integrator goes past specified end of integration range","description":"The following test case shows the end event is not handled properly and an integration that should cover a 60s range in fact covers a 160s range, more than twice the specified range."}
{"key":"MATH-713","title":"Negative value with restrictNonNegative","description":"A variable with 0 coefficient may be assigned a negative value nevertheless restrictToNonnegative flag in call:\nSimplexSolver.optimize(function, constraints, GoalType.MINIMIZE, true); Function\n1 * x + 1 * y + 0 Constraints:\n1 * x + 0 * y \u003d 1 Result:\nx \u003d 1; y \u003d -1;"}
{"key":"MATH-60","title":"[math] Function math.fraction.ProperFractionFormat.parse(String, ParsePosition) return illogical result","description":"Please see the following code segment for more details:                   Note: Similarly, when I passed in the following inputs: input 2: (source \u003d 1 2 / -3, pos \u003d 0) input 3: ( source \u003d  -1 -2 / 3, pos \u003d 0) Function \"Fraction parse(String, ParsePosition)\" returned Fraction 1/3 (means the result Fraction had numerator \u003d 1 and  denominator \u003d 3)for all 3 inputs above. I think the function does not handle parsing the numberator/ denominator properly incase input string provide invalid numerator/denominator."}
{"key":"MATH-1021","title":"HypergeometricDistribution.sample suffers from integer overflow","description":"It looks like the HypergeometricDistribution.sample() method doesn\u0027t work as well as it used to with large integer values -- the example code below should return a sample between 0 and 50, but usually returns -50."}
{"key":"MATH-280","title":"bug in inverseCumulativeProbability() for Normal Distribution","description":"This code:  gives the exception below.  normal.inverseCumulativeProbability(0.977249868051820); works fine  0 9986501019683698 (should return 3.0000...) 0 9999683287581673 (should return 4.0000...)"}
{"key":"MATH-942","title":"DiscreteDistribution.sample(int) may throw an exception if first element of singletons of sub-class type","description":"An exception will be thrown if: * {{singleons.get(0)}} is of type T1, an sub-class of T, and * {{DiscreteDistribution.sample()}} returns an object which is of type T, but not of type T1. To reproduce:\n{code}\nList\u003cPair\u003cObject,Double\u003e\u003e list \u003d new ArrayList\u003cPair\u003cObject, Double\u003e\u003e();\nlist.add(new Pair\u003cObject, Double\u003e(new Object() {}, new Double(0)));\nlist.add(new Pair\u003cObject, Double\u003e(new Object() {}, new Double(1)));\nnew DiscreteDistribution\u003cObject\u003e(list)."}
{"key":"MATH-865","title":"Wide bounds to CMAESOptimizer result in NaN parameters passed to fitness function","description":"If you give large values as lower/upper bounds (for example -Double.MAX_VALUE as a lower bound), the optimizer can call the fitness function with parameters set to NaN."}
{"key":"MATH-369","title":"BisectionSolver.solve(final UnivariateRealFunction f, double min, double max, double initial) throws NullPointerException","description":"invoke:   NullPointerException will be thrown."}
{"key":"MATH-631","title":"\"RegulaFalsiSolver\" failure","description":"The following unit test:   fails with\n{noformat}\nillegal state: maximal count (100) exceeded: evaluations\n{noformat} Using \"PegasusSolver\", the answer is found after 17 evaluations."}
{"key":"MATH-305","title":"NPE in  KMeansPlusPlusClusterer unittest","description":"When running this unittest, I am facing this NPE:   This is the unittest:"}
{"key":"MATH-221","title":"Result of multiplying and equals for complex numbers is wrong","description":"little java program + output that shows the bug:               res:  -0 - 1i\ncomp: 0 - 1i\nres\u003dcomp: false"}
{"key":"MATH-645","title":"MathRuntimeException with simple ebeMultiply on OpenMapRealVector","description":"The following piece of code                      {code} raises an exception"}
