{"key":"DATAMONGO-505","title":"Conversion of associations doesn\u0027t work for collection values","description":"The execution of findByProperty() will fail as the given array (or collection) is not correctly translated into a collection of DBRefs. The reason is that ConvertingIterator treats the value as is and wants to create a DBRef from it.  class Entity {\n\n\n\n\n\n\n\n\n\n  Long id;\n\n\n\n\n  @DBRef\n\n\n\n\n  Property property;\n\n\n\n\n}\n\n\n\n\n\n\n\n\n\n class Property {\n\n\n\n\n  Long id;\n\n\n\n\n}\n\n\n\n\n\n\n\n\n\n interface EntityRepository extends Repository\u003cEntity, Long\u003e {\n\n\n\n\n\n\n\n\n\n  Entity findByPropertyIn(Property... property);\n\n\n\n\n}\n\n\n\n\n\n\n findByProperty()"}
{"key":"DATAMONGO-523","title":"@TypeAlias annotation not used with AbstractMongoConfiguration ","description":"When using the AbstractMongoConfiguration without any further modifications regarding the converter (afterMappingMongoConverterCreation) the @TypeAlias annotation is not used when writing the _class property. Seems like it always uses the SimpleTypeInformationMapper.  @TypeAlias @Document @TypeAlias"}
{"key":"DATAMONGO-585","title":"Exception during authentication in multithreaded access","description":"class which implements Runnable.  \nThose"}
