{"key":"DATAMONGO-887","title":"Repository not instantiated when entity contains field of type TreeMap","description":"Repository fails to instantiate when the entity contains a TreeMap with value class that does not have a convertor.                  Throws: java.lang.ArrayIndexOutOfBoundsException: 0 In: org.springframework.data.util.ParameterizedTypeInformation.getComponentType(ParameterizedTypeInformation.java:148) public interface SourceRepository extends PagingAndSortingRepository\u003cMyEntity, ObjectId\u003e {\n\n\n\n\n}\n\n\n\n\n\n\n\n\n\n// Entity\n\n\n\n\n @Document(\"test_collection\")\n\n\n\n\npublic class MyEntity {\n\n\n\n\nprivate TreeMap\u003cString,MyClass\u003e treeMap;\n\n\n\n\n}\n\n\n\n\n\n\n\n\n\n// TreeMap value class\n\n\n\n\n public class MyClass {\n\n\n\n\nprivate String foo \u003d \"bar\";\n\n\n\n\n}"}
{"key":"DATAMONGO-897","title":"FindAndUpdate broken when using @DbRef and interface as target","description":"NullPointerException is thrown when using MongoTemplate.findAndModify(...) with @DbRef and interface as @DbRef target.     MongoTemplate.findAndModify(...)  @DbRef @DbRef"}
{"key":"DATAMONGO-892","title":"\u003cmongo:mapping-converter\u003e can\u0027t be configured as nested bean definition","description":"That\u0027s because MappingMongoConverterParser doesn\u0027t check if the parserContext.isNested(), registers BeanDefinition and returns null parserContext.isNested()"}
