{"key":"WFCORE-1908","title":"Tab completion suggest writing attribute which has access type metric and is not writable","description":"CLI tab completion suggests attributes that are not writable and their access-type is metric     On attempt to write metric attribute, for example message-count, non writable error is printed        attribute(name\u003dmessage-count, value\u003d5)\n\n\n\n\n {\n\n\n\n\n    \"outcome\" \u003d\u003e \"failed\",\n\n\n\n\n    \"failure-description\" \u003d\u003e \"WFLYCTL0048: Attribute message-count is not writable\",\n\n\n\n\n    \"rolled-back\" \u003d\u003e true\n\n\n\n\n}"}
{"key":"WFCORE-1578","title":"Better check of names of existing resources when adding \u0027{local|remote-destination-outbound-socket-binding\u0027","description":"Then when I create some /socket-binding-group\u003dstandard-sockets/remote-destination-outbound-socket-binding or /socket-binding-group\u003dstandard-sockets/local-destination-outbound-socket-binding using same name as of already existing socket-binding resource, add operation is successful but when I perform server reload, it crashes as it is not able to parse configuration.        server crashes with following stacktrace in console log:                                      {remote|local} add()\n\n\n\n\n add(host\u003dlocalhost,port\u003d8765)\n\n\n\n\n add(socket-binding-ref\u003dhttp)\n\n\n\n\n {remote|local}"}
{"key":"WFCORE-1936","title":"Value of parameters \"restart-required\" for fixed-*port attributes does not match reality for socket-binding and *-destination-outbound-socket-binding in CLI","description":"If you tries to change such attributes you are informed that reload is necessary.  description(recursive\u003dtrue)"}
{"key":"WFCORE-1635","title":"Write attribute on a new deployment scanner fails in batch","description":"Creating a new deployment-scanner and altering it\u0027s attribute fails if done in single batch. Running the commands without batch or running batch on CLI embed-server works fine.                                             add(path\u003dlog, relative-to\u003d\"jboss.server.base.dir\", auto-deploy-exploded\u003dfalse, scan-enabled\u003dfalse)\n\n\n\n\n attribute(name\u003dscan-interval, value\u003d6000)\n\n\n\n\n add(path\u003dlog, relative-to\u003d\"jboss.server.base.dir\", auto-deploy-exploded\u003dfalse, scan-enabled\u003dfalse)\n\n\n\n\n attribute(name\u003dscan-interval, value\u003d6000)"}
{"key":"WFCORE-1896","title":"Deployment operation browse-content(archive\u003dtrue) does not return archives in archived deployments","description":"Deployment operation browse-content(archive\u003dtrue) does not return archives in archived deployments:                                                                                               content(archive\u003dtrue)  content()\n\n\n\n\n {\n\n\n\n\n    \"outcome\" \u003d\u003e \"success\",\n\n\n\n\n    \"result\" \u003d\u003e [\n\n\n\n\n        {\n\n\n\n\n            \"path\" \u003d\u003e \"jboss-kitchensink-ear-web.war\",\n\n\n\n\n            \"directory\" \u003d\u003e false,\n\n\n\n\n            \"file-size\" \u003d\u003e 63190L\n\n\n\n\n        } {\n\n\n\n\n            \"path\" \u003d\u003e \"jboss-kitchensink-ear-ejb.jar\",\n\n\n\n\n            \"directory\" \u003d\u003e false,\n\n\n\n\n            \"file-size\" \u003d\u003e 12256L\n\n\n\n\n        } {\n\n\n\n\n            \"path\" \u003d\u003e \"META-INF/maven/\",\n\n\n\n\n            \"directory\" \u003d\u003e true\n\n\n\n\n        } {\n\n\n\n\n            \"path\" \u003d\u003e \"META-INF/MANIFEST.MF\",\n\n\n\n\n            \"directory\" \u003d\u003e false,\n\n\n\n\n            \"file-size\" \u003d\u003e 130L\n\n\n\n\n        } {\n\n\n\n\n            \"path\" \u003d\u003e \"META-INF/application.xml\",\n\n\n\n\n            \"directory\" \u003d\u003e false,\n\n\n\n\n            \"file-size\" \u003d\u003e 802L\n\n\n\n\n        } {\n\n\n\n\n            \"path\" \u003d\u003e \"META-INF/kitchensink-ear-quickstart-ds.xml\",\n\n\n\n\n            \"directory\" \u003d\u003e false,\n\n\n\n\n            \"file-size\" \u003d\u003e 1955L\n\n\n\n\n        } {\n\n\n\n\n            \"path\" \u003d\u003e \"META-INF/\",\n\n\n\n\n            \"directory\" \u003d\u003e true\n\n\n\n\n        }\n\n\n\n\n     content(archive\u003dtrue)\n\n\n\n\n {\"outcome\" \u003d\u003e \"success\"}\n\n\n\n\n\n\n {\"outcome\" \u003d\u003e \"success\"}\n\n\n\n\n {\"outcome\" \u003d\u003e \"success\"}\n\n\n\n\n {\"outcome\" \u003d\u003e \"success\"}\n\n\n\n\n content(archive\u003dtrue)\n\n\n\n\n {\n\n\n\n\n    \"outcome\" \u003d\u003e \"success\",\n\n\n\n\n    \"result\" \u003d\u003e [\n\n\n\n\n        {\n\n\n\n\n            \"path\" \u003d\u003e \"jboss-kitchensink-ear-web.war\",\n\n\n\n\n            \"directory\" \u003d\u003e false,\n\n\n\n\n            \"file-size\" \u003d\u003e 63190L\n\n\n\n\n        } {\n\n\n\n\n            \"path\" \u003d\u003e \"jboss-kitchensink-ear-ejb.jar\",\n\n\n\n\n            \"directory\" \u003d\u003e false,\n\n\n\n\n            \"file-size\" \u003d\u003e 12256L\n\n\n\n\n        }"}
{"key":"WFCORE-1590","title":"Default parameter length validating ignores setMinSize(0)","description":"The following error is reported if an empty string is used as a parameter: -          static final SimpleAttributeDefinition REPLACEMENT \u003d new SimpleAttributeDefinitionBuilder(ElytronDescriptionConstants.REPLACEMENT, ModelType.STRING, false)\n\n\n\n\n        .setAllowExpression(true)\n\n\n\n\n        .setMinSize(0)\n\n\n\n\n        .setFlags(AttributeAccess.Flag.RESTART_RESOURCE_SERVICES)\n\n\n\n\n        .build();\n\n\n\n\n\n\n add(pattern\u003d\"@ELYTRON.ORG\", replacement\u003d\"\", replace-all\u003dtrue)"}
{"key":"WFCORE-1959","title":"Deploying an empty managed exploded deployment to server group in domain fails","description":"Deploying an empty exploded deployment created on domain controller fails with the following:                              {empty\u003dtrue} add()"}
{"key":"WFCORE-1718","title":"Handlers within Audit Logger are not removed properly when Audit Logger is removed","description":"If Audit Logger is removed, destination handlers (i.e. its child nodes) are not removed properly. They are not present in the config file. They seem to be not removed \"internally\" though.  1. It is not possible to remove referenced File/Syslog handlers. If user tries to remove them the NullPointerException is given as a result.    Their output is:      2. AuditLog continues to send auditable events to previously referenced File/Syslog handlers.  See log in the file (WILDFLY_HOME/standalone/data/audit-log.log) See log in the syslog (/var/log/messages) remove()\n remove()\n {\n\n\n\n\n    \"outcome\" \u003d\u003e \"failed\",\n\n\n\n\n    \"failure-description\" \u003d\u003e \"WFLYCTL0158: Operation handler failed: java.lang.NullPointerException\",\n\n\n\n\n    \"rolled-back\" \u003d\u003e true\n\n\n\n\n}\n\n\n\n\n\n\n attribute(name\u003dlevel,value\u003dDEBUG)"}
{"key":"WFCORE-1992","title":"CLI inconsistently parse {} in another object as UNDEFINED","description":"CLI interprets {} as blank object in resource attribute (correct), but as UNDEFINED in object attribute. (in model parameter of performRuntime of ADD operation)     {}  {path\u003d$SOME_PATH} {} {}\n\n\n\n\n\n\n\n\n\n\n\n\n {rdn-identifier\u003duid,otp-credential-mapper\u003d{}"}
{"key":"WFCORE-1793","title":"add-content operation fails to overwrite existing content with overwrite\u003dtrue set when passing content by file path","description":"Upon overwriting content in managed exploded deployments on wildfly-core, the following errors are produced:                                          {\"outcome\" \u003d\u003e \"success\"}\n\n\n\n\n {\"outcome\" \u003d\u003e \"success\"}\n\n\n\n\n {\"outcome\" \u003d\u003e \"success\"}\n\n\n\n\n {path\u003d/home/mjurc/testing/eap7-204/test.txt, target-path\u003dtest.txt} {path\u003d/home/mjurc/testing/eap7-204/test.txt, target-path\u003dtest.txt} {path\u003d/home/mjurc/testing/eap7-204/test.txt, target-path\u003dtest.txt}"}
{"key":"WFCORE-1851","title":"Inconsistent behaviour with browse-content(depth\u003d1) operation between archived and exploded deployments","description":"/deployment\u003djboss-kitchensink-ear. ear:browse-content(depth\u003d1) operation returns inconsistent result depending on whether the deployment is exploded or not.  Archived:                     Exploded:                                                content(depth\u003d1)  {\n\n\n\n\n    \"outcome\" \u003d\u003e \"success\",\n\n\n\n\n    \"result\" \u003d\u003e [\n\n\n\n\n        {\n\n\n\n\n            \"path\" \u003d\u003e \"jboss-kitchensink-ear-web.war\",\n\n\n\n\n            \"directory\" \u003d\u003e false,\n\n\n\n\n            \"file-size\" \u003d\u003e 63190L\n\n\n\n\n        } {\n\n\n\n\n            \"path\" \u003d\u003e \"jboss-kitchensink-ear-ejb.jar\",\n\n\n\n\n            \"directory\" \u003d\u003e false,\n\n\n\n\n            \"file-size\" \u003d\u003e 12256L\n\n\n\n\n        } {\n\n\n\n\n            \"path\" \u003d\u003e \"META-INF/\",\n\n\n\n\n            \"directory\" \u003d\u003e true\n\n\n\n\n        }\n\n\n\n\n     {\n\n\n\n\n    \"outcome\" \u003d\u003e \"success\",\n\n\n\n\n    \"result\" \u003d\u003e [\n\n\n\n\n        {\n\n\n\n\n            \"path\" \u003d\u003e \"META-INF/\",\n\n\n\n\n            \"directory\" \u003d\u003e true\n\n\n\n\n        } {\n\n\n\n\n            \"path\" \u003d\u003e \"META-INF/MANIFEST.MF\",\n\n\n\n\n            \"directory\" \u003d\u003e false,\n\n\n\n\n            \"file-size\" \u003d\u003e 130L\n\n\n\n\n        } {\n\n\n\n\n            \"path\" \u003d\u003e \"jboss-kitchensink-ear-web.war\",\n\n\n\n\n            \"directory\" \u003d\u003e false,\n\n\n\n\n            \"file-size\" \u003d\u003e 63190L\n\n\n\n\n        } {\n\n\n\n\n            \"path\" \u003d\u003e \"jboss-kitchensink-ear-ejb.jar\",\n\n\n\n\n            \"directory\" \u003d\u003e false,\n\n\n\n\n            \"file-size\" \u003d\u003e 12256L\n\n\n\n\n        } {\n\n\n\n\n            \"path\" \u003d\u003e \"META-INF/application.xml\",\n\n\n\n\n            \"directory\" \u003d\u003e false,\n\n\n\n\n            \"file-size\" \u003d\u003e 802L\n\n\n\n\n        } {\n\n\n\n\n            \"path\" \u003d\u003e \"META-INF/kitchensink-ear-quickstart-ds.xml\",\n\n\n\n\n            \"directory\" \u003d\u003e false,\n\n\n\n\n            \"file-size\" \u003d\u003e 1955L\n\n\n\n\n        }"}
{"key":"WFCORE-1572","title":"Suggestion list for argument value is not generated if the value contains a whitespace","description":"war --all-server-groups --headers\u003d{rollout id\u003dfoo}) and if user hits tab after the whitespace, suggestions are generated based on the command, rather than the current argument\u0027s name. {rollout id\u003dfoo}"}
{"key":"WFCORE-1864","title":"Whitespaces are not removed from dependencies in module add command","description":"Running module add --name\u003dfoo.bar --resources\u003dfoo.jar --dependencies\u003d[org.a, org.b ] will result in following dependencies in module.xml          {{\n...\n    \u003cdependencies\u003e\n        \u003cmodule name\u003d\"org.a\"/\u003e\n        \u003cmodule name\u003d\" org.b \"/\u003e\n    \u003c/dependencies\u003e\n...\n}}"}
{"key":"WFCORE-1570","title":"Saved rollout-plan \u0027name\u0027 or \u0027id\u0027 attribute discrepancy","description":"When using rollout plans for EAP deployment scenarios I can create my own named rollout-plan for ease of use.     see --name attribute given to name my rollout plan    see id attribute given to rollout header operation    group(rolling-to-servers\u003dfalse,max-failed-servers\u003d1) group(rolling-to-servers\u003dtrue,max-failure-percentage\u003d20)  {rollout id\u003dmy-rollout-plan}"}
