{"key":"CONFIGURATION-214","title":"Adding an integer and getting it as a long causes an exception","description":"Try this in a BeanShell:        The problem is that when an object in a property is not a Long, the only attempt of PropertyConverter.toLong() is that of treating it as a string."}
{"key":"CONFIGURATION-241","title":"clearProperty() does not generate events","description":"I am loading configuration information from multiple sources and have registered a listener with the resulting configuration object. Unfortunately the listener does not receive \"clear property\" events. I\u0027ve confirmed that it can properly receive other events (like \"set property\"), and that calls to \"clearProperty()\" do actually clear the property, so I believe this may be a bug in commons-configuration.  Below is a watered down version of what I am doing (note, my configuration file simply pulls in a property file containing this property: name.first\u003dMike):"}
{"key":"CONFIGURATION-259","title":"ConfigurationFactory Merge is broken","description":"I am trying to merge two Configuration using the ConfigurationFactory and the additional tag.  In particular, after creating a particular subset from a loaded configuration, the subset is empty.  So when initializing the configuration as follows, I get the following error:"}
{"key":"CONFIGURATION-332","title":"PropertiesConfiguration.save() doesn\u0027t persist properties added through a DataConfiguration","description":"The properties added through a DataConfiguration aren\u0027t persisted when the configuration is saved, but they can be queried normally.  The following test fails on the last assertion :"}
{"key":"CONFIGURATION-347","title":"Iterating over the keys of a file-based configuration can cause a ConcurrentModificationException","description":"Some implementations of FileConfiguration return an iterator in their getKeys() method that is directly connected to the underlying data store. When now a reload is performed (which can happen at any time) the data store is modified, and the iterator becomes invalid.  But even if the code performing the iteration is the only instance that accesses the configuration, the exception can be thrown."}
{"key":"CONFIGURATION-408","title":"When I save a URL as a property value, the forward slashes are getting escaped","description":"When I save a URL as a property value, the forward slashes are getting escaped.   Example Code :"}
{"key":"CONFIGURATION-481","title":"Variable interpolation across files broken in 1.7 \u0026 1.8","description":"With Commons Configuration 1.6, I was able to declare a variable in a properties file, and then reference it in a XML file using the ${myvar} syntax. For example:              When I try to retrieve the value, like so:    I get \"${myvar}-product\" instead of \"abc-product\"."}
{"key":"CONFIGURATION-627","title":"BeanHelper exception on XMLConfiguration builder.getConfiguration()","description":"Creating an XMLConfiguration from a file with a builder:            Causes a non-halting exception originating in org.apache.commons.configuration2.beanutils.BeanHelper, method private static boolean isPropertyWriteable(Object bean, String propName) with parameters XMLConfiguration, \"validating\". The exception:"}
