{"key":"SWARM-757","title":"javax.persistence.PersistenceException: [PersistenceUnit: primary] Unable to build Hibernate SessionFactory when using Infinispan as 2nd level cache for hibernate","description":"I am trying to enable Infinispan as a 2nd level cache for hibernate. As soon as I enable it, I get the following startup exception:"}
{"key":"SWARM-751","title":"WildFly Swarm System Properties swarm.https.port  and swarm.https.certificate.generate do not work","description":"I have configured System Properties swarm.https.port and swarm.https.certificate.generate , but they do not take effect. HTTP works fine without any problems, but HTTPS port does not work at all. Here\u0027s my Maven pom.xml"}
{"key":"SWARM-793","title":"Cannot add custom modules to WildFly Swarm using \u003cresource-root\u003e instead of \u003cartifact\u003e in the module.xml ","description":"Custom module \"oracle.jdbc\" (module.xml and JAR) copied into Uber-JAR\u0027s \"modules\\oracle\\jdbc\\main\" directory (there are also some default modules there - jboss, javax, etc) when module is configured like this:        JAR is copied to \"m2repo\\com\\hynnet\\oracle-driver-ojdbc6\\12.1.0.1\" directory of Uber-JAR and driver was successfully loaded. Looks like WFS adding to classpath only what is in \"m2repo\", but not the \"oracle\" module in \"modules\" directory."}
{"key":"SWARM-863","title":"Version 2016.11.0 doesn\u0027t stop properly (with custom main class)","description":"We are using a custom main class whose main method reacts on a single argument: \"start\" or \"stop\". Actually we are feeding that argument through Procrun (https://commons.apache.org/proper/commons-daemon/procrun.html). Inside that main class we hold a field  which we handle as following during startup:    The reaction on the \"stop\" signal is as easy as following:  We now have the problem that stopping such a Swarm service in version 2016.11.0 does not properly shutdown the Swarm container (or better the underlying `Server`). I did a debug session and found out that there remains one non-daemon thread blocking the JVM shutdown.  The shutdown is clean and fast.      1) Clone the github project and start a \"mvn package\" to produce the uber-jar, which is located in the \"swarm\" sub-module of that project. 2) Copy that uber-jar and both procrun executables (\"prunsrv.exe\" and \"prunmgr.exe\") into a test directory. For 64-bit OS\u0027s use the file \"amd64/prunsrv.exe\" (inside that procrun zip file). Rename the file \"prunsrv.exe\" to \"testing-wfs.exe\" and the file \"prunmgr.exe\" to \"testing-wfsw.exe\". 3) Install a Windows service by running the command \"testing-wfs.exe //IS\". Now this service can be configured by running the \"testing-wfsw.exe\" (a Windows GUI Tool for that purpose). 4) Configure the service as following:                 5) Now start the service. After a succesful start you can \"GET http://localhost:8080/hello\", which should result in a \"Hello World\" response. 6) The service has many threads running. See first attached screenshot. 7) Now stop the service. Windows will hang in that stopping attempt and spit out a failure message after some time. The process is still running afterwards. The log file shows some output that indeed a shutdown is initalized. The GET does not work anymore. 8) The service still has many threads (especially non-daemon threads). See second attached screenshot."}
{"key":"SWARM-485","title":"Using a JAX-RS provider that extends JacksonJaxbJsonProvider throws a  java.lang.NoClassDefFoundError Link Error","description":"A java.lang.NoClassDefFoundError Link Error is thrown when deploying a JAX-RS application with a custom provider that overrides com.fasterxml.jackson.jaxrs.json.JacksonJaxbJsonProvider"}
{"key":"SWARM-528","title":"swarm.http.port and swarm.port.offset do not work with @ArquillianResource URL baseURL","description":"If you set the swarm port using either swarm.http.port or swarm.port.offset via arquillian.xml e.g.        the arquillian swarm container is correctly started on the specified port/offset. The problem is that if you use:   to retrieve the url the swarm container is accessible via it always returns http://localhost:8080.  If you set the port property in arquillian.xml      it starts the swarm container on 8080 and   returns http://localhost:8081  Attempting to combine the port property and the offset does not work either e.g.         the port/offset is ignored and the container is started on 8080, while   returns http:localhost:8081 note: while the examples above use swarm.port.offset, the same issue occurs if you use swarm.http.port"}
{"key":"SWARM-486","title":"Can\u0027t load project-stages.yml on classpath with Arq","description":"problem project-stages. yml on classpath(src/main/resources) is not loaded with Arquillian tests. I attached the error log and the reproducer in \u0027Steps to Reproduce\u0027 section. Though -swarm try to load it, apparently can\u0027t see it when Arq tests."}
{"key":"SWARM-553","title":"Error with logging fraction when using PeriodicSizeRotatingFileHandler","description":"When using LoggingFraction and PeriodicSizeRotatingFileHandler it gives me the following error:     Here is my whole code:"}
