{"id":4848,"bug_id":"DATAMONGO-1288","text":"Update.inc(String, Number) method fails to work with AtomicInteger. Even though the org.springframework.data.mongodb.core.query.Update.inc(String, Number) method takes the parameter as Number, it doesn\u0027t actually work right with things that aren\u0027t simple primitive object wrappers. For example, if you pass in an AtomicInteger, the update fails to execute, as the generated json isn\u0027t correct.","file_goldset":["org.springframework.data.mongodb.core.convert.CustomConversions","org.springframework.data.mongodb.core.convert.MongoConverters","org.springframework.data.mongodb.core.convert.UpdateMapperUnitTests"],"creation_date":"2015-09-16T23:51:16.000-05:00","resolution_date":"2016-02-11T13:09:46.000-06:00"}
{"id":4849,"bug_id":"DATAMONGO-1406","text":"Query mapper does not use @Field field name when querying nested fields in combination with nested keywords. resolves the fields to the input query to the ones in the @Field annotations, except for these in embedded arrays. So, in the example above, resolution fields in DBObject remains resolution. While, the status field resolves to stat.    Which doesn\u0027t get any data, because there is no field called resolution (the field in mongo is res).   Notice the status and displays fields correctly get converted to the value in the @Field annotation.   This basically means that any queries that operate on fields (with a name different from the peristed name) in the inner list will fail.","file_goldset":["org.springframework.data.mongodb.core.convert.QueryMapper","org.springframework.data.mongodb.core.convert.QueryMapperUnitTests"],"creation_date":"2016-04-04T18:59:49.000-05:00","resolution_date":"2016-08-25T11:50:06.000-05:00"}
{"id":4850,"bug_id":"DATAMONGO-1307","text":"Stop converting user-defined runtime exceptions to NPEs. MongoTemplate has code like this in many places:  MongoExceptionTranslator, however, often does NOT return an exception. If it encounters an unknown exception it does this: // If we get here, we have an exception that resulted from user code, // rather than the persistence provider, so we return null to indicate // that translation should not occur. return null; MongoTemplate then \"eats\" the original exception and throws a null-pointer exception instead.","file_goldset":["org.springframework.data.mongodb.core.MongoTemplate"],"creation_date":"2015-10-20T12:33:45.000-05:00","resolution_date":"2015-10-20T17:24:35.000-05:00"}
