{"id":4710,"bug_id":"DATACMNS-594","text":"Strange generics behaviour for multiply nested generic types. Retrieving a Customer and navigate to ItemType will lead to a ClassCastException due the lost of generic type. But if we retrieve an Item and navigate to ItemType is ok.","file_goldset":["org.springframework.data.util.ClassTypeInformation","org.springframework.data.util.TypeDiscoverer","org.springframework.data.util.ClassTypeInformationUnitTests","org.springframework.data.util.GenericArrayTypeInformation","org.springframework.data.util.ParameterizedTypeInformation"],"creation_date":"2014-11-14T03:39:52.000-06:00","resolution_date":"2014-11-19T09:32:12.000-06:00"}
{"id":4711,"bug_id":"DATACMNS-609","text":"Multiple usage of repository setup means (XML or annotation) creates multiple bean definitions for RepositoryInterfaceAwareBeanPostProcessor. Apparently every time the tag jpa:repositories is used in XML files, a new instance of RepositoryInterfaceAwareBeanPostProcessor is created and registered with the bean factory. This is mainly a performance problem because predictBeanType()-method is then called N times for every relevant bean.","file_goldset":["org.springframework.data.repository.config.RepositoryConfigurationExtensionSupport","org.springframework.data.repository.config.RepositoryConfigurationExtensionSupportUnitTests"],"creation_date":"2014-11-30T07:31:51.000-06:00","resolution_date":"2014-12-01T01:35:19.000-06:00"}
{"id":4712,"bug_id":"DATACMNS-616","text":"AnnotationRevisionMetadata can\u0027t access private fields. triggers this error:","file_goldset":["org.springframework.data.util.AnnotationDetectionFieldCallback"],"creation_date":"2014-12-17T02:25:54.000-06:00","resolution_date":"2014-12-17T07:20:00.000-06:00"}
{"id":4713,"bug_id":"DATACMNS-590","text":"Bug in generics detection for multiply nested generic types. It fails guess the concrete class of a two level embedded document in a concrete scenario using abstract class with generics.","file_goldset":["org.springframework.data.util.ClassTypeInformation","org.springframework.data.util.ParentTypeAwareTypeInformation","org.springframework.data.util.TypeDiscoverer","org.springframework.data.util.TypeDiscovererUnitTests","org.springframework.data.util.ParameterizedTypeUnitTests","org.springframework.data.util.TypeVariableTypeInformation","org.springframework.data.util.ClassTypeInformationUnitTests","org.springframework.data.util.ParameterizedTypeInformation","org.springframework.data.util.GenericArrayTypeInformation"],"creation_date":"2014-11-05T10:29:49.000-06:00","resolution_date":"2014-11-14T00:51:49.000-06:00"}
