{"id":4799,"bug_id":"DATAMONGO-430","text":"Query criteria is not considered in the query. When I perform a query that includes more than one criteria, only the first criteria is being considered, others are discarded.","file_goldset":["org.springframework.data.mongodb.core.QueryMapper","org.springframework.data.mongodb.core.query.QueryMapperUnitTests"],"creation_date":"2012-04-10T03:35:56.000-05:00","resolution_date":"2012-04-10T07:38:52.000-05:00"}
{"id":4800,"bug_id":"DATAMONGO-315","text":"MongoTemplate.findOne(query) methods ignore SortOrder on query. This does not sort the results before returning the first item. Looking at the code, it doesn\u0027t even call query.getSortOrder().","file_goldset":["org.springframework.data.mongodb.core.MongoTemplateTests","org.springframework.data.mongodb.core.MongoTemplate"],"creation_date":"2011-11-09T10:21:33.000-06:00","resolution_date":"2011-11-14T20:30:06.000-06:00"}
{"id":4801,"bug_id":"DATAMONGO-321","text":"An ID field of type integer is always saved as zero if not set by the user before calling save.  Throw exception to indicate an int field will not be autopopulated.. int id is saved as string.","file_goldset":["org.springframework.data.mongodb.core.convert.AbstractMongoConverter","org.springframework.data.mongodb.core.convert.MappingMongoConverterUnitTests","org.springframework.data.mongodb.core.QueryMapper","org.springframework.data.mongodb.core.convert.CustomConversions","org.springframework.data.mongodb.core.query.QueryMapperUnitTests","org.springframework.data.mongodb.core.convert.MappingMongoConverter"],"creation_date":"2011-11-17T01:53:43.000-06:00","resolution_date":"2011-12-01T08:54:08.000-06:00"}
{"id":4802,"bug_id":"DATAMONGO-322","text":"Throw exception in a save operation if the POJO\u0027s ID field is null and field type is not String, BigInteger or ObjectId.. findById with int type id returns null.","file_goldset":["org.springframework.data.mongodb.repository.support.MongoRepositoryFactory","org.springframework.data.mongodb.repository.support.MongoRepositoryFactoryUnitTests","org.springframework.data.mongodb.core.MongoTemplateUnitTests","org.springframework.data.mongodb.core.MongoTemplate","org.springframework.data.mongodb.core.mapping.MongoSimpleTypes"],"creation_date":"2011-11-17T01:56:47.000-06:00","resolution_date":"2011-12-06T10:44:13.000-06:00"}
{"id":4803,"bug_id":"DATAMONGO-260","text":"MapReduce fails when using with Long as key-type.. MapReduce will fail calling emit with Long as key-type.                    then it tries to convert _id to objectid which fails:","file_goldset":["org.springframework.data.mongodb.core.convert.AbstractMongoConverter","org.springframework.data.mongodb.core.mapreduce.MapReduceTests"],"creation_date":"2011-09-05T01:06:36.000-05:00","resolution_date":"2011-12-21T23:35:41.000-06:00"}
{"id":4804,"bug_id":"DATAMONGO-392","text":"Updating an object does not write type information for objects to be updated. I used 1.0.0. M5 version, and the type information (under _class key) was stored with object when it was necessary to be able to read it from database later.  RELEASE version that broke my application as it saves the objects without type information and later it is impossible to read it back to java model. What I found is that MappingMongoConverter.writeInternal(...) method that in turn calls addCustomTypeIfNecessary(...) (line 330) which puts type information into DBObject. During execution of convertToMongoType(...) (at line 851) removeTypeInfoRecursively(...) is called which clears type data saved earlier under _class key.","file_goldset":["org.springframework.data.mongodb.core.MongoTemplateTests","org.springframework.data.mongodb.core.MongoTemplate"],"creation_date":"2012-02-07T04:28:15.000-06:00","resolution_date":"2013-07-08T06:13:48.000-05:00"}
{"id":4805,"bug_id":"DATAMONGO-387","text":"Executing query methods with GeoPage results doesn\u0027t work. When using GeoPage as return value for repository query methods we run into a ClassCastException.","file_goldset":["org.springframework.data.mongodb.repository.query.AbstractMongoQuery","org.springframework.data.mongodb.repository.query.MongoQueryCreator","org.springframework.data.mongodb.repository.AbstractPersonRepositoryIntegrationTests","org.springframework.data.mongodb.repository.query.PartTreeMongoQuery","org.springframework.data.mongodb.repository.PersonRepository"],"creation_date":"2012-02-01T05:16:08.000-06:00","resolution_date":"2012-02-01T05:46:00.000-06:00"}
{"id":4806,"bug_id":"DATAMONGO-385","text":"MongoRepositoryFactory does not support id classes of type java.lang.Long. It is not possible to use a MongoRepository with Long id class:","file_goldset":["org.springframework.data.mongodb.repository.support.MongoRepositoryFactoryUnitTests"],"creation_date":"2012-01-26T05:13:31.000-06:00","resolution_date":"2012-02-02T01:41:00.000-06:00"}
{"id":4807,"bug_id":"DATAMONGO-398","text":"Fails to store org.osgi.service.event.Event. When I attempt to save an object from org.apache.felix\u0027s versions of org.osgi.service.event.Event, the stack trace below occurs. This appears to be due to the system attempting to save the topic field in Event as event.topics.","file_goldset":["org.springframework.data.mongodb.core.convert.MappingMongoConverterUnitTests","org.springframework.data.mongodb.core.convert.MappingMongoConverter"],"creation_date":"2012-02-10T07:11:53.000-06:00","resolution_date":"2012-02-10T07:22:05.000-06:00"}
