{"id":5152,"bug_id":"WFCORE-1309","text":"Applying patch - \"no space available\" not specific enough. Patch apply can fail if there is not enough free space, however the message does not indicate what device does not have any free space.  Patch apply uses tmp space and if there is not enough tmp space it will fail with this message as well.","file_goldset":["org.jboss.as.patching.runner.PatchToolImpl","org.jboss.as.patching.IoUtils","org.jboss.as.patching.logging.PatchLogger"],"creation_date":"2016-01-19T13:43:54.000-06:00","resolution_date":"2016-02-03T08:13:21.000-06:00"}
{"id":5153,"bug_id":"WFCORE-1333","text":"Editing of default deployment scanner\u0027s relative-to attribute can cause server crash. Setting value of relative-to attribute of default deployment scanner on standalone server to a path which does not exists in file system causes server crash.","file_goldset":["org.jboss.as.server.deployment.scanner.DeploymentScannerDefinition","org.jboss.as.server.deployment.scanner.logging.DeploymentScannerLogger"],"creation_date":"2016-01-27T03:12:39.000-06:00","resolution_date":"2016-04-07T00:21:18.000-05:00"}
{"id":5154,"bug_id":"WFCORE-1311","text":"WFCORE-893 Fix breaks mixed-domain. The WFCORE-893 fix breaks mixed-domain use cases by adding subsystem\u003dio if its not present. That\u0027s ok for standalone, but in a domain it means a subsystem not understood by legacy slaves will get added into profiles used by those slaves. Which will fail.","file_goldset":["org.jboss.as.remoting.RemotingExtension"],"creation_date":"2016-01-19T22:40:20.000-06:00","resolution_date":"2016-01-27T19:40:41.000-06:00"}
