{"key":"SOLR-5107","title":"LukeRequestHandler throws NullPointerException when numTerms\u003d0","description":"{code}\n {code}"}
{"key":"SOLR-5295","title":"The createshard collection API creates maxShardsPerNode number of replicas if replicationFactor is not specified","description":"Now I add shard4 and it immediately tries to add 1000 replicas of shard4...  {quote}\n {quote}"}
{"key":"SOLR-5296","title":"Creating a collection with implicit router adds shard ranges to each shard","description":"Creating a collection with implicit router adds shard ranges to each shard.   The following clusterstate is created:                                       Note that the createshard API does the right thing. {quote}\n {quote}"}
