{"id":1,"bug_id":"1671","text":"1 start argouml 0.13.2 2 create a class and name it \u0027A\u0027 3 create an attr \u0027newAttr\u0027 by doubleclicking in the attr compartment 4 create an oper by doubleclicking in the attr compartment 5 save project as \u0027test.zargo\u0027 6 make a copy of test.zargo 7 make new project (important!) 8 open test.zargo 9 save","class_goldset":["org.argouml.kernel.Project","org.argouml.kernel.TestProject"],"file_goldset":["org.argouml.kernel.Project","org.argouml.kernel.TestProject"],"creation_date":"2003-02-26 02:12:06","resolution_date":"2006-06-24 05:54:34"}
{"id":2,"bug_id":"1884","text":"Open any of the poster groups. Select one of the todo items.","class_goldset":["org.argouml.cognitive.ui.ToDoByOffender","org.argouml.cognitive.ui.ToDoByPoster"],"file_goldset":["org.argouml.cognitive.ui.ToDoByOffender","org.argouml.cognitive.ui.ToDoByPoster"],"creation_date":"2003-05-15 02:43:05","resolution_date":"2006-07-09 12:30:20"}
{"id":8,"bug_id":"2618","text":"When I first create an association I see + and +, one for each role. If I double click on a \"+\" and type in a role name \"foo\", I now see \"++foo\", and the role name property is recorded as \"+foo\".","class_goldset":["org.argouml.uml.diagram.ui.FigAssociation","org.argouml.uml.notation.AssociationRoleNotation","org.argouml.uml.notation.uml.AssociationRoleNotationUml","org.argouml.uml.notation.uml.InitNotationUml","org.argouml.uml.notation.uml.NotationUtilityUml"],"file_goldset":["org.argouml.uml.diagram.ui.FigAssociation","org.argouml.uml.notation.AssociationRoleNotation","org.argouml.uml.notation.uml.AssociationRoleNotationUml","org.argouml.uml.notation.uml.InitNotationUml","org.argouml.uml.notation.uml.NotationUtilityUml"],"creation_date":"2004-05-21 11:07:40","resolution_date":"2006-05-06 06:20:23"}
{"id":9,"bug_id":"3100","text":"After adding a new package, the package is shown in the explorer with a funny \nname: \"(anon Package)\" or \"(anon Class)\".","class_goldset":["org.argouml.ui.DisplayTextTree","org.argouml.uml.ui.UMLListCellRenderer2"],"file_goldset":["org.argouml.ui.DisplayTextTree","org.argouml.uml.ui.UMLListCellRenderer2"],"creation_date":"2005-02-22 00:28:44","resolution_date":"2006-03-23 07:25:40"}
{"id":11,"bug_id":"3619","text":"Adding a Class with an Association to itself to a Class diagram creates an\ninvisible edge (with a very helpful critic note attached saying it should be\nmade more visible).","class_goldset":["org.argouml.uml.diagram.ui.FigAssociation"],"file_goldset":["org.argouml.uml.diagram.ui.FigAssociation"],"creation_date":"2005-10-29 13:06:55","resolution_date":"2006-07-20 09:58:12"}
{"id":13,"bug_id":"3665","text":"Create a Use Case in a Use Case Diagram\nCreate an Activity Diagram in the Use Case\nCreate a 2nd Activity Diagram in the same Use Case\nCreate a Start state in the Activity Diagram\nSelect the 1st Activity Diagram\nFrom the Explorer pane, drag the Start node contained by the 2nd Activity Graph\nonto the Diagram pane (which now contains the 1st Activity Graph)","class_goldset":["org.argouml.uml.diagram.state.StateDiagramGraphModel"],"file_goldset":["org.argouml.uml.diagram.state.StateDiagramGraphModel"],"creation_date":"2005-11-07 10:38:48","resolution_date":"2006-02-24 13:59:03"}
{"id":14,"bug_id":"3711","text":"tried loading an XMI formatted file that was created with poseidon UML and\nreceived the following beauty.","class_goldset":["org.argouml.persistence.XMIParser","org.argouml.ui.SettingsTabPreferences"],"file_goldset":["org.argouml.persistence.XMIParser","org.argouml.ui.SettingsTabPreferences"],"creation_date":"2005-11-16 11:53:59","resolution_date":"2006-02-27 23:23:02"}
{"id":15,"bug_id":"3774","text":"To repeat:\nStart argouml. Drag the created defaultmodel into the class diagram.","class_goldset":["org.argouml.uml.diagram.static_structure.ClassDiagramGraphModel"],"file_goldset":["org.argouml.uml.diagram.static_structure.ClassDiagramGraphModel"],"creation_date":"2005-12-03 06:33:15","resolution_date":"2006-02-24 07:30:35"}
{"id":16,"bug_id":"3790","text":"To reproduce the error:\n1 Open a zargo-File (I tried to open a zargo-file created under 0.20. alpha3) \n2 Try to save it after performing some changes.","class_goldset":["org.argouml.ui.ProjectBrowser"],"file_goldset":["org.argouml.ui.ProjectBrowser"],"creation_date":"2005-12-14 05:37:52","resolution_date":"2006-07-07 10:46:42"}
{"id":17,"bug_id":"3803","text":"For instance, in a statechart, select a previously unselected transition. Now \nthe first character that you type will be doubled in the text field.","class_goldset":["org.argouml.uml.diagram.ui.FigNodeModelElement"],"file_goldset":["org.argouml.uml.diagram.ui.FigNodeModelElement"],"creation_date":"2005-12-15 17:25:48","resolution_date":"2006-02-12 07:57:36"}
{"id":18,"bug_id":"3812","text":"When I open my recent project, I got this error :","class_goldset":["org.argouml.persistence.PGMLStackParser"],"file_goldset":["org.argouml.persistence.PGMLStackParser"],"creation_date":"2005-12-17 05:02:42","resolution_date":"2006-05-04 15:53:27"}
{"id":19,"bug_id":"3882","text":"When I create a transition in a activity diagram, it doesn\u0027t refresh the name \nof the transition at the hierarchical selection tree.","class_goldset":["org.argouml.ui.DisplayTextTree"],"file_goldset":["org.argouml.ui.DisplayTextTree"],"creation_date":"2006-01-24 09:28:35","resolution_date":"2006-03-23 09:31:13"}
{"id":20,"bug_id":"3923","text":"1) Import an XMI from Poseidon, which works well with AndroMDA (the PiggyBank example).  2) If I add my activity diagram under the use case diagram I always get a new activity graph, so I have 2 activity graphs alltogether.      3) This code, which works with Poseidon, won\u0027t work with ArgoUML:        4) Importing the activity diagram from Poseidon works and the result can be processed by AndroMDA but if you are making the activity diagram from the beginning with ArgoUML, it won\u0027t work because of the error above","class_goldset":["org.argouml.persistence.XMIParser"],"file_goldset":["org.argouml.persistence.XMIParser"],"creation_date":"2006-02-07 13:17:48","resolution_date":"2006-02-18 15:14:56"}
{"id":21,"bug_id":"3945","text":"1 Start ArgoUML. 2 Draw a class. 3 Create an operation for the class. 4 Select the class, and create a statechart diagram. 5 Create 2 states and a transition. 6 Rightclick the trigger fiels of the transition and create a new callevent. 7 Create a parameter for this callevent. 8 Set the type of the parameter to int and the initial value to 1, and give it a name. 9 Navigate to the callevent, and select the \"newOperation\" from the dropdown. Bang:","class_goldset":["org.argouml.uml.ui.behavior.state_machines.UMLCallEventOperationComboBox2"],"file_goldset":["org.argouml.uml.ui.behavior.state_machines.UMLCallEventOperationComboBox2"],"creation_date":"2006-02-13 04:04:40","resolution_date":"2006-02-20 04:42:37"}
{"id":22,"bug_id":"3947","text":"I have created a sequence diagram for an use case. I have added to it some \nclassified roles and some callings and returns, in one of the returns of a \ncall the \u0027activity\u0027 doens\u0027t finish at the point of the return and this causes \nthat I can\u0027t insert new call at the lane. When I reload the seuqence diagram \nto check if the problem persist the white rectangle that indicates the \nduration of the call doesn\u0027t appear in any lane for any call and is imposible \nto add new calls.","class_goldset":["org.argouml.model.mdr.CommonBehaviorFactoryMDRImpl"],"file_goldset":["org.argouml.model.mdr.CommonBehaviorFactoryMDRImpl"],"creation_date":"2006-02-13 08:19:43","resolution_date":"2006-06-04 13:26:18"}
{"id":23,"bug_id":"3974","text":"If I change the name of a method or property in a class diagrams, it won\u0027t be\nupdated until I reload the diagram, or add a parameter. The same thing happens\nif I change the visibility or modifier (static for example) of a method or property.","class_goldset":["org.argouml.uml.diagram.static_structure.ui.FigClass"],"file_goldset":["org.argouml.uml.diagram.static_structure.ui.FigClass"],"creation_date":"2006-02-19 03:58:40","resolution_date":"2006-02-19 11:47:21"}
{"id":25,"bug_id":"4031","text":"Open the ArgoUML compatible (single file version) AndroMDA profile and look for the TagDefinition @andromda. hibernate.generator.class which is owned by the stereotype \u003c\u003cEntity\u003e\u003e.","class_goldset":["org.argouml.model.AbstractExtensionMechanismsHelperDecorator","org.argouml.model.mdr.DataTypesHelperMDRImpl","org.argouml.model.mdr.ExtensionMechanismsHelperMDRImpl","org.argouml.model.mdr.FacadeMDRImpl","org.argouml.uml.reveng.java.Modeller","org.argouml.uml.ui.foundation.extension_mechanisms.PropPanelTagDefinition","org.argouml.uml.ui.foundation.extension_mechanisms.PropPanelTaggedValue","org.argouml.uml.ui.foundation.extension_mechanisms.PropPanelTaggedValue.ActionSetTaggedValueModelElement","org.argouml.uml.ui.foundation.extension_mechanisms.PropPanelTaggedValue.ActionSetTaggedValueType","org.argouml.uml.ui.foundation.extension_mechanisms.PropPanelTaggedValue.UMLDataValueListModel","org.argouml.uml.ui.foundation.extension_mechanisms.PropPanelTaggedValue.UMLReferenceValueListModel","org.argouml.uml.ui.foundation.extension_mechanisms.PropPanelTaggedValue.UMLTaggedValueModelElementComboBoxModel","org.argouml.uml.ui.foundation.extension_mechanisms.PropPanelTaggedValue.UMLTaggedValueTypeComboBoxModel","org.argouml.uml.ui.foundation.extension_mechanisms.UMLStereotypeTagDefinitionListModel","org.argouml.uml.ui.foundation.extension_mechanisms.UMLTagDefinitionOwnerComboBoxModel"],"file_goldset":["org.argouml.model.AbstractExtensionMechanismsHelperDecorator","org.argouml.model.mdr.DataTypesHelperMDRImpl","org.argouml.model.mdr.ExtensionMechanismsHelperMDRImpl","org.argouml.model.mdr.FacadeMDRImpl","org.argouml.uml.reveng.java.Modeller","org.argouml.uml.ui.foundation.extension_mechanisms.PropPanelTagDefinition","org.argouml.uml.ui.foundation.extension_mechanisms.PropPanelTaggedValue","org.argouml.uml.ui.foundation.extension_mechanisms.PropPanelTaggedValue.ActionSetTaggedValueModelElement","org.argouml.uml.ui.foundation.extension_mechanisms.PropPanelTaggedValue.ActionSetTaggedValueType","org.argouml.uml.ui.foundation.extension_mechanisms.PropPanelTaggedValue.UMLDataValueListModel","org.argouml.uml.ui.foundation.extension_mechanisms.PropPanelTaggedValue.UMLReferenceValueListModel","org.argouml.uml.ui.foundation.extension_mechanisms.PropPanelTaggedValue.UMLTaggedValueModelElementComboBoxModel","org.argouml.uml.ui.foundation.extension_mechanisms.PropPanelTaggedValue.UMLTaggedValueTypeComboBoxModel","org.argouml.uml.ui.foundation.extension_mechanisms.UMLStereotypeTagDefinitionListModel","org.argouml.uml.ui.foundation.extension_mechanisms.UMLTagDefinitionOwnerComboBoxModel"],"creation_date":"2006-03-03 09:18:11"}
{"id":26,"bug_id":"4037","text":"I have made a simple diagram with one association that triggers this behavior. Look at the \"Redraw Problem Demonstrated\" class diagram. If you open the context menu on the Association and choose\n\"Navigability/bidirectional\" the constant repainting stops.","class_goldset":["org.argouml.uml.diagram.ui.FigAssociation"],"file_goldset":["org.argouml.uml.diagram.ui.FigAssociation"],"creation_date":"2006-03-06 11:33:42","resolution_date":"2006-03-07 09:29:52"}
{"id":27,"bug_id":"4043","text":"Make a state chart. Name the states in it. Save it. Load it. The state names are\nno longer displayed.","class_goldset":["org.argouml.uml.diagram.state.ui.FigState"],"file_goldset":["org.argouml.uml.diagram.state.ui.FigState"],"creation_date":"2006-03-07 11:05:10","resolution_date":"2006-03-07 14:02:19"}
{"id":28,"bug_id":"4049","text":"Updating the role phrase of an association on a diagram does not update the connections pane. Changing the role phrase of an association end does not change the connections\npanel until you change tabs and back again.","class_goldset":["org.argouml.uml.ui.UMLModelElementListModel2","org.argouml.uml.ui.foundation.core.UMLAssociationConnectionListModel"],"file_goldset":["org.argouml.uml.ui.UMLModelElementListModel2","org.argouml.uml.ui.foundation.core.UMLAssociationConnectionListModel"],"creation_date":"2006-03-08 11:50:37","resolution_date":"2006-03-09 09:22:55"}
{"id":29,"bug_id":"4085","text":"An IllegalArgumentException is thrown when you select from the Deferrable Events\npane of the Action State property panel when you choose Select -\u003e Add... from\nthe context (popup) menu.","class_goldset":["org.argouml.uml.ui.behavior.state_machines.PopupMenuNewEvent"],"file_goldset":["org.argouml.uml.ui.behavior.state_machines.PopupMenuNewEvent"],"creation_date":"2006-03-13 10:43:14","resolution_date":"2006-03-13 12:21:39"}
{"id":30,"bug_id":"4100","text":"1 Draw 2 classes with a Generalization between them. 2 Show the proppanel of the Generalization. 3 Delete from model the parent class.","class_goldset":["org.argouml.ui.explorer.NameOrder"],"file_goldset":["org.argouml.ui.explorer.NameOrder"],"creation_date":"2006-03-18 07:33:41","resolution_date":"2006-05-09 11:36:42"}
{"id":31,"bug_id":"4103","text":"1 Create a statechart diagram.with 2 states and a transition. 2 Make the transition visible in the explorer. 3 Delete one of the states.","class_goldset":["org.argouml.ui.DisplayTextTree"],"file_goldset":["org.argouml.ui.DisplayTextTree"],"creation_date":"2006-03-19 08:42:23","resolution_date":"2006-05-09 10:52:04"}
{"id":33,"bug_id":"4155","text":"If you create a new project and then select File-\u003eSave and specify an existing\nfilename, the file will be overwritten without any warning or confirmation.","class_goldset":["org.argouml.uml.ui.ActionSaveProject"],"file_goldset":["org.argouml.uml.ui.ActionSaveProject"],"creation_date":"2006-04-10 17:03:04","resolution_date":"2006-06-16 14:07:31"}
{"id":35,"bug_id":"4181","text":"When you try, the edge does not attach, and you get the following exception:","class_goldset":["org.argouml.uml.diagram.static_structure.ui.ClassDiagramRenderer"],"file_goldset":["org.argouml.uml.diagram.static_structure.ui.ClassDiagramRenderer"],"creation_date":"2006-04-24 13:50:20","resolution_date":"2006-07-17 16:09:33"}
{"id":37,"bug_id":"4200","text":"That is how you can get the defect: stand on the main Model folder; right mouse click and choose from droped meniu \"Add Package\";  rename the package; there are some diagrams below, so i jus drag them one by one using right mouse button and releasing over the package;","class_goldset":["org.argouml.ui.explorer.PerspectiveManager","org.argouml.ui.explorer.rules.GoModelElementToBehavior"],"file_goldset":["org.argouml.ui.explorer.PerspectiveManager","org.argouml.ui.explorer.rules.GoModelElementToBehavior"],"creation_date":"2006-05-11 23:30:25","resolution_date":"2006-06-19 10:23:30"}
{"id":38,"bug_id":"4222","text":"1 Create a new class 2 Create new operation in the class 3 Add argument (set the name of the argument)","class_goldset":["org.argouml.uml.ui.UMLComboBoxModel2","org.argouml.uml.ui.foundation.core.UMLStructuralFeatureTypeComboBoxModel"],"file_goldset":["org.argouml.uml.ui.UMLComboBoxModel2","org.argouml.uml.ui.foundation.core.UMLStructuralFeatureTypeComboBoxModel"],"creation_date":"2006-05-23 06:06:10","resolution_date":"2006-06-14 18:47:31"}
{"id":40,"bug_id":"4245","text":"I get the following exception the first time a sequence diagram is created.","class_goldset":["org.argouml.uml.diagram.ui.TabDiagram"],"file_goldset":["org.argouml.uml.diagram.ui.TabDiagram"],"creation_date":"2006-06-04 13:09:07","resolution_date":"2006-06-14 08:00:05"}
{"id":41,"bug_id":"4272","text":"1 Draw 2 Classes. 2 Draw an association between them. 3 Delete from model the association. 4 Again, draw an association between these classes. 5 Click on the Checklist tab. 6 Minimize the ArgoUML window. 7 Show the screen again.","class_goldset":["org.argouml.uml.cognitive.checklist.UMLCheckItem"],"file_goldset":["org.argouml.uml.cognitive.checklist.UMLCheckItem"],"creation_date":"2006-06-14 11:56:08","resolution_date":"2006-06-15 12:40:59"}
{"id":42,"bug_id":"4276","text":"1 Draw 2 classes. 2 Select them both. 3 Delete from Model (in the menu, or by rightclicking).","class_goldset":["org.argouml.uml.ui.ActionDeleteModelElements"],"file_goldset":["org.argouml.uml.ui.ActionDeleteModelElements"],"creation_date":"2006-06-15 08:47:25","resolution_date":"2006-06-17 14:08:45"}
{"id":43,"bug_id":"4279","text":"I had a project loaded and cleared it using File-\u003eNew, then tried to load a new\nproject and got the following exception.","class_goldset":["org.argouml.uml.notation.java.AssociationEndNameNotationJava","org.argouml.uml.notation.java.InitNotationJava"],"file_goldset":["org.argouml.uml.notation.java.AssociationEndNameNotationJava","org.argouml.uml.notation.java.InitNotationJava"],"creation_date":"2006-06-16 10:38:30","resolution_date":"2006-06-17 11:08:23"}
{"id":44,"bug_id":"4281","text":"If you currently delete an operation, then its StateMachine and\nStatechartDiagram are deleted too.","class_goldset":["org.argouml.kernel.TestProject","org.argouml.model.mdr.CoreFactoryMDRImpl","org.argouml.uml.ui.ActionDeleteModelElements"],"file_goldset":["org.argouml.kernel.TestProject","org.argouml.model.mdr.CoreFactoryMDRImpl","org.argouml.uml.ui.ActionDeleteModelElements"],"creation_date":"2006-06-17 13:52:25","resolution_date":"2006-07-06 13:47:20"}
{"id":45,"bug_id":"4324","text":"- Create a new project, add a component, save it with name \"foo\" and extension \". uml\" - Now, do some changes, and resave the project.    If I press \"save\", I get a foo.uml.zargo file.","class_goldset":["org.argouml.persistence.PersistenceManager","org.argouml.persistence.TestPersistenceManager","org.argouml.ui.ProjectBrowser"],"file_goldset":["org.argouml.persistence.PersistenceManager","org.argouml.persistence.TestPersistenceManager","org.argouml.ui.ProjectBrowser"],"creation_date":"2006-07-08 02:30:22","resolution_date":"2006-07-13 12:38:07"}
{"id":46,"bug_id":"4330","text":"Steps to reproduce: - select an active critic from the ToDoPane - press the \"send email to expert\" button","class_goldset":["org.argouml.cognitive.ui.TabToDo"],"file_goldset":["org.argouml.cognitive.ui.TabToDo"],"creation_date":"2006-07-11 06:48:26","resolution_date":"2006-07-15 05:27:05"}
{"id":47,"bug_id":"4342","text":"When an item is removed using \"Delete from model\" the \"Save Project\" entry in\nthe \"File\" menu is not enabled.","class_goldset":["org.argouml.model.mdr.UmlFactoryMDRImpl"],"file_goldset":["org.argouml.model.mdr.UmlFactoryMDRImpl"],"creation_date":"2006-07-13 16:17:34","resolution_date":"2006-07-18 14:12:40"}
{"id":48,"bug_id":"4349","text":"1 Delete all the transiton associted with the action state you want to delete. 2 Delete the action state.","class_goldset":["org.argouml.uml.diagram.activity.ui.FigActionState","org.argouml.uml.diagram.activity.ui.FigCallState","org.argouml.uml.diagram.activity.ui.FigObjectFlowState","org.argouml.uml.diagram.collaboration.ui.FigClassifierRole","org.argouml.uml.diagram.sequence.ui.FigClassifierRole","org.argouml.uml.diagram.state.ui.FigSubmachineState"],"file_goldset":["org.argouml.uml.diagram.activity.ui.FigActionState","org.argouml.uml.diagram.activity.ui.FigCallState","org.argouml.uml.diagram.activity.ui.FigObjectFlowState","org.argouml.uml.diagram.collaboration.ui.FigClassifierRole","org.argouml.uml.diagram.sequence.ui.FigClassifierRole","org.argouml.uml.diagram.state.ui.FigSubmachineState"],"creation_date":"2006-07-15 12:49:43","resolution_date":"2006-07-16 10:28:14"}
{"id":50,"bug_id":"4362","text":"Place 2 collaborations and draw a generalization between them, an exception is\nthrown.","class_goldset":["org.argouml.uml.diagram.collaboration.ui.CollabDiagramRenderer"],"file_goldset":["org.argouml.uml.diagram.collaboration.ui.CollabDiagramRenderer"],"creation_date":"2006-07-18 12:07:56","resolution_date":"2006-07-18 13:17:38"}
{"id":51,"bug_id":"4364","text":"1 Start ArgoUML 2 Place 2 classes and association them 3 Drag the association from explorer onto diagram","class_goldset":["org.argouml.uml.diagram.collaboration.CollabDiagramGraphModel","org.argouml.uml.diagram.deployment.DeploymentDiagramGraphModel","org.argouml.uml.diagram.static_structure.ClassDiagramGraphModel","org.argouml.uml.diagram.use_case.UseCaseDiagramGraphModel"],"file_goldset":["org.argouml.uml.diagram.collaboration.CollabDiagramGraphModel","org.argouml.uml.diagram.deployment.DeploymentDiagramGraphModel","org.argouml.uml.diagram.static_structure.ClassDiagramGraphModel","org.argouml.uml.diagram.use_case.UseCaseDiagramGraphModel"],"creation_date":"2006-07-18 15:30:05","resolution_date":"2006-07-19 17:09:59"}
{"id":52,"bug_id":"4367","text":"steps: 1 - create a *new file* 2 - create a sequence diagram 3 - create 2 classifier roles 4 - create new call action from 1st to 2nd 5 - create new call action from 2nd to it self 6 - assign a name to calls 7 - select call action in step 5 8 - Right click and select delete from model  9 - Save \u0026 get a report (0.22b2 only)","class_goldset":["org.argouml.uml.diagram.sequence.ui.FigClassifierRole","org.argouml.uml.diagram.sequence.ui.SequenceDiagramLayer"],"file_goldset":["org.argouml.uml.diagram.sequence.ui.FigClassifierRole","org.argouml.uml.diagram.sequence.ui.SequenceDiagramLayer"],"creation_date":"2006-07-19 19:00:56","resolution_date":"2006-07-25 16:26:21"}
