{"id":218,"bug_id":"MAHOUT-1285","text":"Have successfully loaded numerous ARFF files with Mahout (originally generated via WEKA).","class_goldset":["integration.src.main.java.org.apache.mahout.utils.vectors.arff.ARFFVectorIterable","integration.src.main.java.org.apache.mahout.utils.vectors.arff.MapBackedARFFModel"],"file_goldset":["integration.src.main.java.org.apache.mahout.utils.vectors.arff.ARFFVectorIterable","integration.src.main.java.org.apache.mahout.utils.vectors.arff.MapBackedARFFModel"],"creation_date":"2013-07-15T21:31:28.000+0000","resolution_date":"2013-11-29T19:06:34.000+0000"}
{"id":219,"bug_id":"MAHOUT-1314","text":"StreamingKMeansReducer throws NullPointerException when REDUCE_STREAMING_KMEANS is set to true. when REDUCE_STREAMING_KMEANS option is set to true (-rskm) the reducer fails with NullPointerException.                  it happens every time the REDUCE_STREAMING_KMEANS is set to true.","class_goldset":["core.src.main.java.org.apache.mahout.clustering.streaming.mapreduce.StreamingKMeansReducer"],"file_goldset":["core.src.main.java.org.apache.mahout.clustering.streaming.mapreduce.StreamingKMeansReducer"],"creation_date":"2013-08-18T14:07:48.000+0000","resolution_date":"2013-11-18T07:53:51.000+0000"}
{"id":224,"bug_id":"MAHOUT-1349","text":"I hashed the features with max size 5M (because I didn\u0027t know how many\nfeatures were in the dataset and wanted to minimize collisions). The kmeans ran fine and generate sensible looking results, but when I tried\nto run ClusterDumper I got the following error:","class_goldset":["integration.src.main.java.org.apache.mahout.utils.vectors.VectorHelper"],"file_goldset":["integration.src.main.java.org.apache.mahout.utils.vectors.VectorHelper"],"creation_date":"2013-11-01T12:59:17.000+0000","resolution_date":"2013-12-08T23:35:34.000+0000"}
{"id":225,"bug_id":"MAHOUT-1358","text":"StreamingKMeansThread throws IllegalArgumentException when REDUCE_STREAMING_KMEANS is set to true. Running StreamingKMeans Clustering with REDUCE_STREAMING_KMEANS \u003d true and when no estimatedDistanceCutoff is specified, throws the following error               The issue is caused by the following code in StreamingKMeansThread.call()","class_goldset":["core.src.main.java.org.apache.mahout.clustering.streaming.mapreduce.StreamingKMeansThread"],"file_goldset":["core.src.main.java.org.apache.mahout.clustering.streaming.mapreduce.StreamingKMeansThread"],"creation_date":"2013-11-18T07:58:22.000+0000","resolution_date":"2013-11-18T17:55:25.000+0000"}
