{"id":2,"bug_id":"LANG-292","text":"unescapeXml(\"\u002612345678;\") should be \"\u002612345678;\". Following test (in EntitiesTest.java) fails:","class_goldset":["org.apache.commons.lang.Entities"],"method_goldset":["org.apache.commons.lang.Entities:unescape(String)","org.apache.commons.lang.Entities:unescape(Writer, String)"],"creation_date":"2006-10-31 01:45:01","resolution_date":"2006-10-31 21:34:31"}
{"id":4,"bug_id":"LANG-300","text":"NumberUtils.createNumber throws NumberFormatException for one digit long. NumberUtils.createNumber throws a NumberFormatException when parsing \"1l\", \"2l\" . . etc.. . It works fine if you try to parse \"01l\" or \"02l\". The condition isDigits(numeric.substring(1)), line 455 return false as numeric.substring(1) is an empty string for \"1l\"","class_goldset":["org.apache.commons.lang.math.NumberUtils"],"method_goldset":["org.apache.commons.lang.math.NumberUtils:createNumber(String)"],"creation_date":"2006-12-19 17:47:43","resolution_date":"2006-12-19 21:50:46"}
{"id":7,"bug_id":"LANG-363","text":"StringEscapeUtils.escapeJavaScript() method did not escape \u0027/\u0027 into \u0027\\/\u0027, it will make IE render page uncorrectly. For example, document.getElementById(\"test\"). value \u003d \u0027\u003cscript\u003ealert(\\\u0027aaa\\\u0027);\u003c/script\u003e\u0027;this expression will make IE render page uncorrect, it should be document.getElementById(\"test\").   Try  to run below codes, you will find the difference:\n  String s \u003d \"\u003cscript\u003ealert(\u0027aaa\u0027);\u003c/script\u003e\";\n  String str \u003d org.springframework.web.util.JavaScriptUtils.javaScriptEscape(s);\n  System.out.println(\"Spring JS Escape : \"+str);\n  str \u003d org.apache.commons.lang.StringEscapeUtils.escapeJavaScript(s);\n  System.out.println(\"Apache Common Lang JS Escape : \"+ str);","class_goldset":["org.apache.commons.lang.StringEscapeUtils"],"method_goldset":["org.apache.commons.lang.StringEscapeUtils:escapeJavaStyleString(Writer, String, boolean)"],"creation_date":"2007-10-23 07:12:48","resolution_date":"2007-10-26 06:09:17"}
{"id":10,"bug_id":"LANG-457","text":"NumberUtils createNumber thows a StringIndexOutOfBoundsException when only an \"l\" is passed in.. Seems to be similar to LANG-300, except that if you don\u0027t place a digit in front of the \"l\" or \"L\" it throws a StringIndexOutOfBoundsException instead.","class_goldset":["org.apache.commons.lang.NumberUtils"],"method_goldset":["org.apache.commons.lang.NumberUtils:createNumber(String)"],"creation_date":"2008-9-8 20:00:51","resolution_date":"2008-11-5 16:33:36"}
{"id":11,"bug_id":"LANG-477","text":"ExtendedMessageFormat: OutOfMemory with custom format registry and a pattern containing single quotes. When using ExtendedMessageFormat with a custom format registry and a pattern conatining single quotes, an OutOfMemoryError will occur. Example that will cause error:","class_goldset":["org.apache.commons.lang.text.ExtendedMessageFormat"],"method_goldset":["org.apache.commons.lang.text.ExtendedMessageFormat:appendQuotedString(String, ParsePosition, StringBuffer, boolean)"],"creation_date":"2009-1-9 10:05:53","resolution_date":"2009-1-9 22:08:19"}
{"id":12,"bug_id":"LANG-480","text":"StringEscapeUtils.escapeHtml incorrectly converts unicode characters above U+00FFFF into 2 characters. Characters that are represented as a 2 characters internaly by java are incorrectly converted by the function. The following test displays the problem quite nicely:","class_goldset":["org.apache.commons.lang.Entities"],"method_goldset":["org.apache.commons.lang.Entities:escape(Writer, String)"],"creation_date":"2009-1-20 17:36:44","resolution_date":"2009-3-1 20:55:06"}
{"id":13,"bug_id":"LANG-538","text":"DateFormatUtils.format does not correctly change Calendar TimeZone in certain situations. If a Calendar object is constructed in certain ways a call to Calendar.setTimeZone does not correctly change the Calendars fields.   For example, the following unit test fails:    However, this unit test passes:","class_goldset":["org.apache.commons.lang3.time.FastDateFormat"],"method_goldset":["org.apache.commons.lang3.time.FastDateFormat:format(Calendar, StringBuffer)"],"creation_date":"2009-10-16 16:47:39","resolution_date":"2009-12-17 06:05:11"}
{"id":14,"bug_id":"LANG-552","text":"StringUtils replaceEach - Bug or Missing Documentation . The following Test Case for replaceEach fails with a null pointer exception.","class_goldset":["org.apache.commons.lang3.StringUtils"],"method_goldset":["org.apache.commons.lang3.StringUtils:replaceEach(String, String[], String[], boolean, int)"],"creation_date":"2009-11-9 12:40:57","resolution_date":"2009-12-14 07:51:45"}
{"id":17,"bug_id":"LANG-645","text":"FastDateFormat.format() outputs incorrect week of year because locale isn\u0027t respected. FastDateFormat apparently doesn\u0027t respect the locale it was sent on creation when outputting week in year (e.g. \"ww\") in format(). It seems to use the settings of the system locale for firstDayOfWeek and minimalDaysInFirstWeek, which (depending on the year) may result in the incorrect week number being output. Here is a simple test program to demonstrate the problem by comparing with SimpleDateFormat, which gets the week number right:     FastDateFormat fdf \u003d FastDateFormat.getInstance(\"EEEE\u0027, week \u0027ww\", locale);\n        SimpleDateFormat sdf \u003d new SimpleDateFormat(\"EEEE\u0027, week \u0027ww\", locale);\n        System.out.println(\"FastDateFormat:   \" + fdf.format(d)); // will output \"FastDateFormat:   fredag, week 01\"\n        System.out.println(\"SimpleDateFormat: \" + sdf.format(d)); // will output \"SimpleDateFormat: fredag, week 53\"\n    }\n}\n{code}","class_goldset":["org.apache.commons.lang3.time.FastDateFormat"],"method_goldset":["org.apache.commons.lang3.time.FastDateFormat:format(Date)"],"creation_date":"2010-8-20 14:11:08","resolution_date":"2010-9-8 06:10:03"}
{"id":18,"bug_id":"LANG-662","text":"org.apache.commons.lang3.math.Fraction does not reduce (Integer.MIN_VALUE, 2^k). The greatestCommonDivisor method in class Fraction does not find the gcd of Integer.MIN_VALUE and 2^k, and this case can be triggered by taking Integer.MIN_VALUE as the numerator.","class_goldset":["org.apache.commons.lang3.math.Fraction"],"method_goldset":["org.apache.commons.lang3.math.Fraction:greatestCommonDivisor(int, int)"],"creation_date":"2010-12-6 22:40:30","resolution_date":"2011-1-17 04:30:27"}
{"id":19,"bug_id":"LANG-710","text":"StringIndexOutOfBoundsException when calling unescapeHtml4(\"\u0026#03\"). When calling unescapeHtml4() on the String \"\u0026#03\" (or any String that contains these characters) an Exception is thrown:","class_goldset":["org.apache.commons.lang3.text.translate.NumericEntityUnescaper"],"method_goldset":["org.apache.commons.lang3.text.translate.NumericEntityUnescaper:translate(CharSequence, int, Writer)"],"creation_date":"2011-7-1 20:57:30","resolution_date":"2011-7-9 05:09:46"}
{"id":22,"bug_id":"LANG-788","text":"SerializationUtils throws ClassNotFoundException when cloning primitive classes. If a serializable object contains a reference to a primitive class, e.g. int.class or int[].class, the SerializationUtils throw a ClassNotFoundException when trying to clone that object.            The SerializationUtils problem arises because the SerializationUtils internally use the ClassLoaderAwareObjectInputStream that overrides the ObjectInputStream\u0027s resoleClass method without delegating to the super method in case of a ClassNotFoundException.  For example:","class_goldset":["org.apache.commons.lang3.SerializationUtils"],"method_goldset":["org.apache.commons.lang3.SerializationUtils:ClassLoaderAwareObjectInputStream(InputStream, ClassLoader)","org.apache.commons.lang3.SerializationUtils:resolveClass(ObjectStreamClass)"],"creation_date":"2012-2-11 12:36:48","resolution_date":"2012-2-29 14:39:49"}
{"id":24,"bug_id":"LANG-832","text":"FastDateParser does not handle unterminated quotes correctly. FDP does not handled unterminated quotes the same way as SimpleDateFormat For example:   The format is parsed as:","class_goldset":["org.apache.commons.lang3.time.FastDateParser"],"method_goldset":["org.apache.commons.lang3.time.FastDateParser:init()"],"creation_date":"2012-9-27 00:27:58","resolution_date":"2012-9-27 00:56:48"}
{"id":25,"bug_id":"LANG-857","text":"StringIndexOutOfBoundsException in CharSequenceTranslator. This is a simple test case for this problem.      You\u0027ll get the exception as shown below.","class_goldset":["org.apache.commons.lang3.text.translate.CharSequenceTranslator"],"method_goldset":["org.apache.commons.lang3.text.translate.CharSequenceTranslator:translate(CharSequence, Writer)"],"creation_date":"2012-11-20 12:36:14","resolution_date":"2012-11-20 20:47:52"}
{"id":26,"bug_id":"LANG-879","text":"LocaleUtils test fails with new Locale \"ja_JP_JP_#u-ca-japanese\" of JDK7. The Test below fails with the following error on JDK7, but succeeds on JDK6:","class_goldset":["org.apache.commons.lang3.LocaleUtils"],"method_goldset":["org.apache.commons.lang3.LocaleUtils:toLocale(String)"],"creation_date":"2013-3-18 21:46:29","resolution_date":"2013-5-30 22:13:22"}
