{"codeSnippets": [], "creation_date": "2015-06-20T07:44:00.000-05:00", "description": "current regex base express paramet scan weak handl nest object express exist current yield invalid mongo queri expr0 expr0 complex paramet object pass express unnecessarili quot yield wrong result exist foo bar exist current result exist foo bar foo render prevent effect spel base paramet express dynam filter spring secur current possibl spring data jpa fix easili perform filter base spring secur context inform spring data mongodb mongo repositori personrepositori person repositori crudrepositori crud repositori person string queri hasrol role role admin exist princip list person findallforcurrentuserbyid find current user", "fixed_files": ["org.springframework.data.mongodb.repository.query.StringBasedMongoQueryUnitTests", "org.springframework.data.mongodb.repository.query.StringBasedMongoQuery"], "key": "DATAMONGO-1244", "original_text": "StringBasedMongoQuery handles complex expression parameters incorrectly. Currently the regex based expression parameter scanning is too weak to handle nested object expressions like:\n\n\n\n\n\n\n{'id':?#{ [0] ? { $exists :true} : [1] }}\n\n\n\n\n\n\nwhich currently yields the invalid mongo query:\n\n\n\n\n\n\n{'id':?expr0 : [1] }}\n\n\n\n\n\n\ninstead of:\n\n\n\n\n\n\n{'id':'?expr0'}\n\n\n\n\n\n\nFurther more, if complex parameter objects are passed as expressions \nthey get unnecessarily quoted which could yield wrong results.\nE.g:\n\n\n\n\n\n\n@{'id':?#{ [0] ? { $exists :true} : [1] }, 'foo':42, 'bar': ?#{ [0] ? { $exists :false} : [1] }}\n\n\n\n\n\n\nCurrently results in:\n\n\n\n\n\n\n@{'id':\"{ \\\"$exists\\\" :true}\", 'foo':42, 'bar': 'foo' }}\n\n\n\n\n\n\nwhen finally rendered.\nThis prevents the effective use of SpEL based parameter expressions\nto be used for dynamic filtering with Spring Security as it is currently possible\nwith Spring Data JPA.\nWith this fixed one could easily perform filtering based on Spring Security context information in Spring Data MongoDB Repositories:\n\n\n\n\n\n\npublic interface PersonRepository extends CrudRepository<Person, String> {\n\n\n\n\n\n\n\n\n\n\t@Query(\"{id: ?#{ hasRole('ROLE_ADMIN') ? {$exists:true} : principal.id}}\")\n\n\n\n\n\tList<Person> findAllForCurrentUserById();\n\n\n\n\n}\n\n\n\n\n\n", "resolution_date": "2015-07-08T01:23:47.000-05:00", "stackTraces": [], "title": "stringbasedmongoqueri string base mongo queri handl complex express paramet incorrectli"}
{"codeSnippets": [], "creation_date": "2015-10-20T12:33:45.000-05:00", "description": "mongotempl mongo templat code place runtimeexcept runtim exceptiontransl translat translateexceptionifposs translat possibl mongoexceptiontransl mongo translat encount unknown result user code persist provid indic translat occur mongotempl mongo templat eat origin pointer mongotempl mongo templat origin back translat", "fixed_files": ["org.springframework.data.mongodb.core.MongoTemplate"], "key": "DATAMONGO-1307", "original_text": "Stop converting user-defined runtime exceptions to NPEs MongoTemplate has code like this in many places:\n} catch (RuntimeException ex) {\n\tthrow exceptionTranslator.translateExceptionIfPossible(ex);\nMongoExceptionTranslator, however, often does NOT return an exception. If it encounters an unknown exception it does this:\n// If we get here, we have an exception that resulted from user code,\n// rather than the persistence provider, so we return null to indicate\n// that translation should not occur.\nreturn null;\nMongoTemplate then \"eats\" the original exception and throws a null-pointer exception instead.\nMongoTemplate should throw the original exception if it gets null back from the exception translator.", "resolution_date": "2015-10-20T17:24:35.000-05:00", "stackTraces": [], "title": "stop convert user defin runtim npe"}
{"codeSnippets": [], "creation_date": "2015-08-19T02:31:58.000-05:00", "description": "stream support mongorepositori mongo repositori suddenli start java lang nullpointerexcept pointer org springframework data mongodb core mongotempl mongo templat closeableiterablecusoradapt closeabl iter cusor adapt mongotempl mongo templat java java util iter foreachremain remain iter java java util spliter iteratorspliter iter spliter foreachremain remain spliter java java util stream abstractpipelin pipelin copyinto copi abstractpipelin pipelin java java util stream abstractpipelin pipelin wrapandcopyinto wrap copi abstractpipelin pipelin java java util stream reduceop reduc reduceop reduc evaluatesequenti evalu sequenti reduceop reduc java java util stream abstractpipelin pipelin evalu abstractpipelin pipelin java java util stream referencepipelin refer pipelin collect referencepipelin refer pipelin java bit investig turn due domain model chang appear org springframework data map model mappingexcept map data map mongoexceptiontransl mongo translat specif know appear fine persistenceexceptiontransl persist translat appear spring data mongodb mongo code result check provok npe hide actual reason", "fixed_files": ["org.springframework.data.mongodb.core.MongoTemplate"], "key": "DATAMONGO-1276", "original_text": "MongoTemplate.CloseableIterableCursorAdapter does not null check return values from PersistenceExceptionTranslator. Using the Stream support in a MongoRepository I suddenly started getting exceptions like these:\n\n\n\n\n\n\njava.lang.NullPointerException: null\n\n\n\n\n\tat org.springframework.data.mongodb.core.MongoTemplate$CloseableIterableCusorAdapter.next(MongoTemplate.java:2389)\n\n\n\n\n\tat java.util.Iterator.forEachRemaining(Iterator.java:116)\n\n\n\n\n\tat java.util.Spliterators$IteratorSpliterator.forEachRemaining(Spliterators.java:1801)\n\n\n\n\n\tat java.util.stream.AbstractPipeline.copyInto(AbstractPipeline.java:512)\n\n\n\n\n\tat java.util.stream.AbstractPipeline.wrapAndCopyInto(AbstractPipeline.java:502)\n\n\n\n\n\tat java.util.stream.ReduceOps$ReduceOp.evaluateSequential(ReduceOps.java:708)\n\n\n\n\n\tat java.util.stream.AbstractPipeline.evaluate(AbstractPipeline.java:234)\n\n\n\n\n\tat java.util.stream.ReferencePipeline.collect(ReferencePipeline.java:499)\n\n\n\n\n...\n\n\n\n\n\n\nAfter a bit if investigation it turns out that due to some domain model changes I appear to be getting an org.springframework.data.mapping.model.MappingException in the data mapping and since MongoExceptionTranslator does not specifically know about it. So it just returns null.\nThat appears to be fine according to the PersistenceExceptionTranslator interface. But it appears that the Spring Data MongoDB code will often throw the result without any null checks. Provoking an NPE and hiding the actual reason for the exception.", "resolution_date": "2015-10-21T13:12:38.000-05:00", "stackTraces": [], "title": "mongotempl mongo templat closeableiterablecursoradapt closeabl iter cursor adapt check valu persistenceexceptiontransl persist translat"}
{"codeSnippets": [], "creation_date": "2015-09-24T13:32:49.000-05:00", "description": "follow isn't work mongo factori mymongodbfactori mongo factori client uri mongodb localhost test follow thrown caus org springframework bean factori pars beandefinitionparsingexcept bean definit pars configur problem configur mongo uri detail individu offend resourc path resourc jingit financi servic event mongo xml org springframework bean factori pars failfastproblemreport fail fast problem report error failfastproblemreport fail fast problem report java org springframework bean factori pars readercontext reader context error readercontext reader context java org springframework bean factori pars readercontext reader context error readercontext reader context java org springframework data mongodb config mongodbfactorypars mongo factori parser parseintern pars intern mongodbfactorypars mongo factori parser java", "fixed_files": ["org.springframework.data.mongodb.config.MongoDbFactoryParserIntegrationTests", "org.springframework.data.mongodb.config.MongoDbFactoryParser"], "key": "DATAMONGO-1293", "original_text": "MongoDbFactoryParser should allow id attribute in addition to client-uri The following isn't working: <mongo:db-factory id=\"myMongoDbFactory\" client-uri=\"mongodb://localhost:27020/test\"/>. The following exception is thrown:\n\n\n\n\n\n\nCaused by: org.springframework.beans.factory.parsing.BeanDefinitionParsingException: Configuration problem: Configure either Mongo URI or details individually!\n\n\n\n\nOffending resource: class path resource [jingit-financial-services-event-mongo.xml]\n\n\n\n\n\tat org.springframework.beans.factory.parsing.FailFastProblemReporter.error(FailFastProblemReporter.java:70)\n\n\n\n\n\tat org.springframework.beans.factory.parsing.ReaderContext.error(ReaderContext.java:85)\n\n\n\n\n\tat org.springframework.beans.factory.parsing.ReaderContext.error(ReaderContext.java:72)\n\n\n\n\n\tat org.springframework.data.mongodb.config.MongoDbFactoryParser.parseInternal(MongoDbFactoryParser.java:77)\n\n\n\n\n\n", "resolution_date": "2015-10-29T14:27:36.000-05:00", "stackTraces": [], "title": "mongodbfactorypars mongo factori parser allow attribut addit client uri"}
{"codeSnippets": [], "creation_date": "2015-09-27T09:57:42.000-05:00", "description": "mappingexcept map occur mongotempl mongo templat closeableiterablecusoradapt closeabl iter cusor adapt run npe swallow sourc mappingexcept map make stack trace unus closeableiterablecursoradapt closeabl iter cursor adapt java util stream support sourc issu mongoexceptiontransl mongo translat translateexceptionifposs translat possibl map stack trace nice mappingexcept map swallow thread main java lang illegalstateexcept illeg state fail execut commandlinerunn command line runner org springframework boot springappl spring applic runcommandlinerunn run command line runner springappl spring applic java org springframework boot springappl spring applic afterrefresh refresh springappl spring applic java org springframework boot springappl spring applic run springappl spring applic java org springframework boot springappl spring applic run springappl spring applic java org springframework boot springappl spring applic run springappl spring applic java com extractorappl extractor applic main extractorappl extractor applic java sun reflect nativemethodaccessorimpl method accessor impl invoke0 method sun reflect nativemethodaccessorimpl method accessor impl invok nativemethodaccessorimpl method accessor impl java sun reflect delegatingmethodaccessorimpl deleg method accessor impl invok delegatingmethodaccessorimpl deleg method accessor impl java java lang reflect method invok method java com intellij execut applic appmain app main main appmain app main java caus java lang nullpointerexcept pointer map org springframework data mongodb core mongotempl mongo templat closeableiterablecusoradapt closeabl iter cusor adapt mongotempl mongo templat java java util iter foreachremain remain iter java java util spliter iteratorspliter iter spliter foreachremain remain spliter java java util stream referencepipelin refer pipelin head foreach referencepipelin refer pipelin java com xxx java com extractorappl extractor applic run extractorappl extractor applic java org springframework boot springappl spring applic runcommandlinerunn run command line runner springappl spring applic java", "fixed_files": ["org.springframework.data.mongodb.core.MongoTemplate"], "key": "DATAMONGO-1295", "original_text": "The MongoTemplate.CloseableIterableCusorAdapter runs into an NPE when a MappingException was raised When a MappingException occurs, the MongoTemplate.CloseableIterableCusorAdapter will run into an NPE and swallow the source MappingException. That makes the stack trace unusable. CloseableIterableCursorAdapter is used for the new java.util.Stream support. The source of this issue here. The MongoExceptionTranslator.translateExceptionIfPossible(...)  returns null in case of mapping exceptions.\nThe stack trace (where the nice MappingException is swallowed):\n\n\n\n\n\n\nException in thread \"main\" java.lang.IllegalStateException: Failed to execute CommandLineRunner\n\n\n\n\n\tat org.springframework.boot.SpringApplication.runCommandLineRunners(SpringApplication.java:676)\n\n\n\n\n\tat org.springframework.boot.SpringApplication.afterRefresh(SpringApplication.java:691)\n\n\n\n\n\tat org.springframework.boot.SpringApplication.run(SpringApplication.java:322)\n\n\n\n\n\tat org.springframework.boot.SpringApplication.run(SpringApplication.java:967)\n\n\n\n\n\tat org.springframework.boot.SpringApplication.run(SpringApplication.java:956)\n\n\n\n\n\tat com....ExtractorApplication.main(ExtractorApplication.java:25)\n\n\n\n\n\tat sun.reflect.NativeMethodAccessorImpl.invoke0(Native Method)\n\n\n\n\n\tat sun.reflect.NativeMethodAccessorImpl.invoke(NativeMethodAccessorImpl.java:62)\n\n\n\n\n\tat sun.reflect.DelegatingMethodAccessorImpl.invoke(DelegatingMethodAccessorImpl.java:43)\n\n\n\n\n\tat java.lang.reflect.Method.invoke(Method.java:483)\n\n\n\n\n\tat com.intellij.rt.execution.application.AppMain.main(AppMain.java:140)\n\n\n\n\nCaused by: java.lang.NullPointerException <---- That should be the Mapping Exception\n\n\n\n\n\tat org.springframework.data.mongodb.core.MongoTemplate$CloseableIterableCusorAdapter.next(MongoTemplate.java:2395)\n\n\n\n\n\tat java.util.Iterator.forEachRemaining(Iterator.java:116)\n\n\n\n\n\tat java.util.Spliterators$IteratorSpliterator.forEachRemaining(Spliterators.java:1801)\n\n\n\n\n\tat java.util.stream.ReferencePipeline$Head.forEach(ReferencePipeline.java:580)\n\n\n\n\n\tat com......(XXX.java:48)\n\n\n\n\n\tat com.....ExtractorApplication.run(ExtractorApplication.java:37)\n\n\n\n\n\tat org.springframework.boot.SpringApplication.runCommandLineRunners(SpringApplication.java:673)\n\n\n\n\n\t... 10 more\n\n\n\n\n\n", "resolution_date": "2015-11-02T09:21:59.000-06:00", "stackTraces": [], "title": "mongotempl mongo templat closeableiterablecusoradapt closeabl iter cusor adapt run npe mappingexcept map rais"}
{"codeSnippets": [], "creation_date": "2015-11-24T16:20:40.000-06:00", "description": "dbobjectaccessor object accessor build basicdbobject basic object check current dbobject object hold basicdbobject basic object given key document insert correctli desc insert string field data titl string titl field data desc string desc provid sampl project test order verifi behaviour propos chang awar field name contain dot charact http doc mongodb org manual core document field name data structur map map read process cope data structur wonder improv write process cover idea", "fixed_files": ["org.springframework.data.mongodb.core.convert.DBObjectAccessor", "org.springframework.data.mongodb.core.convert.DBObjectAccessorUnitTests"], "key": "DATAMONGO-1335", "original_text": "DBObjectAccessor doesn't write properties correctly if multiple ones are nested When DBObjectAccessor is building the BasicDBObject it could check if the current dbObject already holds a BasicDBObject for the given key\nAnd thus documents like the one below will be inserted correctly (now only \"id\" and \"desc\"  are inserted)\n\n\n\n\n\n\n    public class One {\n\n\n\n\n      @Id String id;\n\n\n\n\n      @Field(\"DATA.TITLE\") String title;\n\n\n\n\n      @Field(\"DATA.DESC\") String desc;\n\n\n\n\n     ....\n\n\n\n\n    }\n\n\n\n\n\n\nI have provided a sample projecte with a few tests in order to verify the behaviour before and after the proposed change.\nI am aware that field names cannot contain the dot (.) character (https://docs.mongodb.org/manual/core/document/#field-names), and that data structures like the one before should be mapped with a Map BUT now the read process can cope with this kind of data structures so I am wondering if we can improve the write process to cover this case.  JUST AN IDEA", "resolution_date": "2015-11-25T15:20:56.000-06:00", "stackTraces": [], "title": "dbobjectaccessor object accessor write properti correctli multipl nest"}
{"codeSnippets": [], "creation_date": "2015-11-25T16:21:53.000-06:00", "description": "valu hand contain claus repositori queri method caus nullpointerexcept pointer treat singl element object array", "fixed_files": ["org.springframework.data.mongodb.repository.query.MongoQueryCreator", "org.springframework.data.mongodb.repository.query.MongoQueryCreatorUnitTests"], "key": "DATAMONGO-1342", "original_text": "Potential NullPointerException in MongoQueryCreator.nextAsArray() A null value is handed to a contains-clause of a repository query method will cause a NullPointerException rather than being treated like a single element object array.", "resolution_date": "2015-12-15T14:48:53.000-06:00", "stackTraces": [], "title": "potenti nullpointerexcept pointer mongoquerycr mongo queri creator nextasarray array"}
{"codeSnippets": [], "creation_date": "2015-09-16T23:51:16.000-05:00", "description": "org springframework data mongodb core queri updat string number method take paramet number actual work right thing aren't simpl primit object wrapper exampl pass atomicinteg atom integ updat fail execut gener json isn't correct", "fixed_files": ["org.springframework.data.mongodb.core.convert.CustomConversions", "org.springframework.data.mongodb.core.convert.MongoConverters", "org.springframework.data.mongodb.core.convert.UpdateMapperUnitTests"], "key": "DATAMONGO-1288", "original_text": "Update.inc(String, Number) method fails to work with AtomicInteger Even though the org.springframework.data.mongodb.core.query.Update.inc(String, Number) method takes the parameter as Number, it doesn't actually work right with things that aren't simple primitive object wrappers.  For example, if you pass in an AtomicInteger, the update fails to execute, as the generated json isn't correct.", "resolution_date": "2016-02-11T13:09:46.000-06:00", "stackTraces": [], "title": "updat string number method fail work atomicinteg atom integ"}
{"codeSnippets": [], "creation_date": "2016-03-22T11:33:58.000-05:00", "description": "updat entiti geojsonpoint geo json point properti follow org springframework data map context invalidpersistentpropertypath invalid persist properti path properti type found org springframework data mongodb core geo geojsonpoint geo json point org springframework data map context abstractmappingcontext map context getpersistentpropertypath persist properti path abstractmappingcontext map context java org springframework data map context abstractmappingcontext map context getpersistentpropertypath persist properti path abstractmappingcontext map context java org springframework data map context abstractmappingcontext map context getpersistentpropertypath persist properti path abstractmappingcontext map context java org springframework data mongodb core convert querymapp queri mapper metadatabackedfield metadata back field getpath path querymapp queri mapper java org springframework data mongodb core convert querymapp queri mapper metadatabackedfield metadata back field init querymapp queri mapper java org springframework data mongodb core convert querymapp queri mapper metadatabackedfield metadata back field init querymapp queri mapper java org springframework data mongodb core convert updatemapp updat mapper metadatabackedupdatefield metadata back updat field init updatemapp updat mapper java org springframework data mongodb core convert updatemapp updat mapper createpropertyfield creat properti field updatemapp updat mapper java org springframework data mongodb core convert querymapp queri mapper getmappedobject map object querymapp queri mapper java org springframework data mongodb core convert querymapp queri mapper convertsimpleordbobject convert simpl object querymapp queri mapper java org springframework data mongodb core convert updatemapp updat mapper getmappedobjectforfield map object field updatemapp updat mapper java org springframework data mongodb core convert querymapp queri mapper getmappedobject map object querymapp queri mapper java org springframework data mongodb core convert querymapp queri mapper convertsimpleordbobject convert simpl object querymapp queri mapper java org springframework data mongodb core convert updatemapp updat mapper getmappedobjectforfield map object field updatemapp updat mapper java org springframework data mongodb core convert querymapp queri mapper getmappedobject map object querymapp queri mapper java org springframework data mongodb core mongotempl mongo templat doincollect collect mongotempl mongo templat java org springframework data mongodb core mongotempl mongo templat doincollect collect mongotempl mongo templat java org springframework data mongodb core mongotempl mongo templat execut mongotempl mongo templat java org springframework data mongodb core mongotempl mongo templat doupdat updat mongotempl mongo templat java org springframework data mongodb core mongotempl mongo templat dosavevers version mongotempl mongo templat java org springframework data mongodb core mongotempl mongo templat mongotempl mongo templat java org springframework data mongodb core mongotempl mongo templat mongotempl mongo templat java", "fixed_files": ["org.springframework.data.mongodb.core.convert.QueryMapper", "org.springframework.data.mongodb.core.MongoTemplateTests"], "key": "DATAMONGO-1401", "original_text": "GeoJsonPoint error on update If i try to do an update on Entity with a GeoJsonPoint properties i get the following:\n\n\n\n\n\n\norg.springframework.data.mapping.context.InvalidPersistentPropertyPath: No property type found on org.springframework.data.mongodb.core.geo.GeoJsonPoint!\n\n\n\n\n\n\n\n\n\n\tat org.springframework.data.mapping.context.AbstractMappingContext.getPersistentPropertyPath(AbstractMappingContext.java:256)\n\n\n\n\n\tat org.springframework.data.mapping.context.AbstractMappingContext.getPersistentPropertyPath(AbstractMappingContext.java:229)\n\n\n\n\n\tat org.springframework.data.mapping.context.AbstractMappingContext.getPersistentPropertyPath(AbstractMappingContext.java:204)\n\n\n\n\n\tat org.springframework.data.mongodb.core.convert.QueryMapper$MetadataBackedField.getPath(QueryMapper.java:838)\n\n\n\n\n\tat org.springframework.data.mongodb.core.convert.QueryMapper$MetadataBackedField.<init>(QueryMapper.java:729)\n\n\n\n\n\tat org.springframework.data.mongodb.core.convert.QueryMapper$MetadataBackedField.<init>(QueryMapper.java:706)\n\n\n\n\n\tat org.springframework.data.mongodb.core.convert.UpdateMapper$MetadataBackedUpdateField.<init>(UpdateMapper.java:193)\n\n\n\n\n\tat org.springframework.data.mongodb.core.convert.UpdateMapper.createPropertyField(UpdateMapper.java:164)\n\n\n\n\n\tat org.springframework.data.mongodb.core.convert.QueryMapper.getMappedObject(QueryMapper.java:122)\n\n\n\n\n\tat org.springframework.data.mongodb.core.convert.QueryMapper.convertSimpleOrDBObject(QueryMapper.java:359)\n\n\n\n\n\tat org.springframework.data.mongodb.core.convert.UpdateMapper.getMappedObjectForField(UpdateMapper.java:77)\n\n\n\n\n\tat org.springframework.data.mongodb.core.convert.QueryMapper.getMappedObject(QueryMapper.java:123)\n\n\n\n\n\tat org.springframework.data.mongodb.core.convert.QueryMapper.convertSimpleOrDBObject(QueryMapper.java:359)\n\n\n\n\n\tat org.springframework.data.mongodb.core.convert.UpdateMapper.getMappedObjectForField(UpdateMapper.java:77)\n\n\n\n\n\tat org.springframework.data.mongodb.core.convert.QueryMapper.getMappedObject(QueryMapper.java:123)\n\n\n\n\n\tat org.springframework.data.mongodb.core.MongoTemplate$12.doInCollection(MongoTemplate.java:1108)\n\n\n\n\n\tat org.springframework.data.mongodb.core.MongoTemplate$12.doInCollection(MongoTemplate.java:1099)\n\n\n\n\n\tat org.springframework.data.mongodb.core.MongoTemplate.execute(MongoTemplate.java:462)\n\n\n\n\n\tat org.springframework.data.mongodb.core.MongoTemplate.doUpdate(MongoTemplate.java:1099)\n\n\n\n\n\tat org.springframework.data.mongodb.core.MongoTemplate.doSaveVersioned(MongoTemplate.java:973)\n\n\n\n\n\tat org.springframework.data.mongodb.core.MongoTemplate.save(MongoTemplate.java:937)\n\n\n\n\n\tat org.springframework.data.mongodb.core.MongoTemplate.save(MongoTemplate.java:921)\n\n\n\n\n\n\n", "resolution_date": "2016-03-31T07:39:58.000-05:00", "stackTraces": [], "title": "geojsonpoint geo json point error updat"}
{"codeSnippets": [], "creation_date": "2016-04-04T18:59:49.000-05:00", "description": "document document collect comput comput string string batchid batch field stat string statu field disp list monitor display setter getter monitor field string resolut setter getter mongotempl mongo templat java call list dofind find string collectionnam collect name dbobject object queri dbobject object field entityclass entiti cursorprepar cursor prepar prepar dbobjectcallback object callback objectcallback object callback dbobject object mappedqueri map queri querymapp queri mapper getmappedobject map object queri entiti resolv field input queri field annot embed array exampl resolut field dbobject object remain resolut statu field resolv stat note queri inner list setup elemmatch elem match queri submit mongo getmappedobject map object call stat disp elemmatch elem match resolut resolut batchid batch data field call resolut field mongo note queri input getmappedobject map object statu display elemmatch elem match resolut resolut batchid batch notic statu display field correctli convert valu field annot correct queri getmappedobject map object stat disp elemmatch elem match batchid batch basic mean queri oper field name differ perist name inner list fail", "fixed_files": ["org.springframework.data.mongodb.core.convert.QueryMapper", "org.springframework.data.mongodb.core.convert.QueryMapperUnitTests"], "key": "DATAMONGO-1406", "original_text": "Query mapper does not use @Field field name when querying nested fields in combination with nested keywords we have a document class;\n\n\n\n\n\n\n@Document(collection = \"Computer\")\n\n\n\n\npublic class Computer\n\n\n\n\n{\n\n\n\n\n   @Id\n\n\n\n\n   private String _id;\n\n\n\n\n\n\n\n\n\n   private String batchId;\n\n\n\n\n\n\n\n\n\n  @Field(\"stat\")\n\n\n\n\n   private String status;\n\n\n\n\n\n\n\n\n\n   @Field(\"disp\")\n\n\n\n\n   private List<Monitor> displays;\n\n\n\n\n\n\n\n\n\n   //setters and getters\n\n\n\n\n}\n\n\n\n\n\n\n\n\n\npublic class Monitor {\n\n\n\n\n   @Field(\"res\")\n\n\n\n\n   private String resolution;\n\n\n\n\n\n\n\n\n\n  // setters/getters\n\n\n\n\n}\n\n\n\n\n\n\nIn MongoTemplate.java, the call to :\n\n\n\n\n\n\nprotected <S, T> List<T> doFind(String collectionName, DBObject query, DBObject fields, Class<S> entityClass,\n\n\n\n\n\t\t\tCursorPreparer preparer, DbObjectCallback<T> objectCallback)\n\n\n\n\n\n\n\n\n\nDBObject mappedQuery = queryMapper.getMappedObject(query, entity);\n\n\n\n\n\n\nresolves the fields to the input query to the ones in the @Field annotations, except for these in embedded arrays. So, in the example above, resolution fields in DBObject remains resolution. While, the status field resolves to stat. \nNote the queries in the inner list, are setup as elemMatch.\nThe query submitted to mongo after getMappedObject is called:\n\n\n\n\n\n\n{ \"$and\" : [ { \"stat\" : \"A\"} , { \"disp\" : { \"$elemMatch\" : { \"$and\" : [ { \"resolution\" : { \"$ne\" :  null }} , { \"resolution\" : { \"$ne\" : \"\"}}]}}}] , \"batchId\" : \"5d0f1c53-92a2-48cb-8c84-1061769962c1\"}\n\n\n\n\n\n\nWhich doesn't get any data, because there is no field called resolution (the field in mongo is res). \nNote: The query input to getMappedObject is:\n\n\n\n\n\n\n{ \"$and\" : [ { \"status\" : \"A\"} , { \"displays\" : { \"$elemMatch\" : { \"$and\" : [ { \"resolution\" : { \"$ne\" :  null }} , { \"resolution\" : { \"$ne\" : \"\"}}]}}}] , \"batchId\" : \"5d0f1c53-92a2-48cb-8c84-1061769962c1\"}\n\n\n\n\n\n\nNotice the status and displays fields correctly get converted to the value in the @Field annotation. \nThe correct query from getMappedObject should be:\n\n\n\n\n\n\n{ \"$and\" : [ { \"stat\" : \"A\"} , { \"disp\" : { \"$elemMatch\" : { \"$and\" : [ { \"res\" : { \"$ne\" :  null }} , { \"res\" : { \"$ne\" : \"\"}}]}}}] , \"batchId\" : \"5d0f1c53-92a2-48cb-8c84-1061769962c1\"}\n\n\n\n\n\n\nThis basically means that any queries that operate on fields (with a name different from the peristed name) in the inner list will fail. \n", "resolution_date": "2016-08-25T11:50:06.000-05:00", "stackTraces": [], "title": "queri mapper field field name queri nest field combin nest keyword"}
{"codeSnippets": [], "creation_date": "2016-01-29T22:58:48.000-06:00", "description": "test releas method object findonebyidandnameignorecas find name ignor string string name call function dao findonebyidandnameignorecas find name ignor uid engin caus follow queri gener debug log mongotempl mongo templat java findon find queri uid name regex engin option collect fail find record uid name engin regex parenthesi part regex group matcher part plaintext escap", "fixed_files": ["org.springframework.data.mongodb.repository.query.MongoQueryCreator", "org.springframework.data.mongodb.repository.query.MongoQueryCreatorUnitTests"], "key": "DATAMONGO-1368", "original_text": "findByIgnoreCase Not Escaping Parenthesis This was tested on 1.7.0.RELEASE.\nI have a method in the interface like:\nObject findOneByIdAndNameIgnoreCase(String id, String name);\nI call the function like this:\ndao.findOneByIdAndNameIgnoreCase(\"uid\", \"Engineer (TX)\");\nThis causes the following query to be generated (as seen in the debug log):\n(MongoTemplate.java:2066) - findOne using query: { \"id\" : \"uid\" , \"name\" : { \"$regex\" : \"^Engineer (TX)$\" , \"$options\" : \"i\"}} in db.collection\nWhich fails to find the record having:\n{\n\n\"id\" : \"uid\",\n\n\"name\" : \"Engineer (TX)\"\n\n}\n\nBecause the regex sees the parenthesis as part of the regex (as a group matcher) when it should see them as part of the plaintext.  i.e. they are not being escaped.\n", "resolution_date": "2016-11-02T18:25:24.000-05:00", "stackTraces": [], "title": "findbyignorecas find ignor escap parenthesi"}
