{"key":"DATAMONGO-1244","title":"StringBasedMongoQuery handles complex expression parameters incorrectly.","description":"Currently the regex based expression parameter scanning is too weak to handle nested object expressions like:\n\n\n\n\n\n\n{\u0027id\u0027:?#{ [0] ? { $exists :true} : [1] }}\n\n\n\n\n\n\nwhich currently yields the invalid mongo query:\n\n\n\n\n\n\n{\u0027id\u0027:?expr0 : [1] }}\n\n\n\n\n\n\ninstead of:\n\n\n\n\n\n\n{\u0027id\u0027:\u0027?expr0\u0027}\n\n\n\n\n\n\nFurther more, if complex parameter objects are passed as expressions \nthey get unnecessarily quoted which could yield wrong results.\nE.g:\n\n\n\n\n\n\n@{\u0027id\u0027:?#{ [0] ? { $exists :true} : [1] }, \u0027foo\u0027:42, \u0027bar\u0027: ?#{ [0] ? { $exists :false} : [1] }}\n\n\n\n\n\n\nCurrently results in:\n\n\n\n\n\n\n@{\u0027id\u0027:\"{ \\\"$exists\\\" :true}\", \u0027foo\u0027:42, \u0027bar\u0027: \u0027foo\u0027 }}\n\n\n\n\n\n\nwhen finally rendered.\nThis prevents the effective use of SpEL based parameter expressions\nto be used for dynamic filtering with Spring Security as it is currently possible\nwith Spring Data JPA.\nWith this fixed one could easily perform filtering based on Spring Security context information in Spring Data MongoDB Repositories:\n\n\n\n\n\n\npublic interface PersonRepository extends CrudRepository\u003cPerson, String\u003e {\n\n\n\n\n\n\n\n\n\n\t@Query(\"{id: ?#{ hasRole(\u0027ROLE_ADMIN\u0027) ? {$exists:true} : principal.id}}\")\n\n\n\n\n\tList\u003cPerson\u003e findAllForCurrentUserById();\n\n\n\n\n}\n\n\n\n\n\n","creation_date":"2015-06-20T07:44:00.000-05:00","resolution_date":"2015-07-08T01:23:47.000-05:00","fixed_files":["org.springframework.data.mongodb.repository.query.StringBasedMongoQueryUnitTests","org.springframework.data.mongodb.repository.query.StringBasedMongoQuery"]}
{"key":"DATAMONGO-1307","title":"Stop converting user-defined runtime exceptions to NPEs","description":"MongoTemplate has code like this in many places:\n} catch (RuntimeException ex) {\n\tthrow exceptionTranslator.translateExceptionIfPossible(ex);\nMongoExceptionTranslator, however, often does NOT return an exception. If it encounters an unknown exception it does this:\n// If we get here, we have an exception that resulted from user code,\n// rather than the persistence provider, so we return null to indicate\n// that translation should not occur.\nreturn null;\nMongoTemplate then \"eats\" the original exception and throws a null-pointer exception instead.\nMongoTemplate should throw the original exception if it gets null back from the exception translator.","creation_date":"2015-10-20T12:33:45.000-05:00","resolution_date":"2015-10-20T17:24:35.000-05:00","fixed_files":["org.springframework.data.mongodb.core.MongoTemplate"]}
{"key":"DATAMONGO-1276","title":"MongoTemplate.CloseableIterableCursorAdapter does not null check return values from PersistenceExceptionTranslator.","description":"Using the Stream support in a MongoRepository I suddenly started getting exceptions like these:\n\n\n\n\n\n\njava.lang.NullPointerException: null\n\n\n\n\n\tat org.springframework.data.mongodb.core.MongoTemplate$CloseableIterableCusorAdapter.next(MongoTemplate.java:2389)\n\n\n\n\n\tat java.util.Iterator.forEachRemaining(Iterator.java:116)\n\n\n\n\n\tat java.util.Spliterators$IteratorSpliterator.forEachRemaining(Spliterators.java:1801)\n\n\n\n\n\tat java.util.stream.AbstractPipeline.copyInto(AbstractPipeline.java:512)\n\n\n\n\n\tat java.util.stream.AbstractPipeline.wrapAndCopyInto(AbstractPipeline.java:502)\n\n\n\n\n\tat java.util.stream.ReduceOps$ReduceOp.evaluateSequential(ReduceOps.java:708)\n\n\n\n\n\tat java.util.stream.AbstractPipeline.evaluate(AbstractPipeline.java:234)\n\n\n\n\n\tat java.util.stream.ReferencePipeline.collect(ReferencePipeline.java:499)\n\n\n\n\n...\n\n\n\n\n\n\nAfter a bit if investigation it turns out that due to some domain model changes I appear to be getting an org.springframework.data.mapping.model.MappingException in the data mapping and since MongoExceptionTranslator does not specifically know about it. So it just returns null.\nThat appears to be fine according to the PersistenceExceptionTranslator interface. But it appears that the Spring Data MongoDB code will often throw the result without any null checks. Provoking an NPE and hiding the actual reason for the exception.","creation_date":"2015-08-19T02:31:58.000-05:00","resolution_date":"2015-10-21T13:12:38.000-05:00","fixed_files":["org.springframework.data.mongodb.core.MongoTemplate"]}
{"key":"DATAMONGO-1293","title":"MongoDbFactoryParser should allow id attribute in addition to client-uri","description":"The following isn\u0027t working: \u003cmongo:db-factory id\u003d\"myMongoDbFactory\" client-uri\u003d\"mongodb://localhost:27020/test\"/\u003e. The following exception is thrown:\n\n\n\n\n\n\nCaused by: org.springframework.beans.factory.parsing.BeanDefinitionParsingException: Configuration problem: Configure either Mongo URI or details individually!\n\n\n\n\nOffending resource: class path resource [jingit-financial-services-event-mongo.xml]\n\n\n\n\n\tat org.springframework.beans.factory.parsing.FailFastProblemReporter.error(FailFastProblemReporter.java:70)\n\n\n\n\n\tat org.springframework.beans.factory.parsing.ReaderContext.error(ReaderContext.java:85)\n\n\n\n\n\tat org.springframework.beans.factory.parsing.ReaderContext.error(ReaderContext.java:72)\n\n\n\n\n\tat org.springframework.data.mongodb.config.MongoDbFactoryParser.parseInternal(MongoDbFactoryParser.java:77)\n\n\n\n\n\n","creation_date":"2015-09-24T13:32:49.000-05:00","resolution_date":"2015-10-29T14:27:36.000-05:00","fixed_files":["org.springframework.data.mongodb.config.MongoDbFactoryParserIntegrationTests","org.springframework.data.mongodb.config.MongoDbFactoryParser"]}
{"key":"DATAMONGO-1295","title":"The MongoTemplate.CloseableIterableCusorAdapter runs into an NPE when a MappingException was raised","description":"When a MappingException occurs, the MongoTemplate.CloseableIterableCusorAdapter will run into an NPE and swallow the source MappingException. That makes the stack trace unusable. CloseableIterableCursorAdapter is used for the new java.util.Stream support. The source of this issue here. The MongoExceptionTranslator.translateExceptionIfPossible(...)  returns null in case of mapping exceptions.\nThe stack trace (where the nice MappingException is swallowed):\n\n\n\n\n\n\nException in thread \"main\" java.lang.IllegalStateException: Failed to execute CommandLineRunner\n\n\n\n\n\tat org.springframework.boot.SpringApplication.runCommandLineRunners(SpringApplication.java:676)\n\n\n\n\n\tat org.springframework.boot.SpringApplication.afterRefresh(SpringApplication.java:691)\n\n\n\n\n\tat org.springframework.boot.SpringApplication.run(SpringApplication.java:322)\n\n\n\n\n\tat org.springframework.boot.SpringApplication.run(SpringApplication.java:967)\n\n\n\n\n\tat org.springframework.boot.SpringApplication.run(SpringApplication.java:956)\n\n\n\n\n\tat com....ExtractorApplication.main(ExtractorApplication.java:25)\n\n\n\n\n\tat sun.reflect.NativeMethodAccessorImpl.invoke0(Native Method)\n\n\n\n\n\tat sun.reflect.NativeMethodAccessorImpl.invoke(NativeMethodAccessorImpl.java:62)\n\n\n\n\n\tat sun.reflect.DelegatingMethodAccessorImpl.invoke(DelegatingMethodAccessorImpl.java:43)\n\n\n\n\n\tat java.lang.reflect.Method.invoke(Method.java:483)\n\n\n\n\n\tat com.intellij.rt.execution.application.AppMain.main(AppMain.java:140)\n\n\n\n\nCaused by: java.lang.NullPointerException \u003c---- That should be the Mapping Exception\n\n\n\n\n\tat org.springframework.data.mongodb.core.MongoTemplate$CloseableIterableCusorAdapter.next(MongoTemplate.java:2395)\n\n\n\n\n\tat java.util.Iterator.forEachRemaining(Iterator.java:116)\n\n\n\n\n\tat java.util.Spliterators$IteratorSpliterator.forEachRemaining(Spliterators.java:1801)\n\n\n\n\n\tat java.util.stream.ReferencePipeline$Head.forEach(ReferencePipeline.java:580)\n\n\n\n\n\tat com......(XXX.java:48)\n\n\n\n\n\tat com.....ExtractorApplication.run(ExtractorApplication.java:37)\n\n\n\n\n\tat org.springframework.boot.SpringApplication.runCommandLineRunners(SpringApplication.java:673)\n\n\n\n\n\t... 10 more\n\n\n\n\n\n","creation_date":"2015-09-27T09:57:42.000-05:00","resolution_date":"2015-11-02T09:21:59.000-06:00","fixed_files":["org.springframework.data.mongodb.core.MongoTemplate"]}
{"key":"DATAMONGO-1335","title":"DBObjectAccessor doesn\u0027t write properties correctly if multiple ones are nested","description":"When DBObjectAccessor is building the BasicDBObject it could check if the current dbObject already holds a BasicDBObject for the given key\nAnd thus documents like the one below will be inserted correctly (now only \"id\" and \"desc\"  are inserted)\n\n\n\n\n\n\n    public class One {\n\n\n\n\n      @Id String id;\n\n\n\n\n      @Field(\"DATA.TITLE\") String title;\n\n\n\n\n      @Field(\"DATA.DESC\") String desc;\n\n\n\n\n     ....\n\n\n\n\n    }\n\n\n\n\n\n\nI have provided a sample projecte with a few tests in order to verify the behaviour before and after the proposed change.\nI am aware that field names cannot contain the dot (.) character (https://docs.mongodb.org/manual/core/document/#field-names), and that data structures like the one before should be mapped with a Map BUT now the read process can cope with this kind of data structures so I am wondering if we can improve the write process to cover this case.  JUST AN IDEA","creation_date":"2015-11-24T16:20:40.000-06:00","resolution_date":"2015-11-25T15:20:56.000-06:00","fixed_files":["org.springframework.data.mongodb.core.convert.DBObjectAccessor","org.springframework.data.mongodb.core.convert.DBObjectAccessorUnitTests"]}
{"key":"DATAMONGO-1342","title":"Potential NullPointerException in MongoQueryCreator.nextAsArray()","description":"A null value is handed to a contains-clause of a repository query method will cause a NullPointerException rather than being treated like a single element object array.","creation_date":"2015-11-25T16:21:53.000-06:00","resolution_date":"2015-12-15T14:48:53.000-06:00","fixed_files":["org.springframework.data.mongodb.repository.query.MongoQueryCreator","org.springframework.data.mongodb.repository.query.MongoQueryCreatorUnitTests"]}
{"key":"DATAMONGO-1288","title":"Update.inc(String, Number) method fails to work with AtomicInteger","description":"Even though the org.springframework.data.mongodb.core.query.Update.inc(String, Number) method takes the parameter as Number, it doesn\u0027t actually work right with things that aren\u0027t simple primitive object wrappers.  For example, if you pass in an AtomicInteger, the update fails to execute, as the generated json isn\u0027t correct.","creation_date":"2015-09-16T23:51:16.000-05:00","resolution_date":"2016-02-11T13:09:46.000-06:00","fixed_files":["org.springframework.data.mongodb.core.convert.CustomConversions","org.springframework.data.mongodb.core.convert.MongoConverters","org.springframework.data.mongodb.core.convert.UpdateMapperUnitTests"]}
{"key":"DATAMONGO-1401","title":"GeoJsonPoint error on update","description":"If i try to do an update on Entity with a GeoJsonPoint properties i get the following:\n\n\n\n\n\n\norg.springframework.data.mapping.context.InvalidPersistentPropertyPath: No property type found on org.springframework.data.mongodb.core.geo.GeoJsonPoint!\n\n\n\n\n\n\n\n\n\n\tat org.springframework.data.mapping.context.AbstractMappingContext.getPersistentPropertyPath(AbstractMappingContext.java:256)\n\n\n\n\n\tat org.springframework.data.mapping.context.AbstractMappingContext.getPersistentPropertyPath(AbstractMappingContext.java:229)\n\n\n\n\n\tat org.springframework.data.mapping.context.AbstractMappingContext.getPersistentPropertyPath(AbstractMappingContext.java:204)\n\n\n\n\n\tat org.springframework.data.mongodb.core.convert.QueryMapper$MetadataBackedField.getPath(QueryMapper.java:838)\n\n\n\n\n\tat org.springframework.data.mongodb.core.convert.QueryMapper$MetadataBackedField.\u003cinit\u003e(QueryMapper.java:729)\n\n\n\n\n\tat org.springframework.data.mongodb.core.convert.QueryMapper$MetadataBackedField.\u003cinit\u003e(QueryMapper.java:706)\n\n\n\n\n\tat org.springframework.data.mongodb.core.convert.UpdateMapper$MetadataBackedUpdateField.\u003cinit\u003e(UpdateMapper.java:193)\n\n\n\n\n\tat org.springframework.data.mongodb.core.convert.UpdateMapper.createPropertyField(UpdateMapper.java:164)\n\n\n\n\n\tat org.springframework.data.mongodb.core.convert.QueryMapper.getMappedObject(QueryMapper.java:122)\n\n\n\n\n\tat org.springframework.data.mongodb.core.convert.QueryMapper.convertSimpleOrDBObject(QueryMapper.java:359)\n\n\n\n\n\tat org.springframework.data.mongodb.core.convert.UpdateMapper.getMappedObjectForField(UpdateMapper.java:77)\n\n\n\n\n\tat org.springframework.data.mongodb.core.convert.QueryMapper.getMappedObject(QueryMapper.java:123)\n\n\n\n\n\tat org.springframework.data.mongodb.core.convert.QueryMapper.convertSimpleOrDBObject(QueryMapper.java:359)\n\n\n\n\n\tat org.springframework.data.mongodb.core.convert.UpdateMapper.getMappedObjectForField(UpdateMapper.java:77)\n\n\n\n\n\tat org.springframework.data.mongodb.core.convert.QueryMapper.getMappedObject(QueryMapper.java:123)\n\n\n\n\n\tat org.springframework.data.mongodb.core.MongoTemplate$12.doInCollection(MongoTemplate.java:1108)\n\n\n\n\n\tat org.springframework.data.mongodb.core.MongoTemplate$12.doInCollection(MongoTemplate.java:1099)\n\n\n\n\n\tat org.springframework.data.mongodb.core.MongoTemplate.execute(MongoTemplate.java:462)\n\n\n\n\n\tat org.springframework.data.mongodb.core.MongoTemplate.doUpdate(MongoTemplate.java:1099)\n\n\n\n\n\tat org.springframework.data.mongodb.core.MongoTemplate.doSaveVersioned(MongoTemplate.java:973)\n\n\n\n\n\tat org.springframework.data.mongodb.core.MongoTemplate.save(MongoTemplate.java:937)\n\n\n\n\n\tat org.springframework.data.mongodb.core.MongoTemplate.save(MongoTemplate.java:921)\n\n\n\n\n\n\n","creation_date":"2016-03-22T11:33:58.000-05:00","resolution_date":"2016-03-31T07:39:58.000-05:00","fixed_files":["org.springframework.data.mongodb.core.convert.QueryMapper","org.springframework.data.mongodb.core.MongoTemplateTests"]}
{"key":"DATAMONGO-1406","title":"Query mapper does not use @Field field name when querying nested fields in combination with nested keywords","description":"we have a document class;\n\n\n\n\n\n\n@Document(collection \u003d \"Computer\")\n\n\n\n\npublic class Computer\n\n\n\n\n{\n\n\n\n\n   @Id\n\n\n\n\n   private String _id;\n\n\n\n\n\n\n\n\n\n   private String batchId;\n\n\n\n\n\n\n\n\n\n  @Field(\"stat\")\n\n\n\n\n   private String status;\n\n\n\n\n\n\n\n\n\n   @Field(\"disp\")\n\n\n\n\n   private List\u003cMonitor\u003e displays;\n\n\n\n\n\n\n\n\n\n   //setters and getters\n\n\n\n\n}\n\n\n\n\n\n\n\n\n\npublic class Monitor {\n\n\n\n\n   @Field(\"res\")\n\n\n\n\n   private String resolution;\n\n\n\n\n\n\n\n\n\n  // setters/getters\n\n\n\n\n}\n\n\n\n\n\n\nIn MongoTemplate.java, the call to :\n\n\n\n\n\n\nprotected \u003cS, T\u003e List\u003cT\u003e doFind(String collectionName, DBObject query, DBObject fields, Class\u003cS\u003e entityClass,\n\n\n\n\n\t\t\tCursorPreparer preparer, DbObjectCallback\u003cT\u003e objectCallback)\n\n\n\n\n\n\n\n\n\nDBObject mappedQuery \u003d queryMapper.getMappedObject(query, entity);\n\n\n\n\n\n\nresolves the fields to the input query to the ones in the @Field annotations, except for these in embedded arrays. So, in the example above, resolution fields in DBObject remains resolution. While, the status field resolves to stat. \nNote the queries in the inner list, are setup as elemMatch.\nThe query submitted to mongo after getMappedObject is called:\n\n\n\n\n\n\n{ \"$and\" : [ { \"stat\" : \"A\"} , { \"disp\" : { \"$elemMatch\" : { \"$and\" : [ { \"resolution\" : { \"$ne\" :  null }} , { \"resolution\" : { \"$ne\" : \"\"}}]}}}] , \"batchId\" : \"5d0f1c53-92a2-48cb-8c84-1061769962c1\"}\n\n\n\n\n\n\nWhich doesn\u0027t get any data, because there is no field called resolution (the field in mongo is res). \nNote: The query input to getMappedObject is:\n\n\n\n\n\n\n{ \"$and\" : [ { \"status\" : \"A\"} , { \"displays\" : { \"$elemMatch\" : { \"$and\" : [ { \"resolution\" : { \"$ne\" :  null }} , { \"resolution\" : { \"$ne\" : \"\"}}]}}}] , \"batchId\" : \"5d0f1c53-92a2-48cb-8c84-1061769962c1\"}\n\n\n\n\n\n\nNotice the status and displays fields correctly get converted to the value in the @Field annotation. \nThe correct query from getMappedObject should be:\n\n\n\n\n\n\n{ \"$and\" : [ { \"stat\" : \"A\"} , { \"disp\" : { \"$elemMatch\" : { \"$and\" : [ { \"res\" : { \"$ne\" :  null }} , { \"res\" : { \"$ne\" : \"\"}}]}}}] , \"batchId\" : \"5d0f1c53-92a2-48cb-8c84-1061769962c1\"}\n\n\n\n\n\n\nThis basically means that any queries that operate on fields (with a name different from the peristed name) in the inner list will fail. \n","creation_date":"2016-04-04T18:59:49.000-05:00","resolution_date":"2016-08-25T11:50:06.000-05:00","fixed_files":["org.springframework.data.mongodb.core.convert.QueryMapper","org.springframework.data.mongodb.core.convert.QueryMapperUnitTests"]}
{"key":"DATAMONGO-1368","title":"findByIgnoreCase Not Escaping Parenthesis","description":"This was tested on 1.7.0.RELEASE.\nI have a method in the interface like:\nObject findOneByIdAndNameIgnoreCase(String id, String name);\nI call the function like this:\ndao.findOneByIdAndNameIgnoreCase(\"uid\", \"Engineer (TX)\");\nThis causes the following query to be generated (as seen in the debug log):\n(MongoTemplate.java:2066) - findOne using query: { \"id\" : \"uid\" , \"name\" : { \"$regex\" : \"^Engineer (TX)$\" , \"$options\" : \"i\"}} in db.collection\nWhich fails to find the record having:\n{\n\n\"id\" : \"uid\",\n\n\"name\" : \"Engineer (TX)\"\n\n}\n\nBecause the regex sees the parenthesis as part of the regex (as a group matcher) when it should see them as part of the plaintext.  i.e. they are not being escaped.\n","creation_date":"2016-01-29T22:58:48.000-06:00","resolution_date":"2016-11-02T18:25:24.000-05:00","fixed_files":["org.springframework.data.mongodb.repository.query.MongoQueryCreator","org.springframework.data.mongodb.repository.query.MongoQueryCreatorUnitTests"]}
