{"key":"LANG-552","title":"","description":"I have expected that all StringUtils methods are \"null-friendly\"                          {code}\n import static org.junit.Assert.assertEquals;\n\nimport org.apache.commons.lang.StringUtils;\nimport org.junit.Test;\n\n\npublic class StringUtilsTest {\n\n\t@Test\n\tpublic void replaceEach(){\n\t\tString original \u003d \"Hello World!\";\n\t\tString[] searchList \u003d {\"Hello\", \"World\"};\n\t\tString[] replacementList \u003d {\"Greetings\", null};\n\t\tString result \u003d StringUtils.replaceEach(original, searchList, replacementList);\n\t\tassertEquals(\"Greetings !\", result);\n\t\t//perhaps this is ok as well\n                //assertEquals(\"Greetings World!\", result);\n                //or even\n\t\t//assertEquals(\"Greetings null!\", result);\n\t}\n\n\t\n}\n {code}"}
{"key":"LANG-346","title":"","description":"After round()  Mon Jul 02 03:10:00 CDT 2007 -- this is what I would expect    public void testRound()\n{\n    Calendar testCalendar \u003d Calendar.getInstance(TimeZone.getTimeZone(\"GMT\"));\n    testCalendar.set(2007, 6, 2, 8, 9, 50);\n    Date date \u003d testCalendar.getTime();\n    System.out.println(\"Before round() \" + date);\n    System.out.println(\"After round()  \" + DateUtils.round(date, Calendar.MINUTE));\n}\n\n Before round()  After round()   Before round()  After round()"}
{"key":"LANG-746","title":"","description":"NumberUtils.createNumber() should work equally for 0x1234 and 0X1234; currently 0X1234 generates a NumberFormatException  NumberUtils.createNumber()  Integer.decode()"}
{"key":"LANG-292","title":"unescapeXml(\"\u002612345678;\") should be \"\u002612345678;\"","description":"Maximim value for char is 0xFFFF, so \u0026#12345678; is invalid entity reference, and so should be left as is. public void testNumberOverflow() throws Exception {\n        doTestUnescapeEntity(\"\u0026#12345678;\", \"\u0026#12345678;\");\n        doTestUnescapeEntity(\"x\u0026#12345678;y\", \"x\u0026#12345678;y\");\n        doTestUnescapeEntity(\"\u0026#x12345678;\", \"\u0026#x12345678;\");\n        doTestUnescapeEntity(\"x\u0026#x12345678;y\", \"x\u0026#x12345678;y\");\n    }"}
{"key":"LANG-788","title":"","description":"I understand the intention of the ClassLoaderAwareObjectInputStream, but this implementation should also implement a fallback to the original implementation.                           {noformat}\n import org.apache.commons.lang3.SerializationUtils;\nimport org.junit.Test;\n\n\npublic class SerializationUtilsTest {\n\n\t\n\t@Test\n\tpublic void primitiveTypeClassSerialization(){\n\t\tClass\u003c?\u003e primitiveType \u003d int.class;\n\t\t\n\t\tClass\u003c?\u003e clone \u003d SerializationUtils.clone(primitiveType);\n\t\tassertEquals(primitiveType, clone);\n\t}\n}\n {noformat} \n\n {noformat}\n         protected Class\u003c?\u003e resolveClass(ObjectStreamClass desc) throws IOException, ClassNotFoundException {\n            String name \u003d desc.getName();\n            try {\n                return Class.forName(name, false, classLoader);\n            } catch (ClassNotFoundException ex) {\n            \ttry {\n            \t     return Class.forName(name, false, Thread.currentThread().getContextClassLoader());\n            \t} catch (Exception e) {\n\t\t     return super.resolveClass(desc);\n\t\t}\n            }\n        }\n {noformat}\n\n {noformat}\n     protected Class\u003c?\u003e resolveClass(ObjectStreamClass desc)\n\tthrows IOException, ClassNotFoundException\n    {\n\tString name \u003d desc.getName();\n\ttry {\n\t    return Class.forName(name, false, latestUserDefinedLoader());\n\t} catch (ClassNotFoundException ex) {\n\t    Class cl \u003d (Class) primClasses.get(name);\n\t    if (cl !\u003d null) {\n\t\treturn cl;\n\t    } else {\n\t\tthrow ex;\n\t    }\n\t}\n    }\n {noformat}"}
{"key":"LANG-363","title":"","description":"If Javascripts including\u0027/\u0027, IE will parse the scripts uncorrectly, actually \u0027/\u0027 should be escaped to \u0027\\/\u0027.  value \u003d \u0027\u003cscript\u003ealert(\\\u0027aaa\\\u0027);\u003c/script\u003e\u0027;this expression will make IE render page uncorrect, it should be document.getElementById(\"test\").    document.getElementById(\"test\") document.getElementById(\"test\") String s \u003d \"\u003cscript\u003ealert(\u0027aaa\u0027);\u003c/script\u003e\";\n  String str \u003d org.springframework.web.util.JavaScriptUtils.javaScriptEscape(s);\n  System.out.println(\"Spring JS Escape : \"+str);\n  str \u003d org.apache.commons.lang.StringEscapeUtils.escapeJavaScript(s);\n  System.out.println(\"Apache Common Lang JS Escape : \"+ str);"}
{"key":"LANG-315","title":"","description":"// Time 2 (should be, but is Time 3 \u003d\u003e NOT ok)   So a following stop()-call shouldn\u0027t increase the time counter, should it? suspend()  split() stop();  StopWatch sw \u003d new StopWatch();\n\n        sw.start();\n        Thread.sleep(1000);\n        sw.suspend();\n        // Time 1 (ok)\n        System.out.println(sw.getTime());\n\n        Thread.sleep(2000);\n        // Time 1 (again, ok)\n        System.out.println(sw.getTime());\n\n        sw.resume();\n        Thread.sleep(3000);\n        sw.suspend();\n        // Time 2 (ok)\n        System.out.println(sw.getTime());\n\n        Thread.sleep(4000);\n        // Time 2 (again, ok)\n        System.out.println(sw.getTime());\n\n        Thread.sleep(5000);\n        sw.stop();\n        // Time 2 (should be, but is Time 3 \u003d\u003e NOT ok)\n        System.out.println(sw.getTime());\n\n\n stop()"}
{"key":"LANG-832","title":"","description":"This should fail to parse the format and date but it actually works.   {IsNd}"}
