{"key":"DATACMNS-154","title":"Overwriting of delete(T entity) saveAndFlush(T entity); does not work anymore","description":"public interface UserRepository extends JpaRepository\u003cUser, Long\u003e,\n\n\n\n\n\t\tPagingAndSortingRepository\u003cUser, Long\u003e {\n\n\n\n\n\n\n\n\n\n\tpublic User saveAndFlush(User entity);\n\n\n\n\n\n\n\n\n\n\tpublic void delete(User entity);\n\n\n\n\n}"}
{"key":"DATACMNS-157","title":"@Query in extending interface is not picked up correctly","description":"@Query @NoRepositoryBean\n\n\n\n\npublic interface EntityRepository\u003cT\u003e extends JpaRepository\u003cT, Long\u003e {\n\n\n\n\n\n\n\n\n\n\tT findByDealer(Dealer dealer);\n\n\n\n\n}\n\n\n\n\n\n\n\n\n\n public interface CarRepository extends EntityRepository\u003cPersonalSiteVehicle\u003e {\n\n\n\n\n\n\n\n\n\n\t@Override\n\n\n\n\n\t@Query(\"select p from PersonalSiteVehicle p join p.detail d join d.enrichable e where e.dealer \u003d ?1\")\n\n\n\n\n\tPersonalSiteVehicle findByDealer(Dealer dealer);\n\n\n\n\n}\n\n\n\n\n\n\n @Query"}
{"key":"DATACMNS-160","title":"Regression of Repository instances with only delete* methods","description":"public interface DeleteOnlyRepository\u003cT, ID extends Serializable\u003e extends Repository\u003cT, ID\u003e{\n\n\n\n\n\n\n\n\n\n    public void delete(ID paramID);\n\n\n\n\n\n\n\n\n\n    public void delete(T paramT);\n\n\n\n\n\n\n\n\n\n    public void delete(Iterable\u003c? extends T\u003e paramIterable);\n\n\n\n\n\n\n\n\n\n    public void deleteAll();\n\n\n\n\n\n\n\n\n\n}"}
{"key":"DATACMNS-176","title":"StackOverflowError when inserted object is a CGLIB proxy","description":"@Scope(value\u003d\"session\", proxyMode \u003d ScopedProxyMode.TARGET_CLASS)"}
