{"key":"WFCORE-267","title":"CLI prints output twice if using cli client jar","description":"INFO: {\n\n\n\n\n    \"outcome\" \u003d\u003e \"success\",\n\n\n\n\n    \"result\" \u003d\u003e [\n\n\n\n\n        \"core-service\",\n\n\n\n\n        \"deployment\",\n\n\n\n\n        \"deployment-overlay\",\n\n\n\n\n        \"extension\",\n\n\n\n\n        \"interface\",\n\n\n\n\n        \"path\",\n\n\n\n\n        \"socket-binding-group\",\n\n\n\n\n        \"subsystem\",\n\n\n\n\n        \"system-property\"\n\n\n\n\n    ]\n\n\n\n\n}\n\n\n\n\n{\n\n\n\n\n    \"outcome\" \u003d\u003e \"success\",\n\n\n\n\n    \"result\" \u003d\u003e [\n\n\n\n\n        \"core-service\",\n\n\n\n\n        \"deployment\",\n\n\n\n\n        \"deployment-overlay\",\n\n\n\n\n        \"extension\",\n\n\n\n\n        \"interface\",\n\n\n\n\n        \"path\",\n\n\n\n\n        \"socket-binding-group\",\n\n\n\n\n        \"subsystem\",\n\n\n\n\n        \"system-property\"\n\n\n\n\n    ]\n\n\n\n\n}"}
{"key":"WFCORE-495","title":"WFLY won\u0027t startup due to \"WFLYCTL0212: Duplicate resource [(\\\"deployment\\\" \u003d\u003e \\\"xxx.war\\\")]\"","description":"file(standalone.xml) file(standalone.xml)"}
{"key":"WFCORE-604","title":" After failed to deploy, remain deployment information in JBOSS_HOME/{standalone|domaine}/data/content directory","description":"{standalone|domaine} {standalone|domaine} {standalone|domaine} {standalone|domaine} {standalone|domaine}"}
{"key":"WFCORE-1067","title":" CVE-2015-5304 Missing authorization check for Monitor/Deployer/Auditor role when shutting down server or canceling op","description":"context.getServiceRegistry(true)"}
{"key":"WFCORE-626","title":"Global list-get operation can inadvertently create list elements","description":"clear(name\u003dattribute)\n get(name\u003dattribute, index\u003d0)\n add(name\u003dattribute, value\u003dtest)\n get(name\u003dattribute, index\u003d0)"}
{"key":"WFCORE-687","title":"patches with duplicate element patch-id values should be rejected","description":"IdentityPatchContext.recordContentLoader(patchID, contentLoader)"}
{"key":"WFCORE-701","title":"Inconsistent domain server status reports between server-config resource and server resource","description":"attribute(name\u003dstatus)\n\n\n\n\n {\n\n\n\n\n    \"outcome\" \u003d\u003e \"success\",\n\n\n\n\n    \"result\" \u003d\u003e \"FAILED\"\n\n\n\n\n}\n\n\n\n\n attribute(name\u003dserver-state)\n\n\n\n\n {\n\n\n\n\n    \"outcome\" \u003d\u003e \"success\",\n\n\n\n\n    \"result\" \u003d\u003e \"STOPPED\"\n\n\n\n\n}"}
{"key":"WFCORE-442","title":"AbstractMultiTargetHandler-based handlers do not propagate failures to the top level failure-description","description":"{read-only\u003d1} {\n\n\n\n\n                \"name\" \u003d\u003e \"jboss.server.temp.dir\",\n\n\n\n\n                \"path\" \u003d\u003e \"/Users/hbraun/dev/prj/wildfly-core/core-build/target/wildfly-core-1.0.0.Alpha14-SNAPSHOT/standalone/tmp\",\n\n\n\n\n                \"read-only\" \u003d\u003e true,\n\n\n\n\n                \"relative-to\" \u003d\u003e undefined\n\n\n\n\n            } {\n\n\n\n\n                \"name\" \u003d\u003e \"user.home\",\n\n\n\n\n                \"path\" \u003d\u003e \"/Users/hbraun\",\n\n\n\n\n                \"read-only\" \u003d\u003e true,\n\n\n\n\n                \"relative-to\" \u003d\u003e undefined\n\n\n\n\n            } {\n\n\n\n\n                \"name\" \u003d\u003e \"jboss.server.base.dir\",\n\n\n\n\n                \"path\" \u003d\u003e \"/Users/hbraun/dev/prj/wildfly-core/core-build/target/wildfly-core-1.0.0.Alpha14-SNAPSHOT/standalone\",\n\n\n\n\n                \"read-only\" \u003d\u003e true,\n\n\n\n\n                \"relative-to\" \u003d\u003e undefined\n\n\n\n\n            } {\n\n\n\n\n                \"name\" \u003d\u003e \"user.dir\",\n\n\n\n\n                \"path\" \u003d\u003e \"/Users/hbraun/dev/prj/wildfly-core/core-build/target/wildfly-core-1.0.0.Alpha14-SNAPSHOT\",\n\n\n\n\n                \"read-only\" \u003d\u003e true,\n\n\n\n\n                \"relative-to\" \u003d\u003e undefined\n\n\n\n\n            } {\n\n\n\n\n                \"name\" \u003d\u003e \"jboss.server.data.dir\",\n\n\n\n\n                \"path\" \u003d\u003e \"/Users/hbraun/dev/prj/wildfly-core/core-build/target/wildfly-core-1.0.0.Alpha14-SNAPSHOT/standalone/data\",\n\n\n\n\n                \"read-only\" \u003d\u003e true,\n\n\n\n\n                \"relative-to\" \u003d\u003e undefined\n\n\n\n\n            } {\n\n\n\n\n                \"name\" \u003d\u003e \"jboss.home.dir\",\n\n\n\n\n                \"path\" \u003d\u003e \"/Users/hbraun/dev/prj/wildfly-core/core-build/target/wildfly-core-1.0.0.Alpha14-SNAPSHOT\",\n\n\n\n\n                \"read-only\" \u003d\u003e true,\n\n\n\n\n                \"relative-to\" \u003d\u003e undefined\n\n\n\n\n            } {\n\n\n\n\n                \"name\" \u003d\u003e \"jboss.server.log.dir\",\n\n\n\n\n                \"path\" \u003d\u003e \"/Users/hbraun/dev/prj/wildfly-core/core-build/target/wildfly-core-1.0.0.Alpha14-SNAPSHOT/standalone/log\",\n\n\n\n\n                \"read-only\" \u003d\u003e true,\n\n\n\n\n                \"relative-to\" \u003d\u003e undefined\n\n\n\n\n            } {\n\n\n\n\n                \"name\" \u003d\u003e \"jboss.controller.temp.dir\",\n\n\n\n\n                \"path\" \u003d\u003e \"/Users/hbraun/dev/prj/wildfly-core/core-build/target/wildfly-core-1.0.0.Alpha14-SNAPSHOT/standalone/tmp\",\n\n\n\n\n                \"read-only\" \u003d\u003e true,\n\n\n\n\n                \"relative-to\" \u003d\u003e undefined\n\n\n\n\n            }"}
