{"id":65,"bug_id":"DERBY-4624","text":"Broken logic for avoiding testing across midnight in TimestampArithTest. 2 If the current time is after 23:58 and before 23:59, the code sleeps until 23:59, the test will wait until 23:59 before it starts, making it even more likely that it will cross midnight while running. 3 The code is executed after the Calendar object has been initialized, so if this code is ever triggered and waits until after midnight, the TODAY field is guaranteed to be yesterday when the test starts executing.","class_goldset":["org.apache.derbyTesting.functionTests.tests.lang.TimestampArithTest"],"file_goldset":["org.apache.derbyTesting.functionTests.tests.lang.TimestampArithTest"],"creation_date":"2010-04-21T10:30:55.000+0000","resolution_date":"2010-05-19T07:57:41.000+0000"}
{"id":66,"bug_id":"DERBY-4654","text":"Restriction.toSQL() doesn\u0027t escape special characters. org.apache.derby.vti.Restriction.toSQL() adds double quotes around column names, but it does not escape the special characters (like double quotes) in the column names, so the returned string may not be valid SQL.","class_goldset":["org.apache.derby.vti.Restriction","org.apache.derbyTesting.functionTests.tests.lang.RestrictedVTITest"],"file_goldset":["org.apache.derby.vti.Restriction","org.apache.derbyTesting.functionTests.tests.lang.RestrictedVTITest"],"creation_date":"2010-05-12T10:27:40.000+0000","resolution_date":"2010-05-14T09:01:50.000+0000"}
{"id":67,"bug_id":"DERBY-4664","text":"Some Derby internal Stored procedures and functions call DriverManager.getConnection(\"jdbc:default:connection\"); and this url can be recognized by another Driver in the same classpath that is used for server side JDBC for another product. For example the below occurred in NetworkServer when JCC was also loaded because the JCC Type 2 driver is used for server side JDBC:","class_goldset":["org.apache.derby.impl.jdbc.LOBStoredProcedure"],"file_goldset":["org.apache.derby.impl.jdbc.LOBStoredProcedure"],"creation_date":"2010-05-18T23:56:12.000+0000","resolution_date":"2010-05-26T00:21:26.000+0000"}
{"id":68,"bug_id":"DERBY-4665","text":"Unidiomatic error handling in TimestampArithTest. TimestampArithTest contains some error handling code that prevents the underlying error from being reported to the JUnit framework, and it may even terminate the JVM running the tests on some errors.","class_goldset":["org.apache.derbyTesting.functionTests.tests.lang.TimestampArithTest","org.apache.derbyTesting.functionTests.tests.lang.TimestampArithTest.OneTest"],"file_goldset":["org.apache.derbyTesting.functionTests.tests.lang.TimestampArithTest","org.apache.derbyTesting.functionTests.tests.lang.TimestampArithTest.OneTest"],"creation_date":"2010-05-19T08:12:33.000+0000","resolution_date":"2010-05-19T14:01:43.000+0000"}
{"id":69,"bug_id":"DERBY-4671","text":"Embedded driver does not work with jbossCache. When trying to use jbossCache (version 3.2.5) and an embedded derby driver the following exception is thrown when jbossCache tries to persist information to the database                                                         It works fine using ClientDriver.","class_goldset":["org.apache.derby.impl.sql.compile.ResultSetNode"],"file_goldset":["org.apache.derby.impl.sql.compile.ResultSetNode"],"creation_date":"2010-05-20T21:38:05.000+0000","resolution_date":"2010-05-27T12:23:04.000+0000"}
{"id":70,"bug_id":"DERBY-4684","text":"Via a UNION query, it is possible to implicitly cast non-BOOLEAN types to BOOLEAN today. These implicit casts do not obey the SQL Standard rules defined in part 2, section 6.12 (\u003ccast specification\u003e).  The following query shows how you can implicitly cast a non-BOOLEAN data type to BOOLEAN today:","class_goldset":["org.apache.derby.iapi.types.SQLBoolean","org.apache.derby.impl.sql.compile.BooleanTypeCompiler"],"file_goldset":["org.apache.derby.iapi.types.SQLBoolean","org.apache.derby.impl.sql.compile.BooleanTypeCompiler"],"creation_date":"2010-06-01T15:46:19.000+0000","resolution_date":"2010-06-03T16:11:08.000+0000"}
{"id":71,"bug_id":"DERBY-4693","text":"column rename looses \u0027identity\u0027 attribute.. renaming an identity column causes the column to loose its \u0027identity\u0027 attribute.        To compound this problem there is no way to restore the renamed column\u0027s identity attribute as the alter command doesn\u0027t let you set an identity attribute.","class_goldset":["org.apache.derby.impl.sql.execute.RenameConstantAction"],"file_goldset":["org.apache.derby.impl.sql.execute.RenameConstantAction"],"creation_date":"2010-06-05T11:36:41.000+0000","resolution_date":"2010-06-15T01:04:02.000+0000"}
{"id":72,"bug_id":"DERBY-4718","text":"There are \"public static void main()\" in both LocalizedDisplayScriptTest and LocalizedAttributeScriptTest. Obviously, the two medthods have wrong signature, they don\u0027t have \"String[] args\".","class_goldset":["org.apache.derbyTesting.functionTests.tests.i18n.LocalizedAttributeScriptTest","org.apache.derbyTesting.functionTests.tests.i18n.LocalizedDisplayScriptTest"],"file_goldset":["org.apache.derbyTesting.functionTests.tests.i18n.LocalizedAttributeScriptTest","org.apache.derbyTesting.functionTests.tests.i18n.LocalizedDisplayScriptTest"],"creation_date":"2010-06-28T07:48:44.000+0000","resolution_date":"2010-06-28T10:16:03.000+0000"}
{"id":73,"bug_id":"DERBY-4748","text":"StringIndexOutOfBoundsException on syntax error (invalid COMMIT). On 10.5.3, I get       but on 10.6.1, I get\n     [sql] Executing commands","class_goldset":["org.apache.derby.client.am.Statement","org.apache.derbyTesting.functionTests.tests.lang.CommentTest"],"file_goldset":["org.apache.derby.client.am.Statement","org.apache.derbyTesting.functionTests.tests.lang.CommentTest"],"creation_date":"2010-07-19T23:13:09.000+0000","resolution_date":"2010-08-10T15:20:06.000+0000"}
{"id":74,"bug_id":"DERBY-4755","text":"DERBY-4601 added a new message to derby.log during engine shutdown and it changed the database shutdown message. Need to update docs with that information. DERBY-4601 added a new message to derby.log during engine shutdown and it changed the database shutdown message.","class_goldset":["org.apache.derby.impl.services.monitor.BaseMonitor"],"file_goldset":["org.apache.derby.impl.services.monitor.BaseMonitor"],"creation_date":"2010-07-23T19:00:13.000+0000","resolution_date":"2010-11-23T15:43:52.000+0000"}
{"id":75,"bug_id":"DERBY-4772","text":"Data truncation error with XPLAIN-functionality enabled. When running a modified version of lang.OrderByAndSortAvoidance I get the following error:","class_goldset":["org.apache.derby.impl.sql.catalog.XPLAINStatementDescriptor","org.apache.derby.impl.sql.execute.xplain.XPLAINSystemTableVisitor"],"file_goldset":["org.apache.derby.impl.sql.catalog.XPLAINStatementDescriptor","org.apache.derby.impl.sql.execute.xplain.XPLAINSystemTableVisitor"],"creation_date":"2010-08-13T13:23:13.000+0000","resolution_date":"2010-11-12T13:08:36.000+0000"}
{"id":76,"bug_id":"DERBY-4786","text":"But with this fix, the existing shutdown command which does not use username and password stopped working from client with DERBY-2109 changes against a network server without DERBY-2109 changes.","class_goldset":["org.apache.derby.impl.drda.NetworkServerControlImpl"],"file_goldset":["org.apache.derby.impl.drda.NetworkServerControlImpl"],"creation_date":"2010-08-31T18:58:13.000+0000","resolution_date":"2010-10-06T18:08:56.000+0000"}
{"id":77,"bug_id":"DERBY-4803","text":"Sequences do not work in INSERT/SELECT. Using sequence in SELECT works fine whereas the same SELECT query used in INSERT/SELECT results in \"The statement references the following sequence more than once\" error. This happens even though the SELECT in question returns exactly 1 row of data.","class_goldset":["org.apache.derby.impl.sql.compile.NextSequenceNode"],"file_goldset":["org.apache.derby.impl.sql.compile.NextSequenceNode"],"creation_date":"2010-09-16T19:59:17.000+0000","resolution_date":"2010-09-22T12:42:31.000+0000"}
{"id":78,"bug_id":"DERBY-4828","text":"Import fails if column names contain double quotes. If the target table for an import operation contains columns with double quotes in their names, the import will fail with a syntax error.","class_goldset":["org.apache.derby.impl.load.ColumnInfo"],"file_goldset":["org.apache.derby.impl.load.ColumnInfo"],"creation_date":"2010-10-01T08:21:09.000+0000","resolution_date":"2010-10-04T11:14:27.000+0000"}
{"id":79,"bug_id":"DERBY-4835","text":"Trigger plan does not recompile with upgrade from 10.5.3.0 to 10.6.1.0 causing  java.lang.NoSuchMethodError. Trigger plan does not recompile on upgrade from 10.5.3.0 to 10.6.1.0  causing the following exception  the first time the trigger is fired after upgrade.","class_goldset":["org.apache.derby.impl.sql.catalog.DD_Version","org.apache.derbyTesting.functionTests.tests.upgradeTests.BasicSetup"],"file_goldset":["org.apache.derby.impl.sql.catalog.DD_Version","org.apache.derbyTesting.functionTests.tests.upgradeTests.BasicSetup"],"creation_date":"2010-10-06T16:05:13.000+0000","resolution_date":"2010-10-15T18:13:00.000+0000"}
{"id":80,"bug_id":"DERBY-4873","text":"NullPointerException in testBoundaries with ibm jvm 1.6 . With the line skipping the testBoundaries fixture of the InternationalConnectTest commented out, I get the following stack when I run the test with ibm 1.6:","class_goldset":["org.apache.derby.impl.store.raw.data.BaseDataFileFactory"],"file_goldset":["org.apache.derby.impl.store.raw.data.BaseDataFileFactory"],"creation_date":"2010-10-28T23:45:13.000+0000","resolution_date":"2012-10-31T10:01:49.000+0000"}
{"id":81,"bug_id":"DERBY-4884","text":"DatabasePropertyTestSetup cannot change static properties in encrypted databases. DatabasePropertyTestSetup needs to reboot the database in order to set static properties. In tests with encrypted databases, the database cannot be rebooted because the boot password is only known inside the setUp() method of the decorator created by Decorator.encryptedDatabase(). One of the problems that results from this, is that BlobClob4Blob test cannot reduce the lock timeout for the encrypted variant of the test. Since there are four test cases that wait for a lock timeout, the test takes almost four minutes longer than it would have if the lock timeout had been reduced.","class_goldset":["org.apache.derbyTesting.functionTests.tests.jdbcapi.BlobClob4BlobTest","org.apache.derbyTesting.functionTests.tests.jdbcapi.DatabaseMetaDataTest","org.apache.derbyTesting.functionTests.tests.lang.DeadlockModeTest","org.apache.derbyTesting.junit.Decorator","org.apache.derbyTesting.junit.DriverManagerConnector","org.apache.derbyTesting.junit.JDBCDataSource"],"file_goldset":["org.apache.derbyTesting.functionTests.tests.jdbcapi.BlobClob4BlobTest","org.apache.derbyTesting.functionTests.tests.jdbcapi.DatabaseMetaDataTest","org.apache.derbyTesting.functionTests.tests.lang.DeadlockModeTest","org.apache.derbyTesting.junit.Decorator","org.apache.derbyTesting.junit.DriverManagerConnector","org.apache.derbyTesting.junit.JDBCDataSource"],"creation_date":"2010-11-04T11:15:07.000+0000","resolution_date":"2010-11-09T10:18:30.000+0000"}
{"id":82,"bug_id":"DERBY-4888","text":"ClassCastException when calling boolean meta-data functions with 10.7 client against 10.6 server. I noticed that DESCRIBE didn\u0027t work when I tried to connect to a 10.6 server with ij/client driver at version 10.7.","class_goldset":["org.apache.derby.client.am.DatabaseMetaData","org.apache.derbyTesting.functionTests.tests.junitTests.compatibility.JDBCDriverTest"],"file_goldset":["org.apache.derby.client.am.DatabaseMetaData","org.apache.derbyTesting.functionTests.tests.junitTests.compatibility.JDBCDriverTest"],"creation_date":"2010-11-05T19:17:43.000+0000","resolution_date":"2010-11-06T08:32:12.000+0000"}
{"id":83,"bug_id":"DERBY-4889","text":"Different byte to boolean conversion on embedded and client. The following code prints \"true\" with the embedded driver and \"false\" with the client driver:   If setByte() is replaced with setInt(), they both print \"true\".","class_goldset":["org.apache.derby.impl.drda.DRDAConnThread","org.apache.derbyTesting.functionTests.tests.jdbcapi.ParameterMappingTest"],"file_goldset":["org.apache.derby.impl.drda.DRDAConnThread","org.apache.derbyTesting.functionTests.tests.jdbcapi.ParameterMappingTest"],"creation_date":"2010-11-06T01:06:56.000+0000","resolution_date":"2010-11-08T18:56:38.000+0000"}
{"id":84,"bug_id":"DERBY-4892","text":"Unsafe use of BigDecimal constructors. The problem appears when the build does not use the Java 1.4 libraries.   The compiled byte-code will therefore use those Java 5 constructors, and the code will fail at run-time if ever executed on a Java 1.4 JVM.    You\u0027ll see two errors of this kind:","class_goldset":["org.apache.derby.client.am.Cursor","org.apache.derbyTesting.functionTests.tests.lang.Price","org.apache.derbyTesting.system.oe.client.Submitter"],"file_goldset":["org.apache.derby.client.am.Cursor","org.apache.derbyTesting.functionTests.tests.lang.Price","org.apache.derbyTesting.system.oe.client.Submitter"],"creation_date":"2010-11-06T09:14:51.000+0000","resolution_date":"2010-11-08T08:03:10.000+0000"}
