{"id":228,"bug_id":"OPENJPA-1630","text":"NPE in MetaDataRepository when preloading is enabled under heavy stress.. A timing window exists in the MetaDataRepository where the following[1] NPE can be encountered. It is incorrect to assume that calling processRegisteredClasses at the end of preload would process all registered classes. As it turns out, that call does process all registered classes that this instance of the MDR cares about. The problem comes in when after the MDR is preloaded, Entities that belong to a different PU are registered with the PCRegistry and they are added to the _registered list.","class_goldset":["org.apache.openjpa.meta.MetaDataRepository"],"file_goldset":["org.apache.openjpa.meta.MetaDataRepository"],"creation_date":"2010-04-13T19:33:41.000+0000","resolution_date":"2010-04-15T16:43:08.000+0000"}
{"id":229,"bug_id":"OPENJPA-1752","text":"TestPessimisticLocks JUNIT test produced inconsistent behavior with various backends. TestPessimisticLocks JUNIT tests pass all assertions for Derby backend, but failures are seen on DB2, MySQL, Oracle.   There is also inconsistency in reporting exceptions - lock timout or query timeout should be non-fatal; but with Derby the PessimisticLockException is reported  which is considered fatal.        The failure symptoms are summarized below -   Each test contains 2 variations.            NOTE: for Oracle, many test scenarios caused process to hang (test 3.1, 3.2, and 4.2) - ie. test never run to completion\n      for MySQL, Server shutdown (test 3.1 and 3.2)\n      here is the  stack trace:","class_goldset":["org.apache.openjpa.persistence.lockmgr.TestPessimisticLocks"],"file_goldset":["org.apache.openjpa.persistence.lockmgr.TestPessimisticLocks"],"creation_date":"2010-07-30T04:33:45.000+0000","resolution_date":"2010-08-20T00:29:00.000+0000"}
{"id":230,"bug_id":"OPENJPA-1787","text":"Bean validation fails merging a new entity. you get a ConstraintValidationException, although name is set.","class_goldset":["org.apache.openjpa.integration.validation.TestValidationGroups","org.apache.openjpa.kernel.AttachStrategy","org.apache.openjpa.kernel.BrokerImpl"],"file_goldset":["org.apache.openjpa.integration.validation.TestValidationGroups","org.apache.openjpa.kernel.AttachStrategy","org.apache.openjpa.kernel.BrokerImpl"],"creation_date":"2010-09-10T16:23:51.000+0000","resolution_date":"2011-03-16T18:52:14.000+0000"}
{"id":231,"bug_id":"OPENJPA-1837","text":"ElementCollection contains Embeddable with blob value fails in Oracle. An element collection which contains Embeddable with Lob field fails with Oracle:","class_goldset":["org.apache.openjpa.jdbc.meta.MappingRepository","org.apache.openjpa.jdbc.meta.strats.EmbedValueHandler","org.apache.openjpa.jdbc.meta.strats.HandlerFieldStrategy","org.apache.openjpa.jdbc.meta.strats.MaxEmbeddedBlobFieldStrategy","org.apache.openjpa.jdbc.meta.strats.MaxEmbeddedByteArrayFieldStrategy","org.apache.openjpa.jdbc.meta.strats.MaxEmbeddedCharArrayFieldStrategy","org.apache.openjpa.jdbc.meta.strats.MaxEmbeddedClobFieldStrategy","org.apache.openjpa.jdbc.meta.strats.MaxEmbeddedLobFieldStrategy","org.apache.openjpa.persistence.jdbc.annotations.EmbedOwner","org.apache.openjpa.persistence.jdbc.annotations.TestEJBEmbedded"],"file_goldset":["org.apache.openjpa.jdbc.meta.MappingRepository","org.apache.openjpa.jdbc.meta.strats.EmbedValueHandler","org.apache.openjpa.jdbc.meta.strats.HandlerFieldStrategy","org.apache.openjpa.jdbc.meta.strats.MaxEmbeddedBlobFieldStrategy","org.apache.openjpa.jdbc.meta.strats.MaxEmbeddedByteArrayFieldStrategy","org.apache.openjpa.jdbc.meta.strats.MaxEmbeddedCharArrayFieldStrategy","org.apache.openjpa.jdbc.meta.strats.MaxEmbeddedClobFieldStrategy","org.apache.openjpa.jdbc.meta.strats.MaxEmbeddedLobFieldStrategy","org.apache.openjpa.persistence.jdbc.annotations.EmbedOwner","org.apache.openjpa.persistence.jdbc.annotations.TestEJBEmbedded"],"creation_date":"2010-10-15T22:17:50.000+0000","resolution_date":"2010-10-20T22:01:15.000+0000"}
{"id":232,"bug_id":"OPENJPA-1897","text":"Further investigation on reserved names for Sybase shows that few (if any) of the reserved words may be used as column names.","class_goldset":["org.apache.openjpa.jdbc.sql.SybaseDictionary"],"file_goldset":["org.apache.openjpa.jdbc.sql.SybaseDictionary"],"creation_date":"2010-11-23T17:29:49.000+0000","resolution_date":"2010-11-23T20:08:45.000+0000"}
{"id":233,"bug_id":"OPENJPA-1901","text":"However, the QueryResult containes Object[] of org.apache.openjpa.datacache.QueryCacheStoreQuery$CachedObjectId that is not Serializable and cause this issue.       Final portion of call stack when the Exception happens:","class_goldset":["org.apache.openjpa.datacache.QueryCacheStoreQuery.CachedObjectId"],"file_goldset":["org.apache.openjpa.datacache.QueryCacheStoreQuery.CachedObjectId"],"creation_date":"2010-11-30T16:29:30.000+0000","resolution_date":"2012-02-06T23:38:30.000+0000"}
{"id":234,"bug_id":"OPENJPA-1903","text":"Some queries only work the first time they are executed. I have a problem in my application where a query that sometimes returns data and sometimes not.               this query works all the time, note that it uses website.name for matching, not the full Website-object.   it only works ONCE and then does not return any results any more!!","class_goldset":["org.apache.openjpa.jdbc.kernel.PreparedQueryImpl"],"file_goldset":["org.apache.openjpa.jdbc.kernel.PreparedQueryImpl"],"creation_date":"2010-12-06T19:05:34.000+0000","resolution_date":"2012-02-03T19:28:54.000+0000"}
{"id":235,"bug_id":"OPENJPA-1911","text":"InvalidStateException is thrown when merge an entity with derived identiy. ","class_goldset":["org.apache.openjpa.kernel.StateManagerImpl"],"file_goldset":["org.apache.openjpa.kernel.StateManagerImpl"],"creation_date":"2011-01-03T18:51:17.000+0000","resolution_date":"2011-02-15T21:01:01.000+0000"}
{"id":236,"bug_id":"OPENJPA-1912","text":"enhancer generates invalid code if fetch-groups is activated. If openjpa.DetachState \u003dfetch-groups is used, the enhancer will add a \u0027implements Externalizable\u0027 + writeExternal + readExternal. The problem is, that writeExternal and readExternal will also try to externalize the private members of any given superclass. Thus we get a runtime Exception that we are not allowed to access those fields.            will result in the following code (decompiled with jad):","class_goldset":["org.apache.openjpa.enhance.PCEnhancer"],"file_goldset":["org.apache.openjpa.enhance.PCEnhancer"],"creation_date":"2011-01-03T19:48:09.000+0000","resolution_date":"2011-02-16T02:12:52.000+0000"}
{"id":237,"bug_id":"OPENJPA-1918","text":"MetaDataRepository.preload() ignores class loader returned by PersistenceUnitInfo.getClassLoader(). However, the code in MetaDataRepository.preload() only uses the context class loader and not the class loader from PersistenceUnitInfo, which leades to ClassNotFoundExpcetions like mentioned at the end of this report.","class_goldset":["org.apache.openjpa.meta.FieldMetaData","org.apache.openjpa.meta.MetaDataRepository","org.apache.openjpa.persistence.detach.NoVersionEntity"],"file_goldset":["org.apache.openjpa.meta.FieldMetaData","org.apache.openjpa.meta.MetaDataRepository","org.apache.openjpa.persistence.detach.NoVersionEntity"],"creation_date":"2011-01-06T14:11:24.000+0000","resolution_date":"2011-01-06T22:11:38.000+0000"}
{"id":238,"bug_id":"OPENJPA-1928","text":"Resolving factory method does not allow method overriding. If a get method is annotated with @Factory then the method cannot be overridden with a method which take different parameters. The system randomly selects one of the several methods with the same name which may or may not take the type which will be provided.   Actual results:\nvalueOf(String) may or may not be selected.","class_goldset":["org.apache.openjpa.meta.FieldMetaData"],"file_goldset":["org.apache.openjpa.meta.FieldMetaData"],"creation_date":"2011-01-20T23:43:52.000+0000","resolution_date":"2011-03-22T18:24:25.000+0000"}
{"id":239,"bug_id":"OPENJPA-1975","text":"Currently the DB2 issues SQL to obtain the default schema name in DB2Dictionary.connectedConfiguration(). The value is only used by the SchemaTool, and the extra SQL has an impact in some environments.","class_goldset":["org.apache.openjpa.jdbc.sql.DB2Dictionary","org.apache.openjpa.jdbc.sql.DBDictionary"],"file_goldset":["org.apache.openjpa.jdbc.sql.DB2Dictionary","org.apache.openjpa.jdbc.sql.DBDictionary"],"creation_date":"2011-04-07T20:57:51.000+0000","resolution_date":"2011-04-11T17:52:05.000+0000"}
{"id":240,"bug_id":"OPENJPA-1986","text":"Extra queries being generated when cascading a persist. I found a scenario where extra queries were being generated while cascading a persist to a new Entity.      This results in two inserts and one select.","class_goldset":["org.apache.openjpa.conf.Compatibility","org.apache.openjpa.kernel.BrokerImpl","org.apache.openjpa.kernel.SingleFieldManager"],"file_goldset":["org.apache.openjpa.conf.Compatibility","org.apache.openjpa.kernel.BrokerImpl","org.apache.openjpa.kernel.SingleFieldManager"],"creation_date":"2011-04-27T16:44:53.000+0000","resolution_date":"2011-04-27T19:22:52.000+0000"}
{"id":241,"bug_id":"OPENJPA-2007","text":"Setting query hint \"openjpa.FetchPlan.Isolation\" on a query results in this misleading warning being printed in the log:   The supported hint map in JDBCPersistenceProductDerivation adds key openjpa.FetchPlan.TransactionIsolation, which is incorrect.  Note: Even though a warning is issued, provided the database supports query-level isolation level switching, the hint handler does apply the isolation level to the query.","class_goldset":["org.apache.openjpa.conf.TestQueryHints","org.apache.openjpa.persistence.jdbc.JDBCPersistenceProductDerivation"],"file_goldset":["org.apache.openjpa.conf.TestQueryHints","org.apache.openjpa.persistence.jdbc.JDBCPersistenceProductDerivation"],"creation_date":"2011-05-25T19:51:51.000+0000","resolution_date":"2011-05-26T17:58:25.000+0000"}
{"id":242,"bug_id":"OPENJPA-2011","text":"Re-parsing entity annotations when processing query meta data can override mapping information from an XML mapping file.","class_goldset":["org.apache.openjpa.conf.Compatibility","org.apache.openjpa.persistence.XMLPersistenceMetaDataParser"],"file_goldset":["org.apache.openjpa.conf.Compatibility","org.apache.openjpa.persistence.XMLPersistenceMetaDataParser"],"creation_date":"2011-06-08T22:06:43.000+0000","resolution_date":"2011-07-27T21:32:54.000+0000"}
{"id":243,"bug_id":"OPENJPA-2132","text":"Traversal of a OneToMany relationship returns an empty list when InheritanceType.JOINED or SINGLE_TABLE is used.. When traversing the ManyToOne side of the relations, all works well. But when traversing the OneToMany side an empty list is returned. When running the test, it can be seen that OpenJPA generate incorrect SQL, as follows:   Note that the \u0027t2.id IS NULL AND t3.id IS NULL\u0027 seems suspect.","class_goldset":["org.apache.openjpa.jdbc.kernel.JDBCStoreManager"],"file_goldset":["org.apache.openjpa.jdbc.kernel.JDBCStoreManager"],"creation_date":"2012-02-14T20:48:29.000+0000","resolution_date":"2012-10-09T18:17:16.000+0000"}
{"id":244,"bug_id":"OPENJPA-2146","text":"StateManager for Embeddable may throw Exception while initializing. When a complex graph of nested Embeddable are used in an application data model, an issue may surface when the OpenJPA provider tries to instantiate an internal state manager that represents the nested Embeddable. This issue results in an exception. The Exception being thrown is based on a generalized assertion that the nested Embeddable does not have an identity associated to it since it is embedded in some entity which bears the identity. Sample Exception:","class_goldset":["org.apache.openjpa.kernel.StateManagerImpl"],"file_goldset":["org.apache.openjpa.kernel.StateManagerImpl"],"creation_date":"2012-02-27T22:17:52.000+0000","resolution_date":"2012-05-03T15:06:50.000+0000"}
{"id":245,"bug_id":"OPENJPA-2289","text":"Additional SQL alias generated for query with subquery causes incorrect # of rows returned - Oracle only. On Oracle we generate SQL like this on 2.0.    The additional alias \"OPENJPA_MAXQUERY_MAPENTITY t4\" caused more unexpected rows to return.","class_goldset":["org.apache.openjpa.jdbc.sql.DBDictionary","org.apache.openjpa.jdbc.sql.OracleDictionary","org.apache.openjpa.jdbc.sql.SelectImpl"],"file_goldset":["org.apache.openjpa.jdbc.sql.DBDictionary","org.apache.openjpa.jdbc.sql.OracleDictionary","org.apache.openjpa.jdbc.sql.SelectImpl"],"creation_date":"2012-10-31T18:40:55.000+0000","resolution_date":"2013-04-10T14:51:36.000+0000"}
