{"id":278,"bug_id":"PIG-1188","text":"Currently, the number of fields in the input tuple is determined by the data.               Current result: {code} (1 2) (1 2,3) (1 {code}","class_goldset":["src.org.apache.pig.newplan.logical.rules.TypeCastInserter","test.org.apache.pig.test.TestEvalPipeline2","test.org.apache.pig.test.TestMergeForEachOptimization","test.org.apache.pig.test.TestMultiQueryCompiler","test.org.apache.pig.test.TestNewPlanFilterAboveForeach","test.org.apache.pig.test.TestNewPlanFilterRule","test.org.apache.pig.test.TestNewPlanLogicalOptimizer","test.org.apache.pig.test.TestNewPlanPushDownForeachFlatten","test.org.apache.pig.test.TestPartitionFilterPushDown"],"file_goldset":["src.org.apache.pig.newplan.logical.rules.TypeCastInserter","test.org.apache.pig.test.TestEvalPipeline2","test.org.apache.pig.test.TestMergeForEachOptimization","test.org.apache.pig.test.TestMultiQueryCompiler","test.org.apache.pig.test.TestNewPlanFilterAboveForeach","test.org.apache.pig.test.TestNewPlanFilterRule","test.org.apache.pig.test.TestNewPlanLogicalOptimizer","test.org.apache.pig.test.TestNewPlanPushDownForeachFlatten","test.org.apache.pig.test.TestPartitionFilterPushDown"],"creation_date":"2010-01-14T19:32:46.000+0000","resolution_date":"2011-03-09T22:58:11.000+0000"}
{"id":279,"bug_id":"PIG-1277","text":"When we cogroup on a tuple, if the inner type of tuple does not match, we treat them as different keys.                   Real result: {code} ((1 1),{(1,1)},{}) ((1 1),{},{(1,1)}) {code}","class_goldset":["src.org.apache.pig.backend.hadoop.HDataType","src.org.apache.pig.backend.hadoop.executionengine.mapReduceLayer.PigBytesRawComparator","src.org.apache.pig.backend.hadoop.executionengine.mapReduceLayer.PigMapReduce","src.org.apache.pig.backend.hadoop.executionengine.physicalLayer.relationalOperators.POMultiQueryPackage","src.org.apache.pig.impl.io.NullableBytesWritable","src.org.apache.pig.newplan.logical.relational.LOUnion","test.org.apache.pig.test.TestEvalPipeline2","test.org.apache.pig.test.TestPackage","test.org.apache.pig.test.TestSecondarySort"],"file_goldset":["src.org.apache.pig.backend.hadoop.HDataType","src.org.apache.pig.backend.hadoop.executionengine.mapReduceLayer.PigBytesRawComparator","src.org.apache.pig.backend.hadoop.executionengine.mapReduceLayer.PigMapReduce","src.org.apache.pig.backend.hadoop.executionengine.physicalLayer.relationalOperators.POMultiQueryPackage","src.org.apache.pig.impl.io.NullableBytesWritable","src.org.apache.pig.newplan.logical.relational.LOUnion","test.org.apache.pig.test.TestEvalPipeline2","test.org.apache.pig.test.TestPackage","test.org.apache.pig.test.TestSecondarySort"],"creation_date":"2010-03-05T19:02:03.000+0000","resolution_date":"2010-12-24T01:32:27.000+0000"}
{"id":280,"bug_id":"PIG-1680","text":"The hbase 0.89 API deprecates some methods and outright removes some others which causes HBaseStorage to no longer compile.","class_goldset":["src.org.apache.pig.backend.hadoop.hbase.HBaseStorage","src.org.apache.pig.backend.hadoop.hbase.HBaseTableInputFormat"],"file_goldset":["src.org.apache.pig.backend.hadoop.hbase.HBaseStorage","src.org.apache.pig.backend.hadoop.hbase.HBaseTableInputFormat"],"creation_date":"2010-10-14T16:07:47.000+0000","resolution_date":"2011-03-05T23:47:17.000+0000"}
{"id":281,"bug_id":"PIG-1717","text":"The problem is that this user defined schema is not available to the loader, so the loader cannot return any schema, the Loader does know what the partition keys are and pig needs in some way to know about these partition keys. Currently if the schema is null pig never calls the LoadMetaData:getPartitionKeys method or the setPartitionFilter method.","class_goldset":["src.org.apache.pig.impl.logicalLayer.LOLoad","src.org.apache.pig.impl.util.Utils","src.org.apache.pig.newplan.logical.relational.LOLoad"],"file_goldset":["src.org.apache.pig.impl.logicalLayer.LOLoad","src.org.apache.pig.impl.util.Utils","src.org.apache.pig.newplan.logical.relational.LOLoad"],"creation_date":"2010-11-11T15:41:37.000+0000","resolution_date":"2011-02-03T20:03:28.000+0000"}
{"id":282,"bug_id":"PIG-1771","text":"New logical plan: Merge schema fail if LoadFunc.getSchema return different schema with \"Load...AS\". The following script fail:      Error message:","class_goldset":["src.org.apache.pig.newplan.logical.relational.LogicalSchema","test.org.apache.pig.test.TestEvalPipeline2"],"file_goldset":["src.org.apache.pig.newplan.logical.relational.LogicalSchema","test.org.apache.pig.test.TestEvalPipeline2"],"creation_date":"2010-12-16T20:45:37.000+0000","resolution_date":"2010-12-20T18:41:56.000+0000"}
{"id":283,"bug_id":"PIG-1776","text":"changing statement corresponding to alias after explain , then doing dump gives incorrect result. /* but dumping c after following steps gives incorrect results */","class_goldset":["src.org.apache.pig.PigServer","src.org.apache.pig.newplan.logical.relational.LOLoad","test.org.apache.pig.test.TestUDFContext"],"file_goldset":["src.org.apache.pig.PigServer","src.org.apache.pig.newplan.logical.relational.LOLoad","test.org.apache.pig.test.TestUDFContext"],"creation_date":"2010-12-17T22:28:09.000+0000","resolution_date":"2011-01-28T00:47:37.000+0000"}
{"id":284,"bug_id":"PIG-1785","text":"New logical plan: uid conflict in flattened fields. We get nothing.","class_goldset":["src.org.apache.pig.newplan.logical.rules.DuplicateForEachColumnRewrite","src.org.apache.pig.newplan.logical.rules.ImplicitSplitInserter","src.org.apache.pig.newplan.optimizer.PlanOptimizer","src.org.apache.pig.newplan.optimizer.Rule","test.org.apache.pig.test.TestEvalPipeline2"],"file_goldset":["src.org.apache.pig.newplan.logical.rules.DuplicateForEachColumnRewrite","src.org.apache.pig.newplan.logical.rules.ImplicitSplitInserter","src.org.apache.pig.newplan.optimizer.PlanOptimizer","src.org.apache.pig.newplan.optimizer.Rule","test.org.apache.pig.test.TestEvalPipeline2"],"creation_date":"2011-01-04T23:20:28.000+0000","resolution_date":"2011-01-12T02:30:59.000+0000"}
{"id":285,"bug_id":"PIG-1808","text":"The below script fails both in 0.7 and 0.8 since A requires a valid schema to be defined. But the error message in 0.8 is not helpful. Error message in 0.8              Error message in 0.7","class_goldset":["src.org.apache.pig.newplan.logical.rules.PushUpFilter","test.org.apache.pig.test.TestPushUpFilter"],"file_goldset":["src.org.apache.pig.newplan.logical.rules.PushUpFilter","test.org.apache.pig.test.TestPushUpFilter"],"creation_date":"2011-01-17T14:50:48.000+0000","resolution_date":"2011-03-15T02:00:51.000+0000"}
{"id":286,"bug_id":"PIG-1812","text":"My script is listed below:             When running this script, I got a warning about \"Encountered Warning DID_NOT_FIND_LOAD_ONLY_MAP_PLAN 1 time(s)\" and pig error log as below:                                   But, when I removed the DISTINCT statement before COGROUP, i.e. \"B \u003d distinct B;\"  this script can run smoothly. I have also tried other reducer side operations like ORDER, it seems that they will also trigger above error.","class_goldset":["src.org.apache.pig.backend.hadoop.executionengine.mapReduceLayer.KeyTypeDiscoveryVisitor","src.org.apache.pig.backend.hadoop.executionengine.mapReduceLayer.MRCompiler","src.org.apache.pig.backend.hadoop.executionengine.mapReduceLayer.MRCompiler.RearrangeAdjuster","src.org.apache.pig.backend.hadoop.executionengine.mapReduceLayer.MRCompiler.LimitAdjuster","test.org.apache.pig.test.TestEvalPipeline2","test.org.apache.pig.test.TestMRCompiler"],"file_goldset":["src.org.apache.pig.backend.hadoop.executionengine.mapReduceLayer.KeyTypeDiscoveryVisitor","src.org.apache.pig.backend.hadoop.executionengine.mapReduceLayer.MRCompiler","src.org.apache.pig.backend.hadoop.executionengine.mapReduceLayer.MRCompiler.RearrangeAdjuster","src.org.apache.pig.backend.hadoop.executionengine.mapReduceLayer.MRCompiler.LimitAdjuster","test.org.apache.pig.test.TestEvalPipeline2","test.org.apache.pig.test.TestMRCompiler"],"creation_date":"2011-01-20T02:06:36.000+0000","resolution_date":"2011-01-31T22:01:10.000+0000"}
{"id":287,"bug_id":"PIG-1813","text":"Pig 0.8 throws ERROR 1075 while trying to refer a map in the result of  eval udf.Works with 0.7. The above script fails when run with Pig 0.8 but runs fine with Pig 0.7 or if pig.usenewlogicalplan\u003dfalse. The below is the exception thrown in 0.8 :","class_goldset":["src.org.apache.pig.backend.hadoop.executionengine.physicalLayer.expressionOperators.POUserFunc","src.org.apache.pig.newplan.logical.relational.LOGenerate","test.org.apache.pig.test.TestEvalPipeline2"],"file_goldset":["src.org.apache.pig.backend.hadoop.executionengine.physicalLayer.expressionOperators.POUserFunc","src.org.apache.pig.newplan.logical.relational.LOGenerate","test.org.apache.pig.test.TestEvalPipeline2"],"creation_date":"2011-01-20T16:25:01.000+0000","resolution_date":"2011-01-27T07:12:03.000+0000"}
{"id":288,"bug_id":"PIG-1815","text":"pig task retains used instances of PhysicalPlan. map tasks of a pig query ran out of memory because there were too many (thousands)  instances of combiner PhysicalPlan in memory.   This problem was noticed with 0.8 because of the split combination feature, that resulted in each map having larger inputs.","class_goldset":["src.org.apache.pig.backend.hadoop.executionengine.mapReduceLayer.PigCombiner"],"file_goldset":["src.org.apache.pig.backend.hadoop.executionengine.mapReduceLayer.PigCombiner"],"creation_date":"2011-01-20T23:53:05.000+0000","resolution_date":"2011-01-21T21:10:21.000+0000"}
{"id":289,"bug_id":"PIG-1831","text":"Indeterministic behavior in local mode due to static variable PigMapReduce.sJobConf. The below script when run in local mode gives me a different output.                      Here if I store relation B and D then everytime i get the result  :\nacbd            3\nabcd            3\nadbc            3 But if i dont store relations B and D then I get an empty output. Here again I have observed that this behaviour is random ie sometimes like 1out of 5 runs there will be output.","class_goldset":["src.org.apache.pig.backend.hadoop.executionengine.mapReduceLayer.PigMapBase","src.org.apache.pig.backend.hadoop.executionengine.mapReduceLayer.PigMapReduce","src.org.apache.pig.backend.hadoop.executionengine.mapReduceLayer.PigMapReduce.Map","src.org.apache.pig.backend.hadoop.executionengine.mapReduceLayer.partitioners.SkewedPartitioner","src.org.apache.pig.backend.hadoop.executionengine.physicalLayer.relationalOperators.POCollectedGroup","src.org.apache.pig.backend.hadoop.executionengine.physicalLayer.relationalOperators.POCombinerPackage","src.org.apache.pig.backend.hadoop.executionengine.physicalLayer.relationalOperators.PODistinct","src.org.apache.pig.backend.hadoop.executionengine.physicalLayer.relationalOperators.POJoinPackage","src.org.apache.pig.backend.hadoop.executionengine.physicalLayer.relationalOperators.POMergeCogroup","src.org.apache.pig.backend.hadoop.executionengine.physicalLayer.relationalOperators.POMergeJoin","src.org.apache.pig.backend.hadoop.executionengine.physicalLayer.relationalOperators.POPackage","src.org.apache.pig.backend.hadoop.executionengine.physicalLayer.relationalOperators.POPartitionRearrange","src.org.apache.pig.backend.hadoop.executionengine.physicalLayer.relationalOperators.POSort","src.org.apache.pig.backend.hadoop.executionengine.util.MapRedUtil","src.org.apache.pig.backend.hadoop.streaming.HadoopExecutableManager","src.org.apache.pig.builtin.Distinct","src.org.apache.pig.data.InternalCachedBag","src.org.apache.pig.data.InternalDistinctBag","src.org.apache.pig.data.InternalSortedBag","src.org.apache.pig.impl.builtin.DefaultIndexableLoader","src.org.apache.pig.impl.io.FileLocalizer","test.org.apache.pig.test.TestFRJoin","test.org.apache.pig.test.TestFinish","test.org.apache.pig.test.TestPruneColumn","test.org.apache.pig.test.utils.FILTERFROMFILE"],"file_goldset":["src.org.apache.pig.backend.hadoop.executionengine.mapReduceLayer.PigMapBase","src.org.apache.pig.backend.hadoop.executionengine.mapReduceLayer.PigMapReduce","src.org.apache.pig.backend.hadoop.executionengine.mapReduceLayer.PigMapReduce.Map","src.org.apache.pig.backend.hadoop.executionengine.mapReduceLayer.partitioners.SkewedPartitioner","src.org.apache.pig.backend.hadoop.executionengine.physicalLayer.relationalOperators.POCollectedGroup","src.org.apache.pig.backend.hadoop.executionengine.physicalLayer.relationalOperators.POCombinerPackage","src.org.apache.pig.backend.hadoop.executionengine.physicalLayer.relationalOperators.PODistinct","src.org.apache.pig.backend.hadoop.executionengine.physicalLayer.relationalOperators.POJoinPackage","src.org.apache.pig.backend.hadoop.executionengine.physicalLayer.relationalOperators.POMergeCogroup","src.org.apache.pig.backend.hadoop.executionengine.physicalLayer.relationalOperators.POMergeJoin","src.org.apache.pig.backend.hadoop.executionengine.physicalLayer.relationalOperators.POPackage","src.org.apache.pig.backend.hadoop.executionengine.physicalLayer.relationalOperators.POPartitionRearrange","src.org.apache.pig.backend.hadoop.executionengine.physicalLayer.relationalOperators.POSort","src.org.apache.pig.backend.hadoop.executionengine.util.MapRedUtil","src.org.apache.pig.backend.hadoop.streaming.HadoopExecutableManager","src.org.apache.pig.builtin.Distinct","src.org.apache.pig.data.InternalCachedBag","src.org.apache.pig.data.InternalDistinctBag","src.org.apache.pig.data.InternalSortedBag","src.org.apache.pig.impl.builtin.DefaultIndexableLoader","src.org.apache.pig.impl.io.FileLocalizer","test.org.apache.pig.test.TestFRJoin","test.org.apache.pig.test.TestFinish","test.org.apache.pig.test.TestPruneColumn","test.org.apache.pig.test.utils.FILTERFROMFILE"],"creation_date":"2011-01-28T10:02:31.000+0000","resolution_date":"2011-02-18T02:16:58.000+0000"}
{"id":290,"bug_id":"PIG-1837","text":"After running for a while, I get the following error:","class_goldset":["src.org.apache.pig.backend.hadoop.executionengine.mapReduceLayer.AccumulatorOptimizer","test.org.apache.pig.test.TestAccumulator"],"file_goldset":["src.org.apache.pig.backend.hadoop.executionengine.mapReduceLayer.AccumulatorOptimizer","test.org.apache.pig.test.TestAccumulator"],"creation_date":"2011-02-01T23:57:48.000+0000","resolution_date":"2011-03-07T20:06:58.000+0000"}
{"id":291,"bug_id":"PIG-1843","text":"NPE in schema generation. Hit NPE in following script:\n{code}\na \u003d load \u0027table_testBagDereferenceInMiddle2\u0027 as (a0:chararray);\nb \u003d foreach a generate MapGenerate(STRSPLIT(a0).  Error message:","class_goldset":["src.org.apache.pig.EvalFunc","test.org.apache.pig.test.TestEvalPipeline2"],"file_goldset":["src.org.apache.pig.EvalFunc","test.org.apache.pig.test.TestEvalPipeline2"],"creation_date":"2011-02-05T02:42:39.000+0000","resolution_date":"2011-02-18T01:48:25.000+0000"}
{"id":292,"bug_id":"PIG-1850","text":"Order by is failing with ClassCastException if schema is undefined for new logical plan in 0.8. The script is failing while doing order by in WeightedRangePartitioner since it considers the quantiles to be NullableBytesWritable but at run time this is NullableDoubleWritable .  But the same works fine when the  multiquery is turned off. One more issue worth noting is that if i have a filter statement after relation E, then the above exception is swallowed by Pig.","class_goldset":["src.org.apache.pig.newplan.logical.expression.ProjectExpression","src.org.apache.pig.newplan.logical.relational.LOInnerLoad","test.org.apache.pig.test.TestEvalPipeline2"],"file_goldset":["src.org.apache.pig.newplan.logical.expression.ProjectExpression","src.org.apache.pig.newplan.logical.relational.LOInnerLoad","test.org.apache.pig.test.TestEvalPipeline2"],"creation_date":"2011-02-11T13:50:43.000+0000","resolution_date":"2011-02-18T06:16:43.000+0000"}
{"id":293,"bug_id":"PIG-1854","text":"Pig returns exit code 0 for the failed Pig script .. Pig returns exit code 0 for the some of the failed Pig scripts.       On executing the pig script, script failed with following exception   But when executed the similar Pig script through Oozie workflow, Pig script failed but Oozie show the \"succeeded\" status message instead of \"killed\" status as return exit code is 0.                One more scenario where Pig script failed but exit code is 0 and no exception occurred for this failure.","class_goldset":["src.org.apache.pig.impl.util.LogUtils","src.org.apache.pig.tools.grunt.GruntParser","test.org.apache.pig.test.TestPigRunner"],"file_goldset":["src.org.apache.pig.impl.util.LogUtils","src.org.apache.pig.tools.grunt.GruntParser","test.org.apache.pig.test.TestPigRunner"],"creation_date":"2011-02-14T09:03:15.000+0000","resolution_date":"2011-02-18T22:08:37.000+0000"}
{"id":294,"bug_id":"PIG-1856","text":"Custom jar is not packaged with the new job created by LimitAdjuster . The script, however,  fails since the piggybank jar isn\u0027t shipped to the backend with the additional job created by the LimitAdjuster.","class_goldset":["src.org.apache.pig.backend.hadoop.executionengine.mapReduceLayer.MRCompiler","test.org.apache.pig.test.TestMRCompiler"],"file_goldset":["src.org.apache.pig.backend.hadoop.executionengine.mapReduceLayer.MRCompiler","test.org.apache.pig.test.TestMRCompiler"],"creation_date":"2011-02-15T23:26:16.000+0000","resolution_date":"2011-03-01T19:52:14.000+0000"}
{"id":295,"bug_id":"PIG-1858","text":"UDF in nested plan results frontend exception. The below is the exception that I get :                               When i trun off new logical plan the script executes successfully.","class_goldset":["test.org.apache.pig.test.TestEvalPipeline2"],"file_goldset":["test.org.apache.pig.test.TestEvalPipeline2"],"creation_date":"2011-02-17T08:27:48.000+0000","resolution_date":"2011-04-12T00:45:13.000+0000"}
{"id":296,"bug_id":"PIG-1861","text":"The pig script stored in the Hadoop History logs is stored as a concatenated string without whitespace this causes problems when attempting to extract and execute the script. The pig script stored in: conf#\u0027pig.script\u0027 has the whitespace removed, this makes it difficult to extract and run the\nscript. In particular, statements that terminate in \";\" work correctly as\n\"statement1;statement2;statement99\"  but statements that do not end in \";\" result in\n\"statement1statement2statement3\" and it\u0027s difficult to parse the pig script and fix the concatenated string. There\u0027s also a problem with comments as in:  On a side note, I also noticed that in many of the scripts the last statement is missing \";\"","class_goldset":["src.org.apache.pig.tools.pigstats.ScriptState","test.org.apache.pig.test.TestPigStats"],"file_goldset":["src.org.apache.pig.tools.pigstats.ScriptState","test.org.apache.pig.test.TestPigStats"],"creation_date":"2011-02-18T18:39:53.000+0000","resolution_date":"2011-03-07T18:09:47.000+0000"}
{"id":297,"bug_id":"PIG-1866","text":"Error from old logical plan:               Error from new logical plan:             If we change \"b \u003d foreach a generate t.b1;\" to \"b \u003d foreach a generate t.i;\", it works fine, only refer to a bag does not work.","class_goldset":["src.org.apache.pig.backend.hadoop.executionengine.mapReduceLayer.MRCompiler","src.org.apache.pig.backend.hadoop.executionengine.physicalLayer.expressionOperators.POProject","src.org.apache.pig.newplan.logical.relational.LogToPhyTranslationVisitor","test.org.apache.pig.test.TestEvalPipeline2"],"file_goldset":["src.org.apache.pig.backend.hadoop.executionengine.mapReduceLayer.MRCompiler","src.org.apache.pig.backend.hadoop.executionengine.physicalLayer.expressionOperators.POProject","src.org.apache.pig.newplan.logical.relational.LogToPhyTranslationVisitor","test.org.apache.pig.test.TestEvalPipeline2"],"creation_date":"2011-02-23T20:01:13.000+0000","resolution_date":"2011-04-21T00:50:44.000+0000"}
{"id":298,"bug_id":"PIG-1868","text":"On C3 it fails with below message :\n{code}\nCouldn\u0027t find matching uid -1 for project (Name: Project Type: bytearray Uid: 45 Input: 0 Column: 1)\n{code}  The script works if I turn off new logical plan or use Pig 0.7.","class_goldset":["src.org.apache.pig.newplan.logical.relational.LogicalSchema","test.org.apache.pig.test.TestSchema"],"file_goldset":["src.org.apache.pig.newplan.logical.relational.LogicalSchema","test.org.apache.pig.test.TestSchema"],"creation_date":"2011-02-24T06:42:05.000+0000","resolution_date":"2011-03-27T05:57:44.000+0000"}
{"id":299,"bug_id":"PIG-1892","text":"Bug in new logical plan : No output generated even though there are valid records. I have the below script which provides me no output even though there are valid records in relation B which is used for the left out join.","class_goldset":["src.org.apache.pig.newplan.logical.rules.MapKeysPruneHelper","test.org.apache.pig.test.TestPruneColumn","test.org.apache.pig.test.TestPruneColumn.PigStorageWithTrace"],"file_goldset":["src.org.apache.pig.newplan.logical.rules.MapKeysPruneHelper","test.org.apache.pig.test.TestPruneColumn","test.org.apache.pig.test.TestPruneColumn.PigStorageWithTrace"],"creation_date":"2011-03-10T08:44:12.000+0000","resolution_date":"2011-03-20T23:30:06.000+0000"}
{"id":300,"bug_id":"PIG-1893","text":"Pig report input size -1 for empty input file. If 1.txt is empty, Pig will report Successfully read -1 records from: \"1.txt\"","class_goldset":["src.org.apache.pig.tools.pigstats.JobStats","test.org.apache.pig.test.TestPigRunner"],"file_goldset":["src.org.apache.pig.tools.pigstats.JobStats","test.org.apache.pig.test.TestPigRunner"],"creation_date":"2011-03-11T02:43:13.000+0000","resolution_date":"2011-03-29T19:07:35.000+0000"}
{"id":301,"bug_id":"PIG-1910","text":"incorrect schema shown when project-star is used with other projections. {code}\ngrunt\u003e l \u003d load \u0027x\u0027 ;                                       \ngrunt\u003e f \u003d foreach l generate $1 as a, *, $2 as b;          \ngrunt\u003e describe f;\nf: {a: bytearray,(null),b: bytearray}  -- The tuple returned by * is automatically flattened, so this schema is not correct.","class_goldset":["src.org.apache.pig.newplan.logical.expression.DereferenceExpression","src.org.apache.pig.newplan.logical.expression.ExpToPhyTranslationVisitor","src.org.apache.pig.newplan.logical.expression.ProjectExpression","src.org.apache.pig.newplan.logical.relational.LOCogroup","test.org.apache.pig.test.TestPigServer","test.org.apache.pig.test.Util"],"file_goldset":["src.org.apache.pig.newplan.logical.expression.DereferenceExpression","src.org.apache.pig.newplan.logical.expression.ExpToPhyTranslationVisitor","src.org.apache.pig.newplan.logical.expression.ProjectExpression","src.org.apache.pig.newplan.logical.relational.LOCogroup","test.org.apache.pig.test.TestPigServer","test.org.apache.pig.test.Util"],"creation_date":"2011-03-16T17:50:00.000+0000","resolution_date":"2011-04-22T17:32:07.000+0000"}
{"id":302,"bug_id":"PIG-1911","text":"Infinite loop with accumulator function in nested foreach. This causes infinite loop if MyCOUNT implements Accumulator interface.","class_goldset":["src.org.apache.pig.backend.hadoop.executionengine.physicalLayer.expressionOperators.POUserFunc","src.org.apache.pig.backend.hadoop.executionengine.physicalLayer.relationalOperators.POForEach","test.org.apache.pig.test.TestAccumulator"],"file_goldset":["src.org.apache.pig.backend.hadoop.executionengine.physicalLayer.expressionOperators.POUserFunc","src.org.apache.pig.backend.hadoop.executionengine.physicalLayer.relationalOperators.POForEach","test.org.apache.pig.test.TestAccumulator"],"creation_date":"2011-03-16T21:06:11.000+0000","resolution_date":"2011-04-08T19:13:35.000+0000"}
{"id":303,"bug_id":"PIG-1912","text":"non-deterministic output when a file is loaded multiple times. I have a small demonstration script (actually, a directory with one main script and several other scripts that it calls) where the output (STOREd to a file) is not consistent between runs.  The problem appears to be that when a dataset X gets LOADed twice, with things other than LOADs occurring between the loads (like a FOREACH GENERATE), a FOREACH GENERATE that is later performed on X doesn\u0027t always choose the correct columns. The correctness of the output was highly variable on my computer, for one of my co-workers it *almost* always failed, and for two other of my co-workers they didn\u0027t see any failures, so it\u0027s likely to be a race condition or something like that.                                          -- correct_output.                   Non-deterministic in the sense that the output of the script is not\nthe same between different times it is run on the same input; usually\nthe input is right, but sometimes it\u0027s wrong for no apparent reason.  The scripts load the file data.csv and write to the output\ndirectory, but the file output/Y/part-m-00000 is sometimes different\nbetween consecutive runs.","class_goldset":["src.org.apache.pig.backend.hadoop.executionengine.HExecutionEngine","src.org.apache.pig.newplan.logical.relational.LOLoad","src.org.apache.pig.newplan.logical.relational.LogToPhyTranslationVisitor","test.org.apache.pig.test.TestEvalPipeline2"],"file_goldset":["src.org.apache.pig.backend.hadoop.executionengine.HExecutionEngine","src.org.apache.pig.newplan.logical.relational.LOLoad","src.org.apache.pig.newplan.logical.relational.LogToPhyTranslationVisitor","test.org.apache.pig.test.TestEvalPipeline2"],"creation_date":"2011-03-16T21:11:46.000+0000","resolution_date":"2011-03-23T00:50:59.000+0000"}
{"id":304,"bug_id":"PIG-1927","text":"Dereference partial name failed. The following script fail:","class_goldset":["src.org.apache.pig.PigServer","src.org.apache.pig.newplan.logical.expression.DereferenceExpression","src.org.apache.pig.newplan.logical.relational.LogicalSchema","test.org.apache.pig.test.TestEvalPipeline2","test.org.apache.pig.test.TestUnionOnSchema"],"file_goldset":["src.org.apache.pig.PigServer","src.org.apache.pig.newplan.logical.expression.DereferenceExpression","src.org.apache.pig.newplan.logical.relational.LogicalSchema","test.org.apache.pig.test.TestEvalPipeline2","test.org.apache.pig.test.TestUnionOnSchema"],"creation_date":"2011-03-22T00:23:54.000+0000","resolution_date":"2011-03-27T05:16:04.000+0000"}
{"id":305,"bug_id":"PIG-1932","text":"It is currently hard wired to 96.","class_goldset":["src.org.apache.pig.impl.builtin.GFCross"],"file_goldset":["src.org.apache.pig.impl.builtin.GFCross"],"creation_date":"2011-03-23T00:53:04.000+0000","resolution_date":"2011-03-30T21:16:44.000+0000"}
{"id":306,"bug_id":"PIG-1935","text":"We get nothing.","class_goldset":["src.org.apache.pig.newplan.logical.expression.BinCondExpression","test.org.apache.pig.test.TestNewPlanFilterAboveForeach"],"file_goldset":["src.org.apache.pig.newplan.logical.expression.BinCondExpression","test.org.apache.pig.test.TestNewPlanFilterAboveForeach"],"creation_date":"2011-03-25T01:33:38.000+0000","resolution_date":"2011-04-04T20:46:38.000+0000"}
{"id":307,"bug_id":"PIG-1955","text":"PhysicalOperator has a member variable (non-static) Log object that is non-transient, this causes serialization errors. Creating a local PigServer to test my LoadFunc caused a serialization of the PhysicalOperator class, which failed due to:","class_goldset":["src.org.apache.pig.backend.hadoop.executionengine.physicalLayer.PhysicalOperator","src.org.apache.pig.backend.hadoop.executionengine.physicalLayer.expressionOperators.ExpressionOperator","src.org.apache.pig.backend.hadoop.executionengine.physicalLayer.expressionOperators.POCast","src.org.apache.pig.backend.hadoop.executionengine.physicalLayer.expressionOperators.POUserComparisonFunc","src.org.apache.pig.backend.hadoop.executionengine.physicalLayer.expressionOperators.POUserFunc","src.org.apache.pig.backend.hadoop.executionengine.physicalLayer.relationalOperators.POCollectedGroup","src.org.apache.pig.backend.hadoop.executionengine.physicalLayer.relationalOperators.POCombinerPackage","src.org.apache.pig.backend.hadoop.executionengine.physicalLayer.relationalOperators.PODemux","src.org.apache.pig.backend.hadoop.executionengine.physicalLayer.relationalOperators.PODistinct","src.org.apache.pig.backend.hadoop.executionengine.physicalLayer.relationalOperators.POFRJoin","src.org.apache.pig.backend.hadoop.executionengine.physicalLayer.relationalOperators.POFilter","src.org.apache.pig.backend.hadoop.executionengine.physicalLayer.relationalOperators.POForEach","src.org.apache.pig.backend.hadoop.executionengine.physicalLayer.relationalOperators.POLimit","src.org.apache.pig.backend.hadoop.executionengine.physicalLayer.relationalOperators.POLoad","src.org.apache.pig.backend.hadoop.executionengine.physicalLayer.relationalOperators.POLocalRearrange","src.org.apache.pig.backend.hadoop.executionengine.physicalLayer.relationalOperators.POMergeJoin","src.org.apache.pig.backend.hadoop.executionengine.physicalLayer.relationalOperators.POMultiQueryPackage","src.org.apache.pig.backend.hadoop.executionengine.physicalLayer.relationalOperators.POPreCombinerLocalRearrange","src.org.apache.pig.backend.hadoop.executionengine.physicalLayer.relationalOperators.POSkewedJoin","src.org.apache.pig.backend.hadoop.executionengine.physicalLayer.relationalOperators.POSort","src.org.apache.pig.backend.hadoop.executionengine.physicalLayer.relationalOperators.POSplit"],"file_goldset":["src.org.apache.pig.backend.hadoop.executionengine.physicalLayer.PhysicalOperator","src.org.apache.pig.backend.hadoop.executionengine.physicalLayer.expressionOperators.ExpressionOperator","src.org.apache.pig.backend.hadoop.executionengine.physicalLayer.expressionOperators.POCast","src.org.apache.pig.backend.hadoop.executionengine.physicalLayer.expressionOperators.POUserComparisonFunc","src.org.apache.pig.backend.hadoop.executionengine.physicalLayer.expressionOperators.POUserFunc","src.org.apache.pig.backend.hadoop.executionengine.physicalLayer.relationalOperators.POCollectedGroup","src.org.apache.pig.backend.hadoop.executionengine.physicalLayer.relationalOperators.POCombinerPackage","src.org.apache.pig.backend.hadoop.executionengine.physicalLayer.relationalOperators.PODemux","src.org.apache.pig.backend.hadoop.executionengine.physicalLayer.relationalOperators.PODistinct","src.org.apache.pig.backend.hadoop.executionengine.physicalLayer.relationalOperators.POFRJoin","src.org.apache.pig.backend.hadoop.executionengine.physicalLayer.relationalOperators.POFilter","src.org.apache.pig.backend.hadoop.executionengine.physicalLayer.relationalOperators.POForEach","src.org.apache.pig.backend.hadoop.executionengine.physicalLayer.relationalOperators.POLimit","src.org.apache.pig.backend.hadoop.executionengine.physicalLayer.relationalOperators.POLoad","src.org.apache.pig.backend.hadoop.executionengine.physicalLayer.relationalOperators.POLocalRearrange","src.org.apache.pig.backend.hadoop.executionengine.physicalLayer.relationalOperators.POMergeJoin","src.org.apache.pig.backend.hadoop.executionengine.physicalLayer.relationalOperators.POMultiQueryPackage","src.org.apache.pig.backend.hadoop.executionengine.physicalLayer.relationalOperators.POPreCombinerLocalRearrange","src.org.apache.pig.backend.hadoop.executionengine.physicalLayer.relationalOperators.POSkewedJoin","src.org.apache.pig.backend.hadoop.executionengine.physicalLayer.relationalOperators.POSort","src.org.apache.pig.backend.hadoop.executionengine.physicalLayer.relationalOperators.POSplit"],"creation_date":"2011-03-31T18:26:15.000+0000","resolution_date":"2011-04-06T17:11:52.000+0000"}
{"id":308,"bug_id":"PIG-1963","text":"in nested foreach, accumutive udf taking input from order-by does not get results in order. ","class_goldset":["src.org.apache.pig.backend.hadoop.executionengine.mapReduceLayer.AccumulatorOptimizer","test.org.apache.pig.test.TestAccumulator"],"file_goldset":["src.org.apache.pig.backend.hadoop.executionengine.mapReduceLayer.AccumulatorOptimizer","test.org.apache.pig.test.TestAccumulator"],"creation_date":"2011-04-04T22:18:24.000+0000","resolution_date":"2011-04-08T19:30:23.000+0000"}
{"id":309,"bug_id":"PIG-1977","text":"\"Stream closed\" error while reading Pig temp files (results of intermediate jobs). In certain cases when compression of temporary files is on Pig scripts fail with following exception:","class_goldset":["src.org.apache.pig.impl.io.TFileRecordReader","test.org.apache.pig.test.TestTmpFileCompression"],"file_goldset":["src.org.apache.pig.impl.io.TFileRecordReader","test.org.apache.pig.test.TestTmpFileCompression"],"creation_date":"2011-04-07T22:27:11.000+0000","resolution_date":"2011-04-11T16:52:59.000+0000"}
{"id":310,"bug_id":"PIG-1979","text":"New logical plan failing with ERROR 2229: Couldn\u0027t find matching uid -1 . The script is failing in building the plan, while applying for logical optimization rule for AddForEach.              The script goes through fine if I disable AddForEach rule by -t AddForEach","class_goldset":["src.org.apache.pig.newplan.logical.expression.DereferenceExpression","test.org.apache.pig.test.TestEvalPipeline2"],"file_goldset":["src.org.apache.pig.newplan.logical.expression.DereferenceExpression","test.org.apache.pig.test.TestEvalPipeline2"],"creation_date":"2011-04-08T07:24:01.000+0000","resolution_date":"2011-04-15T00:25:13.000+0000"}
{"id":311,"bug_id":"PIG-1993","text":"PigStorageSchema throw NPE with ColumnPruning. Error message:","class_goldset":["contrib.piggybank.java.src.main.java.org.apache.pig.piggybank.storage.PigStorageSchema","contrib.piggybank.java.src.test.java.org.apache.pig.piggybank.test.TestPigStorageSchema"],"file_goldset":["contrib.piggybank.java.src.main.java.org.apache.pig.piggybank.storage.PigStorageSchema","contrib.piggybank.java.src.test.java.org.apache.pig.piggybank.test.TestPigStorageSchema"],"creation_date":"2011-04-13T00:47:41.000+0000","resolution_date":"2011-04-14T01:48:42.000+0000"}
{"id":312,"bug_id":"PIG-313","text":"Error handling aggregate of a computation. Error output:","class_goldset":["test.org.apache.pig.test.TestEvalPipeline2"],"file_goldset":["test.org.apache.pig.test.TestEvalPipeline2"],"creation_date":"2008-07-15T00:20:04.000+0000","resolution_date":"2011-01-24T18:45:32.000+0000"}
{"id":313,"bug_id":"PIG-496","text":"produces stack trace:","class_goldset":["src.org.apache.pig.builtin.Utf8StorageConverter","test.org.apache.pig.test.TestConversions"],"file_goldset":["src.org.apache.pig.builtin.Utf8StorageConverter","test.org.apache.pig.test.TestConversions"],"creation_date":"2008-10-15T00:37:44.000+0000","resolution_date":"2011-01-24T18:42:54.000+0000"}
{"id":314,"bug_id":"PIG-534","text":"Illustrate can\u0027t handle Map\u0027s or NULLs. when I \u0027illustrate\u0027 a record that contains a map, or has a NULL it crashes with a NPE.","class_goldset":["src.org.apache.pig.pen.util.DisplayExamples"],"file_goldset":["src.org.apache.pig.pen.util.DisplayExamples"],"creation_date":"2008-11-17T00:46:39.000+0000","resolution_date":"2011-02-12T00:49:24.000+0000"}
{"id":315,"bug_id":"PIG-730","text":"problem combining schema from a union of several LOAD expressions, with a nested bag inside the schema.. ---\u003e Would expect both C and D to work, but only C works. D gives the error shown below. ---\u003e Turns out using outlinks.t.target (instead of outlinks.target) works for D but not for C.","class_goldset":["src.org.apache.pig.impl.logicalLayer.schema.Schema","src.org.apache.pig.newplan.logical.expression.DereferenceExpression","src.org.apache.pig.newplan.logical.relational.LogicalSchema","test.org.apache.pig.test.TestSchema"],"file_goldset":["src.org.apache.pig.impl.logicalLayer.schema.Schema","src.org.apache.pig.newplan.logical.expression.DereferenceExpression","src.org.apache.pig.newplan.logical.relational.LogicalSchema","test.org.apache.pig.test.TestSchema"],"creation_date":"2009-03-24T19:36:45.000+0000","resolution_date":"2011-01-24T18:41:02.000+0000"}
{"id":316,"bug_id":"PIG-767","text":"Schema reported from DESCRIBE and actual schema of inner bags are different.. Prints for the DESCRIBE commands:  The reported schemas for urlContentsG and urlContentsF are wrong. They are also against the section \"Schemas for Complex Data Types\" in http://wiki.apache.org/pig-data/attachments/FrontPage/attachments/plrm.htm#_Schemas.","class_goldset":["src.org.apache.pig.newplan.logical.expression.DereferenceExpression","src.org.apache.pig.newplan.logical.relational.LOCogroup","src.org.apache.pig.newplan.logical.relational.LOGenerate","src.org.apache.pig.newplan.logical.relational.LOInnerLoad","src.org.apache.pig.newplan.logical.rules.DuplicateForEachColumnRewrite","test.org.apache.pig.test.TestLogicalPlanMigrationVisitor","test.org.apache.pig.test.TestNewPlanLogToPhyTranslationVisitor","test.org.apache.pig.test.TestSchema"],"file_goldset":["src.org.apache.pig.newplan.logical.expression.DereferenceExpression","src.org.apache.pig.newplan.logical.relational.LOCogroup","src.org.apache.pig.newplan.logical.relational.LOGenerate","src.org.apache.pig.newplan.logical.relational.LOInnerLoad","src.org.apache.pig.newplan.logical.rules.DuplicateForEachColumnRewrite","test.org.apache.pig.test.TestLogicalPlanMigrationVisitor","test.org.apache.pig.test.TestNewPlanLogToPhyTranslationVisitor","test.org.apache.pig.test.TestSchema"],"creation_date":"2009-04-16T04:43:29.000+0000","resolution_date":"2011-01-24T18:28:39.000+0000"}
{"id":317,"bug_id":"PIG-946","text":"Combiner optimizer does not optimize when limit follow group, foreach. The following script is combinable but is not optimized:\na \u003d load \u0027/user/pig/tests/data/singlefile/studenttab10k\u0027;\nb \u003d group a by $1;\nc \u003d foreach b generate group, AVG(a.$2);\nd \u003d limit c 10;\ndump d;","class_goldset":["src.org.apache.pig.backend.hadoop.executionengine.mapReduceLayer.CombinerOptimizer","test.org.apache.pig.test.TestCombiner"],"file_goldset":["src.org.apache.pig.backend.hadoop.executionengine.mapReduceLayer.CombinerOptimizer","test.org.apache.pig.test.TestCombiner"],"creation_date":"2009-09-04T22:51:37.000+0000","resolution_date":"2011-01-05T16:52:32.000+0000"}
