{"key":"126938","title":"Cannot import Installed JREs from preference file","description":"To see one JRE \"jdk1.5.0_04\" and that JRE is configured with the default argument of \"-ea\"."}
{"key":"89814","title":"Replace With \u003e Another Branch or Version: tree allows multi-selection","description":"Replace With \u003e Another Branch or Version: The tree allows multi-selection, but the operation only considers one of the selected items. The tree should be in single-selection mode, as the (filtered) table already is."}
{"key":"83541","title":"","description":"For character array element I open Change Primitive Value dialog and try to change current value to \\t or \\n. Dialog does not enable OK button either I input \\t, or 0x09 or \\\\u0009 or press tabulation key. On the other hand, Eclipse 2.1.2 accepted \"\\t\" (or it worked OK if I just pressed tabulation) and \\n in this dialog."}
{"key":"76837","title":"[KeyBindings] Ctrl-Shift-L popup should take focus--\u003eeasier to get pref page","description":"After pressing Ctrl-Shift-L I actually have to place the cursor in the popup for the second Ctrl-Shift-L to open the preference page. This should not be necessary and is inconsistent with the other popups (such"}
{"key":"100799","title":"[ErrorHandling] \u0027Unable to create view\u0027 error page should link to error log view","description":"When I ran this plugin in a run-time eclipse with a 1.4 VM, startup passed without any error message. When I opened the view, I got a view with an embedded error dialog showing a ClassNotFoundException.  But the real reason was in the previous log entry (an UnsupportedClassVersionError). Either the view should show the relevant error, or it should contain a link to the Error Log, such that users are aware that other log entries could be relevant for this problem."}
{"key":"87211","title":"[PresentationAPI] standalone + movable stacks should remain standalone when dragged","description":"Thus, you cannot prevent a ViewStack \nfrom being dropped onto another ViewStack."}
{"key":"106454","title":"Unbound linked resource causes workspace refresh to start auto-build job","description":"Now, every 5 seconds, an autobuild job runs. The build job should not be triggered, since no resource has changed. Furthermore, it\u0027s a nuisance since the autobuild job causes a java editor\u0027s hover to disappear."}
{"key":"81199","title":"Monitors should not be displayed for resumed threads","description":"When I resume a thread, its monitor information remains. However, it should be \nremoved, as the monitor information is stale at this point."}
{"key":"79091","title":"[compiler] Should report invalid type only on the name","description":"We report an error on Zork[] instead of Zork only."}
{"key":"129834","title":"","description":"1. Not enough vertical spacing between rows 2. Combo box is not wide enough. The Reload button should probably be pushed down next to the table viewer.  3. Progress monitor is needed when parsing/reloading features from a new location 4. If you enter a location in the combo box, check the top checkbox and then uncheck it, you lose the location you had entered."}
{"key":"85397","title":"[1.5][enum] erroneous strictfp keyword on enum type produces error on constructor_","description":"expected: strictfp is not allowed on the enum type actual: no error is reported       expected: the wrong modifier is reported with the type name \u0027Natural\u0027 actual: the error is shown for the constructor_"}
{"key":"96489","title":"[Presentations] (regression) Standalone view without title has no border","description":"- the history view (a regular view) has a border, but the standalone view does not  Standalone views should still have their border, just not the title or min/max buttons if showTitle\u003d\u003dfalse."}
{"key":"76854","title":"[target] Target platform preferences should not be imported","description":"The individual project selections in the \"Preferences-\u003ePlug-in Development- \u003eTarget Platform\" preference page are not being stored in exported preferences files."}
{"key":"84141","title":"[Decorators]  DecoratorScheduler should not lock UI Thread","description":"Currently the DecoratorScheduler locks the UI Thread sometimes while decorations\nare running."}
{"key":"94852","title":"[ViewMgmt] (regression) Typing space should activate view menu button","description":"The view menu (little \ndown-pointing triangle) button should have focus (it looks a bit raised).  Space does \nnothing when pressed in this button. It should drop down the view menu. I realize that pressing Ctrl+F10 does drop down the menu, therefore typing \nspace is not technically needed for accessibility, however it is really \nstrange that here is a button (in a toolbar) that does nothing when \"pressed\" \nusing the keyboard space key. For consistency, and to do the expected thing \nwhen used with a screen reader, we should allow space key to work here. (Note \nthat all of our other toolbar buttons do activate when they have focus and \nspace is pressed - including the very similar \"Open Perspective\" menu toolbar \nbutton)."}
{"key":"98740","title":"Container attempts to refresh children on project that is not open","description":"A background refresh job has now been started for the closed project, but it never finishes and is stuck in an infinite loop.  The members() method is excuting if (info.isSet(ICoreConstants.M_CHILDREN_UNKNOWN)) workspace.refreshManager.refresh(this);  Both the AliasManager and the Java Perspective are calling members on the IProject.   On the next UI gesture, we get refresh infinite loops, one for each closed project.  The end user will open them by using the open project UI when needed."}
{"key":"90281","title":"","description":"It comes up incorrectly sized, i.e. the dialog\u0027s title is cropped. The upper block should be right aligned with the Cancel button as should be the list and Deselect All button."}
{"key":"92963","title":"[RCP][WorkbenchAdvisor] Allow workbench advisors to continue to run after the last window has closed.","description":"Our RCP application needs to continue to run after the last workbench window has\nclosed. Currently the workbench is hard coded to shutdown when the last\nworkbench window is closed."}
{"key":"79271","title":"ITypeBinding#isEqualTo(..) returns true when comparing ArrayList\u003cInteger\u003e to its erasure","description":"ITypeBinding#isEqualTo(. .) returns true when comparing ArrayList\u003cInteger\u003e to its erasure. Expected: false."}
{"key":"85452","title":"[IDE] (regression) Backdrop missing when all perspectives closed","description":"- the main page is blank - it should have a backdrop with text and button explaining how to open a perspective"}
{"key":"101434","title":"[Contexts] performance: Slow cursor navigation in Text fields","description":"With the above build, cursor navigation in any text field is extremely slow.      Expected: I see the caret move through the entered text Actual: The cursor does not visibly change its position until after releasing the key plug some delay."}
{"key":"130424","title":"New Registry view shows fragments","description":"The old registry view did not show fragments while the new one does.   1 filter them out, as we have done in the past, OR 2 show them but with the right icon. Right now, they show up with a blue plugin icon"}
{"key":"93119","title":"","description":"\u003e actual: the only proposed item is the CU\u0027s type (Extends) \u003c expected: there are exactly two proposals: \u0027extends\u0027 and \u0027super\u0027  \u003e actual: dozens of type proposals are proposed (and two template proposals, but\nthat is not a jdt-core problem)\n\u003c expected: only \u0027extends\u0027 is proposed."}
{"key":"87676","title":"Double-click only works on a tree\u0027s column0","description":"Using the log view as an example, double-clicking on column0 brings up the event dialog as it should. double-clicking on column1, column2 results in no notification to our double- click listener."}
{"key":"106789","title":"Run menu: Folder selector shows files, too","description":"(Button \"Advanced\" -\u003e RadioButton \"Add Folders\"), a file chooser pops up, showing not only folders, but normal files, too, which is not very nice. Compare this with the other possible selection with RadioButton \"Add External Folder\", where -- correctly -- only folders can be chosen! So, the \"Add Folders\" file chooser should become such a folder chooser, too."}
{"key":"99059","title":"[Connection] Network connection problems being written to the Eclipse log","description":"Found this in my log.  It should not be written to the log."}
{"key":"94879","title":"[PropertiesDialog] [Preferences] Esc does not dismiss properties or preferences dialog","description":"- instead of dismissing the dialog, it clears the filter field - pressing Esc again dismisses it   Esc is not normally used to clear a field. Esc within a dialog should dismiss it. Suggest not intercepting Esc, and just allowing backspace to clear the field (it\u0027s selected by default anyway)."}
{"key":"97018","title":"PDE generates to strict access restrictions","description":"This result in the following access restriction for clients using emf.core  As a result all usages to emf core classes even those in API package are flagged as an error. Since having a one liner manifest file seems to be a legal setup PDE should honor the access restrictions from the plugin.xml file and not generate a ALL forbidden rule only."}
{"key":"90549","title":"Mark Occurrences should work for one position past reference","description":"Currently the cursor must be placed within the occurrence or one space before \nthe occurrence. One space after the occurrence should be considered as well."}
{"key":"99235","title":"Fully qualified paths in antfile attribute do not open file","description":"Ctrl clicking on the antfile attribute should open the external antBuildfile.xml"}
{"key":"84546","title":"Escape on empty commit-comment is yes instead of no","description":"When you commit something with an empty commit comment, you\u0027ll get the \nfollowing dialog:    Now, when you press No, you\u0027ll go back to the commit dialog. Pressing Yes \ncommits. If you press ESC, you\u0027d expect the dialog to be canceled (\u003dno), but \nit still commits."}
{"key":"76969","title":"Preference change not propegated.","description":"NOTE that the UI does not respond right away (and it should)."}
{"key":"101644","title":"Browse in plugin editor should init with actual value","description":"The dialog comes up empty. It should better be initialzied with the actual value of the class file"}
{"key":"87683","title":"[Preferences] Preferences hover should show unshortened text","description":"Enable all the text hovers, an error message will display. The error message is\ntruncated, no matter how big you enlarge the screen."}
{"key":"85519","title":"[implementation] saveAs existing file fails - content replaced with original content","description":"expected: content of Test2 gets replaced with data in Test1 actual: a second editor with Test2.java is opened, Test1.java is closed, the unsaved changes in Test1.java are lost -\u003e lost data."}
{"key":"108705","title":"[Contributions] errors: ObjectActionContributor should safeguard against misbehaving plugins","description":"When using the Java Persepective and the Package Explorer all closed projects no longer have \"right-click\" context menu available to them.  If I right-click on a project that is open (which does show the menu) and then try to right-click on a closed project again, the menu now shows up."}
{"key":"93584","title":"Fetching Revisions from Revision Compare done in UI thread","description":"If you perform a Get Sticky Revision from a Compare Revisions editor, the fetch is performed in the UI thread. In the least, it should be done in a modal context."}
{"key":"138404","title":"[Problems] quick fix wizard opened with no options","description":"- note that when openning the quick fix wizard it should not be empty."}
{"key":"97085","title":"(3.1M7) Static import code assist shouldn\u0027t propose \u003cpackage\u003e.*;","description":"Code assist will propose all subpackages of java, each followed by \". *;\", which \nresults in a compile-time error if accepted. Instead, it should propose plain subpackages (\"java.lang\" instead of \"java.lang."}
{"key":"90600","title":"[model] CreateElementInCUOperation.apply: should use project options for rewriter","description":"CreateElementInCUOperation.apply should pass in the current projects options instead of null"}
{"key":"85672","title":"[projection] Unfolding a folded region with no line delimiter on the last line selects too much","description":"Note that there is a phantom line in the editor since we cannot fold that one away.  expected: caret is right after the closing brace actual: everything from after the *opening* brace is selected"}
{"key":"79638","title":"[EditorMgmt] history: NavigationHistory won\u0027t release references to IEditorParts","description":"Through profiling I have discovered that the reason my references are never released is because NavigationHistory is holding them. NavigationHistory gets references to every IEditorPart opened within a particular WorkbenchPage. From what I can tell through code examination it never releases any of them until the number held reaches an appearantly arbitrary 50.    In any event, I need a way to get the NavigationHistory to empty itself."}
{"key":"83206","title":"ICodeAssist#codeSelect(..) on implicit methods should not return a java element","description":"ICodeAssist#codeSelect(. .) on implicit methods \u0027valueOf(String)\u0027 and \u0027values()\u0027 of enum Color should not return a java element. Currently, the declaring enum is returned."}
{"key":"95096","title":"[5.0][content assist] Content assist popup disappears while completing the statically imported method name","description":"-\u003e Instead of constraining the proposals to all members with prefix a, the popup closes"}
{"key":"99282","title":"","description":"For example, the following program should print \"1999\" 40 times\n(once from each thread). But on my machine, it prints \"default\" 22 times \u0026 1999\n18 times."}
{"key":"88295","title":"[1.5][assist] too many completion on enum case label","description":"When completing in enum case label \u0027R\u003c|\u003e\u0027 only enum constants should be offered."}
{"key":"77238","title":"Enable/Disable not on context menu for breakpoint groups","description":"If I Select-All breakpoints (including groups) the Disable/Enable options do not appear on the context menu. They probably should as this is the general mechanism for disabling/enabling a bunch of breakpoints."}
{"key":"142881","title":"","description":"Observe how the selected item gets deleted.  DEL key should do nothing on such a non-editable model."}
{"key":"84881","title":"[WorkbenchLauncher] Splash screen receives focus after task switch (instead of workspace launcher dialog)","description":"When starting Eclipse 3.1, the splash screen and the \"select a workspace\" dialog\n(workspace launcher) is shown. If you then switch to another task and switch\nback to eclipse using ALT+Tab (MS Windows), the Splash-Screen receives the focus\nwhile the \"Select a workspace\" dialog stays in front but is inactive.  I\u0027ve not found any workaround to\nthis problem (closing the splash-screen via ALT+F4 removes the task from the\ntask bar, while the dialog stays in front without focus)."}
{"key":"95176","title":"Jobs still running after platform shutdown","description":"The console output for this build has a couple of entries like:    MESSAGE Job found still running after platform shutdown. Jobs should be canceled by the plugin that scheduled them during shutdown: org.eclipse.team.internal.core.BackgroundEventHandler$1"}
{"key":"79754","title":"[Change Sets] should show activity affordance","description":"When updating a selection of change sets, only the children of the sets get the\nactivity affordance (italic font and clock decoration), but not the toplevel\nentries."}
{"key":"97363","title":"","description":"It gets exported as a jar to d:\\temp\\export\\plugins\\org.eclipse.sdk_3.1.0.jar. If another plug-in is selected, it gets exported as a separate JAR too. Should export as unjar\u0027ed plugin directories if \"Package plug-ins as individual JAR archives\" is unchecked."}
{"key":"90714","title":"When no features are found, the second install wizard is still shown","description":"The second install wizard shows empty results after an unsuccessful search. This is an overkill, as a simple message dialog should be presented to the user saying no results have been found."}
{"key":"109329","title":"[Progress] Tooltip in progress dialog is shortened","description":"The tooltip should be the full text while the text itself may be shortened."}
{"key":"86000","title":"ImageLoader Save - produces invalid JPEG images","description":"The ImageLoader Save function appears to be producing bad JPG images.   Many files were tested and the majority \n did produced the proper JPG images as expected."}
{"key":"94007","title":"Views without view icon get red box by default","description":"If a few does not specify a icon it should not get one for free."}
{"key":"99631","title":"","description":"-\u003e The keyword proposals byte and boolean show up -\u003e A list of annotations starting with \u0027B\u0027 would be more helpful"}
{"key":"77249","title":"Annotation on class cancels \"public\" modifier","description":"The org.eclipse.jdt.core.dom.CompilationUnit instance corresponding to the class Foo below has no \"public\" modifier, although it should. Note that if the declaration is simplified to just \"@Jpf. Controller public class Foo {...}\", then the instance does have a \"public\" modifier."}
{"key":"149604","title":"","description":"3 Observe how the manifest file(s) for this plug-in open.     observed behavior: the editor opens on Overview tab. expected behavior: the editor opens on tab from #4."}
{"key":"105665","title":"[Dialogs] \"Open resource\" dialog doesnt remember it position and size","description":"\"Open resource\" dialog (CTRL-R) should not to forget position and size after closing it."}
{"key":"85275","title":"Team\u003eDisconnect should make all resources writtable","description":"When the user disconnects a project from CVS control, any read-only resources shoudl be made writtable. Otherwise, errors occur if the project is renamed."}
{"key":"90935","title":"","description":"open the feature details dialog and notice there is a large area of grey at towards the bottom. Resize vertically and notice that the feature list gets smaller but the large grey area remains the same. Suggest that the grey area be eliminated completely. Failing that, on resize it should be the first to go."}
{"key":"86268","title":"[About] About dialog plug-ins and features tables do not meet accessibility requirements","description":"In the resulting tables, if the columns are shorter than their content, Jaws will read a truncated version of the content (it will read only what can be seen on the screen). There is no method for resizing the column without using the mouse. In other views that use this table, the problem also exists, however, properties for cell contents can be achieved using the keyboard and, in the resulting properties dialog, the full cell contents can be read by the screen reader."}
{"key":"97722","title":"","description":"The dialog\u0027s error message is cropped at the bottom. The space between Name and Location seems unneccessary. The name text and location combo should be left aligned. The background color of the error message is different from the dialog\nbackground -- is this intended?"}
{"key":"99723","title":"[ViewMgmt] [RCP] Can dock a non-moveable fast view","description":"The \"Fast View\" toggle in the fast view bar is always enabled, even if the view\nis non-moveable. It should be hidden or disabled if the view is non-moveable."}
{"key":"85277","title":"\u0027Replace With \u003e Latest from HEAD\u0027 does not restore deleted CUs in a package","description":"Expected: The deleted compilation unit is restored from HEAD. Was: Only existing CUs are replaced with version from HEAD. Deleted CUs are not\nrestored."}
{"key":"80058","title":"[Wizards] Create folder blocked should avoid locking workspace","description":"That action was blocked. Should I not be able to create a new folder at the same time?"}
{"key":"89621","title":"","description":"The result is:  I would expect:"}
{"key":"157944","title":"JavaAttributeWizard shouldn\u0027t open with errors when passed an empty string","description":"The class wizard opens with an error."}
{"key":"97726","title":"Carat location should be updated when user types in Console.","description":"The carat location should be updated whenever a user enters text in a console. Backspace does not currently work as expected."}
{"key":"114565","title":"[Markers] Quick fix computation done in UI thread with no progress","description":"-\u003e The UI freezes with no painting, sometimes for ten seconds or more, while the quick fixes are computed. There should minimally be a busy indicator, and ideally move into a modal context thread to avoid freezing the UI for long periods. Here is a sample stack trace during one of these freezes:"}
{"key":"94516","title":"[content type] when project settings enabled, global user settings still taken into account","description":"When project settings are enabled, global user settings are still taken into\naccount. We want only plug-in provided settings (and project-specific settings)\nto be taken into account in that case."}
{"key":"77703","title":"Deselecting Map$Entry/Show As\u003e/Key And Value Deselects Map/Show As\u003e/Map Entries","description":"Should be able to turn off logical structures of Map$Entry while viewing as an array of Map$Entry."}
{"key":"97792","title":"Misleading message in error log view for optional plugins","description":"with an optional\u003dtrue (ie non OSGI manifest), the pde runtime error log view shows a warning but the message says:  It should instead say:"}
{"key":"86502","title":"field names in org.eclipse.core.commands.operations not consistent","description":"The \"f\" or \"m_\" or \"c_\" prefixes should not be used in code maintained by the Platform/UI team."}
{"key":"94537","title":"[Workbench] ClassNotFoundException trying to eagerly start a plug-in while shutting down","description":"Noticed the following in the console output for this build.                                                      The early startup code should check if the workbench is still running before starting each extension."}
{"key":"116908","title":"Synchronizing a closed project results in \"no changes\"","description":"If I try to synchronize a project, that is closed, I get \"no changes\", even if there are local and/or CVS differences. There should be an error message saying, that the project is closed, open project to synchronize."}
{"key":"92013","title":"DCR - Need SWT.VERTICAL style for CoolBar","description":"There seems to be no way to tell CoolBar to orient itself vertically i.e. the \ndrag handle is always rendered as a vertical line/vertical dots. I wanted to use CoolBar/CoolItem for the intro launch bar so that I can get \nthe OS-specific handle rendering but I need to be able to position CoolBar \nvertically when in the LEFT and RIGHT window trim areas. In this orientation, \nCoolItem handle will be rendered horizontally (as horizontal line/dots)."}
{"key":"32553","title":"[Viewers] Closing a project does not remove [+] icon","description":"I just launched I20030220 and imported a couple of existing projects into the workspace, with the [+] icon by each project (denoting contents). I then closed a couple of the projects that I was not looking at, and the [+] icon remained after closing the projects. Of course clicking on this icon resulted in nothing happening, except the [+] disappeared. It would be better if the icon was cleared when the project was closed."}
{"key":"80672","title":"[1.5] Annotation change does not trigger recompilation","description":"java should have got a problem due to disallowed\nlocation for use of annotation @Ann."}
{"key":"63433","title":"","description":"while the operation is running, a dialog titled \"Progress information\" is opened. This dialog has the useless caption \"Operation in progress...\". This should say something like \"Deleting resources...\", \"Deleting project...\" or similar."}
{"key":"78123","title":"[JFace] Error dialog should be resizable and not print redundant messages","description":"The error dialog that appears on synchronization errors should be resizable (as every dialog with dynamic content). Furthermore, the 2-row message should be shortened. Where it currently reads:      the second \"Authentication error...\" is redundant and makes it hard to parse the only interesting information (the project names)."}
{"key":"92063","title":"Editor closed while replacing corresponding file with HEAD contents","description":"The editor got closed under me automatically when the replace occurred. Expectation: editor should have refreshed instead"}
{"key":"87198","title":"Unable to create a MessageDialog instance outside of SWT thread","description":"You used to be able to create an instance of a MessageDialog outside the UI\nthead so long as open was called from inside the UI thread."}
{"key":"78315","title":"org.eclipes.team.ui plugin\u0027s startup code forces compare to be loaded","description":"The one for compare fails because org.eclipes.team.ui forces compare to be loaded in its start(BundleContext) method:   The direct reference to DiffNode causes the compare plug-in to be loaded even if it is not needed yet. Only when a compare will be done it needs to be loaded and the adapter being registered."}
