{"key":"COMPRESS-276","title":"NullPointerException in ZipArchiveOutputStream with invalid entries","description":"Writing raw data seems to cause problems in multiple ways, because an internal field is not set.      java.io.ByteArrayOutputStream var0 \u003d new java.io.ByteArrayOutputStream();\n    org.apache.commons.compress.archivers.jar.JarArchiveOutputStream var1 \u003d new org.apache.commons.compress.archivers.jar.JarArchiveOutputStream((java.io.OutputStream)var0);\n    var1.write(25843);"}
{"key":"COMPRESS-273","title":"NullPointerException when creation fields/entries from scratch","description":"However, when these 0-argument constructors are used, certain internal references are null, resulting in a NullPointerException soon after.        org.apache.commons.compress.archivers.zip.UnicodeCommentExtraField var0 \u003d new org.apache.commons.compress.archivers.zip.UnicodeCommentExtraField();\n    org.apache.commons.compress.archivers.zip.ZipShort var1 \u003d var0.getLocalFileDataLength();"}
{"key":"COMPRESS-278","title":"","description":"With version 1.8 of commons-compress it\u0027s no longer possible to decompress  files from an archive if the archive contains entries having null (or being empty?) set as username and/or usergroup. With version 1.7 this still worked now I get this exception:                                                       With 1.7 the TestCase outputed this:       With 1.8 it\u0027s failing once it reaches the null valued entry, which is the first.          \n\n\n\npackage TestBed;\n\n\n\nimport java.io.File;\n\nimport java.io.FileInputStream;\n\nimport java.io.FileNotFoundException;\n\nimport java.io.IOException;\n\n\n\nimport org.apache.commons.compress.archivers.tar.TarArchiveEntry;\n\nimport org.apache.commons.compress.archivers.tar.TarArchiveInputStream;\n\nimport org.apache.commons.compress.compressors.gzip.GzipCompressorInputStream;\n\nimport org.junit.Test;\n\n\n\n/**\n\n * Unit test for simple App.\n\n */\n\npublic class AppTest\n\n{\n\n\n\n    @Test\n\n    public void extractNoFileOwner()\n\n    {\n\n        TarArchiveInputStream tarInputStream \u003d null;\n\n\n\n        try\n\n        {\n\n            tarInputStream \u003d\n\n                new TarArchiveInputStream( new GzipCompressorInputStream( new FileInputStream( new File(\n\n                    \"/home/pknobel/redis-dist-2.8.3_1-linux.tar.gz\" ) ) ) );\n\n            TarArchiveEntry entry;\n\n            while ( ( entry \u003d tarInputStream.getNextTarEntry() ) !\u003d null )\n\n            {\n\n                System.out.println( entry.getName() );\n\n                System.out.println(entry.getUserName()+\"/\"+entry.getGroupName());\n\n            }\n\n\n\n        }\n\n        catch ( FileNotFoundException e )\n\n        {\n\n            e.printStackTrace();\n\n        }\n\n        catch ( IOException e )\n\n        {\n\n            e.printStackTrace();\n\n        }\n\n    }\n\n\n\n}"}
