{"key":"DATAMONGO-938","title":"Exception when creating geo within Criteria using MapReduce","description":"I am getting an IllegalArgumentException when I try to query a MongoDB collection using a Criteria.within and a Box.   The exception reads:  Criteria.where(\"location\") within(new Box(lowerLeft, upperRight));"}
{"key":"DATAMONGO-969","title":"String @id field is not mapped to ObjectId when using QueryDSL .id.in(Collection\u003cString\u003e)","description":"This is translating to $in clause with empty collection eq()  in() @Document\n\n\n\n\npublic class User {\n\n\n\n\n    @Id String id;\n\n\n\n\n}\n\n\n\n\n\n\n\n\n\n Collection\u003cString\u003e collection \u003d new ArrayList\u003c\u003e();\n\n\n\n\ncollection.add(\"abcdef.....\");\n\n\n\n\nIterable\u003cUser\u003e user \u003d userRepository.findAll(QUser.user.id.in(collection));"}
{"key":"DATAMONGO-987","title":"","description":"assertNull(persisted.getChild()); // it fails    I attached a project with the JUnit test which reproduces the problem for you. @Document @Document\n\n\n\n\nclass Parent {\n\n\n\n\n     @Id\n\n\n\n\n     private String id;\n\n\n\n\n     private String name;\n\n\n\n\n     @DBref(lazy\u003dtrue)\n\n\n\n\n     private Child child;\n\n\n\n\n\n\n\n\n\n    // getters and setters ommited\n\n\n\n\n}\n\n\n\n\n\n\n @Document\n\n\n\n\nclass Child {\n\n\n\n\n      @Id\n\n\n\n\n       private String id;\n\n\n\n\n       private String name;\n\n\n\n\n      //getters and setters ommited\n\n\n\n\n}\n\n\n\n\n\n\n Parent parent \u003d new Parent();\n\n\n\n\nparent.setName(\"Daddy\");\n\n\n\n\nmongoTemplate.save(parent); //ok, it is persisted like we expected.\n\n\n\n\n// Than we try to load this same entity from the database\n\n\n\n\nCriteria criteria \u003d Criteria.where(\"_id\").is(parent.getId());\n\n\n\n\nParent persisted \u003d mongoTemplate.findOne(new Query(criteria), Parent.class);\n\n\n\n\n// The child attribute should be null, right?\n\n\n\n\nassertNull(persisted.getChild()); // it fails"}
