{"key":"LUCENE-4182","title":"DocumentsWriterFlushControl.assertMemory tripped by NGramTokenizerTest.testRandomStrings","description":"{noformat}\n\n {0,5}  {0,5} {0,5} {1,5} {0, \u0026 qgbiwn  \u003c vyge acmvidw xbwgrppk \\uf612p\\u05f5^\\u048f\\u056d \\ud6436\\u9cde0\\u274e\\u0592 tamcca \\ufd7b\\ufbf9\\ufb88\\ufbae tusifiwj \\u000f\\u0600\\uef93} {0,5}  @AfterClass {dummy\u003dDFR I(n)3(800.0)} {noformat}"}
{"key":"LUCENE-4461","title":"Multiple FacetRequest with the same path creates inconsistent results","description":"FacetSearchParams facetSearchParams \u003d new FacetSearchParams();\n\t\tfacetSearchParams.addFacetRequest(new CountFacetRequest(new CategoryPath(\"author\"), 10));\n\t\tfacetSearchParams.addFacetRequest(new CountFacetRequest(new CategoryPath(\"author\"), 10));"}
{"key":"LUCENE-4532","title":"TestDirectoryTaxonomyReader.testRefreshReadRecreatedTaxonomy failure","description":"{noformat}\n {} {noformat}"}
{"key":"LUCENE-4561","title":"DWPT assert tripped again","description":"{noformat}\n {noformat}\n\n {noformat}\n {field\u003dDFR I(ne)1} {noformat}"}
{"key":"LUCENE-4567","title":"WFSTCompletionLookup.lookup() NPE when empty fst","description":"Builder.finish()  lookup()"}
{"key":"LUCENE-4568","title":"Integer overflow in PagedBytes.PagedBytesData{In,Out}put.getPosition","description":"{In,Out}"}
{"key":"LUCENE-4671","title":"CharsRef.subSequence broken","description":"CharsRef.subSequence()  {code}\n   @Override\n  public CharSequence subSequence(int start, int end) {\n    // NOTE: must do a real check here to meet the specs of CharSequence\n    if (start \u003c 0 || end \u003e length || start \u003e end) {\n      throw new IndexOutOfBoundsException();\n    }\n    return new CharsRef(chars, offset + start, offset + end);\n  }\n {code}\n\n {code}\n   @Override\n  public CharSequence subSequence(int start, int end) {\n    // NOTE: must do a real check here to meet the specs of CharSequence\n    if (start \u003c 0 || end \u003e length || start \u003e end) {\n      throw new IndexOutOfBoundsException();\n    }\n    return new CharsRef(chars, offset + start, end - start);\n  }\n {code}"}
