{"key":"OPENJPA-2149","title":"Criteria.function adds wrong casts to parameters making it unsuable","description":"Expression\u003cString\u003e stPointFunc \u003d cb.function(\n\t\t\t\t\"db2gse.st_point\", \n\t\t\t\tString.class,\n\t\t\t\tcb.literal(0.0),\n\t\t\t\tcb.literal(0.0),\n\t\t\t\tcb.literal(1003));\n\t\t\n\t\tExpression\u003cDouble\u003e distanceFunc \u003d cb.function(\n\t\t\t\t\"db2gse.st_distance\", \n\t\t\t\tDouble.class, \n\t\t\t\tstPointFunc, \n\t\t\t\tusersLocations.get(\"location\"));\n\t\t\n\t\tcriteriaQuery.select(usersLocations).where(cb.lessThan(distanceFunc, cb.literal(50.0)));\n\n args.appendTo(sel, ctx, state, sql, 0);\n for (int i \u003d 1; i \u003c vals.length; i++) {\n                sql.addCastForParam(getOperator(), vals[i]);\n            }\n Expression\u003cString\u003e stPointFunc \u003d cb.function(\n\t\t\t\t\"db2gse.st_point\", \n\t\t\t\tString.class,\n\t\t\t\tcb.coalesce(cb.literal(0.0), cb.literal(0.0)),\n\t\t\t\tcb.coalesce(cb.literal(1.0), cb.literal(1.0)),\n\t\t\t\tcb.coalesce(cb.literal(1003), cb.literal(1003)));"}
{"key":"OPENJPA-2163","title":"Lifecycle event callback occurs more often than expect","description":"final EntityManager em \u003d factory.createEntityManager();\nfinal EntityManager em2 \u003d factory.createEntityManager();\n MyLifecycleListener l1 \u003d new MyLifecycleListener();\nMyLifecycleListener l2 \u003d new MyLifecycleListener();\n ((OpenJPAEntityManagerSPI)em).addLifecycleListener(l1, null);\n((OpenJPAEntityManagerSPI)em2).addLifecycleListener(l2, null);"}
{"key":"OPENJPA-2197","title":"MethodComparator in AnnotationPersistenceMetaDataParser should also compare parameters","description":"@PreUpdate\n    public void updateChangeLog(Object entity)  private void updateChangeLog(BaseEntity he, ChangeLogEntry cle)\n\n @PreUpdate"}
{"key":"OPENJPA-2227","title":"OpenJPA doesn\u0027t find custom SequenceGenerators","description":"{code}\n @Entity\n@SequenceGenerator(name\u003d\"MySequence\", sequenceName\u003d\"org.apache.openjpa.generator.UIDGenerator()\")\npublic class Customer implements Serializable  @Id\n    @GeneratedValue(strategy\u003dGenerationType.SEQUENCE, generator\u003d\"MySequence\")\n    private long id;\n {code}\n\n JavaTypes.classForName()  Class.forName()"}
{"key":"OPENJPA-2247","title":"JoinColumn annotation is ignored when mapping a unidirectional owned OneToOne that is in a SecondaryTable","description":"@Entity\n@SecondaryTable(name \u003d \"ParentSecondaryTable\", pkJoinColumns \u003d \n    { @PrimaryKeyJoinColumn(name \u003d \"idParent\", referencedColumnName \u003d \"idParent\") })\npublic class Parent {\n\n    @Id\n    @GeneratedValue\n    int idParent;\n\n    String child_ref;\n\n    @OneToOne\n    @JoinColumn(name \u003d \"CHILD_REF\", table \u003d \"ParentSecondaryTable\", referencedColumnName \u003d \"idChild\")\n    PChild child;\n\n}"}
{"key":"OPENJPA-2255","title":"Couldn\u0027t load the referencedColumn definition when create the JoinTable","description":"@Entity \npublic class Student  @Id @Column(name\u003d\"id\", length\u003d128, nullable\u003dfalse) private String id; \n   @Column(name\u003d\"sName\", length\u003d255) private String sName; \n   @ManyToMany \n  @JoinTable( \n    name\u003d\"student_course_map\", \n    joinColumns\u003d{@JoinColumn(name\u003d\"student_id\", referencedColumnName\u003d\"id\", nullable\u003dfalse)}, \n    inverseJoinColumns\u003d{@JoinColumn(name\u003d\"course_id\", referencedColumnName\u003d\"id\", nullable\u003dfalse)} \n  ) \n  public Collection getCourses() \n\n   @Entity \npublic class Courses{ \n  @Id @Column(name\u003d\"id\", length\u003d128, nullable\u003dfalse) private String id; \n  @Column(name\u003d\"cName\", length\u003d255) private String cName; \n\n  ... \n}"}
{"key":"OPENJPA-428","title":"Bad error message regarding \"openjpa.Id\"","description":"@Id @Id @Id @Id @Entity\n@Table(name\u003d\"TAX\", schema\u003d\"JPA_SC\")\npublic class Tax  {\n\t\n\t// Class variables  \n\tprotected double taxamount;\n \n\tpublic Tax(){\n\t\t\n\t}\n\t\n\tpublic Tax(double taxamount){\n\t\tthis.taxamount \u003d taxamount;\n\t}\n//plus getter and setter for taxamount\n\n}"}
