{"id":5910,"bug_id":"DATAMONGO-629","text":"Assume we have following query:                                      Query q \u003d query {\n\n\n\n\n\t\t\"id\" : /zzz/\n\n\n\n\n\t} {\n\n\n\n\n\t\t\"count\" : \"test\",\n\n\n\n\n\t\t\"query\" : {\n\n\n\n\n\t\t\t\"_id\" : /zzz/\n\n\n\n\n\t\t}\n\n\n\n\n\t find()  count()","file_goldset":["org.springframework.data.mongodb.core.convert.QueryMapper","org.springframework.data.mongodb.core.MongoTemplateTests","org.springframework.data.mongodb.core.convert.QueryMapperUnitTests","org.springframework.data.mongodb.core.mapping.MongoMappingContext"],"creation_date":"2013-03-22T04:08:25.000-05:00","resolution_date":"2013-03-27T04:22:53.000-05:00"}
{"id":5911,"bug_id":"DATAMONGO-571","text":"1. Domain class is loaded from mongodb using CrudRepository.findOne() method. 2. The loaded instances any non id nor @Version annotated field is set to null. 3. The loaded instance is saved to same mongodb using CrudRepository.save() method. 4. The field that has been set to null doesnt write to database, its unchanged.  Scenario CrudRepository.findOne()  @Version CrudRepository.save()  @Version","file_goldset":["org.springframework.data.mongodb.core.MongoTemplateTests","org.springframework.data.mongodb.core.query.Update"],"creation_date":"2012-11-09T08:00:10.000-06:00","resolution_date":"2013-04-11T03:05:45.000-05:00"}
{"id":5912,"bug_id":"DATAMONGO-602","text":"Querying with $in operator on the id field of type BigInteger returns zero results. There is a problem when trying to query for documents with id field is in a given list of BigInteger values.  For example, these lines will work only if given id list contains only one item.            List\u003cBigInteger\u003e profileIds \u003d findProfileIds();\n\n\n\n\nPredicate predicate \u003d QProfileDocument.profileDocument.id.in(profileIds);\n\n\n\n\nIterable\u003cProfileDocument\u003e profiles \u003d profileRepository.findAll(predicate);","file_goldset":["org.springframework.data.mongodb.core.MongoTemplateTests"],"creation_date":"2013-01-30T02:22:53.000-06:00","resolution_date":"2013-08-07T10:11:51.000-05:00"}
{"id":5913,"bug_id":"DATAMONGO-647","text":"I created a method using the \"query by method name\" approach: Inside my Answer object, I have a field called \"Score\" that is annotated with    When the query is run, the database attempts to sort the results by \"score\" rather than my \"sr\" field name. @Field(\"sr\")\n List\u003cAnswer\u003e findByQuestionIdOrderByScoreDesc(String questionId)","file_goldset":["org.springframework.data.mongodb.core.convert.QueryMapperUnitTests"],"creation_date":"2013-04-09T17:29:02.000-05:00","resolution_date":"2014-05-19T05:42:41.000-05:00"}
