{"id":5989,"bug_id":"WFCORE-716","text":"The following command is referencing a non-existent capability: -          When I execute :reload it will fail: -       attribute(name\u003dsecurity-realm)\n\n\n\n\n {\n\n\n\n\n    \"outcome\" \u003d\u003e \"success\",\n\n\n\n\n    \"response-headers\" \u003d\u003e {\n\n\n\n\n        \"operation-requires-reload\" \u003d\u003e true,\n\n\n\n\n        \"process-state\" \u003d\u003e \"reload-required\"\n\n\n\n\n    }\n\n\n\n\n attribute(name\u003dsecurity-domain, value\u003dMgMtDom)\n\n\n\n\n {\n\n\n\n\n    \"outcome\" \u003d\u003e \"success\",\n\n\n\n\n    \"response-headers\" \u003d\u003e {\n\n\n\n\n        \"operation-requires-reload\" \u003d\u003e true,\n\n\n\n\n        \"process-state\" \u003d\u003e \"reload-required\"\n\n\n\n\n    }","file_goldset":["org.jboss.as.controller.CapabilityReferenceRecorder"],"creation_date":"2015-05-27T10:21:36.000-05:00","resolution_date":"2015-06-10T13:09:19.000-05:00"}
{"id":5990,"bug_id":"WFCORE-1027","text":"Setting up host scoped roles as follows https://gist.github.com/heiko-braun/0dc810ed04db8739defd there are inconsistent results in the filtering.                                                                                                                                                {roles\u003dmaster-monitor}\n\n\n\n\n {\n\n\n\n\n                \"directory-grouping\" \u003d\u003e \"by-server\",\n\n\n\n\n                \"domain-controller\" \u003d\u003e {\"local\" \u003d\u003e {} {\"org.jboss.as.jmx\" \u003d\u003e undefined} {\n\n\n\n\n                    \"management\" \u003d\u003e undefined,\n\n\n\n\n                    \"public\" \u003d\u003e undefined,\n\n\n\n\n                    \"unsecure\" \u003d\u003e undefined\n\n\n\n\n                } {\"default\" \u003d\u003e undefined} {\"jmx\" \u003d\u003e undefined} {roles\u003dslave-maintainer}\n\n\n\n\n {roles\u003dslave-maintainer}\n\n\n\n\n {\"org.jboss.as.jmx\" \u003d\u003e undefined} {\n\n\n\n\n                \"management\" \u003d\u003e undefined,\n\n\n\n\n                \"public\" \u003d\u003e undefined,\n\n\n\n\n                \"unsecure\" \u003d\u003e undefined\n\n\n\n\n            } {\"default\" \u003d\u003e undefined} {\"jmx\" \u003d\u003e undefined}","file_goldset":["org.jboss.as.test.integration.domain.rbac.ListRoleNamesTestCase","org.jboss.as.test.integration.domain.rbac.WildcardReadsTestCase","org.jboss.as.test.integration.domain.rbac.JmxRBACProviderHostScopedRolesTestCase","org.jboss.as.test.integration.domain.rbac.RBACProviderHostScopedRolesTestCase","org.jboss.as.test.integration.domain.rbac.AbstractHostScopedRolesTestCase","org.jboss.as.controller.operations.global.GlobalOperationHandlers"],"creation_date":"2015-10-01T18:16:10.000-05:00","resolution_date":"2015-10-06T16:00:01.000-05:00"}
{"id":5991,"bug_id":"WFCORE-815","text":"get fresh EAP                               add(name\u003dincludes, value\u003dmail-01)\n add(name\u003dincludes, value\u003dmail-02)\n\n {\n\n\n\n\n    \"outcome\" \u003d\u003e \"failed\",\n\n\n\n\n    \"failure-description\" \u003d\u003e {\"domain-failure-description\" \u003d\u003e \"WFLYCTL0401: Profile \u0027mail-01\u0027 defines subsystem \u0027mail\u0027 which is also defined in its ancestor profile \u0027mail-02\u0027. Overriding subsystems is not supported\"} add(name\u003dincludes, value\u003dmail-01)\n add(name\u003dincludes, value\u003dmail-02)","file_goldset":["org.jboss.as.host.controller.logging.HostControllerLogger","org.jboss.as.domain.controller.operations.SocketBindingGroupIncludesHandlerTestCase","org.jboss.as.domain.controller.operations.ProfileIncludesHandlerTestCase"],"creation_date":"2015-07-13T07:57:45.000-05:00","resolution_date":"2015-07-15T13:34:32.000-05:00"}
{"id":5992,"bug_id":"WFCORE-989","text":"The \"WFLYHC0153: Channel closed\" failure is what is produced when an attempt is made to invoke on a disconnected proxy controller. {\"server-group\" \u003d\u003e {\n\n\n\n\n        \"main-server-group\" \u003d\u003e {\"host\" \u003d\u003e {\"slave\" \u003d\u003e {\"main-three\" \u003d\u003e \"WFLYHC0153: Channel closed\"}","file_goldset":["org.jboss.as.host.controller.ServerInventoryImpl","org.jboss.as.host.controller.mgmt.ServerToHostProtocolHandler"],"creation_date":"2015-09-19T03:11:07.000-05:00","resolution_date":"2015-10-23T17:03:25.000-05:00"}
{"id":5993,"bug_id":"WFCORE-955","text":"Server is not responding after attempt to set parent of profile to non-existent profile. Server is not responding after attempt to set parent of profile to non-existent profile. Server is not responding also after attempt to set parent of socket-binding-group to non-existent socket-binding-group.         Get fresh EAP                               Get fresh EAP        add()\n {\n\n\n\n\n    \"outcome\" \u003d\u003e \"failed\",\n\n\n\n\n    \"failure-description\" \u003d\u003e \"java.lang.NullPointerException:null\"\n\n\n\n\n}\n\n\n\n\n add()","file_goldset":["org.jboss.as.controller.logging.ControllerLogger","org.jboss.as.controller.OperationContextImpl","org.jboss.as.controller.AbstractOperationContext","org.jboss.as.controller.capability.registry.IncludingResourceCapabilityScope","org.jboss.as.controller.SocketCapabilityResolutionUnitTestCase","org.jboss.as.controller.AbstractCapabilityResolutionTestCase"],"creation_date":"2015-08-27T14:34:07.000-05:00","resolution_date":"2015-09-04T13:33:34.000-05:00"}
{"id":5994,"bug_id":"WFCORE-876","text":"Executing a reload or shutdown inside an if/else block results in the reload or restart occurring before the other commands in the batch are executed.       resource()","file_goldset":["org.jboss.as.cli.handlers.ifelse.IfElseControlFlow","org.jboss.as.cli.handlers.trycatch.TryCatchFinallyControlFlow","org.jboss.as.test.integration.management.cli.TryCatchFinallyTestCase","org.jboss.as.test.integration.management.cli.ifelse.NonExistingPathComparisonTestCase","org.jboss.as.test.integration.management.cli.ifelse.BasicIfElseTestCase"],"creation_date":"2015-08-12T07:52:43.000-05:00","resolution_date":"2015-09-18T13:23:39.000-05:00"}
{"id":5995,"bug_id":"WFCORE-949","text":"Executing /core-service\u003dmanagement/management-interface\u003dhttp-interface:remove() autocompletes but does not succeed.   remove()","file_goldset":["org.jboss.as.subsystem.test.AdditionalInitialization","org.wildfly.core.test.standalone.mgmt.HTTPSManagementInterfaceTestCase","org.jboss.as.jmx.RemotingConnectorResource","org.jboss.as.server.operations.HttpManagementRemoveHandler","org.jboss.as.host.controller.resources.NativeManagementResourceDefinition","org.jboss.as.test.integration.domain.HTTPSManagementInterfaceTestCase","org.jboss.as.server.operations.NativeRemotingManagementRemoveHandler","org.jboss.as.server.operations.NativeManagementRemoveHandler","org.jboss.as.host.controller.resources.HttpManagementResourceDefinition","org.wildfly.core.test.standalone.mgmt.HTTPSConnectionWithCLITestCase","org.jboss.as.remoting.management.ManagementRemotingServices","org.jboss.as.remoting.logging.RemotingLogger","org.jboss.as.server.mgmt.NativeManagementResourceDefinition","org.jboss.as.host.controller.operations.HttpManagementRemoveHandler","org.jboss.as.server.mgmt.HttpManagementResourceDefinition"],"creation_date":"2015-09-03T05:08:35.000-05:00","resolution_date":"2015-09-21T18:59:23.000-05:00"}
{"id":5996,"bug_id":"WFCORE-1007","text":"When I use migration operation the console log is filled with warning messages of type   If I do the sequence of operation                                                                                                                                          migrate()\n\n\n\n\n {\n\n\n\n\n    \"outcome\" \u003d\u003e \"success\",\n\n\n\n\n    \"result\" \u003d\u003e {\"migration-warnings\" \u003d\u003e []}\n\n\n\n\n migrate()\n\n\n\n\n {\n\n\n\n\n    \"outcome\" \u003d\u003e \"success\",\n\n\n\n\n    \"result\" \u003d\u003e {\"migration-warnings\" \u003d\u003e []}\n\n\n\n\n migrate()\n\n\n\n\n {\n\n\n\n\n    \"outcome\" \u003d\u003e \"success\",\n\n\n\n\n    \"result\" \u003d\u003e {\"migration-warnings\" \u003d\u003e []}","file_goldset":["org.jboss.as.controller.logging.ControllerLogger","org.jboss.as.controller.AbstractOperationContext"],"creation_date":"2015-09-24T06:45:11.000-05:00","resolution_date":"2015-09-25T15:39:44.000-05:00"}
