system;bugId;has_ob;has_eb;has_sr;has_other;has_code
derby-10.9.1.0;DERBY-5251;x;x;x;x;x
derby-10.9.1.0;DERBY-6092;x;;;x;x
jedit-4.3;1599709;x;;x;x;x
derby-10.9.1.0;DERBY-6108;x;;;x;x
derby-10.9.1.0;DERBY-5377;x;;;x;x
tika-1.3;TIKA-1192;x;;;x;x
derby-10.7.1.1;DERBY-4835;x;;x;x;x
openjpa-2.0.1;OPENJPA-2132;x;;;x;x
bookkeeper-4.1.0;BOOKKEEPER-294;x;;;x;x
pig-0.11.1;PIG-3267;x;;x;x;x
jedit-4.3;1600401;x;;x;x;x
jedit-4.3;1193683;x;;x;x;x
pig-0.8.0;PIG-496;x;;;x;x
pig-0.8.0;PIG-1831;x;;x;x;x
mahout-0.8;MAHOUT-1314;x;x;x;x;x
jedit-4.3;2759434;x;;;x;x
derby-10.7.1.1;DERBY-4873;x;;x;x;x
openjpa-2.0.1;OPENJPA-2289;x;;;x;x
derby-10.9.1.0;DERBY-6131;x;;x;;x
pig-0.11.1;PIG-3290;x;;;x;x
argouml-0.22;4200;x;x;x;;x
bookkeeper-4.1.0;BOOKKEEPER-318;x;;;x;x
derby-10.9.1.0;DERBY-5407;x;;x;x;x
jedit-4.3;1658252;x;;x;x;x
zookeeper-3.4.5;ZOOKEEPER-1535;x;;x;x;x
derby-10.7.1.1;DERBY-4884;x;;;;x
argouml-0.22;3923;x;;x;x;x
pig-0.11.1;PIG-3292;x;;x;x;x
lucene-4.0;LUCENE-4182;x;;;x;x
derby-10.9.1.0;DERBY-5424;x;;;x;x
derby-10.9.1.0;DERBY-6138;x;;;x;x
zookeeper-3.4.5;ZOOKEEPER-1619;x;x;x;x;x
derby-10.7.1.1;DERBY-4889;x;;x;x;x
openjpa-2.2.0;OPENJPA-2149;x;;;x;x
mahout-0.8;MAHOUT-1317;x;x;x;x;x
jedit-4.3;1724940;x;;x;x;x
lucene-4.0;LUCENE-4461;x;;x;x;x
derby-10.9.1.0;DERBY-5531;x;;;x;x
pig-0.11.1;PIG-3310;x;x;x;x;x
jedit-4.3;1571752;x;;x;x;x
pig-0.8.0;PIG-1837;x;;x;x;x
pig-0.8.0;PIG-730;x;x;x;x;x
derby-10.7.1.1;DERBY-4892;x;;x;x;x
pig-0.11.1;PIG-3316;x;;x;x;x
bookkeeper-4.1.0;BOOKKEEPER-371;x;x;;x;x
derby-10.9.1.0;DERBY-6150;x;x;;x;x
openjpa-2.2.0;OPENJPA-2163;x;x;x;x;x
derby-10.9.1.0;DERBY-5567;x;;x;x;x
lucene-4.0;LUCENE-4532;x;;;x;x
mahout-0.8;MAHOUT-1320;x;;;x;x
bookkeeper-4.1.0;BOOKKEEPER-376;x;x;x;x;x
pig-0.8.0;PIG-1843;x;;x;x;x
pig-0.11.1;PIG-3329;x;;x;x;x
jedit-4.3;1575505;x;;x;x;x
zookeeper-3.4.5;ZOOKEEPER-1642;x;;;x;x
mahout-0.8;MAHOUT-1336;x;;;x;x
openjpa-2.2.0;OPENJPA-2197;x;x;x;x;x
derby-10.9.1.0;DERBY-3024;x;x;x;x;x
pig-0.8.0;PIG-767;x;x;x;x;x
lucene-4.0;LUCENE-4561;x;;x;x;x
derby-10.9.1.0;DERBY-5663;x;;;x;x
hibernate-3.5.0b2;HHH-4617;x;x;x;x;x
pig-0.8.0;PIG-946;x;;x;;x
pig-0.11.1;PIG-3379;x;;x;x;x
mahout-0.8;MAHOUT-1349;x;;x;x;x
derby-10.7.1.1;DERBY-4624;x;;;x;x
zookeeper-3.4.5;ZOOKEEPER-1700;x;;x;x;x
pig-0.8.0;PIG-1856;x;;x;x;x
jedit-4.3;1942313;x;x;x;x;x
derby-10.9.1.0;DERBY-4269;x;;;x;x
openjpa-2.2.0;OPENJPA-2227;x;;x;x;x
lucene-4.0;LUCENE-4567;x;;;;x
derby-10.9.1.0;DERBY-5740;x;;;x;x
hibernate-3.5.0b2;HHH-4647;x;;;x;x
lucene-4.0;LUCENE-4568;x;;;;x
pig-0.8.0;PIG-1858;x;;x;x;x
jedit-4.3;1999448;x;x;x;x;x
pig-0.11.1;PIG-3495;x;;x;;x
mahout-0.8;MAHOUT-1358;x;;x;x;x
solr-4.4.0;SOLR-5107;x;;;x;x
openjpa-2.2.0;OPENJPA-2247;x;;x;x;x
derby-10.7.1.1;DERBY-4654;x;x;;x;x
zookeeper-3.4.5;ZOOKEEPER-1753;x;;;x;x
derby-10.9.1.0;DERBY-4647;x;;x;x;x
hibernate-3.5.0b2;HHH-5042;x;;x;x;x
pig-0.11.1;PIG-3510;x;;x;x;x
mahout-0.8;MAHOUT-1396;x;;;x;x
jedit-4.3;2129419;x;;x;x;x
derby-10.9.1.0;DERBY-5816;x;;;x;x
pig-0.8.0;PIG-1861;x;;;x;x
mahout-0.8;MAHOUT-1261;x;;;x;x
pig-0.8.0;PIG-1866;x;;x;x;x
openjpa-2.2.0;OPENJPA-2255;x;x;;x;x
pig-0.8.0;PIG-1188;x;x;x;x;x
derby-10.7.1.1;DERBY-4664;x;;;x;x
zookeeper-3.4.5;ZOOKEEPER-1755;x;;;x;x
derby-10.9.1.0;DERBY-4669;x;;;x;x
openjpa-2.0.1;OPENJPA-1752;x;x;;x;x
solr-4.4.0;SOLR-5295;x;;x;x;x
derby-10.9.1.0;DERBY-5912;x;;;x;x
openjpa-2.2.0;OPENJPA-428;x;;x;x;x
derby-10.7.1.1;DERBY-4665;x;;;x;x
zookeeper-3.4.5;ZOOKEEPER-1774;x;;;x;x
derby-10.9.1.0;DERBY-4873;x;;x;x;x
jabref-2.6;1631548;x;;x;x;x
solr-4.4.0;SOLR-5296;x;x;x;x;x
openjpa-2.0.1;OPENJPA-1787;x;;x;x;x
pig-0.8.0;PIG-1868;x;;x;x;x
pig-0.8.0;PIG-1277;x;x;x;x;x
derby-10.9.1.0;DERBY-5916;x;;x;x;x
pig-0.11.1;PIG-2767;x;x;x;x;x
zookeeper-3.4.5;ZOOKEEPER-1781;x;x;x;x;x
tika-1.3;TIKA-1070;x;;x;x;x
pig-0.8.0;PIG-1892;x;;x;x;x
derby-10.7.1.1;DERBY-4718;x;;;x;x
pig-0.11.1;PIG-2828;x;x;x;x;x
openjpa-2.0.1;OPENJPA-1903;x;;x;x;x
derby-10.9.1.0;DERBY-6053;x;x;x;x;x
pig-0.8.0;PIG-1771;x;;x;x;x
pig-0.8.0;PIG-1893;x;x;x;x;x
tika-1.3;TIKA-1152;x;;x;x;x
openjpa-2.0.1;OPENJPA-1912;x;;x;x;x
pig-0.11.1;PIG-2970;x;;;x;x
pig-0.8.0;PIG-1910;x;x;;x;x
derby-10.9.1.0;DERBY-6058;x;;;x;x
pig-0.8.0;PIG-1776;x;;x;x;x
openjpa-2.0.1;OPENJPA-1918;x;x;x;x;x
derby-10.9.1.0;DERBY-6079;x;;;x;x
pig-0.11.1;PIG-3060;x;;;x;x
pig-0.8.0;PIG-1912;x;x;x;x;x
pig-0.8.0;PIG-1785;x;x;x;x;x
openjpa-2.0.1;OPENJPA-1928;x;x;x;x;x
pig-0.8.0;PIG-1927;x;;x;x;x
pig-0.8.0;PIG-1808;x;;x;x;x
pig-0.11.1;PIG-3114;x;;x;x;x
openjpa-2.0.1;OPENJPA-1975;x;x;x;;x
pig-0.8.0;PIG-1812;x;;x;x;x
pig-0.8.0;PIG-1935;x;x;x;x;x
openjpa-2.0.1;OPENJPA-1986;x;;x;x;x
pig-0.8.0;PIG-1813;x;;x;x;x
pig-0.8.0;PIG-1955;x;;;x;x
pig-0.8.0;PIG-1963;x;;x;x;x
pig-0.8.0;PIG-1977;x;;;x;x
pig-0.8.0;PIG-1979;x;;x;x;x
pig-0.8.0;PIG-1993;x;;x;x;x
pig-0.8.0;PIG-313;x;;x;x;x
