system;bugId;has_ob;has_eb;has_sr;has_other;has_code
mahout-0.8;MAHOUT-1314;x;x;x;x;x
pig-0.11.1;PIG-3310;x;x;x;x;x
pig-0.8.0;PIG-730;x;x;x;x;x
openjpa-2.2.0;OPENJPA-2163;x;x;x;x;x
pig-0.8.0;PIG-767;x;x;x;x;x
zookeeper-3.4.5;ZOOKEEPER-1619;x;x;x;x;x
jedit-4.3;1942313;x;x;x;x;x
pig-0.8.0;PIG-1188;x;x;x;x;x
derby-10.9.1.0;DERBY-6053;x;x;x;x;x
jedit-4.3;1999448;x;x;x;x;x
pig-0.8.0;PIG-1893;x;x;x;x;x
hibernate-3.5.0b2;HHH-4617;x;x;x;x;x
argouml-0.22;4200;x;x;x;;x
pig-0.8.0;PIG-1277;x;x;x;x;x
openjpa-2.0.1;OPENJPA-1918;x;x;x;x;x
derby-10.9.1.0;DERBY-3024;x;x;x;x;x
pig-0.11.1;PIG-2767;x;x;x;x;x
openjpa-2.0.1;OPENJPA-1928;x;x;x;x;x
pig-0.11.1;PIG-2828;x;x;x;x;x
solr-4.4.0;SOLR-5296;x;x;x;x;x
pig-0.8.0;PIG-1912;x;x;x;x;x
zookeeper-3.4.5;ZOOKEEPER-1781;x;x;x;x;x
pig-0.8.0;PIG-1785;x;x;x;x;x
pig-0.8.0;PIG-1935;x;x;x;x;x
