system;bugId;has_ob;has_eb;has_sr;has_other;has_code
argouml-0.22;4031;x;x;x;x;
pig-0.11.1;PIG-3267;x;;x;x;x
openjpa-2.0.1;OPENJPA-2007;x;x;x;x;
tika-1.3;TIKA-1192;x;;;x;x
jedit-4.3;1599709;x;;x;x;x
pig-0.8.0;PIG-1831;x;;x;x;x
pig-0.8.0;PIG-496;x;;;x;x
jabref-2.6;1648789;x;;;x;
argouml-0.22;4354;x;;;x;
mahout-0.8;MAHOUT-1284;x;;;x;
derby-10.9.1.0;DERBY-6092;x;;;x;x
jedit-4.3;2218621;x;x;x;x;
derby-10.7.1.1;DERBY-4748;x;x;x;x;
derby-10.9.1.0;DERBY-5251;x;x;x;x;x
argouml-0.22;1671;x;x;x;x;
argouml-0.22;4037;x;;x;x;
argouml-0.22;4362;x;;x;x;
jedit-4.3;2220033;x;;x;x;
tika-1.3;TIKA-1211;x;;;x;
pig-0.8.0;PIG-534;x;;;;
pig-0.11.1;PIG-3290;x;;;x;x
mahout-0.8;MAHOUT-1285;x;;x;x;
jedit-4.3;1600401;x;;x;x;x
pig-0.8.0;PIG-1837;x;;x;x;x
jabref-2.6;1709449;x;x;x;x;
argouml-0.22;1884;x;;x;x;
derby-10.9.1.0;DERBY-5252;;x;x;x;
derby-10.9.1.0;DERBY-6094;x;;;x;
openjpa-2.0.1;OPENJPA-2011;x;;;x;
derby-10.7.1.1;DERBY-4755;x;;;x;
argouml-0.22;4043;x;;x;x;
jedit-4.3;1620694;x;;;x;
jedit-4.3;2759434;x;;;x;x
jabref-2.6;1711135;x;x;x;x;
argouml-0.22;4364;x;;x;x;
argouml-0.22;2144;x;;;;
zookeeper-3.4.5;ZOOKEEPER-1179;x;;x;x;
pig-0.8.0;PIG-1843;x;;x;x;x
mahout-0.8;MAHOUT-1314;x;x;x;x;x
pig-0.11.1;PIG-3292;x;;x;x;x
pig-0.8.0;PIG-730;x;x;x;x;x
derby-10.9.1.0;DERBY-5377;x;;;x;x
openjpa-2.0.1;OPENJPA-2132;x;;;x;x
derby-10.7.1.1;DERBY-4772;x;;;x;
argouml-0.22;4049;x;x;x;;
jedit-4.3;1630805;x;;;x;
jedit-4.3;2781716;x;x;x;x;
argouml-0.22;2145;x;;;;
jabref-2.6;1749613;x;;;x;
argouml-0.22;4367;x;;x;x;
derby-10.9.1.0;DERBY-6108;x;;;x;x
zookeeper-3.4.5;ZOOKEEPER-1474;x;;;x;
pig-0.11.1;PIG-3310;x;x;x;x;x
pig-0.8.0;PIG-1850;x;;x;x;
mahout-0.8;MAHOUT-1317;x;x;x;x;x
pig-0.8.0;PIG-767;x;x;x;x;x
derby-10.9.1.0;DERBY-5407;x;;x;x;x
derby-10.7.1.1;DERBY-4786;x;x;x;x;
bookkeeper-4.1.0;BOOKKEEPER-291;x;x;;;
openjpa-2.0.1;OPENJPA-2146;x;;;x;
jedit-4.3;2824045;x;;x;x;
argouml-0.22;4085;x;;x;x;
argouml-0.22;2225;x;x;x;x;
derby-10.9.1.0;DERBY-6131;x;;x;;x
zookeeper-3.4.5;ZOOKEEPER-1499;x;;;;
jabref-2.6;1827568;x;;;x;
jedit-4.3;1641997;x;;;x;
pig-0.8.0;PIG-1854;x;;x;x;
mahout-0.8;MAHOUT-1320;x;;;x;x
pig-0.11.1;PIG-3316;x;;x;x;x
jabref-2.6;2119059;x;;;x;
openjpa-2.0.1;OPENJPA-2289;x;;;x;x
derby-10.7.1.1;DERBY-4803;x;;;x;
pig-0.8.0;PIG-946;x;;x;;x
argouml-0.22;4100;x;;x;x;
argouml-0.22;2460;x;x;;x;
zookeeper-3.4.5;ZOOKEEPER-1535;x;;x;x;x
bookkeeper-4.1.0;BOOKKEEPER-294;x;;;x;x
derby-10.9.1.0;DERBY-5424;x;;;x;x
jedit-4.3;950961;x;x;x;x;
jedit-4.3;1658252;x;;x;x;x
derby-10.9.1.0;DERBY-6133;x;x;;x;
argouml-0.22;4103;x;;x;x;
derby-10.9.1.0;DERBY-5531;x;;;x;x
mahout-0.8;MAHOUT-1336;x;;;x;x
bookkeeper-4.1.0;BOOKKEEPER-318;x;;;x;x
openjpa-2.2.0;OPENJPA-1682;x;;;x;
argouml-0.22;2472;;;;x;
pig-0.8.0;PIG-1856;x;;x;x;x
zookeeper-3.4.5;ZOOKEEPER-1573;x;;x;x;
jabref-2.6;2207462;x;x;x;x;
derby-10.7.1.1;DERBY-4828;x;;;;
pig-0.11.1;PIG-3329;x;;x;x;x
derby-10.9.1.0;DERBY-6138;x;;;x;x
jedit-4.3;981012;x;;;x;
mahout-0.8;MAHOUT-1339;x;;;x;
bookkeeper-4.1.0;BOOKKEEPER-326;x;;;x;
argouml-0.22;4130;;;;x;
derby-10.9.1.0;DERBY-5546;x;;x;;
solr-4.4.0;SOLR-4489;x;;x;x;
derby-10.7.1.1;DERBY-4835;x;;x;x;x
pig-0.8.0;PIG-1858;x;;x;x;x
openjpa-2.2.0;OPENJPA-2149;x;;;x;x
jedit-4.3;1663617;x;;x;x;
zookeeper-3.4.5;ZOOKEEPER-1619;x;x;x;x;x
pig-0.11.1;PIG-3355;;;x;x;
argouml-0.22;2618;x;x;x;;
jabref-2.6;2904968;x;x;x;x;
lucene-4.0;LUCENE-4182;x;;;x;x
jedit-4.3;1668893;x;;x;x;
argouml-0.22;4155;x;;x;;
derby-10.9.1.0;DERBY-6150;x;x;;x;x
derby-10.9.1.0;DERBY-5567;x;;x;x;x
pig-0.8.0;PIG-1861;x;;;x;x
solr-4.4.0;SOLR-4817;x;x;;x;
openjpa-2.2.0;OPENJPA-2163;x;x;x;x;x
bookkeeper-4.1.0;BOOKKEEPER-336;x;;x;x;
mahout-0.8;MAHOUT-1349;x;;x;x;x
argouml-0.22;3100;x;x;x;x;
zookeeper-3.4.5;ZOOKEEPER-1629;x;;;x;
pig-0.11.1;PIG-3360;x;;;x;
jabref-2.6;2938562;x;;x;x;
derby-10.7.1.1;DERBY-4873;x;;x;x;x
pig-0.8.0;PIG-1866;x;;x;x;x
jedit-4.3;1723506;x;x;;x;
lucene-4.0;LUCENE-4411;x;;;x;
bookkeeper-4.1.0;BOOKKEEPER-337;x;;x;x;
hibernate-3.5.0b2;HHH-4576;x;;;x;
argouml-0.22;4162;x;x;x;x;
solr-4.4.0;SOLR-5083;x;x;;x;
mahout-0.8;MAHOUT-1358;x;;x;x;x
derby-10.9.1.0;DERBY-5638;x;;;x;
argouml-0.22;3164;;;;x;
openjpa-2.2.0;OPENJPA-2174;x;;;x;
derby-10.7.1.1;DERBY-4884;x;;;;x
lucene-4.0;LUCENE-4461;x;;x;x;x
argouml-0.22;4181;x;;x;x;
pig-0.11.1;PIG-3379;x;;x;x;x
jedit-4.3;1193683;x;;x;x;x
solr-4.4.0;SOLR-5107;x;;;x;x
hibernate-3.5.0b2;HHH-4583;x;x;;x;
bookkeeper-4.1.0;BOOKKEEPER-371;x;x;;x;x
pig-0.8.0;PIG-1868;x;;x;x;x
zookeeper-3.4.5;ZOOKEEPER-1642;x;;;x;x
jedit-4.3;1382388;x;;x;x;
argouml-0.22;3619;x;;x;;
solr-4.4.0;SOLR-5122;x;;;x;
openjpa-2.2.0;OPENJPA-2197;x;x;x;x;x
mahout-0.8;MAHOUT-1396;x;;;x;x
jedit-4.3;1724940;x;;x;x;x
pig-0.11.1;PIG-3424;x;x;x;;
derby-10.7.1.1;DERBY-4888;x;;;x;
derby-10.9.1.0;DERBY-5663;x;;;x;x
lucene-4.0;LUCENE-4480;x;;;;
hibernate-3.5.0b2;HHH-4614;x;;x;x;
solr-4.4.0;SOLR-5150;x;x;;;
derby-10.7.1.1;DERBY-4889;x;;x;x;x
pig-0.8.0;PIG-1892;x;;x;x;x
argouml-0.22;4194;;;;x;x
openjpa-2.2.0;OPENJPA-2227;x;;x;x;x
bookkeeper-4.1.0;BOOKKEEPER-376;x;x;x;x;x
zookeeper-3.4.5;ZOOKEEPER-1667;x;;x;x;
mahout-0.8;MAHOUT-1410;x;;;;
hibernate-3.5.0b2;HHH-4617;x;x;x;x;x
jedit-4.3;1520774;x;;x;x;
derby-10.9.1.0;DERBY-5740;x;;;x;x
jedit-4.3;1739675;x;;x;x;
lucene-4.0;LUCENE-4532;x;;;x;x
pig-0.11.1;PIG-3455;x;;;x;
argouml-0.22;3631;x;x;x;;
pig-0.8.0;PIG-1893;x;x;x;x;x
argouml-0.22;4200;x;x;x;;x
solr-4.4.0;SOLR-5188;x;;x;x;
openjpa-2.2.0;OPENJPA-2229;x;;;x;
bookkeeper-4.1.0;BOOKKEEPER-383;x;;;x;
hibernate-3.5.0b2;HHH-4647;x;;;x;x
openjpa-2.0.1;OPENJPA-1630;x;;;x;
zookeeper-3.4.5;ZOOKEEPER-1691;x;x;x;x;
derby-10.9.1.0;DERBY-5750;x;;x;x;
derby-10.7.1.1;DERBY-4892;x;;x;x;x
lucene-4.0;LUCENE-4561;x;;x;x;x
jedit-4.3;1768638;x;;x;x;
argouml-0.22;3665;x;;x;;
pig-0.8.0;PIG-1910;x;x;;x;x
argouml-0.22;4222;x;;x;;
pig-0.11.1;PIG-3495;x;;x;;x
jedit-4.3;1536064;x;x;x;x;
hibernate-3.5.0b2;HHH-4767;x;;;x;
bookkeeper-4.1.0;BOOKKEEPER-491;x;;;x;
openjpa-2.2.0;OPENJPA-2247;x;;x;x;x
openjpa-2.0.1;OPENJPA-1752;x;x;;x;x
lucene-4.0;LUCENE-4567;x;;;;x
derby-10.9.1.0;DERBY-5816;x;;;x;x
jedit-4.3;1834620;x;x;x;x;
pig-0.11.1;PIG-3510;x;;x;x;x
jedit-4.3;1538051;x;;x;x;
bookkeeper-4.1.0;BOOKKEEPER-495;x;;;x;
zookeeper-3.4.5;ZOOKEEPER-1700;x;;x;x;x
solr-4.4.0;SOLR-5227;x;x;x;;
hibernate-3.5.0b2;HHH-4775;x;;;;
pig-0.8.0;PIG-1911;x;;x;x;
openjpa-2.0.1;OPENJPA-1787;x;;x;x;x
openjpa-2.2.0;OPENJPA-2255;x;x;;x;x
jedit-4.3;1866836;;x;x;;
derby-10.9.1.0;DERBY-1914;x;;x;x;
argouml-0.22;3711;x;;x;x;
argouml-0.22;4231;x;;;x;
derby-10.9.1.0;DERBY-5838;x;;x;x;
openjpa-2.2.0;OPENJPA-428;x;;x;x;x
pig-0.8.0;PIG-1912;x;x;x;x;x
lucene-4.0;LUCENE-4568;x;;;;x
hibernate-3.5.0b2;HHH-5042;x;;x;x;x
bookkeeper-4.1.0;BOOKKEEPER-524;x;;;x;
zookeeper-3.4.5;ZOOKEEPER-1732;x;;;x;
argouml-0.22;4245;x;;x;x;
argouml-0.22;3774;x;x;x;x;
solr-4.4.0;SOLR-5240;x;;;;
pig-0.8.0;PIG-1188;x;x;x;x;x
derby-10.9.1.0;DERBY-2141;x;;;x;
openjpa-2.0.1;OPENJPA-1837;x;;;x;
lucene-4.0;LUCENE-4629;x;x;;x;
pig-0.8.0;PIG-1927;x;;x;x;x
jedit-4.3;1869978;x;;x;x;
jedit-4.3;1538743;;x;x;x;
pig-0.11.1;PIG-2265;x;;;x;
derby-10.9.1.0;DERBY-5851;x;x;x;;
derby-10.7.1.1;DERBY-4624;x;;;x;x
zookeeper-3.4.5;ZOOKEEPER-1750;x;;;x;
jabref-2.6;1436014;x;;x;x;
solr-4.4.0;SOLR-5243;x;;x;;
pig-0.8.0;PIG-1932;x;x;x;x;
jedit-4.3;1906288;x;;x;x;
derby-10.9.1.0;DERBY-3024;x;x;x;x;x
derby-10.7.1.1;DERBY-4654;x;x;;x;x
lucene-4.0;LUCENE-4653;x;;;x;
derby-10.9.1.0;DERBY-5911;x;x;x;x;
pig-0.8.0;PIG-1277;x;x;x;x;x
jedit-4.3;1541372;x;x;x;x;
jabref-2.6;1503956;x;x;x;x;
argouml-0.22;3790;x;;x;x;
zookeeper-3.4.5;ZOOKEEPER-1753;x;;;x;x
argouml-0.22;4272;x;;x;x;
openjpa-2.0.1;OPENJPA-1897;x;;;x;
pig-0.11.1;PIG-2606;x;;;x;
pig-0.8.0;PIG-1935;x;x;x;x;x
jabref-2.6;1538769;x;;x;x;
pig-0.8.0;PIG-1680;x;;;x;
jedit-4.3;1542026;x;;x;x;
solr-4.4.0;SOLR-5246;x;x;x;x;
derby-10.9.1.0;DERBY-3808;x;;;x;
derby-10.7.1.1;DERBY-4664;x;;;x;x
lucene-4.0;LUCENE-4656;x;;;x;
derby-10.9.1.0;DERBY-5912;x;;;x;x
argouml-0.22;3803;x;;x;x;
argouml-0.22;4276;x;;x;x;
jedit-4.3;1913979;x;;x;x;
pig-0.11.1;PIG-2767;x;x;x;x;x
openjpa-2.0.1;OPENJPA-1901;x;;;x;
zookeeper-3.4.5;ZOOKEEPER-1755;x;;;x;x
lucene-4.0;LUCENE-4657;;;;x;
jedit-4.3;1548902;x;;;x;
derby-10.9.1.0;DERBY-4269;x;;;x;x
pig-0.8.0;PIG-1955;x;;;x;x
solr-4.4.0;SOLR-5291;x;;;;
pig-0.8.0;PIG-1717;x;x;x;x;
jabref-2.6;1540646;x;x;;x;
derby-10.7.1.1;DERBY-4665;x;;;x;x
derby-10.9.1.0;DERBY-5916;x;;x;x;x
argouml-0.22;4279;x;;x;x;
argouml-0.22;3812;x;;x;x;
openjpa-2.0.1;OPENJPA-1903;x;;x;x;x
pig-0.11.1;PIG-2828;x;x;x;x;x
zookeeper-3.4.5;ZOOKEEPER-1769;x;;;x;
jedit-4.3;1942313;x;x;x;x;x
solr-4.4.0;SOLR-5295;x;;x;x;x
derby-10.9.1.0;DERBY-4279;x;;x;x;
pig-0.8.0;PIG-1771;x;;x;x;x
pig-0.8.0;PIG-1963;x;;x;x;x
lucene-4.0;LUCENE-4660;x;x;x;;
jedit-4.3;1549282;x;;x;x;
argouml-0.22;3882;x;;x;;
argouml-0.22;4281;x;x;x;;
derby-10.7.1.1;DERBY-4671;x;;;x;
jedit-4.3;1984000;x;;x;x;
pig-0.11.1;PIG-2956;x;;;x;
zookeeper-3.4.5;ZOOKEEPER-1774;x;;;x;x
openjpa-2.0.1;OPENJPA-1911;x;;;x;
derby-10.9.1.0;DERBY-5933;x;;;x;
derby-10.9.1.0;DERBY-4647;x;;x;x;x
jabref-2.6;1548875;x;x;;x;
pig-0.8.0;PIG-1977;x;;;x;x
solr-4.4.0;SOLR-5296;x;x;x;x;x
pig-0.8.0;PIG-1776;x;;x;x;x
lucene-4.0;LUCENE-4671;;x;;x;x
jedit-4.3;1571752;x;;x;x;x
argouml-0.22;4324;x;x;x;x;
derby-10.7.1.1;DERBY-4684;x;x;x;x;
argouml-0.22;3923;x;;x;x;x
openjpa-2.0.1;OPENJPA-1912;x;;x;x;x
zookeeper-3.4.5;ZOOKEEPER-1781;x;x;x;x;x
derby-10.9.1.0;DERBY-5937;x;;;x;
pig-0.11.1;PIG-2970;x;;;x;x
jedit-4.3;1999448;x;x;x;x;x
derby-10.9.1.0;DERBY-4669;x;;;x;x
jabref-2.6;1553552;x;;x;x;
argouml-0.22;3945;x;;x;x;
lucene-4.0;LUCENE-4899;x;x;;x;
derby-10.7.1.1;DERBY-4693;x;;x;x;
pig-0.8.0;PIG-1979;x;;x;x;x
jedit-4.3;1575505;x;;x;x;x
pig-0.11.1;PIG-3060;x;;;x;x
pig-0.8.0;PIG-1785;x;x;x;x;x
argouml-0.22;4330;x;;x;x;
derby-10.9.1.0;DERBY-6053;x;x;x;x;x
tika-1.3;TIKA-1014;x;x;x;x;
openjpa-2.0.1;OPENJPA-1918;x;x;x;x;x
zookeeper-3.4.5;ZOOKEEPER-1783;x;x;x;x;
jedit-4.3;2015210;x;;x;x;
jabref-2.6;1594169;x;;;x;
argouml-0.22;3947;x;;x;x;
pig-0.8.0;PIG-1808;x;;x;x;x
pig-0.11.1;PIG-3114;x;;x;x;x
jedit-4.3;1584436;x;;x;x;
mahout-0.8;MAHOUT-1030;x;x;x;x;
derby-10.9.1.0;DERBY-4873;x;;x;x;x
derby-10.7.1.1;DERBY-4718;x;;;x;x
pig-0.8.0;PIG-1993;x;;x;x;x
derby-10.9.1.0;DERBY-6058;x;;;x;x
zookeeper-3.4.5;ZOOKEEPER-1815;x;x;x;;
tika-1.3;TIKA-1047;x;x;;x;
argouml-0.22;4342;x;;x;;
openjpa-2.0.1;OPENJPA-1928;x;x;x;x;x
pig-0.8.0;PIG-313;x;;x;x;x
pig-0.8.0;PIG-1812;x;;x;x;x
jedit-4.3;2017514;x;;x;x;
pig-0.11.1;PIG-3204;x;x;x;x;
argouml-0.22;3974;x;;x;x;
jabref-2.6;1601651;x;;x;x;
zookeeper-3.4.5;ZOOKEEPER-1837;x;;;x;
derby-10.9.1.0;DERBY-5014;x;x;x;x;
tika-1.3;TIKA-1070;x;;x;x;x
jedit-4.3;1593359;x;;x;x;
mahout-0.8;MAHOUT-1261;x;;;x;x
argouml-0.22;4349;x;;x;x;
derby-10.9.1.0;DERBY-6065;x;;;x;
openjpa-2.0.1;OPENJPA-1975;x;x;x;;x
jabref-2.6;1631548;x;;x;x;x
pig-0.8.0;PIG-1813;x;;x;x;x
jedit-4.3;2129419;x;;x;x;x
argouml-0.22;4007;;;;x;
tika-1.3;TIKA-1074;x;x;x;x;
derby-10.9.1.0;DERBY-5040;x;;;x;
zookeeper-3.4.5;ZOOKEEPER-876;x;x;;x;
openjpa-2.0.1;OPENJPA-1986;x;;x;x;x
jedit-4.3;1593523;x;;x;x;
derby-10.9.1.0;DERBY-6079;x;;;x;x
jedit-4.3;2173112;x;;x;x;
pig-0.8.0;PIG-1815;x;;;x;
tika-1.3;TIKA-1152;x;;x;x;x
derby-10.9.1.0;DERBY-5045;x;;x;x;
