{"key":"DATACMNS-594","title":"","description":"After the resolution of DATACMNS-590, we found another strange behaviour using Spring Data MongoDB, but only disabling the default type mapper resolution, which resolves the class type to map using an attribute.      Retrieving a Customer and navigate to ItemType will lead to a ClassCastException due the lost of generic type."}
{"key":"DATACMNS-609","title":"","description":"This can easily be reproduced with the version 51d1c5d of git@github.com:spring-projects/spring-data-jpa-examples.git by adding an extra stanza like \u003cjpa:repositories base-package\u003d\"org.springframework.dummy\" /\u003e to simple-repository-context.xml and running XmlConfigCachingRepositoryTests."}
{"key":"DATACMNS-616","title":"","description":"Trying to use a custom Envers revision class:"}
