{"key":"DATAMONGO-1263","title":"","description":"Given:  When defining a class Catalog with a list of \"wrapped\" books:"}
{"key":"DATAMONGO-1290","title":"","description":"Please find an example project with test attached!"}
{"key":"DATAMONGO-1250","title":"","description":"I have a custom (de)serialiser for an enumerated type, and it works perfectly when saving and loading a @Document annotated POJO.  However when used in an Update, it is either ignored, or called in situations where it shouldn\u0027t. Please clone https://github.com/patrickherrera/converter_test.git for a full test application. In brief there is a POJO and for the purposes of the test it has a static enum with the desired converters:                                                 There is a unit test that drives a few scenarios:"}
