{"key":"DATAMONGO-1088","title":"","description":"Following method on repository        I attached test project demonstrating this bug."}
{"key":"DATAMONGO-1123","title":"","description":"I have the following query:"}
{"key":"DATAMONGO-1126","title":"","description":"I\u0027ve been trying to use the In-keyword with identifiers and making the query pageable.  Also when you try to get any other page than 0, no results return.  Below is a strip down example I used for testing; I\u0027ve created 3 types and 10 items per those types, results in a total of 30 items."}
