{"key":"DATAMONGO-1202","title":"","description":"I provide a github project with two scenarios: Employer: Very simple reflexive relation that works nicely (EmployerTest) Customer: A little more complex scenario using GenericCustomer as a base class to allow having many different kinds of customers. This scenario fails at creating the index (CustomerTest)."}
{"key":"DATAMONGO-1232","title":"","description":"In my case, I\u0027m trying to perform a case-insensitive find on an e-mail address with the + sign, a legal character, but the regex interprets this as 1."}
{"key":"DATAMONGO-1236","title":"","description":"When a map of type LinkedHashMap\u003cString, Object\u003e  is updated via MongoOperations findAndModify or updateFirst, the _class field is not saved for the map values.  Please see attached maven project for test illustrating the problem."}
