{"key":"DATAMONGO-505","title":"","description":"Assume you have the following scenario:"}
{"key":"DATAMONGO-523","title":"","description":"When using the AbstractMongoConfiguration without any further modifications regarding the converter (afterMappingMongoConverterCreation) the @TypeAlias annotation is not used when writing the _class property."}
{"key":"DATAMONGO-585","title":"","description":"Specifically what can be used for a test case is use a ThreadPoolExecutor, set a minpool and maxpool value of 5, add 25 objects to be executed. Those objects are a class which implements Runnable. Those objects each then perform a bunch of inserts into mongoDB using a DocumentDao which calls mongoOperations.insert."}
