{"key":"WFCORE-1027","title":"","description":"Setting up host scoped roles as follows https://gist.github.com/heiko-braun/0dc810ed04db8739defd there are inconsistent results in the filtering."}
{"key":"WFCORE-727","title":"","description":"Some commands throws NullPointerException when CLI is disconnected from controller and user tries to use tab completion (so far I found these: ls, read-attribute, read-operation)."}
{"key":"WFCORE-716","title":"","description":"The following command is referencing a non-existent capability: -          When I execute :reload it will fail: -"}
{"key":"WFCORE-916","title":"","description":"In cases when Kerberos authentication to Management Console is configured also with fallback mechanism (properties, security-domain...) and one of: realm in principal is not set correctly path to keytab is not set correctly is set in EAP configuration and when user with valid kerberos ticket tries to access Management Console then fallback is not taken into account and user cant access management console."}
{"key":"WFCORE-997","title":"","description":"When ldap server is killed in particular time of ssl handshake EAP hangs and waits forever on response, which will never come."}
{"key":"WFCORE-1062","title":"","description":"1. Setup domaincontroller 2. Setup hostcontroller 3. Start domaincontroller 4. Start hostcontroller with --backup option. 5. deploy an application using cli or admin console     7. Wait for approximately 10 minutes       9. After restarting the Host Controller, the deployment is restored and the cached deployment can now be seen under the Host Controller\u0027s domain/data/content folder."}
{"key":"WFCORE-989","title":"","description":"The \"WFLYHC0153: Channel closed\" failure is what is produced when an attempt is made to invoke on a disconnected proxy controller."}
{"key":"WFCORE-815","title":"","description":"get fresh EAP"}
{"key":"WFCORE-892","title":"","description":"Steps to Reproduce:"}
{"key":"WFCORE-798","title":"","description":"Trying to run WildFly full\u0027s ParseAndMarshalModelsTestCase against the EAP 6.3 configs results in failures like this:"}
{"key":"WFCORE-942","title":"","description":"When I try to use tab completion to add parameters to \"read-resource\" and \"read-children-resources\" operations, it does not suggest any params but instead just closes the parameter list."}
{"key":"WFCORE-896","title":"","description":"EAP installer allows user to exclude some packs from installation. Docs directory is one of them. If user choose to do so, $JBOSS_HOME/docs directory is not present in distribution. Trying to apply a patch (contains changes with docs files) on such a distribution gives me:    Patch was generated using:"}
{"key":"WFCORE-955","title":"Server is not responding after attempt to set parent of profile to non-existent profile","description":"Server is not responding after attempt to set parent of profile to non-existent profile. Server is not responding also after attempt to set parent of socket-binding-group to non-existent socket-binding-group.         Get fresh EAP                               Get fresh EAP"}
{"key":"WFCORE-868","title":"","description":"When using CLI if-else scripting that uses a string that contains parenthesis it fails with the following message:"}
{"key":"WFCORE-980","title":"","description":"If we register an already registered capability at a new RegistrationPoint and the operation rollbacks the registry still has the new RegistrationPoint."}
{"key":"WFCORE-876","title":"","description":"Executing a reload or shutdown inside an if/else block results in the reload or restart occurring before the other commands in the batch are executed."}
{"key":"WFCORE-949","title":"","description":"Executing /core-service\u003dmanagement/management-interface\u003dhttp-interface:remove() autocompletes but does not succeed."}
{"key":"WFCORE-940","title":"","description":"# run while domain is booting"}
{"key":"WFCORE-931","title":"","description":"Invoking the /host\u003dmaster:shutdown operation on embedded host-controller gives me NPE."}
{"key":"WFCORE-1007","title":"","description":"When I use migration operation the console log is filled with warning messages of type   If I do the sequence of operation"}
