{"key":"WFCORE-1908","title":"","description":"Example    On attempt to write metric attribute, for example message-count, non writable error is printed"}
{"key":"WFCORE-1611","title":"","description":"Either use a remote server, --no-local-auth cli script arg or remove a local element from ManagementRealm configuration     start a standalone server and launch a CLI       Username: \u003cPress Ctrl+C here\u003e"}
{"key":"WFCORE-1578","title":"","description":"Lets have some /socket-binding-group\u003dstandard-sockets/socket-binding with particular name. Then when I create some /socket-binding-group\u003dstandard-sockets/remote-destination-outbound-socket-binding or /socket-binding-group\u003dstandard-sockets/local-destination-outbound-socket-binding using same name as of already existing socket-binding resource, add operation is successful but when I perform server reload, it crashes as it is not able to parse configuration.  Start EAP and log to CLI create your own socket-binding resource and {remote|local}-destination-outbound-socket-binding resource with same names and perform reload"}
{"key":"WFCORE-1936","title":"","description":"If you tries to change such attributes you are informed that reload is necessary."}
{"key":"WFCORE-1635","title":"","description":"Creating a new deployment-scanner and altering it\u0027s attribute fails if done in single batch."}
{"key":"WFCORE-1959","title":"Deploying an empty managed exploded deployment to server group in domain fails","description":"Deploying an empty exploded deployment created on domain controller fails with the following:"}
{"key":"WFCORE-1590","title":"","description":"With the following attribute definition: -          The following error is reported if an empty string is used as a parameter: -"}
{"key":"WFCORE-1115","title":"","description":"Tests fails only once I run the whole Domain Mode Integration Tests module, running only these two tests in isolation never fails. Reproducer job which starts the tests in testsuite/domain module:"}
{"key":"WFCORE-1718","title":"","description":"If user tries to remove them the NullPointerException is given as a result. Try following commands:          Create auditable event (e.g. /subsystem\u003dlogging/logger\u003dcom.arjuna:write-attribute(name\u003dlevel,value\u003dDEBUG))"}
{"key":"WFCORE-1572","title":"","description":"When an argument value contains a space (eg. deploy /path/to/test-application. war --all-server-groups --headers\u003d{rollout id\u003dfoo}) and if user hits tab after the whitespace, suggestions are generated based on the command, rather than the current argument\u0027s name."}
{"key":"WFCORE-1756","title":"Adding content to an exploded deployment with overwrite to false should fail if file already exists","description":""}
{"key":"WFCORE-1570","title":"","description":"When using rollout plans for EAP deployment scenarios I can create my own named rollout-plan for ease of use. I can then apply rollout command later on, referring with name of my own rollout plan that should be used.  When I create rollout-plan, I use command like:   When I then refer to it I use following command:"}
{"key":"WFCORE-1714","title":"","description":"reproduce"}
{"key":"WFCORE-1793","title":"","description":"Upon overwriting content in managed exploded deployments on wildfly-core, the following errors are produced:"}
{"key":"WFCORE-1864","title":"","description":"Running module add --name\u003dfoo.bar --resources\u003dfoo.jar --dependencies\u003d[org.a, org.b ] will result in following dependencies in module.xml"}
