{"key":"DERBY-4748","title":"StringIndexOutOfBoundsException on syntax error (invalid COMMIT)","description":"Start the network server on port 1527 on localhost. Run ant on the following:   On 10.5.3, I get       but on 10.6.1, I get\n     [sql] Executing commands"}
{"key":"DERBY-4835","title":"Trigger plan does not recompile with upgrade from 10.5.3.0 to 10.6.1.0 causing  java.lang.NoSuchMethodError","description":"Trigger plan does not recompile on upgrade from 10.5.3.0 to 10.6.1.0  causing the following exception  the first time the trigger is fired after upgrade.                           To reproduce, run the attached script 10_5_3_work.sql with the 10.5.3.0  release and then connect with 10.6.1.0 and insert into the table with the trigger:"}
{"key":"DERBY-4873","title":"NullPointerException in testBoundaries with ibm jvm 1.6 ","description":"With the line skipping the testBoundaries fixture of the InternationalConnectTest commented out, I get the following stack when I run the test with ibm 1.6:"}
{"key":"DERBY-4889","title":"Different byte to boolean conversion on embedded and client","description":"The following code prints \"true\" with the embedded driver and \"false\" with the client driver:   If setByte() is replaced with setInt(), they both print \"true\"."}
{"key":"DERBY-4892","title":"Unsafe use of BigDecimal constructors","description":"The problem appears when the build does not use the Java 1.4 libraries.   The compiled byte-code will therefore use those Java 5 constructors, and the code will fail at run-time if ever executed on a Java 1.4 JVM. To reproduce, build Derby without ant.properties on a system where PropertySetter doesn\u0027t find JDK 1.4. Verify with -DprintCompilerProperties\u003dtrue that java14compile.classpath is built up of jar files from a Java 5 or Java 6 directory. Then run org.apache.derbyTesting.functionTests.tests.lang.UDTTest using a Java 1.4 JVM. You\u0027ll see two errors of this kind:                 The problem in client.am.Cursor can be seen if you follow the same procedure as above, and instead of UDTTest run ParameterMappingTest with the patch for DERBY-4891 that enables testing of booleans."}
{"key":"DERBY-4684","title":"","description":"Via a UNION query, it is possible to implicitly cast non-BOOLEAN types to BOOLEAN today. These implicit casts do not obey the SQL Standard rules defined in part 2, section 6.12 (\u003ccast specification\u003e).  The following query shows how you can implicitly cast a non-BOOLEAN data type to BOOLEAN today:"}
{"key":"DERBY-4693","title":"column rename looses \u0027identity\u0027 attribute.","description":"renaming an identity column causes the column to loose its \u0027identity\u0027 attribute. you can reproduce the problem as follows:       To compound this problem there is no way to restore the renamed column\u0027s identity attribute as the alter command doesn\u0027t let you set an identity attribute."}
