{"key":"MAHOUT-1285","title":"Arff loader can misparse string data as double","description":"Have successfully loaded numerous ARFF files with Mahout (originally generated via WEKA).  For a specific random seed, the following exception is thrown:"}
{"key":"MAHOUT-1314","title":"StreamingKMeansReducer throws NullPointerException when REDUCE_STREAMING_KMEANS is set to true","description":"when REDUCE_STREAMING_KMEANS option is set to true (-rskm) the reducer fails with NullPointerException.     full stack trace:             it happens every time the REDUCE_STREAMING_KMEANS is set to true."}
{"key":"MAHOUT-1349","title":"Clusterdumper/loadTermDictionary crashes when highest index in (sparse) dictionary vector is larger than dictionary vector size?","description":"I hashed the features with max size 5M (because I didn\u0027t know how many\nfeatures were in the dataset and wanted to minimize collisions). The kmeans ran fine and generate sensible looking results, but when I tried\nto run ClusterDumper I got the following error:                                       It worked fine when I reduced the hash size to be \u003c\u003d than the total number\nof features, but this is not desirable in general (for me) since I don\u0027t\nknow the number of features before I run the job (and if I guess too high\nthen ClusterDumper crashes)"}
{"key":"MAHOUT-1358","title":"StreamingKMeansThread throws IllegalArgumentException when REDUCE_STREAMING_KMEANS is set to true","description":"Running StreamingKMeans Clustering with REDUCE_STREAMING_KMEANS \u003d true and when no estimatedDistanceCutoff is specified, throws the following error               The issue is caused by the following code in StreamingKMeansThread.call()"}
