{"key":"SOLR-4489","title":"StringIndexOutOfBoundsException in SpellCheckComponent ","description":"My SOLR request params are as shown below.  Note: this work fine many use cases, however it fails for some query terms."}
{"key":"SOLR-5188","title":"","description":"The /solr/admin/info/logging handler response has an error tag saying Logging Not Initialized. The problem can be seen by starting the example in the latest checkout from branch_4x or trunk."}
{"key":"SOLR-5243","title":"killing a shard in one collection can result in leader election in a different collection","description":"Discovered while doing some more ad-hoc testing... if I create two collections with the same shard name and then kill the leader in one, it can sometimes cause a leader election in the other (leaving the first leaderless)."}
{"key":"SOLR-5295","title":"The createshard collection API creates maxShardsPerNode number of replicas if replicationFactor is not specified","description":"I\u0027ve just created a very simple test collection on 3 machines where I set maxShardsPerNode at collection creation time to 1, and I made 3 shards.     So I try again -- I create a collection with 3 shards and set maxShardsPerNode to 1000 (just as a silly test).  Now I add shard4 and it immediately tries to add 1000 replicas of shard4..."}
{"key":"SOLR-5296","title":"Creating a collection with implicit router adds shard ranges to each shard","description":"Creating a collection with implicit router adds shard ranges to each shard. Using the Example A from SolrCloud wiki:\nbq.  The following clusterstate is created:                                       Note that the createshard API does the right thing."}
