{"key":"126938","title":"Cannot import Installed JREs from preference file","description":"Below are the contents of the preferences file I am trying to import. To reproduce, you may need to change the location of the JRE since you probably don\u0027t have it installed in the directory I do.            1. Create a new workspace. 2. Import a preference file. 3. Open the preference window and view the JRE\u0027s  To see one JRE \"jdk1.5.0_04\" and that JRE is configured with the default argument of \"-ea\"."}
{"key":"106454","title":"Unbound linked resource causes workspace refresh to start auto-build job","description":"- Create a Java project and add a linked folder to a location that does not exist (e.g. \u0027/xxx\u0027) - Enable Preferences \u003e General \u003e Workspace \u003e Refresh automatically Now, every 5 seconds, an autobuild job runs. The build job should not be triggered, since no resource has changed. Furthermore, it\u0027s a nuisance since the autobuild job causes a java editor\u0027s hover to disappear."}
{"key":"98740","title":"Container attempts to refresh children on project that is not open","description":"Take an existing simple project on disk and import the project into the workspace by performing a simple create with code like:           Do not open the project with the project.open() API.  Now create a project either by API or UI and open it. Or simply switch to the Java perspective. A background refresh job has now been started for the closed project, but it never finishes and is stuck in an infinite loop.  The members() method is excuting if (info.isSet(ICoreConstants.M_CHILDREN_UNKNOWN)) workspace.refreshManager.refresh(this);  Both the AliasManager and the Java Perspective are calling members on the IProject.  Our particular use case is that we are loading existing Java projects on disk by performing a create, but never an open. On the next UI gesture, we get refresh infinite loops, one for each closed project.  The end user will open them by using the open project UI when needed."}
{"key":"89814","title":"Replace With \u003e Another Branch or Version: tree allows multi-selection","description":"Replace With \u003e Another Branch or Version: The tree allows multi-selection, but the operation only considers one of the selected items. The tree should be in single-selection mode, as the (filtered) table already is."}
{"key":"83541","title":"","description":"For character array element I open Change Primitive Value dialog and try to change current value to \\t or \\n. Dialog does not enable OK button either I input \\t, or 0x09 or \\\\u0009 or press tabulation key. On the other hand, Eclipse 2.1.2 accepted \"\\t\" (or it worked OK if I just pressed tabulation) and \\n in this dialog."}
{"key":"87683","title":"[Preferences] Preferences hover should show unshortened text","description":"On the menu bar from the main Workbench panel, click Window \u003e Preferences \u003e Java\n\u003e Editor Select Hovers tab in the right panel Enable all the text hovers, an error message will display. The error message is\ntruncated, no matter how big you enlarge the screen."}
{"key":"129834","title":"","description":"1. Not enough vertical spacing between rows 2. Combo box is not wide enough. The Reload button should probably be pushed down next to the table viewer.  3. Progress monitor is needed when parsing/reloading features from a new location 4. If you enter a location in the combo box, check the top checkbox and then uncheck it, you lose the location you had entered."}
{"key":"96489","title":"[Presentations] (regression) Standalone view without title has no border","description":"- change the browser example\u0027s BrowserPerspectiveFactory to have the following instead of the regular addView layout.addStandaloneView(BrowserApp.BROWSER_VIEW_ID, false,  - run the example, and show the history view - the history view (a regular view) has a border, but the standalone view does not  Standalone views should still have their border, just not the title or min/max buttons if showTitle\u003d\u003dfalse."}
{"key":"76969","title":"Preference change not propegated.","description":"- open the workbench - popup a menu over the perspective switcher and choose Dock On \u003e Left NOTE that the UI does not respond right away (and it should)."}
{"key":"100799","title":"[ErrorHandling] \u0027Unable to create view\u0027 error page should link to error log view","description":"I compiled a plug-in with a view against a 5.0 JRE. When I ran this plugin in a run-time eclipse with a 1.4 VM, startup passed without any error message. When I opened the view, I got a view with an embedded error dialog showing a ClassNotFoundException.  But the real reason was in the previous log entry (an UnsupportedClassVersionError). Either the view should show the relevant error, or it should contain a link to the Error Log, such that users are aware that other log entries could be relevant for this problem."}
{"key":"94852","title":"[ViewMgmt] (regression) Typing space should activate view menu button","description":"Give focus to a view menu button. For example, in the Package Explorer view, \ngive focus to the tree, and type shift+tab, shift+tab. The view menu (little \ndown-pointing triangle) button should have focus (it looks a bit raised).  Space does \nnothing when pressed in this button. It should drop down the view menu. I realize that pressing Ctrl+F10 does drop down the menu, therefore typing \nspace is not technically needed for accessibility, however it is really \nstrange that here is a button (in a toolbar) that does nothing when \"pressed\" \nusing the keyboard space key. For consistency, and to do the expected thing \nwhen used with a screen reader, we should allow space key to work here. (Note \nthat all of our other toolbar buttons do activate when they have focus and \nspace is pressed - including the very similar \"Open Perspective\" menu toolbar \nbutton)."}
{"key":"85397","title":"[1.5][enum] erroneous strictfp keyword on enum type produces error on constructor_","description":"- have this code:    expected: strictfp is not allowed on the enum type actual: no error is reported - alternatively, have this code:      expected: the wrong modifier is reported with the type name \u0027Natural\u0027 actual: the error is shown for the constructor_"}
{"key":"93119","title":"","description":"- have this code (caret at |):     - invoke code assist \u003e actual: the only proposed item is the CU\u0027s type (Extends) \u003c expected: there are exactly two proposals: \u0027extends\u0027 and \u0027super\u0027 - alternatively, press \u0027e\u0027 and invoke code assist \u003e actual: dozens of type proposals are proposed (and two template proposals, but\nthat is not a jdt-core problem)\n\u003c expected: only \u0027extends\u0027 is proposed."}
{"key":"99235","title":"Fully qualified paths in antfile attribute do not open file","description":"Ctrl clicking on the antfile attribute should open the external antBuildfile.xml"}
{"key":"94879","title":"[PropertiesDialog] [Preferences] Esc does not dismiss properties or preferences dialog","description":"- select a file in the Navigator and choose Properties - after looking at the properties, press Esc to dismiss the dialog - instead of dismissing the dialog, it clears the filter field - pressing Esc again dismisses it   Esc is not normally used to clear a field. Esc within a dialog should dismiss it. Suggest not intercepting Esc, and just allowing backspace to clear the field (it\u0027s selected by default anyway)."}
{"key":"106789","title":"Run menu: Folder selector shows files, too","description":"Select \"Run...\" from the Run menu and choose \"Java Application\". When editing the Classpath (\"Classpath\" tab) of a configuration by trying to add a folder (Button \"Advanced\" -\u003e RadioButton \"Add Folders\"), a file chooser pops up, showing not only folders, but normal files, too, which is not very nice. Compare this with the other possible selection with RadioButton \"Add External Folder\", where -- correctly -- only folders can be chosen! So, the \"Add Folders\" file chooser should become such a folder chooser, too."}
{"key":"97018","title":"PDE generates to strict access restrictions","description":"- download EMF using the update manager (don\u0027t know if this is necessary) - observe: the install plug-in has a manifest file which only contains one line:  - it also contains a plugin.xml file which exports the following entries:       This result in the following access restriction for clients using emf.core  As a result all usages to emf core classes even those in API package are flagged as an error. Since having a one liner manifest file seems to be a legal setup PDE should honor the access restrictions from the plugin.xml file and not generate a ALL forbidden rule only."}
{"key":"84546","title":"Escape on empty commit-comment is yes instead of no","description":"When you commit something with an empty commit comment, you\u0027ll get the \nfollowing dialog:    Now, when you press No, you\u0027ll go back to the commit dialog. Pressing Yes \ncommits. If you press ESC, you\u0027d expect the dialog to be canceled (\u003dno), but \nit still commits."}
{"key":"101434","title":"[Contexts] performance: Slow cursor navigation in Text fields","description":"With the above build, cursor navigation in any text field is extremely slow.  - open the Find dialog (alternatively: open the preference dialog, or the Team\u003eCreate Patch wizard) - in a text field, enter some text, at least 20 characters - press and hold the ARROW_LEFT / _RIGHT keys Expected: I see the caret move through the entered text Actual: The cursor does not visibly change its position until after releasing the key plug some delay."}
{"key":"142881","title":"","description":"1. Open Plug-ins View 2. Double-click on any plug-in with a blue/purple icon (e.g. org.eclipse.core.runtime.compatibility.auth.  3. On the Overview page, select an item in the Execution Environments table.  Observe how the selected item gets deleted.  DEL key should do nothing on such a non-editable model."}
{"key":"85452","title":"[IDE] (regression) Backdrop missing when all perspectives closed","description":"- close all perspectives - the main page is blank - it should have a backdrop with text and button explaining how to open a perspective"}
{"key":"90600","title":"[model] CreateElementInCUOperation.apply: should use project options for rewriter","description":"When executing the rewriter, (rewriter.rewriteAST(document, null)) CreateElementInCUOperation.apply should pass in the current projects options instead of null"}
{"key":"93584","title":"Fetching Revisions from Revision Compare done in UI thread","description":"If you perform a Get Sticky Revision from a Compare Revisions editor, the fetch is performed in the UI thread. In the least, it should be done in a modal context."}
{"key":"80058","title":"[Wizards] Create folder blocked should avoid locking workspace","description":"- In the Resource perspective, I did a Team/CVS Update on a large Java project and sent it to the background. - I then went into a different project, and tried to create a new directory from the Navigation pane. That action was blocked. Should I not be able to create a new folder at the same time?"}
{"key":"77703","title":"Deselecting Map$Entry/Show As\u003e/Key And Value Deselects Map/Show As\u003e/Map Entries","description":"Should be able to turn off logical structures of Map$Entry while viewing as an array of Map$Entry."}
{"key":"99282","title":"","description":"For example, the following program should print \"1999\" 40 times\n(once from each thread). But on my machine, it prints \"default\" 22 times \u0026 1999\n18 times."}
{"key":"85519","title":"[implementation] saveAs existing file fails - content replaced with original content","description":"- have pkg/Test1.java open - have pkg/Test2.java open - dirty Test1.java - save Test1.java as Test2.java expected: content of Test2 gets replaced with data in Test1 actual: a second editor with Test2.java is opened, Test1.java is closed, the unsaved changes in Test1.java are lost -\u003e lost data."}
{"key":"101644","title":"Browse in plugin editor should init with actual value","description":"Click on the \u0027Browse\u0027 button in the Overview page of the plugin editor. The dialog comes up empty. It should better be initialzied with the actual value of the class file"}
{"key":"95096","title":"[5.0][content assist] Content assist popup disappears while completing the statically imported method name","description":"- Create a new Class \"Foo\" - Type \"import static java.lang.Math.\" - Press Ctrl+Space - Type \"a\" -\u003e Instead of constraining the proposals to all members with prefix a, the popup closes"}
{"key":"97085","title":"(3.1M7) Static import code assist shouldn\u0027t propose \u003cpackage\u003e.*;","description":"With J2SE 5.0 compliance enabled, type the following into a new Java file:  Code assist will propose all subpackages of java, each followed by \". *;\", which \nresults in a compile-time error if accepted. Instead, it should propose plain subpackages (\"java.lang\" instead of \"java.lang."}
{"key":"90714","title":"When no features are found, the second install wizard is still shown","description":"The second install wizard shows empty results after an unsuccessful search. This is an overkill, as a simple message dialog should be presented to the user saying no results have been found."}
{"key":"149604","title":"","description":"1 Go to plug-ins view 2 double-click on any plug-in represented by a blue icon (without children). 3 Observe how the manifest file(s) for this plug-in open.  4 Turn to a tab other than the first tab. 5 close the editor. 6 repeat #2. observed behavior: the editor opens on Overview tab. expected behavior: the editor opens on tab from #4."}
{"key":"108705","title":"[Contributions] errors: ObjectActionContributor should safeguard against misbehaving plugins","description":"When using the Java Persepective and the Package Explorer all closed projects no longer have \"right-click\" context menu available to them.  If I right-click on a project that is open (which does show the menu) and then try to right-click on a closed project again, the menu now shows up."}
{"key":"89621","title":"","description":"Select addWindowListener in the list of proposal. The result is:  I would expect:"}
{"key":"99631","title":"","description":"@B\u003cCtrl+Space\u003e\npublic class Test {} -\u003e The keyword proposals byte and boolean show up -\u003e A list of annotations starting with \u0027B\u0027 would be more helpful"}
{"key":"85672","title":"[projection] Unfolding a folded region with no line delimiter on the last line selects too much","description":"Have this code:    Put the caret right after the closing brace and fold the region. Note that there is a phantom line in the editor since we cannot fold that one away. Put the caret on the last line and unfold the type. expected: caret is right after the closing brace actual: everything from after the *opening* brace is selected"}
{"key":"80672","title":"[1.5] Annotation change does not trigger recompilation","description":"Define 2 files:\np/Use.    Build - all is fine Now incrementally change q/Ann. java to:\npackage q;\nimport java.lang.annotation. *;\n@Target(ElementType.METHOD)\npublic @interface Ann {\n}\n \nBuild - still fine though p/Use. java should have got a problem due to disallowed\nlocation for use of annotation @Ann."}
{"key":"90935","title":"","description":"open the feature details dialog and notice there is a large area of grey at towards the bottom. Resize vertically and notice that the feature list gets smaller but the large grey area remains the same. Suggest that the grey area be eliminated completely. Failing that, on resize it should be the first to go."}
{"key":"97363","title":"","description":"- org.eclipse.sdk loaded from CVS - File \u003e Export \u003e Deployable plug-ins and fragments - Ensure \"Package plug-ins as individual JAR archives\" is unchecked - pick a dest dir, e.g. d:\\temp\\export It gets exported as a jar to d:\\temp\\export\\plugins\\org.eclipse.sdk_3.1.0.jar. If another plug-in is selected, it gets exported as a separate JAR too. Should export as unjar\u0027ed plugin directories if \"Package plug-ins as individual JAR archives\" is unchecked."}
{"key":"78315","title":"org.eclipes.team.ui plugin\u0027s startup code forces compare to be loaded","description":"The one for compare fails because org.eclipes.team.ui forces compare to be loaded in its start(BundleContext) method:   The direct reference to DiffNode causes the compare plug-in to be loaded even if it is not needed yet. Only when a compare will be done it needs to be loaded and the adapter being registered.  1. add startup() method to CompareUIPlugin 2. put a breakpoint there"}
{"key":"84881","title":"[WorkbenchLauncher] Splash screen receives focus after task switch (instead of workspace launcher dialog)","description":"When starting Eclipse 3.1, the splash screen and the \"select a workspace\" dialog\n(workspace launcher) is shown. If you then switch to another task and switch\nback to eclipse using ALT+Tab (MS Windows), the Splash-Screen receives the focus\nwhile the \"Select a workspace\" dialog stays in front but is inactive.  I\u0027ve not found any workaround to\nthis problem (closing the splash-screen via ALT+F4 removes the task from the\ntask bar, while the dialog stays in front without focus)."}
{"key":"157944","title":"JavaAttributeWizard shouldn\u0027t open with errors when passed an empty string","description":"1. On the overview page of the plugin editor, make sure the Activator field is empty. 2. Click the Activator link. The class wizard opens with an error."}
{"key":"114565","title":"[Markers] Quick fix computation done in UI thread with no progress","description":"1) Configure the problems view to be showing several warnings of the same type (say about 100). 2) Ctrl+A to select all problems 3) Right click in problems view, and select \"Quick Fix\" -\u003e The UI freezes with no painting, sometimes for ten seconds or more, while the quick fixes are computed. There should minimally be a busy indicator, and ideally move into a modal context thread to avoid freezing the UI for long periods. Here is a sample stack trace during one of these freezes:"}
{"key":"86000","title":"ImageLoader Save - produces invalid JPEG images","description":"The ImageLoader Save function appears to be producing bad JPG images.  Simple test case below loads\n PNG Files and Saves them as JPEG. Many files were tested and the majority \n did produced the proper JPG images as expected."}
{"key":"85277","title":"\u0027Replace With \u003e Latest from HEAD\u0027 does not restore deleted CUs in a package","description":"In a build where bug 85267 is fixed (JDT/UI from HEAD or I20050215-1600), delete\na compilation unit (*. java file) from a package in a java project. Then choose\n\u0027Replace With \u003e Latest from HEAD\u0027 from the package\u0027s context menu. Expected: The deleted compilation unit is restored from HEAD. Was: Only existing CUs are replaced with version from HEAD. Deleted CUs are not\nrestored."}
{"key":"32553","title":"[Viewers] Closing a project does not remove [+] icon","description":"I just launched I20030220 and imported a couple of existing projects into the workspace, with the [+] icon by each project (denoting contents). I then closed a couple of the projects that I was not looking at, and the [+] icon remained after closing the projects. Of course clicking on this icon resulted in nothing happening, except the [+] disappeared. It would be better if the icon was cleared when the project was closed."}
{"key":"97722","title":"Pref Page Ant/Runtime/Tasks/Add Task dialog problems","description":"The dialog\u0027s error message is cropped at the bottom. The space between Name and Location seems unneccessary. The name text and location combo should be left aligned. The background color of the error message is different from the dialog\nbackground -- is this intended?"}
{"key":"92063","title":"Editor closed while replacing corresponding file with HEAD contents","description":"In order to do so, I selected unit in package explorer, and did \"replace with HEAD\" action. The editor got closed under me automatically when the replace occurred. Expectation: editor should have refreshed instead"}
{"key":"86268","title":"[About] About dialog plug-ins and features tables do not meet accessibility requirements","description":"1. Choose Help \u003e About Eclipse Platform 2. Choose Feature Details or Plug-in Details In the resulting tables, if the columns are shorter than their content, Jaws will read a truncated version of the content (it will read only what can be seen on the screen). There is no method for resizing the column without using the mouse. In other views that use this table, the problem also exists, however, properties for cell contents can be achieved using the keyboard and, in the resulting properties dialog, the full cell contents can be read by the screen reader."}
{"key":"63433","title":"","description":"1) delete any project from you workspace. while the operation is running, a dialog titled \"Progress information\" is opened. This dialog has the useless caption \"Operation in progress...\". This should say something like \"Deleting resources...\", \"Deleting project...\" or similar."}
{"key":"97726","title":"Carat location should be updated when user types in Console.","description":"The carat location should be updated whenever a user enters text in a console. Backspace does not currently work as expected."}
{"key":"97792","title":"Misleading message in error log view for optional plugins","description":"When a plugin has an optional plugin, (ie see attached sample from o.e.jem.util) with an optional\u003dtrue (ie non OSGI manifest), the pde runtime error log view shows a warning but the message says:  It should instead say:"}
