mean rec. rank;0.5293414;mean precision;0.0010875101;mean recall;0.9635685;mean f1-score;0.0021679034;mean average precision;0.30187386;% top 1;0.42657343;% top 5;0.63986015;% top 10;0.7202797
query ID;query key;rank;rec. rank;true positives;precision;false negatives;recall;f1 score;avg precision
1;28974;21;0.04761905;1;2.5303644E-4;0;1.0;5.0594483E-4;0.04761905
2;28919;9;0.11111111;1;2.594707E-4;0;1.0;5.1880674E-4;0.11111111
3;29186;47;0.021276595;3;7.5056293E-4;0;1.0;0.0015;0.020615386
4;29769;20;0.05;5;0.0015888148;1;0.8333333;0.0031715827;0.042346593
5;29959;398;0.0025125628;4;0.0010136848;0;1.0;0.0020253167;0.0037459075
6;30168;1;1.0;2;4.946822E-4;0;1.0;9.888752E-4;0.50438595
7;31423;2;0.5;3;7.6942804E-4;0;1.0;0.0015376731;0.1692683
8;33635;54;0.018518519;2;5.278438E-4;0;1.0;0.0010551306;0.010445499
9;32463;2;0.5;4;0.0010188487;0;1.0;0.0020356234;0.12868847
10;29934;111;0.009009009;1;2.53614E-4;0;1.0;5.0709944E-4;0.009009009
11;34858;2;0.5;3;7.54717E-4;0;1.0;0.0015082957;0.23876698
12;34925;1;1.0;3;7.4664014E-4;0;1.0;0.0014921662;0.75
13;36803;1;1.0;5;0.0013044613;0;1.0;0.0026055237;0.22490413
14;34951;17;0.05882353;2;8.435259E-4;0;1.0;0.00168563;0.04726891
15;37576;1;1.0;2;0.0034423408;0;1.0;0.0068610637;1.0
16;37739;3;0.33333334;2;5.2742613E-4;0;1.0;0.0010542963;0.2777778
17;38131;34;0.029411765;3;7.963897E-4;0;1.0;0.0015915119;0.021488016
18;39626;17;0.05882353;2;5.0327124E-4;0;1.0;0.0010060362;0.054411765
19;40257;2;0.5;3;0.0025167784;3;0.5;0.005008347;0.08728534
20;41123;1;1.0;4;0.0010062893;1;0.8;0.0020100502;0.2309541
21;40380;28;0.035714287;2;5.150657E-4;0;1.0;0.001029601;0.028061226
22;42539;1;1.0;2;5.4097915E-4;1;0.6666667;0.001081081;0.34883723
23;42993;1;1.0;3;8.1278785E-4;0;1.0;0.0016242556;0.34314254
24;39993;1;1.0;6;0.0018159806;0;1.0;0.0036253775;0.19985484
25;43194;625;0.0016;2;5.437738E-4;0;1.0;0.0010869565;0.001111042
26;43033;76;0.013157895;1;2.53614E-4;2;0.33333334;5.068424E-4;0.004385965
27;43709;1;1.0;1;2.496879E-4;0;1.0;4.992511E-4;1.0
28;44117;1;1.0;1;2.995806E-4;0;1.0;5.9898174E-4;1.0
29;47318;1;1.0;1;3.4059945E-4;0;1.0;6.80967E-4;1.0
30;39436;8;0.125;1;6.98812E-4;0;1.0;0.001396648;0.125
31;41952;1;1.0;20;0.005116398;0;1.0;0.010180708;0.09859671
32;49250;1;1.0;1;3.423485E-4;0;1.0;6.8446266E-4;1.0
33;47754;704;0.0014204546;2;5.588153E-4;0;1.0;0.0011170064;0.0010985768
34;49638;4;0.25;1;2.4600246E-4;0;1.0;4.918839E-4;0.25
35;46280;1;1.0;1;2.5227043E-4;0;1.0;5.044136E-4;1.0
36;50570;1;1.0;4;0.0010002501;0;1.0;0.0019985011;0.32244146
37;49457;1;1.0;4;9.93542E-4;0;1.0;0.001985112;0.29741663
38;48091;4;0.25;11;0.0036887995;0;1.0;0.0073504844;0.06610488
39;51929;82;0.0121951215;3;8.2146766E-4;1;0.75;0.0016411378;0.0066588186
40;36430;2;0.5;17;0.0046183104;0;1.0;0.00919416;0.25232226
41;51320;1;1.0;5;0.0013130252;0;1.0;0.0026226072;0.24478874
42;48080;34;0.029411765;1;2.4752476E-4;0;1.0;4.9492705E-4;0.029411765
43;44272;11;0.09090909;3;9.865176E-4;0;1.0;0.0019710907;0.035637137
44;51322;45;0.022222223;2;5.117707E-4;0;1.0;0.0010230179;0.025396826
45;54965;1;1.0;1;3.0590396E-4;0;1.0;6.1162084E-4;1.0
46;47910;1;1.0;3;0.001285347;0;1.0;0.0025673942;0.38969338
47;52394;122;0.008196721;2;4.977601E-4;0;1.0;9.950248E-4;0.007022337
48;54625;2;0.5;1;6.968641E-4;0;1.0;0.0013927576;0.5
49;45489;46;0.02173913;2;5.132153E-4;0;1.0;0.0010259041;0.012885694
50;50200;1;1.0;1;3.7119526E-4;0;1.0;7.42115E-4;1.0
51;50776;44;0.022727273;2;5.6211354E-4;0;1.0;0.0011235955;0.019428153
52;53012;5;0.2;2;5.4068665E-4;0;1.0;0.0010807889;0.1625
53;36234;8;0.125;1;3.192848E-4;0;1.0;6.383658E-4;0.125
54;47952;1;1.0;1;3.762227E-4;0;1.0;7.521624E-4;1.0
55;40192;5;0.2;5;0.010775862;0;1.0;0.021321964;0.13524222
56;31460;1;1.0;9;0.0026737968;0;1.0;0.0053333337;0.23580514
57;55341;4;0.25;3;7.9176563E-4;1;0.75;0.0015818612;0.063507535
58;57430;321;0.0031152647;1;5.6148233E-4;0;1.0;0.0011223345;0.0031152647
59;57436;204;0.004901961;1;3.3670032E-4;0;1.0;6.7317404E-4;0.004901961
60;59909;1;1.0;6;0.0017937219;0;1.0;0.0035810205;0.72126025
61;59596;1;1.0;1;2.5387155E-4;0;1.0;5.076142E-4;1.0
62;59895;1;1.0;1;2.9913252E-4;0;1.0;5.9808616E-4;1.0
63;62227;6;0.16666667;2;6.184292E-4;0;1.0;0.0012360939;0.09920635
64;72671;2;0.5;4;0.0010078106;0;1.0;0.0020135918;0.3576389
65;76096;1;1.0;3;8.071025E-4;0;1.0;0.0016129033;0.3719807
66;73433;5;0.2;1;2.731494E-4;0;1.0;5.461496E-4;0.2
67;42573;1;1.0;3;9.917355E-4;0;1.0;0.001981506;0.71212125
68;70008;2;0.5;4;0.0010351967;0;1.0;0.0020682523;0.32530138
69;71811;1;1.0;2;8.984726E-4;0;1.0;0.0017953322;0.6666667
70;72699;1;1.0;4;0.0012330456;1;0.8;0.002462296;0.41619048
71;74238;1;1.0;3;7.498125E-4;0;1.0;0.0014985014;0.6674461
72;59208;1;1.0;5;0.0012242899;0;1.0;0.0024455858;0.25195837
73;49743;3;0.33333334;12;0.003366059;0;1.0;0.006709533;0.09340811
74;53981;17;0.05882353;2;5.0454086E-4;0;1.0;0.0010085729;0.053802006
75;60015;3;0.33333334;2;6.2131096E-4;0;1.0;0.0012418503;0.18627451
76;61411;1;1.0;1;2.5634453E-4;0;1.0;5.125577E-4;1.0
77;61536;89;0.011235955;2;5.2056223E-4;0;1.0;0.0010405828;0.012610985
78;53999;1;1.0;2;5.231494E-4;0;1.0;0.0010457517;0.5344828
79;65319;1;1.0;6;0.00154202;0;1.0;0.003079292;0.1835738
80;68991;1;1.0;4;0.001110186;0;1.0;0.0022179096;0.27555355
81;69011;2;0.5;2;5.3662463E-4;1;0.6666667;0.001072386;0.17171717
82;46298;6;0.16666667;1;2.4660912E-4;0;1.0;4.9309665E-4;0.16666667
83;70773;21;0.04761905;1;2.946376E-4;0;1.0;5.8910163E-4;0.04761905
84;71723;1;1.0;2;5.125577E-4;0;1.0;0.0010245902;0.5121951
85;44191;2;0.5;6;0.0016891892;0;1.0;0.0033726813;0.14318831
86;72157;1;1.0;4;0.001041938;0;1.0;0.0020817071;0.3004504
87;57666;1;1.0;4;0.0011383039;0;1.0;0.0022740192;0.42929292
88;58681;1;1.0;4;0.0017263703;0;1.0;0.0034467902;0.31187955
89;48990;7;0.14285715;3;0.0010660981;0;1.0;0.0021299254;0.11174623
90;64331;1;1.0;2;5.077431E-4;1;0.6666667;0.0010147133;0.3335116
91;70241;218;0.0045871558;3;0.002979146;0;1.0;0.0059405942;0.0062719467
92;69459;1;1.0;3;9.67118E-4;3;0.5;0.0019305019;0.33379415
93;30439;9;0.11111111;25;0.007102273;0;1.0;0.014104373;0.04988504
94;71377;2;0.5;6;0.0015267176;0;1.0;0.0030487806;0.1043573
95;67592;36;0.027777778;2;5.134788E-4;0;1.0;0.0010264306;0.024527187
96;67774;41;0.024390243;2;5.1020406E-4;0;1.0;0.0010198877;0.012993843
97;71878;61;0.016393442;1;2.8935185E-4;0;1.0;5.785363E-4;0.016393442
98;72154;1;1.0;11;0.0030437189;0;1.0;0.0060689654;0.28469536
99;68494;4;0.25;4;0.0021378943;0;1.0;0.0042666667;0.102744184
100;72531;1;1.0;5;0.0014172336;1;0.8333333;0.0028296548;0.34868002
101;54421;1;1.0;4;0.0010587613;0;1.0;0.002115283;0.53768486
102;49657;1;1.0;6;0.0015475884;1;0.85714287;0.0030895986;0.27940917
103;62642;4;0.25;3;7.479432E-4;0;1.0;0.0014947684;0.12016317
104;70619;1;1.0;3;7.930214E-4;0;1.0;0.0015847861;0.54347825
105;72150;160;0.00625;1;3.557453E-4;2;0.33333334;7.1073207E-4;0.0020833334
106;74952;1;1.0;3;7.7299663E-4;0;1.0;0.0015447992;0.58888894
107;77799;2;0.5;1;3.4129692E-4;0;1.0;6.8236096E-4;0.5
108;77163;3;0.33333334;1;4.5977012E-4;0;1.0;9.1911765E-4;0.33333334
109;80249;1;1.0;3;9.538951E-4;2;0.6;0.0019047619;0.21115789
110;80916;6;0.16666667;1;2.600104E-4;0;1.0;5.198856E-4;0.16666667
111;76798;1;1.0;7;0.0021732382;0;1.0;0.0043370514;0.3140423
112;82062;3;0.33333334;5;0.0015954053;0;1.0;0.003185728;0.26057628
113;81863;58;0.01724138;10;0.0026483051;0;1.0;0.00528262;0.01775253
114;82218;1;1.0;5;0.001298364;1;0.8333333;0.0025926884;0.33988973
115;83303;3;0.33333334;2;6.119951E-4;0;1.0;0.0012232416;0.16984127
116;83563;2;0.5;4;0.0010238034;0;1.0;0.0020455127;0.3118236
117;76055;10;0.1;2;8.1103E-4;0;1.0;0.0016207455;0.12692308
118;82134;18;0.055555556;69;0.019736841;0;1.0;0.038709674;0.0651013
119;86789;170;0.005882353;1;3.3211557E-4;0;1.0;6.640106E-4;0.005882353
120;87376;17;0.05882353;2;6.973501E-4;1;0.6666667;0.0013932427;0.043417368
121;88652;1;1.0;5;0.0013904339;0;1.0;0.0027770065;0.39455375
122;96371;1;1.0;3;8.505812E-4;0;1.0;0.0016997167;0.33699572
123;83565;2;0.5;3;8.036432E-4;0;1.0;0.0016059958;0.2442029
124;81846;1;1.0;1;3.9277298E-4;0;1.0;7.852375E-4;1.0
125;99168;9;0.11111111;1;2.716653E-4;0;1.0;5.4318307E-4;0.11111111
126;98320;72;0.013888889;1;2.5753284E-4;0;1.0;5.149331E-4;0.013888889
127;100227;2;0.5;2;5.625879E-4;0;1.0;0.0011245433;0.28846154
128;82171;2;0.5;10;0.0030312217;0;1.0;0.006044122;0.3588167
129;82752;6;0.16666667;1;4.570384E-4;0;1.0;9.136592E-4;0.16666667
130;102459;6;0.16666667;3;8.055854E-4;0;1.0;0.0016098738;0.07086343
131;109173;1;1.0;3;8.097166E-4;0;1.0;0.001618123;0.5277778
132;92880;100;0.01;1;3.196931E-4;0;1.0;6.391818E-4;0.01
133;101047;16;0.0625;1;2.5125628E-4;0;1.0;5.023863E-4;0.0625
134;108118;3;0.33333334;3;0.0011476664;0;1.0;0.0022927015;0.34444442
135;100195;613;0.0016313214;1;2.480159E-4;0;1.0;4.959087E-4;0.0016313214
136;112243;3;0.33333334;2;5.015045E-4;0;1.0;0.0010025062;0.33333334
137;107299;119;0.008403362;1;3.8387717E-4;0;1.0;7.6745974E-4;0.008403362
138;113510;21;0.04761905;1;3.1486145E-4;0;1.0;6.295247E-4;0.04761905
139;103741;123;0.008130081;12;0.0032903757;0;1.0;0.006559169;0.014011071
140;95529;2;0.5;11;0.0031856357;0;1.0;0.0063510393;0.18353345
141;115275;1;1.0;5;0.0014956626;0;1.0;0.0029868577;0.4137774
142;95517;411;0.00243309;2;9.2250924E-4;0;1.0;0.0018433179;0.00198815
143;115252;18;0.055555556;11;0.0031473534;0;1.0;0.006274957;0.044109985
144;114875;3;0.33333334;4;9.883865E-4;0;1.0;0.001974821;0.12957875
145;116626;1;1.0;3;7.356547E-4;0;1.0;0.0014702278;0.35491264
146;115607;24;0.041666668;2;5.8326044E-4;0;1.0;0.0011658409;0.02124317
147;113511;1;1.0;2;5.822416E-4;0;1.0;0.0011638057;0.8333334
148;117296;1;1.0;3;0.0010582011;0;1.0;0.0021141649;0.5051814
149;117189;1;1.0;2;6.2695926E-4;0;1.0;0.0012531329;1.0
150;114343;6;0.16666667;7;0.0018980477;1;0.875;0.003787879;0.10603629
151;117681;1;1.0;6;0.0014906832;1;0.85714287;0.0029761903;0.36000267
152;115251;18;0.055555556;1;2.4925225E-4;0;1.0;4.983803E-4;0.055555556
153;116949;1;1.0;1;2.4813897E-4;0;1.0;4.9615477E-4;1.0
154;112736;6;0.16666667;6;0.0021269054;0;1.0;0.0042447825;0.071577184
155;118192;4;0.25;3;0.0012875537;0;1.0;0.002571796;0.1462766
156;118599;328;0.0030487804;1;2.49004E-4;0;1.0;4.97884E-4;0.0030487804
157;117882;1;1.0;2;5.5066077E-4;0;1.0;0.0011007155;0.50877196
158;117209;1;1.0;6;0.0014855162;3;0.6666667;0.002964427;0.2623502
159;118715;1;1.0;6;0.0030975735;1;0.85714287;0.006172839;0.3398113
160;119543;4;0.25;1;2.472799E-4;0;1.0;4.944376E-4;0.25
161;109614;1;1.0;2;4.965243E-4;1;0.6666667;9.923097E-4;0.34166667
162;119210;37;0.027027028;2;4.922471E-4;0;1.0;9.840099E-4;0.021916876
163;119353;1;1.0;3;7.6200155E-4;0;1.0;0.0015228427;0.40528235
164;120351;1;1.0;4;9.6922705E-4;0;1.0;0.0019365773;0.48357964
165;119451;135;0.0074074073;2;5.242464E-4;0;1.0;0.0010479435;0.010950081
166;120543;1;1.0;1;3.206156E-4;0;1.0;6.4102566E-4;1.0
167;120474;41;0.024390243;2;5.2645436E-4;0;1.0;0.0010523547;0.03071364
168;120363;2;0.5;4;0.0012357121;0;1.0;0.0024683739;0.13655919
169;120401;1;1.0;1;2.7909572E-4;0;1.0;5.5803574E-4;1.0
170;113257;13;0.07692308;3;8.658009E-4;0;1.0;0.0017301039;0.06295097
171;119749;1;1.0;4;0.0011245431;0;1.0;0.00224656;0.34619567
172;120909;1;1.0;4;0.0010007506;0;1.0;0.0019995002;0.25595272
173;119539;7;0.14285715;6;0.0015487868;0;1.0;0.0030927835;0.07013523
174;124105;98;0.010204081;1;4.995005E-4;0;1.0;9.985022E-4;0.010204081
175;123695;1;1.0;1;2.442599E-4;0;1.0;4.8840046E-4;1.0
176;122728;1;1.0;3;7.664793E-4;3;0.5;0.0015306122;0.17680599
177;58520;26;0.03846154;4;0.0012767316;1;0.8;0.0025493947;0.041822307
178;123612;13;0.07692308;2;5.610098E-4;0;1.0;0.0011213905;0.041636143
179;124808;65;0.015384615;5;0.00125502;0;1.0;0.0025068938;0.00695089
180;124654;2;0.5;3;7.47198E-4;1;0.75;0.0014929087;0.13252677
181;124999;11;0.09090909;2;5.1137817E-4;0;1.0;0.0010222335;0.056818184
182;121395;2;0.5;3;8.354219E-4;0;1.0;0.0016694491;0.25119045
183;125101;31;0.032258064;1;3.2237265E-4;0;1.0;6.4453756E-4;0.032258064
184;125405;4;0.25;3;7.434944E-4;0;1.0;0.0014858841;0.18055557
185;125810;152;0.0065789474;1;3.0367446E-4;0;1.0;6.071646E-4;0.0065789474
186;126328;2;0.5;1;5.7803467E-4;0;1.0;0.0011554015;0.5
187;123212;1;1.0;1;2.8121486E-4;0;1.0;5.622716E-4;1.0
188;120356;1;1.0;2;0.001177163;0;1.0;0.0023515578;0.505
189;125475;1;1.0;3;8.668015E-4;2;0.6;0.001731102;0.22810881
190;122370;1;1.0;6;0.0014774686;0;1.0;0.0029505778;0.4133686
191;128128;1;1.0;1;3.949447E-4;0;1.0;7.895776E-4;1.0
192;128699;1;1.0;1;3.387534E-4;0;1.0;6.7727733E-4;1.0
193;128655;1;1.0;1;2.7322405E-4;0;1.0;5.4629886E-4;1.0
194;128744;43;0.023255814;4;0.0010799136;0;1.0;0.0021574972;0.012748955
195;122742;4;0.25;4;0.0010149708;0;1.0;0.0020278834;0.07087496
196;128618;2;0.5;3;8.1322854E-4;0;1.0;0.0016251354;0.39646468
197;128237;1;1.0;3;7.267442E-4;0;1.0;0.0014524328;0.35239577
198;121616;2;0.5;3;7.369197E-4;0;1.0;0.001472754;0.19008799
199;125699;12;0.083333336;4;0.0012080942;0;1.0;0.0024132729;0.033110384
200;131933;2;0.5;2;4.9751246E-4;0;1.0;9.945302E-4;0.25694445
201;131932;34;0.029411765;4;0.0011477761;0;1.0;0.0022929206;0.013092127
202;132130;58;0.01724138;3;7.6511095E-4;0;1.0;0.001529052;0.023564586
203;129566;3;0.33333334;1;2.795639E-4;0;1.0;5.5897154E-4;0.33333334
204;133307;6;0.16666667;5;0.0014421691;0;1.0;0.0028801844;0.10670215
205;131505;1;1.0;4;0.0012894906;0;1.0;0.00257566;0.7505225
206;130869;16;0.0625;2;6.3391443E-4;0;1.0;0.0012670256;0.044070512
207;130837;1;1.0;1;2.7027028E-4;0;1.0;5.403945E-4;1.0
208;132926;1;1.0;5;0.0013974287;0;1.0;0.0027909575;0.20897898
209;135001;1;1.0;6;0.0017574693;2;0.75;0.0035067215;0.14299421
210;134541;1;1.0;3;0.0016137708;0;1.0;0.0032223416;0.3371111
211;136665;1;1.0;1;2.5348543E-4;0;1.0;5.068424E-4;1.0
212;138143;1;1.0;1;2.6434046E-4;0;1.0;5.285412E-4;1.0
213;138540;1;1.0;1;4.8638132E-4;0;1.0;9.7228977E-4;1.0
214;138286;1;1.0;2;5.1880674E-4;0;1.0;0.0010370754;0.5092593
215;135780;50;0.02;1;2.50501E-4;0;1.0;5.008766E-4;0.02
216;118781;9;0.11111111;4;0.0010282777;1;0.8;0.0020539153;0.02613829
217;133117;1;1.0;3;0.0012674271;0;1.0;0.0025316456;0.9166667
218;135068;3;0.33333334;11;0.0032004656;1;0.9166667;0.0063786604;0.033377577
219;82570;2;0.5;2;5.7438255E-4;0;1.0;0.0011481057;0.250356
220;142165;78;0.012820513;4;0.0026899797;0;1.0;0.0053655263;0.017147645
221;141956;1;1.0;5;0.0013154433;0;1.0;0.0026274303;0.27041513
222;138171;1;1.0;1;2.773156E-4;0;1.0;5.5447745E-4;1.0
223;125480;13;0.07692308;1;2.7056277E-4;0;1.0;5.4097915E-4;0.07692308
224;132349;122;0.008196721;4;0.0010124019;2;0.6666667;0.0020217337;0.0047107283
225;72528;9;0.11111111;3;7.4887666E-4;0;1.0;0.0014966326;0.07075257
226;120739;1;1.0;3;0.0012765958;0;1.0;0.0025499363;0.3482668
227;145086;1;1.0;3;7.9009746E-4;0;1.0;0.0015789474;0.3832672
228;145950;6;0.16666667;1;3.3795202E-4;0;1.0;6.756757E-4;0.16666667
229;146546;1;1.0;2;5.239717E-4;0;1.0;0.0010473946;0.6666667
230;122580;1;1.0;5;0.0012729124;0;1.0;0.0025425882;0.32628685
231;132591;1;1.0;1;2.9154518E-4;0;1.0;5.829204E-4;1.0
232;136707;1;1.0;2;0.0010330578;0;1.0;0.0020639834;0.64285713
233;147701;19;0.05263158;4;0.001002004;0;1.0;0.0020020022;0.063265234
234;147801;9;0.11111111;5;0.0014005603;0;1.0;0.0027972027;0.089440875
235;148545;495;0.002020202;1;2.5062656E-4;0;1.0;5.0112756E-4;0.002020202
236;148536;1;1.0;1;2.7352298E-4;0;1.0;5.468964E-4;1.0
237;148786;1;1.0;3;7.993605E-4;0;1.0;0.001597444;0.33870873
238;148388;1;1.0;1;2.7107616E-4;0;1.0;5.420054E-4;1.0
239;148727;1;1.0;3;7.503752E-4;0;1.0;0.001499625;0.3588151
240;148693;13;0.07692308;3;7.3728187E-4;0;1.0;0.0014734773;0.04036534
241;148537;1;1.0;2;5.235602E-4;0;1.0;0.0010465725;0.5019608
242;148972;5;0.2;2;6.98812E-4;0;1.0;0.001396648;0.105586596
243;148737;149;0.0067114094;3;8.910009E-4;0;1.0;0.0017804155;0.006531852
244;148409;1;1.0;4;0.0010027576;0;1.0;0.002003506;0.25566462
245;149305;386;0.0025906735;2;5.259006E-4;0;1.0;0.0010512484;0.002897901
246;150671;57;0.01754386;2;5.408329E-4;0;1.0;0.001081081;0.014236411
247;151673;3;0.33333334;1;2.5667352E-4;0;1.0;5.132153E-4;0.33333334
248;151845;19;0.05263158;1;2.7624308E-4;0;1.0;5.523336E-4;0.05263158
249;152257;2;0.5;4;0.0010349288;0;1.0;0.0020677177;0.21130434
250;151938;6;0.16666667;4;0.0012095555;0;1.0;0.0024161886;0.06581192
251;152388;1;1.0;1;2.4869436E-4;0;1.0;4.972651E-4;1.0
252;152631;1;1.0;2;4.8649963E-4;1;0.6666667;9.722897E-4;0.34591195
253;152871;1;1.0;5;0.0013319126;0;1.0;0.002660282;0.4724176
254;152873;2;0.5;5;0.0013997761;0;1.0;0.002795639;0.11185887
255;152589;1;1.0;2;5.2137644E-4;0;1.0;0.0010422094;1.0
256;130300;1;1.0;14;0.0051113544;0;1.0;0.010170722;0.28443286
257;154332;1;1.0;3;7.5056293E-4;0;1.0;0.0015;0.37060228
258;153535;41;0.024390243;2;4.934616E-4;0;1.0;9.864365E-4;0.026279628
259;129525;1;1.0;4;0.0015570261;0;1.0;0.003109211;0.57929295
260;155148;2;0.5;4;9.928022E-4;0;1.0;0.0019836351;0.14391886
261;155238;5;0.2;2;6.91085E-4;0;1.0;0.0013812155;0.18333334
262;155972;7;0.14285715;5;0.001641497;2;0.71428573;0.0032754666;0.031333078
263;151182;3;0.33333334;1;2.759382E-4;0;1.0;5.517241E-4;0.33333334
264;156962;4;0.25;4;0.0013755158;0;1.0;0.0027472526;0.09734655
265;153845;22;0.045454547;5;0.0013379717;2;0.71428573;0.0026709402;0.013027556
266;153490;3;0.33333334;7;0.001710237;0;1.0;0.003414634;0.13114803
267;152848;1;1.0;2;5.5035774E-4;0;1.0;0.00110011;0.75
268;158573;1;1.0;4;0.0011557353;0;1.0;0.0023088022;0.29365033
269;156904;1;1.0;4;0.0011668612;0;1.0;0.0023310024;0.650641
270;149071;1;1.0;3;8.8495575E-4;0;1.0;0.0017683465;0.3424168
271;152366;41;0.024390243;2;6.1919505E-4;0;1.0;0.0012376239;0.021044679
272;159896;2;0.5;4;0.0015203345;0;1.0;0.0030360534;0.14386213
273;158624;2;0.5;3;7.61808E-4;0;1.0;0.0015224561;0.40240243
274;123423;5;0.2;10;0.002891845;0;1.0;0.0057670125;0.12585017
275;148908;1;1.0;3;9.110234E-4;0;1.0;0.0018203885;0.40725806
276;161217;1;1.0;3;7.522568E-4;1;0.75;0.0015030061;0.25687402
277;149289;1;1.0;6;0.0017735738;0;1.0;0.0035408675;0.6224626
278;138219;31;0.032258064;8;0.0029433407;1;0.8888889;0.0058672535;0.025742095
279;138223;1;1.0;2;4.9115915E-4;0;1.0;9.818361E-4;0.54545456
280;138215;8;0.125;2;7.114906E-4;0;1.0;0.0014219695;0.06930272
281;158412;22;0.045454547;3;8.2508253E-4;1;0.75;0.0016483517;0.01491293
282;173602;3;0.33333334;1;2.7654867E-4;0;1.0;5.5294443E-4;0.33333334
283;104218;1;1.0;6;0.001735107;0;1.0;0.0034642033;0.24045907
284;145693;12;0.083333336;2;7.8125E-4;0;1.0;0.0015612802;0.055555556
285;64069;25;0.04;1;2.478315E-4;0;1.0;4.9554015E-4;0.04
286;150271;1;1.0;5;0.0015069318;0;1.0;0.0030093289;0.54937345
