{"key":"AMQP-359","title":"AmqpAppenderIntegrationTests should revert to default log4j.properties after its work","description":"CI build logs (see Reference URL) show that DEBUG logging level for org.springframework.amqp.rabbit is switched by log4j-amqp.properties and isn\u0027t returned back to INFO.\nIt causes very slow test results parsing process on Bamboo.","creation_date":"2014-01-14T09:21:35.000-06:00","resolution_date":"2014-01-14T18:59:45.000-06:00","fixed_files":["org.springframework.amqp.rabbit.log4j.AmqpAppenderIntegrationTests"]}
{"key":"AMQP-363","title":"AmqpAppender appends throwable information even when layout handles it","description":"I use AmqpAppender to log messages to RabbitMQ. I have a custom layout which converts data to JSON. Even though my layout handles ThrowableInformation, AmqpAppender re-appends ThrowableInformation and is messing up the message body. I use org.springframework.amqp spring-rabbit 1.2.0.RELEASE.\nPlease find log4j.xml and my custom Layout class SimpleJsonLayout attached.\nFix is to add just the first line below in AmqpAppender.EventSender.run()\n\n\n\n\n\n\nif (layout.ignoresThrowable())\n\n\n\n\n{\n\n\n\n\n\n\n\n\n\nif (null !\u003d logEvent.getThrowableInformation()) {\n\n\n\n\n\t\t\t\t\t\tThrowableInformation tinfo \u003d logEvent.getThrowableInformation();\n\n\n\n\n\t\t\t\t\t\tfor (String line : tinfo.getThrowableStrRep()) {\n\n\n\n\n\t\t\t\t\t\t\tmsgBody.append(String.format(\"%s%n\", line));\n\n\n\n\n\t\t\t\t\t\t}\n\n\n\n\n\t\t\t\t\t}\n\n\n\n\n}\n\n\n\n\n\n\nPFA java project with log4j.xml. Please set values for AMQPAppender in Log4j.xml and run Test.class to reproduce error.","creation_date":"2014-01-22T09:43:10.000-06:00","resolution_date":"2014-01-24T11:56:17.000-06:00","fixed_files":["org.springframework.amqp.rabbit.log4j.AmqpAppender","org.springframework.amqp.rabbit.log4j.AmqpAppenderIntegrationTests"]}
{"key":"AMQP-365","title":"Fix Race Condition in Consumer Recovery Test Cases","description":"Analysis\nThe test cases send 10 messages. The consumer uses manual ack and does a double ack on the first message causing the channel to be closed. It is a race between the broker closing the channel and the second message being received by the listener.\nThe listener counts down a latch that the test is waiting on.\nIf the broker loses the race, the channel is closed AFTER the second message is received by the listener and the message is redelivered after the consumer is recovered.\nThis results in 11 messages being received and the final test for a null message fails.\nSolution\nIn the listener, only count down the latch if the message is NOT a redelivery (because the latch would have already been counted down for this message). However, we can\u0027t just test the redelivered flag - the message might have been sent by the broker but not actually received by the listener.\nAdd the message to a Set and only countdown the latch if it\u0027s not already received.","creation_date":"2014-01-24T13:38:23.000-06:00","resolution_date":"2014-01-27T08:42:00.000-06:00","fixed_files":["org.springframework.amqp.rabbit.connection.RabbitUtils","org.springframework.amqp.rabbit.listener.MessageListenerContainerLifecycleIntegrationTests","org.springframework.amqp.rabbit.listener.SimpleMessageListenerContainer","org.springframework.amqp.rabbit.listener.BlockingQueueConsumer","org.springframework.amqp.rabbit.listener.MessageListenerRecoveryCachingConnectionIntegrationTests"]}
{"key":"AMQP-385","title":"AmqpRejectAndDontRequeueException kills pub-sub-channel consumer","description":"One documented way in spring-amqp to avoid message redelivery on listener failure is to inject an error-handler that throws AmqpRejectAndDontRequeueException. This works fine for SI amqp-backed point-to-point channels, but causes the consumer to attempt to restart for SI amqp-backed pub-sub channels. This attempt to restart fails because \n\"there is a problem with the pub-sub channel in that if the consumer fails, it does not redeclare its queue - this has been partially addressed in 4.0.0.M3 (https://jira.spring.io/browse/INT-3278) in that the queue and binding will be redeclared in the event of a connection failure, but it still won\u0027t handle a fatal (but recoverable) consumer exception because it only redeclares when it detects a new connection is created.\"\nSee reference URL forum posting for more details from Gary Russell, who understands this stuff way better than I do.\nFrom the forum posting: \n\"In order for the AmqpRejectAndDontRequeueException to be non-fatal to the consumer, when thrown from an ErrorHandler, it needs to be wrapped in a ListenerExecutionFailedException (we should probably document that, or even treat ARADREs in the same way as LEFEs; please open up a JIRA issue: https://jira.spring.io/browse/AMQP).\"","creation_date":"2014-03-26T13:12:20.000-05:00","resolution_date":"2014-03-27T02:50:28.000-05:00","fixed_files":["org.springframework.amqp.rabbit.listener.SimpleMessageListenerContainer","org.springframework.amqp.rabbit.listener.MessageListenerContainerErrorHandlerIntegrationTests"]}
