{"id":481,"bug_id":"104150","text":"No matter which part of the table the user clicks on, the table cursor should follow the table selection as closely as possible if the selection is changed as a result of the click. To reproduce the problem, use snippet 96 with an added table.setLinesVisible(true). table.getLinesVisible()  table.setLinesVisible(true)","file_goldset":["org.eclipse.swt.custom.TableCursor"],"creation_date":"2005-07-16 19:58:00","resolution_date":"2006-03-15 15:21:00"}
{"id":482,"bug_id":"104545","text":"Make default size of empty composites smaller. Could the following two constants in Widget.java be changed to something smaller?   Anything less than or equal to 16 would work for us, 0 would be OK too.  Background: When you write an RCP app and enable the cool bar, the cool bar will initially be empty, but 64x64 pixels in size.   static final int DEFAULT_WIDTH\t\u003d 64;\n static final int DEFAULT_HEIGHT\t\u003d 64;","file_goldset":["org.eclipse.swt.widgets.CoolBar"],"creation_date":"2005-07-20 14:21:00","resolution_date":"2009-08-27 04:54:00"}
{"id":496,"bug_id":"81264","text":"Here\u0027s my testcase to demonstrate the problem:                         Calling setTopIndex(40) should move table item #40 to the top of the table. Calling getTopIndex after should return 40.   public static void main(String[] args) {\n\t\tfinal Display display \u003d new Display();\n\t\tShell shell \u003d new Shell(display);\n\t\tshell.setBounds(10,10,200,200);\n\t\tfinal Table table \u003d new Table(shell, SWT.NONE);\n\t\ttable.setBounds(10,10,100,100);\n\t\tfor (int i \u003d 0; i \u003c 99; i++) {\n\t\t\tnew TableItem(table, SWT.NONE).setText(\"item \" + i);\n\t\t}\n\t\t\n\t\ttable.setTopIndex(20);\n\n\t\tshell.open();\n\n\t\tSystem.out.println(\"top visible index: \" + table.getTopIndex());\n\t\t\n\t\tfor (int i \u003d 0; i \u003c 5; i++) {\n\t\t\tnew TableItem(table, SWT.NONE).setText(\"item \" + i);\n\t\t}\n\n\t\ttable.setTopIndex(40);\n\t\tSystem.out.println(\"top visible index: \" + table.getTopIndex());\n\t\t\n\t\twhile (!shell.isDisposed()) {\n\t\t\tif (!display.readAndDispatch()) display.sleep();\n\t\t}\n\t\tdisplay.dispose();\n\t}\n\n setTopTable(40)  setTopIndex(40)","file_goldset":["org.eclipse.swt.widgets.List","org.eclipse.swt.widgets.Table","org.eclipse.swt.widgets.Tree"],"creation_date":"2004-12-15 13:17:00","resolution_date":"2006-04-12 13:22:00"}
{"id":504,"bug_id":"86000","text":"Simple test case below loads\n PNG Files and Saves them as JPEG. Many files were tested and the majority \n did produced the proper JPG images as expected.          \n \n \npackage com.ibm.test.image;\n\nimport org.eclipse.swt.*;\nimport org.eclipse.swt.graphics.*;\n\npublic class ImageLoaderTest {\n\t\t\n\tpublic static void main(String[] args) {\n\t\tImageLoader loader;\n\t\tString dir\u003d\"c:\\\\image-problems\\\\\";\n\t\tString files[]\u003d{\n\t\t\t\t\"s34i3p04\",\n\t\t\t\t\"s34n3p04\",\n\t\t\t\t\"s35i3p04\",\n\t\t\t\t\"s35n3p04\",\n\t\t\t\t\"s36i3p04\",\n\t\t\t\t\"s36n3p04\",\n\t\t\t\t\"s37i3p04\",\n\t\t\t\t\"s37n3p04\",\n\t\t\t\t\"s38i3p04\",\n\t\t\t\t\"s38n3p04\",\n\t\t\t\t\"s39i3p04\",\n\t\t\t\t\"s39n3p04\"\n\t\t};\n\t\t\n\t\ttry {\n\t\t\tfor (int i\u003d0; i\u003cfiles.length; i++) {\n\t\t\tString filein  \u003d dir+files[i]+\".png\";\n\t\t\tString fileout \u003d dir+files[i]+\".jpg\";\n\t\t\t\n\t\t\tloader \u003d new ImageLoader();\n\t\t\tloader.load(filein);\n\t\t\tloader.save(fileout,SWT.IMAGE_JPEG);\n\t\t\t}\n\t\t} catch (SWTException e) {\n\t\t  e.printStackTrace();\n\t\t}\n\t}\n}","file_goldset":["org.eclipse.swt.internal.image.JPEGFileFormat"],"creation_date":"2005-02-21 14:47:00","resolution_date":"2005-02-23 18:02:00"}
{"id":508,"bug_id":"87460","text":"In the snippet below, there is a StyledText with a line style listener. In the line style listener, a bold font style is set, changing the width of the rendered text. I would have expected the on-screen caret location (not the offset) to be adjusted to the change.                                              \n\nimport org.eclipse.swt.*;\nimport org.eclipse.swt.custom.*;\nimport org.eclipse.swt.graphics.*;\nimport org.eclipse.swt.layout.*;\nimport org.eclipse.swt.widgets.*;\n\npublic class LineStyleCaretTest {\n  public static void main(String[] args) {\n    Display display \u003d new Display();\n    \n    Shell shell \u003d new Shell(display);\n    shell.setLayout(new FillLayout());\n    \n    Font font \u003d new Font(display, \"Arial\", 12, SWT.NORMAL);\n      \n    final StyledText text \u003d new StyledText(shell, SWT.MULTI);\n    text.setFont(font);\n    text.setText(\"Standard Widget Toolkit\");\n    text.setCaretOffset(text.getText().length());\n    \n    text.addLineStyleListener(new LineStyleListener() {\n      public void lineGetStyle(LineStyleEvent event) {\n        StyleRange[] styles \u003d new StyleRange[1];\n        \n        styles[0] \u003d new StyleRange();\n        styles[0].start  \u003d 0;\n        styles[0].length \u003d text.getText().length();\n        styles[0].fontStyle \u003d SWT.BOLD;\n        \n        event.styles \u003d styles;\n      }\n    });\n    \n    shell.setSize(300, 100);\n    shell.open();\n    \n    while (!shell.isDisposed()) {\n      if (!display.readAndDispatch()) {\n        display.sleep();\n      }\n    }\n    \n    font.dispose();\n    display.dispose();\n  }\n}","file_goldset":["org.eclipse.swt.custom.StyledText"],"creation_date":"2005-03-08 21:22:00","resolution_date":"2008-07-29 13:13:00"}
{"id":513,"bug_id":"88829","text":"- start with five columns, all different widths - do Table.setColumnOrder(new int[] {4,1,2,3,0});  -\u003e but Move should have been fired for all of the columns since the width of the first displayed column changed, and therefore all of the other columns are auto-shifted accordingly Table.setColumnOrder(new int[] {4,1,2,3,0});","file_goldset":["org.eclipse.swt.widgets.Table"],"creation_date":"2005-03-22 20:41:00","resolution_date":"2005-04-06 17:05:00"}
{"id":518,"bug_id":"93724","text":"Here is an example of some code in DragSource.java for GTK+:       Rather than converting the names for the signals every time, these signal names should be defined in OS.java so that they can be only created once. byte[] buffer \u003d Converter.wcsToMbcs(null, \"drag_data_get\", true);\nOS.g_signal_connect(control.handle, buffer, DragGetData.getAddress(), 0);\t\nbuffer \u003d Converter.wcsToMbcs(null, \"drag_end\", true);\nOS.g_signal_connect(control.handle, buffer, DragEnd.getAddress(), 0);\nbuffer \u003d Converter.wcsToMbcs(null, \"drag_data_delete\", true);\nOS.g_signal_connect(control.handle, buffer, DragDataDelete.getAddress(), 0);","file_goldset":["org.eclipse.swt.dnd.DragSource","org.eclipse.swt.dnd.DropTarget"],"creation_date":"2005-05-04 17:35:00","resolution_date":"2005-05-30 15:14:00"}
{"id":523,"bug_id":"97651","text":"- run the snippet below - the insert line is set to be under the \"root\" item - collapse the root item  This line should not go away because it belongs to the \"root\" item, not to the \"child\" item, but if it really wants to go away, then its end tips should not be left - press the button to the right of the Table: this does a Tree.redraw(), and note that the insert line reappears, so I guess it never really meant to go away                         Tree.redraw() public static void main(String[] args) {\n\tfinal Display display \u003d new Display();\n\tfinal Shell shell \u003d new Shell(display);\n\tshell.setBounds(10, 10, 300, 300);\n\tfinal Tree tree \u003d new Tree(shell, SWT.NONE);\n\ttree.setBounds(10, 10, 200, 200);\n\tnew TreeItem(tree, SWT.NONE).setText(\"pre-root\");\n\tTreeItem root1 \u003d new TreeItem(tree, SWT.NONE);\n\troot1.setText(\"root\");\n\tTreeItem child \u003d new TreeItem(root1, SWT.NONE);\n\tchild.setText(\"child\");\n\tButton button \u003d new Button(shell, SWT.PUSH);\n\tbutton.setBounds(230,10,30,30);\n\tbutton.addSelectionListener(new SelectionAdapter() {\n\t\tpublic void widgetSelected(SelectionEvent e) {\n\t\t\ttree.redraw();\n\t\t}\n\t});\n\troot1.setExpanded(true);\n\ttree.setInsertMark(root1, false);\n\tshell.open();\n\twhile (!shell.isDisposed()) {\n\t\tif (!display.readAndDispatch()) display.sleep();\n\t}\n\tdisplay.dispose();\n}","file_goldset":["org.eclipse.swt.dnd.TreeDragUnderEffect","org.eclipse.swt.widgets.Tree"],"creation_date":"2005-05-31 14:43:00","resolution_date":"2005-06-03 13:04:00"}
