{"id":57,"bug_id":"DERBY-5911","text":"WHERE condition getting pushed into sub-query with FETCH. Derby pushes query conditions down into subqueries with FETCH limits, thus creating wrong results. Take the following snippet:  The first query correctly returns the rows (Colombian,5), (Colombian_Decaf,20). The second query (which filters the result of the first one) returns (Colombian,5), (French_Roast,5).","method_goldset":["org.apache.derby.impl.sql.compile.SelectNode:checkNoWindowFunctions(QueryTreeNode, String)"],"creation_date":"2012-8-28 06:18:36","resolution_date":"2012-9-12 17:53:44"}
{"id":59,"bug_id":"DERBY-5951","text":"Missing method exception raised when using Clobs with territory based collation. When using territory-based collation with Clobs, Derby raises an error trying to invoke a missing method. The following script shows this problem:    -- fails with a java.lang.NoSuchMethodError exception       Here is the error:","method_goldset":["org.apache.derby.iapi.types.CollatorSQLClob:getNewNull()"],"creation_date":"2012-10-16 10:33:53","resolution_date":"2012-10-16 14:10:36"}
{"id":61,"bug_id":"DERBY-6009","text":"However, the checks let some unsupported expressions through and produce strange results. For example:        And the next example should probably have raised a syntax error too, instead of a NullPointerException:","method_goldset":["org.apache.derby.impl.sql.compile.OrderByList:getResultSetNumber()"],"creation_date":"2012-12-7 04:15:23","resolution_date":"2013-1-2 22:07:00"}
{"id":62,"bug_id":"DERBY-6027","text":"ORDER BY a cast expression gives NPE. The following gives a NPE:  or","method_goldset":["org.apache.derby.impl.sql.compile.OrderByColumn:isReferedColByNum(ValueNode)"],"creation_date":"2012-12-29 20:41:18","resolution_date":"2013-1-8 01:16:13"}
