{"id":82,"bug_id":"2459","text":"Size of file open/save dialogs incorrect on dual displays. The size of the open/save dialog is incorrectly\ncalculated/restored when the dialog is displayed on the\nsecond display on a dual display system (Windows XP). Basically, if the dialog opens on the secondary\ndisplay, then the previous size and position is lost.  If the dialog appears on the primary display, the width\nis correctly calculated/restore from previous settings. If the adjustments are made (with the dialog still on\nthe primary display) then these are correctly restored\non next opening of the dialog.  If the dialog appears on the secondary display,\nprevious size and position settings are lost.   Any resizing of the dialog (with the\ndialog still on the secondary display) is lost the next\ntime it is open.   The\nsize and position settings are restored on next open.","method_goldset":["org.gjt.sp.jedit.GUIUtilities:loadGeometry(Window, String)","org.gjt.sp.jedit.GUIUtilities:saveGeometry(Window, String)"],"creation_date":"2005-9-16 09:15:50","resolution_date":"2006-8-25 17:45:03"}
{"id":83,"bug_id":"2542","text":"Pasting Text Should End Current Undoable Edit. In 4.2final and 4.3pre4, if you type some characters, \npaste some text, and then undo, it undos the typed characters and the \npasted text together.","method_goldset":["org.gjt.sp.jedit.Registers:paste(JEditTextArea, char, boolean)"],"creation_date":"2006-5-27 22:49:10","resolution_date":"2006-5-28 15:33:54"}
{"id":84,"bug_id":"2560","text":"jEdit4.3pre5 file system browser, keyboard handling. When using keyboard to quick select files and\ndirectories in file system browser, letter typed in\nfile system browser also appears as corresponding\nletter in active buffer.","method_goldset":["org.gjt.sp.jedit.browser.BrowserView:BrowserView(VFSBrowser)","org.gjt.sp.jedit.browser.VFSDirectoryEntryTable:processKeyEvent(KeyEvent)"],"creation_date":"2006-7-7 06:59:14","resolution_date":"2006-7-19 18:06:52"}
{"id":85,"bug_id":"2571","text":"Line number not highlighted when the line is selected. \\- When line of text is selected, or part of that line, the number of line is not highlighted in the gutter.","method_goldset":["org.gjt.sp.jedit.search.SearchAndReplace:replace(View)"],"creation_date":"2006-7-17 18:34:33","resolution_date":"2006-7-18 09:55:46"}
{"id":86,"bug_id":"2595","text":"caret/display position w/ multiple views open. If I have 2 views open and both have the same file active(eg foo.txt, line 20 in view 1, line 50 in view 2 , then I switch to a different buffer in one of the views (switch view 1 to bar.txt), when that view switches back to foo.txt, it\u0027s caret/display placement is the same as the other view (ie, before switching to bar.txt, the caret was on line 20, now it is on line 50, where the other view is located as well.)","method_goldset":["org.gjt.sp.jedit.EditPane:loadCaretInfo()","org.gjt.sp.jedit.EditPane:saveCaretInfo()"],"creation_date":"2006-8-2 21:56:35","resolution_date":"2006-8-14 06:14:56"}
{"id":87,"bug_id":"2636","text":"Clearing a Register doesn\u0027t work persistently. Clearing a Register doesn\u0027t work persistently, it \ncomes back on restart of jEdit.","method_goldset":["org.gjt.sp.jedit.Registers:clearRegister(char)","org.gjt.sp.jedit.Registers:getRegisterNameString()"],"creation_date":"2006-8-17 09:22:08","resolution_date":"2006-9-5 09:39:58"}
{"id":88,"bug_id":"2720","text":"FSB delete action on directory not working. FSB delete action invoked on a directory should \nrecursively delete the files and folders it contains \nand not just state \"Cannot delete file\".","method_goldset":["org.gjt.sp.jedit.io.FileVFS:_delete(Object, String, Component)"],"creation_date":"2006-11-9 12:52:48","resolution_date":"2006-11-11 22:05:08"}
{"id":89,"bug_id":"2752","text":"jEdit freezes on regexpr \"||\". ","method_goldset":["org.gjt.sp.jedit.search.SearchAndReplace:_replace(Buffer, SearchMatcher, int, int, boolean)"],"creation_date":"2006-11-23 12:15:33","resolution_date":"2006-12-2 21:47:06"}
