{"codeSnippets": [], "creation_date": "2011-09-29T08:01:56.000-05:00", "description": "repositoryinterfaceawarebeanpostprocessor repositori awar bean post processor getclassforpropertyvalu properti valu repositori load cach concurrenthashmap concurr hash map allow valu", "fixed_files": ["org.springframework.data.repository.core.support.RepositoryInterfaceAwareBeanPostProcessor"], "key": "DATACMNS-81", "original_text": "RepositoryInterfaceAwareBeanPostProcessor potentially suffers from NullPointerException RepositoryInterfaceAwareBeanPostProcessor.getClassForPropertyValue(...) returns null if a repository interface can not be loaded. The caching ConcurrentHashMap does not allow null as values.", "resolution_date": "2011-09-29T09:53:07.000-05:00", "stackTraces": [], "title": "repositoryinterfaceawarebeanpostprocessor repositori awar bean post processor potenti suffer nullpointerexcept pointer"}
{"codeSnippets": [], "creation_date": "2011-10-23T09:08:05.000-05:00", "description": "call verifi persist entiti fail cach call getpersistentent persist entiti thrown verifi call entiti back second call remov entiti cach fail verifi put dummi object map exept getpersistentent persist entiti", "fixed_files": ["org.springframework.data.mapping.model.MutablePersistentEntity", "org.springframework.data.mapping.context.AbstractMappingContext"], "key": "DATACMNS-92", "original_text": "Invalid Entities are placed in the MappingContext - Cache If a call to verify() of an persistent entity fails, it is still in the cache and will be returned on the next call of getPersistentEntity(), so you get the exception thrown by verify() on the first call and get just the entity back on the second call. So we need to remove the entity from the cache after a failed verify(), or put a Null/Dummy object in there that throws the same mapping exeption on getPersistentEntity().", "resolution_date": "2011-12-02T04:04:56.000-06:00", "stackTraces": [], "title": "invalid entiti place mappingcontext map context cach"}
{"codeSnippets": [], "creation_date": "2011-12-05T09:57:35.000-06:00", "description": "repositori interfac annot base declar model creat repositoryfactorysupport repositori factori support gener type repositori proxi gener implement add interfac proxi expos", "fixed_files": ["org.springframework.data.repository.core.support.RepositoryFactorySupportUnitTests", "org.springframework.data.repository.core.support.RepositoryFactorySupport", "org.springframework.data.mapping.model.BeanWrapper"], "key": "DATACMNS-108", "original_text": "RepositoryFactorySupport throws ClassCastException for annotation based repositories Repository interfaces using the annotation based declaration model cannot be created through RepositoryFactorySupport as it's generics are typed to T extends Repository. As the proxy generated might not implement this interface itself we should add it to the interfaces the proxy exposes.", "resolution_date": "2011-12-06T04:45:09.000-06:00", "stackTraces": [], "title": "repositoryfactorysupport repositori factori support classcastexcept cast annot base repositori"}
{"codeSnippets": [], "creation_date": "2011-12-07T10:20:32.000-06:00", "description": "hello unit test spring data common core don't run jdk happen spring data common core depend querydsl version known bug pleas http bug launchpad net querydsl bug issu fix updat depend work fine regard alexey", "fixed_files": ["org.springframework.data.util.TypeVariableTypeInformation"], "key": "DATACMNS-109", "original_text": "Upgrade to latest Querydsl Hello,\nUnit tests against spring-data-commons-core don't run on JDK 1.7. \nIt happens because spring-data-commons-core depends on querydsl 2.2.0 version which has a known bug. Please see https://bugs.launchpad.net/querydsl/+bug/819861\nThis issue was fixed in 2.2.1, so after I updated dependency everything works fine.\nRegards,\nAlexey.", "resolution_date": "2011-12-19T09:13:36.000-06:00", "stackTraces": [], "title": "upgrad latest querydsl"}
{"codeSnippets": [], "creation_date": "2011-12-19T03:21:41.000-06:00", "description": "two repositori similar name suffix repositori custom implement end similar name suffix automat scan repositori custom implement wrong custom implement wire repositori bean result follow caus java lang illegalargumentexcept illeg argument properti find found type com myproject contract org springframework data repositori queri parser properti init properti java org springframework data repositori queri parser properti init properti java org springframework data repositori queri parser properti creat properti java org springframework data repositori queri parser properti creat properti java org springframework data repositori queri parser properti creat properti java org springframework data repositori queri parser properti creat properti java org springframework data repositori queri parser properti creat properti java org springframework data repositori queri parser properti properti java org springframework data repositori queri parser properti properti java org springframework data repositori queri parser part init part java org springframework data repositori queri parser parttre part tree orpart part init parttre part tree java org springframework data repositori queri parser parttre part tree buildtre build tree parttre part tree java org springframework data repositori queri parser parttre part tree init parttre part tree java org springframework data jpa repositori queri parttreejpaqueri part tree jpa queri init parttreejpaqueri part tree jpa queri java org springframework data jpa repositori queri jpaquerylookupstrategi jpa queri lookup strategi createquerylookupstrategi creat queri lookup strategi resolvequeri resolv queri jpaquerylookupstrategi jpa queri lookup strategi java org springframework data jpa repositori queri jpaquerylookupstrategi jpa queri lookup strategi createifnotfoundquerylookupstrategi creat found queri lookup strategi resolvequeri resolv queri jpaquerylookupstrategi jpa queri lookup strategi java org springframework data jpa repositori queri jpaquerylookupstrategi jpa queri lookup strategi abstractquerylookupstrategi queri lookup strategi resolvequeri resolv queri jpaquerylookupstrategi jpa queri lookup strategi java org springframework data repositori core support repositoryfactorysupport repositori factori support queryexecutormethodinterceptor queri executor method interceptor init repositoryfactorysupport repositori factori support java org springframework data repositori core support repositoryfactorysupport repositori factori support getrepositori repositori repositoryfactorysupport repositori factori support java org springframework data repositori core support repositoryfactorybeansupport repositori factori bean support getobject object repositoryfactorybeansupport repositori factori bean support java org springframework data repositori core support repositoryfactorybeansupport repositori factori bean support getobject object repositoryfactorybeansupport repositori factori bean support java org springframework bean factori support factorybeanregistrysupport factori bean registri support dogetobjectfromfactorybean object factori bean factorybeanregistrysupport factori bean registri support java exampl repositori name contractrepositori contract repositori custom contractrepositorycustom contract repositori custom implement contractrepositoryimpl contract repositori impl defin repositori entiti type name anothercontractrepositori contract repositori custom anothercontractrepositorycustom contract repositori custom implement anothercontractrepositoryimpl contract repositori impl start applic context contractrepositori contract repositori bean link anothercontractrepositoryimpl contract repositori impl contractrepositoryimpl contract repositori impl behavior oper system depend occur linux server caus problem found abstractrepositoryconfigdefinitionpars repositori config definit parser detectcustomimplement detect custom implement desir scan getimplementationclassnam implement name appli wildcard prefix", "fixed_files": ["org.springframework.data.repository.config.AbstractRepositoryConfigDefinitionParser"], "key": "DATACMNS-114", "original_text": "Wrong custom implementation automatically detected We have two repositories with a similar name suffix. Both repositories have a custom interface and implementation, also ending with a similar name suffix. When automatically scanning the repositories, and their custom implementation, the wrong custom implementation is wired to our repository bean. Resulting in the following exception:\n\n\n\n\n\n\nCaused by: java.lang.IllegalArgumentException: No property find found for type class com.myproject.Contract\n\n\n\n\n\tat org.springframework.data.repository.query.parser.Property.<init>(Property.java:76)\n\n\n\n\n\tat org.springframework.data.repository.query.parser.Property.<init>(Property.java:97)\n\n\n\n\n\tat org.springframework.data.repository.query.parser.Property.create(Property.java:312)\n\n\n\n\n\tat org.springframework.data.repository.query.parser.Property.create(Property.java:326)\n\n\n\n\n\tat org.springframework.data.repository.query.parser.Property.create(Property.java:326)\n\n\n\n\n\tat org.springframework.data.repository.query.parser.Property.create(Property.java:326)\n\n\n\n\n\tat org.springframework.data.repository.query.parser.Property.create(Property.java:292)\n\n\n\n\n\tat org.springframework.data.repository.query.parser.Property.from(Property.java:251)\n\n\n\n\n\tat org.springframework.data.repository.query.parser.Property.from(Property.java:232)\n\n\n\n\n\tat org.springframework.data.repository.query.parser.Part.<init>(Part.java:48)\n\n\n\n\n\tat org.springframework.data.repository.query.parser.PartTree$OrPart.<init>(PartTree.java:242)\n\n\n\n\n\tat org.springframework.data.repository.query.parser.PartTree.buildTree(PartTree.java:101)\n\n\n\n\n\tat org.springframework.data.repository.query.parser.PartTree.<init>(PartTree.java:77)\n\n\n\n\n\tat org.springframework.data.jpa.repository.query.PartTreeJpaQuery.<init>(PartTreeJpaQuery.java:56)\n\n\n\n\n\tat org.springframework.data.jpa.repository.query.JpaQueryLookupStrategy$CreateQueryLookupStrategy.resolveQuery(JpaQueryLookupStrategy.java:92)\n\n\n\n\n\tat org.springframework.data.jpa.repository.query.JpaQueryLookupStrategy$CreateIfNotFoundQueryLookupStrategy.resolveQuery(JpaQueryLookupStrategy.java:159)\n\n\n\n\n\tat org.springframework.data.jpa.repository.query.JpaQueryLookupStrategy$AbstractQueryLookupStrategy.resolveQuery(JpaQueryLookupStrategy.java:71)\n\n\n\n\n\tat org.springframework.data.repository.core.support.RepositoryFactorySupport$QueryExecutorMethodInterceptor.<init>(RepositoryFactorySupport.java:303)\n\n\n\n\n\tat org.springframework.data.repository.core.support.RepositoryFactorySupport.getRepository(RepositoryFactorySupport.java:157)\n\n\n\n\n\tat org.springframework.data.repository.core.support.RepositoryFactoryBeanSupport.getObject(RepositoryFactoryBeanSupport.java:120)\n\n\n\n\n\tat org.springframework.data.repository.core.support.RepositoryFactoryBeanSupport.getObject(RepositoryFactoryBeanSupport.java:39)\n\n\n\n\n\tat org.springframework.beans.factory.support.FactoryBeanRegistrySupport.doGetObjectFromFactoryBean(FactoryBeanRegistrySupport.java:142)\n\n\n\n\n\t... 67 more\n\n\n\n\n\n\nFor example:\nWe have a repository named ContractRepository with a custom interface ContractRepositoryCustom and an implementation ContractRepositoryImpl, all defined inside the same package. In another package we have a repository, for another entity type, named AnotherContractRepository with a custom interface AnotherContractRepositoryCustom and an implementation AnotherContractRepositoryImpl. When starting the application context, the contractRepository bean is linked to our anotherContractRepositoryImpl rather than the contractRepositoryImpl.\nThis behavior seems to be operating system dependent, as it only occurs on our Linux CI server.\nThe cause of our problem can be found at AbstractRepositoryConfigDefinitionParser.detectCustomImplementation(...). It might be desirable to scan on getImplementationClassName() before applying the wildcard prefix.", "resolution_date": "2011-12-20T03:35:19.000-06:00", "stackTraces": [], "title": "wrong custom implement automat detect"}
{"codeSnippets": [], "creation_date": "2012-01-24T01:19:36.000-06:00", "description": "constructor queryexecutormethodinterceptor queri executor method interceptor tri reject interfac contain queri method querylookupstrategi queri lookup strategi defin unfortun check custom method queri method", "fixed_files": ["org.springframework.data.repository.core.support.QueryExecutorMethodInterceptorUnitTests", "org.springframework.data.repository.core.support.RepositoryFactorySupport"], "key": "DATACMNS-125", "original_text": "QueryExecutorMethodInterceptor does not reject interfaces with query methods if no QueryLookupStrategy defined The constructor of QueryExecutorMethodInterceptor tries to reject interfaces containing query methods if no QueryLookupStrategy is defined. Unfortunately it doesn't as it checks for custom methods instead of query methods.", "resolution_date": "2012-02-02T09:28:19.000-06:00", "stackTraces": [], "title": "queryexecutormethodinterceptor queri executor method interceptor reject interfac queri method querylookupstrategi queri lookup strategi defin"}
{"codeSnippets": [], "creation_date": "2012-01-16T10:17:49.000-06:00", "description": "fix mappedconstructor map constructor getfor spring data mongo hold map paramet mappedparamet map paramet avoid iter mappedparamet map paramet instanc call", "fixed_files": ["org.springframework.data.mapping.PreferredConstructor"], "key": "DATACMNS-120", "original_text": "PreferredConstructor.Parameter does not have equals(...) and hashCode() methods If this is fixed MappedConstructor.getFor(...) in Spring Data Mongo could rather hold a Map of Parameter to MappedParameter to avoid iterating over all MappedParameter instances on each call.", "resolution_date": "2012-04-11T09:25:50.000-05:00", "stackTraces": [], "title": "preferredconstructor prefer constructor paramet equal hashcod hash code method"}
{"codeSnippets": [], "creation_date": "2012-09-21T03:01:18.000-05:00", "description": "align better spring transit webargumentresolv web argument resolv handlermethodargumentresolv handler method argument resolv spring recommend write exist webargumentresolv web argument resolv servletwebargumentresolveradapt servlet web argument resolv adapt add pageabl argument rsolver java config overrid addargumentresolv add argument resolv list handlermethodargumentresolv handler method argument resolv argumentresolv argument resolv argumentresolv argument resolv add servletwebargumentresolveradapt servlet web argument resolv adapt pageableargumentresolv pageabl argument resolv quot servletwebargumentresolveradapt servlet web argument resolv adapt javadoc note provid backward compat recommend write webargumentresolv web argument resolv handlermethodargumentresolv handler method argument resolv detail javadoc abstractwebargumentresolveradapt web argument resolv adapt", "fixed_files": ["org.springframework.data.web.PageableDefaults", "org.springframework.data.web.PageableArgumentResolverUnitTests", "org.springframework.data.web.PageableArgumentResolver"], "key": "DATACMNS-238", "original_text": "Re-write PageableArgumentResolver (WebArgumentResolver) as HandlerMethodArgumentResolver To align better with Spring's transition from WebArgumentResolver to HandlerMethodArgumentResolver (Spring 3.1) it's recommended to re-write existing WebArgumentResolvers.\nNow a ServletWebArgumentResolverAdapter is needed to add the Pageable argument rsolver. In Java config:\n\n\n\n\n\n\n@Override\n\n\n\n\npublic void addArgumentResolvers(List<HandlerMethodArgumentResolver> argumentResolvers) {\n\n\n\n\n\targumentResolvers.add(new ServletWebArgumentResolverAdapter(new PageableArgumentResolver()));\n\n\n\n\n}\n\n\n\n\n\n\nQuoted from this ServletWebArgumentResolverAdapter javadocs:\nNote: This class is provided for backwards compatibility. However it is recommended to re-write a WebArgumentResolver as HandlerMethodArgumentResolver. For more details see javadoc of AbstractWebArgumentResolverAdapter.", "resolution_date": "2012-10-09T00:26:14.000-05:00", "stackTraces": [], "title": "write pageableargumentresolv pageabl argument resolv webargumentresolv web argument resolv handlermethodargumentresolv handler method argument resolv"}
{"codeSnippets": [], "creation_date": "2011-12-21T07:33:22.000-06:00", "description": "recommend implement webargumentresolv web argument resolv type handlermethodargumentresolv handler method argument resolv spring webargumentresolv web argument resolv adapt transpar contract javadoc abstractwebargumentresolveradapt web argument resolv adapt indic handlermethodargumentresolv handler method argument resolv supportsparamet support paramet methodparamet method paramet method implement actual call webargumentresolv web argument resolv resolv check valu unresolv occur check isn't clear failur paramet support real failur result absorb resolv given chanc", "fixed_files": ["org.springframework.data.web.PageableDefaults", "org.springframework.data.web.PageableArgumentResolverUnitTests", "org.springframework.data.web.PageableArgumentResolver"], "key": "DATACMNS-117", "original_text": "Add HandlerMethodArgumentResolver alternative to the PageableArgumentResolver It is recommended to re-implement WebArgumentResolver types as HandlerMethodArgumentResolver in Spring 3.1. Although a WebArgumentResolver is adapted transparently to the new contract, as the javadoc for AbstractWebArgumentResolverAdapter indicates, a HandlerMethodArgumentResolver.supportsParameter(MethodParameter) method can only be implemented by actually calling WebArgumentResolver.resolve() and checking if the return value is UNRESOLVED. If an exception occurs during that check, it isn't clear if the failure is because the parameter can not be supported or whether there was some other real failure. As a result the exception has to be absorbed and other resolvers given a chance instead.", "resolution_date": "2013-02-12T08:42:47.000-06:00", "stackTraces": [], "title": "add handlermethodargumentresolv handler method argument resolv altern pageableargumentresolv pageabl argument resolv"}
