{"id":67,"bug_id":"18","text":"NPE in DateTimeZoneBuilder. ","class_goldset":["org.joda.time.tz.ZoneInfoCompiler"],"method_goldset":["org.joda.time.tz.ZoneInfoCompiler:\u003cclinit0\u003e"],"creation_date":"2013-4-19 08:28:47","resolution_date":"2013-4-19 14:48:33"}
{"id":68,"bug_id":"21","text":"DateTimeFormat.parseInto sometimes miscalculates year (2.2). ","class_goldset":["org.joda.time.format.DateTimeFormatter"],"method_goldset":["org.joda.time.format.DateTimeFormatter:parseInto(ReadWritableInstant, String, int)"],"creation_date":"2013-5-3 21:03:46","resolution_date":"2013-7-21 00:13:03"}
{"id":69,"bug_id":"22","text":"Days#daysBetween throw exception for MonthDay with 29 February. ","class_goldset":["org.joda.time.base.BaseSingleFieldPeriod"],"method_goldset":["org.joda.time.base.BaseSingleFieldPeriod:between(ReadablePartial, ReadablePartial, ReadablePeriod)"],"creation_date":"2013-5-7 14:19:36","resolution_date":"2013-6-16 10:28:45"}
{"id":70,"bug_id":"28","text":"Questionable behaviour of GJChronology when dates pass 1BC. ","class_goldset":["org.joda.time.chrono.GJChronology"],"method_goldset":["org.joda.time.chrono.GJChronology:getInstance(DateTimeZone, ReadableInstant, int)","org.joda.time.chrono.GJChronology:add(long, long)","org.joda.time.chrono.GJChronology:add(long, int)"],"creation_date":"2013-5-31 00:52:24","resolution_date":"2013-8-16 13:42:26"}
{"id":71,"bug_id":"43","text":"Ensure there is a max/min valid offset. ","class_goldset":["org.joda.time.DateTimeZone"],"method_goldset":["org.joda.time.DateTimeZone:forOffsetHoursMinutes(int, int)","org.joda.time.DateTimeZone:forOffsetMillis(int)"],"creation_date":"2013-7-20 09:23:26","resolution_date":"2013-7-20 11:08:53"}
{"id":72,"bug_id":"77","text":"addDays(0) changes value of MutableDateTime. ","class_goldset":["org.joda.time.MutableDateTime"],"method_goldset":["org.joda.time.MutableDateTime:add(DurationFieldType, int)","org.joda.time.MutableDateTime:addWeeks(int)","org.joda.time.MutableDateTime:addYears(int)","org.joda.time.MutableDateTime:addMonths(int)","org.joda.time.MutableDateTime:addMinutes(int)","org.joda.time.MutableDateTime:addHours(int)","org.joda.time.MutableDateTime:addWeekyears(int)","org.joda.time.MutableDateTime:addDays(int)","org.joda.time.MutableDateTime:addSeconds(int)","org.joda.time.MutableDateTime:addMillis(int)"],"creation_date":"2013-10-16 15:36:22","resolution_date":"2013-11-27 12:50:47"}
{"id":73,"bug_id":"79","text":"none standard PeriodType without year throws exception. ","class_goldset":["org.joda.time.Period"],"method_goldset":["org.joda.time.Period:normalizedStandard(PeriodType)"],"creation_date":"2013-10-17 20:36:31","resolution_date":"2013-11-1 14:07:10"}
{"id":74,"bug_id":"88","text":"Constructing invalid Partials. ","class_goldset":["org.joda.time.Partial"],"method_goldset":["org.joda.time.Partial:with(DateTimeFieldType, int)"],"creation_date":"2013-11-25 19:15:46","resolution_date":"2013-11-27 12:50:47"}
{"id":75,"bug_id":"93","text":"Partial.with fails with NPE. ","class_goldset":["org.joda.time.Partial;org.joda.time.field.UnsupportedDurationField"],"method_goldset":["org.joda.time.Partial:Partial(DateTimeFieldType[], int[], Chronology)","org.joda.time.field.UnsupportedDurationField:compareTo(DurationField)"],"creation_date":"2013-12-1 09:33:58","resolution_date":"2013-12-2 19:14:54"}
