{"key":"DERBY-5251","title":"make ErrorCodeTest pass in non-English locale","description":"test_errorcode(org.apache.derbyTesting.functionTests.tests.lang.ErrorCodeTest\n)"}
{"key":"DERBY-6150","title":"Add automatic cleanup of connections opened with openDefaultConnection()","description":"It would be good to clean up all the connections in tearDown()\n. openDefaultConnection()  tearDown()"}
{"key":"DERBY-3024","title":"Validation of shared plans hurts scalability","description":"To investigate whether there was anything in the SQL execution layer that prevented scaling on a multi-CPU machine, I wrote a multi-threaded test which continuously executed \"VALUES 1\" using a PreparedStatement. I ran the test on a machine with 8 CPUs and expected the throughput to be proportional to the number of concurrent clients up to 8 clients (the same as the number of CPUs). However, the throughput only had a small increase from 1 to 2 clients, and adding more clients did not increase the throughput. Looking at the test in a profiler, it seems like the threads are spending a lot of time waiting to enter synchronization blocks in GenericPreparedStatement.upToDate() and BaseActivation.checkStatementValidity() (both of which are synchronized on the a GenericPreparedStatement object).    We should try to find a way to make the scalability the same regardless of whether or not the threads share the same plan. GenericPreparedStatement.upToDate()  BaseActivation.checkStatementValidity()"}
{"key":"DERBY-6053","title":"Client should use a prepared statement rather than regular statement for Connection.setTransactionIsolation","description":"It would be better for performance and also for avoid possible garbage collection issues, to have a single prepared statement with a parameter marker.                                                                                                     client.am.Connection setTransactionIsolation()  setTransactionIsolation()   private Statement setTransactionIsolationStmt \u003d null;\n createStatementX(java.sql.ResultSet.TYPE_FORWARD_ONLY,\n                            java.sql.ResultSet.CONCUR_READ_ONLY,\n                            holdability());\n private void setTransactionIsolationX(int level)\n setTransactionIsolationStmt.executeUpdate(\n                \"SET CURRENT ISOLATION \u003d \" + levelString);\n\n\n \n\nimport java.sql.*;\nimport java.net.*;\nimport java.io.*;\nimport org.apache.derby.drda.NetworkServerControl;\n\n/**\n * Client template starts its own NetworkServer and runs some SQL against it.\n * The SQL or JDBC API calls can be modified to reproduce issues\n * \n */public class SetTransactionIsolation {\n    public static Statement s;\n    \n    public static void main(String[] args) throws Exception {\n        try {\n            // Load the driver. Not needed for network server.\n            \n            Class.forName(\"org.apache.derby.jdbc.ClientDriver\");\n            // Start Network Server\n            startNetworkServer();\n            // If connecting to a customer database. Change the URL\n            Connection conn \u003d DriverManager\n                    .getConnection(\"jdbc:derby://localhost:1527/wombat;create\u003dtrue\");\n            // clean up from a previous run\n            s \u003d conn.createStatement();\n            try {\n                s.executeUpdate(\"DROP TABLE T\");\n            } catch (SQLException se) {\n                if (!se.getSQLState().equals(\"42Y55\"))\n                    throw se;\n            }\n\n            for (int i \u003d 0; i \u003c 50000; i++) {\n\t\tconn.setTransactionIsolation(Connection.TRANSACTION_REPEATABLE_READ);\n\t\tconn.setTransactionIsolation(Connection.TRANSACTION_SERIALIZABLE);\n\n\t    }\n            \n            // rs.close();\n            // ps.close();\n            runtimeInfo();\n            conn.close();\n            // Shutdown the server\n            shutdownServer();\n        } catch (SQLException se) {\n            while (se !\u003d null) {\n                System.out.println(\"SQLState\u003d\" + se.getSQLState()\n                        + se.getMessage());\n                se.printStackTrace();\n                se \u003d se.getNextException();\n            }\n        }\n    }\n    \n    /**\n     * starts the Network server\n     * \n     */\n    public static void startNetworkServer() throws SQLException {\n        Exception failException \u003d null;\n        try {\n            \n            NetworkServerControl networkServer \u003d new NetworkServerControl(\n                    InetAddress.getByName(\"localhost\"), 1527);\n            \n            networkServer.start(new PrintWriter(System.out));\n            \n            // Wait for the network server to start\n            boolean started \u003d false;\n            int retries \u003d 10; // Max retries \u003d max seconds to wait\n            \n            while (!started \u0026\u0026 retries \u003e 0) {\n                try {\n                    // Sleep 1 second and then ping the network server\n                    Thread.sleep(1000);\n                    networkServer.ping();\n                    \n                    // If ping does not throw an exception the server has\n                    // started\n                    started \u003d true;\n                } catch (Exception e) {\n                    retries--;\n                    failException \u003d e;\n                }\n                \n            }\n            \n            // Check if we got a reply on ping\n            if (!started) {\n                throw failException;\n            }\n        } catch (Exception e) {\n            SQLException se \u003d new SQLException(\"Error starting network  server\");\n            se.initCause(failException);\n            throw se;\n        }\n    }\n    \n    public static void shutdownServer() throws Exception {\n        NetworkServerControl networkServer \u003d new NetworkServerControl(\n                InetAddress.getByName(\"localhost\"), 1527);\n        networkServer.shutdown();\n    }\n    \n    public static void runtimeInfo() throws Exception {\n        NetworkServerControl networkServer \u003d new NetworkServerControl(\n                InetAddress.getByName(\"localhost\"), 1527);\n        System.out.println(networkServer.getRuntimeInfo());\n    }\n    \n}"}
