{"key":"AMQP-290","title":"Rabbit namespace little bug, when using reference to queueArgumentsMap","description":"I am using some queues like that:    I wanted to use:     But this doesn\u0027t work: my queues are not created with the dead letter.   And when using:    It works fine (but my Intellij complains: element entry not allowed here) I think both way should work. XSD documentation says: ref \u003d The bean name of the Map to pass to the broker when this component is declared."}
{"key":"AMQP-340","title":"Wrong RabbitMQ credentials are not considered as fatal error by SimpleMessageListenerContainer","description":"If I connect an AmqpInboundChannelAdapter to the RabbitMQ (3.1.0) with wrong credentials (wrong password) the SimpleMessageListenerContainer doesn\u0027t detect the real reason and continues to restart the consumer in a seemingly endless loop. As AmqpInboundChannelAdapter user, I don\u0027t notice (except if I turn on debug logging level) any problem, its start() method returns after a pause with no error, but the connection remains not established. It would be nice to have a notification (exception) about wrong credentials right away (there is a comprehensive rabbit client exception that gets swallowed in SimpleMessageListenerContainer.run())"}
{"key":"AMQP-516","title":"Setting autoDelete or exclusive to anything, including \"true\" in @Queue without a queue name results in them being disabled","description":"The following queue declaration will result in a queue being declared with auto delete and exclusive set to false:                       Making them exclusive and auto delete by default when using a random name seems like a good idea, but it should probably be changed to something like:"}
