{"id":5192,"bug_id":"COMPRESS-309","text":"BZip2CompressorInputStream return value wrong when told to read to a full buffer.. BZip2CompressorInputStream.read(buffer, offset, length) returns -1 when given an offset equal to the length of the buffer. This indicates, not that the buffer was full, but that the stream was finished.                        // Fails, returns -1 (indicating the stream is complete rather than that the buffer // was full)      BZip2CompressorInputStream.read(buffer, offset, length)  @Test\n\n\tpublic void testApacheCommonsBZipUncompression () throws Exception {\n\n\t\t// Create a big random piece of data\n\n\t\tbyte[] rawData \u003d new byte[1048576];\n\n\t\tfor (int i\u003d0; i\u003crawData.length; ++i) {\n\n\t\t\trawData[i] \u003d (byte) Math.floor(Math.random()*256);\n\n\t\t}\n\n\n\n\t\t// Compress it\n\n\t\tByteArrayOutputStream baos \u003d new ByteArrayOutputStream();\n\n\t\tBZip2CompressorOutputStream bzipOut \u003d new BZip2CompressorOutputStream(baos);\n\n\t\tbzipOut.write(rawData);\n\n\t\tbzipOut.flush();\n\n\t\tbzipOut.close();\n\n\t\tbaos.flush();\n\n\t\tbaos.close();\n\n\n\n\t\t// Try to read it back in\n\n\t\tByteArrayInputStream bais \u003d new ByteArrayInputStream(baos.toByteArray());\n\n\t\tBZip2CompressorInputStream bzipIn \u003d new BZip2CompressorInputStream(bais);\n\n\t\tbyte[] buffer \u003d new byte[1024];\n\n\t\t// Works fine\n\n\t\tAssert.assertEquals(1024, bzipIn.read(buffer, 0, 1024));\n\n\t\t// Fails, returns -1 (indicating the stream is complete rather than that the buffer \n\n\t\t// was full)\n\n\t\tAssert.assertEquals(0, bzipIn.read(buffer, 1024, 0));\n\n\t\t// But if you change the above expected value to -1, the following line still works\n\n\t\tAssert.assertEquals(1024, bzipIn.read(buffer, 0, 1024));\n\n\t\tbzipIn.close();\n\n\t}","file_goldset":["org.apache.commons.compress.compressors.bzip2.BZip2CompressorInputStream"],"creation_date":"2015-02-18T17:22:16.000-06:00","resolution_date":"2015-02-20T16:18:29.000-06:00"}
{"id":5193,"bug_id":"COMPRESS-209","text":"DOC is incorrectly recognized as TAR. Empty DOC is autodetected as TAR by ArchiveStreamFactory.createArchiveInputStream(InputStream). ArchiveStreamFactory.createArchiveInputStream(InputStream)","file_goldset":["org.apache.commons.compress.archivers.ArchiveStreamFactoryTest"],"creation_date":"2012-11-01T17:37:59.000-05:00","resolution_date":"2012-11-01T18:03:10.000-05:00"}
{"id":5194,"bug_id":"COMPRESS-189","text":"ZipArchiveInputStream may read 0 bytes when reading from a nested Zip file. When the following code is run an error \"Underlying input stream returned zero bytes\" is produced. If the commented line is uncommented it can be seen that the ZipArchiveInputStream returned 0 bytes.    Also I believe whilst ZipFile can iterate over entries fast due to being able to look at the master table whilst ZipArchiveInputStream cannot.                 ZipFile zipFile \u003d new ZipFile(\"C:/test.ZIP\");\n    for (Enumeration\u003cZipArchiveEntry\u003e iterator \u003d zipFile.getEntries(); iterator.hasMoreElements(); ) {\n      ZipArchiveEntry entry \u003d iterator.nextElement();\n      InputStream is \u003d new BufferedInputStream(zipFile.getInputStream(entry));\n      ZipArchiveInputStream zipInput \u003d new ZipArchiveInputStream(is);\n      ZipArchiveEntry innerEntry;\n      while ((innerEntry \u003d zipInput.getNextZipEntry()) !\u003d null){\n        if (innerEntry.getName().endsWith(\"XML\"))\n{\n\n          //zipInput.read();\n\n          System.out.println(IOUtils.toString(zipInput));\n\n        }\n      }\n    }","file_goldset":["org.apache.commons.compress.archivers.zip.ZipArchiveInputStreamTest","org.apache.commons.compress.archivers.zip.ZipArchiveInputStream"],"creation_date":"2012-06-26T21:30:39.000-05:00","resolution_date":"2012-12-28T06:55:18.000-06:00"}
