{"id":5354,"bug_id":"DATAMONGO-938","text":"Exception when creating geo within Criteria using MapReduce. I am getting an IllegalArgumentException when I try to query a MongoDB collection using a Criteria.within and a Box.   The exception reads:  Criteria.where(\"location\") within(new Box(lowerLeft, upperRight));","file_goldset":["org.springframework.data.mongodb.core.mapreduce.MapReduceTests","org.springframework.data.mongodb.core.MongoTemplate"],"creation_date":"2014-05-21T06:09:48.000-05:00","resolution_date":"2014-06-17T22:56:12.000-05:00"}
{"id":5355,"bug_id":"DATAMONGO-969","text":"String @id field is not mapped to ObjectId when using QueryDSL .id.in(Collection\u003cString\u003e). This is translating to $in clause with empty collection eq()  in() @Document\n\n\n\n\npublic class User {\n\n\n\n\n    @Id String id;\n\n\n\n\n}\n\n\n\n\n\n\n\n\n\n Collection\u003cString\u003e collection \u003d new ArrayList\u003c\u003e();\n\n\n\n\ncollection.add(\"abcdef.....\");\n\n\n\n\nIterable\u003cUser\u003e user \u003d userRepository.findAll(QUser.user.id.in(collection));","file_goldset":["org.springframework.data.mongodb.repository.support.SpringDataMongodbSerializerUnitTests","org.springframework.data.mongodb.repository.support.SpringDataMongodbSerializer","org.springframework.data.mongodb.repository.AbstractPersonRepositoryIntegrationTests"],"creation_date":"2014-06-26T16:28:13.000-05:00","resolution_date":"2014-07-09T12:48:45.000-05:00"}
{"id":5356,"bug_id":"DATAMONGO-987","text":"Problem with lazy loading in @DBRef when getting data using MongoTemplate. assertNull(persisted.getChild()); // it fails    I attached a project with the JUnit test which reproduces the problem for you. @Document @Document\n\n\n\n\nclass Parent {\n\n\n\n\n     @Id\n\n\n\n\n     private String id;\n\n\n\n\n     private String name;\n\n\n\n\n     @DBref(lazy\u003dtrue)\n\n\n\n\n     private Child child;\n\n\n\n\n\n\n\n\n\n    // getters and setters ommited\n\n\n\n\n}\n\n\n\n\n\n\n @Document\n\n\n\n\nclass Child {\n\n\n\n\n      @Id\n\n\n\n\n       private String id;\n\n\n\n\n       private String name;\n\n\n\n\n      //getters and setters ommited\n\n\n\n\n}\n\n\n\n\n\n\n Parent parent \u003d new Parent();\n\n\n\n\nparent.setName(\"Daddy\");\n\n\n\n\nmongoTemplate.save(parent); //ok, it is persisted like we expected.\n\n\n\n\n// Than we try to load this same entity from the database\n\n\n\n\nCriteria criteria \u003d Criteria.where(\"_id\").is(parent.getId());\n\n\n\n\nParent persisted \u003d mongoTemplate.findOne(new Query(criteria), Parent.class);\n\n\n\n\n// The child attribute should be null, right?\n\n\n\n\nassertNull(persisted.getChild()); // it fails","file_goldset":["org.springframework.data.mongodb.core.convert.MappingMongoConverter","org.springframework.data.mongodb.core.convert.DbRefMappingMongoConverterUnitTests"],"creation_date":"2014-07-14T12:01:52.000-05:00","resolution_date":"2014-07-17T06:20:13.000-05:00"}
