{"id":5449,"bug_id":"WFCORE-1027","text":"Inconsistent read-resource results with host scoped roles. When using a role which only selects the master there is no access-control response header showing the filtered resources, and the slave wrongly appears in the results:                                                              When using a role that only selects the slave we get a proper access-control header                                                                                 {roles\u003dmaster-monitor}\n\n\n\n\n {\n\n\n\n\n                \"directory-grouping\" \u003d\u003e \"by-server\",\n\n\n\n\n                \"domain-controller\" \u003d\u003e {\"local\" \u003d\u003e {} {\"org.jboss.as.jmx\" \u003d\u003e undefined} {\n\n\n\n\n                    \"management\" \u003d\u003e undefined,\n\n\n\n\n                    \"public\" \u003d\u003e undefined,\n\n\n\n\n                    \"unsecure\" \u003d\u003e undefined\n\n\n\n\n                } {\"default\" \u003d\u003e undefined} {\"jmx\" \u003d\u003e undefined} {roles\u003dslave-maintainer}\n\n\n\n\n {roles\u003dslave-maintainer}\n\n\n\n\n {\"org.jboss.as.jmx\" \u003d\u003e undefined} {\n\n\n\n\n                \"management\" \u003d\u003e undefined,\n\n\n\n\n                \"public\" \u003d\u003e undefined,\n\n\n\n\n                \"unsecure\" \u003d\u003e undefined\n\n\n\n\n            } {\"default\" \u003d\u003e undefined} {\"jmx\" \u003d\u003e undefined}","file_goldset":["org.jboss.as.test.integration.domain.rbac.ListRoleNamesTestCase","org.jboss.as.test.integration.domain.rbac.WildcardReadsTestCase","org.jboss.as.test.integration.domain.rbac.JmxRBACProviderHostScopedRolesTestCase","org.jboss.as.test.integration.domain.rbac.RBACProviderHostScopedRolesTestCase","org.jboss.as.test.integration.domain.rbac.AbstractHostScopedRolesTestCase","org.jboss.as.controller.operations.global.GlobalOperationHandlers"],"creation_date":"2015-10-01T18:16:10.000-05:00","resolution_date":"2015-10-06T16:00:01.000-05:00"}
{"id":5450,"bug_id":"WFCORE-716","text":"Once server in reload-required state capabilities no longer checked at stage Model.. Once a server is in the state reload-required capabilities and requirements are no longer checked e.g.: -                    When I execute :reload it will fail: -       attribute(name\u003dsecurity-realm)\n\n\n\n\n {\n\n\n\n\n    \"outcome\" \u003d\u003e \"success\",\n\n\n\n\n    \"response-headers\" \u003d\u003e {\n\n\n\n\n        \"operation-requires-reload\" \u003d\u003e true,\n\n\n\n\n        \"process-state\" \u003d\u003e \"reload-required\"\n\n\n\n\n    }\n\n\n\n\n attribute(name\u003dsecurity-domain, value\u003dMgMtDom)\n\n\n\n\n {\n\n\n\n\n    \"outcome\" \u003d\u003e \"success\",\n\n\n\n\n    \"response-headers\" \u003d\u003e {\n\n\n\n\n        \"operation-requires-reload\" \u003d\u003e true,\n\n\n\n\n        \"process-state\" \u003d\u003e \"reload-required\"\n\n\n\n\n    }","file_goldset":["org.jboss.as.controller.CapabilityReferenceRecorder"],"creation_date":"2015-05-27T10:21:36.000-05:00","resolution_date":"2015-06-10T13:09:19.000-05:00"}
{"id":5451,"bug_id":"WFCORE-1114","text":"NPE in DeploymentStatusHandler. Saw an NPE in a test run. This is because AbstractDeploymentUnitService.getStatus() references the possibly null \u0027monitor\u0027 field.                                                        AbstractDeploymentUnitService.getStatus()  TransformListener()","file_goldset":["org.jboss.as.server.deployment.AbstractDeploymentUnitService"],"creation_date":"2015-11-06T02:08:35.000-06:00","resolution_date":"2016-03-18T17:45:32.000-05:00"}
{"id":5452,"bug_id":"WFCORE-989","text":"Premature registration of reconnecting server. ServerInventoryImpl.reconnectServer is registering the ProxyController for the reconnecting server with the DomainModelControllerService. The problem is that ProxyController is not yet in a state where it can forward requests to the server. That won\u0027t happen until the server calls back with a DomainServerProtocol.SERVER_RECONNECT_REQUEST and the ServerToHostProtocolHandler.ServerReconnectRequestHandler handles it. The effect is if a request for the server comes in during this window, it will fail.   Most significant logging is as follows:             The HC completes boot. Then servers main-three and other-two register. The HC sends a prepared response to a request. This is the host rollout request to the slave from the DC with the response being the ops to invoke on the servers. The HC reports sending a \"pre-prepare failed response\" to two requests. These are the requests the DC has asked it to proxy to the servers. The result of all this for the client is the following failure of a management op: Failed operation:     Response:                                The \"WFLYHC0153: Channel closed\" failure is what is produced when an attempt is made to invoke on a disconnected proxy controller. {\"server-group\" \u003d\u003e {\n\n\n\n\n        \"main-server-group\" \u003d\u003e {\"host\" \u003d\u003e {\"slave\" \u003d\u003e {\"main-three\" \u003d\u003e \"WFLYHC0153: Channel closed\"}","file_goldset":["org.jboss.as.host.controller.ServerInventoryImpl","org.jboss.as.host.controller.mgmt.ServerToHostProtocolHandler"],"creation_date":"2015-09-19T03:11:07.000-05:00","resolution_date":"2015-10-23T17:03:25.000-05:00"}
{"id":5453,"bug_id":"WFCORE-815","text":"One profile can have more ancestors with same submodules. One profile can have more ancestors with same submodules. It leads to WFLYCTL0212: Duplicate resource [(\"subsystem\" \u003d\u003e \"subsystem_name\")] .                                    add(name\u003dincludes, value\u003dmail-01)\n add(name\u003dincludes, value\u003dmail-02)\n\n {\n\n\n\n\n    \"outcome\" \u003d\u003e \"failed\",\n\n\n\n\n    \"failure-description\" \u003d\u003e {\"domain-failure-description\" \u003d\u003e \"WFLYCTL0401: Profile \u0027mail-01\u0027 defines subsystem \u0027mail\u0027 which is also defined in its ancestor profile \u0027mail-02\u0027. Overriding subsystems is not supported\"} add(name\u003dincludes, value\u003dmail-01)\n add(name\u003dincludes, value\u003dmail-02)","file_goldset":["org.jboss.as.host.controller.logging.HostControllerLogger","org.jboss.as.domain.controller.operations.SocketBindingGroupIncludesHandlerTestCase","org.jboss.as.domain.controller.operations.ProfileIncludesHandlerTestCase"],"creation_date":"2015-07-13T07:57:45.000-05:00","resolution_date":"2015-07-15T13:34:32.000-05:00"}
{"id":5454,"bug_id":"WFCORE-922","text":"Remove unneeded cloning of model nodes when persisting the kernel configs. In the kernel part of domain.xml, host.xml and standalone.xml marshaling look to eliminate use of ModelNode.asPropertyList(), at least from spots where the ModelNode may be a large data structure. The asPropertyList() call results in a potentially expensive clone of data. ModelNode.asPropertyList() The asPropertyList()","file_goldset":["org.jboss.as.host.controller.parsing.HostXml_4","org.jboss.as.host.controller.parsing.DomainXml_4","org.jboss.as.domain.management.parsing.ManagementXml_4","org.jboss.as.server.parsing.StandaloneXml_4"],"creation_date":"2015-08-26T21:07:03.000-05:00","resolution_date":"2015-08-28T22:36:44.000-05:00"}
{"id":5455,"bug_id":"WFCORE-955","text":"Server is not responding after attempt to set parent of profile to non-existent profile. Server is not responding after attempt to set parent of profile to non-existent profile. Server is not responding also after attempt to set parent of socket-binding-group to non-existent socket-binding-group.                 Actual results:                               add()\n {\n\n\n\n\n    \"outcome\" \u003d\u003e \"failed\",\n\n\n\n\n    \"failure-description\" \u003d\u003e \"java.lang.NullPointerException:null\"\n\n\n\n\n}\n\n\n\n\n add()","file_goldset":["org.jboss.as.controller.logging.ControllerLogger","org.jboss.as.controller.OperationContextImpl","org.jboss.as.controller.AbstractOperationContext","org.jboss.as.controller.capability.registry.IncludingResourceCapabilityScope","org.jboss.as.controller.SocketCapabilityResolutionUnitTestCase","org.jboss.as.controller.AbstractCapabilityResolutionTestCase"],"creation_date":"2015-08-27T14:34:07.000-05:00","resolution_date":"2015-09-04T13:33:34.000-05:00"}
{"id":5456,"bug_id":"WFCORE-876","text":"Reload or Shutdown inside IF statement is performed before the if/else block batch is executed. Executing a reload or shutdown inside an if/else block results in the reload or restart occurring before the other commands in the batch are executed.     This command will actually leave the server in a reload-required state. The shutdown, or reload, will occur before the write-attribute is executed. resource()","file_goldset":["org.jboss.as.cli.handlers.ifelse.IfElseControlFlow","org.jboss.as.cli.handlers.trycatch.TryCatchFinallyControlFlow","org.jboss.as.test.integration.management.cli.TryCatchFinallyTestCase","org.jboss.as.test.integration.management.cli.ifelse.NonExistingPathComparisonTestCase","org.jboss.as.test.integration.management.cli.ifelse.BasicIfElseTestCase"],"creation_date":"2015-08-12T07:52:43.000-05:00","resolution_date":"2015-09-18T13:23:39.000-05:00"}
{"id":5457,"bug_id":"WFCORE-1028","text":"Poor handling of invalid roles. A CLI request with an invalid value in the \"roles\" header results in improper behavior:       The op should fail because the role doesn\u0027t exist, but there is no failure-description. The following is dumped in the HC log:                                  {roles\u003dslave-monitor}","file_goldset":["org.jboss.as.controller.logging.ControllerLogger","org.jboss.as.controller.operations.global.GlobalOperationHandlers","org.jboss.as.test.integration.domain.ServerManagementTestCase","org.jboss.as.controller.access.rbac.RoleMapper"],"creation_date":"2015-10-01T19:12:08.000-05:00","resolution_date":"2016-04-16T11:14:27.000-05:00"}
{"id":5458,"bug_id":"WFCORE-949","text":"Removing http-interface autocompletes but fails. Executing /core-service\u003dmanagement/management-interface\u003dhttp-interface:remove() autocompletes but does not succeed.   remove()","file_goldset":["org.jboss.as.subsystem.test.AdditionalInitialization","org.wildfly.core.test.standalone.mgmt.HTTPSManagementInterfaceTestCase","org.jboss.as.jmx.RemotingConnectorResource","org.jboss.as.server.operations.HttpManagementRemoveHandler","org.jboss.as.host.controller.resources.NativeManagementResourceDefinition","org.jboss.as.test.integration.domain.HTTPSManagementInterfaceTestCase","org.jboss.as.server.operations.NativeRemotingManagementRemoveHandler","org.jboss.as.server.operations.NativeManagementRemoveHandler","org.jboss.as.host.controller.resources.HttpManagementResourceDefinition","org.wildfly.core.test.standalone.mgmt.HTTPSConnectionWithCLITestCase","org.jboss.as.remoting.management.ManagementRemotingServices","org.jboss.as.remoting.logging.RemotingLogger","org.jboss.as.server.mgmt.NativeManagementResourceDefinition","org.jboss.as.host.controller.operations.HttpManagementRemoveHandler","org.jboss.as.server.mgmt.HttpManagementResourceDefinition"],"creation_date":"2015-09-03T05:08:35.000-05:00","resolution_date":"2015-09-21T18:59:23.000-05:00"}
{"id":5459,"bug_id":"WFCORE-1007","text":"Warnings about missing notification descriptions when an operation removes an extension. When I use migration operation the console log is filled with warning messages of type                       then I the log looks like                                                                                                                      migrate()\n\n\n\n\n {\n\n\n\n\n    \"outcome\" \u003d\u003e \"success\",\n\n\n\n\n    \"result\" \u003d\u003e {\"migration-warnings\" \u003d\u003e []}\n\n\n\n\n migrate()\n\n\n\n\n {\n\n\n\n\n    \"outcome\" \u003d\u003e \"success\",\n\n\n\n\n    \"result\" \u003d\u003e {\"migration-warnings\" \u003d\u003e []}\n\n\n\n\n migrate()\n\n\n\n\n {\n\n\n\n\n    \"outcome\" \u003d\u003e \"success\",\n\n\n\n\n    \"result\" \u003d\u003e {\"migration-warnings\" \u003d\u003e []}","file_goldset":["org.jboss.as.controller.logging.ControllerLogger","org.jboss.as.controller.AbstractOperationContext"],"creation_date":"2015-09-24T06:45:11.000-05:00","resolution_date":"2015-09-25T15:39:44.000-05:00"}
