system;bugId;has_ob;has_eb;has_sr;has_other;has_code
apache-nutch-1.8;NUTCH-1262;x;x;x;x;x
eclipse-2.0;31779;x;x;x;x;x
commons-math-3-3.0;MATH-718;x;x;x;x;x
openjpa-2.0.1;OPENJPA-1896;x;x;;x;x
openjpa-2.0.1;OPENJPA-1627;x;x;x;x;x
mahout-0.8;MAHOUT-1317;x;x;x;x;x
apache-nutch-2.1;NUTCH-1393;x;x;x;x;x
derby-10.9.1.0;DERBY-6150;x;x;;x;x
openjpa-2.0.1;OPENJPA-1918;x;x;;x;x
commons-math-3-3.0;MATH-778;x;x;;;x
commons-math-3-3.0;MATH-905;x;x;;x;x
