system;bugId;has_ob;has_eb;has_sr;has_other;has_code
atunes-1.10.0;220;x;;x;;
eclipse-2.0;15277;x;;;x;x
openjpa-2.0.1;OPENJPA-1784;x;;x;x;x
bookkeeper-4.1.0;BOOKKEEPER-514;x;;;x;
bookkeeper-4.1.0;BOOKKEEPER-326;x;;;x;
openjpa-2.0.1;OPENJPA-526;x;;x;x;x
eclipse-2.0;31779;x;x;x;x;x
mahout-0.8;MAHOUT-1345;x;;;x;
adempiere-3.1.0;106;x;;;x;
mahout-0.8;MAHOUT-1030;x;x;x;x;
commons-math-3-3.0;MATH-915;x;;;x;x
apache-nutch-1.8;NUTCH-1262;x;x;x;x;x
derby-10.9.1.0;DERBY-6009;x;x;x;x;
mahout-0.4;MAHOUT-564;x;;;;
atunes-1.10.0;230;x;;;x;
mahout-0.4;MAHOUT-565;x;;;x;
mahout-0.8;MAHOUT-1261;x;;;x;x
openjpa-2.0.1;OPENJPA-1793;x;;;x;x
apache-nutch-1.8;NUTCH-1399;x;;;;
jedit-4.2;2459;x;;x;x;
eclipse-2.0;16787;x;;;x;x
derby-10.9.1.0;DERBY-6027;x;;x;x;
tika-1.3;TIKA-1109;x;x;x;x;
adempiere-3.1.0;109;x;;x;x;
mahout-0.8;MAHOUT-1349;x;;x;x;x
bookkeeper-4.1.0;BOOKKEEPER-524;x;;;x;
bookkeeper-4.1.0;BOOKKEEPER-327;x;;;x;x
atunes-1.10.0;231;x;;x;x;x
derby-10.9.1.0;DERBY-4279;x;;;x;
mahout-0.4;MAHOUT-569;x;;x;x;
tika-1.3;TIKA-1110;x;;;x;
derby-10.9.1.0;DERBY-6064;x;;;x;
mahout-0.8;MAHOUT-1285;x;;;x;
mahout-0.8;MAHOUT-1358;x;;x;x;x
bookkeeper-4.1.0;BOOKKEEPER-55;x;;;x;x
apache-nutch-2.1;NUTCH-1393;x;x;x;x;x
openjpa-2.0.1;OPENJPA-1810;x;;;x;
bookkeeper-4.1.0;BOOKKEEPER-337;x;;;x;
jedit-4.2;2542;x;x;x;x;
atunes-1.10.0;240;x;;x;x;
adempiere-3.1.0;113;x;;;x;
mahout-0.4;MAHOUT-604;x;;;;
eclipse-2.0;17707;x;x;x;;
derby-10.9.1.0;DERBY-5424;x;;;x;x
apache-nutch-2.1;NUTCH-1484;x;;;x;x
derby-10.9.1.0;DERBY-6073;x;;;x;x
jedit-4.2;2560;x;;x;x;
commons-math-3-3.0;MATH-718;x;x;x;x;x
openjpa-2.0.1;OPENJPA-1830;x;;;x;x
adempiere-3.1.0;114;x;;;x;
atunes-1.10.0;245;x;;x;;
mahout-0.8;MAHOUT-1301;x;;x;x;x
mahout-0.8;MAHOUT-1368;x;;;x;
bookkeeper-4.1.0;BOOKKEEPER-355;x;;;x;x
tika-1.3;TIKA-1124;x;;;x;
mahout-0.4;MAHOUT-610;x;;;x;
derby-10.9.1.0;DERBY-5561;x;;;x;
apache-nutch-2.1;NUTCH-1552;x;;x;;
commons-math-3-3.0;MATH-775;x;x;x;;
jedit-4.2;2571;x;x;x;x;
adempiere-3.1.0;116;x;;;x;
derby-10.9.1.0;DERBY-6089;x;;;x;x
bookkeeper-4.1.0;BOOKKEEPER-371;x;;;x;x
mahout-0.4;MAHOUT-625;x;x;x;x;
eclipse-2.0;19307;x;x;;x;
atunes-1.10.0;260;x;;;x;
openjpa-2.0.1;OPENJPA-1837;x;;;x;
tika-1.3;TIKA-1130;x;;;x;
derby-10.9.1.0;DERBY-5663;x;;;x;x
mahout-0.8;MAHOUT-1314;x;;x;x;x
jedit-4.2;2595;x;;x;x;
commons-math-3-3.0;MATH-778;x;x;;;x
apache-nutch-2.1;NUTCH-1563;x;;;;
derby-10.9.1.0;DERBY-6092;x;;;x;x
adempiere-3.1.0;1240;x;;x;x;x
mahout-0.8;MAHOUT-1409;x;x;;x;
mahout-0.4;MAHOUT-632;x;;;x;
bookkeeper-4.1.0;BOOKKEEPER-387;x;;x;x;x
atunes-1.10.0;264;x;;;x;
eclipse-2.0;19686;x;x;x;x;
tika-1.3;TIKA-1152;x;;;x;x
openjpa-2.0.1;OPENJPA-1865;x;;;x;
atunes-1.10.0;207;x;;x;x;
commons-math-3-3.0;MATH-779;x;x;x;;
adempiere-3.1.0;37;x;;;x;
jedit-4.2;2636;x;;;x;
mahout-0.8;MAHOUT-1317;x;x;x;x;x
openjpa-2.0.1;OPENJPA-1613;x;;;x;x
mahout-0.4;MAHOUT-641;x;;;;x
bookkeeper-4.1.0;BOOKKEEPER-447;x;x;;x;
derby-10.9.1.0;DERBY-5816;x;;;x;x
derby-10.9.1.0;DERBY-6094;x;;;x;
atunes-1.10.0;278;x;;x;x;
eclipse-2.0;19691;x;;;x;
tika-1.3;TIKA-1192;x;;;x;x
openjpa-2.0.1;OPENJPA-1896;x;x;;x;x
mahout-0.8;MAHOUT-1319;x;;x;;
atunes-1.10.0;212;x;;x;x;
commons-math-3-3.0;MATH-782;x;x;;;
jedit-4.2;2720;x;x;;x;
adempiere-3.1.0;814;x;;x;;
openjpa-2.0.1;OPENJPA-1627;x;x;x;x;x
mahout-0.4;MAHOUT-678;x;;;x;
bookkeeper-4.1.0;BOOKKEEPER-491;x;;;x;
derby-10.9.1.0;DERBY-5911;x;x;x;x;
tika-1.3;TIKA-1211;x;;;x;
openjpa-2.0.1;OPENJPA-1904;x;;;x;
commons-math-3-3.0;MATH-841;x;;x;x;x
atunes-1.10.0;281;x;;;x;x
eclipse-2.0;19976;x;x;x;x;
atunes-1.10.0;213;x;x;x;x;
derby-10.9.1.0;DERBY-6147;x;;;x;
mahout-0.8;MAHOUT-1320;x;;;x;x
jedit-4.2;2752;x;;x;x;
openjpa-2.0.1;OPENJPA-1743;x;;;x;
adempiere-3.1.0;815;x;;;x;
bookkeeper-4.1.0;BOOKKEEPER-498;x;;;x;
derby-10.9.1.0;DERBY-5912;x;;;x;x
bookkeeper-4.1.0;BOOKKEEPER-294;x;;;x;x
openjpa-2.0.1;OPENJPA-1918;x;x;;x;x
commons-math-3-3.0;MATH-905;x;x;;x;x
eclipse-2.0;22809;x;;x;x;
derby-10.9.1.0;DERBY-6150;x;x;;x;x
openjpa-2.0.1;OPENJPA-1762;x;x;x;x;
mahout-0.8;MAHOUT-1336;x;;;x;x
mahout-0.4;MAHOUT-526;x;;;;
adempiere-3.1.0;820;x;;;x;
derby-10.9.1.0;DERBY-5951;x;;x;x;x
eclipse-2.0;23140;x;x;x;x;
openjpa-2.0.1;OPENJPA-1943;x;;;x;
eclipse-2.0;13926;x;;;x;x
openjpa-2.0.1;OPENJPA-1765;x;;;x;
derby-10.9.1.0;DERBY-6008;x;x;x;x;
eclipse-2.0;30644;x;;;x;
