system;bugId;has_ob;has_eb;has_sr;has_other;has_code
eclipse-2.0;31779;x;x;x;x;x
mahout-0.8;MAHOUT-1030;x;x;x;x;
apache-nutch-1.8;NUTCH-1262;x;x;x;x;x
derby-10.9.1.0;DERBY-6009;x;x;x;x;
tika-1.3;TIKA-1109;x;x;x;x;
eclipse-2.0;17707;x;x;x;;
derby-10.9.1.0;DERBY-5911;x;x;x;x;
mahout-0.4;MAHOUT-625;x;x;x;x;
jedit-4.2;2542;x;x;x;x;
commons-math-3-3.0;MATH-718;x;x;x;x;x
mahout-0.8;MAHOUT-1409;x;x;;x;
bookkeeper-4.1.0;BOOKKEEPER-447;x;x;;x;
openjpa-2.0.1;OPENJPA-1896;x;x;;x;x
apache-nutch-2.1;NUTCH-1393;x;x;x;x;x
jedit-4.2;2571;x;x;x;x;
commons-math-3-3.0;MATH-775;x;x;x;;
eclipse-2.0;19307;x;x;;x;
openjpa-2.0.1;OPENJPA-1627;x;x;x;x;x
mahout-0.8;MAHOUT-1317;x;x;x;x;x
derby-10.9.1.0;DERBY-6150;x;x;;x;x
openjpa-2.0.1;OPENJPA-1918;x;x;;x;x
derby-10.9.1.0;DERBY-6008;x;x;x;x;
jedit-4.2;2720;x;x;;x;
commons-math-3-3.0;MATH-778;x;x;;;x
eclipse-2.0;19686;x;x;x;x;
openjpa-2.0.1;OPENJPA-1762;x;x;x;x;
atunes-1.10.0;213;x;x;x;x;
commons-math-3-3.0;MATH-779;x;x;x;;
eclipse-2.0;19976;x;x;x;x;
commons-math-3-3.0;MATH-782;x;x;;;
eclipse-2.0;23140;x;x;x;x;
commons-math-3-3.0;MATH-905;x;x;;x;x
