system;bugId;has_ob;has_eb;has_sr;has_other;has_code
eclipse-2.0;31779;x;x;x;x;x
openjpa-2.0.1;OPENJPA-1784;x;;x;x;x
atunes-1.10.0;220;x;;x;;
derby-10.9.1.0;DERBY-6009;x;x;x;x;
openjpa-2.0.1;OPENJPA-526;x;;x;x;x
eclipse-2.0;17707;x;x;x;;
apache-nutch-2.1;NUTCH-1393;x;x;x;x;x
mahout-0.8;MAHOUT-1349;x;;x;x;x
adempiere-3.1.0;109;x;;x;x;
bookkeeper-4.1.0;BOOKKEEPER-337;x;;;x;
commons-math-3-3.0;MATH-718;x;x;x;x;x
mahout-0.8;MAHOUT-1301;x;;x;x;x
mahout-0.4;MAHOUT-569;x;;x;x;
jedit-4.2;2459;x;;x;x;
derby-10.9.1.0;DERBY-6027;x;;x;x;
derby-10.9.1.0;DERBY-5911;x;x;x;x;
atunes-1.10.0;231;x;;x;x;x
tika-1.3;TIKA-1109;x;x;x;x;
mahout-0.8;MAHOUT-1358;x;;x;x;x
apache-nutch-2.1;NUTCH-1552;x;;x;;
commons-math-3-3.0;MATH-779;x;x;x;;
derby-10.9.1.0;DERBY-5951;x;;x;x;x
eclipse-2.0;19686;x;x;x;x;
bookkeeper-4.1.0;BOOKKEEPER-387;x;;x;x;x
adempiere-3.1.0;1240;x;;x;x;x
mahout-0.4;MAHOUT-625;x;x;x;x;
jedit-4.2;2542;x;x;x;x;
atunes-1.10.0;240;x;;x;x;
mahout-0.8;MAHOUT-1314;x;;x;x;x
commons-math-3-3.0;MATH-841;x;;x;x;x
openjpa-2.0.1;OPENJPA-1627;x;x;x;x;x
atunes-1.10.0;207;x;;x;x;
adempiere-3.1.0;814;x;;x;;
jedit-4.2;2560;x;;x;x;
eclipse-2.0;19976;x;x;x;x;
atunes-1.10.0;245;x;;x;;
mahout-0.8;MAHOUT-1319;x;;x;;
atunes-1.10.0;212;x;;x;x;
jedit-4.2;2571;x;x;x;x;
openjpa-2.0.1;OPENJPA-1762;x;x;x;x;
eclipse-2.0;22809;x;;x;x;
atunes-1.10.0;213;x;x;x;x;
atunes-1.10.0;278;x;;x;x;
eclipse-2.0;23140;x;x;x;x;
jedit-4.2;2595;x;;x;x;
jedit-4.2;2752;x;;x;x;
