system;bugId;has_ob;has_eb;has_sr;has_other;has_code
eclipse-2.0;31779;x;x;x;x;x
openjpa-2.0.1;OPENJPA-1784;x;;x;x;x
apache-nutch-2.1;NUTCH-1393;x;x;x;x;x
mahout-0.8;MAHOUT-1301;x;;x;x;x
atunes-1.10.0;231;x;;x;x;x
mahout-0.8;MAHOUT-1349;x;;x;x;x
openjpa-2.0.1;OPENJPA-526;x;;x;x;x
commons-math-3-3.0;MATH-718;x;x;x;x;x
adempiere-3.1.0;1240;x;;x;x;x
bookkeeper-4.1.0;BOOKKEEPER-387;x;;x;x;x
derby-10.9.1.0;DERBY-5951;x;;x;x;x
mahout-0.8;MAHOUT-1358;x;;x;x;x
mahout-0.8;MAHOUT-1314;x;;x;x;x
commons-math-3-3.0;MATH-841;x;;x;x;x
openjpa-2.0.1;OPENJPA-1627;x;x;x;x;x
