system;bugId;has_ob;has_eb;has_sr;has_other;has_code
bookkeeper-4.1.0;BOOKKEEPER-318;;;;x;x
apache-nutch-1.8;NUTCH-1262;x;x;x;x;x
eclipse-2.0;31779;x;x;x;x;x
mahout-0.8;MAHOUT-1261;x;;;x;x
eclipse-2.0;15277;x;;;x;x
openjpa-2.0.1;OPENJPA-526;x;;x;x;x
commons-math-3-3.0;MATH-915;x;;;x;x
openjpa-2.0.1;OPENJPA-1784;x;;x;x;x
mahout-0.8;MAHOUT-1349;x;;x;x;x
atunes-1.10.0;231;x;;x;x;x
bookkeeper-4.1.0;BOOKKEEPER-55;x;;;x;x
bookkeeper-4.1.0;BOOKKEEPER-327;x;;;x;x
derby-10.9.1.0;DERBY-6073;x;;;x;x
adempiere-3.1.0;1240;x;;x;x;x
apache-nutch-2.1;NUTCH-1393;x;x;x;x;x
eclipse-2.0;16787;x;;;x;x
commons-math-3-3.0;MATH-718;x;x;x;x;x
openjpa-2.0.1;OPENJPA-1793;x;;;x;x
mahout-0.4;MAHOUT-641;x;;;;x
tika-1.3;TIKA-1152;x;;;x;x
mahout-0.8;MAHOUT-1358;x;;x;x;x
derby-10.9.1.0;DERBY-5424;x;;;x;x
mahout-0.8;MAHOUT-1301;x;;x;x;x
apache-nutch-2.1;NUTCH-1484;x;;;x;x
bookkeeper-4.1.0;BOOKKEEPER-355;x;;;x;x
atunes-1.10.0;281;x;;;x;x
commons-math-3-3.0;MATH-778;x;x;;;x
tika-1.3;TIKA-1192;x;;;x;x
derby-10.9.1.0;DERBY-6089;x;;;x;x
openjpa-2.0.1;OPENJPA-1830;x;;;x;x
bookkeeper-4.1.0;BOOKKEEPER-371;x;;;x;x
derby-10.9.1.0;DERBY-5663;x;;;x;x
bookkeeper-4.1.0;BOOKKEEPER-294;x;;;x;x
openjpa-2.0.1;OPENJPA-1613;x;;;x;x
mahout-0.8;MAHOUT-1308;;;;x;x
derby-10.9.1.0;DERBY-6092;x;;;x;x
commons-math-3-3.0;MATH-841;x;;x;x;x
bookkeeper-4.1.0;BOOKKEEPER-387;x;;x;x;x
mahout-0.8;MAHOUT-1314;x;;x;x;x
derby-10.9.1.0;DERBY-5816;x;;;x;x
openjpa-2.0.1;OPENJPA-1896;x;x;;x;x
openjpa-2.0.1;OPENJPA-1627;x;x;x;x;x
commons-math-3-3.0;MATH-905;x;x;;x;x
derby-10.9.1.0;DERBY-6150;x;x;;x;x
mahout-0.8;MAHOUT-1317;x;x;x;x;x
openjpa-2.0.1;OPENJPA-1918;x;x;;x;x
derby-10.9.1.0;DERBY-5912;x;;;x;x
eclipse-2.0;13926;x;;;x;x
mahout-0.8;MAHOUT-1320;x;;;x;x
derby-10.9.1.0;DERBY-5951;x;;x;x;x
mahout-0.8;MAHOUT-1336;x;;;x;x
