{"id":4423,"bug_id":"DATAMONGO-467","text":"String @id field is not mapped to ObjectId when using QueryDSL \".id\" path. Using this entity (@Document) definition with a String as the declared ID:    and the following query  Always returns null for a repository find. Looking at the mongoDb query log (mongod -v) it appears that the spring-data-mongodb/QueryDSL layers are not translating the String 4f43b6a384aea4e77d403709 to ObjectId(\"4f43b6a384aea4e77d403709\") as one would normally do in the mongo shell. @Document @Id String id;\n\n\n\n\n\n\n QUser.id.eq(\"4f43b6a384aea4e77d403709\")","file_goldset":["org.springframework.data.mongodb.repository.support.SpringDataMongodbSerializerUnitTests"],"creation_date":"2012-06-24T08:58:49.000-05:00","resolution_date":"2012-06-25T04:13:59.000-05:00"}
{"id":4424,"bug_id":"DATAMONGO-938","text":"Exception when creating geo within Criteria using MapReduce. I am getting an IllegalArgumentException when I try to query a MongoDB collection using a Criteria.within and a Box.   The exception reads:  Criteria.where(\"location\") within(new Box(lowerLeft, upperRight));","file_goldset":["org.springframework.data.mongodb.core.mapreduce.MapReduceTests","org.springframework.data.mongodb.core.MongoTemplate"],"creation_date":"2014-05-21T06:09:48.000-05:00","resolution_date":"2014-06-17T22:56:12.000-05:00"}
{"id":4425,"bug_id":"DATAMONGO-1263","text":"Missing indexes in associations involving generic types. When an association between documents involves generic types, the type information is not correctly inferred at startup time resulting in missing indexes.  Given:  When defining a class Catalog with a list of \"wrapped\" books:  The index \"name\" inherited from AbstractProduct is created (book2.content.name) inside \"catalog\" , but the index defined on the Book class itself (isbn) is not created as Spring Data Mongo is only inferring type infromation from the ProductWrapper class definition (ProductWrapper \u003cT extends AbstractProduct\u003e).  If the wrapper class is defined as ProductWrapper\u003cT\u003e, then no indexes are created at all on Catalog.books2.content. class Book  class AbstractProduct  class ProductWrapper  class Catalog","file_goldset":["org.springframework.data.mongodb.core.index.MongoPersistentEntityIndexResolverUnitTests","org.springframework.data.mongodb.core.index.MongoPersistentEntityIndexResolver"],"creation_date":"2015-07-30T09:03:41.000-05:00","resolution_date":"2015-11-09T19:09:44.000-06:00"}
{"id":4426,"bug_id":"DATAMONGO-1290","text":"@Query annotation with byte[] parameter does not work. ... but only the first works. Please find an example project with test attached! Optional\u003cSampleDomainObject\u003e findBySampleData(byte[] sampleDate) @Query(\"{ \u0027sampleData\u0027 : ?0 }\")\n\n\n\n\nOptional\u003cSampleDomainObject\u003e findBySampleDateWithAnnotation(byte[] sampleData)","file_goldset":["org.springframework.data.mongodb.repository.query.StringBasedMongoQuery","org.springframework.data.mongodb.repository.query.StringBasedMongoQueryUnitTests"],"creation_date":"2015-09-17T15:30:23.000-05:00","resolution_date":"2015-11-20T12:25:32.000-06:00"}
{"id":4427,"bug_id":"DATAMONGO-505","text":"Conversion of associations doesn\u0027t work for collection values. Assume you have the following scenario:            The execution of findByProperty() will fail as the given array (or collection) is not correctly translated into a collection of DBRefs. The reason is that ConvertingIterator treats the value as is and wants to create a DBRef from it.  class Entity {\n\n\n\n\n\n\n\n\n\n  Long id;\n\n\n\n\n  @DBRef\n\n\n\n\n  Property property;\n\n\n\n\n}\n\n\n\n\n\n\n\n\n\n class Property {\n\n\n\n\n  Long id;\n\n\n\n\n}\n\n\n\n\n\n\n\n\n\n interface EntityRepository extends Repository\u003cEntity, Long\u003e {\n\n\n\n\n\n\n\n\n\n  Entity findByPropertyIn(Property... property);\n\n\n\n\n}\n\n\n\n\n\n\n findByProperty()","file_goldset":["org.springframework.data.mongodb.repository.query.ConvertingParameterAccessorUnitTests","org.springframework.data.mongodb.repository.query.ConvertingParameterAccessor"],"creation_date":"2012-08-14T03:07:56.000-05:00","resolution_date":"2012-08-15T10:09:59.000-05:00"}
{"id":4428,"bug_id":"DATAMONGO-952","text":"@Query annotation does not work with only field restrictions. If you are using repository based queries and try to use @Query annotation to limit the fetched fields, it has zero effect. For example repository query:   The query above returns all fields of the User and the fields definition has no effect at all. If you are using @Query with value attribute to define the query, then the fields limitation is applied though. @Query @Query(fields \u003d \"{ \u0027email\u0027 : 1 }\")\n\n\n\n\nUser findByEmail(String email)\n\n\n\n\n\n\n @Query","file_goldset":["org.springframework.data.mongodb.repository.query.PartTreeMongoQuery"],"creation_date":"2014-06-10T22:45:47.000-05:00","resolution_date":"2014-06-18T03:56:07.000-05:00"}
{"id":4429,"bug_id":"DATAMONGO-1289","text":"NullPointerException when saving an object with no \"id\" field or @Id annotation. Instead of this, I\u0027m seeing a NullPointerException when attempting to save an object that doesn\u0027t have an \"id\" field or an @Id annotated field.  @Id","file_goldset":["org.springframework.data.mongodb.repository.support.MongoRepositoryFactory","org.springframework.data.mongodb.repository.support.MappingMongoEntityInformation"],"creation_date":"2015-09-17T11:43:51.000-05:00","resolution_date":"2015-12-16T10:47:48.000-06:00"}
{"id":4430,"bug_id":"DATAMONGO-523","text":"@TypeAlias annotation not used with AbstractMongoConfiguration . When using the AbstractMongoConfiguration without any further modifications regarding the converter (afterMappingMongoConverterCreation) the @TypeAlias annotation is not used when writing the _class property. Seems like it always uses the SimpleTypeInformationMapper.  @TypeAlias @Document @TypeAlias","file_goldset":["org.springframework.data.mongodb.core.convert.MappingMongoConverterUnitTests"],"creation_date":"2012-09-01T03:39:51.000-05:00","resolution_date":"2012-09-03T06:26:10.000-05:00"}
{"id":4431,"bug_id":"DATAMONGO-987","text":"Problem with lazy loading in @DBRef when getting data using MongoTemplate. The situation is simple: if we reference on an entity class another entity (both annotated with @Document) called Parent and Child. Here is the code:                      // Than we try to load this same entity from the database     assertNull(persisted.getChild()); // it fails    I attached a project with the JUnit test which reproduces the problem for you. @Document @Document\n\n\n\n\nclass Parent {\n\n\n\n\n     @Id\n\n\n\n\n     private String id;\n\n\n\n\n     private String name;\n\n\n\n\n     @DBref(lazy\u003dtrue)\n\n\n\n\n     private Child child;\n\n\n\n\n\n\n\n\n\n    // getters and setters ommited\n\n\n\n\n}\n\n\n\n\n\n\n @Document\n\n\n\n\nclass Child {\n\n\n\n\n      @Id\n\n\n\n\n       private String id;\n\n\n\n\n       private String name;\n\n\n\n\n      //getters and setters ommited\n\n\n\n\n}\n\n\n\n\n\n\n Parent parent \u003d new Parent();\n\n\n\n\nparent.setName(\"Daddy\");\n\n\n\n\nmongoTemplate.save(parent); //ok, it is persisted like we expected.\n\n\n\n\n// Than we try to load this same entity from the database\n\n\n\n\nCriteria criteria \u003d Criteria.where(\"_id\").is(parent.getId());\n\n\n\n\nParent persisted \u003d mongoTemplate.findOne(new Query(criteria), Parent.class);\n\n\n\n\n// The child attribute should be null, right?\n\n\n\n\nassertNull(persisted.getChild()); // it fails","file_goldset":["org.springframework.data.mongodb.core.convert.MappingMongoConverter","org.springframework.data.mongodb.core.convert.DbRefMappingMongoConverterUnitTests"],"creation_date":"2014-07-14T12:01:52.000-05:00","resolution_date":"2014-07-17T06:20:13.000-05:00"}
{"id":4432,"bug_id":"DATAMONGO-1360","text":"Cannot query with JSR310. I have a MongoDb document I successfully store using Spring Data MongoDb. It looks like this:       When I create a custom Criteria query that looks like this:   The resulting MongoDb query looks like this:  It consequently fails with this message:   It does not fail when I use a java.util.Date in my query even though I have stilled persisted my document with a java.time.LocalDateTime object. The query then looks slightly different like this:      query.addCriteria(where(\"createdDate\").lte(LocalDateTime.now()));","file_goldset":["org.springframework.data.mongodb.core.MongoTemplate","org.springframework.data.mongodb.core.geo.AbstractGeoSpatialTests","org.springframework.data.mongodb.core.Venue"],"creation_date":"2016-01-16T07:47:34.000-06:00","resolution_date":"2016-01-20T14:42:07.000-06:00"}
{"id":4433,"bug_id":"DATAMONGO-585","text":"Exception during authentication in multithreaded access. Specifically what can be used for a test case is use a ThreadPoolExecutor, set a minpool and maxpool value of 5, add 25 objects to be executed. Those objects are a class which implements Runnable. Those objects each then perform a bunch of inserts into mongoDB using a DocumentDao which calls mongoOperations.insert.  class which implements Runnable.  \nThose","file_goldset":["org.springframework.data.mongodb.core.MongoDbUtils"],"creation_date":"2012-12-01T08:28:43.000-06:00","resolution_date":"2012-12-03T02:47:10.000-06:00"}
{"id":4434,"bug_id":"DATAMONGO-1288","text":"Update.inc(String, Number) method fails to work with AtomicInteger. Even though the org.springframework.data.mongodb.core.query.Update.inc(String, Number) method takes the parameter as Number, it doesn\u0027t actually work right with things that aren\u0027t simple primitive object wrappers. For example, if you pass in an AtomicInteger, the update fails to execute, as the generated json isn\u0027t correct. org.springframework.data.mongodb.core.query.Update.inc(String, Number)","file_goldset":["org.springframework.data.mongodb.core.convert.CustomConversions","org.springframework.data.mongodb.core.convert.MongoConverters","org.springframework.data.mongodb.core.convert.UpdateMapperUnitTests"],"creation_date":"2015-09-16T23:51:16.000-05:00","resolution_date":"2016-02-11T13:09:46.000-06:00"}
{"id":4435,"bug_id":"DATAMONGO-1068","text":"elemMatch of Class Criteria fails to build special cirteria. There is an entity like this:     I need to issue a criteria to fetch all documents in which none of elements of occupied falls into a specified date range. The query JSON is:           Then, I tried on       But the serialization to JSON for c is:         It seems that c1 will be explained to empty Map by invoking elemMatch(Criteria) because I haven\u0027t assign a key to it.  public class Room {\n\n\n\n\n\t\tprivate String name;\n\n\n\n\n\t\tprivate List\u003cDate\u003e occupied;\n\n\n\n\n\t}\n\n\n\n\n\n\n {\n\n\n\n\n\t\toccupied : {\n\n\n\n\n\t\t\t$not : {\n\n\n\n\n\t\t\t\t$elemMatch : {\n\n\n\n\n\t\t\t\t\t$gte : start,\n\n\n\n\n\t\t\t\t\t$lte : end\n\n\n\n\n\t\t\t\t}\n\n\n\n\n\t\t\t}\n\n\n\n\n\t\t}\n\n\n\n\n\t}\n\n\n\n\n\n\n Criteria c1 \u003d new Criteria().gte(start).lte(end);\n\n\n\n\n\tCriteria c \u003d Criteria.where(\"occupied\").not().elemMatch(c1);\n\n\n\n\n\n\n {\n\n\n\n\n\toccupied : {\n\n\n\n\n\t\t$not : {\n\n\n\n\n\t\t\t$elemMatch : {\n\n\n\n\n\t\t\t}\n\n\n\n\n\t\t}\n\n\n\n\n\t}\n\n\n\n\n}\n\n\n\n\n\n\n elemMatch(Criteria)","file_goldset":["org.springframework.data.mongodb.core.query.Criteria","org.springframework.data.mongodb.core.query.CriteriaTests"],"creation_date":"2014-10-08T19:43:32.000-05:00","resolution_date":"2014-10-21T03:27:47.000-05:00"}
{"id":4436,"bug_id":"DATAMONGO-629","text":"Different results when using count and find with the same criteria with \u0027id\u0027 field. Assume we have following query:   mongoTemplate.find(q,java.util.HashMap.class,\u0027test\u0027) gives following query (peeked in mongo console):             The same query, when used in count (mongoTemplate.count(q,\u0027test\u0027)) gives:                  This is inconsistent since we could have records with field id and they will be retrieved properly from the db. Count on the other hand will give bad results since it uses _id field.  This is probably the cause of the strange behaviour because find() method does not use QueryMapper and count() does. Query q \u003d query {\n\n\n\n\n\t\t\"id\" : /zzz/\n\n\n\n\n\t} {\n\n\n\n\n\t\t\"count\" : \"test\",\n\n\n\n\n\t\t\"query\" : {\n\n\n\n\n\t\t\t\"_id\" : /zzz/\n\n\n\n\n\t\t}\n\n\n\n\n\t find()  count()","file_goldset":["org.springframework.data.mongodb.core.convert.QueryMapper","org.springframework.data.mongodb.core.MongoTemplateTests","org.springframework.data.mongodb.core.convert.QueryMapperUnitTests","org.springframework.data.mongodb.core.mapping.MongoMappingContext"],"creation_date":"2013-03-22T04:08:25.000-05:00","resolution_date":"2013-03-27T04:22:53.000-05:00"}
{"id":4437,"bug_id":"DATAMONGO-571","text":"Spring Data for MongoDb doesn\u0027t save null values when @Version is added to domain class . 1. Domain class is loaded from mongodb using CrudRepository.findOne() method. 2. The loaded instances any non id nor @Version annotated field is set to null. 3. The loaded instance is saved to same mongodb using CrudRepository.save() method. 4. The field that has been set to null doesnt write to database, its unchanged.  Scenario CrudRepository.findOne()  @Version CrudRepository.save()  @Version","file_goldset":["org.springframework.data.mongodb.core.MongoTemplateTests","org.springframework.data.mongodb.core.query.Update"],"creation_date":"2012-11-09T08:00:10.000-06:00","resolution_date":"2013-04-11T03:05:45.000-05:00"}
{"id":4438,"bug_id":"DATAMONGO-1050","text":"SimpleMongoRepository.findById(id, class)  don\u0027t return ids for nested documents.. SimpleMongoRepository.findById(id, class)  don\u0027t return ids for nested documents. E.g.         When it return B documents, innerDocs A objects have id \u003d\u003d null.       class A {\n\n\n\n\n private String id; //stored in mongo as \"id\"\n\n\n\n\n private String name;\n\n\n\n\n}\n\n\n\n\n\n\n\n\n\n class B {\n\n\n\n\n  private String id; // stored in mongo as \"_id\"\n\n\n\n\n  private List\u003cA\u003e innerDocs;\n\n\n\n\n}\n\n\n\n\n\n\n @Data @NoArgsConstructor","file_goldset":["org.springframework.data.mongodb.core.mapping.BasicMongoPersistentPropertyUnitTests","org.springframework.data.mongodb.core.convert.QueryMapperUnitTests","org.springframework.data.mongodb.core.convert.MappingMongoConverterUnitTests","org.springframework.data.mongodb.core.mapping.BasicMongoPersistentProperty"],"creation_date":"2014-09-09T03:41:12.000-05:00","resolution_date":"2014-11-10T07:19:13.000-06:00"}
{"id":4439,"bug_id":"DATAMONGO-1438","text":"I get a warning in my logs since switched to Spring Data MongoDB Hopper-SR1 Release Train in Spring Boot 1.3.5. When I start my Spring Boot 1.3.5 application with no custom conversions and with Spring Data MongoDB Release Train Hopper-SR1 I get following warning in my logs:     I have alle my Domain classes they are saved in MongoDB annotated with @Document (see DATAMONGO-1413) @Document","file_goldset":["org.springframework.data.mongodb.core.convert.MongoConvertersUnitTests","org.springframework.data.mongodb.core.convert.MongoConverters"],"creation_date":"2016-05-26T14:01:14.000-05:00","resolution_date":"2016-05-26T14:03:47.000-05:00"}
{"id":4440,"bug_id":"DATAMONGO-1078","text":"@Query annotated repository query fails to map complex Id structure.. StringBasedMongoQuery converts any complex object to the according mongo type including type restrictions via _class. Therefore annotated queries like:    end up being converted to:   @Query(\"{\u0027_id\u0027: {$in: ?0}}\")\n\n\n\n\nList\u003cUser\u003e findByUserIds(Collection\u003cMyUserId\u003e userIds) {$in: [ {_class:\"com.sampleuser.MyUserId\", userId:\"....\", sampleId:\"....\"}","file_goldset":["org.springframework.data.mongodb.core.MongoTemplate","org.springframework.data.mongodb.core.convert.MappingMongoConverter"],"creation_date":"2014-10-28T02:23:26.000-05:00","resolution_date":"2014-11-10T07:42:07.000-06:00"}
{"id":4441,"bug_id":"DATAMONGO-1394","text":"References not handled correctly when using QueryDSL. Trying to use eq on reference\u0027s $id, with no luck. This is an example code:               List\u003cBook\u003e list \u003d bookRepository.findAll(exp);  // EMPTY Doing:      or:   public class Book {\n\n\n\n\n     @DBRef\n\n\n\n\n     private Library library;\n\n\n\n\n} \n\n\n\n\n\n\n\n\n\n\n\n\n public class Library {\n\n\n\n\n     @Id\n\n\n\n\n     private String id;\n\n\n\n\n}\n\n\n\n\n\n\n\n\n\n\n\n\n ;\n\n\n\n\nQBook book \u003d QBook.book;\n\n\n\n\nBooleanExpression exp \u003d book.library.id.eq(library_id);\n\n\n\n\n    \n\n\n\n\nList\u003cBook\u003e list \u003d bookRepository.findAll(exp);  // EMPTY\n\n\n\n\n\n\n Library library \u003d libraryRepository.findById(library_id);\n\n\n\n\nQBook book \u003d QBook.book;\n\n\n\n\nBooleanExpression exp \u003d book.library.eq(library);\n\n\n\n\n\n\n\n\n\nList\u003cBook\u003e list \u003d bookRepository.findAll(exp);  // EXPECTED ITEMS\n\n\n\n\n\n\n List\u003cBook\u003e list \u003d bookRepository.findByLibraryId(library_id) // EXPECTED ITEMS","file_goldset":["org.springframework.data.mongodb.repository.support.SpringDataMongodbSerializer","org.springframework.data.mongodb.repository.support.QuerydslRepositorySupportTests"],"creation_date":"2016-03-09T10:36:46.000-06:00","resolution_date":"2016-07-27T09:01:01.000-05:00"}
{"id":4442,"bug_id":"DATAMONGO-688","text":"There is no precedence between @Id annotation and field named \"id\" - both are attempted to be used. If you have a domain class with an attribute named \"id\", even if you annotate a DIFFERENT field with \"@Id\", spring-data-mongo errors trying to map 2 things to the id. While the error is correct in that you can\u0027t have 2, it surprises me that one doesn\u0027t take precedence over the other.   @Id","file_goldset":["org.springframework.data.mongodb.core.mapping.MongoPersistentProperty","org.springframework.data.mongodb.core.mapping.MongoMappingContextUnitTests","org.springframework.data.mongodb.core.mapping.BasicMongoPersistentEntity","org.springframework.data.mongodb.core.mapping.BasicMongoPersistentProperty"],"creation_date":"2013-06-03T14:11:53.000-05:00","resolution_date":"2013-07-08T03:12:11.000-05:00"}
{"id":4443,"bug_id":"DATAMONGO-1088","text":"@Query $in does not remove \"_class\" property on collection of embedded objects . Following method on repository    generates incorrect query.    I attached test project demonstrating this bug.  @Query(value \u003d \"{ embedded : { $in : ?0} }\")\n\n\n\n\n\tList\u003cFoo\u003e findByEmbeddedIn2(Collection\u003cEmbeddedObject\u003e c)","file_goldset":["org.springframework.data.mongodb.core.MongoTemplate","org.springframework.data.mongodb.core.convert.MappingMongoConverter"],"creation_date":"2014-11-07T03:08:58.000-06:00","resolution_date":"2014-11-12T23:11:42.000-06:00"}
{"id":4444,"bug_id":"DATAMONGO-1406","text":"Query mapper does not use @Field field name when querying nested fields in combination with nested keywords. we have a document class;                  In MongoTemplate.java, the call to :    resolves the fields to the input query to the ones in the @Field annotations, except for these in embedded arrays. So, in the example above, resolution fields in DBObject remains resolution. While, the status field resolves to stat.  The query submitted to mongo after getMappedObject is called:  Which doesn\u0027t get any data, because there is no field called resolution (the field in mongo is res). Note: The query input to getMappedObject is:  Notice the status and displays fields correctly get converted to the value in the @Field annotation.   This basically means that any queries that operate on fields (with a name different from the peristed name) in the inner list will fail. ;\n\n\n\n\n\n\n@Document(collection \u003d \"Computer\")\n\n\n\n\npublic class Computer\n\n\n\n\n{\n\n\n\n\n   @Id\n\n\n\n\n   private String _id;\n\n\n\n\n\n\n\n\n\n   private String batchId;\n\n\n\n\n\n\n\n\n\n  @Field(\"stat\")\n\n\n\n\n   private String status;\n\n\n\n\n\n\n\n\n\n   @Field(\"disp\")\n\n\n\n\n   private List\u003cMonitor\u003e displays;\n\n\n\n\n\n\n\n\n\n   //setters and getters\n\n\n\n\n}\n\n\n\n\n\n\n\n\n\npublic class Monitor {\n\n\n\n\n   @Field(\"res\")\n\n\n\n\n   private String resolution;\n\n\n\n\n\n\n\n\n\n  // setters/getters\n\n\n\n\n}\n\n\n\n\n\n\n protected \u003cS, T\u003e List\u003cT\u003e doFind(String collectionName, DBObject query, DBObject fields, Class\u003cS\u003e entityClass,\n\n\n\n\n\t\t\tCursorPreparer preparer, DbObjectCallback\u003cT\u003e objectCallback)\n\n\n\n\n\n\n\n\n\n DBObject mappedQuery \u003d queryMapper.getMappedObject(query, entity);\n\n\n\n\n\n\n @Field @Field","file_goldset":["org.springframework.data.mongodb.core.convert.QueryMapper","org.springframework.data.mongodb.core.convert.QueryMapperUnitTests"],"creation_date":"2016-04-04T18:59:49.000-05:00","resolution_date":"2016-08-25T11:50:06.000-05:00"}
{"id":4445,"bug_id":"DATAMONGO-413","text":"Using \"Or\" in repository query yields a ClassCastException. This:  Gives:                   List\u003cUser\u003e findByEmailOrAlias(String email, String alias) List\u003cUser\u003e findByEmailAndAlias(String email, String alias)","file_goldset":["org.springframework.data.mongodb.repository.query.MongoQueryCreator","org.springframework.data.mongodb.repository.query.MongoQueryCreatorUnitTests","org.springframework.data.mongodb.core.query.OrQuery"],"creation_date":"2012-03-09T17:21:02.000-06:00","resolution_date":"2012-03-12T04:51:50.000-05:00"}
{"id":4446,"bug_id":"DATAMONGO-392","text":"Updating an object does not write type information for objects to be updated. I\u0027m using quite complex domain model, that consist of instantiable domain classes as well as of abstract ones. I used 1.0.0. M5 version, and the type information (under _class key) was stored with object when it was necessary to be able to read it from database later.  RELEASE version that broke my application as it saves the objects without type information and later it is impossible to read it back to java model. What I found is that MappingMongoConverter.writeInternal(...) method that in turn calls addCustomTypeIfNecessary(...) (line 330) which puts type information into DBObject. During execution of convertToMongoType(...) (at line 851) removeTypeInfoRecursively(...) is called which clears type data saved earlier under _class key.    MappingMongoConverter.writeInternal(...)  addCustomTypeIfNecessary(...)  convertToMongoType(...)  removeTypeInfoRecursively(...)","file_goldset":["org.springframework.data.mongodb.core.MongoTemplateTests","org.springframework.data.mongodb.core.MongoTemplate"],"creation_date":"2012-02-07T04:28:15.000-06:00","resolution_date":"2013-07-08T06:13:48.000-05:00"}
{"id":4447,"bug_id":"DATAMONGO-1486","text":"Changes to MappingMongoConverter Result in Class Cast Exception. We have a situation where we have a model object that looks like the following:   When we execute the following:         We end up getting the following exception:                                                                                      Map\u003cInteger, Map\u003cPlatform, String\u003e\u003e descriptions \u003d new HashMap\u003c\u003e();\n\n\n\n\n\n\n public void setAlternateDescriptionMap(int compositeId, Map\u003cInteger, Map\u003cPlatform, String\u003e\u003e alternateDescriptionsMap) {\n\n\n\n\n\t\tQuery query \u003d new Query();\n\n\n\n\n\t\tquery.addCriteria(Criteria.where(\"_id\").is(compositeId));\n\n\n\n\n\t\tUpdate update \u003d new Update();\n\n\n\n\n\t\tupdate.set(\"alternateDescriptionMap\", alternateDescriptionsMap);\n\n\n\n\n\n\n\n\n\n\t\tcoreMongoTemplate.updateFirst(query, update, \"product\");\n\n\n\n\n\t}\n\n\n\n\n\n\n MappingMongoConverter.convertMongoType()","file_goldset":["org.springframework.data.mongodb.core.convert.MappingMongoConverter","org.springframework.data.mongodb.core.convert.UpdateMapperUnitTests"],"creation_date":"2016-09-07T16:46:53.000-05:00","resolution_date":"2016-09-08T08:31:45.000-05:00"}
{"id":4448,"bug_id":"DATAMONGO-1123","text":"geoNear, does not return all matching elements, it returns only a max of 100 documents. I have the following query:         I expect 1000 \"matching\" documents But i only get 100. There is some default being set, that restricts the result to 100.    public GeoResults\u003cMyObject\u003e findByTypeAndLocationNear(MyObjectType type, Point p, Distance distance) {\n\n\n\n\n   final NearQuery nearQuery \u003d NearQuery.near(p).maxDistance(distance);\n\n\n\n\n   log.info(\"{}\",nearQuery.toDBObject());\n\n\n\n\n   return mongoTemplate.geoNear(nearQuery, MyObject.class);\n\n\n\n\n}\n\n\n\n\n\n\n {@link GeoResults}  {@link NearQuery}","file_goldset":["org.springframework.data.mongodb.core.MongoOperations"],"creation_date":"2014-12-17T09:39:36.000-06:00","resolution_date":"2015-01-07T06:15:01.000-06:00"}
{"id":4449,"bug_id":"DATAMONGO-702","text":"Spring Data MongoDB projection search, is not properly configured with respective Java Pojo. If Model Java POJO, is annotated with @Field, then during search with query.fields(). include(field) uning mongoTemplate it does not java property field as field parameter, rather it needs the name declared with name defined with @Field annotation. @Field query.fields() @Field","file_goldset":["org.springframework.data.mongodb.core.MongoTemplateTests","org.springframework.data.mongodb.core.MongoTemplate"],"creation_date":"2013-06-20T00:12:30.000-05:00","resolution_date":"2013-07-09T02:35:34.000-05:00"}
{"id":4450,"bug_id":"DATAMONGO-423","text":"Criteria.regex should use java.util.Pattern instead of $regex. If you try:    throws this exception:          while this does not:    c.find( new BasicDBObject( \"x\" ,\n\n\n\n\n                new BasicDBObject(\"$not\", new BasicDBObject(\"$regex\", \"b\") ) ) );\n\n\n\n\n\n\n c.find( new BasicDBObject( \"x\" ,\n\n\n\n\n                new BasicDBObject(\"$not\", Pattern.compile( \"b\" , Pattern.CASE_INSENSITIVE ) ) ) );","file_goldset":["org.springframework.data.mongodb.core.query.Criteria","org.springframework.data.mongodb.core.MongoTemplateTests","org.springframework.data.mongodb.core.query.QueryTests"],"creation_date":"2012-03-29T06:03:26.000-05:00","resolution_date":"2012-04-02T11:48:19.000-05:00"}
{"id":4451,"bug_id":"DATAMONGO-1126","text":"Repository keyword query findByInId with pageable not returning correctly. I\u0027ve been trying to use the In-keyword with identifiers and making the query pageable. The query returns results but getTotalElements() and getTotalPages() always returns 0. Also when you try to get any other page than 0, no results return.  Below is a strip down example I used for testing; I\u0027ve created 3 types and 10 items per those types, results in a total of 30 items.                                             Assert.assertEquals(30, results.getTotalElements()); // this is returning 0 Assert.assertEquals(6, results.getTotalPages());     // this is returning 0   getTotalElements()  getTotalPages()  @Document\n\n\n\n\npublic class Item {\n\n\n\n\n\n\n\n\n\n    @Id\n\n\n\n\n    private String id;\n\n\n\n\n    private String type;\n\n\n\n\n}\n\n\n\n\n\n\n\n\n\n\n\n\n public interface ItemRepository extends MongoRepository\u003cItem, String\u003e {\n\n\n\n\n\n\n\n\n\n    Page\u003cItem\u003e findByIdIn(Collection ids, Pageable pageable);\n\n\n\n\n    Page\u003cItem\u003e findByTypeIn(Collection types, Pageable pageable);\n\n\n\n\n}\n\n\n\n\n\n\n\n\n\n\n\n\n @RunWith(SpringJUnit4ClassRunner.class)\n\n\n\n\n@ContextConfiguration(classes \u003d {MongoDbConfig.class})\n\n\n\n\n@TransactionConfiguration(defaultRollback \u003d false)\n\n\n\n\npublic class TestPageableIdIn {\n\n\n\n\n\n\n\n\n\n    @Autowired\n\n\n\n\n    private ItemRepository itemRepository;\n\n\n\n\n    \n\n\n\n\n    private List\u003cString\u003e allIds \u003d new LinkedList\u003c\u003e();\n\n\n\n\n\n\n\n\n\n    @Before\n\n\n\n\n    public void setUp() {\n\n\n\n\n        itemRepository.deleteAll();\n\n\n\n\n        String[] types \u003d {\"SWORD\", \"SHIELD\", \"ARMOUR\"};\n\n\n\n\n\n\n\n\n\n        // 10 items per type\n\n\n\n\n        for (String type : types) {\n\n\n\n\n            for (int i \u003d 0; i \u003c 10; i++) {\n\n\n\n\n                String id \u003d UUID.randomUUID().toString();\n\n\n\n\n                allIds.add(id);\n\n\n\n\n                itemRepository.save(new Item(id, type));\n\n\n\n\n            }\n\n\n\n\n        }\n\n\n\n\n    }\n\n\n\n\n\n\n\n\n\n    @Test\n\n\n\n\n    public void testPageableIdIn() {\n\n\n\n\n        \n\n\n\n\n        Pageable pageable \u003d new PageRequest(0, 5);\n\n\n\n\n        \n\n\n\n\n        // expect 5 Items returned, total of 10 Items(SWORDS) in 2 Pages\n\n\n\n\n        Page\u003cItem\u003e results \u003d itemRepository.findByTypeIn(Arrays.asList(\"SWORD\"), pageable);\n\n\n\n\n        Assert.assertEquals(5, results.getContent().size());\n\n\n\n\n        Assert.assertEquals(10, results.getTotalElements());\n\n\n\n\n        Assert.assertEquals(2, results.getTotalPages());\n\n\n\n\n        \n\n\n\n\n        // expect 5 Items returned, total of 30 Items in 6 Pages\n\n\n\n\n        results \u003d itemRepository.findByIdIn(allIds, pageable);\n\n\n\n\n        Assert.assertEquals(5, results.getContent().size());\n\n\n\n\n        Assert.assertEquals(30, results.getTotalElements()); // this is returning 0\n\n\n\n\n        Assert.assertEquals(6, results.getTotalPages());     // this is returning 0\n\n\n\n\n    }\n\n\n\n\n}","file_goldset":["org.springframework.data.mongodb.repository.query.AbstractMongoQueryUnitTests","org.springframework.data.mongodb.repository.query.AbstractMongoQuery","org.springframework.data.mongodb.core.MongoOperations","org.springframework.data.mongodb.core.MongoTemplate","org.springframework.data.mongodb.repository.Person"],"creation_date":"2014-12-21T06:03:21.000-06:00","resolution_date":"2015-01-20T08:04:31.000-06:00"}
{"id":4452,"bug_id":"DATAMONGO-717","text":"Application context is not properly distributed to persistent entities. The MongoMappingContext does not properly distribute the application context when set to persistent entities that have already been added. Current code:                                        @Override\n\n\n\n\n\tprotected \u003cT\u003e BasicMongoPersistentEntity\u003cT\u003e createPersistentEntity(TypeInformation\u003cT\u003e typeInformation) {\n\n\n\n\n\n\n\n\n\n\t\tBasicMongoPersistentEntity\u003cT\u003e entity \u003d new BasicMongoPersistentEntity\u003cT\u003e(typeInformation);\n\n\n\n\n\n\n\n\n\n\t\tif (context !\u003d null) {\n\n\n\n\n\t\t\tentity.setApplicationContext(context);\n\n\n\n\n\t\t}\n\n\n\n\n\n\n\n\n\n\t\treturn entity;\n\n\n\n\n\t}\n\n\n\n\n\n\n\n\n\n\t\n\n\n\n\n\t @Override\n\n\n\n\n\tpublic void setApplicationContext(ApplicationContext applicationContext) throws BeansException {\n\n\n\n\n\n\n\n\n\n\t\tthis.context \u003d applicationContext;\n\n\n\n\n\t\tsuper.setApplicationContext(applicationContext);\n\n\n\n\n\t}\n\n\n\n\n\n\n @Override\n\n\n\n\n\tpublic void setApplicationContext(ApplicationContext applicationContext) throws BeansException {\n\n\n\n\n\n\n\n\n\n\t\tthis.context \u003d applicationContext;\n\n\n\n\n\t\tsuper.setApplicationContext(applicationContext);\n\n\n\n\n                // Send the application context to ALL the PersistentEntities, not just ones created after this point\n\n\n\n\n               for (BasicMongoPersistentEntity entity : getPersistentEntities()) {\n\n\n\n\n                   entity.setApplicationContext(applicationContext);\n\n\n\n\n               }\n\n\n\n\n\t}\n\n\n\n\n\n\n testMultiTenantSave()  initialize()  @Bean\n\n\n\n\n\tpublic MongoMappingContext mongoMappingContext() throws ClassNotFoundException {\n\n\n\n\n\n\n\n\n\n\t\tMongoMappingContext mappingContext \u003d new MongoMappingContext();\n\n\n\n\n\t\tmappingContext.setInitialEntitySet(getInitialEntitySet());\n\n\n\n\n\t\tmappingContext.setSimpleTypeHolder(customConversions().getSimpleTypeHolder());\n\n\n\n\n\t\tmappingContext.initialize(); // \u003c----\n\n\n\n\n\n\n\n\n\n\t\treturn mappingContext;\n\n\n\n\n\t}","file_goldset":["org.springframework.data.mongodb.config.AbstractMongoConfigurationUnitTests"],"creation_date":"2013-07-10T11:13:46.000-05:00","resolution_date":"2013-07-10T14:09:31.000-05:00"}
{"id":4453,"bug_id":"DATAMONGO-1202","text":"Indexed annotation problems under generics. Under simple scenarios with reflexive DBRef relations works as expected, but if used in conjunction with generics it doesn\u0027t create the index expected. I provide a github project with two scenarios: Employer: Very simple reflexive relation that works nicely (EmployerTest) Customer: A little more complex scenario using GenericCustomer as a base class to allow having many different kinds of customers. This scenario fails at creating the index (CustomerTest).  If you run Application it will just create indexes and put some data in customer collection assuming a MongoD is running locally at 27017 @Indexed","file_goldset":["org.springframework.data.mongodb.core.index.MongoPersistentEntityIndexCreatorIntegrationTests","org.springframework.data.mongodb.core.index.IndexResolver","org.springframework.data.mongodb.core.index.MongoPersistentEntityIndexCreator","org.springframework.data.mongodb.core.index.MongoPersistentEntityIndexResolver"],"creation_date":"2015-04-14T02:36:40.000-05:00","resolution_date":"2015-06-01T00:45:42.000-05:00"}
{"id":4454,"bug_id":"DATAMONGO-721","text":"Polymorphic attribute type not persisted on update operations. Here is our situation: we have an entity which have an attribute which is a list of another kind of entity, like the code below.   When using MongoTemplate class with code such as below, the _class attribute is not inserted on the embedded document, so, if one of the items of the list attribute is a subclass of ChildClass, and ChildClass is an abstract class, we begin to face instantiation problems. Here is one example of usage of MongoTemplate in which we found a problem.   If child is a subclass of ChildClass, the _class attribute is not added to the embedded document. @Document\npublic class ParentClass {\n   private List\u003cChildClass\u003e list;\n}\n @Document mongoTemplate.updateFirst(Query.query(criteria), \n  new Update().push(\"list\", child));","file_goldset":["org.springframework.data.mongodb.core.convert.QueryMapper"],"creation_date":"2013-07-11T11:36:06.000-05:00","resolution_date":"2013-07-16T04:40:15.000-05:00"}
{"id":4455,"bug_id":"DATAMONGO-1250","text":"Custom converter implementation not used in updates. I have a custom (de)serialiser for an enumerated type, and it works perfectly when saving and loading a @Document annotated POJO. It also works when building and executing a Query object. However when used in an Update, it is either ignored, or called in situations where it shouldn\u0027t. Please clone https://github.com/patrickherrera/converter_test.git for a full test application. In brief there is a POJO and for the purposes of the test it has a static enum with the desired converters:                                                 There is a unit test that drives a few scenarios:                                                By use of a positive and negative case, it appears that the converter is being called correctly when used in the Query builder. When it comes to an Update, the Enum is unable to be serialised correctly, and an exception is thrown to that effect.  So it appears that the customer converter for converting from my Enum is not called in this situation.  The BigDecimal is converted to a String by an existing converter I assume, but then my customer converter is called to try and convert the numeric String into an Allocation Enum which of course fails.  That second variant never seems to be called in MappingMongoConverter, but perhaps if that type information was passed then it would not use my Allocation converter. Without type information it seems the default is just to use the first converter that can handle the input type, in this case a String.   @Document @Document\n\n\n\n\npublic class MyPersistantObject  public Allocation allocation;\n\n\n\n\n     public BigDecimal value;\n\n\n\n\n\n\n\n\n\n     private final String code;\n\n\n\n\n\n\n\n\n\n         Allocation(String code) {\n\n\n\n\n            this.code \u003d code;\n\n\n\n\n        }\n\n\n\n\n\n\n\n\n\n         public static Converter\u003cAllocation, String\u003e writer() {\n\n\n\n\n            return new Converter\u003cAllocation, String\u003e() {\n\n\n\n\n                public String convert(Allocation allocation) {\n\n\n\n\n                    return allocation.getCode();\n\n\n\n\n                }\n\n\n\n\n            };\n\n\n\n\n        }\n\n\n\n\n\n\n\n\n\n         public static Converter\u003cString, Allocation\u003e reader() {\n\n\n\n\n            return new Converter\u003cString, Allocation\u003e() {\n\n\n\n\n                public Allocation convert(String source) {\n\n\n\n\n                    return Allocation.getByCode(source);\n\n\n\n\n                }\n\n\n\n\n            };\n\n\n\n\n        }\n\n\n\n\n\n\n\n\n\n         public static Allocation getByCode(String code)  return AVAILABLE;\n\n\n\n\n                 return ALLOCATED;\n\n\n\n\n             throw new IllegalArgumentException(\"Unable to get Allocation from: \" + code);\n\n\n\n\n         public String getCode() {\n\n\n\n\n            return code;\n\n\n\n\n        }\n\n\n\n\n     @Bean\n\n\n\n\n    public CustomConversions customConversions() {\n\n\n\n\n        return new CustomConversions(Arrays.asList(\n\n\n\n\n                MyPersistantObject.Allocation.reader(),\n\n\n\n\n                MyPersistantObject.Allocation.writer()\n\n\n\n\n        ));\n\n\n\n\n    }\n\n\n\n\n\n\n @Test\n\n\n\n\n    public void testConversion() {\n\n\n\n\n        Update update;\n\n\n\n\n        Query query;\n\n\n\n\n        MyPersistantObject returned;\n\n\n\n\n        MyPersistantObject myPersistantObject \u003d new MyPersistantObject();\n\n\n\n\n        myPersistantObject.allocation \u003d AVAILABLE;\n\n\n\n\n        myPersistantObject.value \u003d new BigDecimal(1234567);\n\n\n\n\n\n\n\n\n\n        mongoTemplate.save(myPersistantObject);\n\n\n\n\n\n\n\n\n\n        // Check it was saved correctly - first with invalid allocation to confirm conversion in query\n\n\n\n\n        query \u003d query(where(\"allocation\").is(ALLOCATED));\n\n\n\n\n        assertThat(mongoTemplate.findOne(query, MyPersistantObject.class), is(nullValue()));\n\n\n\n\n\n\n\n\n\n        // Check it was saved correctly - now with valid allocation to confirm conversion in query\n\n\n\n\n        query \u003d query(where(\"allocation\").is(AVAILABLE));\n\n\n\n\n        returned \u003d mongoTemplate.findOne(query, MyPersistantObject.class);\n\n\n\n\n        assertThat(returned.allocation, is(AVAILABLE));\n\n\n\n\n        assertThat(returned.value.longValue(), is(1234567L));\n\n\n\n\n\n\n\n\n\n        try {\n\n\n\n\n            // Update allocation from constant - will fail\n\n\n\n\n            update \u003d update(\"allocation\", ALLOCATED);\n\n\n\n\n            mongoTemplate.updateMulti(query, update, MyPersistantObject.class);\n\n\n\n\n        } catch (Exception e) {\n\n\n\n\n            System.err.println(\"failed to convert allocation: java.lang.IllegalArgumentException: can\u0027t serialize class converter_test.MyPersistantObject$Allocation\");\n\n\n\n\n        }\n\n\n\n\n\n\n\n\n\n        // Update allocation from string value - succeeds\n\n\n\n\n        update \u003d update(\"allocation\", ALLOCATED.getCode());\n\n\n\n\n        mongoTemplate.updateMulti(query, update, MyPersistantObject.class);\n\n\n\n\n        // Check allocation update\n\n\n\n\n        query \u003d query(where(\"allocation\").is(ALLOCATED));\n\n\n\n\n        returned \u003d mongoTemplate.findOne(query, MyPersistantObject.class);\n\n\n\n\n        assertThat(returned.allocation, is(ALLOCATED));\n\n\n\n\n\n\n\n\n\n        // Update value only - will fail: Caused by: java.lang.IllegalArgumentException: Unable to get MyPersistantObject.Allocation from: 54321\n\n\n\n\n        // Tries to use MyPersistantObject.Allocation converter to String\n\n\n\n\n        update \u003d update(\"value\", new BigDecimal(54321));\n\n\n\n\n        mongoTemplate.updateMulti(query, update, MyPersistantObject.class);\n\n\n\n\n        // Check value update\n\n\n\n\n        returned \u003d mongoTemplate.findAll(MyPersistantObject.class).get(0);\n\n\n\n\n        assertThat(returned.value.longValue(), is(54321L));\n\n\n\n\n    }","file_goldset":["org.springframework.data.mongodb.core.convert.UpdateMapper","org.springframework.data.mongodb.core.convert.UpdateMapperUnitTests"],"creation_date":"2015-07-03T21:07:44.000-05:00","resolution_date":"2015-07-04T10:10:16.000-05:00"}
{"id":4456,"bug_id":"DATAMONGO-602","text":"Querying with $in operator on the id field of type BigInteger returns zero results. There is a problem when trying to query for documents with id field is in a given list of BigInteger values.  For example, these lines will work only if given id list contains only one item.     The query looks like this for a profileIds with multiple elements  and it looks like this when there is only one item in the list.  In the first case, query will return no results and in the second it will work and return an Iterable with one item.   List\u003cBigInteger\u003e profileIds \u003d findProfileIds();\n\n\n\n\nPredicate predicate \u003d QProfileDocument.profileDocument.id.in(profileIds);\n\n\n\n\nIterable\u003cProfileDocument\u003e profiles \u003d profileRepository.findAll(predicate);","file_goldset":["org.springframework.data.mongodb.core.MongoTemplateTests"],"creation_date":"2013-01-30T02:22:53.000-06:00","resolution_date":"2013-08-07T10:11:51.000-05:00"}
{"id":4457,"bug_id":"DATAMONGO-805","text":"Excluding DBRef field in a query causes a MappingException. Excluding a field in a query where the field is a DBRef as below throws a MappingException.      Exception trace:                                        I\u0027ve attached a simple test case that throws the MappingException.  Query query \u003d new Query(Criteria.where(\"parentField\").is(\"test\"));\n        query.fields().exclude(\"children\");\n        ParentClass parentClass \u003d mongoOperations.findOne(query, ParentClass.class);","file_goldset":["org.springframework.data.mongodb.core.convert.QueryMapper","org.springframework.data.mongodb.core.convert.QueryMapperUnitTests","org.springframework.data.mongodb.core.mapping.MappingTests"],"creation_date":"2013-12-02T06:34:36.000-06:00","resolution_date":"2014-01-14T05:35:09.000-06:00"}
{"id":4458,"bug_id":"DATAMONGO-897","text":"FindAndUpdate broken when using @DbRef and interface as target. NullPointerException is thrown when using MongoTemplate.findAndModify(...) with @DbRef and interface as @DbRef target.     MongoTemplate.findAndModify(...)  @DbRef @DbRef","file_goldset":["org.springframework.data.mongodb.core.convert.QueryMapper","org.springframework.data.mongodb.core.convert.UpdateMapperUnitTests"],"creation_date":"2014-04-01T04:38:51.000-05:00","resolution_date":"2014-04-14T23:48:22.000-05:00"}
{"id":4459,"bug_id":"DATAMONGO-892","text":"\u003cmongo:mapping-converter\u003e can\u0027t be configured as nested bean definition. The sample config which worked in the 1.1.1 version, but doesn\u0027t work now:              That\u0027s because MappingMongoConverterParser doesn\u0027t check if the parserContext.isNested(), registers BeanDefinition and returns null parserContext.isNested()","file_goldset":["org.springframework.data.mongodb.config.MappingMongoConverterParserIntegrationTests","org.springframework.data.mongodb.config.MappingMongoConverterParser"],"creation_date":"2014-03-28T09:08:03.000-05:00","resolution_date":"2014-04-15T00:13:36.000-05:00"}
{"id":4460,"bug_id":"DATAMONGO-647","text":"Using \"OrderBy\" in \"query by method name\" ignores the @Field annotation for field alias.. I created a method using the \"query by method name\" approach: Inside my Answer object, I have a field called \"Score\" that is annotated with    When the query is run, the database attempts to sort the results by \"score\" rather than my \"sr\" field name. @Field(\"sr\")\n List\u003cAnswer\u003e findByQuestionIdOrderByScoreDesc(String questionId)","file_goldset":["org.springframework.data.mongodb.core.convert.QueryMapperUnitTests"],"creation_date":"2013-04-09T17:29:02.000-05:00","resolution_date":"2014-05-19T05:42:41.000-05:00"}
{"id":4461,"bug_id":"DATAMONGO-745","text":"@Query($in) and Pageable in result Page total \u003d 0. Hi If I used MongoRepository and anotation Quary and Pageable in response I get true result but getTotalElements \u003d\u003d 0             @Query(\"{\u0027snapshotId\u0027 : ?0 ,\u0027defects.id\u0027:{ $in:?1}}\")\nPage\u003cTest\u003e findBySnapshotIdAndDefects(ObjectId snapshotId, List\u003cInteger\u003e defectIds, Pageable pageable) {5225a5ece4b0a01629fce9c6\u003d{ \"_id\" : \n{ \"$oid\" : \"5225a5ece4b0a01629fce9c6\"}","file_goldset":["org.springframework.data.mongodb.repository.Person","org.springframework.data.mongodb.repository.AbstractPersonRepositoryIntegrationTests","org.springframework.data.mongodb.repository.PersonRepository"],"creation_date":"2013-09-03T02:15:08.000-05:00","resolution_date":"2014-06-17T22:51:44.000-05:00"}
