system;bugId;has_ob;has_eb;has_sr;has_other;has_code
lang;LANG-746;x;x;;;x
lang;LANG-552;x;x;x;x;x
math;MATH-778;x;x;;;x
math;MATH-326;x;x;;x;x
math;MATH-482;x;x;x;x;x
lang;LANG-346;x;x;;x;x
math;MATH-1021;x;x;x;x;x
math;MATH-273;x;x;;x;
time;43;x;x;x;x;
lang;LANG-292;x;x;x;x;x
math;MATH-935;x;x;;x;
time;28;x;x;x;x;x
lang;LANG-788;x;x;x;x;x
lang;LANG-363;x;x;x;x;x
lang;LANG-295;x;x;x;;
math;MATH-274;x;x;x;x;x
math;MATH-552;x;x;;x;x
math;MATH-358;x;x;x;x;x
math;MATH-167;x;x;;;x
time;88;x;x;x;x;x
math;MATH-280;x;x;x;x;x
math;MATH-554;x;x;;x;x
lang;LANG-393;x;x;;;
lang;LANG-832;x;x;x;x;x
lang;LANG-315;x;x;;x;x
math;MATH-221;x;x;x;x;x
