system;bugId;has_ob;has_eb;has_sr;has_other;has_code
lang;LANG-477;x;;x;x;x
math;MATH-274;x;x;x;x;x
lang;LANG-879;x;;x;x;x
math;MATH-949;x;;x;x;x
math;MATH-567;x;;x;x;x
lang;LANG-363;x;x;x;x;x
time;77;x;;x;x;x
math;MATH-691;x;;x;x;x
lang;LANG-788;x;x;x;x;x
math;MATH-929;x;;x;x;x
math;MATH-836;x;;x;x;x
math;MATH-318;x;;x;x;x
lang;LANG-645;x;;x;x;x
math;MATH-482;x;x;x;x;x
lang;LANG-292;x;x;x;x;x
math;MATH-280;x;x;x;x;x
lang;LANG-480;x;;x;x;x
math;MATH-1021;x;x;x;x;x
math;MATH-60;x;;x;x;x
math;MATH-713;x;;x;x;x
time;18;x;;x;x;x
time;79;x;;x;x;x
math;MATH-358;x;x;x;x;x
lang;LANG-300;x;;x;;x
math;MATH-305;x;;x;x;x
lang;LANG-832;x;x;x;x;x
math;MATH-942;x;;x;x;x
lang;LANG-662;x;;x;x;x
math;MATH-865;x;;x;x;
lang;LANG-457;x;;;;
math;MATH-221;x;x;x;x;x
time;88;x;x;x;x;x
lang;LANG-538;x;;x;x;x
time;21;x;;x;x;x
math;MATH-631;x;;x;x;x
lang;LANG-857;x;;x;x;x
lang;LANG-710;x;;x;x;x
math;MATH-369;x;;x;x;x
time;93;x;;x;x;x
time;28;x;x;x;x;x
lang;LANG-552;x;x;x;x;x
math;MATH-645;x;;x;x;x
