{"key":"2218621","title":"FileBrowser: Directory of current buffer","description":"When I type \"-\" \\(minus\\) in FileBrowser\u0027s Path dropdown and press enter, minus is appended to the path instead of changing path to current buffer.   There is also small inconsistency, because in search and replace dialog to current buffer points empty dropdown, not minus. Maybe in FileBrowser it should as well, but for now neither minus nor empty field points to current directory."}
{"key":"1723506","title":"Context menu key not functional on Windows","description":"Normally, the context menu key has the same effect as a mouse right click; in jEdit, however, it has no effect."}
{"key":"2781716","title":"Line numbers in Hypersearch Results are wrongly highlighted","description":"The line number shouldn\u0027t be highlighted."}
{"key":"1834620","title":"Regex capturing groups above $9 can\u0027t be accessed","description":"Expected output: 123456789abc"}
{"key":"950961","title":"Folding: handling newlines at the start of closed folds","description":"To display the \ncontents of the fold you have to close the fold and open \nit again which then would display the expected text:\n1| //\\{\\{\\{\n2| New text entered\n3| Folding\n4| Test\n5| Case\n6| //\\}\\}\\}\n7| Other text"}
{"key":"1866836","title":"After completion column cursor should be kept","description":"Hi, when typing in a column cursor, after using the completion popup it would be better if the cursor would still be column cursor"}
{"key":"1942313","title":"Expanding a fold twice moves caret unexpectedly","description":"I think this is a bug: I think the caret should stay where it is, and jEdit should either do nothing or print an error message."}
{"key":"1536064","title":"focus in filesystembrowser NOT in filenamefield","description":"When I try to open a file \\(Ctrl-O\\) the focus in the filesystembrowser is on the Commands menu instead of the filename field."}
{"key":"1999448","title":"Unnecesarry fold expantion when folded lines are edited","description":"I\nthink it should not expand folds since the fold level\nis not changed."}
{"key":"1538743","title":"While editing ToolBar, the category should be remembered","description":"While editing ToolBar, the category of actions should \nbe remembered when adding actions to the toolbar."}
{"key":"1541372","title":"move caret on collapsing a fold","description":"If the caret is in a fold that gets collapsed, the \ncaret should be placed at first line of that fold, i. \ne. the remaining visible line, otherwise it reexpands \nthe fold on direction key press."}
