{"key":"PIG-3310","title":"ImplicitSplitInserter does not generate new uids for nested schema fields, leading to miscomputations","description":"The second column should be a member id so (1,2,3,4,5)."}
{"key":"PIG-3424","title":"Package import list should consider class name as is first even if -Dudf.import.list is passed","description":""}
{"key":"PIG-2767","title":"Pig creates wrong schema after dereferencing nested tuple fields","description":"The schema of \"dereferenced\" should be {f1: int, nested_tuple: (f2: int,\nf3: int)}."}
{"key":"PIG-2828","title":"Handle nulls in DataType.compare","description":"So we need to judge the field1 whether is null."}
{"key":"PIG-3204","title":"Change script parsing to parse entire script instead of line by line","description":""}
