{"key":"TIKA-1014","title":"Allow custom MimeTypesReader","description":"It would be great to allow subclassing this Reader to support custom behavior."}
{"key":"TIKA-1047","title":"Provide a JAX-RS to detect only the mediatype","description":"To detect the mediatype, only a few bytes are often necessary and so I\u0027d like to only send, say 8K or so, to the server and let it tell me the mediatype."}
{"key":"TIKA-1074","title":"Extraction should continue if an exception is hit visiting an embedded document","description":"So somehow I think we should be more robust here, and maybe log the exception, or save/record the exception(s) somewhere so after parsing the app could decide what to do about them ..."}
