{"text": "copyright red hat red hat licens file apach licens version licens file complianc licens obtain copi licens http www apach org licens licens requir applic law agre write softwar distribut licens distribut basi warranti condit express impli licens specif languag govern permiss limit licens command name check user scope esb descript check user defin esbcheckadminus esb check admin user checkadminus check admin user string getcreateadminusercommand creat admin user command esb creat admin user", "file_package_path": "org.jboss.fuse.commands.esb.EsbCheckAdminUser", "package_fully_qualified_name": "org.jboss.fuse.commands.esb", "import_fully_qualified_names": ["org.apache.felix.gogo.commands.Command", "org.jboss.fuse.commands.CheckAdminUser"], "file_path": "/esb/esb-commands/src/main/java/org/jboss/fuse/commands/esb/EsbCheckAdminUser.java"}
{"text": "copyright red hat red hat licens file apach licens version licens file complianc licens obtain copi licens http www apach org licens licens requir applic law agre write softwar distribut licens distribut basi warranti condit express impli licens specif languag govern permiss limit licens command name creat admin user scope esb descript creat admin user exist esbcreateadminus esb creat admin user createadminus creat admin user", "file_package_path": "org.jboss.fuse.commands.esb.EsbCreateAdminUser", "package_fully_qualified_name": "org.jboss.fuse.commands.esb", "import_fully_qualified_names": ["org.apache.felix.gogo.commands.Command", "org.jboss.fuse.commands.CreateAdminUser"], "file_path": "/esb/esb-commands/src/main/java/org/jboss/fuse/commands/esb/EsbCreateAdminUser.java"}
{"text": "copyright red hat red hat licens file apach licens version licens file complianc licens obtain copi licens http www apach org licens licens requir applic law agre write softwar distribut licens distribut basi warranti condit express impli licens specif languag govern permiss limit licens runwith run paxexam pax exam examreactorstrategi exam reactor strategi permethod method esbboottest esb boot test esbtestsupport esb test support test testboot test boot string executecommandasadmin execut command admin log display system println assertequ equal expect log display display startup configur option config option defaultcompositeopt composit option esbdistributionconfigur esb distribut configur jboss fuse karaf", "file_package_path": "org.fusesource.esb.itests.basic.EsbBootTest", "package_fully_qualified_name": "org.fusesource.esb.itests.basic", "import_fully_qualified_names": ["org.fusesource.esb.itests.pax.exam.karaf.EsbTestSupport", "org.junit.Test", "org.junit.runner.RunWith", "org.ops4j.pax.exam.Configuration", "org.ops4j.pax.exam.Option", "org.ops4j.pax.exam.junit.PaxExam", "org.ops4j.pax.exam.options.DefaultCompositeOption", "org.ops4j.pax.exam.spi.reactors.ExamReactorStrategy", "org.ops4j.pax.exam.spi.reactors.PerMethod", "org.junit.Assert.assertEquals"], "file_path": "/esb/esb-itests/basic/src/test/java/org/fusesource/esb/itests/basic/EsbBootTest.java"}
{"text": "copyright red hat red hat licens file apach licens version licens file complianc licens obtain copi licens http www apach org licens licens requir applic law agre write softwar distribut licens distribut basi warranti condit express impli licens specif languag govern permiss limit licens ignor runwith run paxexam pax exam examreactorstrategi exam reactor strategi permethod method esbkaraffullboottest esb karaf full boot test esbboottest esb boot test configur option config option defaultcompositeopt composit option esbdistributionconfigur esb distribut configur jboss fuse karaf full", "file_package_path": "org.fusesource.esb.itests.basic.EsbKarafFullBootTest", "package_fully_qualified_name": "org.fusesource.esb.itests.basic", "import_fully_qualified_names": ["org.junit.runner.RunWith", "org.junit.Ignore", "org.ops4j.pax.exam.Configuration", "org.ops4j.pax.exam.Option", "org.ops4j.pax.exam.junit.PaxExam", "org.ops4j.pax.exam.options.DefaultCompositeOption", "org.ops4j.pax.exam.spi.reactors.ExamReactorStrategy", "org.ops4j.pax.exam.spi.reactors.PerMethod"], "file_path": "/esb/esb-itests/basic/src/test/java/org/fusesource/esb/itests/basic/EsbKarafFullBootTest.java"}
{"text": "copyright red hat red hat licens file apach licens version licens file complianc licens obtain copi licens http www apach org licens licens requir applic law agre write softwar distribut licens distribut basi warranti condit express impli licens specif languag govern permiss limit licens todo remov fixm fix entesb configur option config option defaultcompositeopt composit option esbdistributionconfigur esb distribut configur jboss fuse full featur fabric mavenbundl maven bundl fabric8 itest paxexam fabric itest paxexam common mavenutil maven util getartifactvers artifact version fabric8 itest paxexam fabric itest paxexam common mavenbundl maven bundl fabric8 tool test pax exam karaf mavenutil maven util getartifactvers artifact version fabric8 tool test pax exam karaf mavenbundl maven bundl org jboss fuse itest esb itest common mavenutil maven util getartifactvers artifact version org jboss fuse itest esb itest common wrappedbundl wrap bundl mavenbundl maven bundl fabric8 itest fabric itest common mavenutil maven util getartifactvers artifact version fabric8 itest fabric itest common runwith run paxexam pax exam examreactorstrategi exam reactor strategi permethod method esbprofileredeploytest esb profil redeploy test esbtestsupport esb test support timeout ignor entesb test testprofileredeploy test profil redeploy executecommandasadmin execut command admin fabric creat serviceproxi servic proxi fabricservic fabric servic fabricproxi fabric proxi serviceproxi servic proxi createserviceproxi creat servic proxi bundlecontext bundl context fabricservic fabric servic fabricservic fabric servic fabricservic fabric servic fabricproxi fabric proxi getservic servic set containerproxi contain proxi contain containerbuild contain builder creat fabricproxi fabric proxi withjvmopt jvm opt maxperms max perm size withnam name node withprofil profil jboss fuse full assertprovisioningresult provis result build contain node contain iter provis provisioningsuccess provis success array aslist list node provis timeout curatorframework curat framework curat fabricservic fabric servic adapt curatorframework curat framework managedgroupfactori manag group factori factori managedgroupfactorybuild manag group factori builder creat curat getclass getclassload loader callabl curatorframework curat framework overrid curatorframework curat framework call shouldn't call multigroup multi group group multigroup multi group factori createmultigroup creat multi group fabric registri cluster amq fabricdiscoveryag fabric discoveri agent activemqnod activ node zookeepermultigroup zoo keeper multi group wtf zookeepermultigroup zoo keeper multi group group group start fabricdiscoveryag fabric discoveri agent activemqnod activ node master provis waitforcondit wait condit callabl overrid call group slave isempti empti thread sleep timeout master fabricdiscoveryag fabric discoveri agent activemqnod activ node group master string mastercontain master contain master getcontain contain assertequ equal root mastercontain master contain asserttru getslavenam slave name group contain node thread sleep executecommandasadmin execut command admin contain remov profil node jboss fuse full provis provisioningsuccess provis success array aslist list fabricservic fabric servic getcontain contain provis timeout provis waitforcondit wait condit callabl overrid call group slave isempti empti thread sleep timeout master fabricdiscoveryag fabric discoveri agent activemqnod activ node group master assertequ equal root master getcontain contain assertfals getslavenam slave name group contain node thread sleep executecommandasadmin execut command admin contain add profil node jboss fuse full provis provisioningsuccess provis success array aslist list fabricservic fabric servic getcontain contain provis timeout provis waitforcondit wait condit callabl overrid call group slave isempti empti thread sleep timeout master fabricdiscoveryag fabric discoveri agent activemqnod activ node group master mastercontain master contain master getcontain contain assertequ equal root mastercontain master contain asserttru getslavenam slave name group contain node containerbuild contain builder destroy contain fabricproxi fabric proxi close list string getslavenam slave name multigroup multi group group list string slave linkedlist link list nodest node state state list nodest node state group slave slave add state getcontain contain slave", "file_package_path": "org.fusesource.esb.itests.basic.EsbProfileRedeployTest", "package_fully_qualified_name": "org.fusesource.esb.itests.basic", "import_fully_qualified_names": ["io.fabric8.api.Container", "io.fabric8.api.FabricService", "io.fabric8.api.ServiceProxy", "io.fabric8.groups.MultiGroup", "io.fabric8.groups.NodeState", "io.fabric8.groups.internal.ManagedGroupFactory", "io.fabric8.groups.internal.ManagedGroupFactoryBuilder", "io.fabric8.groups.internal.ZooKeeperMultiGroup", "io.fabric8.groups.internal.ZooKeeperMultiGroup", "io.fabric8.itests.paxexam.support.ContainerBuilder", "io.fabric8.itests.paxexam.support.ContainerProxy", "io.fabric8.itests.paxexam.support.Provision", "io.fabric8.mq.fabric.discovery.FabricDiscoveryAgent", "org.apache.curator.framework.CuratorFramework", "org.fusesource.esb.itests.pax.exam.karaf.EsbTestSupport", "org.junit.Ignore", "org.junit.Test", "org.junit.runner.RunWith", "org.ops4j.pax.exam.Configuration", "org.ops4j.pax.exam.MavenUtils", "org.ops4j.pax.exam.Option", "org.ops4j.pax.exam.junit.PaxExam", "org.ops4j.pax.exam.options.DefaultCompositeOption", "org.ops4j.pax.exam.spi.reactors.ExamReactorStrategy", "org.ops4j.pax.exam.spi.reactors.PerMethod", "java.util.Arrays", "java.util.LinkedList", "java.util.List", "java.util.Set", "java.util.concurrent.Callable", "org.junit.Assert.*", "org.ops4j.pax.exam.CoreOptions.wrappedBundle", "org.ops4j.pax.exam.karaf.options.KarafDistributionOption.features"], "file_path": "/esb/esb-itests/basic/src/test/java/org/fusesource/esb/itests/basic/EsbProfileRedeployTest.java"}
{"text": "copyright red hat red hat licens file apach licens version licens file complianc licens obtain copi licens http www apach org licens licens requir applic law agre write softwar distribut licens distribut basi warranti condit express impli licens specif languag govern permiss limit licens creat link org ops4j pax exam option esb distribut esbfeaturetest esb featur test fabricfeaturestest fabric featur test configur option config option defaultcompositeopt composit option esbdistributionconfigur esb distribut configur jboss fuse karaf option esbdistributionconfigur esb distribut configur string distroartifactid distro artifact distroartifactid distro artifact distroartifactid distro artifact artifact option karafdistributionconfigur karaf distribut configur frameworkurl framework url maven groupid group org jboss fuse artifactid artifact distroartifactid distro artifact versionasinproject version project type zip karafvers karaf version mavenutil maven util getartifactvers artifact version org jboss fuse distroartifactid distro artifact name jboss boss fuse unpackdirectori unpack directori file target exam usedeployfold deploy folder useownexambundlesstartlevel exam bundl start level editconfigurationfileput edit configur file put config properti karaf startlevel bundl editconfigurationfileput edit configur file put config properti karaf startup messag load fuse karaf home editconfigurationfileput edit configur file put system properti java secur egd file dev urandom editconfigurationfileput edit configur file put user properti admin admin admin editconfigurationfileput edit configur file put fabric fabric profil profil fabric8 version properti fuse mavenutil maven util getartifactvers artifact version org jboss fuse itest esb itest common mavenbundl maven bundl fabric8 itest paxexam fabric itest paxexam common mavenutil maven util getartifactvers artifact version fabric8 itest paxexam fabric itest paxexam common mavenbundl maven bundl fabric8 tool test pax exam karaf mavenutil maven util getartifactvers artifact version fabric8 tool test pax exam karaf mavenbundl maven bundl org jboss fuse itest esb itest common mavenutil maven util getartifactvers artifact version org jboss fuse itest esb itest common wrappedbundl wrap bundl mavenbundl maven bundl fabric8 itest fabric itest common mavenutil maven util getartifactvers artifact version fabric8 itest fabric itest common keepruntimefold keep runtim folder loglevel log level loglevelopt log level option loglevel log level error", "file_package_path": "org.fusesource.esb.itests.basic.fabric.EsbFeatureTest", "package_fully_qualified_name": "org.fusesource.esb.itests.basic.fabric", "import_fully_qualified_names": ["org.ops4j.pax.exam.CoreOptions.maven", "org.ops4j.pax.exam.CoreOptions.wrappedBundle", "org.ops4j.pax.exam.karaf.options.KarafDistributionOption.*", "java.io.File", "io.fabric8.itests.paxexam.support.FabricFeaturesTest", "org.ops4j.pax.exam.Configuration", "org.ops4j.pax.exam.MavenUtils", "org.ops4j.pax.exam.Option", "org.ops4j.pax.exam.karaf.options.LogLevelOption", "org.ops4j.pax.exam.options.DefaultCompositeOption"], "file_path": "/esb/esb-itests/basic/src/test/java/org/fusesource/esb/itests/basic/fabric/EsbFeatureTest.java"}
{"text": "copyright red hat red hat licens file apach licens version licens file complianc licens obtain copi licens http www apach org licens licens requir applic law agre write softwar distribut licens distribut basi warranti condit express impli licens specif languag govern permiss limit licens overrid set contain clean contain test modifi profil set contain clean profil runwith run paxexam pax exam examreactorstrategi exam reactor strategi permethod method esbprofilelongtest esb profil test esbfeaturetest esb featur test test testfeatur test featur system err println executecommandasadmin execut command admin fabric creat serviceproxi servic proxi fabricservic fabric servic fabricproxi fabric proxi serviceproxi servic proxi createserviceproxi creat servic proxi bundlecontext bundl context fabricservic fabric servic fabricservic fabric servic fabricservic fabric servic fabricproxi fabric proxi getservic servic curatorframework curat framework curat fabricservic fabric servic adapt curatorframework curat framework system err println executecommandasadmin execut command admin fabric profil creat parent jboss fuse full profil set containerproxi contain proxi contain containerbuild contain builder creat fabricproxi fabric proxi withnam name esb withprofil profil profil withjvmopt jvm opt maxperms max perm size dpatch disabl djava secur egd file dev urandom assertprovisioningresult provis result build preparefeaturesfortest prepar featur test contain connector profil geronimo connector preparefeaturesfortest prepar featur test contain saaj profil saaj impl assertfeatur featur fabricservic fabric servic curat containerbuild contain builder destroy contain fabricproxi fabric proxi close assertprovisionedfeatur provis featur fabricservic fabric servic fabricservic fabric servic curatorframework curat framework curat set contain contain string featurenam featur name string profilenam profil name string expectedsymbolicnam expect symbol name stringbuild string builder stringbuild string builder append contain contain contain append contain getid append append system println test profil profilenam profil name contain tostr string featur featurenam featur name version version fabricservic fabric servic getrequireddefaultvers requir version profil defaultprofil profil version getrequiredprofil requir profil profil targetprofil target profil version getrequiredprofil requir profil profilenam profil name contain contain contain contain setprofil set profil profil defaultprofil profil provis containerstatu contain statu contain provis timeout string featurenam featur name featurenam featur name split system println executecommandasadmin execut command admin fabric profil edit featur featurenam featur name targetprofil target profil getid system println executecommandasadmin execut command admin fabric profil display profilenam profil name contain contain contain setdata set data curat zkpath path contain provis result getpath path contain getid profil contain setprofil set profil profil targetprofil target profil provis containerstatu contain statu contain provis timeout system println executecommandasadmin execut command admin fabric contain list asserttru provis waitforcondit wait condit contain containercondit contain condit overrid checkconditiononcontain check condit contain contain string symbolicnam symbol name expectedsymbolicnam expect symbol name split string bundl executecommandasadmin execut command admin contain connect admin admin getid osgi list grep symbolicnam symbol name bundl bundl contain symbolicnam symbol name provis timeout contain contain contain defaultprofil profil equal targetprofil target profil setdata set data curat zkpath path contain provis result getpath path contain getid profil contain setprofil set profil profil defaultprofil profil provis containerstatu contain statu contain provis timeout string featurenam featur name featurenam featur name split system println executecommandasadmin execut command admin fabric profil edit delet featur featurenam featur name targetprofil target profil getid", "file_package_path": "org.fusesource.esb.itests.basic.fabric.EsbProfileLongTest", "package_fully_qualified_name": "org.fusesource.esb.itests.basic.fabric", "import_fully_qualified_names": ["io.fabric8.api.*", "io.fabric8.itests.paxexam.support.ContainerBuilder", "io.fabric8.itests.paxexam.support.ContainerCondition", "io.fabric8.itests.paxexam.support.ContainerProxy", "java.util.Set", "io.fabric8.itests.paxexam.support.Provision", "io.fabric8.zookeeper.ZkPath", "org.apache.curator.framework.CuratorFramework", "org.junit.Assert", "org.junit.Ignore", "org.junit.Test", "org.junit.runner.RunWith", "org.ops4j.pax.exam.junit.PaxExam", "org.ops4j.pax.exam.spi.reactors.ExamReactorStrategy", "org.ops4j.pax.exam.spi.reactors.PerMethod", "io.fabric8.zookeeper.utils.ZooKeeperUtils.setData", "org.fusesource.esb.itests.pax.exam.karaf.EsbTestSupport.executeCommandAsAdmin"], "file_path": "/esb/esb-itests/basic/src/test/java/org/fusesource/esb/itests/basic/fabric/EsbProfileLongTest.java"}
{"text": "copyright red hat red hat licens file apach licens version licens file complianc licens obtain copi licens http www apach org licens licens requir applic law agre write softwar distribut licens distribut basi warranti condit express impli licens specif languag govern permiss limit licens todo valid creat contain runwith run paxexam pax exam examreactorstrategi exam reactor strategi permethod method esbprofiletest esb profil test esbfeaturetest esb featur test test testlocalchildcr test local child creation system err println executecommandasadmin execut command admin fabric creat serviceproxi servic proxi fabricservic fabric servic fabricproxi fabric proxi serviceproxi servic proxi createserviceproxi creat servic proxi bundlecontext bundl context fabricservic fabric servic set containerproxi contain proxi contain containerbuild contain builder creat fabricproxi fabric proxi withnam name esb withprofil profil jboss fuse full assertprovisioningresult provis result build containerbuild contain builder destroy contain fabricproxi fabric proxi close", "file_package_path": "org.fusesource.esb.itests.basic.fabric.EsbProfileTest", "package_fully_qualified_name": "org.fusesource.esb.itests.basic.fabric", "import_fully_qualified_names": ["io.fabric8.api.FabricService", "io.fabric8.api.ServiceProxy", "io.fabric8.itests.paxexam.support.ContainerBuilder", "io.fabric8.itests.paxexam.support.ContainerProxy", "java.util.Set", "org.junit.Ignore", "org.junit.Test", "org.junit.runner.RunWith", "org.ops4j.pax.exam.junit.PaxExam", "org.ops4j.pax.exam.spi.reactors.ExamReactorStrategy", "org.ops4j.pax.exam.spi.reactors.PerMethod", "org.fusesource.esb.itests.pax.exam.karaf.EsbTestSupport.executeCommandAsAdmin"], "file_path": "/esb/esb-itests/basic/src/test/java/org/fusesource/esb/itests/basic/fabric/EsbProfileTest.java"}
{"text": "copyright red hat red hat licens file apach licens version licens file complianc licens obtain copi licens http www apach org licens licens requir applic law agre write softwar distribut licens distribut basi warranti condit express impli licens specif languag govern permiss limit licens execut command jboss boss fuse consol user administr privileg creat link org ops4j pax exam option esb distribut esbtestsupport esb test support fabrickaraftestsupport fabric karaf test support string group org jboss fuse string artifact jboss fuse karaf set roleprincip role princip role hashset hash set role add roleprincip role princip administr role add roleprincip role princip superus user string version system getproperti properti project version string executecommandasadmin execut command admin string command executecommand execut command role command installquickstartbundl instal quickstart bundl string bundl string featureinstalloutput featur instal output executecommandasadmin execut command admin osgi instal mvn org jboss quickstart fuse bundl version system println featureinstalloutput featur instal output assertfals featureinstalloutput featur instal output isempti empti string featurelistoutput featur list output executecommandasadmin execut command admin osgi list grep bundl system println featurelistoutput featur list output assertfals featurelistoutput featur list output isempti empti installuninstallcommand instal uninstal command string featur installuninstallcommand instal uninstal command featur installuninstallcommand instal uninstal command string featur refresh string installfeaturecmd instal featur cmd featur instal refresh installfeaturecmd instal featur cmd installfeaturecmd instal featur cmd string featureinstalloutput featur instal output executecommandasadmin execut command admin installfeaturecmd instal featur cmd featur system println featureinstalloutput featur instal output assertfals featureinstalloutput featur instal output isempti empti string featurelistoutput featur list output executecommandasadmin execut command admin featur list grep featur system println featurelistoutput featur list output assertfals featurelistoutput featur list output isempti empti system println executecommandasadmin execut command admin featur uninstal featur featurelistoutput featur list output executecommandasadmin execut command admin featur list grep featur system println featurelistoutput featur list output asserttru featurelistoutput featur list output isempti empti option esbdistributionconfigur esb distribut configur esbdistributionconfigur esb distribut configur option esbdistributionconfigur esb distribut configur string distroartifactid distro artifact distroartifactid distro artifact distroartifactid distro artifact artifact option karafdistributionconfigur karaf distribut configur frameworkurl framework url maven groupid group org jboss fuse artifactid artifact distroartifactid distro artifact versionasinproject version project type zip karafvers karaf version mavenutil maven util getartifactvers artifact version org jboss fuse distroartifactid distro artifact name jboss boss fuse unpackdirectori unpack directori file target exam usedeployfold deploy folder useownexambundlesstartlevel exam bundl start level editconfigurationfileput edit configur file put config properti karaf startlevel bundl editconfigurationfileput edit configur file put config properti karaf startup messag load fuse karaf home editconfigurationfileput edit configur file put user properti admin admin admin manag viewer oper maintain deploy auditor administr superus user editconfigurationfileput edit configur file put system properti project version mavenutil maven util getartifactvers artifact version group artifact editconfigurationfileput edit configur file put system properti patch disabl editconfigurationfileput edit configur file put system properti java secur egd file dev urandom mavenbundl maven bundl fabric8 tool test pax exam karaf mavenutil maven util getartifactvers artifact version fabric8 tool test pax exam karaf mavenbundl maven bundl org jboss fuse itest esb itest common mavenutil maven util getartifactvers artifact version org jboss fuse itest esb itest common wrappedbundl wrap bundl mavenbundl maven bundl fabric8 itest fabric itest common mavenutil maven util getartifactvers artifact version fabric8 itest fabric itest common keepruntimefold keep runtim folder loglevel log level loglevelopt log level option loglevel log level error string getesbvers esb version version", "file_package_path": "org.fusesource.esb.itests.pax.exam.karaf.EsbTestSupport", "package_fully_qualified_name": "org.fusesource.esb.itests.pax.exam.karaf", "import_fully_qualified_names": ["java.io.File", "java.util.HashSet", "java.util.Set", "io.fabric8.tooling.testing.pax.exam.karaf.FabricKarafTestSupport", "org.apache.karaf.jaas.boot.principal.RolePrincipal", "org.ops4j.pax.exam.MavenUtils", "org.ops4j.pax.exam.Option", "org.ops4j.pax.exam.karaf.options.LogLevelOption", "org.junit.Assert.assertFalse", "org.junit.Assert.assertTrue", "org.ops4j.pax.exam.CoreOptions.maven", "org.ops4j.pax.exam.CoreOptions.wrappedBundle", "org.ops4j.pax.exam.karaf.options.KarafDistributionOption.*"], "file_path": "/esb/esb-itests/common/src/main/java/org/fusesource/esb/itests/pax/exam/karaf/EsbTestSupport.java"}
{"text": "copyright red hat red hat licens file apach licens version licens file complianc licens obtain copi licens http www apach org licens licens requir applic law agre write softwar distribut licens distribut basi warranti condit express impli licens specif languag govern permiss limit licens karaf version connector featur runwith run paxexam pax exam examreactorstrategi exam reactor strategi permethod method esbfeaturestest esb featur test esbtestsupport esb test support test testconnector test connector installuninstallcommand instal uninstal command connector test testsaaj test saaj installuninstallcommand instal uninstal command saaj configur option config option defaultcompositeopt composit option esbdistributionconfigur esb distribut configur jboss fuse karaf", "file_package_path": "org.fusesource.esb.itests.extra.EsbFeaturesTest", "package_fully_qualified_name": "org.fusesource.esb.itests.extra", "import_fully_qualified_names": ["org.fusesource.esb.itests.pax.exam.karaf.EsbTestSupport", "org.junit.Test", "org.junit.runner.RunWith", "org.ops4j.pax.exam.Configuration", "org.ops4j.pax.exam.Option", "org.ops4j.pax.exam.spi.reactors.ExamReactorStrategy", "org.ops4j.pax.exam.junit.PaxExam", "org.ops4j.pax.exam.options.DefaultCompositeOption", "org.ops4j.pax.exam.spi.reactors.PerMethod"], "file_path": "/esb/esb-itests/extra/src/test/java/org/fusesource/esb/itests/extra/EsbFeaturesTest.java"}
{"text": "copyright red hat red hat licens file apach licens version licens file complianc licens obtain copi licens http www apach org licens licens requir applic law agre write softwar distribut licens distribut basi warranti condit express impli licens specif languag govern permiss limit licens list featur obtain link featuresservic featur servic method tri instal uninstal featur note critic featur instal particular product instal uninstal caus system damag loss critic osgi servic featuresservic featur servic option verbos featuresservic featur servic option verbos runwith run paxexam pax exam examreactorstrategi exam reactor strategi permethod method jbossfusefullfeaturesavailabletest jboss fuse full featur avail test esbtestsupport esb test support set string criticalfeatur critic featur hashset hash set criticalfeatur critic featur add karaf criticalfeatur critic featur add karaf framework criticalfeatur critic featur add obr criticalfeatur critic featur add jpa criticalfeatur critic featur add jndi criticalfeatur critic featur add transact criticalfeatur critic featur add gemini blueprint criticalfeatur critic featur add applic isol criticalfeatur critic featur add activemq client criticalfeatur critic featur add activemq criticalfeatur critic featur add http criticalfeatur critic featur add http whiteboard criticalfeatur critic featur add war criticalfeatur critic featur add jetti criticalfeatur critic featur add fabric hawtio criticalfeatur critic featur add fabric ldap jaa inject featuresservic featur servic featuresservic featur servic test ignor fabric run manual check esb esb itest extra target exam uuid data log test log file testfeatur test featur checkallnotinstalledfeatur check instal featur configur option config option defaultcompositeopt composit option esbdistributionconfigur esb distribut configur jboss fuse karaf coreopt core option systemtimeout system timeout vmoption option maxperms max perm size checkallnotinstalledfeatur check instal featur file logfil log file file system getproperti properti user dir data log test log logfil log file getparentfil parent file mkdir printstream print stream log printstream print stream logfil log file log println bundl instal start map string bundl bundl hashmap hash map bundl bundlecontext bundl context getbundl bundl log println bundl getloc locat bundl put getloc locat set string bundleswithoutfeatur bundl featur hashset hash set bundl keyset key set log println featur instal start set string installedfeatur instal featur hashset hash set featur featuresservic featur servic listinstalledfeatur list instal featur log println boot time instal featur getid bundleinfo bundl info getbundl bundl log println bundl getloc locat bundleswithoutfeatur bundl featur remov getloc locat installedfeatur instal featur add getnam name getvers version log println bundl instal start part featur string bundleswithoutfeatur bundl featur log println bundl list string linkedlist link list featur featur featuresservic featur servic listfeatur list featur fcount featur length featur featur installedfeatur instal featur contain getnam name getvers version criticalfeatur critic featur contain getnam name log println featur fcount getid ignor log println featur fcount getid featuresservic featur servic installfeatur instal featur enumset set featuresservic featur servic option noautorefreshbundl auto refresh bundl list string importantbundl bundl linkedlist link list uninstal bundleinfo bundl info getbundl bundl bundleswithoutfeatur bundl featur contain getloc locat uninstal importantbundl bundl add getloc locat uninstal featuresservic featur servic uninstallfeatur uninstal featur getnam name getvers version enumset set featuresservic featur servic option noautorefreshbundl auto refresh bundl log println featur getid won't uninstal contain bundl string importantbundl bundl log println log println featur instal error getmessag messag add featur getnam name getvers version getmessag messag string log println log close assertthat featur instal size", "file_package_path": "org.fusesource.esb.itests.extra.JbossFuseFullFeaturesAvailableTest", "package_fully_qualified_name": "org.fusesource.esb.itests.extra", "import_fully_qualified_names": ["java.io.File", "java.io.PrintStream", "java.util.EnumSet", "java.util.HashMap", "java.util.HashSet", "java.util.LinkedList", "java.util.List", "java.util.Map", "java.util.Set", "javax.inject.Inject", "org.apache.karaf.features.BundleInfo", "org.apache.karaf.features.Feature", "org.apache.karaf.features.FeaturesService", "org.fusesource.esb.itests.pax.exam.karaf.EsbTestSupport", "org.junit.Ignore", "org.junit.Test", "org.junit.runner.RunWith", "org.ops4j.pax.exam.Configuration", "org.ops4j.pax.exam.CoreOptions", "org.ops4j.pax.exam.Option", "org.ops4j.pax.exam.junit.PaxExam", "org.ops4j.pax.exam.options.DefaultCompositeOption", "org.ops4j.pax.exam.options.extra.VMOption", "org.ops4j.pax.exam.spi.reactors.ExamReactorStrategy", "org.ops4j.pax.exam.spi.reactors.PerMethod", "org.osgi.framework.Bundle", "org.hamcrest.CoreMatchers.is", "org.junit.Assert.assertThat"], "file_path": "/esb/esb-itests/extra/src/test/java/org/fusesource/esb/itests/extra/JbossFuseFullFeaturesAvailableTest.java"}
{"text": "copyright red hat red hat licens file apach licens version licens file complianc licens obtain copi licens http www apach org licens licens requir applic law agre write softwar distribut licens distribut basi warranti condit express impli licens specif languag govern permiss limit licens set smoke test ensur core esb featur instal start properli start check featur got instal correctli ensur servlet context regist hawtio url path runwith run paxexam pax exam examreactorstrategi exam reactor strategi permethod method esbcorefeaturestest esb core featur test esbtestsupport esb test support inject bundlecontext bundl context bundlecontext bundl context test testhawtio test hawt string listfeaturesoutput list featur output executecommandasadmin execut command admin featur list grep hawtio asserttru featur hawtio instal listfeaturesoutput list featur output contain instal serviceloc servic locat awaitservic await servic bundlecontext bundl context servletcontext servlet context osgi web contextpath hawtio configur option config option defaultcompositeopt composit option esbdistributionconfigur esb distribut configur jboss fuse karaf", "file_package_path": "org.fusesource.esb.itests.smoke.EsbCoreFeaturesTest", "package_fully_qualified_name": "org.fusesource.esb.itests.smoke", "import_fully_qualified_names": ["org.junit.Assert.assertTrue", "javax.inject.Inject", "javax.servlet.ServletContext", "io.fabric8.tooling.testing.pax.exam.karaf.ServiceLocator", "org.fusesource.esb.itests.pax.exam.karaf.EsbTestSupport", "org.junit.Test", "org.junit.runner.RunWith", "org.ops4j.pax.exam.Configuration", "org.ops4j.pax.exam.Option", "org.ops4j.pax.exam.junit.PaxExam", "org.ops4j.pax.exam.options.DefaultCompositeOption", "org.ops4j.pax.exam.spi.reactors.ExamReactorStrategy", "org.ops4j.pax.exam.spi.reactors.PerMethod", "org.osgi.framework.BundleContext"], "file_path": "/esb/esb-itests/smoke/src/test/java/org/fusesource/esb/itests/smoke/EsbCoreFeaturesTest.java"}
{"text": "copyright red hat red hat licens file apach licens version licens file complianc licens obtain copi licens http www apach org licens licens requir applic law agre write softwar distribut licens distribut basi warranti condit express impli licens specif languag govern permiss limit licens runwith run paxexam pax exam examreactorstrategi exam reactor strategi permethod method esbexamplefeaturestest esb exampl featur test esbtestsupport esb test support logger log loggerfactori logger factori getlogg logger esbexamplefeaturestest esb exampl featur test ignor entesb test testcamelbox test camel box installquickstartbundl instal quickstart bundl camel box ignor entesb test testcamellinkedin test camel link installquickstartbundl instal quickstart bundl camel linkedin ignor entesb test testcamelodata test camel odata installquickstartbundl instal quickstart bundl camel odata ignor entesb test testcamelsalesforc test camel sale forc installquickstartbundl instal quickstart bundl camel salesforc ignor entesb test testcamelsap test camel sap installquickstartbundl instal quickstart bundl camel sap configur option config option defaultcompositeopt composit option esbdistributionconfigur esb distribut configur jboss fuse karaf mavenbundl maven bundl org apach geronimo spec geronimo metadata spec", "file_package_path": "org.fusesource.esb.itests.smoke.EsbExampleFeaturesTest", "package_fully_qualified_name": "org.fusesource.esb.itests.smoke", "import_fully_qualified_names": ["org.fusesource.esb.itests.pax.exam.karaf.EsbTestSupport", "org.junit.Test", "org.junit.Ignore", "org.junit.runner.RunWith", "org.ops4j.pax.exam.Configuration", "org.ops4j.pax.exam.Option", "org.ops4j.pax.exam.junit.PaxExam", "org.ops4j.pax.exam.karaf.options.KarafDistributionOption", "org.ops4j.pax.exam.options.DefaultCompositeOption", "org.ops4j.pax.exam.spi.reactors.ExamReactorStrategy", "org.ops4j.pax.exam.spi.reactors.PerMethod", "org.slf4j.Logger", "org.slf4j.LoggerFactory"], "file_path": "/esb/esb-itests/smoke/src/test/java/org/fusesource/esb/itests/smoke/EsbExampleFeaturesTest.java"}
{"text": "copyright red hat red hat licens file apach licens version licens file complianc licens obtain copi licens http www apach org licens licens requir applic law agre write softwar distribut licens distribut basi warranti condit express impli licens specif languag govern permiss limit licens set smoke test ensur core esb featur instal start properli jboss fuse karaf full assembl ignor runwith run paxexam pax exam examreactorstrategi exam reactor strategi permethod method esbkaraffullcorefeaturestest esb karaf full core featur test esbcorefeaturestest esb core featur test configur option config option defaultcompositeopt composit option esbdistributionconfigur esb distribut configur jboss fuse karaf full", "file_package_path": "org.fusesource.esb.itests.smoke.EsbKarafFullCoreFeaturesTest", "package_fully_qualified_name": "org.fusesource.esb.itests.smoke", "import_fully_qualified_names": ["org.junit.Assert.assertTrue", "javax.inject.Inject", "javax.servlet.ServletContext", "io.fabric8.tooling.testing.pax.exam.karaf.ServiceLocator", "org.fusesource.esb.itests.pax.exam.karaf.EsbTestSupport", "org.junit.Test", "org.junit.Ignore", "org.junit.runner.RunWith", "org.ops4j.pax.exam.Configuration", "org.ops4j.pax.exam.Option", "org.ops4j.pax.exam.junit.PaxExam", "org.ops4j.pax.exam.options.DefaultCompositeOption", "org.ops4j.pax.exam.spi.reactors.ExamReactorStrategy", "org.ops4j.pax.exam.spi.reactors.PerMethod", "org.osgi.framework.BundleContext"], "file_path": "/esb/esb-itests/smoke/src/test/java/org/fusesource/esb/itests/smoke/EsbKarafFullCoreFeaturesTest.java"}
{"text": "copyright red hat red hat licens file apach licens version licens file complianc licens obtain copi licens http www apach org licens licens requir applic law agre write softwar distribut licens distribut basi warranti condit express impli licens specif languag govern permiss limit licens bodyinaggregatingstrategi bodi aggreg strategi aggregationstrategi aggreg strategi exchang aggreg exchang oldexchang old exchang exchang newexchang exchang oldexchang old exchang newexchang exchang string oldbodi old bodi oldexchang old exchang getin getbodi bodi string string newbodi bodi newexchang exchang getin getbodi bodi string oldexchang old exchang getin setbodi set bodi oldbodi old bodi newbodi bodi oldexchang old exchang", "file_package_path": "org.jboss.quickstarts.fuse.processor.BodyInAggregatingStrategy", "package_fully_qualified_name": "org.jboss.quickstarts.fuse.processor", "import_fully_qualified_names": ["org.apache.camel.Exchange", "org.apache.camel.processor.aggregate.AggregationStrategy"], "file_path": "/quickstarts/camel/camel-linkedin/src/main/java/org/jboss/quickstarts/fuse/processor/BodyInAggregatingStrategy.java"}
{"text": "copyright red hat red hat licens file apach licens version licens file complianc licens obtain copi licens http www apach org licens licens requir applic law agre write softwar distribut licens distribut basi warranti condit express impli licens specif languag govern permiss limit licens helper convert json data file sobject object jsonhelp json helper objectmapp object mapper mapper mapper objectmapp object mapper mapper configur serializationconfig serial config featur write date timestamp jsonhelp json helper chees readfil read file string content ioexcept chees mapper readvalu read valu content chees string writefil write file chees chees ioexcept mapper writevalueasstr write valu string chees", "file_package_path": "org.jboss.quickstarts.fuse.salesforce.JsonHelper", "package_fully_qualified_name": "org.jboss.quickstarts.fuse.salesforce", "import_fully_qualified_names": ["java.io.IOException", "org.apache.camel.salesforce.dto.Cheese__c", "org.codehaus.jackson.map.ObjectMapper", "org.codehaus.jackson.map.SerializationConfig"], "file_path": "/quickstarts/camel/camel-salesforce/src/main/java/org/jboss/quickstarts/fuse/salesforce/JsonHelper.java"}
{"text": "jboss boss home profession open sourc copyright red hat affili individu contributor author tag copyright txt distribut full list individu contributor licens apach licens version licens file complianc licens obtain copi licens http www apach org licens licens requir applic law agre write softwar distribut licens distribut basi warranti condit express impli licens specif languag govern permiss limit licens salesforc dto sobject object chees countri descript milk xstreamalia stream alia chees chees abstractsobjectbas object base string countri jsonproperti json properti countri string getcountri countri countri jsonproperti json properti countri setcountri set countri string countri countri countri string descript jsonproperti json properti descript string getdescript descript descript jsonproperti json properti descript setdescript set descript string descript descript descript xstreamconvert stream convert multiselectpicklistconvert multi select picklist convert org apach camel salesforc dto milkenum milk milk jsonproperti json properti milk jsonseri json serial multiselectpicklistseri multi select picklist serial milkenum milk getmilk milk milk jsonproperti json properti milk jsondeseri json deseri multiselectpicklistdeseri multi select picklist deseri setmilk set milk milkenum milk milk milk milk", "file_package_path": "org.apache.camel.salesforce.dto.Cheese__c", "package_fully_qualified_name": "org.apache.camel.salesforce.dto", "import_fully_qualified_names": ["com.thoughtworks.xstream.annotations.XStreamAlias", "com.thoughtworks.xstream.annotations.XStreamConverter", "org.apache.camel.component.salesforce.api.MultiSelectPicklistConverter", "org.apache.camel.component.salesforce.api.MultiSelectPicklistDeserializer", "org.apache.camel.component.salesforce.api.MultiSelectPicklistSerializer", "org.apache.camel.component.salesforce.api.dto.AbstractSObjectBase", "org.codehaus.jackson.annotate.JsonProperty", "org.codehaus.jackson.map.annotate.JsonDeserialize", "org.codehaus.jackson.map.annotate.JsonSerialize"], "file_path": "/quickstarts/camel/camel-salesforce/src/sample-pojos/main/java/org/apache/camel/salesforce/dto/Cheese__c.java"}
{"text": "jboss boss home profession open sourc copyright red hat affili individu contributor author tag copyright txt distribut full list individu contributor licens apach licens version licens file complianc licens obtain copi licens http www apach org licens licens requir applic law agre write softwar distribut licens distribut basi warranti condit express impli licens specif languag govern permiss limit licens salesforc enumer dto picklist milk cow ewe goat milkenum milk cow cow ewe ewe goat goat string valu milkenum milk string valu valu valu jsonvalu json valu string valu valu jsoncreat json creator milkenum milk fromvalu valu string valu milkenum milk milkenum milk valu valu equal valu illegalargumentexcept illeg argument valu", "file_package_path": "org.apache.camel.salesforce.dto.MilkEnum", "package_fully_qualified_name": "org.apache.camel.salesforce.dto", "import_fully_qualified_names": ["org.codehaus.jackson.annotate.JsonCreator", "org.codehaus.jackson.annotate.JsonValue"], "file_path": "/quickstarts/camel/camel-salesforce/src/sample-pojos/main/java/org/apache/camel/salesforce/dto/MilkEnum.java"}
{"text": "jboss boss home profession open sourc copyright red hat affili individu contributor author tag copyright txt distribut full list individu contributor licens apach licens version licens file complianc licens obtain copi licens http www apach org licens licens requir applic law agre write softwar distribut licens distribut basi warranti condit express impli licens specif languag govern permiss limit licens salesforc queryrecord queri record dto type chees queryrecordschees queri record chees abstractqueryrecordsbas queri record base xstreamimplicit stream implicit list chees record list chees getrecord record record setrecord set record list chees record record record", "file_package_path": "org.apache.camel.salesforce.dto.QueryRecordsCheese__c", "package_fully_qualified_name": "org.apache.camel.salesforce.dto", "import_fully_qualified_names": ["java.util.List", "com.thoughtworks.xstream.annotations.XStreamImplicit", "org.apache.camel.component.salesforce.api.dto.AbstractQueryRecordsBase"], "file_path": "/quickstarts/camel/camel-salesforce/src/sample-pojos/main/java/org/apache/camel/salesforce/dto/QueryRecordsCheese__c.java"}
{"text": "copyright red hat red hat licens file apach licens version licens file complianc licens obtain copi licens http www apach org licens licens requir applic law agre write softwar distribut licens distribut basi warranti condit express impli licens specif languag govern permiss limit licens command name check user scope amq descript check user defin amqcheckadminus amq check admin user checkadminus check admin user string getcreateadminusercommand creat admin user command amq creat admin user", "file_package_path": "org.jboss.fuse.commands.amq.AmqCheckAdminUser", "package_fully_qualified_name": "org.jboss.fuse.commands.amq", "import_fully_qualified_names": ["org.apache.felix.gogo.commands.Command", "org.jboss.fuse.commands.CheckAdminUser"], "file_path": "/shared/shared-commands/src/main/java/org/jboss/fuse/commands/amq/AmqCheckAdminUser.java"}
{"text": "copyright red hat red hat licens file apach licens version licens file complianc licens obtain copi licens http www apach org licens licens requir applic law agre write softwar distribut licens distribut basi warranti condit express impli licens specif languag govern permiss limit licens command name creat admin user scope amq descript creat admin user exist amqcreateadminus amq creat admin user createadminus creat admin user", "file_package_path": "org.jboss.fuse.commands.amq.AmqCreateAdminUser", "package_fully_qualified_name": "org.jboss.fuse.commands.amq", "import_fully_qualified_names": ["org.apache.felix.gogo.commands.Command", "org.jboss.fuse.commands.CreateAdminUser"], "file_path": "/shared/shared-commands/src/main/java/org/jboss/fuse/commands/amq/AmqCreateAdminUser.java"}
{"text": "copyright red hat red hat licens file apach licens version licens file complianc licens obtain copi licens http www apach org licens licens requir applic law agre write softwar distribut licens distribut basi warranti condit express impli licens specif languag govern permiss limit licens checkadminus check admin user osgicommandsupport osgi command support overrid object doexecut execut properti userprop user prop properti file system getproperti properti karaf home user properti userprop user prop isempti empti system println user found user properti pleas getcreateadminusercommand creat admin user command system println command creat system println string getcreateadminusercommand creat admin user command", "file_package_path": "org.jboss.fuse.commands.CheckAdminUser", "package_fully_qualified_name": "org.jboss.fuse.commands", "import_fully_qualified_names": ["java.io.File", "org.apache.felix.gogo.commands.Command", "org.apache.felix.utils.properties.Properties", "org.apache.karaf.shell.console.OsgiCommandSupport"], "file_path": "/shared/shared-commands/src/main/java/org/jboss/fuse/commands/CheckAdminUser.java"}
{"text": "copyright red hat red hat licens file apach licens version licens file complianc licens obtain copi licens http www apach org licens licens requir applic law agre write softwar distribut licens distribut basi warranti condit express impli licens specif languag govern permiss limit licens prompt user usernam password param user usernam param password password string array usernam index password index ioexcept usernam configur prompt user valu command name creat admin user scope esb descript creat admin user exist createadminus creat admin user osgicommandsupport osgi command support option name user multivalu multi valu descript usernam user option refer karaf user ssh http jmx string newus user option name user password multivalu multi valu descript password user option refer karaf user ssh http jmx string newuserpassword user password option name user role multivalu multi valu descript role user option refer karaf user ssh http jmx list string newuserrol user role overrid object doexecut execut properti userprop user prop properti file system getproperti properti karaf home user properti userprop user prop isempti empti newus user newuserpassword user password string credenti promptfornewus prompt user newus user newuserpassword user password newus user credenti newuserpassword user password credenti newus user system println user specifi featur access session stringbuild string builder stringbuild string builder append jaa manag realm karaf index append jaa useradd append newus user append append newuserpassword user password append string newuserrol user role getnewuserrol user role append jaa roleadd append newus user append append newuserrol user role append append jaa updat session execut tostr string string promptfornewus prompt user string user string password ioexcept string respons string user password system println pleas specifi user user user isempti empti user shellutil shell util readlin read line session user name user user password string password1 string password2 password1 password1 equal password2 password1 shellutil shell util readlin read line session password user password2 shellutil shell util readlin read line session verifi password user password1 password2 password1 password1 equal password2 password password1 system println password did match pleas respons user respons password respons string getnewus user newus user setnewus set user string newus user newus user newus user string getnewuserpassword user password newuserpassword user password setnewuserpassword set user password string newuserpassword user password newuserpassword user password newuserpassword user password list string getnewuserrol user role newuserrol user role newuserrol user role isempti empti list string defaultrol role linkedlist link list defaultrol role add admin defaultrol role add manag defaultrol role add viewer defaultrol role add monitor defaultrol role add oper defaultrol role add maintain defaultrol role add deploy defaultrol role add auditor defaultrol role add administr defaultrol role add superus user defaultrol role newuserrol user role", "file_package_path": "org.jboss.fuse.commands.CreateAdminUser", "package_fully_qualified_name": "org.jboss.fuse.commands", "import_fully_qualified_names": ["org.apache.felix.gogo.commands.Command", "org.apache.felix.gogo.commands.Option", "org.apache.felix.utils.properties.Properties", "org.apache.karaf.shell.console.OsgiCommandSupport", "io.fabric8.utils.shell.ShellUtils", "java.io.File", "java.io.IOException", "java.util.LinkedList", "java.util.List"], "file_path": "/shared/shared-commands/src/main/java/org/jboss/fuse/commands/CreateAdminUser.java"}
