{"id":18,"bug_id":"207","text":"F11 option. Hi, when I click on \"view -\u003e Full screen\" or F11 the full screen appear for 1 second and after that aTune back to standard view.","method_goldset":["net.sourceforge.atunes.gui.views.dialogs.fullScreen.FullScreenDialog:setFullScreen(boolean)","net.sourceforge.atunes.gui.views.dialogs.fullScreen.FullScreenDialog:setVisible(boolean)"],"creation_date":"2008-9-8 13:46:04","resolution_date":"2012-10-9 11:07:04"}
{"id":19,"bug_id":"212","text":"Context panel. When the artist tab is selected, the picture, biography and album info is correct but very often the name is not. It is often from a prior song and will often linger for 2-3 songs","method_goldset":["net.sourceforge.atunes.kernel.controllers.contextInformation.ContextInformationPanelController:clear(boolean)"],"creation_date":"2008-9-12 23:58:46","resolution_date":"2012-10-9 11:08:39"}
{"id":20,"bug_id":"213","text":"Not supported formats are not skipped under Xine. - Copy a few files (not music) into the repository and rename them to have a supported extension (for example . mp3) - Start aTunes, set Xine as engine, refresh repository and try to play the fake files   Actual behaviour: - aTunes get stuck","method_goldset":["net.sourceforge.atunes.kernel.modules.player.xine.XineHandler:startPlayback(AudioObject, AudioObject)"],"creation_date":"2008-9-14 08:05:44","resolution_date":"2012-10-9 11:06:56"}
{"id":21,"bug_id":"220","text":"OSD not displayed when jumping to next or previous track. OSD only appears when pressing play button (after stop the track)","method_goldset":["net.sourceforge.atunes.kernel.handlers.PlayerHandler:playAudioObject(AudioObject)","net.sourceforge.atunes.kernel.handlers.PlayerHandler:playCurrentAudioObject(boolean)"],"creation_date":"2008-9-20 18:53:54","resolution_date":"2012-10-9 11:11:21"}
{"id":23,"bug_id":"231","text":"Can\u0027t add image if repository was read by older app version. 1. Read repository by older version of aTunes 2. Update to latest SVN 3. Try to add an image (assuming supported file format)  Adding image not possible.  public boolean isSupportsInternalImage() returns false as was never set to true (as not supported in old versions).","method_goldset":["net.sourceforge.atunes.kernel.modules.repository.audio.AudioFile:supportsInternalPicture()"],"creation_date":"2008-10-4 18:31:26","resolution_date":"2012-10-9 11:07:21"}
{"id":24,"bug_id":"240","text":"\"Set lyrics automatically\" cannot be terminated. A problem can occur when I right-click on a file and select \"Set lyrics automatically\". If I perform that action on an obscure artist whose lyrics will not be found, the \"Performing changes...\" window appears and never goes away. I\u0027ve literally waited for ten minutes on occasion; the lyrics are never found, and the window never closes. Since that window makes it impossible to do anything with aTunes, when this happens, I must forcefully kill the program.  The window has no cancel button; it _does_  have an \u0027X\u0027 button, but it does not actually do anything. While less frequent, I\u0027ve also had perpetual \"Performing changes...\" windows occur while trying to do other tag-related tasks.","method_goldset":["net.sourceforge.atunes.kernel.executors.processes.AddLyricsToTagProcess:run()","net.sourceforge.atunes.kernel.modules.contextInformation.Lyrics:setLyrics(String)"],"creation_date":"2008-11-1 23:11:38","resolution_date":"2012-10-9 11:14:13"}
{"id":25,"bug_id":"245","text":"Radio \"Labels\" can not be added to playlist. When trying to add a folder or label of radios to the playlist, this is not possible. For example it is not possible to add all \"Classical\" stations to the playlist by draging the folder icon into it.","method_goldset":["net.sourceforge.atunes.kernel.modules.draganddrop.TreesToPlayListDragAndDropListener:drop(DropTargetDropEvent)"],"creation_date":"2008-11-12 10:58:31","resolution_date":"2012-10-9 11:08:39"}
{"id":28,"bug_id":"278","text":"Edit Titles Fails. After importing a CD with no title list available, select the album and right-click | Edit Titles. The dialog allows me to edit a title, but as soon as I hit enter, tab, or mouse click another title, the change reverts to \"Track n\".","method_goldset":["net.sourceforge.atunes.kernel.controllers.editTitlesDialog.EditTitlesTableModel:setValueAt(String, int, int)"],"creation_date":"2008-12-22 21:39:02","resolution_date":"2012-10-9 11:04:06"}
