{"id":104,"bug_id":"MAHOUT-1301","text":"toString() method of SequentialAccessSparseVector has excess comma at the end. Unfortunately, that patch introduced new bug: output of the toString() method had been changed - extra comma added at the end of the string Example: \nConsider following sparse vector\n{code:java}\nVector v \u003d new SequentialAccessSparseVector(capacity);\nv.set(1, 0.1);\nv.set(3, 0.3);\n{code}\nIn 0.7 v.toString() returns following string:\n{code:java}\n{1:0.1,3:0.3}\n{code}\nbut in 0.8 it returns\n{code:java}\n{1:0.1,3:0.3,}\n{code}\nAs you can see, there is extra comma at the end of the string.","method_goldset":["org.apache.mahout.math.RandomAccessSparseVector:toString()","org.apache.mahout.math.SequentialAccessSparseVector:toString()"],"creation_date":"2013-8-1 09:31:21","resolution_date":"2013-8-1 16:48:06"}
{"id":106,"bug_id":"MAHOUT-1314","text":"StreamingKMeansReducer throws NullPointerException when REDUCE_STREAMING_KMEANS is set to true. when REDUCE_STREAMING_KMEANS option is set to true (-rskm) the reducer fails with NullPointerException.                 it happens every time the REDUCE_STREAMING_KMEANS is set to true.","method_goldset":["org.apache.mahout.clustering.streaming.mapreduce.StreamingKMeansReducer:reduce(IntWritable, Iterable\u003cCentroidWritable\u003e, Context)","org.apache.mahout.clustering.streaming.mapreduce.StreamingKMeansReducer:getBestCentroids(List\u003cCentroid\u003e, Configuration)"],"creation_date":"2013-8-18 09:07:48","resolution_date":"2013-11-18 01:53:51"}
{"id":108,"bug_id":"MAHOUT-1319","text":"seqdirectory -filter argument silently ignored when run as MR. Running \"seqdirectory\" (Sequence Files from Input Directory) from the command line and specifying a custom filter using the -filter parameter, the argument is ignored and the default \"PrefixAdditionFilter\" is used on the input. No exception is thrown. When the same command is run with \"-xm sequential\", the filter is found and works as expected.","method_goldset":["org.apache.mahout.common.HadoopUtil:buildDirList(FileSystem, FileStatus)","org.apache.mahout.text.WholeFileRecordReader:WholeFileRecordReader(CombineFileSplit, TaskAttemptContext, Integer)","org.apache.mahout.text.WholeFileRecordReader:initialize(InputSplit, TaskAttemptContext)","org.apache.mahout.text.TestSequenceFilesFromDirectory.ExcludeDotFiles:accept(Path)"],"creation_date":"2013-8-26 13:28:30","resolution_date":"2013-12-20 11:19:35"}
{"id":112,"bug_id":"MAHOUT-1349","text":"Clusterdumper/loadTermDictionary crashes when highest index in (sparse) dictionary vector is larger than dictionary vector size?. I had a repository of 500K documents, for which I generated the input vectors and a dictionary using some custom code (not seq2sparse etc). I hashed the features with max size 5M (because I didn\u0027t know how many features were in the dataset and wanted to minimize collisions). The kmeans ran fine and generate sensible looking results, but when I tried to run ClusterDumper I got the following error:                            The error is when it tries to access the dictionary for the feature with index 698948   It looks like the dictionary array is sized for the number of unique keywords, not the highest index:","method_goldset":["org.apache.mahout.utils.vectors.VectorHelper:loadTermDictionary(Configuration, String)","org.apache.mahout.utils.vectors.VectorHelperTest:testJsonFormatting()"],"creation_date":"2013-11-1 07:59:17","resolution_date":"2013-12-8 17:35:34"}
{"id":113,"bug_id":"MAHOUT-1358","text":"StreamingKMeansThread throws IllegalArgumentException when REDUCE_STREAMING_KMEANS is set to true. Running StreamingKMeans Clustering with REDUCE_STREAMING_KMEANS \u003d true and when no estimatedDistanceCutoff is specified, throws the following error","method_goldset":["org.apache.mahout.clustering.streaming.mapreduce.StreamingKMeansThread:StreamingKMeansThread(Iterable\u003cCentroid\u003e, Configuration)","org.apache.mahout.clustering.streaming.mapreduce.StreamingKMeansThread:StreamingKMeansThread(Path, Configuration)"],"creation_date":"2013-11-18 01:58:22","resolution_date":"2013-11-18 11:55:25"}
