{"id":117,"bug_id":"OPENJPA-1627","text":"ORderBy with @ElementJoinColumn and EmbeddedId uses wrong columns in SQL. The problem is that the order by in the generated SQL is for columns mapped in the transaction entity NOT the TransacionId as expected. So the Account class has the following fragment....          However the generated SQL is doing order by on columns mapped in Transaction:","method_goldset":["org.apache.openjpa.jdbc.meta.JDBCRelatedFieldOrder:order(Select, ClassMapping, Joins)"],"creation_date":"2010-4-12 05:21:13","resolution_date":"2011-1-12 16:41:26"}
{"id":119,"bug_id":"OPENJPA-1762","text":"javax.persistence.lock.scope EXTENDED doesn\u0027t properly lock join tables. ManyToMany relationship between A(owner) and B. Em1 - Find A, no lock\nEm1 - Refresh A, PESSIMISTIC_FORCE_INCREMENT and javax.persistence.lock.scope\u003dPessimisticLockScope.EXTENDED -- this SHOULD lock the join table for A_B\nEm2 - Find, lock B. Remove B.  should block while trying to remove from Join table.","method_goldset":["org.apache.openjpa.jdbc.kernel.PessimisticLockManager:getLockRows(DBDictionary, Object, ClassMapping, JDBCFetchConfiguration, SQLFactory)","org.apache.openjpa.jdbc.meta.strats.ContainerFieldStrategy:appendSize(SQLBuffer, Select, Joins)","org.apache.openjpa.jdbc.meta.strats.ContainerFieldStrategy:getJoinForeignKey()","org.apache.openjpa.jdbc.meta.strats.StoreCollectionFieldStrategy:getJoinForeignKey()","org.apache.openjpa.persistence.lockmgr.Employee:getId()","org.apache.openjpa.persistence.lockmgr.Employee:readExternal(ObjectInput)","org.apache.openjpa.persistence.lockmgr.Employee:setDepartment(Department)","org.apache.openjpa.persistence.lockmgr.Employee:toString()","org.apache.openjpa.persistence.lockmgr.Employee:writeExternal(ObjectOutput)"],"creation_date":"2010-8-9 14:42:31","resolution_date":"2010-11-11 11:03:29"}
{"id":121,"bug_id":"OPENJPA-1784","text":"Map value updates not flushed. I have an entity with a map element collection where the map value is an Embeddable.       Given a persistent instance m of my entity, I update a member of a given map value and then merge the modified entity:     commit();\n   \nThe problem is, the state change of the map does not get saved to the database. With DEBUG logging on, I can see that the flush on commit does not trigger any SQL UPDATE.      After this change, I do see the expected UPDATE.","method_goldset":["org.apache.openjpa.util.ProxyMaps:beforePut(ProxyMap, Object, Object)"],"creation_date":"2010-9-8 08:31:29","resolution_date":"2010-9-10 10:36:48"}
{"id":131,"bug_id":"OPENJPA-526","text":"Insert text more than 4K bytes to Clob column causes SQLException: Exhausted Resultset. Here\u0027s the persistence class:\npublic class Exam... {\n    @Lob\n    @Column(name \u003d \"text\", nullable \u003d false) ***** NOTE: set nullable \u003d true will fix the problem but it leads to bug OPENJPA-525 *****\n    private String text;\n}","method_goldset":["org.apache.openjpa.jdbc.sql.OracleDictionary:setNull(PreparedStatement, int, int, Column)","org.apache.openjpa.persistence.kernel.common.apps.Lobs:Lobs(String, int)","org.apache.openjpa.persistence.kernel.common.apps.Lobs:getId()","org.apache.openjpa.persistence.kernel.common.apps.Lobs:getLob()","org.apache.openjpa.persistence.kernel.common.apps.Lobs:setLob(String)"],"creation_date":"2008-2-27 13:28:05","resolution_date":"2010-9-20 07:36:31"}
