{"id":2,"bug_id":"LANG-292","text":"unescapeXml(\"\u002612345678;\") should be \"\u002612345678;\". Maximim value for char is 0xFFFF, so \u0026#12345678; is invalid entity reference, and so should be left as is.","class_goldset":["org.apache.commons.lang.Entities"],"method_goldset":["org.apache.commons.lang.Entities:unescape(String)","org.apache.commons.lang.Entities:unescape(Writer, String)"],"creation_date":"2006-10-31 01:45:01","resolution_date":"2006-10-31 21:34:31"}
{"id":3,"bug_id":"LANG-295","text":"StrBuilder contains usages of thisBuf.length when they should use size. While fixing LANG-294 I noticed that there are two other places in StrBuilder that reference thisBuf.length and unless I\u0027m mistaken they shouldn\u0027t.","class_goldset":["org.apache.commons.lang.text.StrBuilder"],"method_goldset":["org.apache.commons.lang.text.StrBuilder:contains(char)","org.apache.commons.lang.text.StrBuilder:indexOf(char, int)"],"creation_date":"2006-10-31 22:16:13","resolution_date":"2006-10-31 23:01:13"}
{"id":5,"bug_id":"LANG-315","text":"// Time 2 (should be, but is Time 3 \u003d\u003e NOT ok)   So a following stop()-call shouldn\u0027t increase the time counter, should it?","class_goldset":["org.apache.commons.lang.time.StopWatch"],"method_goldset":["org.apache.commons.lang.time.StopWatch:stop()"],"creation_date":"2007-2-6 13:52:59","resolution_date":"2007-2-6 22:49:59"}
{"id":6,"bug_id":"LANG-346","text":"After round()  Mon Jul 02 03:10:00 CDT 2007 -- this is what I would expect","class_goldset":["org.apache.commons.lang.time.DateUtils"],"method_goldset":["org.apache.commons.lang.time.DateUtils:modify(Calendar, int, boolean)"],"creation_date":"2007-7-6 20:06:55","resolution_date":"2007-8-9 00:25:20"}
{"id":7,"bug_id":"LANG-363","text":"If Javascripts including\u0027/\u0027, IE will parse the scripts uncorrectly, actually \u0027/\u0027 should be escaped to \u0027\\/\u0027.  value \u003d \u0027\u003cscript\u003ealert(\\\u0027aaa\\\u0027);\u003c/script\u003e\u0027;this expression will make IE render page uncorrect, it should be document.getElementById(\"test\").","class_goldset":["org.apache.commons.lang.StringEscapeUtils"],"method_goldset":["org.apache.commons.lang.StringEscapeUtils:escapeJavaStyleString(Writer, String, boolean)"],"creation_date":"2007-10-23 07:12:48","resolution_date":"2007-10-26 06:09:17"}
{"id":8,"bug_id":"LANG-393","text":"When comparing a BigDecimal, the comparing is made using equals, not compareTo, which is more appropriate in the case of BigDecimal.","class_goldset":["org.apache.commons.lang.builder.EqualsBuilder"],"method_goldset":["org.apache.commons.lang.builder.EqualsBuilder:append(Object, Object)"],"creation_date":"2008-1-3 13:46:49","resolution_date":"2008-1-13 07:00:40"}
{"id":14,"bug_id":"LANG-552","text":"I have expected that all StringUtils methods are \"null-friendly\"","class_goldset":["org.apache.commons.lang3.StringUtils"],"method_goldset":["org.apache.commons.lang3.StringUtils:replaceEach(String, String[], String[], boolean, int)"],"creation_date":"2009-11-9 12:40:57","resolution_date":"2009-12-14 07:51:45"}
{"id":21,"bug_id":"LANG-746","text":"NumberUtils.createNumber() should work equally for 0x1234 and 0X1234; currently 0X1234 generates a NumberFormatException","class_goldset":["org.apache.commons.lang3.math.NumberUtils"],"method_goldset":["org.apache.commons.lang3.math.NumberUtils:createNumber(String)"],"creation_date":"2011-8-23 12:32:12","resolution_date":"2011-8-23 12:33:42"}
{"id":22,"bug_id":"LANG-788","text":"I understand the intention of the ClassLoaderAwareObjectInputStream, but this implementation should also implement a fallback to the original implementation.","class_goldset":["org.apache.commons.lang3.SerializationUtils"],"method_goldset":["org.apache.commons.lang3.SerializationUtils:ClassLoaderAwareObjectInputStream(InputStream, ClassLoader)","org.apache.commons.lang3.SerializationUtils:resolveClass(ObjectStreamClass)"],"creation_date":"2012-2-11 12:36:48","resolution_date":"2012-2-29 14:39:49"}
{"id":24,"bug_id":"LANG-832","text":"This should fail to parse the format and date but it actually works.","class_goldset":["org.apache.commons.lang3.time.FastDateParser"],"method_goldset":["org.apache.commons.lang3.time.FastDateParser:init()"],"creation_date":"2012-9-27 00:27:58","resolution_date":"2012-9-27 00:56:48"}
