{"id":27,"bug_id":"MATH-1021","text":"It looks like the HypergeometricDistribution.sample() method doesn\u0027t work as well as it used to with large integer values -- the example code below should return a sample between 0 and 50, but usually returns -50.","class_goldset":["org.apache.commons.math3.distribution.HypergeometricDistribution"],"method_goldset":["org.apache.commons.math3.distribution.HypergeometricDistribution:getNumericalMean()"],"creation_date":"2013-8-10 00:00:22","resolution_date":"2013-8-29 21:35:32"}
{"id":28,"bug_id":"MATH-167","text":"Of course the value of the CDF is hard to evaluate in these cases, but effectively it should be either zero or one.","class_goldset":["org.apache.commons.math.distribution.NormalDistributionImpl"],"method_goldset":["org.apache.commons.math.distribution.NormalDistributionImpl:cumulativeProbability(double)"],"creation_date":"2007-6-28 14:50:05","resolution_date":"2007-11-19 01:18:28"}
{"id":30,"bug_id":"MATH-221","text":"I think the \"equals\" should return \"true\".","class_goldset":["org.apache.commons.math.complex.Complex"],"method_goldset":["org.apache.commons.math.complex.Complex:equals(Object)"],"creation_date":"2008-8-29 13:31:56","resolution_date":"2008-8-29 15:52:38"}
{"id":32,"bug_id":"MATH-273","text":"SimplexTableau was assuming an entry in the tableau had to be nonzero to indicate a basic variable, which is incorrect - the entry should have a value equal to 1.","class_goldset":["org.apache.commons.math.analysis.solvers.UnivariateRealSolverUtils"],"method_goldset":["org.apache.commons.math.analysis.solvers.UnivariateRealSolverUtils:bracket(UnivariateRealFunction, double, double, double, int)"],"creation_date":"2009-6-3 05:11:34","resolution_date":"2009-6-3 09:07:06"}
{"id":33,"bug_id":"MATH-274","text":"And it should throw an exception but it does not.    If you are going to force the use to try and catch these exceptions at least provide methods  to test the conditions prior to the possibility of the exception.","class_goldset":["org.apache.commons.math.linear.CholeskyDecompositionImpl"],"method_goldset":["org.apache.commons.math.linear.CholeskyDecompositionImpl:CholeskyDecompositionImpl(RealMatrix, double, double)"],"creation_date":"2009-6-4 19:24:12","resolution_date":"2009-6-4 20:11:26"}
{"id":34,"bug_id":"MATH-280","text":"It should return (approx) 2.0000...   0 9986501019683698 (should return 3.0000...) 0 9999683287581673 (should return 4.0000...)","class_goldset":["org.apache.commons.math.analysis.solvers.UnivariateRealSolverUtils"],"method_goldset":["org.apache.commons.math.analysis.solvers.UnivariateRealSolverUtils:bracket(UnivariateRealFunction, double, double, double, int)"],"creation_date":"2009-7-6 21:26:57","resolution_date":"2009-7-7 09:21:22"}
{"id":37,"bug_id":"MATH-326","text":"the +\u003d should just be an \u003d.          I would suggest that this method be moved up to the AbstractRealVector superclass and implemented using the sparseIterator():","class_goldset":["org.apache.commons.math.linear.ArrayRealVector;org.apache.commons.math.linear.OpenMapRealVector"],"method_goldset":["org.apache.commons.math.linear.ArrayRealVector:getLInfNorm()","org.apache.commons.math.linear.OpenMapRealVector:getLInfNorm()"],"creation_date":"2009-12-29 00:09:20","resolution_date":"2009-12-29 12:26:59"}
{"id":38,"bug_id":"MATH-358","text":"The following test case shows the end event is not handled properly and an integration that should cover a 60s range in fact covers a 160s range, more than twice the specified range.","class_goldset":["org.apache.commons.math.ode.nonstiff.RungeKuttaIntegrator;org.apache.commons.math.ode.nonstiff.EmbeddedRungeKuttaIntegrator"],"method_goldset":["org.apache.commons.math.ode.nonstiff.EmbeddedRungeKuttaIntegrator:integrate(FirstOrderDifferentialEquations, double, double[], double, double[])","org.apache.commons.math.ode.nonstiff.RungeKuttaIntegrator:integrate(FirstOrderDifferentialEquations, double, double[], double, double[])"],"creation_date":"2010-3-24 17:25:37","resolution_date":"2010-3-24 22:13:19"}
{"id":42,"bug_id":"MATH-482","text":"FastMath.max(50.0f, -50.0f) \u003d\u003e -50.0f; should be +50.0f. FastMath.max(50.0f, -50.0f) \u003d\u003e -50.0f; should be +50.0f.  The bug was not detected by the test case \"testMinMaxFloat()\" because that has a bug too - it tests doubles, not floats.","class_goldset":["org.apache.commons.math.util.FastMath"],"method_goldset":["org.apache.commons.math.util.FastMath:max(float, float)"],"creation_date":"2011-1-17 19:52:10","resolution_date":"2011-1-17 20:01:32"}
{"id":44,"bug_id":"MATH-552","text":"Output is:\n0 [0, 0]\n1 [0, 1]\n2 [0, 2]\n3 [0, 2]   \u003c\u003d\u003d\u003d should be [0, 3]\n4 [1, 0]\n5 [1, 1]\n6 [1, 2]\n7 [1, 2]   \u003c\u003d\u003d\u003d should be [1, 3]","class_goldset":["org.apache.commons.math.util.MultidimensionalCounter"],"method_goldset":["org.apache.commons.math.util.MultidimensionalCounter:getCounts(int)"],"creation_date":"2011-3-31 22:36:56","resolution_date":"2011-4-1 10:12:29"}
{"id":45,"bug_id":"MATH-554","text":"The previous code displays { -1, 2, 0 } instead of the correct answer { -1, 2, 1 }","class_goldset":["org.apache.commons.math.geometry.Vector3D"],"method_goldset":["org.apache.commons.math.geometry.Vector3D:crossProduct(Vector3D, Vector3D)"],"creation_date":"2011-4-3 14:14:38","resolution_date":"2011-4-3 14:33:56"}
{"id":57,"bug_id":"MATH-778","text":"This is not consistent with the general contract of {{FieldElement.multiply(int n)}}, where there should be no limitation on the values of {{n}}.","class_goldset":["org.apache.commons.math3.dfp.Dfp"],"method_goldset":["org.apache.commons.math3.dfp.Dfp:multiply(int)"],"creation_date":"2012-4-10 06:06:11","resolution_date":"2012-10-21 16:23:33"}
{"id":64,"bug_id":"MATH-935","text":"The four special cases +/-0 for both x and y should give the same values as Math.atan2 and FastMath.atan2.","class_goldset":["org.apache.commons.math3.analysis.differentiation.DSCompiler"],"method_goldset":["org.apache.commons.math3.analysis.differentiation.DSCompiler:atan2(double[], int, double[], int, double[], int)"],"creation_date":"2013-2-15 08:05:13","resolution_date":"2013-2-15 08:22:10"}
