{"key":"PIG-1831","title":"Indeterministic behavior in local mode due to static variable PigMapReduce.sJobConf","description":"The below script when run in local mode gives me a different output.                      Here if I store relation B and D then everytime i get the result  :\nacbd            3\nabcd            3\nadbc            3 But if i dont store relations B and D then I get an empty output. Here again I have observed that this behaviour is random ie sometimes like 1out of 5 runs there will be output. PigStorage()"}
{"key":"PIG-496","title":"","description":"produces stack trace:           {}"}
{"key":"PIG-1837","title":"","description":"After running for a while, I get the following error:  {(0)}  {(0)}"}
{"key":"PIG-730","title":"problem combining schema from a union of several LOAD expressions, with a nested bag inside the schema.","description":"---\u003e Would expect both C and D to work, but only C works. D gives the error shown below. ---\u003e Turns out using outlinks.t.target (instead of outlinks.target) works for D but not for C.                                    flatten(outlinks.target);\n flatten(outlinks.target);"}
{"key":"PIG-1843","title":"NPE in schema generation","description":"Hit NPE in following script:\n{code}\na \u003d load \u0027table_testBagDereferenceInMiddle2\u0027 as (a0:chararray);\nb \u003d foreach a generate MapGenerate(STRSPLIT(a0).  Error message:                    {code}\n ;\n{code}\n{code}\npublic class MapGenerate extends EvalFunc\u003cMap\u003e {\n    @Override\n    public Map exec(Tuple input) throws IOException {\n        Map m \u003d new HashMap();\n        m.put(\"key\", new Integer(input.size()));\n        return m;\n    }\n    \n    @Override\n    public Schema outputSchema(Schema input) {\n        return new Schema(new Schema.FieldSchema(getSchemaName(\"parselong\", input), DataType.MAP));\n    }\n}\n{code}"}
{"key":"PIG-767","title":"Schema reported from DESCRIBE and actual schema of inner bags are different.","description":"Prints for the DESCRIBE commands:  The reported schemas for urlContentsG and urlContentsF are wrong. They are also against the section \"Schemas for Complex Data Types\" in http://wiki.apache.org/pig-data/attachments/FrontPage/attachments/plrm.htm#_Schemas.     BinStorage()  DESCRIBE urlContents;\nDUMP urlContents;\n\n BY url;\nDESCRIBE urlContentsG;\n\n urlContents.pg;\n\nDESCRIBE urlContentsF;\nDUMP urlContentsF;\n\n\n {url: chararray,pg: chararray}\n {group: chararray,urlContents: {url: chararray,pg: chararray}}\n {group: chararray,pg: {pg: chararray}}\n\n {group: chararray,urlContents: {t1:(url: chararray,pg: chararray)}}\n\n {chararray}  {(chararray)}"}
{"key":"PIG-1856","title":"Custom jar is not packaged with the new job created by LimitAdjuster ","description":"The script, however,  fails since the piggybank jar isn\u0027t shipped to the backend with the additional job created by the LimitAdjuster.  {code}\n {code}"}
{"key":"PIG-946","title":"Combiner optimizer does not optimize when limit follow group, foreach","description":"The following script is combinable but is not optimized:\na \u003d load \u0027/user/pig/tests/data/singlefile/studenttab10k\u0027;\nb \u003d group a by $1;\nc \u003d foreach b generate group, AVG(a.$2);\nd \u003d limit c 10;\ndump d; 10;\ndump d;"}
{"key":"PIG-1858","title":"UDF in nested plan results frontend exception","description":"The below is the exception that I get :                               When i trun off new logical plan the script executes successfully.  {code}\n PigStorage()  {\n        Pvs \u003d order B by pvs;\n        Const \u003d org.vivek.MyAnotherUDF(Pvs.pvs).(count,sum);\n        generate Const.sum as sum;\n        } ;\n{code}"}
{"key":"PIG-1861","title":"The pig script stored in the Hadoop History logs is stored as a concatenated string without whitespace this causes problems when attempting to extract and execute the script","description":"The pig script stored in: conf#\u0027pig.script\u0027 has the whitespace removed, this makes it difficult to extract and run the\nscript. In particular, statements that terminate in \";\" work correctly as\n\"statement1;statement2;statement99\"  but statements that do not end in \";\" result in\n\"statement1statement2statement3\" and it\u0027s difficult to parse the pig script and fix the concatenated string. There\u0027s also a problem with comments as in:  On a side note, I also noticed that in many of the scripts the last statement is missing \";\" {} {} {} statement1;statement2;"}
{"key":"PIG-1866","title":"","description":"Error from old logical plan:               Error from new logical plan:             If we change \"b \u003d foreach a generate t.b1;\" to \"b \u003d foreach a generate t.i;\", it works fine, only refer to a bag does not work. {code}\n t.b1;\ndump b;\n{code}"}
{"key":"PIG-1188","title":"","description":"Currently, the number of fields in the input tuple is determined by the data.               Current result: {code} (1 2) (1 2,3) (1 {code}       {code}\n as (a0, a1);\ndump a;\n{code}\n {code}\n {code}\n {code}\n {code}\n\n {code}\n {code}"}
{"key":"PIG-1868","title":"","description":"On C3 it fails with below message :\n{code}\nCouldn\u0027t find matching uid -1 for project (Name: Project Type: bytearray Uid: 45 Input: 0 Column: 1)\n{code}  The script works if I turn off new logical plan or use Pig 0.7. {code}\n {\n Tuples \u003d order B1 by ts;\n generate Tuples;\n} { t: ( previous, current, next ) } as id;\ndump C3;\n{code}\n\n {code}\n {code}\n\n on C1 ;\n{code}\nC1: {seq: {t: (previous: (id: chararray,ts: int,url: chararray),current: (id: chararray,ts: int,url: chararray),next: (id: chararray,ts: int,url: chararray))}}\n{code}"}
{"key":"PIG-1277","title":"","description":"When we cogroup on a tuple, if the inner type of tuple does not match, we treat them as different keys.                   Real result: {code} ((1 1),{(1,1)},{}) ((1 1),{},{(1,1)}) {code}  UDF:\n{code}\npublic class MapGenerate extends EvalFunc\u003cMap\u003e {\n    @Override\n    public Map exec(Tuple input) throws IOException {\n        // TODO Auto-generated method stub\n        Map m \u003d new HashMap();\n        m.put(\"key\", new Integer(input.size()));\n        return m;\n    }\n    \n    @Override\n    public Schema outputSchema(Schema input) {\n        return new Schema(new Schema.FieldSchema(null, DataType.MAP));\n    }\n}\n{code}\n\n {code}\n by (c0, c1);\ndump e;\n{code}\n\n {code}\n {code}\n\n {code}\n {code}\n\n {code}\n {(1,1)} {(1,1)} {code}\n\n {code}\n {(1,1)} {} {} {(1,1)} {code}"}
{"key":"PIG-1892","title":"Bug in new logical plan : No output generated even though there are valid records","description":"I have the below script which provides me no output even though there are valid records in relation B which is used for the left out join.     Maploader()"}
{"key":"PIG-1893","title":"Pig report input size -1 for empty input file","description":"If 1.txt is empty, Pig will report Successfully read -1 records from: \"1.txt\"   {code}\n by b0;\ndump c;\n{code}"}
{"key":"PIG-1771","title":"New logical plan: Merge schema fail if LoadFunc.getSchema return different schema with \"Load...AS\"","description":"The following script fail:      Error message:          {code}\n BinStorage() tuple() ;\ndump auxData;\n{code}"}
{"key":"PIG-1910","title":"incorrect schema shown when project-star is used with other projections","description":"{code}\ngrunt\u003e l \u003d load \u0027x\u0027 ;                                       \ngrunt\u003e f \u003d foreach l generate $1 as a, *, $2 as b;          \ngrunt\u003e describe f;\nf: {a: bytearray,(null),b: bytearray}  -- The tuple returned by * is automatically flattened, so this schema is not correct.   {code}\n describe f;\nf: {a: bytearray,(null),b: bytearray}   {code}"}
{"key":"PIG-1776","title":"changing statement corresponding to alias after explain , then doing dump gives incorrect result","description":"/* but dumping c after following steps gives incorrect results */      {code}\n {code}"}
{"key":"PIG-1785","title":"New logical plan: uid conflict in flattened fields","description":"We get nothing. {code}\n b0\u003eb2;\ndump c;\n{code}\n\n {(1,2),(2,3)}"}
{"key":"PIG-1912","title":"non-deterministic output when a file is loaded multiple times","description":"I have a small demonstration script (actually, a directory with one main script and several other scripts that it calls) where the output (STOREd to a file) is not consistent between runs.  The problem appears to be that when a dataset X gets LOADed twice, with things other than LOADs occurring between the loads (like a FOREACH GENERATE), a FOREACH GENERATE that is later performed on X doesn\u0027t always choose the correct columns. The correctness of the output was highly variable on my computer, for one of my co-workers it *almost* always failed, and for two other of my co-workers they didn\u0027t see any failures, so it\u0027s likely to be a race condition or something like that.                                          -- correct_output.                   Non-deterministic in the sense that the output of the script is not\nthe same between different times it is run on the same input; usually\nthe input is right, but sometimes it\u0027s wrong for no apparent reason.  The scripts load the file data.csv and write to the output\ndirectory, but the file output/Y/part-m-00000 is sometimes different\nbetween consecutive runs.                       while (( i \u003c 10 ));  {results[*]}\n\n @operasolutions.com\n(360)"}
{"key":"PIG-1808","title":"","description":"The below script fails both in 0.7 and 0.8 since A requires a valid schema to be defined. But the error message in 0.8 is not helpful. Error message in 0.8              Error message in 0.7      null;\nDUMP D;"}
{"key":"PIG-1927","title":"Dereference partial name failed","description":"The following script fail:                          {code}\n generate e0;\ndescribe f;\n{code}"}
{"key":"PIG-1812","title":"","description":"My script is listed below:             When running this script, I got a warning about \"Encountered Warning DID_NOT_FIND_LOAD_ONLY_MAP_PLAN 1 time(s)\" and pig error log as below:                                   But, when I removed the DISTINCT statement before COGROUP, i.e. \"B \u003d distinct B;\"  this script can run smoothly. I have also tried other reducer side operations like ORDER, it seems that they will also trigger above error.  {t:(id:chararray, wht:float)} flatten(cat_bag.id)  {\n        I \u003d order M by ts;\n        J \u003d order B by ts;\n        generate flatten(group) as (pkg:chararray, cat_id:chararray), J.ts as tsorig, I.ts as tsmap;\n}"}
{"key":"PIG-1935","title":"","description":"We get nothing.  {code}\n PigStorage()  ;\ndump filtered;\n{code}"}
{"key":"PIG-1813","title":"Pig 0.8 throws ERROR 1075 while trying to refer a map in the result of  eval udf.Works with 0.7","description":"The above script fails when run with Pig 0.8 but runs fine with Pig 0.7 or if pig.usenewlogicalplan\u003dfalse. The below is the exception thrown in 0.8 :                   flatten(org.myudf.GETFIRST(value))  PigStorage()"}
{"key":"PIG-1955","title":"PhysicalOperator has a member variable (non-static) Log object that is non-transient, this causes serialization errors","description":"Creating a local PigServer to test my LoadFunc caused a serialization of the PhysicalOperator class, which failed due to:            private final transient Log log \u003d LogFactory.getLog(getClass());\n private transient Log log \u003d LogFactory.getLog(getClass());"}
{"key":"PIG-1963","title":"in nested foreach, accumutive udf taking input from order-by does not get results in order","description":"{code}\n explain d;\ndump d;\n{code}"}
{"key":"PIG-1977","title":"\"Stream closed\" error while reading Pig temp files (results of intermediate jobs)","description":"In certain cases when compression of temporary files is on Pig scripts fail with following exception:                         {code}\n {code}"}
{"key":"PIG-1979","title":"New logical plan failing with ERROR 2229: Couldn\u0027t find matching uid -1 ","description":"The script is failing in building the plan, while applying for logical optimization rule for AddForEach.              The script goes through fine if I disable AddForEach rule by -t AddForEach {code}\n PigStorage() PigStorage() ;\n{code}\n\n {code}\n\n import java.io.IOException;\nimport org.apache.pig.EvalFunc;\nimport org.apache.pig.data.*;\nimport org.apache.pig.impl.logicalLayer.FrontendException;\nimport org.apache.pig.impl.logicalLayer.schema.Schema;\nimport org.apache.pig.impl.logicalLayer.schema.Schema.FieldSchema;\n\npublic class MyExtractor extends EvalFunc\u003cDataBag\u003e\n{\n  @Override\n\tpublic Schema outputSchema(Schema arg0) {\n\t  try {\n\t\t\treturn Schema.generateNestedSchema(DataType.BAG, DataType.CHARARRAY);\n\t\t} catch (FrontendException e) {\n\t\t\tSystem.err.println(\"Error while generating schema. \"+e);\n\t\t\treturn new Schema(new FieldSchema(null, DataType.BAG));\n\t\t}\n\t}\n\n  @Override\n  public DataBag exec(Tuple inputTuple)\n    throws IOException\n  {\n    try {\n      Tuple tp2 \u003d TupleFactory.getInstance().newTuple(1);\n      tp2.set(0, (inputTuple.get(0).toString()+inputTuple.hashCode()));\n      DataBag retBag \u003d BagFactory.getInstance().newDefaultBag();\n      retBag.add(tp2);\n      return retBag;\n    }\n    catch (Exception e) {\n      throw new IOException(\" Caught exception\", e);\n    }\n  }\n}\n\n {code}"}
{"key":"PIG-1993","title":"PigStorageSchema throw NPE with ColumnPruning","description":"Error message:          {code}\n GENERATE a1;\ndump b;\n{code}"}
{"key":"PIG-313","title":"Error handling aggregate of a computation","description":"Error output:            {code}\n {code}\n\n {quote}\n {quote}"}
