{"key":"PIG-3267","title":"","description":"Error happens before launching the second job. Error message:                          {code}\n ;\n{code}\n\n {code}\n {code}"}
{"key":"PIG-3290","title":"","description":"I can reproduce it locally as well, the exception is       {noformat}\n {noformat}"}
{"key":"PIG-3292","title":"Logical plan invalid state: duplicate uid in schema during self-join to get cross product","description":"And an error:\n{code}\nERROR org.apache.pig.tools.grunt.Grunt - ERROR 2270: Logical plan invalid state: duplicate uid in schema : 1-7::x#16:bytearray,y::x#16:bytearray\n{code}    {code}\n {\n  y \u003d a.x;\n  pair \u003d cross a.x, y;\n  generate flatten(pair);\n}\n\n dump b;\n{code}\n\n {code}\n {code}\n\n {code}\n {\n  y \u003d foreach a generate -(-x);\n  pair \u003d cross a.x, y;\n  generate flatten(pair);\n}\n\n dump b;\n{code}"}
{"key":"PIG-3310","title":"ImplicitSplitInserter does not generate new uids for nested schema fields, leading to miscomputations","description":"This will give a wrongful output like . . {code} (1 1001,1001) (1 1002,1002) (1 1002,1002) (1 1002,1002) {code}                            {code}\n as shop;\n\nEXPLAIN K;\nDUMP K;\n{code}\n\n {code}\n {code}\n\n {code}\n {code}\n {code}\n    {code}\n\n {code}\n {code}\n\n LOSplitOutput.getSchema()"}
{"key":"PIG-3316","title":"Pig failed to interpret DateTime values in some special cases","description":"pig generates the following output (1 1970-01-01T00:00:00.000-01:00) (2 1970-01-01T00:00:00.000-01:00) which seemingly incorrectly interprets the day or month part as time zone. ;\ndump A;"}
{"key":"PIG-3329","title":"","description":"job will fail with error message:                 RANK b;\ndump d;"}
{"key":"PIG-3379","title":"Alias reuse in nested foreach causes PIG script to fail","description":"{code:title\u003dtemp.pig}\n {\n  DistinctDevices \u003d DISTINCT Events.deviceId;\n  nbDevices \u003d SIZE(DistinctDevices);\n\n  DistinctDevices \u003d FILTER Events BY eventName \u003d\u003d \u0027xuaHeartBeat\u0027;\n  nbDevicesWatching \u003d SIZE(DistinctDevices);\n\n  GENERATE $0*60000 as timeStamp, nbDevices as nbDevices, nbDevicesWatching as nbDevicesWatching;\n}\n GENERATE timeStamp;\ndescribe A;\n{code}\n {code}\n {code}"}
{"key":"PIG-3495","title":"Streaming udf e2e tests failures on Windows","description":"{code}\n PigStorage()  myfuncs.square(age);\ndump b;\n{code}"}
{"key":"PIG-3510","title":"New filter extractor fails with more than one filter statement","description":"For the 1 filter case, the whole expression is pushed down whereas for the 2 filter case, only (event_id \u003d\u003d 419 OR event_id \u003d\u003d 418) is pushed down. ;\n{code}\n{code:title\u003done filter}\n ;\n{code}"}
{"key":"PIG-2767","title":"Pig creates wrong schema after dereferencing nested tuple fields","description":"DESCRIBE thinks it is {f1: int, f2: int} instead. When dump is\nused, the data is actually in form of the correct schema however, ex.     Because the schema is incorrect,\nthe reference to \"nested_tuple\" in the \"uses_dereferenced\" statement is\nconsidered to be invalid, and the script fails to run. The error is:   PigStorage()  ;\nDESCRIBE dereferenced;\n\n nested_tuple.f3;\nDESCRIBE uses_dereferenced;\n\n {f1: int, nested_tuple: (f2: int,\nf3: int)} {f1: int, f2: int}"}
{"key":"PIG-2828","title":"","description":"While using TOP, and if the DataBag contains null value to compare, it will generate the following exception:                 The reason is that if the typeFound is true , and the dataType is not null, and field1 is null, the script failed.  Object field1 \u003d o1.get(fieldNum);\n                Object field2 \u003d o2.get(fieldNum);\n                if (!typeFound) {\n                    datatype \u003d DataType.findType(field1);\n                    typeFound \u003d true;\n                }\n                return DataType.compare(field1, field2, datatype, datatype);"}
{"key":"PIG-2970","title":"Nested foreach getting incorrect schema when having unrelated inner query","description":"While looking at PIG-2968, hit a weird error message.         {noformat}\n {\n     4          sym \u003d daily.symbol;\n     5          uniq_sym \u003d distinct sym;\n     6          --ignoring uniq_sym result\n     7          generate group, daily;\n     8  } {noformat}"}
{"key":"PIG-3060","title":"FLATTEN in nested foreach fails when the input contains an empty bag","description":"FLATTEN inside a foreach statement produces wrong results, if the input contains an empty bag.  {code}\n {(t:chararray)} {\n  c1 \u003d foreach A generate FLATTEN(a1);\n  generate COUNT(c1);\n} ;\n{code}"}
{"key":"PIG-3114","title":"Duplicated macro name error when using pigunit","description":"Pig runs fine on cluster but getting parsing error with pigunit.                                                         {code:title\u003dtest.pig|borderStyle\u003dsolid}\n {\n    $C \u003d ORDER $QUERY BY total DESC, $A;\n}  AS total;\n\nqueries_ordered \u003d my_macro_1(queries_count, query);\n\n ;\n{code}"}
