{"key":"TIKA-1192","title":"ArrayIndexOutOfBoundsException: 9 parsing RTF","description":"When trying to parse an RTF file I\u0027m getting the following exception.                                         {noformat}\n {noformat}"}
{"key":"TIKA-1070","title":"StackOverflow error in org.apache.tika.sax.ToXMLContentHandler$ElementInfo.getPrefix(ToXMLContentHandler.java:58)","description":"The error occurs when parsing big \"XLS\" files and is caused by the ElementInfo stored in \"currentElement\". Each time a new element is started (method startElement) the current elment is newly overwritten with currentElement \u003d new ElementInfo(currentElement, namespaces); where the existing element is used as the parent element. Since the currentElement is not reset to the parent element after finishing the element (method: endElement) the method getPrefix recursively traverses the parents and finally causes the StackOverFlowError     new ElementInfo(currentElement, namespaces);"}
{"key":"TIKA-1152","title":"Process loops infinitely on parsing of a CHM file","description":"By parsing [the attachment CHM file|^eventcombmt.chm] (MS Microsoft Help Files), Java process stuck.                {code}\n {code}"}
