{"id":3405,"bug_id":"AMQP-340","text":"Wrong RabbitMQ credentials are not considered as fatal error by SimpleMessageListenerContainer. If I connect an AmqpInboundChannelAdapter to the RabbitMQ (3.1.0) with wrong credentials (wrong password) the SimpleMessageListenerContainer doesn\u0027t detect the real reason and continues to restart the consumer in a seemingly endless loop. As AmqpInboundChannelAdapter user, I don\u0027t notice (except if I turn on debug logging level) any problem, its start() method returns after a pause with no error, but the connection remains not established. It would be nice to have a notification (exception) about wrong credentials right away (there is a comprehensive rabbit client exception that gets swallowed in SimpleMessageListenerContainer.run()) start()  SimpleMessageListenerContainer.run()","file_goldset":["org.springframework.amqp.rabbit.listener.MessageListenerContainerLifecycleIntegrationTests","org.springframework.amqp.rabbit.support.RabbitExceptionTranslator","org.springframework.amqp.rabbit.listener.BlockingQueueConsumer"],"creation_date":"2013-11-18T09:41:01.000-06:00","resolution_date":"2013-12-02T12:39:09.000-06:00"}
{"id":3406,"bug_id":"AMQP-434","text":"convertAndSend() methods can throw MessageConversionException but that\u0027s not documented. This exception should be either added to the throws clause OR caught and wrapped in convertMessageIfNecessary() convertMessageIfNecessary()","file_goldset":["org.springframework.amqp.support.converter.MessageConversionException"],"creation_date":"2014-10-21T05:21:17.000-05:00","resolution_date":"2014-10-23T01:47:58.000-05:00"}
{"id":3407,"bug_id":"AMQP-516","text":"Setting autoDelete or exclusive to anything, including \"true\" in @Queue without a queue name results in them being disabled. The following queue declaration will result in a queue being declared with auto delete and exclusive set to false:                       Making them exclusive and auto delete by default when using a random name seems like a good idea, but it should probably be changed to something like:      @RabbitListener(bindings \u003d @QueueBinding(\n\n\n\n\n    value \u003d @Queue(autoDelete \u003d \"true\", exclusive \u003d \"true\"),\n\n\n\n\n    exchange \u003d @Exchange(value \u003d \"myFanout\", type \u003d ExchangeTypes.FANOUT, durable \u003d \"true\")\n\n\n\n\n))\n\n\n\n\n\n\n if (!StringUtils.hasText(queueName)) {\n\n\n\n\n    queueName \u003d UUID.randomUUID().toString();\n\n\n\n\n    if (!StringUtils.hasText(bindingQueue.exclusive())) {\n\n\n\n\n        exclusive \u003d true;\n\n\n\n\n    }\n\n\n\n\n    if (!StringUtils.hasText(bindingQueue.autoDelete())) {\n\n\n\n\n        autoDelete \u003d true;\n\n\n\n\n    }\n\n\n\n\n}\n\n\n\n\nelse {\n\n\n\n\n    exclusive \u003d resolveExpressionAsBoolean(bindingQueue.exclusive());\n\n\n\n\n    autoDelete \u003d resolveExpressionAsBoolean(bindingQueue.autoDelete());\n\n\n\n\n}\n\n\n\n\n\n\n String e \u003d bindingQueue.exclusive();\n\n\n\n\nif (!StringUtils.hasText(e) || resolveExpressionAsBoolean(e)) {\n\n\n\n\n    exclusive \u003d true\n\n\n\n\n}","file_goldset":["org.springframework.amqp.rabbit.annotation.RabbitListenerAnnotationBeanPostProcessor","org.springframework.amqp.rabbit.annotation.EnableRabbitIntegrationTests"],"creation_date":"2015-08-06T01:25:34.000-05:00","resolution_date":"2015-08-07T09:46:00.000-05:00"}
{"id":3408,"bug_id":"AMQP-633","text":"Non Transactional RabbitTemplate Uses Container Transactional Channel. When running a RabbitTemplate on a transactional container thread, the container channel is used, even if the RabbitTemplate is not marked transactional.   If you publish with a template that is not transactional, the publish should occur on a new channel.            We should never return the resourceHolder if the resourceFactory.isSynchedLocalTransactionAllowed() is false. RabbitResourceHolder resourceHolder \u003d (RabbitResourceHolder) TransactionSynchronizationManager\n\n\n\n\n\t\t.getResource(connectionFactory);\n\n\n\n\nif (resourceHolder !\u003d null) {\n\n\n\n\n\tChannel channel \u003d resourceFactory.getChannel(resourceHolder);\n\n\n\n\n\tif (channel !\u003d null) {\n\n\n\n\n\t\treturn resourceHolder;\n\n\n\n\n\t}\n\n\n\n\n}\n\n\n\n\n\n\n resourceFactory.isSynchedLocalTransactionAllowed()","file_goldset":["org.springframework.amqp.rabbit.core.RabbitTemplate","org.springframework.amqp.rabbit.listener.LocallyTransactedTests"],"creation_date":"2016-08-18T15:48:45.000-05:00","resolution_date":"2016-08-23T16:13:16.000-05:00"}
