{"id":3435,"bug_id":"DATAMONGO-1263","text":"Missing indexes in associations involving generic types. When an association between documents involves generic types, the type information is not correctly inferred at startup time resulting in missing indexes.      The index \"name\" inherited from AbstractProduct is created (book2.content.name) inside \"catalog\" , but the index defined on the Book class itself (isbn) is not created as Spring Data Mongo is only inferring type infromation from the ProductWrapper class definition (ProductWrapper \u003cT extends AbstractProduct\u003e). Spring Data MongoDB should be able to infer type information from the list declaration ( List\u003cProductWrapper\u003cBook\u003e\u003e ), becoming aware that Catalog contains a list of Books, hence indexes defined on Book should be created. If the wrapper class is defined as ProductWrapper\u003cT\u003e, then no indexes are created at all on Catalog.books2.content. class Book  class AbstractProduct  class ProductWrapper  class Catalog","file_goldset":["org.springframework.data.mongodb.core.index.MongoPersistentEntityIndexResolverUnitTests","org.springframework.data.mongodb.core.index.MongoPersistentEntityIndexResolver"],"creation_date":"2015-07-30T09:03:41.000-05:00","resolution_date":"2015-11-09T19:09:44.000-06:00"}
{"id":3436,"bug_id":"DATAMONGO-987","text":"Problem with lazy loading in @DBRef when getting data using MongoTemplate. The following situation should never happen:   mongoTemplate.save(parent); //ok, it is persisted like we expected.     // The child attribute should be null, right? assertNull(persisted.getChild()); // it fails    I attached a project with the JUnit test which reproduces the problem for you. @Document @Document\n\n\n\n\nclass Parent {\n\n\n\n\n     @Id\n\n\n\n\n     private String id;\n\n\n\n\n     private String name;\n\n\n\n\n     @DBref(lazy\u003dtrue)\n\n\n\n\n     private Child child;\n\n\n\n\n\n\n\n\n\n    // getters and setters ommited\n\n\n\n\n}\n\n\n\n\n\n\n @Document\n\n\n\n\nclass Child {\n\n\n\n\n      @Id\n\n\n\n\n       private String id;\n\n\n\n\n       private String name;\n\n\n\n\n      //getters and setters ommited\n\n\n\n\n}\n\n\n\n\n\n\n Parent parent \u003d new Parent();\n\n\n\n\nparent.setName(\"Daddy\");\n\n\n\n\nmongoTemplate.save(parent); //ok, it is persisted like we expected.\n\n\n\n\n// Than we try to load this same entity from the database\n\n\n\n\nCriteria criteria \u003d Criteria.where(\"_id\").is(parent.getId());\n\n\n\n\nParent persisted \u003d mongoTemplate.findOne(new Query(criteria), Parent.class);\n\n\n\n\n// The child attribute should be null, right?\n\n\n\n\nassertNull(persisted.getChild()); // it fails","file_goldset":["org.springframework.data.mongodb.core.convert.MappingMongoConverter","org.springframework.data.mongodb.core.convert.DbRefMappingMongoConverterUnitTests"],"creation_date":"2014-07-14T12:01:52.000-05:00","resolution_date":"2014-07-17T06:20:13.000-05:00"}
{"id":3437,"bug_id":"DATAMONGO-1290","text":"@Query annotation with byte[] parameter does not work. In a repository, these finders should be equivalent:     ... but only the first works.  Optional\u003cSampleDomainObject\u003e findBySampleData(byte[] sampleDate) @Query(\"{ \u0027sampleData\u0027 : ?0 }\")\n\n\n\n\nOptional\u003cSampleDomainObject\u003e findBySampleDateWithAnnotation(byte[] sampleData)","file_goldset":["org.springframework.data.mongodb.repository.query.StringBasedMongoQuery","org.springframework.data.mongodb.repository.query.StringBasedMongoQueryUnitTests"],"creation_date":"2015-09-17T15:30:23.000-05:00","resolution_date":"2015-11-20T12:25:32.000-06:00"}
{"id":3438,"bug_id":"DATAMONGO-505","text":"Conversion of associations doesn\u0027t work for collection values. The execution of findByProperty() will fail as the given array (or collection) is not correctly translated into a collection of DBRefs. The reason is that ConvertingIterator treats the value as is and wants to create a DBRef from it. We need to unwrap the elements and convert them into DBRef instances one by one. class Entity {\n\n\n\n\n\n\n\n\n\n  Long id;\n\n\n\n\n  @DBRef\n\n\n\n\n  Property property;\n\n\n\n\n}\n\n\n\n\n\n\n\n\n\n class Property {\n\n\n\n\n  Long id;\n\n\n\n\n}\n\n\n\n\n\n\n\n\n\n interface EntityRepository extends Repository\u003cEntity, Long\u003e {\n\n\n\n\n\n\n\n\n\n  Entity findByPropertyIn(Property... property);\n\n\n\n\n}\n\n\n\n\n\n\n findByProperty()","file_goldset":["org.springframework.data.mongodb.repository.query.ConvertingParameterAccessorUnitTests","org.springframework.data.mongodb.repository.query.ConvertingParameterAccessor"],"creation_date":"2012-08-14T03:07:56.000-05:00","resolution_date":"2012-08-15T10:09:59.000-05:00"}
{"id":3439,"bug_id":"DATAMONGO-420","text":"Extra quotes being added to @Query values and fields. Quotes are being added to values passed into @Query annotations.         Whatever I pass into \"values\" or \"fields\" gets wrapped in quotes when inserted into the query sent to MongoDB.  -\u003e rendered as -  -\u003e This is not a valid query - the double quotes around it break it.  -\u003e rendered as -  -\u003e This is not a valid projection - the double quotes around it break it.    -\u003e This is not a valid projection - the double quotes around zero turn it into a string so it renders as \"true\" instead of 0/undefined.  @Query @Query { ?0 }\n { ?1 }\n someMethod( String values, String fields ) String values \u003d \"value : \u0027things\u0027\";\n   { \"value : \u0027things\u0027\" }\n   String values \u003d \"field : 0\";\n   { \"field : 0\" }\n   String values \u003d \"field\\\" : \\\"0\";","file_goldset":["org.springframework.data.mongodb.repository.query.StringBasedMongoQueryUnitTests","org.springframework.data.mongodb.repository.query.StringBasedMongoQuery"],"creation_date":"2012-03-22T10:09:35.000-05:00","resolution_date":"2014-07-17T12:51:47.000-05:00"}
{"id":3440,"bug_id":"DATAMONGO-663","text":"org.springframework.data.mongodb.core.query.Field needs an equals method. The above class Field does not has an equals() method. But org.springframework.data.mongodb.core.query.Query has an equals method which is using the equals method of the Field class.    class Field  equals()  boolean fieldsEqual \u003d this.fieldSpec \u003d\u003d null ? that.fieldSpec \u003d\u003d null : this.fieldSpec.equals(that.fieldSpec);","file_goldset":["org.springframework.data.mongodb.core.query.Field"],"creation_date":"2013-04-24T03:21:19.000-05:00","resolution_date":"2013-04-26T06:47:53.000-05:00"}
{"id":3441,"bug_id":"DATAMONGO-1289","text":"NullPointerException when saving an object with no \"id\" field or @Id annotation. If no field or property specified above is present in the Java class then an implicit \u0027_id\u0027 file will be generated by the driver but not mapped to a property or field of the Java class. Instead of this, I\u0027m seeing a NullPointerException when attempting to save an object that doesn\u0027t have an \"id\" field or an @Id annotated field.  @Id","file_goldset":["org.springframework.data.mongodb.repository.support.MongoRepositoryFactory","org.springframework.data.mongodb.repository.support.MappingMongoEntityInformation"],"creation_date":"2015-09-17T11:43:51.000-05:00","resolution_date":"2015-12-16T10:47:48.000-06:00"}
{"id":3442,"bug_id":"DATAMONGO-423","text":"Criteria.regex should use java.util.Pattern instead of $regex. throws this exception:              c.find( new BasicDBObject( \"x\" ,\n\n\n\n\n                new BasicDBObject(\"$not\", new BasicDBObject(\"$regex\", \"b\") ) ) );\n\n\n\n\n\n\n c.find( new BasicDBObject( \"x\" ,\n\n\n\n\n                new BasicDBObject(\"$not\", Pattern.compile( \"b\" , Pattern.CASE_INSENSITIVE ) ) ) );","file_goldset":["org.springframework.data.mongodb.core.query.Criteria","org.springframework.data.mongodb.core.MongoTemplateTests","org.springframework.data.mongodb.core.query.QueryTests"],"creation_date":"2012-03-29T06:03:26.000-05:00","resolution_date":"2012-04-02T11:48:19.000-05:00"}
{"id":3443,"bug_id":"DATAMONGO-1078","text":"@Query annotated repository query fails to map complex Id structure.. StringBasedMongoQuery converts any complex object to the according mongo type including type restrictions via _class.     end up being converted to:  So we need to check for the presence of typeKey when converting id properties. @Query(\"{\u0027_id\u0027: {$in: ?0}}\")\n\n\n\n\nList\u003cUser\u003e findByUserIds(Collection\u003cMyUserId\u003e userIds) {$in: [ {_class:\"com.sampleuser.MyUserId\", userId:\"....\", sampleId:\"....\"}","file_goldset":["org.springframework.data.mongodb.core.MongoTemplate","org.springframework.data.mongodb.core.convert.MappingMongoConverter"],"creation_date":"2014-10-28T02:23:26.000-05:00","resolution_date":"2014-11-10T07:42:07.000-06:00"}
{"id":3444,"bug_id":"DATAMONGO-392","text":"Updating an object does not write type information for objects to be updated. I used 1.0.0. M5 version, and the type information (under _class key) was stored with object when it was necessary to be able to read it from database later.  RELEASE version that broke my application as it saves the objects without type information and later it is impossible to read it back to java model. What I found is that MappingMongoConverter.writeInternal(...) method that in turn calls addCustomTypeIfNecessary(...) (line 330) which puts type information into DBObject. During execution of convertToMongoType(...) (at line 851) removeTypeInfoRecursively(...) is called which clears type data saved earlier under _class key.   The second point is that there should be a way to persist the type information inferred from runtime along the persisted object and not just the class definition. MappingMongoConverter.writeInternal(...)  addCustomTypeIfNecessary(...)  convertToMongoType(...)  removeTypeInfoRecursively(...)","file_goldset":["org.springframework.data.mongodb.core.MongoTemplateTests","org.springframework.data.mongodb.core.MongoTemplate"],"creation_date":"2012-02-07T04:28:15.000-06:00","resolution_date":"2013-07-08T06:13:48.000-05:00"}
{"id":3445,"bug_id":"DATAMONGO-1088","text":"@Query $in does not remove \"_class\" property on collection of embedded objects . generates incorrect query.  Query should be without _class property e.g.:    @Query(value \u003d \"{ embedded : { $in : ?0} }\")\n\n\n\n\n\tList\u003cFoo\u003e findByEmbeddedIn2(Collection\u003cEmbeddedObject\u003e c)","file_goldset":["org.springframework.data.mongodb.core.MongoTemplate","org.springframework.data.mongodb.core.convert.MappingMongoConverter"],"creation_date":"2014-11-07T03:08:58.000-06:00","resolution_date":"2014-11-12T23:11:42.000-06:00"}
{"id":3446,"bug_id":"DATAMONGO-1406","text":"Query mapper does not use @Field field name when querying nested fields in combination with nested keywords. resolves the fields to the input query to the ones in the @Field annotations, except for these in embedded arrays. So, in the example above, resolution fields in DBObject remains resolution. While, the status field resolves to stat.    Which doesn\u0027t get any data, because there is no field called resolution (the field in mongo is res).   Notice the status and displays fields correctly get converted to the value in the @Field annotation. The correct query from getMappedObject should be:  This basically means that any queries that operate on fields (with a name different from the peristed name) in the inner list will fail. ;\n\n\n\n\n\n\n@Document(collection \u003d \"Computer\")\n\n\n\n\npublic class Computer\n\n\n\n\n{\n\n\n\n\n   @Id\n\n\n\n\n   private String _id;\n\n\n\n\n\n\n\n\n\n   private String batchId;\n\n\n\n\n\n\n\n\n\n  @Field(\"stat\")\n\n\n\n\n   private String status;\n\n\n\n\n\n\n\n\n\n   @Field(\"disp\")\n\n\n\n\n   private List\u003cMonitor\u003e displays;\n\n\n\n\n\n\n\n\n\n   //setters and getters\n\n\n\n\n}\n\n\n\n\n\n\n\n\n\npublic class Monitor {\n\n\n\n\n   @Field(\"res\")\n\n\n\n\n   private String resolution;\n\n\n\n\n\n\n\n\n\n  // setters/getters\n\n\n\n\n}\n\n\n\n\n\n\n protected \u003cS, T\u003e List\u003cT\u003e doFind(String collectionName, DBObject query, DBObject fields, Class\u003cS\u003e entityClass,\n\n\n\n\n\t\t\tCursorPreparer preparer, DbObjectCallback\u003cT\u003e objectCallback)\n\n\n\n\n\n\n\n\n\n DBObject mappedQuery \u003d queryMapper.getMappedObject(query, entity);\n\n\n\n\n\n\n @Field @Field","file_goldset":["org.springframework.data.mongodb.core.convert.QueryMapper","org.springframework.data.mongodb.core.convert.QueryMapperUnitTests"],"creation_date":"2016-04-04T18:59:49.000-05:00","resolution_date":"2016-08-25T11:50:06.000-05:00"}
{"id":3447,"bug_id":"DATAMONGO-1123","text":"geoNear, does not return all matching elements, it returns only a max of 100 documents. I expect 1000 \"matching\" documents But i only get 100. There is some default being set, that restricts the result to 100.    public GeoResults\u003cMyObject\u003e findByTypeAndLocationNear(MyObjectType type, Point p, Distance distance) {\n\n\n\n\n   final NearQuery nearQuery \u003d NearQuery.near(p).maxDistance(distance);\n\n\n\n\n   log.info(\"{}\",nearQuery.toDBObject());\n\n\n\n\n   return mongoTemplate.geoNear(nearQuery, MyObject.class);\n\n\n\n\n}\n\n\n\n\n\n\n {@link GeoResults}  {@link NearQuery}","file_goldset":["org.springframework.data.mongodb.core.MongoOperations"],"creation_date":"2014-12-17T09:39:36.000-06:00","resolution_date":"2015-01-07T06:15:01.000-06:00"}
{"id":3448,"bug_id":"DATAMONGO-647","text":"Using \"OrderBy\" in \"query by method name\" ignores the @Field annotation for field alias.. When the query is run, the database attempts to sort the results by \"score\" rather than my \"sr\" field name. @Field(\"sr\")\n List\u003cAnswer\u003e findByQuestionIdOrderByScoreDesc(String questionId)","file_goldset":["org.springframework.data.mongodb.core.convert.QueryMapperUnitTests"],"creation_date":"2013-04-09T17:29:02.000-05:00","resolution_date":"2014-05-19T05:42:41.000-05:00"}
{"id":3449,"bug_id":"DATAMONGO-1126","text":"Repository keyword query findByInId with pageable not returning correctly. The query returns results but getTotalElements() and getTotalPages() always returns 0. Also when you try to get any other page than 0, no results return.                                      // expect 5 Items returned, total of 10 Items(SWORDS) in 2 Pages      // expect 5 Items returned, total of 30 Items in 6 Pages    Assert.assertEquals(30, results.getTotalElements()); // this is returning 0 Assert.assertEquals(6, results.getTotalPages());     // this is returning 0   getTotalElements()  getTotalPages()  @Document\n\n\n\n\npublic class Item {\n\n\n\n\n\n\n\n\n\n    @Id\n\n\n\n\n    private String id;\n\n\n\n\n    private String type;\n\n\n\n\n}\n\n\n\n\n\n\n\n\n\n\n\n\n public interface ItemRepository extends MongoRepository\u003cItem, String\u003e {\n\n\n\n\n\n\n\n\n\n    Page\u003cItem\u003e findByIdIn(Collection ids, Pageable pageable);\n\n\n\n\n    Page\u003cItem\u003e findByTypeIn(Collection types, Pageable pageable);\n\n\n\n\n}\n\n\n\n\n\n\n\n\n\n\n\n\n @RunWith(SpringJUnit4ClassRunner.class)\n\n\n\n\n@ContextConfiguration(classes \u003d {MongoDbConfig.class})\n\n\n\n\n@TransactionConfiguration(defaultRollback \u003d false)\n\n\n\n\npublic class TestPageableIdIn {\n\n\n\n\n\n\n\n\n\n    @Autowired\n\n\n\n\n    private ItemRepository itemRepository;\n\n\n\n\n    \n\n\n\n\n    private List\u003cString\u003e allIds \u003d new LinkedList\u003c\u003e();\n\n\n\n\n\n\n\n\n\n    @Before\n\n\n\n\n    public void setUp() {\n\n\n\n\n        itemRepository.deleteAll();\n\n\n\n\n        String[] types \u003d {\"SWORD\", \"SHIELD\", \"ARMOUR\"};\n\n\n\n\n\n\n\n\n\n        // 10 items per type\n\n\n\n\n        for (String type : types) {\n\n\n\n\n            for (int i \u003d 0; i \u003c 10; i++) {\n\n\n\n\n                String id \u003d UUID.randomUUID().toString();\n\n\n\n\n                allIds.add(id);\n\n\n\n\n                itemRepository.save(new Item(id, type));\n\n\n\n\n            }\n\n\n\n\n        }\n\n\n\n\n    }\n\n\n\n\n\n\n\n\n\n    @Test\n\n\n\n\n    public void testPageableIdIn() {\n\n\n\n\n        \n\n\n\n\n        Pageable pageable \u003d new PageRequest(0, 5);\n\n\n\n\n        \n\n\n\n\n        // expect 5 Items returned, total of 10 Items(SWORDS) in 2 Pages\n\n\n\n\n        Page\u003cItem\u003e results \u003d itemRepository.findByTypeIn(Arrays.asList(\"SWORD\"), pageable);\n\n\n\n\n        Assert.assertEquals(5, results.getContent().size());\n\n\n\n\n        Assert.assertEquals(10, results.getTotalElements());\n\n\n\n\n        Assert.assertEquals(2, results.getTotalPages());\n\n\n\n\n        \n\n\n\n\n        // expect 5 Items returned, total of 30 Items in 6 Pages\n\n\n\n\n        results \u003d itemRepository.findByIdIn(allIds, pageable);\n\n\n\n\n        Assert.assertEquals(5, results.getContent().size());\n\n\n\n\n        Assert.assertEquals(30, results.getTotalElements()); // this is returning 0\n\n\n\n\n        Assert.assertEquals(6, results.getTotalPages());     // this is returning 0\n\n\n\n\n    }\n\n\n\n\n}","file_goldset":["org.springframework.data.mongodb.repository.query.AbstractMongoQueryUnitTests","org.springframework.data.mongodb.repository.query.AbstractMongoQuery","org.springframework.data.mongodb.core.MongoOperations","org.springframework.data.mongodb.core.MongoTemplate","org.springframework.data.mongodb.repository.Person"],"creation_date":"2014-12-21T06:03:21.000-06:00","resolution_date":"2015-01-20T08:04:31.000-06:00"}
{"id":3450,"bug_id":"DATAMONGO-1133","text":"Field aliasing is not honored in Aggregation operations. the aggretation uses the property name of a class rather than the name designated in @Field. @Field","file_goldset":["org.springframework.data.mongodb.core.aggregation.AggregationTests","org.springframework.data.mongodb.core.aggregation.TypeBasedAggregationOperationContextUnitTests"],"creation_date":"2015-01-07T00:20:51.000-06:00","resolution_date":"2015-05-25T05:03:59.000-05:00"}
{"id":3451,"bug_id":"DATAMONGO-1307","text":"Stop converting user-defined runtime exceptions to NPEs. MongoTemplate has code like this in many places:  MongoExceptionTranslator, however, often does NOT return an exception. If it encounters an unknown exception it does this: // If we get here, we have an exception that resulted from user code, // rather than the persistence provider, so we return null to indicate // that translation should not occur. return null; MongoTemplate then \"eats\" the original exception and throws a null-pointer exception instead. MongoTemplate should throw the original exception if it gets null back from the exception translator. throw exceptionTranslator.translateExceptionIfPossible(ex);\n return null;","file_goldset":["org.springframework.data.mongodb.core.MongoTemplate"],"creation_date":"2015-10-20T12:33:45.000-05:00","resolution_date":"2015-10-20T17:24:35.000-05:00"}
