{"id":2556,"bug_id":"DATAMONGO-505","text":"The execution of findByProperty() will fail as the given array (or collection) is not correctly translated into a collection of DBRefs. The reason is that ConvertingIterator treats the value as is and wants to create a DBRef from it.  class Entity {\n\n\n\n\n\n\n\n\n\n  Long id;\n\n\n\n\n  @DBRef\n\n\n\n\n  Property property;\n\n\n\n\n}\n\n\n\n\n\n\n\n\n\n class Property {\n\n\n\n\n  Long id;\n\n\n\n\n}\n\n\n\n\n\n\n\n\n\n interface EntityRepository extends Repository\u003cEntity, Long\u003e {\n\n\n\n\n\n\n\n\n\n  Entity findByPropertyIn(Property... property);\n\n\n\n\n}\n\n\n\n\n\n\n findByProperty()","file_goldset":["org.springframework.data.mongodb.repository.query.ConvertingParameterAccessorUnitTests","org.springframework.data.mongodb.repository.query.ConvertingParameterAccessor"],"creation_date":"2012-08-14T03:07:56.000-05:00","resolution_date":"2012-08-15T10:09:59.000-05:00"}
{"id":2557,"bug_id":"DATAMONGO-523","text":"@TypeAlias annotation not used with AbstractMongoConfiguration . When using the AbstractMongoConfiguration without any further modifications regarding the converter (afterMappingMongoConverterCreation) the @TypeAlias annotation is not used when writing the _class property. Seems like it always uses the SimpleTypeInformationMapper.  @TypeAlias @Document @TypeAlias","file_goldset":["org.springframework.data.mongodb.core.convert.MappingMongoConverterUnitTests"],"creation_date":"2012-09-01T03:39:51.000-05:00","resolution_date":"2012-09-03T06:26:10.000-05:00"}
{"id":2558,"bug_id":"DATAMONGO-585","text":"Exception during authentication in multithreaded access. class which implements Runnable.  \nThose","file_goldset":["org.springframework.data.mongodb.core.MongoDbUtils"],"creation_date":"2012-12-01T08:28:43.000-06:00","resolution_date":"2012-12-03T02:47:10.000-06:00"}
