{"id":478,"bug_id":"100040","text":"Slowdown between 3.1 RC1 and N20050602 due to change to ImageList. Several of the UI performance tests got slower between RC1 and N20050602, on Windows.   Here are the numbers (on Win2K):             The other perspectives showed less of a change, and seemed to correlate with the numer of icons (either in the menus or toolbars or both). The debug perspective has the most icons. I\u0027m suspicious of the ImageList change to always specify OS.ILC_MIRROR.","file_goldset":["org.eclipse.swt.widgets.Button","org.eclipse.swt.widgets.Display","org.eclipse.swt.widgets.ImageList","org.eclipse.swt.widgets.Menu","org.eclipse.swt.widgets.TabFolder","org.eclipse.swt.widgets.Table","org.eclipse.swt.widgets.ToolItem","org.eclipse.swt.widgets.Tree"],"creation_date":"2005-06-14 14:19:00","resolution_date":"2005-06-17 14:49:00"}
{"id":479,"bug_id":"100387","text":"CTabFolder creates and disposes a Shell on every MouseHover. CTabFolder.showToolTip() currently does the following: On MouseHover: - create a temporary shell - if there\u0027s a tooltip: set it and show it - otherwise: dispose the shell There are no tooltips for the tabs used for views in Eclipse. As you hover over each tab, a new Shell is created and disposed on each MouseHover event.","file_goldset":["org.eclipse.swt.custom.CTabFolder"],"creation_date":"2005-06-16 08:44:00","resolution_date":"2005-08-05 12:14:00"}
{"id":480,"bug_id":"102794","text":"GridLayout has change behaviour between 3.0.2 and 3.1. Basically on 3.0.2 the window that appears has a label of about 80 pixels wide and a textbox of 400 pixels wide. With 3.1 the label is about 400 pixels wide, with the text box being about 2000 pixels wide.","file_goldset":["org.eclipse.swt.layout.GridLayout"],"creation_date":"2005-07-05 17:56:00","resolution_date":"2005-08-05 12:14:00"}
{"id":481,"bug_id":"104150","text":"[Patch] Table cursor separated from table selection when clicking on grid lines or empty space. When using a table cursor, there are two kinds of table regions that have the potential to separate the table cursor from the table selection when clicked on: 1) grid lines (table.getLinesVisible() \u003d\u003d true) 2) empty space to the left of the first cell of each row (SWT.FULL_SELECTION)","file_goldset":["org.eclipse.swt.custom.TableCursor"],"creation_date":"2005-07-16 19:58:00","resolution_date":"2006-03-15 15:21:00"}
{"id":482,"bug_id":"104545","text":"Make default size of empty composites smaller. Background: When you write an RCP app and enable the cool bar, the cool bar will initially be empty, but 64x64 pixels in size. On Windows, you cannot see the border of the empty coolbar so the user gets a big empty space at the top of their window and might be confused.","file_goldset":["org.eclipse.swt.widgets.CoolBar"],"creation_date":"2005-07-20 14:21:00","resolution_date":"2009-08-27 04:54:00"}
{"id":483,"bug_id":"104966","text":"Link displays as enabled when setText called after setEnabled. 4. Note: the link is now disabled in the preview   7. Observe: link now shows as enabled When you run the application the link shows as enabled, but is actually disabled. If you change the order of the initialization such that the enabled status is set after the text is set it displays correctly.","file_goldset":["org.eclipse.swt.widgets.Link"],"creation_date":"2005-07-24 23:17:00","resolution_date":"2005-08-05 12:14:00"}
{"id":484,"bug_id":"108813","text":"LineStyles in Very Long Lines Takes Forever. Well, not literally forever, but way way too long -- users will have to \"end\nprocess\" and start over.","file_goldset":["org.eclipse.swt.graphics.TextLayout"],"creation_date":"2005-09-06 01:47:00","resolution_date":"2007-09-20 15:23:00"}
{"id":485,"bug_id":"115947","text":"Accessibility : Cannot set tooltip Text for image in Table Column. When using images in a Table, you can\u0027t set a tooltip.","file_goldset":["org.eclipse.swt.widgets.Display"],"creation_date":"2005-11-10 21:36:00","resolution_date":"2006-11-06 09:15:00"}
{"id":486,"bug_id":"117574","text":"RIGHT_TO_LEFT |  DOUBLE_BUFFERED don\u0027t get along. Doesn\u0027t draw anything.","file_goldset":["org.eclipse.swt.graphics.GC","org.eclipse.swt.widgets.Composite"],"creation_date":"2005-11-22 15:22:00","resolution_date":"2005-11-28 17:40:00"}
{"id":487,"bug_id":"58185","text":"Eclipse fails to load oldstyle BMP files. When I attempt to load them into an image eclipse runs out of memory.  WinBMPFileFormat class does not check the header of the file correctly before reading the image.","file_goldset":["org.eclipse.swt.SWT","org.eclipse.swt.internal.image.FileFormat","org.eclipse.swt.internal.image.OS2BMPFileFormat","org.eclipse.swt.internal.image.WinBMPFileFormat"],"creation_date":"2004-04-12 15:16:00","resolution_date":"2005-01-22 10:59:00"}
{"id":488,"bug_id":"77948","text":"NullPointerException in CLabel.findMnemonic. I was using the keyboard heavily for navigation.  I found the exception below  in the log.   There was no major effect from this null pointer, but it might have been  responsible for some buttons not disabling when they should.  I\u0027ll investiage","file_goldset":["org.eclipse.swt.custom.CLabel"],"creation_date":"2004-11-05 09:53:00","resolution_date":"2004-11-12 08:40:00"}
{"id":489,"bug_id":"78548","text":"[consistency] Button Selection fires before MouseUp. -\u003e on OSX you\u0027ll get Selection - MouseUp -\u003e everywhere else you\u0027ll get MouseUp - Selection","file_goldset":["org.eclipse.swt.widgets.Button","org.eclipse.swt.widgets.ToolItem"],"creation_date":"2004-11-12 16:15:00","resolution_date":"2004-11-24 14:30:00"}
{"id":490,"bug_id":"78559","text":"[consistency] Slider fires two Selection events before MouseDown. -\u003e on OSX the following is fired: Selection, Selection, MouseDown -\u003e on win32 the following is fired: MouseDown, Selection, Selection (bug 78558) -\u003e everywhere else: MouseDown, Selection","file_goldset":["org.eclipse.swt.widgets.Slider"],"creation_date":"2004-11-12 17:08:00","resolution_date":"2004-11-24 15:31:00"}
{"id":491,"bug_id":"78634","text":"ImageData.getTransparencyMask - incorrect javadoc or implementation wrong. The implementation of getTransparencyMask appears to return a fully opaque mask when the image has no transparency.","file_goldset":["org.eclipse.swt.graphics.ImageData"],"creation_date":"2004-11-15 12:29:00","resolution_date":"2005-06-22 10:00:00"}
{"id":492,"bug_id":"78854","text":"Memory leak in ClipboardProxy.getFunc(). At the end of ClipboardProxy.getFunc() OS.gtk_selection_data_set() function is used. However this function copies data so tdata.pValue should be freed using","file_goldset":["org.eclipse.swt.dnd.Clipboard","org.eclipse.swt.dnd.DragSource"],"creation_date":"2004-11-17 12:17:00","resolution_date":"2004-12-21 13:21:00"}
{"id":493,"bug_id":"79268","text":"Program API does not work with GNOME 2.8 (libgnomevfs-WARNING). I get the following stderr\noutput once in a while:   In my development workbench, the output reads:","file_goldset":["org.eclipse.swt.program.Program"],"creation_date":"2004-11-23 06:56:00","resolution_date":"2005-05-10 17:51:00"}
{"id":494,"bug_id":"80120","text":"CTabFolder layout puts top right item one pixel to far to the right. see the attachment, I have a toolbar on top right and it cuts a pixel out of the top corner, the layout should take into account the border of the CTabFolder.","file_goldset":["org.eclipse.swt.custom.CTabFolder"],"creation_date":"2004-12-03 11:43:00","resolution_date":"2004-12-06 12:11:00"}
{"id":496,"bug_id":"81264","text":"Table fails to setTopIndex after new items are added to the table. Table.setTopIndex fails to position to the correct table item if new items are added to the table after the shell is opened. The first call to setTopIndex succeeds. The table is correctly positioned at item 20. After adding new table items to the table, calling setTopTable(40) has no effect. Calling getTopIndex continues to return 20.","file_goldset":["org.eclipse.swt.widgets.List","org.eclipse.swt.widgets.Table","org.eclipse.swt.widgets.Tree"],"creation_date":"2004-12-15 13:17:00","resolution_date":"2006-04-12 13:22:00"}
{"id":497,"bug_id":"81265","text":"background of tree is incorrect when disabled. The background of the node names changes to the default background, while the rest of the background remains the new background. In tabletree, the entire background of the table tree goes back to the default colour.","file_goldset":["org.eclipse.swt.widgets.Tree"],"creation_date":"2004-12-15 13:33:00","resolution_date":"2005-01-19 15:05:00"}
{"id":498,"bug_id":"81834","text":"BIDI:  StyledText does not convert European Number to Arabic Number. StyledText does not convert European Number(EN) to Arabic Number(AN) on WinXP.         Result:\nAll the numbers are still European Number characters on StyledText widget. Text widget displays the first \"012345\" as Arabic Numbers.","file_goldset":["org.eclipse.swt.graphics.TextLayout","org.eclipse.swt.internal.win32.OS"],"creation_date":"2004-12-22 21:09:00","resolution_date":"2006-08-09 12:46:00"}
{"id":499,"bug_id":"82500","text":"TabFolder should not use PtCalcCanvas in getClientArea. There is a limitation in photon where you cannot draw a surface outside of a widgets canvas. The tabs are control surfaces. Therefore if you use PtCalcCanvas to determine the drawing area, you will overwrite the tabs.","file_goldset":["org.eclipse.swt.widgets.TabFolder"],"creation_date":"2005-01-10 14:34:00","resolution_date":"2007-05-17 16:36:00"}
{"id":500,"bug_id":"83262","text":"rxvt pastes null terminator. When pasting using the middle mouse button from StyledText into an rxvt window,\nit contains a null terminator at the end. Pasting from other applications like\ngedit or mozilla into rxvt does not show this behaviour, and this is not\nreproducable when pasting into an xterm.","file_goldset":["org.eclipse.swt.dnd.RTFTransfer","org.eclipse.swt.dnd.TextTransfer"],"creation_date":"2005-01-19 17:41:00","resolution_date":"2005-02-16 20:17:00"}
{"id":501,"bug_id":"83699","text":"Font reset to default after screen saver. All editors and views using a StyledText widget have the font reset to default\nafter coming back from my screen saver.","file_goldset":["org.eclipse.swt.widgets.Control"],"creation_date":"2005-01-26 06:03:00","resolution_date":"2005-02-05 10:38:00"}
{"id":502,"bug_id":"84557","text":"Table item does not appear in table. ctrl esc E brings up the handy switch to editor window, but unfortuantley the\nlist is empty :(","file_goldset":["org.eclipse.swt.widgets.TableColumn","org.eclipse.swt.widgets.TreeColumn"],"creation_date":"2005-02-07 07:06:00","resolution_date":"2005-02-18 07:42:00"}
{"id":503,"bug_id":"84609","text":"TableColumn has NPE while calling pack()  on last column. On third call I get caught NPE (in debugger) in TableColumn (line 356), because parent.getColumns() (in TableColumn:354) returns array with 4 elements (always one more as existing in the table), and the last element is always null.","file_goldset":["org.eclipse.swt.widgets.Table","org.eclipse.swt.widgets.TableColumn"],"creation_date":"2005-02-07 13:35:00","resolution_date":"2005-09-26 13:20:00"}
{"id":504,"bug_id":"86000","text":"ImageLoader Save - produces invalid JPEG images. The ImageLoader Save function appears to be producing bad JPG images.   Many files were tested and the majority \n did produced the proper JPG images as expected.","file_goldset":["org.eclipse.swt.internal.image.JPEGFileFormat"],"creation_date":"2005-02-21 14:47:00","resolution_date":"2005-02-23 18:02:00"}
{"id":505,"bug_id":"86294","text":"Find/Replace not working \"Illegal/Unsupported escape on the Mac. \"Illegal/unsupported escape\" comes up in the Find / Replace dialog.","file_goldset":["org.eclipse.swt.widgets.Combo","org.eclipse.swt.widgets.Spinner","org.eclipse.swt.widgets.Text"],"creation_date":"2005-02-23 12:03:00","resolution_date":"2005-03-14 17:08:00"}
{"id":508,"bug_id":"87460","text":"StyledText: Caret location not updated when line style is used. In the line style listener, a bold font style is set, changing the width of the rendered text.  However, this does not happen.","file_goldset":["org.eclipse.swt.custom.StyledText"],"creation_date":"2005-03-08 21:22:00","resolution_date":"2008-07-29 13:13:00"}
{"id":509,"bug_id":"87676","text":"Double-click only works on a tree\u0027s column0. Using the log view as an example, double-clicking on column0 brings up the \nevent dialog as it should. double-clicking on column1, column2 results in no notification to our double-\nclick listener.","file_goldset":["org.eclipse.swt.widgets.Tree"],"creation_date":"2005-03-10 12:28:00","resolution_date":"2005-03-10 14:19:00"}
{"id":510,"bug_id":"87855","text":"NullPointerException in Table.callWindowProc. Here is a stack trace I found when trying to kill a running process by \npressing the \"kill\" button in the console view.","file_goldset":["org.eclipse.swt.widgets.Table","org.eclipse.swt.widgets.Tree"],"creation_date":"2005-03-12 07:29:00","resolution_date":"2005-03-28 18:28:00"}
{"id":511,"bug_id":"87997","text":"TableEditor.dispose( ) causes NPE if linked Table is being disposed. If the table is in the process of being\ndisposed, the columns will have already been disposed and this will result in a\nNPE.  Further if the dispose listener is set on the parent of the Table, a\n\"Widget is disposed\" exception will be thrown instead of the NPE.","file_goldset":["org.eclipse.swt.widgets.Table","org.eclipse.swt.widgets.Tree"],"creation_date":"2005-03-14 19:21:00","resolution_date":"2005-04-06 12:50:00"}
{"id":512,"bug_id":"88717","text":"[DND] Tree is scrolling very slow when dragging an Item to the Bottom. When draggin an item to the bottom, the Tree is not scrolling. It is currently not possible to Drag an Item to a position that is out of view.","file_goldset":["org.eclipse.swt.dnd.TableDragUnderEffect","org.eclipse.swt.dnd.TreeDragUnderEffect"],"creation_date":"2005-03-22 04:34:00","resolution_date":"2005-04-23 18:19:00"}
{"id":513,"bug_id":"88829","text":"Table.setColumnOrder() may not fire enough Move events. - SWT.Move events are fired for columns 0 and 4 because they swapped positions","file_goldset":["org.eclipse.swt.widgets.Table"],"creation_date":"2005-03-22 20:41:00","resolution_date":"2005-04-06 17:05:00"}
{"id":515,"bug_id":"90258","text":"Table item not updated when item count \u003d\u003d 1. Everything works fine, except for the case I set the item count to 1, in which case I do not receive an SWT.SetData notification.   One funny thing is that in the variable view, the debugger displays the updated contents of table.items[0] after calling clearAll(), but I have verified that the data is never ever set. The display fails to update.","file_goldset":["org.eclipse.swt.widgets.Table"],"creation_date":"2005-04-05 04:56:00","resolution_date":"2005-08-11 15:55:00"}
{"id":516,"bug_id":"91159","text":"[Consistency] DropTarget event.dataType field not alwys set on DragEnter. On Windows in DragEnter the event.dataType field is set to the first value in the event.dataTypes array. On Carbon, GTK and Motif, the event.dataType field is null.","file_goldset":["org.eclipse.swt.dnd.DropTarget"],"creation_date":"2005-04-12 12:28:00","resolution_date":"2005-05-04 10:54:00"}
{"id":517,"bug_id":"93380","text":"[DnD] 100% CPU usage when dragging files in the navigator or package explorer. CPU says at 100% (or 50% when hyperthreading is enabled).  I do not see this massive use of CPU when dragging an external file into the navigator or when dragging a file out of the navigator.","file_goldset":["org.eclipse.swt.dnd.DragSource"],"creation_date":"2005-05-01 22:12:00","resolution_date":"2005-12-20 15:39:00"}
{"id":518,"bug_id":"93724","text":"Drag-and-drop creates signal names every time. Rather than converting the names for the signals every time, these signal names should be defined in OS.java so that they can be only created once.","file_goldset":["org.eclipse.swt.dnd.DragSource","org.eclipse.swt.dnd.DropTarget"],"creation_date":"2005-05-04 17:35:00","resolution_date":"2005-05-30 15:14:00"}
{"id":519,"bug_id":"94467","text":"Table layouts which only lay out once are giving bogus sizes. The list appears empty because all\nof the columns are set to zero size.","file_goldset":["org.eclipse.swt.widgets.ScrollBar","org.eclipse.swt.widgets.Scrollable","org.eclipse.swt.widgets.Table"],"creation_date":"2005-05-10 14:35:00","resolution_date":"2005-05-13 08:30:00"}
{"id":520,"bug_id":"94598","text":"DBCS3.1:Eclipse hangs when activate IIMF input in search scope of Help. Summary: DBCS3.1:Eclipse hangs when activate IIMF input in search scope of Help    Search Scope dialog pop up.   DBCS characters, but Eclipse hangs. No response from Eclipse. Error:  Eclipse hangs and can\u0027t switch or change any input method.","file_goldset":["org.eclipse.swt.browser.Browser","org.eclipse.swt.widgets.Composite"],"creation_date":"2005-05-11 00:01:00","resolution_date":"2005-05-27 04:59:00"}
{"id":521,"bug_id":"96053","text":"Spinner: Pressing buttons should focus spinner and select text. Right now, this does not happen.","file_goldset":["org.eclipse.swt.widgets.Spinner"],"creation_date":"2005-05-19 22:06:00","resolution_date":"2005-08-29 08:22:00"}
{"id":522,"bug_id":"96916","text":"Spinner.setToolTipText() doesn\u0027t work. No tooltip appears on the spinner widget after Spinner.setToolTipText().","file_goldset":["org.eclipse.swt.widgets.Combo","org.eclipse.swt.widgets.Control","org.eclipse.swt.widgets.Shell","org.eclipse.swt.widgets.Spinner"],"creation_date":"2005-05-27 03:44:00","resolution_date":"2005-08-05 12:14:00"}
{"id":523,"bug_id":"97651","text":"tree insert mark cheese. -\u003e problem 1: this makes most of the insert line go away, except for its pointy ends.  - press the button to the right of the Table: this does a Tree.redraw(), and note that the insert line reappears, so I guess it never really meant to go away -\u003e problem 2: now expand the root item again and its insert mark gets copied to below the child item in addition to its initial location. This is cheese, as can be seen by damaging part of this line with another window","file_goldset":["org.eclipse.swt.dnd.TreeDragUnderEffect","org.eclipse.swt.widgets.Tree"],"creation_date":"2005-05-31 14:43:00","resolution_date":"2005-06-03 13:04:00"}
{"id":524,"bug_id":"99145","text":"Link widget only disables link, not text. When disabling a a linked wiget with mixed text/link content (e.g. \"Use the \u003ca\u003eXY page\u003c/a\u003e to configure this\"), only the link is disabled, not the text. See screenshot","file_goldset":["org.eclipse.swt.widgets.Link"],"creation_date":"2005-06-09 09:51:00","resolution_date":"2006-04-25 16:52:00"}
{"id":525,"bug_id":"99376","text":"TableColumn has width\u003d0 and second column missing. -\u003e column 0 has width 0 (its width can be increased by dragging its separator) -\u003e column 1 seems non-existent","file_goldset":["org.eclipse.swt.custom.SashFormLayout"],"creation_date":"2005-06-10 10:56:00","resolution_date":"2005-06-16 18:24:00"}
