{"key":"87211","title":"[PresentationAPI] standalone + movable stacks should remain standalone when dragged","description":"Thus, you cannot prevent a ViewStack \nfrom being dropped onto another ViewStack.   The dragOver()  PartStack.getDropTarget()"}
{"key":"77249","title":"Annotation on class cancels \"public\" modifier","description":"The org.eclipse.jdt.core.dom.CompilationUnit instance corresponding to the class Foo below has no \"public\" modifier, although it should. Note that if the declaration is simplified to just \"@Jpf. Controller public class Foo {...}\", then the instance does have a \"public\" modifier.            @Jpf.Controller \npublic class Foo {...} @Jpf.Controller(\n    catches\u003d{\n       @Jpf.Catch(type\u003djava.lang.Exception.class, method\u003d\"handleException\"),\n       @Jpf.Catch(type\u003dPageFlowException.class, \nmethod\u003d\"handlePageFlowException\")\n    }\n)\npublic class Foo {\n...\n}"}
{"key":"93119","title":"","description":"\u003e actual: the only proposed item is the CU\u0027s type (Extends) \u003c expected: there are exactly two proposals: \u0027extends\u0027 and \u0027super\u0027  \u003e actual: dozens of type proposals are proposed (and two template proposals, but\nthat is not a jdt-core problem)\n\u003c expected: only \u0027extends\u0027 is proposed. \n\npackage codeAssist;\n\nimport java.util.List ;\n\npublic class Extends {\n\tvoid m() {\n\t\tList \u003c? |\u003e\n\t}\n}"}
{"key":"90600","title":"[model] CreateElementInCUOperation.apply: should use project options for rewriter","description":"CreateElementInCUOperation.apply should pass in the current projects options instead of null rewriter.rewriteAST(document, null)"}
{"key":"85397","title":"[1.5][enum] erroneous strictfp keyword on enum type produces error on constructor_","description":"expected: strictfp is not allowed on the enum type actual: no error is reported       expected: the wrong modifier is reported with the type name \u0027Natural\u0027 actual: the error is shown for the constructor_ strictfp enum Natural {\n\tONE, TWO;\n}\n\n strictfp enum Natural {\n\tONE, TWO;\n\t\n\tprivate Natural() {\n\t}\n}"}
{"key":"98740","title":"Container attempts to refresh children on project that is not open","description":"A background refresh job has now been started for the closed project, but it never finishes and is stuck in an infinite loop.  The members() method is excuting if (info.isSet(ICoreConstants.M_CHILDREN_UNKNOWN)) workspace.refreshManager.refresh(this);  Both the AliasManager and the Java Perspective are calling members on the IProject.   On the next UI gesture, we get refresh infinite loops, one for each closed project.  The end user will open them by using the open project UI when needed.  String folder \u003d \"/temp\";//$NON-NLS-1$\nString projName \u003d \"project\";//$NON-NLS-1$ \nIProjectDescription description \u003d ResourcesPlugin.getWorkspace\n().loadProjectDescription(projPath);\nIProject project \u003d ResourcesPlugin.getWorkspace().getRoot().getProject\n(description.getName());\nproject.create(description, new NullProgressMonitor());\n\n project.open()  The members()  if (info.isSet(ICoreConstants.M_CHILDREN_UNKNOWN))\n\t\t\tworkspace.refreshManager.refresh(this);"}
{"key":"79091","title":"[compiler] Should report invalid type only on the name","description":"We report an error on Zork[] instead of Zork only. class X { Zork[] foo; }"}
{"key":"95096","title":"[5.0][content assist] Content assist popup disappears while completing the statically imported method name","description":"-\u003e Instead of constraining the proposals to all members with prefix a, the popup closes import static java.lang.Math"}
{"key":"96489","title":"[Presentations] (regression) Standalone view without title has no border","description":"- the history view (a regular view) has a border, but the standalone view does not  Standalone views should still have their border, just not the title or min/max buttons if showTitle\u003d\u003dfalse. layout.addStandaloneView(BrowserApp.BROWSER_VIEW_ID, false,\nIPageLayout.RIGHT, .25f, IPageLayout.ID_EDITOR_AREA);"}
{"key":"83206","title":"ICodeAssist#codeSelect(..) on implicit methods should not return a java element","description":"ICodeAssist#codeSelect(. .) on implicit methods \u0027valueOf(String)\u0027 and \u0027values()\u0027 of enum Color should not return a java element. Currently, the declaring enum is returned. class User {\n    enum Color {RED, GREEN, BLUE}\n    void x() {\n        Color.valueOf(\"RED\");\n        Color.values();\n    }\n}\n\n valueOf(String) values()"}
{"key":"85672","title":"[projection] Unfolding a folded region with no line delimiter on the last line selects too much","description":"Note that there is a phantom line in the editor since we cannot fold that one away.  expected: caret is right after the closing brace actual: everything from after the *opening* brace is selected  package folding;\n\nclass Test {\n    \n}"}
{"key":"99282","title":"","description":"For example, the following program should print \"1999\" 40 times\n(once from each thread). But on my machine, it prints \"default\" 22 times \u0026 1999\n18 times.                                                                                                                                                               \n\npackage com.bea;\n\npublic class TestEnumSwitch {\n\t\n\tpublic static synchronized void foo() {} \n\n\tpublic static final void main(String args[]) {\n\t\t\n\t\tfinal TestEnum e \u003d TestEnum.A1999;\n\t\t\n\t\tThread[] runners \u003d new Thread[40];\n\t\tfor (int i \u003d 0; i \u003c runners.length; i++) {\n\t\t\trunners[i] \u003d new Thread(new Runnable() {\n\t\t\t\tpublic void run() {\n\t\t\t\t\tswitch (e) {\n\t\t\t\t\tcase A1:\n\t\t\t\t\t\tSystem.err.println(\"1\");\n\t\t\t\t\t\tbreak;\n\t\t\t\t\tcase A2:\n\t\t\t\t\t\tSystem.err.println(\"2\");\n\t\t\t\t\t\tbreak;\n\t\t\t\t\tcase A8:\n\t\t\t\t\t\tSystem.err.println(\"8\");\n\t\t\t\t\t\tbreak;\n\t\t\t\t\tcase A13:\n\t\t\t\t\t\tSystem.err.println(\"13\");\n\t\t\t\t\t\tbreak;\n\t\t\t\t\tcase A1999:\n\t\t\t\t\t\tSystem.err.println(\"1999\");\n\t\t\t\t\t\tbreak;\n\t\t\t\t\tdefault:\n\t\t\t\t\t\tSystem.err.println(\"default\");\n\t\t\t\t\t\tbreak;\n\t\t\t\t\t}\n\t\t\t\t\t\n\t\t\t\t}\n\t\t\t});\n\t\t}\n\t\t\n\t\tfor (int i \u003d 0; i \u003c runners.length; i++) {\n\t\t\trunners[i].start();\n\t\t}\n\t\t\n\t}\n\t\n\tpublic enum TestEnum {\n\t\tA0, A1, A2, A3, A4, A5, A6, A7, A8, A9,\n\t\tA10, A11, A12, A13, A14, A15, A16, A17, A18, A19,\n\t\tA20, A21, A22, A23, A24, A25, A26, A27, A28, A29,\n\t\tA30, A31, A32, A33, A34, A35, A36, A37, A38, A39,\n\t\tA40, A41, A42, A43, A44, A45, A46, A47, A48, A49,\n\t\tA50, A51, A52, A53, A54, A55, A56, A57, A58, A59,\n\t\tA60, A61, A62, A63, A64, A65, A66, A67, A68, A69,\n\t\tA70, A71, A72, A73, A74, A75, A76, A77, A78, A79,\n\t\tA80, A81, A82, A83, A84, A85, A86, A87, A88, A89,\n\t\tA90, A91, A92, A93, A94, A95, A96, A97, A98, A99,\n\t\tA100, A101, A102, A103, A104, A105, A106, A107, A108, A109,\n\t\tA110, A111, A112, A113, A114, A115, A116, A117, A118, A119,\n\t\tA120, A121, A122, A123, A124, A125, A126, A127, A128, A129,\n\t\tA130, A131, A132, A133, A134, A135, A136, A137, A138, A139,\n\t\tA140, A141, A142, A143, A144, A145, A146, A147, A148, A149,\n\t\tA150, A151, A152, A153, A154, A155, A156, A157, A158, A159,\n\t\tA160, A161, A162, A163, A164, A165, A166, A167, A168, A169,\n\t\tA170, A171, A172, A173, A174, A175, A176, A177, A178, A179,\n\t\tA180, A181, A182, A183, A184, A185, A186, A187, A188, A189,\n\t\tA190, A191, A192, A193, A194, A195, A196, A197, A198, A199,\n\t\tA200, A201, A202, A203, A204, A205, A206, A207, A208, A209,\n\t\tA210, A211, A212, A213, A214, A215, A216, A217, A218, A219,\n\t\tA220, A221, A222, A223, A224, A225, A226, A227, A228, A229,\n\t\tA230, A231, A232, A233, A234, A235, A236, A237, A238, A239,\n\t\tA240, A241, A242, A243, A244, A245, A246, A247, A248, A249,\n\t\tA250, A251, A252, A253, A254, A255, A256, A257, A258, A259,\n\t\tA260, A261, A262, A263, A264, A265, A266, A267, A268, A269,\n\t\tA270, A271, A272, A273, A274, A275, A276, A277, A278, A279,\n\t\tA280, A281, A282, A283, A284, A285, A286, A287, A288, A289,\n\t\tA290, A291, A292, A293, A294, A295, A296, A297, A298, A299,\n\t\tA300, A301, A302, A303, A304, A305, A306, A307, A308, A309,\n\t\tA310, A311, A312, A313, A314, A315, A316, A317, A318, A319,\n\t\tA320, A321, A322, A323, A324, A325, A326, A327, A328, A329,\n\t\tA330, A331, A332, A333, A334, A335, A336, A337, A338, A339,\n\t\tA340, A341, A342, A343, A344, A345, A346, A347, A348, A349,\n\t\tA350, A351, A352, A353, A354, A355, A356, A357, A358, A359,\n\t\tA360, A361, A362, A363, A364, A365, A366, A367, A368, A369,\n\t\tA370, A371, A372, A373, A374, A375, A376, A377, A378, A379,\n\t\tA380, A381, A382, A383, A384, A385, A386, A387, A388, A389,\n\t\tA390, A391, A392, A393, A394, A395, A396, A397, A398, A399,\n\t\tA400, A401, A402, A403, A404, A405, A406, A407, A408, A409,\n\t\tA410, A411, A412, A413, A414, A415, A416, A417, A418, A419,\n\t\tA420, A421, A422, A423, A424, A425, A426, A427, A428, A429,\n\t\tA430, A431, A432, A433, A434, A435, A436, A437, A438, A439,\n\t\tA440, A441, A442, A443, A444, A445, A446, A447, A448, A449,\n\t\tA450, A451, A452, A453, A454, A455, A456, A457, A458, A459,\n\t\tA460, A461, A462, A463, A464, A465, A466, A467, A468, A469,\n\t\tA470, A471, A472, A473, A474, A475, A476, A477, A478, A479,\n\t\tA480, A481, A482, A483, A484, A485, A486, A487, A488, A489,\n\t\tA490, A491, A492, A493, A494, A495, A496, A497, A498, A499,\n\t\tA500, A501, A502, A503, A504, A505, A506, A507, A508, A509,\n\t\tA510, A511, A512, A513, A514, A515, A516, A517, A518, A519,\n\t\tA520, A521, A522, A523, A524, A525, A526, A527, A528, A529,\n\t\tA530, A531, A532, A533, A534, A535, A536, A537, A538, A539,\n\t\tA540, A541, A542, A543, A544, A545, A546, A547, A548, A549,\n\t\tA550, A551, A552, A553, A554, A555, A556, A557, A558, A559,\n\t\tA560, A561, A562, A563, A564, A565, A566, A567, A568, A569,\n\t\tA570, A571, A572, A573, A574, A575, A576, A577, A578, A579,\n\t\tA580, A581, A582, A583, A584, A585, A586, A587, A588, A589,\n\t\tA590, A591, A592, A593, A594, A595, A596, A597, A598, A599,\n\t\tA600, A601, A602, A603, A604, A605, A606, A607, A608, A609,\n\t\tA610, A611, A612, A613, A614, A615, A616, A617, A618, A619,\n\t\tA620, A621, A622, A623, A624, A625, A626, A627, A628, A629,\n\t\tA630, A631, A632, A633, A634, A635, A636, A637, A638, A639,\n\t\tA640, A641, A642, A643, A644, A645, A646, A647, A648, A649,\n\t\tA650, A651, A652, A653, A654, A655, A656, A657, A658, A659,\n\t\tA660, A661, A662, A663, A664, A665, A666, A667, A668, A669,\n\t\tA670, A671, A672, A673, A674, A675, A676, A677, A678, A679,\n\t\tA680, A681, A682, A683, A684, A685, A686, A687, A688, A689,\n\t\tA690, A691, A692, A693, A694, A695, A696, A697, A698, A699,\n\t\tA700, A701, A702, A703, A704, A705, A706, A707, A708, A709,\n\t\tA710, A711, A712, A713, A714, A715, A716, A717, A718, A719,\n\t\tA720, A721, A722, A723, A724, A725, A726, A727, A728, A729,\n\t\tA730, A731, A732, A733, A734, A735, A736, A737, A738, A739,\n\t\tA740, A741, A742, A743, A744, A745, A746, A747, A748, A749,\n\t\tA750, A751, A752, A753, A754, A755, A756, A757, A758, A759,\n\t\tA760, A761, A762, A763, A764, A765, A766, A767, A768, A769,\n\t\tA770, A771, A772, A773, A774, A775, A776, A777, A778, A779,\n\t\tA780, A781, A782, A783, A784, A785, A786, A787, A788, A789,\n\t\tA790, A791, A792, A793, A794, A795, A796, A797, A798, A799,\n\t\tA800, A801, A802, A803, A804, A805, A806, A807, A808, A809,\n\t\tA810, A811, A812, A813, A814, A815, A816, A817, A818, A819,\n\t\tA820, A821, A822, A823, A824, A825, A826, A827, A828, A829,\n\t\tA830, A831, A832, A833, A834, A835, A836, A837, A838, A839,\n\t\tA840, A841, A842, A843, A844, A845, A846, A847, A848, A849,\n\t\tA850, A851, A852, A853, A854, A855, A856, A857, A858, A859,\n\t\tA860, A861, A862, A863, A864, A865, A866, A867, A868, A869,\n\t\tA870, A871, A872, A873, A874, A875, A876, A877, A878, A879,\n\t\tA880, A881, A882, A883, A884, A885, A886, A887, A888, A889,\n\t\tA890, A891, A892, A893, A894, A895, A896, A897, A898, A899,\n\t\tA900, A901, A902, A903, A904, A905, A906, A907, A908, A909,\n\t\tA910, A911, A912, A913, A914, A915, A916, A917, A918, A919,\n\t\tA920, A921, A922, A923, A924, A925, A926, A927, A928, A929,\n\t\tA930, A931, A932, A933, A934, A935, A936, A937, A938, A939,\n\t\tA940, A941, A942, A943, A944, A945, A946, A947, A948, A949,\n\t\tA950, A951, A952, A953, A954, A955, A956, A957, A958, A959,\n\t\tA960, A961, A962, A963, A964, A965, A966, A967, A968, A969,\n\t\tA970, A971, A972, A973, A974, A975, A976, A977, A978, A979,\n\t\tA980, A981, A982, A983, A984, A985, A986, A987, A988, A989,\n\t\tA990, A991, A992, A993, A994, A995, A996, A997, A998, A999,\n\t\tA1000, A1001, A1002, A1003, A1004, A1005, A1006, A1007, A1008, A1009,\n\t\tA1010, A1011, A1012, A1013, A1014, A1015, A1016, A1017, A1018, A1019,\n\t\tA1020, A1021, A1022, A1023, A1024, A1025, A1026, A1027, A1028, A1029,\n\t\tA1030, A1031, A1032, A1033, A1034, A1035, A1036, A1037, A1038, A1039,\n\t\tA1040, A1041, A1042, A1043, A1044, A1045, A1046, A1047, A1048, A1049,\n\t\tA1050, A1051, A1052, A1053, A1054, A1055, A1056, A1057, A1058, A1059,\n\t\tA1060, A1061, A1062, A1063, A1064, A1065, A1066, A1067, A1068, A1069,\n\t\tA1070, A1071, A1072, A1073, A1074, A1075, A1076, A1077, A1078, A1079,\n\t\tA1080, A1081, A1082, A1083, A1084, A1085, A1086, A1087, A1088, A1089,\n\t\tA1090, A1091, A1092, A1093, A1094, A1095, A1096, A1097, A1098, A1099,\n\t\tA1100, A1101, A1102, A1103, A1104, A1105, A1106, A1107, A1108, A1109,\n\t\tA1110, A1111, A1112, A1113, A1114, A1115, A1116, A1117, A1118, A1119,\n\t\tA1120, A1121, A1122, A1123, A1124, A1125, A1126, A1127, A1128, A1129,\n\t    A1999,\n\t\t}\n}"}
{"key":"78315","title":"org.eclipes.team.ui plugin\u0027s startup code forces compare to be loaded","description":"The one for compare fails because org.eclipes.team.ui forces compare to be loaded in its start(BundleContext) method:   The direct reference to DiffNode causes the compare plug-in to be loaded even if it is not needed yet. Only when a compare will be done it needs to be loaded and the adapter being registered.    Platform.getAdapterManager() registerAdapters(factory, DiffNode.class);\n\n startup()"}
{"key":"88295","title":"[1.5][assist] too many completion on enum case label","description":"When completing in enum case label \u0027R\u003c|\u003e\u0027 only enum constants should be offered.          public class Class3 {\n\n\tenum Color {\n\t\tBLUE, WHITE, RED;\n\t}\n\t\n\tvoid select(Color c) {\n\t\t\n\t\tswitch(c){\n\t\t\tcase BLUE :\n\t\t\tcase WHITE:\n\t\t\tcase R\u003c|\u003e\n\t\t}\n\t}\n}"}
{"key":"80672","title":"[1.5] Annotation change does not trigger recompilation","description":"java should have got a problem due to disallowed\nlocation for use of annotation @Ann. \npackage p;\n@q.Ann\npublic class Use {\n}\n \npackage q;\npublic @interface Ann {\n}\n\n\n \npackage q;\nimport java.lang.annotation.*;\n@Target(ElementType.METHOD)\npublic @interface Ann {\n}\n \n @Ann"}
{"key":"86000","title":"ImageLoader Save - produces invalid JPEG images","description":"The ImageLoader Save function appears to be producing bad JPG images.   Many files were tested and the majority \n did produced the proper JPG images as expected.          \n \n \npackage com.ibm.test.image;\n\nimport org.eclipse.swt.*;\nimport org.eclipse.swt.graphics.*;\n\npublic class ImageLoaderTest {\n\t\t\n\tpublic static void main(String[] args) {\n\t\tImageLoader loader;\n\t\tString dir\u003d\"c:\\\\image-problems\\\\\";\n\t\tString files[]\u003d{\n\t\t\t\t\"s34i3p04\",\n\t\t\t\t\"s34n3p04\",\n\t\t\t\t\"s35i3p04\",\n\t\t\t\t\"s35n3p04\",\n\t\t\t\t\"s36i3p04\",\n\t\t\t\t\"s36n3p04\",\n\t\t\t\t\"s37i3p04\",\n\t\t\t\t\"s37n3p04\",\n\t\t\t\t\"s38i3p04\",\n\t\t\t\t\"s38n3p04\",\n\t\t\t\t\"s39i3p04\",\n\t\t\t\t\"s39n3p04\"\n\t\t};\n\t\t\n\t\ttry {\n\t\t\tfor (int i\u003d0; i\u003cfiles.length; i++) {\n\t\t\tString filein  \u003d dir+files[i]+\".png\";\n\t\t\tString fileout \u003d dir+files[i]+\".jpg\";\n\t\t\t\n\t\t\tloader \u003d new ImageLoader();\n\t\t\tloader.load(filein);\n\t\t\tloader.save(fileout,SWT.IMAGE_JPEG);\n\t\t\t}\n\t\t} catch (SWTException e) {\n\t\t  e.printStackTrace();\n\t\t}\n\t}\n}"}
{"key":"99631","title":"","description":"-\u003e The keyword proposals byte and boolean show up -\u003e A list of annotations starting with \u0027B\u0027 would be more helpful @B public class Test {}"}
{"key":"97722","title":"","description":"The dialog\u0027s error message is cropped at the bottom. The space between Name and Location seems unneccessary. The name text and location combo should be left aligned. The background color of the error message is different from the dialog\nbackground -- is this intended?   @\n\nDialog"}
{"key":"89621","title":"","description":"The result is:  I would expect:   \n\nimport java.awt.Frame;\nimport java.awt.event.WindowAdapter;\n\npublic class Foo extends Frame {\n\n    public void bar() {\n        addWindow\u003cCODE ASSIST HERE\u003eListener(new WindowAdapter());\n    }\n}"}
