{"key":"DATACMNS-501","title":"ID type not detected for intermediate repository interface","description":"I have a class hierarchy as follows (actual code running in Production):\n\n\n\n\n\n\nabstract class Entity {}\n\n\n\n\n\n\n\n\n\n@MappedSuperClass\n\n\n\n\nabstract class RelationalEntity {}\n\n\n\n\n\n\n\n\n\n@Entity\n\n\n\n\n@Inheritance(strategy \u003d InheritanceType.JOINED)\n\n\n\n\n@Table(name \u003d \"person\")\n\n\n\n\npublic class Person extends RelationalEntity {}\n\n\n\n\n\n\n\n\n\n@Entity\n\n\n\n\n@Table(name \u003d \"employee\")\n\n\n\n\npublic class Employee extends Person {}\n\n\n\n\n\n\n\n\n\n@Entity\n\n\n\n\n@Table(name \u003d \"manager\")\n\n\n\n\npublic class Manager extends Employee {}\n\n\n\n\n\n\nand their corresponding Spring Data JPA repositories:\n\n\n\n\n\n\n@NoRepositoryBean\n\n\n\n\npublic interface RelationalEntityRepository\u003cT extends RelationalEntity\u003e extends JpaRepository\u003cT, Long\u003e {}\n\n\n\n\n\n\n\n\n\npublic interface PersonRepository\u003cP extends Person\u003e extends RelationalEntityRepository\u003cP\u003e {}\n\n\n\n\n\n\n\n\n\npublic interface EmployeeRepository extends PersonRepository\u003cEmployee\u003e {}\n\n\n\n\n\n\n\n\n\npublic interface ManagerRepository extends PersonRepository\u003cManager\u003e {}\n\n\n\n\n\n\nWe have to sometimes run queries such as PersonRepository\u003cPerson\u003e.count() because of which we have not marked that repository with NoRepositoryBean.  This arrangement is working fine in production with Spring Data JPA 1.4.3.\nOn attempting to upgrade to Spring Data JPA 1.5.2 we get the following exception:\n\n\n\n\n\n\nCaused by: org.springframework.beans.factory.BeanCreationException: Error creating bean with name \u0027personRepository\u0027: Invocation of init method failed; nested exception is java.lang.IllegalArgumentException: Could not resolve id type of interface org.example.data.PersonRepository!\n\n\n\n\n\tat org.springframework.beans.factory.support.AbstractAutowireCapableBeanFactory.initializeBean(AbstractAutowireCapableBeanFactory.java:1553)\n\n\n\n\n\tat org.springframework.beans.factory.support.AbstractAutowireCapableBeanFactory.doCreateBean(AbstractAutowireCapableBeanFactory.java:539)\n\n\n\n\n\tat org.springframework.beans.factory.support.AbstractAutowireCapableBeanFactory.createBean(AbstractAutowireCapableBeanFactory.java:475)\n\n\n\n\n\tat org.springframework.beans.factory.support.AbstractBeanFactory$1.getObject(AbstractBeanFactory.java:304)\n\n\n\n\n\tat org.springframework.beans.factory.support.DefaultSingletonBeanRegistry.getSingleton(DefaultSingletonBeanRegistry.java:228)\n\n\n\n\n\tat org.springframework.beans.factory.support.AbstractBeanFactory.doGetBean(AbstractBeanFactory.java:300)\n\n\n\n\n\tat org.springframework.beans.factory.support.AbstractBeanFactory.getBean(AbstractBeanFactory.java:195)\n\n\n\n\n\tat org.springframework.beans.factory.support.DefaultListableBeanFactory.preInstantiateSingletons(DefaultListableBeanFactory.java:684)\n\n\n\n\n\tat org.springframework.context.support.AbstractApplicationContext.finishBeanFactoryInitialization(AbstractApplicationContext.java:760)\n\n\n\n\n\tat org.springframework.context.support.AbstractApplicationContext.refresh(AbstractApplicationContext.java:482)\n\n\n\n\n\tat org.springframework.test.context.support.AbstractGenericContextLoader.loadContext(AbstractGenericContextLoader.java:125)\n\n\n\n\n\tat org.springframework.test.context.support.AbstractGenericContextLoader.loadContext(AbstractGenericContextLoader.java:60)\n\n\n\n\n\tat org.springframework.test.context.support.AbstractDelegatingSmartContextLoader.delegateLoading(AbstractDelegatingSmartContextLoader.java:100)\n\n\n\n\n\tat org.springframework.test.context.support.AbstractDelegatingSmartContextLoader.loadContext(AbstractDelegatingSmartContextLoader.java:250)\n\n\n\n\n\tat org.springframework.test.context.CacheAwareContextLoaderDelegate.loadContextInternal(CacheAwareContextLoaderDelegate.java:64)\n\n\n\n\n\tat org.springframework.test.context.CacheAwareContextLoaderDelegate.loadContext(CacheAwareContextLoaderDelegate.java:91)\n\n\n\n\n\t... 25 more\n\n\n\n\nCaused by: java.lang.IllegalArgumentException: Could not resolve id type of interface org.example.data.PersonRepository!\n\n\n\n\n\tat org.springframework.data.repository.core.support.DefaultRepositoryMetadata.resolveIdType(DefaultRepositoryMetadata.java:79)\n\n\n\n\n\tat org.springframework.data.repository.core.support.DefaultRepositoryMetadata.\u003cinit\u003e(DefaultRepositoryMetadata.java:51)\n\n\n\n\n\tat org.springframework.data.repository.core.support.RepositoryFactorySupport.getRepositoryMetadata(RepositoryFactorySupport.java:173)\n\n\n\n\n\tat org.springframework.data.repository.core.support.RepositoryFactoryBeanSupport.afterPropertiesSet(RepositoryFactoryBeanSupport.java:207)\n\n\n\n\n\tat org.springframework.data.jpa.repository.support.JpaRepositoryFactoryBean.afterPropertiesSet(JpaRepositoryFactoryBean.java:84)\n\n\n\n\n\tat org.springframework.beans.factory.support.AbstractAutowireCapableBeanFactory.invokeInitMethods(AbstractAutowireCapableBeanFactory.java:1612)\n\n\n\n\n\tat org.springframework.beans.factory.support.AbstractAutowireCapableBeanFactory.initializeBean(AbstractAutowireCapableBeanFactory.java:1549)\n\n\n\n\n\t... 40 more\n\n\n\n\n\n\nThis exception is thrown from every Spring Data JPA version 1.4.4 onwards.\nWe have a few class hierarchies like this in our code base for which Spring Data JPA has been working well so far.  Has this kind of support been dropped from 1.4.4 onwards?\nAttached is a sample project that demonstrates the problem.","creation_date":"2014-05-05T22:39:24.000-05:00","resolution_date":"2014-05-06T01:48:57.000-05:00","fixed_files":["org.springframework.data.repository.core.support.DefaultRepositoryMetadataUnitTests","org.springframework.data.repository.core.support.DefaultRepositoryMetadata"]}
{"key":"DATACMNS-502","title":"AnnotationRepositoryConfigurationSource fails when the annotated class is in the default package.","description":"\n\n\n\n\n\n\n@Configuration\n\n\n\n\n@ComponentScan\n\n\n\n\n@EnableJpaRepositories\n\n\n\n\npublic class OtherConfig {\n\n\n\n\n}\n\n\n\n\n\n\nNo package statement.  This class is in the default package.\n\n\n\n\n\n\nCaused by: java.lang.StringIndexOutOfBoundsException: String index out of range: -1\n\n\n\n\n\tat java.lang.String.substring(String.java:1911) ~[na:1.7.0_51]\n\n\n\n\n\tat org.springframework.data.repository.config.AnnotationRepositoryConfigurationSource.getBasePackages(AnnotationRepositoryConfigurationSource.java:98) ~[spring-data-commons-1.7.2.RELEASE.jar:na]\n\n\n\n\n\tat org.springframework.data.repository.config.RepositoryConfigurationSourceSupport.getCandidates(RepositoryConfigurationSourceSupport.java:68) ~[spring-data-commons-1.7.2.RELEASE.jar:na]\n\n\n\n\n\tat org.springframework.data.repository.config.RepositoryConfigurationExtensionSupport.getRepositoryConfigurations(RepositoryConfigurationExtensionSupport.java:54) ~[spring-data-commons-1.7.2.RELEASE.jar:na]\n\n\n\n\n\tat org.springframework.data.repository.config.RepositoryConfigurationDelegate.registerRepositoriesIn(RepositoryConfigurationDelegate.java:88) ~[spring-data-commons-1.7.2.RELEASE.jar:na]\n\n\n\n\n\tat org.springframework.data.repository.config.RepositoryBeanDefinitionRegistrarSupport.registerBeanDefinitions(RepositoryBeanDefinitionRegistrarSupport.java:78) ~[spring-data-commons-1.7.2.RELEASE.jar:na]\n\n\n\n\n\n\nThis should not cause an exception.\nThanks,\nAdam and Rossen","creation_date":"2014-05-07T11:01:22.000-05:00","resolution_date":"2014-05-08T05:54:02.000-05:00","fixed_files":["org.springframework.data.repository.config.AnnotationRepositoryConfigurationSourceUnitTests","org.springframework.data.repository.config.AnnotationRepositoryConfigurationSource"]}
{"key":"DATACMNS-519","title":"PagedResourcesAssembler should keep tempalte variables provided in base link","description":"","creation_date":"2014-06-11T06:14:40.000-05:00","resolution_date":"2014-06-12T04:03:37.000-05:00","fixed_files":["org.springframework.data.web.PagedResourcesAssembler","org.springframework.data.web.PageableHandlerMethodArgumentResolver","org.springframework.data.web.PagedResourcesAssemblerUnitTests"]}
