{"key":"CONFIGURATION-214","title":"","description":"Try this in a BeanShell:"}
{"key":"CONFIGURATION-241","title":"","description":"I am loading configuration information from multiple sources and have registered a listener with the resulting configuration object.    Below is a watered down version of what I am doing (note, my configuration file simply pulls in a property file containing this property: name.first\u003dMike):"}
{"key":"CONFIGURATION-259","title":"","description":"I am trying to merge two Configuration using the ConfigurationFactory and the additional tag.  In particular, after creating a particular subset from a loaded configuration, the subset is empty.  So when initializing the configuration as follows, I get the following error:"}
{"key":"CONFIGURATION-332","title":"","description":"The following test fails on the last assertion :"}
{"key":"CONFIGURATION-347","title":"Iterating over the keys of a file-based configuration can cause a ConcurrentModificationException","description":""}
{"key":"CONFIGURATION-408","title":"When I save a URL as a property value, the forward slashes are getting escaped","description":"Example Code :"}
{"key":"CONFIGURATION-481","title":"","description":"With Commons Configuration 1.6, I was able to declare a variable in a properties file, and then reference it in a XML file using the ${myvar} syntax. For example:              When I try to retrieve the value, like so:"}
{"key":"CONFIGURATION-627","title":"","description":"Creating an XMLConfiguration from a file with a builder:"}
