{"key":"1599709","title":"NPE with JEditBuffer and new indenting","description":"To reproduce: Save an empty buffer as test.php. Type: \\--------------- \u0026lt;? php $foo \u003d \u0027\u0026lt;ENTER\u0026gt; \\--------------- When pressing ENTER, after the \"\u0027\", the following exception gets thrown:                                                lt;ENTER\u0026gt;"}
{"key":"1193683","title":"","description":"Hi, when you have some folded text \\(folding closed\\)   Close it you\u0027ll get  Delete one \\{ You\u0027ll have  and no text fold anymore.  But the weird thing is that the text is not completely lost because you can type another \\{ \\(no need to undo\\) and the fold will reappear magically. So the text was still here but hidden by jEdit\u0027s text area {\\{\\{ test\naaaa\nbbbb\ncccc\n\\}"}
{"key":"1600401","title":"StringIndexOutOfBoundsException in TokenMarker","description":"After pressing ENTER in a rather long line in a . php file, I got the following exception. The line appeared wrong highlighted in the first place, that why I wanted to see if splitting it would resolve the highlight issue. After this the buffer window is not usable anymore \\(e.g. I cannot enter it, nor does it get repainted\\).                                                                                                                                                                           lt;init\u0026gt; {12,39\\} lt;init\u0026gt; {12,39\\} lt;init\u0026gt; lt;init\u0026gt; lt;init\u0026gt;"}
{"key":"1658252","title":"C mode: incorrect bracket matching in multi-line defines","description":"Try this define:  The brackets don\u0027t match. { \\\ncode;                         \\\nmore code;                    \\\neven more code;               \\\n\\}"}
{"key":"1571752","title":"","description":"Before \u0027Add Explicit fold\u0027 the content of buffer looks like this \\(\u0027X\u0027 means selection boundaries\\):      After:         {\n\n\\} {\\{\\{  --\u0026gt;\nfunction foo\\(\\) \\{\n\n\\} //\\}\\}\\}"}
{"key":"1724940","title":"","description":"If I highlight multiple selections of text in the text area and then begin typing, only the first character of what I type is inserted in the selected areas \\(except for where the cursor ended up after making the selection\\). For example if I have the text:  and I highlight both p\u0027s in the \u0026lt;p\u0026gt; tags and then type \"div\" I end up with:   lt;body\u0026gt;\n lt;p\u0026gt;\n the \u0026lt;p\u0026gt;  lt;body\u0026gt;\n lt;d\u0026gt;"}
{"key":"1575505","title":"","description":"Enter this text:  Select the word \\(solid\\). Press C+j.    Nothing happens r\u0026gt; ;\n\n r\u0026gt; ;"}
{"key":"1942313","title":"Expanding a fold twice moves caret unexpectedly","description":"Create the following file, and save it as test.cpp:     Change the folding mode \\(if necessary\\) to \\`indent\u0027. Move the caret to the \\`hij\u0027 line. Press Alt+Backspace to contract the fold.  Press Alt+Enter to expand the fold.  Press Alt+Enter a second time. The caret moves unexpectedly to the \\`bcd\u0027 line.  int a \u003d 1;\n\n {\n//\n\\}\n\n {\n//\n\\}\n\n {\n//\n\\}"}
{"key":"1999448","title":"Unnecesarry fold expantion when folded lines are edited","description":"\\(Quoted from Matthieu\u0027s comment for patch \\#1999448\\)\nif I use explicit fold, with this buffer    all folds are folded. I remove one \"l\" from hello.  {\\{\\{ hello\n\nsomething\n\n\\}"}
{"key":"2129419","title":"NPE in EditPane.setBuffer when quitting jEdit","description":"When trying to quit jEdit, I get the following Null-Pointer-Exception, which is probably related to some files being changed/deleted \\(due to a \"cvs up\" in the background\\).   dialog already failed, so that \"Close\" was the only option that worked. The NPE:                                                                     lt;init\u0026gt;"}
