{"key":"LANG-346","title":"Dates.round() behaves incorrectly for minutes and seconds","description":"--2.1 produces Before round() Mon Jul 02 03:09:50 CDT 2007  --2.2 and 2.3 produces Before round() Mon Jul 02 03:09:50 CDT 2007 After round()  Mon Jul 02 03:01:00 CDT 2007 -- this appears to be wrong"}
{"key":"LANG-259","title":"ValuedEnum.compareTo(Object other) not typesafe - it easily could be...","description":"int org.apache.commons.lang.enums.ValuedEnum.compareTo(Object other) is not typesafe - if the int-values are the same, it will return \"0\" even for two totally different sub-classes of ValuedEnum"}
{"key":"LANG-477","title":"ExtendedMessageFormat: OutOfMemory with custom format registry and a pattern containing single quotes","description":"When using ExtendedMessageFormat with a custom format registry and a pattern conatining single quotes, an OutOfMemoryError will occur."}
{"key":"LANG-746","title":"NumberUtils does not handle upper-case hex: 0X and -0X","description":"NumberUtils.createNumber() should work equally for 0x1234 and 0X1234; currently 0X1234 generates a NumberFormatException Integer.decode() handles both upper and lower case hex."}
{"key":"LANG-624","title":"SystemUtils.getJavaVersionAsFloat throws StringIndexOutOfBoundsException on Android runtime/Dalvik VM","description":""}
{"key":"LANG-879","title":"LocaleUtils test fails with new Locale \"ja_JP_JP_#u-ca-japanese\" of JDK7","description":"The Test below fails with the following error on JDK7, but succeeds on JDK6:"}
{"key":"LANG-363","title":"StringEscapeUtils.escapeJavaScript() method did not escape \u0027/\u0027 into \u0027\\/\u0027, it will make IE render page uncorrectly","description":"value \u003d \u0027\u003cscript\u003ealert(\\\u0027aaa\\\u0027);\u003c/script\u003e\u0027;this expression will make IE render page uncorrect, it should be document.getElementById(\"test\")."}
{"key":"LANG-292","title":"unescapeXml(\"\u002612345678;\") should be \"\u002612345678;\"","description":"Following test (in EntitiesTest.java) fails:"}
{"key":"LANG-480","title":"StringEscapeUtils.escapeHtml incorrectly converts unicode characters above U+00FFFF into 2 characters","description":"Characters that are represented as a 2 characters internaly by java are incorrectly converted by the function."}
{"key":"LANG-788","title":"SerializationUtils throws ClassNotFoundException when cloning primitive classes","description":"If a serializable object contains a reference to a primitive class, e.g. int.class or int[].class, the SerializationUtils throw a ClassNotFoundException when trying to clone that object.            The SerializationUtils problem arises because the SerializationUtils internally use the ClassLoaderAwareObjectInputStream that overrides the ObjectInputStream\u0027s resoleClass method without delegating to the super method in case of a ClassNotFoundException."}
{"key":"LANG-645","title":"FastDateFormat.format() outputs incorrect week of year because locale isn\u0027t respected","description":"FastDateFormat apparently doesn\u0027t respect the locale it was sent on creation when outputting week in year (e.g. \"ww\") in format(). It seems to use the settings of the system locale for firstDayOfWeek and minimalDaysInFirstWeek, which (depending on the year) may result in the incorrect week number being output. Here is a simple test program to demonstrate the problem by comparing with SimpleDateFormat, which gets the week number right:     FastDateFormat fdf \u003d FastDateFormat.getInstance(\"EEEE\u0027, week \u0027ww\", locale);\n        SimpleDateFormat sdf \u003d new SimpleDateFormat(\"EEEE\u0027, week \u0027ww\", locale);\n        System.out.println(\"FastDateFormat:   \" + fdf.format(d)); // will output \"FastDateFormat:   fredag, week 01\"\n        System.out.println(\"SimpleDateFormat: \" + sdf.format(d)); // will output \"SimpleDateFormat: fredag, week 53\"\n    }\n}\n{code}"}
{"key":"LANG-393","title":"EqualsBuilder don\u0027t compare BigDecimals correctly ","description":"When comparing a BigDecimal, the comparing is made using equals, not compareTo, which is more appropriate in the case of BigDecimal."}
{"key":"LANG-295","title":"StrBuilder contains usages of thisBuf.length when they should use size","description":"While fixing LANG-294 I noticed that there are two other places in StrBuilder that reference thisBuf.length and unless I\u0027m mistaken they shouldn\u0027t."}
{"key":"LANG-538","title":"DateFormatUtils.format does not correctly change Calendar TimeZone in certain situations","description":"If a Calendar object is constructed in certain ways a call to Calendar.setTimeZone does not correctly change the Calendars fields.   For example, the following unit test fails:    However, this unit test passes:"}
{"key":"LANG-831","title":"FastDateParser does not handle white-space properly","description":"The SimpleDateFormat Javadoc does not treat white-space specially, however FastDateParser treats a single white-space as being any number of white-space characters. This means that FDP will parse dates that fail when parsed by SDP."}
{"key":"LANG-662","title":"org.apache.commons.lang3.math.Fraction does not reduce (Integer.MIN_VALUE, 2^k)","description":"The greatestCommonDivisor method in class Fraction does not find the gcd of Integer.MIN_VALUE and 2^k, and this case can be triggered by taking Integer.MIN_VALUE as the numerator."}
{"key":"LANG-432","title":"Fix case-insensitive string handling","description":"{{String.to*Case()}} is locale-sensitive, this is usually not intended for case-insensitive comparisions."}
{"key":"LANG-300","title":"NumberUtils.createNumber throws NumberFormatException for one digit long","description":"NumberUtils.createNumber throws a NumberFormatException when parsing \"1l\", \"2l\" .     The condition isDigits(numeric.substring(1)), line 455 return false as numeric.substring(1) is an empty string for \"1l\""}
{"key":"LANG-832","title":"FastDateParser does not handle unterminated quotes correctly","description":"FDP does not handled unterminated quotes the same way as SimpleDateFormat    The format is parsed as:"}
{"key":"LANG-552","title":"StringUtils replaceEach - Bug or Missing Documentation ","description":"The following Test Case for replaceEach fails with a null pointer exception."}
{"key":"LANG-710","title":"StringIndexOutOfBoundsException when calling unescapeHtml4(\"\u0026#03\")","description":"When calling unescapeHtml4() on the String \"\u0026#03\" (or any String that contains these characters) an Exception is thrown:"}
{"key":"LANG-315","title":"StopWatch: suspend() acts as split(), if followed by stop()","description":"In my opinion, it is a bug that suspend() acts as split(), if followed by stop(); see below:     // Time 1 (ok)   // Time 1 (again, ok)     // Time 2 (ok)   // Time 2 (again, ok)    // Time 2 (should be, but is Time 3 \u003d\u003e NOT ok)  suspend/resume is like a pause, where time counter doesn\u0027t continue."}
{"key":"LANG-457","title":"NumberUtils createNumber thows a StringIndexOutOfBoundsException when only an \"l\" is passed in.","description":"Seems to be similar to LANG-300, except that if you don\u0027t place a digit in front of the \"l\" or \"L\" it throws a StringIndexOutOfBoundsException instead."}
{"key":"LANG-586","title":"Use of ThreadLocals in ToStringStyle and HashCodeBuilder trigger memory leaks in container environments","description":"If a webapp\u0027s use of LANG triggers the loading of this class, a reference chain will be created that will cause a memory leak on web application reload."}
{"key":"LANG-857","title":"StringIndexOutOfBoundsException in CharSequenceTranslator","description":"You\u0027ll get the exception as shown below."}
{"key":"LANG-719","title":"FastDateFormat formats year differently than SimpleDateFormat in Java 7","description":""}
