{"id":70,"bug_id":"13926","text":"JFace Text Editor Leaves a Black Rectangle on Content Assist text insertion. We found that after inserting a selected completion \nproposal, from the context information popup, that causes a black rectangle to \nappear on top of the display.               class ContextInformationPopup\n\t public void showContextInformation(final IContextInformation info, \nfinal int position) {\n\t\tControl control\u003d fViewer.getTextWidget();\n\t\tBusyIndicator.showWhile(control.getDisplay(), new Runnable() {\n\t\t\tpublic void run() {\n\t\t\t\tinternalShowContextInfo(info, position);\n\t\t\t\thideContextSelector();\n\t\t\t}\n\t\t});\n\t}","method_goldset":["org.eclipse.jface.text.contentassist.ContextInformationPopup:internalShowContextFrame(ContextFrame, boolean)"],"creation_date":"2002-4-16 13:41:00","resolution_date":"2002-8-12 05:27:29"}
{"id":71,"bug_id":"15277","text":"Recreate test suite allows you to add the suite to itself. If you have a test suite that is also a test case (done to allow cascading tests), and recreate the \ntest suite, you\u0027re allowed to add the suite to itself. This results in a recursive call to \n. suite(), which ends up causing a stack overflow when run.    suite() suite()","method_goldset":["org.eclipse.jdt.internal.junit.wizards.NewTestSuiteCreationWizardPage:handleFieldChanged(String)","org.eclipse.jdt.internal.junit.wizards.NewTestSuiteCreationWizardPage:setVisible(boolean)","org.eclipse.jdt.internal.junit.wizards.NewTestSuiteCreationWizardPage:testSuiteChanged()"],"creation_date":"2002-5-5 00:01:00","resolution_date":"2003-2-19 08:15:17"}
{"id":72,"bug_id":"16787","text":"[Wizards] Wizards are recreated when returning to New page. showPage()  showStartingPage() page.getControl()  page.getControl()  public void dispose() {\n\t   super.dispose();\n\t   this.setControl(null);\n\t}","method_goldset":["org.eclipse.ui.internal.dialogs.NewWizardNewPage:handleWizardSelection(SelectionChangedEvent)"],"creation_date":"2002-5-22 08:55:00","resolution_date":"2005-5-10 13:55:56"}
{"id":81,"bug_id":"31779","text":"When the UnifiedTree finds a new file from the file system, it assumes that if the file is not an existing file, then it is a folder. This is not always true, because for different reasons a file returned by java.io.File.list/listFiles may not actually exist (our CoreFileSystemLibrary#getStat() returns 0).  At the first moment, the file is found in the file system and assumed to be a folder, and a corresponding resource is created in the workspace. At the second refresh, the folder corresponding to that resource is not found in the file system, and then it is removed from the workspace. And so on.  getStat()","method_goldset":["org.eclipse.core.internal.localstore.UnifiedTree:addChildrenFromFileSystem(UnifiedTreeNode, String, Object[], int)","org.eclipse.core.internal.localstore.UnifiedTree:createChildNodeFromFileSystem(UnifiedTreeNode, String, String)"],"creation_date":"2003-2-13 09:55:00","resolution_date":"2003-2-14 12:59:59"}
