{"creation_date": "2010-11-15T11:34:14.000+0000", "fixed_classes": ["org.apache.derby.impl.tools.planexporter.AccessDatabase", "org.apache.derbyTesting.functionTests.tests.lang.XplainStatisticsTest"], "title": "plan export tool produc broken output queri contain oper", "description": "plan export tool fail produc form output follow queri select sysibm sysdummy1 ibmreqd gener xml fail open file firefox messag xml pars error form locat file tmp plan xml line number column oper html gener print follow error produc empti file error valu attribut scan qualifi associ element type contain charact", "fixed_files": ["org.apache.derby.impl.tools.planexporter.AccessDatabase", "org.apache.derbyTesting.functionTests.tests.lang.XplainStatisticsTest"], "resolution_date": "2011-02-01T05:24:13.000+0000", "original_text": "Plan exporter tool produces broken output if query contains less-than operator The plan exporter tool fails to produce well-formed output for the following query:\r\n\r\nij> select * from sysibm.sysdummy1 where ibmreqd < 'Z';\r\n\r\nThe generation of XML doesn't fail, but when I open the file in Firefox, I see this message:\r\n\r\nXML Parsing Error: not well-formed\r\nLocation: file:///tmp/plan.xml\r\nLine Number 9, Column 11:\r\n\r\nOperator: <\r\n----------^\r\n\r\nHTML generation prints the following error, and produces an empty file:\r\n\r\nERROR:  'The value of attribute \"scan_qualifiers\" associated with an element type \"null\" must not contain the '<' character.'", "key": "DERBY-4903"}
{"creation_date": "2010-11-06T09:14:51.000+0000", "fixed_classes": ["org.apache.derby.client.am.Cursor", "org.apache.derbyTesting.functionTests.tests.lang.Price", "org.apache.derbyTesting.system.oe.client.Submitter"], "title": "unsaf bigdecim big decim constructor", "description": "code suppos work java bigdecim big decim constructor java problemat constructor take singl constructor follow org apach derbi client cursor org apach derbytest derbi test functiontest function test test lang price org apach derbytest derbi test system client submitt compil java14compil classpath expect build fail java14compil classpath point proper java librari constructor paramet java compil pick constructor find happen compil code work java newer fine problem appear build java librari easili happen build custom ant properti propertysett properti setter end build java14compil classpath base auto detect java15compil classpath compil find variant constructor build java14compil classpath compil code java constructor code fail run time execut java jvm reproduc build derbi ant properti system propertysett properti setter find jdk verifi dprintcompilerproperti dprint compil properti java14compil classpath built jar file java java directori run org apach derbytest derbi test functiontest function test test lang udttest udt test java jvm you'll two error test cast org apach derbytest derbi test functiontest function test test lang udttest udt test java lang nosuchmethoderror method error java math bigdecim big decim init org apach derbytest derbi test functiontest function test test lang price makepric make price price java org apach derbytest derbi test functiontest function test test lang udttest udt test test cast udttest udt test java sun reflect nativemethodaccessorimpl method accessor impl invoke0 method sun reflect nativemethodaccessorimpl method accessor impl invok unknown sourc sun reflect delegatingmethodaccessorimpl deleg method accessor impl invok unknown sourc org apach derbytest derbi test junit basetestcas base test runbar run bare basetestcas base test java junit extens testdecor test decor basicrun basic run testdecor test decor java junit extens testsetup test setup protect testsetup test setup java junit extens testsetup test setup run testsetup test setup java org apach derbytest derbi test junit basetestsetup base test setup run basetestsetup base test setup java junit extens testdecor test decor basicrun basic run testdecor test decor java junit extens testsetup test setup protect testsetup test setup java junit extens testsetup test setup run testsetup test setup java org apach derbytest derbi test junit basetestsetup base test setup run basetestsetup base test setup java problem client cursor follow procedur udttest udt test run parametermappingtest paramet map test patch derbi enabl test", "fixed_files": ["org.apache.derby.client.am.Cursor", "org.apache.derbyTesting.functionTests.tests.lang.Price", "org.apache.derbyTesting.system.oe.client.Submitter"], "resolution_date": "2010-11-08T08:03:10.000+0000", "original_text": "Unsafe use of BigDecimal constructors We have some code that's supposed to work on Java 1.4, but that uses BigDecimal constructors that were not added until Java 5. The problematic constructors are the ones that take a single int or long.\r\n\r\nThe constructors are used in the following classes:\r\n\r\norg.apache.derby.client.am.Cursor\r\norg.apache.derbyTesting.functionTests.tests.lang.Price\r\norg.apache.derbyTesting.system.oe.client.Submitter\r\n\r\nAll of the classes are compiled against ${java14compile.classpath}, so one would expect the build to fail when java14compile.classpath pointed to proper Java 1.4 libraries. However, there is a constructor with a double parameter in Java 1.4, and the compiler picks that constructor if it cannot find the ones for int and long. If that happens, the compiled byte-code works on Java 1.4 and newer, and everything is fine.\r\n\r\nThe problem appears when the build does not use the Java 1.4 libraries. This can easily happen if you build without a customized ant.properties, and PropertySetter ends up building java14compile.classpath based on the auto-detected java15compile.classpath. In that case, the compiler finds the int and long variants of the constructor, even when building against java14compile.classpath. The compiled byte-code will therefore use those Java 5 constructors, and the code will fail at run-time if ever executed on a Java 1.4 JVM.\r\n\r\nTo reproduce, build Derby without ant.properties on a system where PropertySetter doesn't find JDK 1.4. Verify with -DprintCompilerProperties=true that java14compile.classpath is built up of jar files from a Java 5 or Java 6 directory. Then run org.apache.derbyTesting.functionTests.tests.lang.UDTTest using a Java 1.4 JVM. You'll see two errors of this kind:\r\n\r\n1) test_06_casts(org.apache.derbyTesting.functionTests.tests.lang.UDTTest)java.lang.NoSuchMethodError: java.math.BigDecimal.<init>(I)V\r\n\tat org.apache.derbyTesting.functionTests.tests.lang.Price.makePrice(Price.java:49)\r\n\tat org.apache.derbyTesting.functionTests.tests.lang.UDTTest.test_06_casts(UDTTest.java:501)\r\n\tat sun.reflect.NativeMethodAccessorImpl.invoke0(Native Method)\r\n\tat sun.reflect.NativeMethodAccessorImpl.invoke(Unknown Source)\r\n\tat sun.reflect.DelegatingMethodAccessorImpl.invoke(Unknown Source)\r\n\tat org.apache.derbyTesting.junit.BaseTestCase.runBare(BaseTestCase.java:109)\r\n\tat junit.extensions.TestDecorator.basicRun(TestDecorator.java:24)\r\n\tat junit.extensions.TestSetup$1.protect(TestSetup.java:21)\r\n\tat junit.extensions.TestSetup.run(TestSetup.java:25)\r\n\tat org.apache.derbyTesting.junit.BaseTestSetup.run(BaseTestSetup.java:57)\r\n\tat junit.extensions.TestDecorator.basicRun(TestDecorator.java:24)\r\n\tat junit.extensions.TestSetup$1.protect(TestSetup.java:21)\r\n\tat junit.extensions.TestSetup.run(TestSetup.java:25)\r\n\tat org.apache.derbyTesting.junit.BaseTestSetup.run(BaseTestSetup.java:57)\r\n\r\nThe problem in client.am.Cursor can be seen if you follow the same procedure as above, and instead of UDTTest run ParameterMappingTest with the patch for DERBY-4891 that enables testing of booleans.", "key": "DERBY-4892"}
{"creation_date": "2010-11-06T01:44:40.000+0000", "fixed_classes": ["org.apache.derby.client.am.PreparedStatement", "org.apache.derbyTesting.functionTests.tests.jdbcapi.ParameterMappingTest", "org.apache.derbyTesting.functionTests.tests.lang.BooleanValuesTest"], "title": "differ string convers embed client", "description": "follow code fragment behav differ client embed preparedstat prepar statement preparestat prepar statement valu cast setstr set string resultset result set executequeri execut queri system println getboolean embed print client rais thread main java sql sqldataexcept sql data attempt made data valu type varchar data valu type org apach derbi client sqlexceptionfactory40 sql factory40 getsqlexcept sql sqlexceptionfactory40 sql factory40 java org apach derbi client sqlexcept sql getsqlexcept sql sqlexcept sql java org apach derbi client preparedstat prepar statement setstr set string preparedstat prepar statement java setbyt set main setbyt set java caus org apach derbi client sqlexcept sql attempt made data valu type varchar data valu type org apach derbi client preparedstat prepar statement possibletyp possibl type throw22005except preparedstat prepar statement java org apach derbi client preparedstat prepar statement setstr set string preparedstat prepar statement java", "fixed_files": ["org.apache.derby.client.am.PreparedStatement", "org.apache.derbyTesting.functionTests.tests.jdbcapi.ParameterMappingTest", "org.apache.derbyTesting.functionTests.tests.lang.BooleanValuesTest"], "resolution_date": "2010-11-08T23:04:15.000+0000", "original_text": "Different string to boolean conversion on embedded and client The following code fragment behaves differently on client and embedded:\r\n\r\n        PreparedStatement ps = c.prepareStatement(\"values cast(? as boolean)\");\r\n        ps.setString(1, \"TRUE\");\r\n        ResultSet rs = ps.executeQuery();\r\n        rs.next();\r\n        System.out.println(rs.getBoolean(1));\r\n\r\nEmbedded prints \"true\". Client raises an exception:\r\n\r\nException in thread \"main\" java.sql.SQLDataException: An attempt was made to get a data value of type 'VARCHAR' from a data value of type 'BOOLEAN'.\r\n\tat org.apache.derby.client.am.SQLExceptionFactory40.getSQLException(SQLExceptionFactory40.java:72)\r\n\tat org.apache.derby.client.am.SqlException.getSQLException(SqlException.java:358)\r\n\tat org.apache.derby.client.am.PreparedStatement.setString(PreparedStatement.java:884)\r\n\tat SetByte.main(SetByte.java:6)\r\nCaused by: org.apache.derby.client.am.SqlException: An attempt was made to get a data value of type 'VARCHAR' from a data value of type 'BOOLEAN'.\r\n\tat org.apache.derby.client.am.PreparedStatement$PossibleTypes.throw22005Exception(PreparedStatement.java:3069)\r\n\tat org.apache.derby.client.am.PreparedStatement.setString(PreparedStatement.java:874)\r\n\t... 1 more", "key": "DERBY-4890"}
{"creation_date": "2010-11-06T01:06:56.000+0000", "fixed_classes": ["org.apache.derby.impl.drda.DRDAConnThread", "org.apache.derbyTesting.functionTests.tests.jdbcapi.ParameterMappingTest"], "title": "differ convers embed client", "description": "follow code print embed driver client driver preparedstat prepar statement preparestat prepar statement valu cast setbyt set resultset result set executequeri execut queri system println getboolean setbyt set replac setint set print", "fixed_files": ["org.apache.derby.impl.drda.DRDAConnThread", "org.apache.derbyTesting.functionTests.tests.jdbcapi.ParameterMappingTest"], "resolution_date": "2010-11-08T18:56:38.000+0000", "original_text": "Different byte to boolean conversion on embedded and client The following code prints \"true\" with the embedded driver and \"false\" with the client driver:\r\n\r\n        PreparedStatement ps = c.prepareStatement(\"values cast(? as boolean)\");\r\n        ps.setByte(1, (byte) 32);\r\n        ResultSet rs = ps.executeQuery();\r\n        rs.next();\r\n        System.out.println(rs.getBoolean(1));\r\n\r\nIf setByte() is replaced with setInt(), they both print \"true\".", "key": "DERBY-4889"}
{"creation_date": "2010-11-05T19:17:43.000+0000", "fixed_classes": ["org.apache.derby.client.am.DatabaseMetaData", "org.apache.derbyTesting.functionTests.tests.junitTests.compatibility.JDBCDriverTest"], "title": "classcastexcept cast call meta data function client server", "description": "notic describ didn't work tri connect server client driver version describ java error java lang classcastexcept cast java lang integ cast java lang java lang classcastexcept cast java lang integ cast java lang org apach derbi client databasemetadata databas meta data getmetadatainfoboolean meta data info databasemetadata databas meta data java org apach derbi client databasemetadata databas meta data storeslowercaseidentifi store lower identifi databasemetadata databas meta data java org apach derbi impl tool caidentifi identifi java org apach derbi impl tool desctablestat desc tabl statement java org apach derbi impl tool ijstat statement java org apach derbi impl tool utilmain util main runscriptgut run script gut utilmain util main java org apach derbi impl tool utilmain util main utilmain util main java org apach derbi impl tool main main java org apach derbi impl tool main maincor main core main java org apach derbi impl tool main main main java org apach derbi tool main java org apach derbi iapi tool run main run java", "fixed_files": ["org.apache.derby.client.am.DatabaseMetaData", "org.apache.derbyTesting.functionTests.tests.junitTests.compatibility.JDBCDriverTest"], "resolution_date": "2010-11-06T08:32:12.000+0000", "original_text": "ClassCastException when calling boolean meta-data functions with 10.7 client against 10.6 server I noticed that DESCRIBE didn't work when I tried to connect to a 10.6 server with ij/client driver at version 10.7.\r\n\r\nij> describe t;\r\nJAVA ERROR: java.lang.ClassCastException: java.lang.Integer cannot be cast to java.lang.Boolean\r\njava.lang.ClassCastException: java.lang.Integer cannot be cast to java.lang.Boolean\r\n\tat org.apache.derby.client.am.DatabaseMetaData.getMetaDataInfoBoolean(DatabaseMetaData.java:2401)\r\n\tat org.apache.derby.client.am.DatabaseMetaData.storesLowerCaseIdentifiers(DatabaseMetaData.java:191)\r\n\tat org.apache.derby.impl.tools.ij.ij.caIdentifier(ij.java:3040)\r\n\tat org.apache.derby.impl.tools.ij.ij.DescTableStatement(ij.java:1624)\r\n\tat org.apache.derby.impl.tools.ij.ij.ijStatement(ij.java:1121)\r\n\tat org.apache.derby.impl.tools.ij.utilMain.runScriptGuts(utilMain.java:341)\r\n\tat org.apache.derby.impl.tools.ij.utilMain.go(utilMain.java:261)\r\n\tat org.apache.derby.impl.tools.ij.Main.go(Main.java:229)\r\n\tat org.apache.derby.impl.tools.ij.Main.mainCore(Main.java:184)\r\n\tat org.apache.derby.impl.tools.ij.Main.main(Main.java:75)\r\n\tat org.apache.derby.tools.ij.main(ij.java:59)\r\n\tat org.apache.derby.iapi.tools.run.main(run.java:53)", "key": "DERBY-4888"}
{"creation_date": "2010-11-04T11:15:07.000+0000", "fixed_classes": ["org.apache.derbyTesting.functionTests.tests.jdbcapi.BlobClob4BlobTest", "org.apache.derbyTesting.functionTests.tests.jdbcapi.DatabaseMetaDataTest", "org.apache.derbyTesting.functionTests.tests.lang.DeadlockModeTest", "org.apache.derbyTesting.junit.Decorator", "org.apache.derbyTesting.junit.DriverManagerConnector", "org.apache.derbyTesting.junit.JDBCDataSource"], "title": "databasepropertytestsetup databas properti test setup chang properti encrypt databas", "description": "databasepropertytestsetup databas properti test setup reboot databas order set properti test encrypt databas databas reboot boot password known setup set method decor creat decor encrypteddatabas encrypt databas problem result blobclob4blob blob clob4 blob test reduc lock timeout encrypt variant test four test wait lock timeout test take four minut longer lock timeout reduc", "fixed_files": ["org.apache.derbyTesting.functionTests.tests.jdbcapi.BlobClob4BlobTest", "org.apache.derbyTesting.functionTests.tests.jdbcapi.DatabaseMetaDataTest", "org.apache.derbyTesting.functionTests.tests.lang.DeadlockModeTest", "org.apache.derbyTesting.junit.Decorator", "org.apache.derbyTesting.junit.DriverManagerConnector", "org.apache.derbyTesting.junit.JDBCDataSource"], "resolution_date": "2010-11-09T10:18:30.000+0000", "original_text": "DatabasePropertyTestSetup cannot change static properties in encrypted databases DatabasePropertyTestSetup needs to reboot the database in order to set static properties. In tests with encrypted databases, the database cannot be rebooted because the boot password is only known inside the setUp() method of the decorator created by Decorator.encryptedDatabase().\r\n\r\nOne of the problems that results from this, is that BlobClob4Blob test cannot reduce the lock timeout for the encrypted variant of the test. Since there are four test cases that wait for a lock timeout, the test takes almost four minutes longer than it would have if the lock timeout had been reduced.", "key": "DERBY-4884"}
{"creation_date": "2010-10-28T23:45:13.000+0000", "fixed_classes": ["org.apache.derby.impl.store.raw.data.BaseDataFileFactory"], "title": "nullpointerexcept pointer testboundari test boundari ibm jvm", "description": "line skip testboundari test boundari fixtur internationalconnecttest intern connect test comment follow stack run test ibm testboundari test boundari org apach derbytest derbi test functiontest function test test jdbcapi internationalconnecttest intern connect test java sql sqlexcept sql derbi sql error sqlcode sqlstate sqlerrmc java lang nullpointerexceptionxj001 pointer org apach derbi client sqlexceptionfactory40 sql factory40 getsqlexcept sql sqlexceptionfactory40 sql factory40 java org apach derbi client sqlexcept sql getsqlexcept sql sqlexcept sql java org apach derbi jdbc clientdriv client driver connect clientdriv client driver java java sql drivermanag driver manag getconnect connect drivermanag driver manag java java sql drivermanag driver manag getconnect connect drivermanag driver manag java org apach derbytest derbi test functiontest function test test jdbcapi internationalconnecttest intern connect test testboundari test boundari internationalconnecttest intern connect test java sun reflect nativemethodaccessorimpl method accessor impl invoke0 method sun reflect nativemethodaccessorimpl method accessor impl invok nativemethodaccessorimpl method accessor impl java sun reflect delegatingmethodaccessorimpl deleg method accessor impl invok delegatingmethodaccessorimpl deleg method accessor impl java org apach derbytest derbi test junit basetestcas base test runbar run bare basetestcas base test java junit extens testdecor test decor basicrun basic run testdecor test decor java junit extens testsetup test setup protect testsetup test setup java junit extens testsetup test setup run testsetup test setup java org apach derbytest derbi test junit basetestsetup base test setup run basetestsetup base test setup java junit extens testdecor test decor basicrun basic run testdecor test decor java junit extens testsetup test setup protect testsetup test setup java junit extens testsetup test setup run testsetup test setup java junit extens testdecor test decor basicrun basic run testdecor test decor java junit extens testsetup test setup protect testsetup test setup java junit extens testsetup test setup run testsetup test setup java org apach derbytest derbi test junit basetestsetup base test setup run basetestsetup base test setup java caus org apach derbi client sqlexcept sql derbi sql error sqlcode sqlstate sqlerrmc java lang nullpointerexceptionxj001 pointer org apach derbi client connect completesqlca complet sqlca connect java org apach derbi client net netconnectionrepli net connect repli parserdbaccessfail pars rdb access fail netconnectionrepli net connect repli java org apach derbi client net netconnectionrepli net connect repli parseaccessrdberror pars access rdb error netconnectionrepli net connect repli java org apach derbi client net netconnectionrepli net connect repli parseaccrdbrepli pars accrd brepli netconnectionrepli net connect repli java org apach derbi client net netconnectionrepli net connect repli readaccessdatabas read access databas netconnectionrepli net connect repli java org apach derbi client net netconnect net connect readsecuritycheckandaccessrdb read secur check access rdb netconnect net connect java org apach derbi client net netconnect net connect flowsecuritycheckandaccessrdb flow secur check access rdb netconnect net connect java org apach derbi client net netconnect net connect flowusridonlconnect flow usridon lconnect netconnect net connect java org apach derbi client net netconnect net connect flowconnect flow connect netconnect net connect java org apach derbi client net netconnect net connect init netconnect net connect java org apach derbi client net netconnection40 net connection40 init netconnection40 net connection40 java org apach derbi client net clientjdbcobjectfactoryimpl40 client jdbc object factori impl40 newnetconnect net connect clientjdbcobjectfactoryimpl40 client jdbc object factori impl40 java org apach derbi jdbc clientdriv client driver connect clientdriv client driver java latest check derbi revis i'll attach derbi log", "fixed_files": ["org.apache.derby.impl.store.raw.data.BaseDataFileFactory"], "resolution_date": "2012-10-31T10:01:49.000+0000", "original_text": "NullPointerException in testBoundaries with ibm jvm 1.6  With the line skipping the testBoundaries fixture of the InternationalConnectTest commented out, I get the following stack when I run the test with ibm 1.6:\r\n\r\n1) testBoundaries(org.apache.derbyTesting.functionTests.tests.jdbcapi.InternationalConnectTest)java.sql.SQLException: DERBY SQL error: SQLCODE: -1, SQLSTATE: XJ001, SQLERRMC: java.lang.NullPointerExceptionXJ001.U\r\n\tat org.apache.derby.client.am.SQLExceptionFactory40.getSQLException(SQLExceptionFactory40.java:96)\r\n\tat org.apache.derby.client.am.SqlException.getSQLException(SqlException.java:358)\r\n\tat org.apache.derby.jdbc.ClientDriver.connect(ClientDriver.java:149)\r\n\tat java.sql.DriverManager.getConnection(DriverManager.java:322)\r\n\tat java.sql.DriverManager.getConnection(DriverManager.java:273)\r\n\tat org.apache.derbyTesting.functionTests.tests.jdbcapi.InternationalConnectTest.testBoundaries(InternationalConnectTest.java:111)\r\n\tat sun.reflect.NativeMethodAccessorImpl.invoke0(Native Method)\r\n\tat sun.reflect.NativeMethodAccessorImpl.invoke(NativeMethodAccessorImpl.java:48)\r\n\tat sun.reflect.DelegatingMethodAccessorImpl.invoke(DelegatingMethodAccessorImpl.java:25)\r\n\tat org.apache.derbyTesting.junit.BaseTestCase.runBare(BaseTestCase.java:109)\r\n\tat junit.extensions.TestDecorator.basicRun(TestDecorator.java:22)\r\n\tat junit.extensions.TestSetup$1.protect(TestSetup.java:19)\r\n\tat junit.extensions.TestSetup.run(TestSetup.java:23)\r\n\tat org.apache.derbyTesting.junit.BaseTestSetup.run(BaseTestSetup.java:57)\r\n\tat junit.extensions.TestDecorator.basicRun(TestDecorator.java:22)\r\n\tat junit.extensions.TestSetup$1.protect(TestSetup.java:19)\r\n\tat junit.extensions.TestSetup.run(TestSetup.java:23)\r\n\tat junit.extensions.TestDecorator.basicRun(TestDecorator.java:22)\r\n\tat junit.extensions.TestSetup$1.protect(TestSetup.java:19)\r\n\tat junit.extensions.TestSetup.run(TestSetup.java:23)\r\n\tat org.apache.derbyTesting.junit.BaseTestSetup.run(BaseTestSetup.java:57)\r\nCaused by: org.apache.derby.client.am.SqlException: DERBY SQL error: SQLCODE: -1, SQLSTATE: XJ001, SQLERRMC: java.lang.NullPointerExceptionXJ001.U\r\n\tat org.apache.derby.client.am.Connection.completeSqlca(Connection.java:2117)\r\n\tat org.apache.derby.client.net.NetConnectionReply.parseRdbAccessFailed(NetConnectionReply.java:541)\r\n\tat org.apache.derby.client.net.NetConnectionReply.parseAccessRdbError(NetConnectionReply.java:434)\r\n\tat org.apache.derby.client.net.NetConnectionReply.parseACCRDBreply(NetConnectionReply.java:297)\r\n\tat org.apache.derby.client.net.NetConnectionReply.readAccessDatabase(NetConnectionReply.java:121)\r\n\tat org.apache.derby.client.net.NetConnection.readSecurityCheckAndAccessRdb(NetConnection.java:846)\r\n\tat org.apache.derby.client.net.NetConnection.flowSecurityCheckAndAccessRdb(NetConnection.java:769)\r\n\tat org.apache.derby.client.net.NetConnection.flowUSRIDONLconnect(NetConnection.java:601)\r\n\tat org.apache.derby.client.net.NetConnection.flowConnect(NetConnection.java:408)\r\n\tat org.apache.derby.client.net.NetConnection.<init>(NetConnection.java:218)\r\n\tat org.apache.derby.client.net.NetConnection40.<init>(NetConnection40.java:77)\r\n\tat org.apache.derby.client.net.ClientJDBCObjectFactoryImpl40.newNetConnection(ClientJDBCObjectFactoryImpl40.java:269)\r\n\tat org.apache.derby.jdbc.ClientDriver.connect(ClientDriver.java:140)\r\n\t... 35 more\r\n\r\nThis is after the latest check in for DERBY-4836 (revision 1028035).\r\n\r\nI'll attach derby.log.", "key": "DERBY-4873"}
{"creation_date": "2010-10-20T20:40:33.000+0000", "fixed_classes": ["org.apache.derbyTesting.functionTests.harness.RunList", "org.apache.derbyTesting.functionTests.harness.RunSuite", "org.apache.derbyTesting.functionTests.harness.RunTest"], "title": "runsuit run suit derbylang subsuit fail java lang noclassdeffounderror def found error prepend", "description": "djvmflag work fine run runtest run test runsuit run suit derbyal derbylang derbtool subsuit fail follow prepend inappropri option launch process java dverbos djvmflag xgcpolici optthruput xjit count org apach derbytest derbi test functiontest function test har runsuit run suit derbylang second command follow derbylang sum thread main java lang noclassdeffounderror def found error xgcpolici optthruput xjit count caus java lang classnotfoundexcept found xgcpolici optthruput xjit count find main xgcpolici optthruput xjit count program exit test fail end checkconstraint check constraint jdk1 derbylang derbylang", "fixed_files": ["org.apache.derbyTesting.functionTests.harness.RunList", "org.apache.derbyTesting.functionTests.harness.RunSuite", "org.apache.derbyTesting.functionTests.harness.RunTest"], "resolution_date": "2010-10-21T17:30:04.000+0000", "original_text": "RunSuite on derbylang and other subsuites fails with java.lang.NoClassDefFoundError because of prepended ^ -Djvmflags works fine when run RunTest or with RunSuite and derbyall,  but with derbylang, derbtools and other subsuites it fails as  follows, because it prepends ^ inappropriately to the options when launching the process.\r\n \r\n\r\n\r\njava -Dverbose=true -Djvmflags=\"-Xgcpolicy:optthruput^-Xjit:count=0\"  \r\norg.apache.derbyTesting.functionTests.harness.RunSuite derbylang\r\n\r\n\r\nWith the second command I see the following in derbylang.sum\r\n > Exception in thread \"main\" java.lang.NoClassDefFoundError:\r\n^-Xgcpolicy:optthruput^-Xjit:count=0\r\n > Caused by: java.lang.ClassNotFoundException:\r\n^-Xgcpolicy:optthruput^-Xjit:count=0\r\n > Could not find the main class: ^-Xgcpolicy:optthruput^-Xjit:count=0.  \r\nProgram will exit.\r\nTest Failed.\r\n*** End:   checkConstraint jdk1.6.0 derbylang:derbylang 2010-10-19\r\n16:58:24 ***\r\n", "key": "DERBY-4860"}
{"creation_date": "2010-10-06T16:05:13.000+0000", "fixed_classes": ["org.apache.derby.impl.sql.catalog.DD_Version", "org.apache.derbyTesting.functionTests.tests.upgradeTests.BasicSetup"], "title": "trigger plan recompil upgrad caus java lang nosuchmethoderror method error", "description": "trigger plan recompil upgrad caus follow time trigger fire upgrad atabas wombat drdaid fail statement insert tidlggl blt number creat date updat date propag date glossari statu time stamp min max size valu select max blt number tidlrblt current date current date current date current timestamp select min max size tidlrblt blt number select max blt number tidlrblt java lang nosuchmethoderror method error org apach derbi iapi sql execut resultsetfactori result set factori getprojectrestrictresultset project restrict result set lorg apach derbi iapi sql execut noputresultset put result set lorg apach derbi iapi servic loader generatedmethod gener method lorg apach derbi iapi servic loader generatedmethod gener method ilorg lorg apach derbi iapi servic loader generatedmethod gener method izzdd lorg apach derbi iapi sql execut noputresultset put result set org apach derbi exe unknown sourc org apach derbi exe execut unknown sourc org apach derbi impl sql genericactivationhold gener activ holder execut unknown sourc org apach derbi impl sql genericpreparedstat gener prepar statement executestmt execut stmt unknown sourc org apach derbi impl sql genericpreparedstat gener prepar statement executesubstat execut sub statement unknown sourc org apach derbi impl sql execut generictriggerexecutor gener trigger executor executesp execut unknown sourc org apach derbi impl sql execut statementtriggerexecutor statement trigger executor firetrigg fire trigger unknown sourc org apach derbi impl sql execut triggereventactiv trigger event activ notifyev notifi event unknown sourc org apach derbi impl sql execut insertresultset insert result set normalinsertcor normal insert core unknown sourc org apach derbi impl sql execut insertresultset insert result set open unknown sourc org apach derbi impl sql genericpreparedstat gener prepar statement executestmt execut stmt unknown sourc org apach derbi impl sql genericpreparedstat gener prepar statement execut unknown sourc org apach derbi impl jdbc embedstat emb statement executestat execut statement unknown sourc org apach derbi impl jdbc embedstat emb statement execut unknown sourc org apach derbi impl jdbc embedstat emb statement execut unknown sourc org apach derbi impl tool executeimmedi execut immedi unknown sourc org apach derbi impl tool utilmain util main docatch unknown sourc org apach derbi impl tool utilmain util main runscriptgut run script gut unknown sourc org apach derbi impl tool utilmain util main unknown sourc org apach derbi impl tool main unknown sourc org apach derbi impl tool main maincor main core unknown sourc org apach derbi impl tool main main unknown sourc org apach derbi tool main unknown sourc cleanup action complet reproduc run attach script work sql releas connect insert tabl trigger connect jdbc derbi wombat upgrad insert tidlrblt blt blt size min max size valu mamatha testing2 error java org apach derbi iapi sql execut resultsetfactori result set factori getprojectrestrictresultset project restrict result set lorg apach derbi iapi sql execut noputresultset put result set org apach derbi iapi servic loader generatedmethod gener method lorg apach derbi iapi ser vice loader generatedmethod gener method ilorg lorg apach derbi iapi servic loader generatedm gener thod izzdd lorg apach derbi iapi sql execut noputresultset put result set java lang nosuchm ethoderror ethod error think relat derbi chang handleminorrevisionchang handl minor revis chang code fromvers version majorversionnumb major version number datadictionari data dictionari version derbi bootingdictionari boot dictionari updatemetadatasps updat metadata bootingdictionari boot dictionari clearspsplan clear plan clearspsplan clear plan claus execut uncondit work issu connect drop recreat trigger workaround sql", "fixed_files": ["org.apache.derby.impl.sql.catalog.DD_Version", "org.apache.derbyTesting.functionTests.tests.upgradeTests.BasicSetup"], "resolution_date": "2010-10-15T18:13:00.000+0000", "original_text": "Trigger plan does not recompile with upgrade from 10.5.3.0 to 10.6.1.0 causing  java.lang.NoSuchMethodError Trigger plan does not recompile on upgrade from 10.5.3.0 to 10.6.1.0  causing the following exception  the first time the trigger is fired after upgrade.\r\n\r\nATABASE = wombat), (DRDAID = null), Failed Statement is: INSERT INTO tidlggls(blt_number,create_date,update_date,propagation_date,glossary_status,\r\n     time_stamp,min_max_size )\r\n VALUES ( (select max(blt_number) from tidlrblt), CURRENT_DATE,\r\nCURRENT_DATE, CURRENT_DATE, '00' , CURRENT_TIMESTAMP, (select min_max_size from tidlrblt where blt_number = (select max(blt_number) from tidlrblt)))\r\n\r\njava.lang.NoSuchMethodError: org/apache/derby/iapi/sql/execute/ResultSetFactory.getProjectRestrictResultSet(Lorg/apache/derby/iapi/sql/execute/NoPutResultSet;Lorg/apache/derby/iapi/services/loader/GeneratedMethod;Lorg/apache/derby/iapi/services/loader/GeneratedMethod;ILorg/apache/derby/iapi/services/loader/GeneratedMethod;IZZDD)Lorg/apache/derby/iapi/sql/execute/NoPutResultSet;\r\n\r\n\tat org.apache.derby.exe.acf81e0010x012bx823cxd0d3x00000026c4a00.g0(Unknown Source)\r\n\r\n\tat org.apache.derby.exe.acf81e0010x012bx823cxd0d3x00000026c4a00.execute(Unknown Source)\r\n\r\n\tat org.apache.derby.impl.sql.GenericActivationHolder.execute(Unknown Source)\r\n\r\n\tat org.apache.derby.impl.sql.GenericPreparedStatement.executeStmt(Unknown Source)\r\n\r\n\tat org.apache.derby.impl.sql.GenericPreparedStatement.executeSubStatement(Unknown Source)\r\n\r\n\tat org.apache.derby.impl.sql.execute.GenericTriggerExecutor.executeSPS(Unknown Source)\r\n\r\n\tat org.apache.derby.impl.sql.execute.StatementTriggerExecutor.fireTrigger(Unknown Source)\r\n\r\n\tat org.apache.derby.impl.sql.execute.TriggerEventActivator.notifyEvent(Unknown Source)\r\n\r\n\tat org.apache.derby.impl.sql.execute.InsertResultSet.normalInsertCore(Unknown Source)\r\n\r\n\tat org.apache.derby.impl.sql.execute.InsertResultSet.open(Unknown Source)\r\n\r\n\tat org.apache.derby.impl.sql.GenericPreparedStatement.executeStmt(Unknown Source)\r\n\r\n\tat org.apache.derby.impl.sql.GenericPreparedStatement.execute(Unknown Source)\r\n\r\n\tat org.apache.derby.impl.jdbc.EmbedStatement.executeStatement(Unknown Source)\r\n\r\n\tat org.apache.derby.impl.jdbc.EmbedStatement.execute(Unknown Source)\r\n\r\n\tat org.apache.derby.impl.jdbc.EmbedStatement.execute(Unknown Source)\r\n\r\n\tat org.apache.derby.impl.tools.ij.ij.executeImmediate(Unknown Source)\r\n\r\n\tat org.apache.derby.impl.tools.ij.utilMain.doCatch(Unknown Source)\r\n\r\n\tat org.apache.derby.impl.tools.ij.utilMain.runScriptGuts(Unknown Source)\r\n\r\n\tat org.apache.derby.impl.tools.ij.utilMain.go(Unknown Source)\r\n\r\n\tat org.apache.derby.impl.tools.ij.Main.go(Unknown Source)\r\n\r\n\tat org.apache.derby.impl.tools.ij.Main.mainCore(Unknown Source)\r\n\r\n\tat org.apache.derby.impl.tools.ij.Main.main(Unknown Source)\r\n\r\n\tat org.apache.derby.tools.ij.main(Unknown Source)\r\n\r\nCleanup action completed\r\n\r\nTo reproduce, run the attached script 10_5_3_work.sql with the 10.5.3.0  release and then connect with 10.6.1.0 and insert into the table with the trigger:\r\n\r\nconnect 'jdbc:derby:wombat;upgrade=true';\r\n \r\nINSERT INTO tidlrblt(BLT,BLT_SIZE,MIN_MAX_SIZE) VALUES('Mamatha Testing2', 15, 20);\r\nERROR XJ001: Java exception: 'org/apache/derby/iapi/sql/execute/ResultSetFactory\r\n.getProjectRestrictResultSet(Lorg/apache/derby/iapi/sql/execute/NoPutResultSet;L\r\norg/apache/derby/iapi/services/loader/GeneratedMethod;Lorg/apache/derby/iapi/ser\r\nvices/loader/GeneratedMethod;ILorg/apache/derby/iapi/services/loader/GeneratedMe\r\nthod;IZZDD)Lorg/apache/derby/iapi/sql/execute/NoPutResultSet;: java.lang.NoSuchM\r\nethodError'.\r\n\r\n\r\nI think this may be related to the DERBY-1107 change in handleMinorRevisionChange which has the code:\r\nif (fromVersion.majorVersionNumber >= DataDictionary.DD_VERSION_DERBY_10_5)\r\n\t\t\t\tbootingDictionary.updateMetadataSPSes(tc);\r\n\t\t\telse\r\n\t\t\t\tbootingDictionary.clearSPSPlans();\r\n\r\nLikely, clearSPSPlans() should not be in the else clause but rather executed unconditionally.\r\n\r\nTo work around the issue, after connecting with 10.6.1, drop and recreate the trigger as in workaround.sql\r\n\r\n\r\n\r\n\r\n", "key": "DERBY-4835"}
{"creation_date": "2010-10-01T08:21:09.000+0000", "fixed_classes": ["org.apache.derby.impl.load.ColumnInfo"], "title": "fail column name contain quot", "description": "target tabl oper contain column quot name fail syntax error", "fixed_files": ["org.apache.derby.impl.load.ColumnInfo"], "resolution_date": "2010-10-04T11:14:27.000+0000", "original_text": "Import fails if column names contain double quotes If the target table for an import operation contains columns with double quotes in their names, the import will fail with a syntax error.", "key": "DERBY-4828"}
{"creation_date": "2010-09-30T09:51:16.000+0000", "fixed_classes": ["org.apache.derbyTesting.functionTests.tests.jdbcapi.LargeDataLocksTest"], "title": "failur largedatalockstest larg data lock test testgetcharacterstream test charact stream wrong number lock", "description": "failur run suit releas candid testgetcharacterstream test charact stream org apach derbytest derbi test functiontest function test test jdbcapi largedatalockstest larg data lock test junit framework assertionfailederror fail error expect org apach derbytest derbi test functiontest function test test jdbcapi largedatalockstest larg data lock test testgetcharacterstream test charact stream largedatalockstest larg data lock test java sun reflect nativemethodaccessorimpl method accessor impl invoke0 method sun reflect nativemethodaccessorimpl method accessor impl invok nativemethodaccessorimpl method accessor impl java sun reflect delegatingmethodaccessorimpl deleg method accessor impl invok delegatingmethodaccessorimpl deleg method accessor impl java org apach derbytest derbi test junit basetestcas base test runbar run bare basetestcas base test java junit extens testdecor test decor basicrun basic run testdecor test decor java junit extens testsetup test setup protect testsetup test setup java junit extens testsetup test setup run testsetup test setup java org apach derbytest derbi test junit basetestsetup base test setup run basetestsetup base test setup java expect lock tabl zero lock find three test succeed later ran time suit failur look similar derbi pure environ derbi happen mix environ derbi consist reproduc failur appear intermitt", "fixed_files": ["org.apache.derbyTesting.functionTests.tests.jdbcapi.LargeDataLocksTest"], "resolution_date": "2010-10-10T18:25:35.000+0000", "original_text": "Assert failure in LargeDataLocksTest.testGetCharacterStream() because of wrong number of locks I saw this failure when running suites.All on the 10.6.2.1 release candidate:\r\n\r\n1) testGetCharacterStream(org.apache.derbyTesting.functionTests.tests.jdbcapi.LargeDataLocksTest)junit.framework.AssertionFailedError: expected:<0> but was:<3>\r\n\tat org.apache.derbyTesting.functionTests.tests.jdbcapi.LargeDataLocksTest.testGetCharacterStream(LargeDataLocksTest.java:72)\r\n\tat sun.reflect.NativeMethodAccessorImpl.invoke0(Native Method)\r\n\tat sun.reflect.NativeMethodAccessorImpl.invoke(NativeMethodAccessorImpl.java:39)\r\n\tat sun.reflect.DelegatingMethodAccessorImpl.invoke(DelegatingMethodAccessorImpl.java:25)\r\n\tat org.apache.derbyTesting.junit.BaseTestCase.runBare(BaseTestCase.java:109)\r\n\tat junit.extensions.TestDecorator.basicRun(TestDecorator.java:24)\r\n\tat junit.extensions.TestSetup$1.protect(TestSetup.java:23)\r\n\tat junit.extensions.TestSetup.run(TestSetup.java:27)\r\n\tat org.apache.derbyTesting.junit.BaseTestSetup.run(BaseTestSetup.java:57)\r\n\r\nThe assertion expects the lock table to have zero locks, but it finds three.\r\n\r\nThe test succeeded when I later ran it 100 times outside of suites.All.\r\n\r\nThe failure looks similar to DERBY-4301, but I saw this in a pure 10.6 environment, whereas DERBY-4301 happened in a mixed 10.3/10.5 environment. Also, DERBY-4301 is consistently reproducible, whereas this failure appears to be intermittent.", "key": "DERBY-4825"}
{"creation_date": "2010-09-23T17:04:14.000+0000", "fixed_classes": ["org.apache.derby.impl.services.monitor.BaseMonitor"], "title": "overrid mechan modul properti work backward", "description": "possibl overrid properti org apach derbi modul properti put version classpath basemonitor base monitor getdefaultmoduleproperti modul properti appar intend valu modul properti file mention properti string key string newkey key nextel element modulelist modul list contain key resolv local messag finish initi report ignor duplic properti key modulespropertiesurl modul properti url tostr string modulelist modul list setproperti set properti key otherlist list getproperti properti key modulelist modul list contain key look key modulelist modul list look properti valu code containskey contain key beacus modul properti classpath take preced earlier classpath exampl two differ version derbi jar classpath engin jar modul properti jar", "fixed_files": ["org.apache.derby.impl.services.monitor.BaseMonitor"], "resolution_date": "2010-10-27T07:41:43.000+0000", "original_text": "Override mechanism for modules.properties works backwards It is possible to override the properties in org/apache/derby/modules.properties by putting your own version of it somewhere on the classpath. BaseMonitor.getDefaultModuleProperties() apparently intends to use values from the first modules.properties file that mentions a property:\r\n\r\n                            String key = (String) newKeys.nextElement();\r\n                            if( moduleList.contains( key))\r\n                                // RESOLVE how do we localize messages before we have finished initialization?\r\n                                report( \"Ignored duplicate property \" + key + \" in \" + modulesPropertiesURL.toString());\r\n                            else\r\n                                moduleList.setProperty( key, otherList.getProperty( key));\r\n\r\nHowever, moduleList.contains(key) doesn't look for a key in moduleList, it looks for a property value. This code should have used containsKey() instead.\r\n\r\nBeacuse of this, the last modules.properties on the classpath will take precedence over the ones earlier on the classpath. So if you for example have two different versions of derby.jar in the classpath, the engine will use the classes from the first jar and modules.properties from the last jar.", "key": "DERBY-4815"}
{"creation_date": "2010-09-22T13:09:20.000+0000", "fixed_classes": ["org.apache.derbyTesting.functionTests.tests.lang.DateTimeTest"], "title": "settimestamp set timestamp method don't agre trail zero", "description": "statement valu cast varchar preparedstat prepar statement settimestamp set timestamp timestamp preparedstat prepar statement settimestamp set timestamp timestamp calendar don't agre trail zero nanosecond compon method take calendar argument remov trail zero method take calendar object append zero nanosecond compon nine digit method special nanosecond zero agre singl zero decim point format preparedstat prepar statement settimestamp set timestamp timestamp match java sql timestamp tostr string fact timestamp tostr string intern produc string represent think reason format method", "fixed_files": ["org.apache.derbyTesting.functionTests.tests.lang.DateTimeTest"], "resolution_date": "2010-09-24T11:25:09.000+0000", "original_text": "setTimestamp() methods don't agree on trailing zeros With the statement\r\n\r\n    VALUES CAST(? AS VARCHAR(29))\r\n\r\nPreparedStatement.setTimestamp(int,Timestamp) and PreparedStatement.setTimestamp(int,Timestamp,Calendar) don't agree on what to do with trailing zeros in the nanosecond component. The method that doesn't take a Calendar argument, removes trailing zeros. The method that takes a Calendar object appends zeros so that the nanosecond component always has nine digits. (Both methods have a special case when nanoseconds is zero, and they agree on adding just a single zero after the decimal point in that case.)\r\n\r\nThe format used by PreparedStatement.setTimestamp(int,Timestamp) matches what java.sql.Timestamp.toString() returns (in fact, it uses Timestamp.toString() internally to produce the string representation), and I think it would be reasonable to use that format for both the methods.", "key": "DERBY-4810"}
{"creation_date": "2010-09-16T19:59:17.000+0000", "fixed_classes": ["org.apache.derby.impl.sql.compile.NextSequenceNode"], "title": "sequenc work insert select", "description": "sequenc select work fine select queri insert select result statement refer follow sequenc error happen select question exactli row data refer manual state valu express occur follow place select statement part express defin column select list valu express appear situat express claus order claus aggreg express row number function distinct select list restrict insert select mention addit databas oracl support sequenc insert select consid bug", "fixed_files": ["org.apache.derby.impl.sql.compile.NextSequenceNode"], "resolution_date": "2010-09-22T12:42:31.000+0000", "original_text": "Sequences do not work in INSERT/SELECT Using sequence in SELECT works fine whereas the same SELECT query used in INSERT/SELECT results in \"The statement references the following sequence more than once\" error. This happens even though the SELECT in question returns exactly 1 row of data.\r\n\r\nThe Reference Manual states 1. \" NEXT VALUE FOR expression may occur in the following places: SELECT statement: As part of the expression defining a returned column in a SELECT list\" and 2. \" NEXT VALUE expression may not appear in any of these situations: CASE expression, WHERE clause, \r\nORDER BY clause, Aggregate expression, ROW_NUMBER function, DISTINCT select list\".\r\nNowhere a restriction on INSERT/SELECT is mentioned. Additionally, other databases (i.e. Oracle) support use of sequences in INSERT/SELECT.\r\n\r\nTherefore, I consider it a bug.\r\n", "key": "DERBY-4803"}
{"creation_date": "2010-08-31T18:58:13.000+0000", "fixed_classes": ["org.apache.derby.impl.drda.NetworkServerControlImpl"], "title": "shutdown command usernam password work mix client network server releas", "description": "derbi introduc option paramet usernam password shutdown command fix exist shutdown command usernam password stop work client derbi chang network server derbi chang jira ensur exist shutdown command user name password work fine differ releas client network server derbi shutdown command introduc derbi work obviosuli client server derbi chang client server derbi chang attempt user name password error", "fixed_files": ["org.apache.derby.impl.drda.NetworkServerControlImpl"], "resolution_date": "2010-10-06T18:08:56.000+0000", "original_text": "Shutdown command without username and password should work with mixed client and network server releases. DERBY-2109 introduced optional parameters username and password to the shutdown command. But with this fix, the existing shutdown command which does not use username and password stopped working from client with DERBY-2109 changes against a network server without DERBY-2109 changes.\r\n\r\nThis jira is to ensure that existing shutdown command without user name and password still works fine between different releases of client and network server(with or without DERBY-2109). The new shutdown command introduced by DERBY-2109 will work obviosuly only on client and server with DERBY-2109 changes. For client/server not with DERBY-2109 changes attempting to user use name and password will get an error.", "key": "DERBY-4786"}
{"creation_date": "2010-08-16T09:49:13.000+0000", "fixed_classes": ["org.apache.derby.impl.sql.execute.ScrollInsensitiveResultSet"], "title": "correct wrong oper lang result set open scrollinsensitiveresultset scroll insensit result set getpreviousrow previou row previou", "description": "myrna point oper lang result set open impl sql execut scrollinsensitiveresultset scroll insensit result set getpreviousrow previou row context previou", "fixed_files": ["org.apache.derby.impl.sql.execute.ScrollInsensitiveResultSet"], "resolution_date": "2010-08-17T01:42:25.000+0000", "original_text": "Correct wrong operation for LANG_RESULT_SET_NOT_OPEN  in ScrollInsensitiveResultSet.getPreviousRow() from 'next' to 'previous' Myrna has pointed out that operation for LANG_RESULT_SET_NOT_OPEN  in impl.sql.execute.ScrollInsensitiveResultSet.getPreviousRow() is 'next', From the context, it should be a 'previous'.", "key": "DERBY-4776"}
{"creation_date": "2010-08-13T13:23:13.000+0000", "fixed_classes": ["org.apache.derby.impl.sql.catalog.XPLAINStatementDescriptor", "org.apache.derby.impl.sql.execute.xplain.XPLAINSystemTableVisitor"], "title": "data truncat error xplain function enabl", "description": "run modifi version lang orderbyandsortavoid order sort avoid follow error java sql sqldataexcept sql data truncat error encount tri shrink thread drdaconnthread drda conn thread derbi daemon length org apach derbi impl jdbc sqlexceptionfactory40 sql factory40 getsqlexcept sql sqlexceptionfactory40 sql factory40 java org apach derbi impl jdbc util generatecssqlexcept gener sql util java org apach derbi impl jdbc transactionresourceimpl transact resourc impl wrapinsqlexcept wrap sql transactionresourceimpl transact resourc impl java org apach derbi impl jdbc transactionresourceimpl transact resourc impl handleexcept handl transactionresourceimpl transact resourc impl java org apach derbi impl jdbc embedconnect emb connect handleexcept handl embedconnect emb connect java org apach derbi impl jdbc connectionchild connect child handleexcept handl connectionchild connect child java org apach derbi impl jdbc embedstat emb statement executestat execut statement embedstat emb statement java org apach derbi impl jdbc embedpreparedstat emb prepar statement executestat execut statement embedpreparedstat emb prepar statement java org apach derbi impl jdbc embedpreparedstat emb prepar statement executeupd execut updat embedpreparedstat emb prepar statement java org apach derbi impl sql execut xplain xplainsystemtablevisitor xplain system tabl visitor addstmtdescriptorstosystemcatalog add stmt descriptor system catalog xplainsystemtablevisitor xplain system tabl visitor java org apach derbi impl sql execut xplain xplainsystemtablevisitor xplain system tabl visitor doxplain xplain xplainsystemtablevisitor xplain system tabl visitor java org apach derbi impl sql execut noputresultsetimpl put result set impl close noputresultsetimpl put result set impl java org apach derbi impl sql execut sortresultset sort result set close sortresultset sort result set java org apach derbi impl jdbc embedresultset emb result set close embedresultset emb result set java org apach derbi impl drda drdaresultset drda result set close drdaresultset drda result set java org apach derbi impl drda drdastat drda statement rsclose close drdastat drda statement java org apach derbi impl drda drdaconnthread drda conn thread donedata done data drdaconnthread drda conn thread java org apach derbi impl drda drdaconnthread drda conn thread writefdodta write fdodta drdaconnthread drda conn thread java org apach derbi impl drda drdaconnthread drda conn thread writeqrydta write qrydta drdaconnthread drda conn thread java org apach derbi impl drda drdaconnthread drda conn thread processcommand process command drdaconnthread drda conn thread java org apach derbi impl drda drdaconnthread drda conn thread run drdaconnthread drda conn thread java caus java sql sqlexcept sql truncat error encount tri shrink thread drdaconnthread drda conn thread derbi daemon length org apach derbi impl jdbc sqlexceptionfactori sql factori getsqlexcept sql sqlexceptionfactori sql factori java org apach derbi impl jdbc sqlexceptionfactory40 sql factory40 wrapargsfortransportacrossdrda wrap arg transport drda sqlexceptionfactory40 sql factory40 java org apach derbi impl jdbc sqlexceptionfactory40 sql factory40 getsqlexcept sql sqlexceptionfactory40 sql factory40 java caus error truncat error encount tri shrink thread drdaconnthread drda conn thread derbi daemon length org apach derbi iapi error standardexcept standard newexcept standardexcept standard java org apach derbi iapi type sqlchar sql hasnonblankchar non blank sqlchar sql java org apach derbi iapi type sqlchar sql normal sqlchar sql java org apach derbi iapi type sqlchar sql normal sqlchar sql java org apach derbi iapi type datatypedescriptor data type descriptor normal datatypedescriptor data type descriptor java org apach derbi impl sql execut normalizeresultset normal result set normalizecolumn normal column normalizeresultset normal result set java org apach derbi impl sql execut normalizeresultset normal result set normalizerow normal row normalizeresultset normal result set java org apach derbi impl sql execut normalizeresultset normal result set getnextrowcor row core normalizeresultset normal result set java org apach derbi impl sql execut dmlwriteresultset dml write result set getnextrowcor row core dmlwriteresultset dml write result set java org apach derbi impl sql execut insertresultset insert result set open insertresultset insert result set java org apach derbi impl sql genericpreparedstat gener prepar statement executestmt execut stmt genericpreparedstat gener prepar statement java org apach derbi impl sql genericpreparedstat gener prepar statement execut genericpreparedstat gener prepar statement java org apach derbi impl jdbc embedstat emb statement executestat execut statement embedstat emb statement java suspect error trigger easili client server conveni i'll attach patch test issu", "fixed_files": ["org.apache.derby.impl.sql.catalog.XPLAINStatementDescriptor", "org.apache.derby.impl.sql.execute.xplain.XPLAINSystemTableVisitor"], "resolution_date": "2010-11-12T13:08:36.000+0000", "original_text": "Data truncation error with XPLAIN-functionality enabled When running a modified version of lang.OrderByAndSortAvoidance I get the following error:\r\n\r\njava.sql.SQLDataException: A truncation error was encountered trying to shrink CHAR 'Thread[DRDAConnThread_3,5,derby.daemons]' to length 32.\r\n\tat org.apache.derby.impl.jdbc.SQLExceptionFactory40.getSQLException(SQLExceptionFactory40.java:79)\r\n\tat org.apache.derby.impl.jdbc.Util.generateCsSQLException(Util.java:256)\r\n\tat org.apache.derby.impl.jdbc.TransactionResourceImpl.wrapInSQLException(TransactionResourceImpl.java:391)\r\n\tat org.apache.derby.impl.jdbc.TransactionResourceImpl.handleException(TransactionResourceImpl.java:346)\r\n\tat org.apache.derby.impl.jdbc.EmbedConnection.handleException(EmbedConnection.java:2269)\r\n\tat org.apache.derby.impl.jdbc.ConnectionChild.handleException(ConnectionChild.java:81)\r\n\tat org.apache.derby.impl.jdbc.EmbedStatement.executeStatement(EmbedStatement.java:1321)\r\n\tat org.apache.derby.impl.jdbc.EmbedPreparedStatement.executeStatement(EmbedPreparedStatement.java:1673)\r\n\tat org.apache.derby.impl.jdbc.EmbedPreparedStatement.executeUpdate(EmbedPreparedStatement.java:303)\r\n\tat org.apache.derby.impl.sql.execute.xplain.XPLAINSystemTableVisitor.addStmtDescriptorsToSystemCatalog(XPLAINSystemTableVisitor.java:390)\r\n\tat org.apache.derby.impl.sql.execute.xplain.XPLAINSystemTableVisitor.doXPLAIN(XPLAINSystemTableVisitor.java:317)\r\n\tat org.apache.derby.impl.sql.execute.NoPutResultSetImpl.close(NoPutResultSetImpl.java:179)\r\n\tat org.apache.derby.impl.sql.execute.SortResultSet.close(SortResultSet.java:467)\r\n\tat org.apache.derby.impl.jdbc.EmbedResultSet.close(EmbedResultSet.java:575)\r\n\tat org.apache.derby.impl.drda.DRDAResultSet.close(DRDAResultSet.java:338)\r\n\tat org.apache.derby.impl.drda.DRDAStatement.rsClose(DRDAStatement.java:995)\r\n\tat org.apache.derby.impl.drda.DRDAConnThread.doneData(DRDAConnThread.java:7446)\r\n\tat org.apache.derby.impl.drda.DRDAConnThread.writeFDODTA(DRDAConnThread.java:7026)\r\n\tat org.apache.derby.impl.drda.DRDAConnThread.writeQRYDTA(DRDAConnThread.java:6910)\r\n\tat org.apache.derby.impl.drda.DRDAConnThread.processCommands(DRDAConnThread.java:870)\r\n\tat org.apache.derby.impl.drda.DRDAConnThread.run(DRDAConnThread.java:294)\r\nCaused by: java.sql.SQLException: A truncation error was encountered trying to shrink CHAR 'Thread[DRDAConnThread_3,5,derby.daemons]' to length 32.\r\n\tat org.apache.derby.impl.jdbc.SQLExceptionFactory.getSQLException(SQLExceptionFactory.java:45)\r\n\tat org.apache.derby.impl.jdbc.SQLExceptionFactory40.wrapArgsForTransportAcrossDRDA(SQLExceptionFactory40.java:119)\r\n\tat org.apache.derby.impl.jdbc.SQLExceptionFactory40.getSQLException(SQLExceptionFactory40.java:70)\r\n\t... 20 more\r\nCaused by: ERROR 22001: A truncation error was encountered trying to shrink CHAR 'Thread[DRDAConnThread_3,5,derby.daemons]' to length 32.\r\n\tat org.apache.derby.iapi.error.StandardException.newException(StandardException.java:343)\r\n\tat org.apache.derby.iapi.types.SQLChar.hasNonBlankChars(SQLChar.java:1767)\r\n\tat org.apache.derby.iapi.types.SQLChar.normalize(SQLChar.java:1743)\r\n\tat org.apache.derby.iapi.types.SQLChar.normalize(SQLChar.java:1695)\r\n\tat org.apache.derby.iapi.types.DataTypeDescriptor.normalize(DataTypeDescriptor.java:648)\r\n\tat org.apache.derby.impl.sql.execute.NormalizeResultSet.normalizeColumn(NormalizeResultSet.java:329)\r\n\tat org.apache.derby.impl.sql.execute.NormalizeResultSet.normalizeRow(NormalizeResultSet.java:373)\r\n\tat org.apache.derby.impl.sql.execute.NormalizeResultSet.getNextRowCore(NormalizeResultSet.java:188)\r\n\tat org.apache.derby.impl.sql.execute.DMLWriteResultSet.getNextRowCore(DMLWriteResultSet.java:127)\r\n\tat org.apache.derby.impl.sql.execute.InsertResultSet.open(InsertResultSet.java:504)\r\n\tat org.apache.derby.impl.sql.GenericPreparedStatement.executeStmt(GenericPreparedStatement.java:436)\r\n\tat org.apache.derby.impl.sql.GenericPreparedStatement.execute(GenericPreparedStatement.java:317)\r\n\tat org.apache.derby.impl.jdbc.EmbedStatement.executeStatement(EmbedStatement.java:1232)\r\n\t... 14 more\r\n\r\nI suspect the error can be triggered easily in client/server, but for convenience I'll attach the patch for the test where I see the issue.", "key": "DERBY-4772"}
{"creation_date": "2010-07-23T19:00:13.000+0000", "fixed_classes": ["org.apache.derby.impl.services.monitor.BaseMonitor"], "title": "derbi messag derbi log engin shutdown chang databas shutdown messag updat doc inform", "description": "derbi messag derbi log engin shutdown chang databas shutdown messag updat doc inform found place doc show exampl shutdown messag start guid creat derbi databas run sql statement section show typic startup shutdown messag section chang derbi developer guid section derbi system shut system engin shutdown messag derbi log gmt thread main main shut derbi engin databas shutdown messag follow gmt shut instanc databas directori p4client svnmain client2 trunk systest tours3 loader sun misc launcher appclassload app loader notic messag includ name shutdown chang derbi went didn't name databas", "fixed_files": ["org.apache.derby.impl.services.monitor.BaseMonitor"], "resolution_date": "2010-11-23T15:43:52.000+0000", "original_text": "DERBY-4601 added a new message to derby.log during engine shutdown and it changed the database shutdown message. Need to update docs with that information DERBY-4601 added a new message to derby.log during engine shutdown and it changed the database shutdown message. Need to update docs with that information. I have found 2 places in our docs where we show examples of shutdown messages\r\n1)In Getting started Guide, under Creating a Derby database and running SQL statements section, we show a typical startup and shutdown message. That section will need to change\r\n2)In Derby Developer's Guide, under section Derby System -> Shutting down the system\r\n\r\n\r\nAn eg of engine shutdown message in derby.log is\r\n2010-07-23 18:59:24.078 GMT Thread[main,5,main] :Shutting down Derby Engine\r\n\r\nAn eg of database shutdown message is as follows\r\n2010-07-20 17:23:55.171 GMT:\r\nShutting down instance 80220011-0129-f0e1-f479-0000000c5ef0 on database directory C:\\p4clients\\svnmain\\client2\\trunk\\systest\\out142\\dbs\\tours3 with class loader sun.misc.Launcher$AppClassLoader@3f6e3f6e \r\n(Notice that this message includes the name of the db getting shutdown. Before the changes for DERBY-4601 went in, we didn't include the name of the database)", "key": "DERBY-4755"}
{"creation_date": "2010-07-19T23:13:09.000+0000", "fixed_classes": ["org.apache.derby.client.am.Statement", "org.apache.derbyTesting.functionTests.tests.lang.CommentTest"], "title": "stringindexoutofboundsexcept string index bound syntax error invalid commit", "description": "start network server port localhost run ant follow project properti environ env path derbi classpath fileset dir env derbi lib name derbynet jar name derbycli jar fileset path target name sql driver org apach derbi jdbc clientdriv client driver url jdbc derbi localhost derbydb derbi creat user derbyus passsword derbypwd userid derbyus password derbypwd classpathref derbi classpath onerror creat tabl mytable1 mycol varchar commit sql target project sql execut command sql fail execut commit sql java sql sqlsyntaxerrorexcept sql syntax error syntax error encount commit line column sql sql statement execut success sql execut command build fail java lang stringindexoutofboundsexcept string index bound string index rang java lang string charat string java org apach derbi client statement isolateanyinitialidentifi isol initi identifi unknown sourc org apach derbi client statement getstatementtoken statement token unknown sourc org apach derbi client statement parsesqlandsetsqlmod pars sql set sql mode unknown sourc", "fixed_files": ["org.apache.derby.client.am.Statement", "org.apache.derbyTesting.functionTests.tests.lang.CommentTest"], "resolution_date": "2010-08-10T15:20:06.000+0000", "original_text": "StringIndexOutOfBoundsException on syntax error (invalid COMMIT) Start the network server on port 1527 on localhost.\r\n\r\nRun ant on the following:\r\n\r\n<project default=\"all\"> \r\n  <property environment=\"env\" /> \r\n  <path id=\"derby.classpath.id\"> \r\n    <fileset dir=\"${env.DERBY_LIB\"> \r\n      <include name=\"derbynet.jar\" /> \r\n      <include name=\"derbyclient.jar\" /> \r\n    </fileset> \r\n  </path> \r\n\r\n  <target name=\"all\"> \r\n    <sql driver=\"org.apache.derby.jdbc.ClientDriver\" \r\n         \r\nurl=\"jdbc:derby://localhost:1527/derbyDB;create=true;user=derbyuser;passsword=derbypwd\" \r\n         userid=\"derbyuser\" \r\n         password=\"derbypwd\" \r\n         classpathref=\"derby.classpath.id\" \r\n         onerror=\"continue\">\r\ncreate table mytable1 (mycol varchar(255)); \r\ncommit; \r\n    </sql> \r\n  </target> \r\n</project> \r\n\r\nOn 10.5.3, I get\r\n      [sql] Executing commands \r\n      [sql] Failed to execute:  commit \r\n      [sql] java.sql.SQLSyntaxErrorException: Syntax error: Encountered \r\n\"commit\" \r\n at line 1, column 1. \r\n      [sql] 1 of 2 SQL statements executed successfully \r\n\r\nbut on 10.6.1, I get\r\n     [sql] Executing commands \r\n\r\nBUILD FAILED \r\njava.lang.StringIndexOutOfBoundsException: String index out of range: 6 \r\n        at java.lang.String.charAt(String.java:686) \r\n        at org.apache.derby.client.am.Statement.isolateAnyInitialIdentifier(Unknown Source) \r\n        at org.apache.derby.client.am.Statement.getStatementToken(Unknown Source) \r\n        at org.apache.derby.client.am.Statement.parseSqlAndSetSqlModes(Unknown Source) \r\n....\r\n", "key": "DERBY-4748"}
{"creation_date": "2010-07-08T09:07:19.000+0000", "fixed_classes": ["org.apache.derby.client.am.Blob"], "title": "correct error prompt nonposit length blob setbytesx set", "description": "blob setbytesx set nonposit length valu len pass sqlexcept sql clientmessageid client messag sqlstate sql state blob nonposit length creat length wrong length valu zero len sqlexcept sql agent logwrit log writer clientmessageid client messag sqlstate sql state blob nonposit length integ length", "fixed_files": ["org.apache.derby.client.am.Blob"], "resolution_date": "2010-07-08T19:53:47.000+0000", "original_text": "correct error prompt for nonpositive length in Blob.setBytesX() In Blob.setBytesX(), when a nonpositive length value (len) is passed in, a SqlException with ClientMessageId of SQLState.BLOB_NONPOSITIVE_LENGTH is created, however, it uses length, a wrong length value, which is still zero here.\r\n\r\nif ( len < 0 ) {\r\n            throw new SqlException(agent_.logWriter_,\r\n                new ClientMessageId(SQLState.BLOB_NONPOSITIVE_LENGTH),\r\n                new Integer(length));\r\n        }", "key": "DERBY-4738"}
{"creation_date": "2010-06-29T09:36:07.000+0000", "fixed_classes": ["org.apache.derby.jdbc.EmbedPooledConnection"], "title": "instanc lock protect share data embedpooledconnect emb pool connect", "description": "embedpooledconnect emb pool connect unsaf synchron follow idcount counter nextid idcount counter idcount counter share data proper instanc lock protect especi two instanc creat safer write nextid idcount counter", "fixed_files": ["org.apache.derby.jdbc.EmbedPooledConnection"], "resolution_date": "2011-02-15T14:00:53.000+0000", "original_text": "Using an instance lock to protect static shared data in EmbedPooledConnection EmbedPooledConnection has the unsafe synchronization as follow.\r\n \r\nprivate static int idCounter = 0;\r\n\r\nprivate synchronized int nextId()\r\n    {\r\n        return idCounter++;\r\n    }\r\n\r\nidCounter is a static shared data, and it is not proper to use a instance lock to protect it, especially when two instance of the class are created.\r\n\r\nit would be more safer to write this instead:\r\n\r\nprivate static synchronized int nextId()\r\n    {\r\n        return idCounter++;\r\n    }", "key": "DERBY-4723"}
{"creation_date": "2010-06-28T07:48:44.000+0000", "fixed_classes": ["org.apache.derbyTesting.functionTests.tests.i18n.LocalizedAttributeScriptTest", "org.apache.derbyTesting.functionTests.tests.i18n.LocalizedDisplayScriptTest"], "title": "correct wrong main method localizeddisplayscripttest local display script test localizedattributescripttest local attribut script test", "description": "main localizeddisplayscripttest local display script test localizedattributescripttest local attribut script test obvious two medthod wrong signatur don't string arg", "fixed_files": ["org.apache.derbyTesting.functionTests.tests.i18n.LocalizedAttributeScriptTest", "org.apache.derbyTesting.functionTests.tests.i18n.LocalizedDisplayScriptTest"], "resolution_date": "2010-06-28T10:16:03.000+0000", "original_text": " Correct wrong main() method in LocalizedDisplayScriptTest and LocalizedAttributeScriptTest There are \"public static void main()\" in both LocalizedDisplayScriptTest and LocalizedAttributeScriptTest. Obviously, the two medthods have wrong signature, they don't have \"String[] args\". ", "key": "DERBY-4718"}
{"creation_date": "2010-06-28T07:48:28.000+0000", "fixed_classes": ["org.apache.derby.jdbc.ClientBaseDataSource", "org.apache.derbyTesting.functionTests.tests.jdbcapi.J2EEDataSourceTest"], "title": "driver trace file isn't close releas physic connect close specifi tracefil trace file attribut setter", "description": "specifi trace file tracefil trace file connect url attribut data sourc setter method handl trace file isn't releas physic connect close problem specif implement connectionpooldatasourc connect pool data sourc xadatasourc data sourc plain data sourc involv reus mechan close trace file handl two potenti problem caus bug resourc leak file handl open trace file delet window derbi", "fixed_files": ["org.apache.derby.jdbc.ClientBaseDataSource", "org.apache.derbyTesting.functionTests.tests.jdbcapi.J2EEDataSourceTest"], "resolution_date": "2010-07-01T08:32:57.000+0000", "original_text": "Driver trace file isn't closed/released on physical connection close when specified with the traceFile attribute/setter When specifying a trace file with the traceFile connection URL attribute or with the data source setter method, the handle to the trace file isn't released when the physical connection is closed.\r\nThe problem may be specific to the implementations of ConnectionPoolDataSource and XADataSource, as using a plain data source doesn't involve reuse (i.e another mechanism may close the trace file handle).\r\n\r\nTwo potential problems caused by this bug:\r\n o resource leak  (i.e., too many file handles open)\r\n o trace files cannot be deleted on Windows (seen for DERBY-4709)", "key": "DERBY-4717"}
{"creation_date": "2010-06-18T09:04:42.000+0000", "fixed_classes": ["org.apache.derby.impl.sql.compile.CastNode", "org.apache.derbyTesting.functionTests.tests.lang.BooleanValuesTest"], "title": "incorrect nullabl cast non nullabl varchar", "description": "follow tabl definit queri creat tabl varchar insert valu unknown select cast meta data result say column nullabl contain valu third row", "fixed_files": ["org.apache.derby.impl.sql.compile.CastNode", "org.apache.derbyTesting.functionTests.tests.lang.BooleanValuesTest"], "resolution_date": "2010-06-18T15:28:12.000+0000", "original_text": "Incorrect nullability when casting non-nullable VARCHAR to BOOLEAN With the following table definition and query\r\n\r\nCREATE TABLE T (X VARCHAR(10) NOT NULL);\r\nINSERT INTO T VALUES 'true', 'false', 'unknown';\r\nSELECT CAST(X AS BOOLEAN) FROM T;\r\n\r\nthe meta-data for the returned result will say that the column is not nullable, although it will contain a NULL value in the third row.", "key": "DERBY-4704"}
{"creation_date": "2010-06-05T11:36:41.000+0000", "fixed_classes": ["org.apache.derby.impl.sql.execute.RenameConstantAction"], "title": "column renam loos ident attribut", "description": "renam ident column caus column loos ident attribut reproduc problem follow creat tabl njr version integ gener ident databasevers databas version integ insert njr version databasevers databas version valu column insert success renam column njr version idvers version insert njr version databasevers databas version valu error column idvers accept valu compound problem way restor renam column ident attribut alter command set ident attribut work creat tabl copi data", "fixed_files": ["org.apache.derby.impl.sql.execute.RenameConstantAction"], "resolution_date": "2010-06-15T01:04:02.000+0000", "original_text": "column rename looses 'identity' attribute. renaming an identity column causes the column to loose its 'identity' attribute.\r\n\r\nyou can reproduce the problem as follows:\r\n\r\nCREATE TABLE njr_version ( id INTEGER generated always as identity, databaseVersion INTEGER);\r\n\r\ninsert into njr_version (databaseVersion) values (10);\r\n-- column inserted successfully.\r\nrename column njr_version.id to idVersion;\r\n\r\ninsert into njr_version (databaseVersion) values (10);\r\nError: Column 'IDVERSION'  cannot accept a NULL value.\r\n\r\nTo compound this problem there is no way to restore the renamed column's identity attribute as the alter command doesn't let you set an identity attribute. The only work around is to create a new table and copy the data across.\r\n", "key": "DERBY-4693"}
{"creation_date": "2010-06-04T15:09:56.000+0000", "fixed_classes": ["org.apache.derby.impl.sql.compile.ResultColumnList", "org.apache.derbyTesting.functionTests.tests.lang.BooleanValuesTest"], "title": "union non datatyp reject", "description": "derbi fix problem implicit cast queri creat implicit cast rais error reason select isindex sysconglomer conglomeratenam foo union valu fail datatyp union unio ned reason copi relat discuss derbi rule determin two datatyp union compat state sql standard part section queri express syntax rule turn refer reader section result data type combin section syntax rule say two valu merg", "fixed_files": ["org.apache.derby.impl.sql.compile.ResultColumnList", "org.apache.derbyTesting.functionTests.tests.lang.BooleanValuesTest"], "resolution_date": "2010-06-07T15:13:06.000+0000", "original_text": "Unions between BOOLEAN and non-BOOLEAN datatypes should be rejected DERBY-4684 fixed problems in implicit casts to BOOLEAN. However, the query which created the implicit casts should raise an error for other reasons:\r\n\r\nselect isindex from sys.sysconglomerates where conglomeratename = 'foo'\r\nunion\r\nvalues ( 'true' )\r\n\r\nThis should fail because if either of the datatypes being UNIONed is BOOLEAN, then both should be BOOLEAN. Here is my reasoning, copied from the related discussion on DERBY:\r\n\r\n1) The rules for determining whether two datatypes are union compatible are stated in the SQL Standard in part 2, section 7.3 (<query expression>), syntax rule 20.b.ii.\r\n\r\n2) That, in turn, refers the reader to section 9.3 (Result of data type combinations).\r\n\r\n3) Section 9.3, syntax rule 3.g says that if either of two values to be merged is BOOLEAN, then both must be BOOLEAN.", "key": "DERBY-4692"}
{"creation_date": "2010-06-01T15:46:19.000+0000", "fixed_classes": ["org.apache.derby.iapi.types.SQLBoolean", "org.apache.derby.impl.sql.compile.BooleanTypeCompiler"], "title": "correct implicit cast type", "description": "union queri possibl implicitli cast non type today implicit cast obey sql standard rule defin part section cast specif derbi support standard rule follow queri show implicitli cast non data type today select isindex sysconglomer conglomeratenam foo union valu", "fixed_files": ["org.apache.derby.iapi.types.SQLBoolean", "org.apache.derby.impl.sql.compile.BooleanTypeCompiler"], "resolution_date": "2010-06-03T16:11:08.000+0000", "original_text": "Correct the implicit casting of other types to BOOLEAN Via a UNION query, it is possible to implicitly cast non-BOOLEAN types to BOOLEAN today. These implicit casts do not obey the SQL Standard rules defined in part 2, section 6.12 (<cast specification>). Derby should support the Standard rules.\r\n\r\nThe following query shows how you can implicitly cast a non-BOOLEAN data type to BOOLEAN today:\r\n\r\nselect isindex from sys.sysconglomerates where conglomeratename = 'foo'\r\nunion\r\nvalues ( 1 )\r\n", "key": "DERBY-4684"}
{"creation_date": "2010-05-23T16:28:15.000+0000", "fixed_classes": ["org.apache.derbyTesting.functionTests.tests.lang.BooleanValuesTest"], "title": "booleanvaluestest valu test fail xalan avail", "description": "xalan avail booleanvaluestest valu test fail exampl error log nightli test http dbtg foundri sun com derbi test daili jvm1 test limit testsummari test summari html error actual caus xalan version bundl j2se old derbi miss error look java xalan jar classpath test datatypecount datatyp count org apach derbytest derbi test functiontest function test test lang booleanvaluestest valu test java sql sqlexcept sql fail locat xalan api implement xml oper permit classpath", "fixed_files": ["org.apache.derbyTesting.functionTests.tests.lang.BooleanValuesTest"], "resolution_date": "2010-05-23T16:40:57.000+0000", "original_text": "BooleanValuesTest fails if Xalan is not available If Xalan is not available, BooleanValuesTest fails. See for example this error log from the nightly testing:\r\nhttp://dbtg.foundry.sun.com/derby/test/Daily/jvm1.4/testing/Limited/testSummary-947309.html\r\n\r\nThe error above is actually caused by the Xalan version bundled with J2SE 1.4.2 being too old for Derby, not that it's missing. Here's what the error looks like on Java SE 6 without xalan.jar in the classpath:\r\n\r\n1) test_01_datatypeCount(org.apache.derbyTesting.functionTests.tests.lang.BooleanValuesTest)java.sql.SQLException: Failed to locate 'Xalan' API or implementation classes.  XML operations are not permitted unless these classes are in your classpath.", "key": "DERBY-4674"}
{"creation_date": "2010-05-20T21:38:05.000+0000", "fixed_classes": ["org.apache.derby.impl.sql.compile.ResultSetNode"], "title": "embed driver work jbosscach jboss cach", "description": "tri jbosscach jboss cach version embed derbi driver follow thrown jbosscach jboss cach tri persist inform databas asynccacheload async cach loader error org jboss cach loader jdbccacheload jdbc cach loader fail insert node java java lang nullpointerexcept pointer asynccacheload async cach loader warn org jboss cach loader asynccacheload async cach loader fail process async modif java lang illegalstateexcept illeg state fail insert node java xception java lang nullpointerexcept pointer asynccacheload async cach loader debug org jboss cach loader asynccacheload async cach loader java lang illegalstateexcept illeg state fail insert node java java lang nullpointerexcept pointer org jboss cach loader adjlistjdbccacheload adj list jdbc cach loader insertnod insert node adjlistjdbccacheload adj list jdbc cach loader java org jboss cach loader jdbccacheload jdbc cach loader addnewsubtre add subtre jdbccacheload jdbc cach loader java org jboss cach loader jdbccacheload jdbc cach loader put jdbccacheload jdbc cach loader java org jboss cach loader abstractcacheload cach loader put abstractcacheload cach loader java org jboss cach loader abstractdelegatingcacheload deleg cach loader put abstractdelegatingcacheload deleg cach loader java org jboss cach loader asynccacheload async cach loader access asynccacheload async cach loader java org jboss cach loader asynccacheload async cach loader asyncprocessor async processor put asynccacheload async cach loader java org jboss cach loader asynccacheload async cach loader asyncprocessor async processor run0 asynccacheload async cach loader java org jboss cach loader asynccacheload async cach loader asyncprocessor async processor run asynccacheload async cach loader java java util concurr executor runnableadapt runnabl adapt call executor java java util concurr futuretask futur task sync innerrun inner run futuretask futur task java java util concurr futuretask futur task run futuretask futur task java java util concurr threadpoolexecutor thread pool executor worker runtask run task threadpoolexecutor thread pool executor java java util concurr threadpoolexecutor thread pool executor worker run threadpoolexecutor thread pool executor java java lang thread run thread java caus java sql sqlexcept sql java java lang nullpointerexcept pointer org apach derbi impl jdbc sqlexceptionfactory40 sql factory40 getsqlexcept sql sqlexceptionfactory40 sql factory40 java org apach derbi impl jdbc util newembedsqlexcept emb sql util java org apach derbi impl jdbc util javaexcept java util java org apach derbi impl jdbc transactionresourceimpl transact resourc impl wrapinsqlexcept wrap sql transactionresourceimpl transact resourc impl java org apach derbi impl jdbc transactionresourceimpl transact resourc impl handleexcept handl transactionresourceimpl transact resourc impl java org apach derbi impl jdbc embedconnect emb connect handleexcept handl embedconnect emb connect java org apach derbi impl jdbc connectionchild connect child handleexcept handl connectionchild connect child java org apach derbi impl jdbc embedpreparedstat emb prepar statement init embedpreparedstat emb prepar statement java org apach derbi impl jdbc embedpreparedstatement20 emb prepar statement20 init embedpreparedstatement20 emb prepar statement20 java org apach derbi impl jdbc embedpreparedstatement30 emb prepar statement30 init embedpreparedstatement30 emb prepar statement30 java org apach derbi impl jdbc embedpreparedstatement40 emb prepar statement40 init embedpreparedstatement40 emb prepar statement40 java org apach derbi jdbc driver40 newembedpreparedstat emb prepar statement driver40 java org apach derbi impl jdbc embedconnect emb connect preparestat prepar statement embedconnect emb connect java org apach derbi impl jdbc embedconnect emb connect preparestat prepar statement embedconnect emb connect java com mchang impl newproxyconnect proxi connect preparestat prepar statement newproxyconnect proxi connect java org jboss cach loader adjlistjdbccacheload adj list jdbc cach loader prepareandlogstat prepar log statement adjlistjdbccacheload adj list jdbc cach loader java org jboss cach loader adjlistjdbccacheload adj list jdbc cach loader insertnod insert node adjlistjdbccacheload adj list jdbc cach loader java caus java sql sqlexcept sql java java lang nullpointerexcept pointer org apach derbi impl jdbc sqlexceptionfactori sql factori getsqlexcept sql sqlexceptionfactori sql factori java org apach derbi impl jdbc sqlexceptionfactory40 sql factory40 wrapargsfortransportacrossdrda wrap arg transport drda sqlexceptionfactory40 sql factory40 java org apach derbi impl jdbc sqlexceptionfactory40 sql factory40 getsqlexcept sql sqlexceptionfactory40 sql factory40 java caus java lang nullpointerexcept pointer org apach derbi impl sql compil chartypecompil type compil convert chartypecompil type compil java org apach derbi impl sql compil chartypecompil type compil storabl chartypecompil type compil java org apach derbi impl sql compil resultcolumn result column checkstorableexpress check storabl express resultcolumn result column java org apach derbi impl sql compil resultcolumn result column checkstorableexpress check storabl express resultcolumn result column java org apach derbi impl sql compil resultcolumnlist result column list checkstorableexpress check storabl express resultcolumnlist result column list java org apach derbi impl sql compil insertnod insert node bindstat bind statement insertnod insert node java org apach derbi impl sql genericstat gener statement prepminion prep minion genericstat gener statement java org apach derbi impl sql genericstat gener statement prepar genericstat gener statement java org apach derbi impl sql conn genericlanguageconnectioncontext gener languag connect context prepareinternalstat prepar intern statement genericlanguageconnectioncontext gener languag connect context java org apach derbi impl jdbc embedpreparedstat emb prepar statement init embedpreparedstat emb prepar statement java work fine clientdriv client driver sampl code configur file attach", "fixed_files": ["org.apache.derby.impl.sql.compile.ResultSetNode"], "resolution_date": "2010-05-27T12:23:04.000+0000", "original_text": "Embedded driver does not work with jbossCache When trying to use jbossCache (version 3.2.5) and an embedded derby driver the following exception is thrown when jbossCache tries to persist information to the database\r\n\r\n48610 [AsyncCacheLoader-0] ERROR org.jboss.cache.loader.JDBCCacheLoader [] - Failed to insert node :Java exception: ': java.lang.NullPointerException'.\r\n 48610 [AsyncCacheLoader-0] WARN  org.jboss.cache.loader.AsyncCacheLoader [] - Failed to process async modifications: java.lang.IllegalStateException: Failed to insert node: Java e\r\nxception: ': java.lang.NullPointerException'.\r\n 48610 [AsyncCacheLoader-0] DEBUG org.jboss.cache.loader.AsyncCacheLoader [] - Exception:\r\n java.lang.IllegalStateException: Failed to insert node: Java exception: ': java.lang.NullPointerException'.\r\n        at org.jboss.cache.loader.AdjListJDBCCacheLoader.insertNode(AdjListJDBCCacheLoader.java:562)\r\n        at org.jboss.cache.loader.JDBCCacheLoader.addNewSubtree(JDBCCacheLoader.java:367)\r\n        at org.jboss.cache.loader.JDBCCacheLoader.put(JDBCCacheLoader.java:110)\r\n        at org.jboss.cache.loader.AbstractCacheLoader.put(AbstractCacheLoader.java:303)\r\n        at org.jboss.cache.loader.AbstractDelegatingCacheLoader.put(AbstractDelegatingCacheLoader.java:110)\r\n        at org.jboss.cache.loader.AsyncCacheLoader.access$601(AsyncCacheLoader.java:105)\r\n        at org.jboss.cache.loader.AsyncCacheLoader$AsyncProcessor.put(AsyncCacheLoader.java:417)\r\n        at org.jboss.cache.loader.AsyncCacheLoader$AsyncProcessor.run0(AsyncCacheLoader.java:409)\r\n        at org.jboss.cache.loader.AsyncCacheLoader$AsyncProcessor.run(AsyncCacheLoader.java:371)\r\n        at java.util.concurrent.Executors$RunnableAdapter.call(Executors.java:441)\r\n        at java.util.concurrent.FutureTask$Sync.innerRun(FutureTask.java:303)\r\n        at java.util.concurrent.FutureTask.run(FutureTask.java:138)\r\n        at java.util.concurrent.ThreadPoolExecutor$Worker.runTask(ThreadPoolExecutor.java:886)\r\n        at java.util.concurrent.ThreadPoolExecutor$Worker.run(ThreadPoolExecutor.java:908)\r\n        at java.lang.Thread.run(Thread.java:619)\r\nCaused by: java.sql.SQLException: Java exception: ': java.lang.NullPointerException'.\r\n        at org.apache.derby.impl.jdbc.SQLExceptionFactory40.getSQLException(SQLExceptionFactory40.java:95)\r\n        at org.apache.derby.impl.jdbc.Util.newEmbedSQLException(Util.java:142)\r\n        at org.apache.derby.impl.jdbc.Util.javaException(Util.java:299)\r\n        at org.apache.derby.impl.jdbc.TransactionResourceImpl.wrapInSQLException(TransactionResourceImpl.java:403)\r\n        at org.apache.derby.impl.jdbc.TransactionResourceImpl.handleException(TransactionResourceImpl.java:346)\r\n        at org.apache.derby.impl.jdbc.EmbedConnection.handleException(EmbedConnection.java:2269)\r\n        at org.apache.derby.impl.jdbc.ConnectionChild.handleException(ConnectionChild.java:81)\r\n        at org.apache.derby.impl.jdbc.EmbedPreparedStatement.<init>(EmbedPreparedStatement.java:148)\r\n        at org.apache.derby.impl.jdbc.EmbedPreparedStatement20.<init>(EmbedPreparedStatement20.java:82)\r\n        at org.apache.derby.impl.jdbc.EmbedPreparedStatement30.<init>(EmbedPreparedStatement30.java:63)\r\n        at org.apache.derby.impl.jdbc.EmbedPreparedStatement40.<init>(EmbedPreparedStatement40.java:40)\r\n        at org.apache.derby.jdbc.Driver40.newEmbedPreparedStatement(Driver40.java:105)\r\n        at org.apache.derby.impl.jdbc.EmbedConnection.prepareStatement(EmbedConnection.java:1607)\r\n        at org.apache.derby.impl.jdbc.EmbedConnection.prepareStatement(EmbedConnection.java:1435)\r\n        at com.mchange.v2.c3p0.impl.NewProxyConnection.prepareStatement(NewProxyConnection.java:213)\r\n        at org.jboss.cache.loader.AdjListJDBCCacheLoader.prepareAndLogStatement(AdjListJDBCCacheLoader.java:90)\r\n        at org.jboss.cache.loader.AdjListJDBCCacheLoader.insertNode(AdjListJDBCCacheLoader.java:545)\r\n        ... 14 more\r\nCaused by: java.sql.SQLException: Java exception: ': java.lang.NullPointerException'.\r\n        at org.apache.derby.impl.jdbc.SQLExceptionFactory.getSQLException(SQLExceptionFactory.java:45)\r\n        at org.apache.derby.impl.jdbc.SQLExceptionFactory40.wrapArgsForTransportAcrossDRDA(SQLExceptionFactory40.java:119)\r\n        at org.apache.derby.impl.jdbc.SQLExceptionFactory40.getSQLException(SQLExceptionFactory40.java:70)\r\n        ... 30 more\r\nCaused by: java.lang.NullPointerException\r\n        at org.apache.derby.impl.sql.compile.CharTypeCompiler.convertible(CharTypeCompiler.java:54)\r\n        at org.apache.derby.impl.sql.compile.CharTypeCompiler.storable(CharTypeCompiler.java:100)\r\n        at org.apache.derby.impl.sql.compile.ResultColumn.checkStorableExpression(ResultColumn.java:887)\r\n        at org.apache.derby.impl.sql.compile.ResultColumn.checkStorableExpression(ResultColumn.java:879)\r\n        at org.apache.derby.impl.sql.compile.ResultColumnList.checkStorableExpressions(ResultColumnList.java:953)\r\n        at org.apache.derby.impl.sql.compile.InsertNode.bindStatement(InsertNode.java:456)\r\n        at org.apache.derby.impl.sql.GenericStatement.prepMinion(GenericStatement.java:324)\r\n        at org.apache.derby.impl.sql.GenericStatement.prepare(GenericStatement.java:90)\r\n        at org.apache.derby.impl.sql.conn.GenericLanguageConnectionContext.prepareInternalStatement(GenericLanguageConnectionContext.java:828)\r\n        at org.apache.derby.impl.jdbc.EmbedPreparedStatement.<init>(EmbedPreparedStatement.java:130)\r\n        ... 23 more\r\n\r\nIt works fine using ClientDriver.\r\n\r\nSample code and configuration files are attached.", "key": "DERBY-4671"}
{"creation_date": "2010-05-19T08:12:33.000+0000", "fixed_classes": ["org.apache.derbyTesting.functionTests.tests.lang.TimestampArithTest", "org.apache.derbyTesting.functionTests.tests.lang.TimestampArithTest.OneTest"], "title": "unidiomat error handl timestamparithtest timestamp arith test", "description": "timestamparithtest timestamp arith test contain error handl code prevent underli error report junit unit framework termin jvm run test error exampl code print stack trace underli error termin won't report junit unit framework printstacktrac print stack trace sqle fail unexpect statement sql code termin jvm error prevent subsequ test run prevent junit unit framework report result test did run system println proper timestamp string system println getclass getnam name getmessag messag printstacktrac print stack trace system exit", "fixed_files": ["org.apache.derbyTesting.functionTests.tests.lang.TimestampArithTest", "org.apache.derbyTesting.functionTests.tests.lang.TimestampArithTest.OneTest"], "resolution_date": "2010-05-19T14:01:43.000+0000", "original_text": "Unidiomatic error handling in TimestampArithTest TimestampArithTest contains some error handling code that prevents the underlying error from being reported to the JUnit framework, and it may even terminate the JVM running the tests on some errors. Examples:\r\n\r\nThis code prints the stack trace of the underlying error to the terminal, but it won't be included in the report from the JUnit framework:\r\n\r\n\t\t\t\t\tprintStackTrace(sqle);\r\n\t\t\t\t\tfail(\"Unexpected exception from statement '\" + sql + \"'\");\r\n\r\nThis code terminates the JVM on error, preventing subsequent tests from running, and also preventing the JUnit framework to report the results from the tests that did run:\r\n\r\n\t\t} catch (Exception e) {\r\n\t\t\tSystem.out.println(s + \" is not a proper timestamp string.\");\r\n\t\t\tSystem.out.println(e.getClass().getName() + \": \" + e.getMessage());\r\n\t\t\te.printStackTrace();\r\n\t\t\tSystem.exit(1);\r\n\t\t\treturn null;\r\n\t\t}", "key": "DERBY-4665"}
{"creation_date": "2010-05-18T23:56:12.000+0000", "fixed_classes": ["org.apache.derby.impl.jdbc.LOBStoredProcedure"], "title": "chang derbi intern store procedur avoid drivermanag driver manag getconnect connect jdbc connect recogn driver", "description": "derbi intern store procedur function call drivermanag driver manag getconnect connect jdbc connect url recogn driver classpath server side jdbc product exampl occur networkserv network server jcc load jcc type driver server side jdbc java lang unsatisfiedlinkerror unsatisfi link error db2jcct2 found java librari path errorcod sqlstate com ibm jcc sqlexcept sql com ibm jcc java com ibm jcc java com ibm jcc java com ibm jcc java com ibm jcc t2configur configur clinit t2configur configur java java lang j9vmintern intern initializeimpl initi impl method java lang j9vmintern intern initi j9vmintern intern java com ibm jcc db2driver driver connect db2driver driver java java sql drivermanag driver manag getconnect connect drivermanag driver manag java java sql drivermanag driver manag getconnect connect drivermanag driver manag java org apach derbi impl jdbc lobstoredprocedur lob store procedur getembedconnect emb connect unknown sourc org apach derbi impl jdbc lobstoredprocedur lob store procedur getclobobjectcorrespondingtoloc clob object correspondingto locat unknown sourc org apach derbi impl jdbc lobstoredprocedur lob store procedur clobgetlength unknown sourc org apach derbi exe unknown sourc org apach derbi impl servic reflect directcal direct call invok unknown sourc org apach derbi impl sql execut rowresultset row result set getnextrowcor row core unknown sourc org apach derbi impl sql execut basicnoputresultsetimpl basic put result set impl getnextrow row unknown sourc org apach derbi impl jdbc embedresultset emb result set moveposit move posit unknown sourc org apach derbi impl jdbc embedresultset emb result set unknown sourc org apach derbi impl jdbc embedcallablestat emb callabl statement executestat execut statement unknown sourc org apach derbi impl jdbc embedpreparedstat emb prepar statement execut unknown sourc org apach derbi impl drda drdastat drda statement execut unknown sourc org apach derbi impl drda drdaconnthread drda conn thread parseexcsqlsttobject pars excsqlst tobject unknown sourc org apach derbi impl drda drdaconnthread drda conn thread parseexcsqlstt pars excsqlstt unknown sourc org apach derbi impl drda drdaconnthread drda conn thread processcommand process command unknown sourc org apach derbi impl drda drdaconnthread drda conn thread run unknown sourc think avoid specif error chang lobstoredprocedur lob store procedur intern procedur code systemprocedur system procedur getdefaultconn conn connect derbi internaldriv intern driver activedriv activ driver cours solv gener problem user creat procedur function perform sql sure good solut ask jcc driver team way determin run process regardless product workaround think basic problem design flaw specif drivermanag driver manag differenti url databas product server side jdbc", "fixed_files": ["org.apache.derby.impl.jdbc.LOBStoredProcedure"], "resolution_date": "2010-05-26T00:21:26.000+0000", "original_text": "Change Derby internal stored procedures to avoid DriverManager.getConnection(\"jdbc:default:connection\") as it may be recognized by other Drivers Some Derby internal Stored procedures and functions call DriverManager.getConnection(\"jdbc:default:connection\"); and this url can be recognized by another Driver in the same classpath that is used for server side JDBC for another product. For example the below occurred in NetworkServer when JCC was also loaded because the JCC Type 2 driver is used for server side JDBC:\r\n\r\njava.lang.UnsatisfiedLinkError:        \r\ndb2jcct2 (Not found in java.library.path):  ERRORCODE=-4472, SQLSTATE=null\r\ncom.ibm.db2.jcc.b.SqlException\r\n        at com.ibm.db2.jcc.b.bd.a(bd.java:660)\r\n        at com.ibm.db2.jcc.b.bd.a(bd.java:60)\r\n        at com.ibm.db2.jcc.b.bd.a(bd.java:94)\r\n        at com.ibm.db2.jcc.t2.a.a(a.java:37)\r\n        at com.ibm.db2.jcc.t2.T2Configuration.<clinit>(T2Configuration.java:94)\r\n        at java.lang.J9VMInternals.initializeImpl(Native Method)\r\n        at java.lang.J9VMInternals.initialize(J9VMInternals.java:196)\r\n        at com.ibm.db2.jcc.DB2Driver.connect(DB2Driver.java:211)\r\n        at java.sql.DriverManager.getConnection(DriverManager.java:572)\r\n        at java.sql.DriverManager.getConnection(DriverManager.java:218)\r\n        at org.apache.derby.impl.jdbc.LOBStoredProcedure.getEmbedConnection(Unknown Source)\r\n        at org.apache.derby.impl.jdbc.LOBStoredProcedure.getClobObjectCorrespondingtoLOCATOR(Unknown Source)\r\n        at org.apache.derby.impl.jdbc.LOBStoredProcedure.CLOBGETLENGTH(Unknown Source)\r\n        at org.apache.derby.exe.acf81e0010x0128x864dxbe82x00004c9b380d12.e0(Unknown Source)\r\n        at org.apache.derby.impl.services.reflect.DirectCall.invoke(Unknown Source)\r\n        at org.apache.derby.impl.sql.execute.RowResultSet.getNextRowCore(Unknown Source)\r\n        at org.apache.derby.impl.sql.execute.BasicNoPutResultSetImpl.getNextRow(Unknown Source)\r\n        at org.apache.derby.impl.jdbc.EmbedResultSet.movePosition(Unknown Source)\r\n        at org.apache.derby.impl.jdbc.EmbedResultSet.next(Unknown Source)\r\n        at org.apache.derby.impl.jdbc.EmbedCallableStatement.executeStatement(Unknown Source)\r\n        at org.apache.derby.impl.jdbc.EmbedPreparedStatement.execute(Unknown Source)\r\n        at org.apache.derby.impl.drda.DRDAStatement.execute(Unknown Source)\r\n        at org.apache.derby.impl.drda.DRDAConnThread.parseEXCSQLSTTobjects(Unknown Source)\r\n        at org.apache.derby.impl.drda.DRDAConnThread.parseEXCSQLSTT(Unknown Source)\r\n        at org.apache.derby.impl.drda.DRDAConnThread.processCommands(Unknown Source)\r\n        at org.apache.derby.impl.drda.DRDAConnThread.run(Unknown Source)\r\n\r\nI think we can avoid this specific error by changing LobStoredProcedure (and perhaps other internal procedures)  to  use the code in  SystemProcedures.getDefaultConn() which always connects to Derby by using = InternalDriver.activeDriver()\r\n\r\nThis of course will not solve the general problem for any user created procedure or function that performs SQL.  I am not sure if there is a good solution for that.  I asked the JCC Driver team to see if there is a way they can determine if they are running inside the DB2 process or not. but regardless of these product workarounds I think the basic problem is design flaw in the specification.  DriverManager cannot differentiate the URL if all database products use the same one for server side JDBC.\r\n\r\n\r\n\r\n\r\n\r\n\r\n\r\n", "key": "DERBY-4664"}
{"creation_date": "2010-05-12T10:27:40.000+0000", "fixed_classes": ["org.apache.derby.vti.Restriction", "org.apache.derbyTesting.functionTests.tests.lang.RestrictedVTITest"], "title": "restrict tosql sql escap special charact", "description": "org apach derbi vti restrict tosql sql add quot column name escap special charact quot column name string valid sql caus problem restrict gener queri extern databas restrict doublequot quot idutil util normaltodelimit normal delimit proper quot name", "fixed_files": ["org.apache.derby.vti.Restriction", "org.apache.derbyTesting.functionTests.tests.lang.RestrictedVTITest"], "resolution_date": "2010-05-14T09:01:50.000+0000", "original_text": "Restriction.toSQL() doesn't escape special characters org.apache.derby.vti.Restriction.toSQL() adds double quotes around column names, but it does not escape the special characters (like double quotes) in the column names, so the returned string may not be valid SQL. This could cause problems when using the restriction to generate a query against an external database.\r\n\r\nRestriction.doubleQuote() should use IdUtil.normalToDelimited() to get proper quoting of the names.", "key": "DERBY-4654"}
{"creation_date": "2010-04-21T10:30:55.000+0000", "fixed_classes": ["org.apache.derbyTesting.functionTests.tests.lang.TimestampArithTest"], "title": "broken logic avoid test midnight timestamparithtest timestamp arith test", "description": "timestamparithtest timestamp arith test decor code avoid failur test start close midnight make sure close midnight today yesterday finish calendar calendar hour calendar calendar minut thread sleep calendar calendar second interruptedexcept interrupt ignor least three problem code calendar calendar hour evalu calendar calendar hour valu rang calendar hour current time code sleep test wait start make cross midnight run code execut calendar object initi code trigger wait midnight today field guarante yesterday test start execut", "fixed_files": ["org.apache.derbyTesting.functionTests.tests.lang.TimestampArithTest"], "resolution_date": "2010-05-19T07:57:41.000+0000", "original_text": "Broken logic for avoiding testing across midnight in TimestampArithTest TimestampArithTest's decorator has this code to avoid failures in case the test starts close to midnight:\r\n\r\n\t\t\t\t/*\r\n\t\t\t\t * Make sure that we are not so close to midnight that TODAY\r\n\t\t\t\t * might be yesterday before we are finished using it.\r\n\t\t\t\t */\r\n\t\t\t\twhile (calendar.get(Calendar.HOUR) == 23\r\n\t\t\t\t\t\t&& calendar.get(Calendar.MINUTE) >= 58) {\r\n\t\t\t\t\ttry {\r\n\t\t\t\t\t\tThread.sleep((60 - calendar.get(Calendar.SECOND)) * 1000);\r\n\t\t\t\t\t} catch (InterruptedException ie) {\r\n\t\t\t\t\t\t// ignore it\r\n\t\t\t\t\t}\r\n\t\t\t\t}\r\n\r\nThere are at least three problems with this code:\r\n\r\n1) (calendar.get(Calendar.HOUR) == 23) never evaluates to true, because calendar.get(Calendar.HOUR) returns values in the range 0-11. Calendar.HOUR_OF_DAY should be used instead.\r\n\r\n2) If the current time is after 23:58 and before 23:59, the code sleeps until 23:59, the test will wait until 23:59 before it starts, making it even more likely that it will cross midnight while running.\r\n\r\n3) The code is executed after the Calendar object has been initialized, so if this code is ever triggered and waits until after midnight, the TODAY field is guaranteed to be yesterday when the test starts executing.", "key": "DERBY-4624"}
