{"id":332,"bug_id":"TIKA-1014","text":"Allow custom MimeTypesReader. The current MimeTypesReader is package protected with private fields. It would be great to allow subclassing this Reader to support custom behavior.","class_goldset":["tika-core.src.main.java.org.apache.tika.mime.MimeTypesReader.ClauseRecord","tika-core.src.test.java.org.apache.tika.TikaIT"],"file_goldset":["tika-core.src.main.java.org.apache.tika.mime.MimeTypesReader.ClauseRecord","tika-core.src.test.java.org.apache.tika.TikaIT"],"creation_date":"2012-10-30T06:01:31.000+0000","resolution_date":"2013-04-29T14:20:28.000+0000"}
{"id":333,"bug_id":"TIKA-1047","text":"The problem I have with this is that I need to send the entire document to get all metadata. To detect the mediatype, only a few bytes are often necessary and so I\u0027d like to only send, say 8K or so, to the server and let it tell me the mediatype.","class_goldset":["tika-server.src.main.java.org.apache.tika.server.TikaResource"],"file_goldset":["tika-server.src.main.java.org.apache.tika.server.TikaResource"],"creation_date":"2012-12-19T18:55:52.000+0000","resolution_date":"2013-01-27T19:19:41.000+0000"}
{"id":335,"bug_id":"TIKA-1074","text":"Extraction should continue if an exception is hit visiting an embedded document. In that issue, a problematic document (still not sure if document is corrupt, or possible POI bug) caused an exception when visiting the embedded documents. If I change Tika to suppress that exception, the rest of the document extracts fine. So somehow I think we should be more robust here, and maybe log the exception, or save/record the exception(s) somewhere so after parsing the app could decide what to do about them ...","class_goldset":["tika-app.src.main.java.org.apache.tika.cli.TikaCLI","tika-parsers.src.main.java.org.apache.tika.parser.microsoft.AbstractPOIFSExtractor","tika-parsers.src.main.java.org.apache.tika.parser.microsoft.SummaryExtractor"],"file_goldset":["tika-app.src.main.java.org.apache.tika.cli.TikaCLI","tika-parsers.src.main.java.org.apache.tika.parser.microsoft.AbstractPOIFSExtractor","tika-parsers.src.main.java.org.apache.tika.parser.microsoft.SummaryExtractor"],"creation_date":"2013-02-04T14:53:40.000+0000","resolution_date":"2013-02-21T21:38:54.000+0000"}
