eclipse-3.1;76969;6
swt-3.1;79268;6
eclipse-3.1;84546;6
eclipse-3.1;84787;6
swt-3.1;87363;6
eclipse-3.1;89883;6
eclipse-3.1;89891;6
eclipse-3.1;92591;6
swt-3.1;94467;6
eclipse-3.1;95044;6
swt-3.1;108813;6
eclipse-3.1;152001;6
eclipse-3.1;77973;7
eclipse-3.1;85402;7
eclipse-3.1;90782;7
eclipse-3.1;93030;7
eclipse-3.1;101644;7
eclipse-3.1;79957;8
eclipse-3.1;84881;8
swt-3.1;86000;8
swt-3.1;86631;8
swt-3.1;87997;8
swt-3.1;92341;8
eclipse-3.1;97325;8
eclipse-3.1;76869;9
eclipse-3.1;92366;9
eclipse-3.1;92963;9
eclipse-3.1;76860;10
eclipse-3.1;80672;10
eclipse-3.1;81199;10
eclipse-3.1;84141;10
eclipse-3.1;87211;10
eclipse-3.1;88532;10
swt-3.1;78548;11
eclipse-3.1;92013;11
eclipse-3.1;97674;11
eclipse-3.1;103553;11
eclipse-3.1;119814;11
eclipse-3.1;81322;12
swt-3.1;81834;12
swt-3.1;87676;12
swt-3.1;117574;12
eclipse-3.1;85291;13
eclipse-3.1;94633;13
eclipse-3.1;130465;13
eclipse-3.1;87208;14
eclipse-3.1;90289;14
eclipse-3.1;90760;14
eclipse-3.1;99631;14
eclipse-3.1;81428;15
eclipse-3.1;86482;15
eclipse-3.1;99266;15
eclipse-3.1;79690;16
eclipse-3.1;97338;16
eclipse-3.1;92602;17
eclipse-3.1;94762;17
eclipse-3.1;77421;18
eclipse-3.1;87569;18
eclipse-3.1;99723;18
eclipse-3.1;79324;19
eclipse-3.1;82908;19
swt-3.1;84557;19
eclipse-3.1;85452;19
swt-3.1;77948;20
eclipse-3.1;85734;20
eclipse-3.1;92181;20
eclipse-3.1;85774;21
eclipse-3.1;102305;22
eclipse-3.1;78364;23
eclipse-3.1;78647;23
eclipse-3.1;104114;23
swt-3.1;86294;25
eclipse-3.1;91346;25
eclipse-3.1;96294;26
swt-3.1;115947;26
eclipse-3.1;84234;27
eclipse-3.1;87171;28
eclipse-3.1;128931;28
eclipse-3.1;83005;30
eclipse-3.1;83216;30
eclipse-3.1;104657;30
eclipse-3.1;122825;32
eclipse-3.1;81797;34
swt-3.1;87855;34
eclipse-3.1;94535;36
swt-3.1;94598;37
eclipse-3.1;94852;37
swt-3.1;83699;39
eclipse-3.1;80904;43
eclipse-3.1;81049;47
swt-3.1;83262;47
eclipse-3.1;79091;53
eclipse-3.1;94540;53
eclipse-3.1;99282;57
eclipse-3.1;148081;61
eclipse-3.1;77234;64
eclipse-3.1;92148;64
eclipse-3.1;89533;65
eclipse-3.1;99629;66
eclipse-3.1;130424;68
eclipse-3.1;87796;69
eclipse-3.1;88813;70
eclipse-3.1;107031;77
eclipse-3.1;80493;82
eclipse-3.1;89280;87
eclipse-3.1;95945;87
eclipse-3.1;92291;88
eclipse-3.1;83536;89
eclipse-3.1;79754;90
eclipse-3.1;88243;96
eclipse-3.1;138803;96
eclipse-3.1;89096;102
eclipse-3.1;92902;104
eclipse-3.1;80287;112
eclipse-3.1;98202;115
swt-3.1;99376;116
eclipse-3.1;80387;120
eclipse-3.1;90415;122
eclipse-3.1;95505;127
eclipse-3.1;93727;141
eclipse-3.1;86174;143
eclipse-3.1;111259;145
eclipse-3.1;93849;155
eclipse-3.1;90815;158
eclipse-3.1;94390;165
eclipse-3.1;102485;176
eclipse-3.1;81333;181
eclipse-3.1;93119;196
eclipse-3.1;77703;198
eclipse-3.1;97722;205
eclipse-3.1;84944;244
eclipse-3.1;85696;306
eclipse-3.1;94366;313
eclipse-3.1;300054;391
eclipse-3.1;96440;408
eclipse-3.1;149604;412
eclipse-3.1;97367;510
eclipse-3.1;94516;526
eclipse-3.1;133072;650
eclipse-3.1;90549;651
eclipse-3.1;87632;654
eclipse-3.1;84617;746
eclipse-3.1;87683;767
eclipse-3.1;81717;805
eclipse-3.1;77239;849
eclipse-3.1;86917;856
eclipse-3.1;78466;924
eclipse-3.1;89936;993
eclipse-3.1;95679;1158
eclipse-3.1;103918;1188
eclipse-3.1;83250;1495
eclipse-3.1;82585;1894
eclipse-3.1;102427;1973
eclipse-3.1;85277;2078
eclipse-3.1;87198;2957
eclipse-3.1;98621;2958
eclipse-3.1;91098;3245
eclipse-3.1;84336;3413
eclipse-3.1;78010;3549
eclipse-3.1;133292;3992
eclipse-3.1;84770;4730
eclipse-3.1;115363;5701
eclipse-3.1;78275;5964
eclipse-3.1;100137;332
eclipse-3.1;100336;15
eclipse-3.1;100799;149
eclipse-3.1;100808;834
eclipse-3.1;100868;554
eclipse-3.1;101090;17
eclipse-3.1;101328;929
eclipse-3.1;101434;1524
eclipse-3.1;101955;16
eclipse-3.1;102055;110
eclipse-3.1;102473;99
eclipse-3.1;102778;179
eclipse-3.1;102911;4330
eclipse-3.1;103379;2088
eclipse-3.1;104202;1600
eclipse-3.1;104854;13
eclipse-3.1;104966;24
eclipse-3.1;104987;1052
eclipse-3.1;104991;559
eclipse-3.1;105665;447
eclipse-3.1;105874;31
eclipse-3.1;105936;2812
eclipse-3.1;106388;64
eclipse-3.1;106454;25
eclipse-3.1;106492;83
eclipse-3.1;106574;855
eclipse-3.1;106725;59
eclipse-3.1;106789;34
eclipse-3.1;107391;6306
eclipse-3.1;108162;1064
eclipse-3.1;108466;158
eclipse-3.1;108473;184
eclipse-3.1;108705;863
eclipse-3.1;109104;1453
eclipse-3.1;109254;18
eclipse-3.1;109329;12
eclipse-3.1;110837;746
eclipse-3.1;111171;587
eclipse-3.1;112137;626
eclipse-3.1;112576;173
eclipse-3.1;113455;63
eclipse-3.1;113678;89
eclipse-3.1;114565;2654
eclipse-3.1;116908;44
eclipse-3.1;117890;131
eclipse-3.1;118845;384
eclipse-3.1;119617;565
eclipse-3.1;120414;90
eclipse-3.1;125994;449
eclipse-3.1;126465;448
eclipse-3.1;126938;16
eclipse-3.1;129834;59
eclipse-3.1;130404;167
eclipse-3.1;130700;15
eclipse-3.1;138404;2566
eclipse-3.1;142881;34
eclipse-3.1;147399;295
eclipse-3.1;149506;23
eclipse-3.1;152229;92
eclipse-3.1;156827;1865
eclipse-3.1;164438;30
eclipse-3.1;247198;24
eclipse-3.1;32553;1781
eclipse-3.1;63433;70
eclipse-3.1;70238;94
eclipse-3.1;75972;27
eclipse-3.1;76208;278
eclipse-3.1;76217;37
eclipse-3.1;76472;1650
eclipse-3.1;76496;24
eclipse-3.1;76529;199
eclipse-3.1;76677;25
eclipse-3.1;76766;53
eclipse-3.1;76779;1191
eclipse-3.1;76837;131
eclipse-3.1;76854;1630
eclipse-3.1;77034;1773
eclipse-3.1;77036;486
eclipse-3.1;77060;225
eclipse-3.1;77184;105
eclipse-3.1;77238;13
eclipse-3.1;77249;21
eclipse-3.1;77323;84
eclipse-3.1;77398;76
eclipse-3.1;77555;1569
eclipse-3.1;77727;213
eclipse-3.1;77893;25
eclipse-3.1;78013;93
eclipse-3.1;78064;22
eclipse-3.1;78123;132
eclipse-3.1;78160;150
eclipse-3.1;78201;918
eclipse-3.1;78315;72
eclipse-3.1;78366;37
eclipse-3.1;78460;27
eclipse-3.1;78548;34
eclipse-3.1;78740;84
eclipse-3.1;78746;31
eclipse-3.1;79123;163
eclipse-3.1;79148;13
eclipse-3.1;79271;103
eclipse-3.1;79309;284
eclipse-3.1;79318;214
eclipse-3.1;79334;141
eclipse-3.1;79414;209
eclipse-3.1;79433;155
eclipse-3.1;79441;11
eclipse-3.1;79467;35
eclipse-3.1;79544;71
eclipse-3.1;79545;866
eclipse-3.1;79793;88
eclipse-3.1;79897;202
eclipse-3.1;80058;121
eclipse-3.1;80179;276
eclipse-3.1;80977;66
eclipse-3.1;81045;54
eclipse-3.1;81242;80
eclipse-3.1;81444;293
eclipse-3.1;81449;564
eclipse-3.1;81834;38
eclipse-3.1;82370;204
eclipse-3.1;82402;98
eclipse-3.1;82486;29
eclipse-3.1;82553;471
eclipse-3.1;82617;11
eclipse-3.1;82712;284
eclipse-3.1;82895;12
eclipse-3.1;83205;16
eclipse-3.1;83206;223
eclipse-3.1;83251;110
eclipse-3.1;83321;174
eclipse-3.1;83383;282
eclipse-3.1;83453;85
eclipse-3.1;83507;112
eclipse-3.1;83541;73
eclipse-3.1;83598;405
eclipse-3.1;83699;42
eclipse-3.1;83711;262
eclipse-3.1;83992;544
eclipse-3.1;84072;12
eclipse-3.1;84194;1394
eclipse-3.1;84217;37
eclipse-3.1;84257;77
eclipse-3.1;84354;25
eclipse-3.1;84557;23
eclipse-3.1;84558;24
eclipse-3.1;84573;308
eclipse-3.1;84652;196
eclipse-3.1;84707;4906
eclipse-3.1;84724;91
eclipse-3.1;84825;50
eclipse-3.1;84906;36
eclipse-3.1;85275;101
eclipse-3.1;85309;36
eclipse-3.1;85344;2666
eclipse-3.1;85384;112
eclipse-3.1;85397;67
eclipse-3.1;85519;36
eclipse-3.1;85595;42
eclipse-3.1;85672;19
eclipse-3.1;85964;116
eclipse-3.1;85966;335
eclipse-3.1;86112;13
eclipse-3.1;86268;22
eclipse-3.1;86329;13
eclipse-3.1;86426;97
eclipse-3.1;86502;110
eclipse-3.1;86596;31
eclipse-3.1;86610;21
eclipse-3.1;86614;69
eclipse-3.1;86750;62
eclipse-3.1;86847;182
eclipse-3.1;87039;865
eclipse-3.1;87419;29
eclipse-3.1;87665;1803
eclipse-3.1;87676;56
eclipse-3.1;87692;50
eclipse-3.1;88224;288
eclipse-3.1;88295;230
eclipse-3.1;88328;217
eclipse-3.1;88339;971
eclipse-3.1;88737;34
eclipse-3.1;88925;59
eclipse-3.1;88963;35
eclipse-3.1;89014;207
eclipse-3.1;89259;111
eclipse-3.1;89308;499
eclipse-3.1;89472;27
eclipse-3.1;89608;83
eclipse-3.1;89620;84
eclipse-3.1;89621;63
eclipse-3.1;89632;101
eclipse-3.1;89636;46
eclipse-3.1;89651;261
eclipse-3.1;89682;307
eclipse-3.1;89835;14
eclipse-3.1;89932;14
eclipse-3.1;89956;17
eclipse-3.1;90281;12
eclipse-3.1;90283;20
eclipse-3.1;90759;35
eclipse-3.1;90935;14
eclipse-3.1;91047;13
eclipse-3.1;91221;6253
eclipse-3.1;91332;154
eclipse-3.1;91670;1170
eclipse-3.1;91786;20
eclipse-3.1;92063;1746
eclipse-3.1;92236;612
eclipse-3.1;92451;20
eclipse-3.1;92776;365
eclipse-3.1;92801;2961
eclipse-3.1;93069;49
eclipse-3.1;93245;36
eclipse-3.1;93249;683
eclipse-3.1;93449;18
eclipse-3.1;93567;100
eclipse-3.1;93584;16
eclipse-3.1;93623;43
eclipse-3.1;93658;161
eclipse-3.1;93854;403
eclipse-3.1;93949;100
eclipse-3.1;94007;48
eclipse-3.1;94128;30
eclipse-3.1;94182;254
eclipse-3.1;94216;307
eclipse-3.1;94391;506
eclipse-3.1;94465;54
eclipse-3.1;94537;67
eclipse-3.1;94547;26
eclipse-3.1;94571;47
eclipse-3.1;94761;41
eclipse-3.1;94769;127
eclipse-3.1;94796;137
eclipse-3.1;94836;9634
eclipse-3.1;94879;206
eclipse-3.1;94883;86
eclipse-3.1;94972;206
eclipse-3.1;95096;126
eclipse-3.1;95152;247
eclipse-3.1;95307;41
eclipse-3.1;95431;232
eclipse-3.1;95486;298
eclipse-3.1;95580;27
eclipse-3.1;95612;39
eclipse-3.1;95613;663
eclipse-3.1;95710;11748
eclipse-3.1;95731;47
eclipse-3.1;95795;1256
eclipse-3.1;95902;227
eclipse-3.1;95907;353
eclipse-3.1;95958;298
eclipse-3.1;96185;93
eclipse-3.1;96432;1589
eclipse-3.1;96470;14
eclipse-3.1;96489;36
eclipse-3.1;96527;40
eclipse-3.1;96604;2523
eclipse-3.1;96765;1235
eclipse-3.1;96820;34
eclipse-3.1;97018;26
eclipse-3.1;97199;1643
eclipse-3.1;97363;2327
eclipse-3.1;97608;496
eclipse-3.1;97655;36
eclipse-3.1;97741;16
eclipse-3.1;97792;12
eclipse-3.1;97818;5047
eclipse-3.1;98115;112
eclipse-3.1;98147;472
eclipse-3.1;98169;29
eclipse-3.1;98249;98
eclipse-3.1;98256;1277
eclipse-3.1;98272;45
eclipse-3.1;98604;47
eclipse-3.1;98605;2470
eclipse-3.1;98790;117
eclipse-3.1;98906;129
eclipse-3.1;99059;165
eclipse-3.1;99235;14
eclipse-3.1;99337;86
eclipse-3.1;99355;3874
eclipse-3.1;99423;29
eclipse-3.1;99526;33
eclipse-3.1;99693;137
swt-3.1;104966;1
swt-3.1;89533;3
swt-3.1;93380;1
