system;query ID;bug_id;rank
aspectj-1.5.3;1;28974;35
aspectj-1.5.3;2;28919;9
aspectj-1.5.3;3;29186;79
aspectj-1.5.3;4;29769;10
aspectj-1.5.3;5;29959;327
aspectj-1.5.3;6;30168;3
aspectj-1.5.3;7;31423;1
aspectj-1.5.3;8;33635;47
aspectj-1.5.3;9;32463;1
aspectj-1.5.3;10;29934;56
aspectj-1.5.3;11;34858;1
aspectj-1.5.3;12;34925;35
aspectj-1.5.3;13;36803;5
aspectj-1.5.3;14;34951;17
aspectj-1.5.3;15;37576;1
aspectj-1.5.3;16;37739;1
aspectj-1.5.3;17;38131;11
aspectj-1.5.3;18;39626;7
aspectj-1.5.3;19;40257;7
aspectj-1.5.3;20;41123;2
aspectj-1.5.3;21;40380;39
aspectj-1.5.3;22;42539;1
aspectj-1.5.3;23;42993;1
aspectj-1.5.3;24;39993;1
aspectj-1.5.3;25;43194;1116
aspectj-1.5.3;26;43033;239
aspectj-1.5.3;27;43709;852
aspectj-1.5.3;28;44117;128
aspectj-1.5.3;29;47318;12
aspectj-1.5.3;30;39436;5
aspectj-1.5.3;31;41952;1
aspectj-1.5.3;32;49250;1
aspectj-1.5.3;33;47754;1463
aspectj-1.5.3;34;49638;8
aspectj-1.5.3;35;46280;1
aspectj-1.5.3;36;50570;1
aspectj-1.5.3;37;49457;1
aspectj-1.5.3;38;48091;12
aspectj-1.5.3;39;51929;118
aspectj-1.5.3;40;36430;6
aspectj-1.5.3;41;51320;67
aspectj-1.5.3;42;48080;18
aspectj-1.5.3;43;44272;4
aspectj-1.5.3;44;51322;111
aspectj-1.5.3;45;54965;1
aspectj-1.5.3;46;47910;8
aspectj-1.5.3;47;52394;168
aspectj-1.5.3;48;54625;1
aspectj-1.5.3;49;45489;50
aspectj-1.5.3;50;50200;3
aspectj-1.5.3;51;50776;62
aspectj-1.5.3;52;53012;1
aspectj-1.5.3;53;36234;7
aspectj-1.5.3;54;47952;1
aspectj-1.5.3;55;40192;10
aspectj-1.5.3;56;31460;7
aspectj-1.5.3;57;55341;57
aspectj-1.5.3;58;57430;380
aspectj-1.5.3;59;57436;218
aspectj-1.5.3;60;59909;1
aspectj-1.5.3;61;59596;110
aspectj-1.5.3;62;59895;1
aspectj-1.5.3;63;62227;2
aspectj-1.5.3;64;72671;10
aspectj-1.5.3;65;76096;1
aspectj-1.5.3;66;73433;5
aspectj-1.5.3;67;42573;1
aspectj-1.5.3;68;70008;1
aspectj-1.5.3;69;71811;1
aspectj-1.5.3;70;72699;1
aspectj-1.5.3;71;74238;1
aspectj-1.5.3;72;59208;25
aspectj-1.5.3;73;49743;2
aspectj-1.5.3;74;53981;59
aspectj-1.5.3;75;60015;6
aspectj-1.5.3;76;61411;1
aspectj-1.5.3;77;61536;53
aspectj-1.5.3;78;53999;1
aspectj-1.5.3;79;65319;1
aspectj-1.5.3;80;68991;1
aspectj-1.5.3;81;69011;1
aspectj-1.5.3;82;46298;1
aspectj-1.5.3;83;70773;49
aspectj-1.5.3;84;71723;1
aspectj-1.5.3;85;44191;23
aspectj-1.5.3;86;72157;1
aspectj-1.5.3;87;57666;1
aspectj-1.5.3;88;58681;21
aspectj-1.5.3;89;48990;8
aspectj-1.5.3;90;64331;44
aspectj-1.5.3;91;70241;272
aspectj-1.5.3;92;69459;350
aspectj-1.5.3;93;30439;2
aspectj-1.5.3;94;71377;10
aspectj-1.5.3;95;67592;24
aspectj-1.5.3;96;67774;22
aspectj-1.5.3;97;71878;75
aspectj-1.5.3;98;72154;1
aspectj-1.5.3;99;68494;7
aspectj-1.5.3;100;72531;1
aspectj-1.5.3;101;54421;1
aspectj-1.5.3;102;49657;2
aspectj-1.5.3;103;62642;2
aspectj-1.5.3;104;70619;1
aspectj-1.5.3;105;72150;141
aspectj-1.5.3;106;74952;1
aspectj-1.5.3;107;77799;2
aspectj-1.5.3;108;77163;1
aspectj-1.5.3;109;80249;1
aspectj-1.5.3;110;80916;17
aspectj-1.5.3;111;76798;1
aspectj-1.5.3;112;82062;1
aspectj-1.5.3;113;81863;30
aspectj-1.5.3;114;82218;1
aspectj-1.5.3;115;83303;3
aspectj-1.5.3;116;83563;1
aspectj-1.5.3;117;76055;12
aspectj-1.5.3;118;82134;29
aspectj-1.5.3;119;86789;217
aspectj-1.5.3;120;87376;26
aspectj-1.5.3;121;88652;3
aspectj-1.5.3;122;96371;6
aspectj-1.5.3;123;83565;4
aspectj-1.5.3;124;81846;15
aspectj-1.5.3;125;99168;33
aspectj-1.5.3;126;98320;98
aspectj-1.5.3;127;100227;4
aspectj-1.5.3;128;82171;1
aspectj-1.5.3;129;82752;5
aspectj-1.5.3;130;102459;2
aspectj-1.5.3;131;109173;2
aspectj-1.5.3;132;92880;79
aspectj-1.5.3;133;101047;34
aspectj-1.5.3;134;108118;7
aspectj-1.5.3;135;100195;528
aspectj-1.5.3;136;112243;3
aspectj-1.5.3;137;107299;405
aspectj-1.5.3;138;113510;51
aspectj-1.5.3;139;103741;213
aspectj-1.5.3;140;95529;2
aspectj-1.5.3;141;115275;1
aspectj-1.5.3;142;95517;529
aspectj-1.5.3;143;115252;7
aspectj-1.5.3;144;114875;16
aspectj-1.5.3;145;116626;5
aspectj-1.5.3;146;115607;99
aspectj-1.5.3;147;113511;1
aspectj-1.5.3;148;117296;5
aspectj-1.5.3;149;117189;2
aspectj-1.5.3;150;114343;4
aspectj-1.5.3;151;117681;1
aspectj-1.5.3;152;115251;13
aspectj-1.5.3;153;116949;24
aspectj-1.5.3;154;112736;4
aspectj-1.5.3;155;118192;1
aspectj-1.5.3;156;118599;1058
aspectj-1.5.3;157;117882;17
aspectj-1.5.3;158;117209;1
aspectj-1.5.3;159;118715;1
aspectj-1.5.3;160;119543;86
aspectj-1.5.3;161;109614;7
aspectj-1.5.3;162;119210;38
aspectj-1.5.3;163;119353;1
aspectj-1.5.3;164;120351;24
aspectj-1.5.3;165;119451;81
aspectj-1.5.3;166;120543;2
aspectj-1.5.3;167;120474;26
aspectj-1.5.3;168;120363;1
aspectj-1.5.3;169;120401;65
aspectj-1.5.3;170;113257;10
aspectj-1.5.3;171;119749;1
aspectj-1.5.3;172;120909;201
aspectj-1.5.3;173;119539;5
aspectj-1.5.3;174;124105;28
aspectj-1.5.3;175;123695;56
aspectj-1.5.3;176;122728;2
aspectj-1.5.3;177;58520;5
aspectj-1.5.3;178;123612;18
aspectj-1.5.3;179;124808;1
aspectj-1.5.3;180;124654;11
aspectj-1.5.3;181;124999;5
aspectj-1.5.3;182;121395;1
aspectj-1.5.3;183;125101;80
aspectj-1.5.3;184;125405;6
aspectj-1.5.3;185;125810;423
aspectj-1.5.3;186;126328;1
aspectj-1.5.3;187;123212;2
aspectj-1.5.3;188;120356;1
aspectj-1.5.3;189;125475;1
aspectj-1.5.3;190;122370;4
aspectj-1.5.3;191;128128;3
aspectj-1.5.3;192;128699;27
aspectj-1.5.3;193;128655;13
aspectj-1.5.3;194;128744;84
aspectj-1.5.3;195;122742;3
aspectj-1.5.3;196;128618;1
aspectj-1.5.3;197;128237;18
aspectj-1.5.3;198;121616;62
aspectj-1.5.3;199;125699;39
aspectj-1.5.3;200;131933;34
aspectj-1.5.3;201;131932;30
aspectj-1.5.3;202;132130;77
aspectj-1.5.3;203;129566;180
aspectj-1.5.3;204;133307;17
aspectj-1.5.3;205;131505;2
aspectj-1.5.3;206;130869;13
aspectj-1.5.3;207;130837;15
aspectj-1.5.3;208;132926;119
aspectj-1.5.3;209;135001;14
aspectj-1.5.3;210;134541;1
aspectj-1.5.3;211;136665;91
aspectj-1.5.3;212;138143;11
aspectj-1.5.3;213;138540;2
aspectj-1.5.3;214;138286;106
aspectj-1.5.3;215;135780;100
aspectj-1.5.3;216;118781;7
aspectj-1.5.3;217;133117;1
aspectj-1.5.3;218;135068;1
aspectj-1.5.3;219;82570;11
aspectj-1.5.3;220;142165;78
aspectj-1.5.3;221;141956;9
aspectj-1.5.3;222;138171;2
aspectj-1.5.3;223;125480;2
aspectj-1.5.3;224;132349;46
aspectj-1.5.3;225;72528;3
aspectj-1.5.3;226;120739;1
aspectj-1.5.3;227;145086;2
aspectj-1.5.3;228;145950;7
aspectj-1.5.3;229;146546;1
aspectj-1.5.3;230;122580;2
aspectj-1.5.3;231;132591;1
aspectj-1.5.3;232;136707;4
aspectj-1.5.3;233;147701;36
aspectj-1.5.3;234;147801;7
aspectj-1.5.3;235;148545;933
aspectj-1.5.3;236;148536;17
aspectj-1.5.3;237;148786;17
aspectj-1.5.3;238;148388;5
aspectj-1.5.3;239;148727;1
aspectj-1.5.3;240;148693;24
aspectj-1.5.3;241;148537;111
aspectj-1.5.3;242;148972;16
aspectj-1.5.3;243;148737;160
aspectj-1.5.3;244;148409;1
aspectj-1.5.3;245;149305;277
aspectj-1.5.3;246;150671;37
aspectj-1.5.3;247;151673;19
aspectj-1.5.3;248;151845;100
aspectj-1.5.3;249;152257;4
aspectj-1.5.3;250;151938;2
aspectj-1.5.3;251;152388;58
aspectj-1.5.3;252;152631;4
aspectj-1.5.3;253;152871;1
aspectj-1.5.3;254;152873;1
aspectj-1.5.3;255;152589;2
aspectj-1.5.3;256;130300;2
aspectj-1.5.3;257;154332;1
aspectj-1.5.3;258;153535;71
aspectj-1.5.3;259;129525;1
aspectj-1.5.3;260;155148;43
aspectj-1.5.3;261;155238;3
aspectj-1.5.3;262;155972;3
aspectj-1.5.3;263;151182;1
aspectj-1.5.3;264;156962;4
aspectj-1.5.3;265;153845;12
aspectj-1.5.3;266;153490;11
aspectj-1.5.3;267;152848;137
aspectj-1.5.3;268;158573;1
aspectj-1.5.3;269;156904;1
aspectj-1.5.3;270;149071;1
aspectj-1.5.3;271;152366;38
aspectj-1.5.3;272;159896;1
aspectj-1.5.3;273;158624;1
aspectj-1.5.3;274;123423;1
aspectj-1.5.3;275;148908;3
aspectj-1.5.3;276;161217;20
aspectj-1.5.3;277;149289;1
aspectj-1.5.3;278;138219;30
aspectj-1.5.3;279;138223;7
aspectj-1.5.3;280;138215;6
aspectj-1.5.3;281;158412;16
aspectj-1.5.3;282;173602;64
aspectj-1.5.3;283;104218;1
aspectj-1.5.3;284;145693;16
aspectj-1.5.3;285;64069;6
aspectj-1.5.3;286;150271;1
eclipse-3.1;1;76098;1
eclipse-3.1;2;75967;466
eclipse-3.1;3;76138;5
eclipse-3.1;4;72507;26
eclipse-3.1;5;75917;1
eclipse-3.1;6;76225;1
eclipse-3.1;7;76268;4
eclipse-3.1;8;76270;2
eclipse-3.1;9;76208;278
eclipse-3.1;10;75739;1
eclipse-3.1;11;76518;1
eclipse-3.1;12;76677;25
eclipse-3.1;13;76812;3
eclipse-3.1;14;76207;222
eclipse-3.1;15;76513;2
eclipse-3.1;16;76535;1
eclipse-3.1;17;76712;1
eclipse-3.1;18;76838;4
eclipse-3.1;19;76510;5
eclipse-3.1;20;76860;10
eclipse-3.1;21;76532;133
eclipse-3.1;22;76843;5
eclipse-3.1;23;76969;6
eclipse-3.1;24;76217;37
eclipse-3.1;25;76973;9
eclipse-3.1;26;76514;1
eclipse-3.1;27;76529;199
eclipse-3.1;28;76675;3
eclipse-3.1;29;77040;3
eclipse-3.1;30;77046;926
eclipse-3.1;31;77064;5
eclipse-3.1;32;77057;1
eclipse-3.1;33;77072;3
eclipse-3.1;34;77065;5
eclipse-3.1;35;76249;2
eclipse-3.1;36;77246;29
eclipse-3.1;37;77029;1
eclipse-3.1;38;77189;55
eclipse-3.1;39;76986;2
eclipse-3.1;40;77190;30
eclipse-3.1;41;77068;39
eclipse-3.1;42;75793;348
eclipse-3.1;43;77306;2
eclipse-3.1;44;77311;1
eclipse-3.1;45;77033;1
eclipse-3.1;46;77116;3
eclipse-3.1;47;76427;2
eclipse-3.1;48;76516;9
eclipse-3.1;49;76976;1
eclipse-3.1;50;77218;3
eclipse-3.1;51;77216;23
eclipse-3.1;52;77238;13
eclipse-3.1;53;77295;2
eclipse-3.1;54;77396;1
eclipse-3.1;55;76401;81
eclipse-3.1;56;77019;1
eclipse-3.1;57;77048;71
eclipse-3.1;58;77073;1
eclipse-3.1;59;77120;1
eclipse-3.1;60;77378;11
eclipse-3.1;61;76255;11
eclipse-3.1;62;77253;32
eclipse-3.1;63;77421;18
eclipse-3.1;64;76869;9
eclipse-3.1;65;77532;0
eclipse-3.1;66;76524;1
eclipse-3.1;67;77036;486
eclipse-3.1;68;76472;1650
eclipse-3.1;69;76093;1
eclipse-3.1;70;76766;53
eclipse-3.1;71;77175;2
eclipse-3.1;72;77129;1
eclipse-3.1;73;76837;131
eclipse-3.1;74;76565;1
eclipse-3.1;75;77555;1569
eclipse-3.1;76;77323;84
eclipse-3.1;77;77786;4
eclipse-3.1;78;77549;8
eclipse-3.1;79;77703;198
eclipse-3.1;80;77212;124
eclipse-3.1;81;77249;21
eclipse-3.1;82;77772;5
eclipse-3.1;83;77754;56
eclipse-3.1;84;77661;1
eclipse-3.1;85;77244;160
eclipse-3.1;86;77961;99
eclipse-3.1;87;77640;1
eclipse-3.1;88;77994;1
eclipse-3.1;89;77998;1
eclipse-3.1;90;77727;213
eclipse-3.1;91;77798;1
eclipse-3.1;92;78030;1
eclipse-3.1;93;78028;2
eclipse-3.1;94;77973;7
eclipse-3.1;95;77788;17
eclipse-3.1;96;77975;15
eclipse-3.1;97;77748;16
eclipse-3.1;98;76960;1
eclipse-3.1;99;77670;1
eclipse-3.1;100;77721;4
eclipse-3.1;101;77730;5
eclipse-3.1;102;77991;1
eclipse-3.1;103;77519;34
eclipse-3.1;104;77777;5
eclipse-3.1;105;77723;1
eclipse-3.1;106;77202;3
eclipse-3.1;107;77386;2
eclipse-3.1;108;77779;4
eclipse-3.1;109;78262;8
eclipse-3.1;110;77401;3
eclipse-3.1;111;78249;1
eclipse-3.1;112;78302;3
eclipse-3.1;113;78191;1
eclipse-3.1;114;78201;918
eclipse-3.1;115;78196;1
eclipse-3.1;116;77995;6
eclipse-3.1;117;77893;25
eclipse-3.1;118;77680;1
eclipse-3.1;119;78193;1
eclipse-3.1;120;78366;37
eclipse-3.1;121;77416;4
eclipse-3.1;122;77948;123
eclipse-3.1;123;77188;1
eclipse-3.1;124;78234;2
eclipse-3.1;125;78245;280
eclipse-3.1;126;78456;6
eclipse-3.1;127;77599;9
eclipse-3.1;128;78494;1
eclipse-3.1;129;75851;1
eclipse-3.1;130;78647;23
eclipse-3.1;131;78162;4
eclipse-3.1;132;78317;15
eclipse-3.1;133;78513;3
eclipse-3.1;134;78246;5
eclipse-3.1;135;78364;23
eclipse-3.1;136;78711;45
eclipse-3.1;137;79022;19
eclipse-3.1;138;78853;142
eclipse-3.1;139;78386;7
eclipse-3.1;140;79101;7
eclipse-3.1;141;77060;225
eclipse-3.1;142;78737;25
eclipse-3.1;143;78010;3549
eclipse-3.1;144;77380;8
eclipse-3.1;145;78739;1
eclipse-3.1;146;77039;71
eclipse-3.1;147;78996;1
eclipse-3.1;148;78626;1
eclipse-3.1;149;78900;12
eclipse-3.1;150;78759;4
eclipse-3.1;151;79032;68
eclipse-3.1;152;79117;24
eclipse-3.1;153;79247;10
eclipse-3.1;154;78338;2
eclipse-3.1;155;78233;5532
eclipse-3.1;156;79200;1
eclipse-3.1;157;78881;3
eclipse-3.1;158;79194;2
eclipse-3.1;159;79394;1
eclipse-3.1;160;78548;90
eclipse-3.1;161;78559;22
eclipse-3.1;162;79107;17
eclipse-3.1;163;79466;1
eclipse-3.1;164;79414;209
eclipse-3.1;165;78466;924
eclipse-3.1;166;79481;1
eclipse-3.1;167;78799;1
eclipse-3.1;168;78648;1
eclipse-3.1;169;79602;1
eclipse-3.1;170;79465;15
eclipse-3.1;171;78627;3
eclipse-3.1;172;79784;2
eclipse-3.1;173;79153;1
eclipse-3.1;174;79081;1
eclipse-3.1;175;79008;39
eclipse-3.1;176;79757;6
eclipse-3.1;177;76216;2
eclipse-3.1;178;78646;9
eclipse-3.1;179;79822;3
eclipse-3.1;180;79945;1
eclipse-3.1;181;79835;1
eclipse-3.1;182;79988;5
eclipse-3.1;183;78989;1
eclipse-3.1;184;79897;202
eclipse-3.1;185;79949;12
eclipse-3.1;186;78141;535
eclipse-3.1;187;76226;10
eclipse-3.1;188;79841;1
eclipse-3.1;189;79838;1
eclipse-3.1;190;78847;32
eclipse-3.1;191;79832;1
eclipse-3.1;192;79735;24
eclipse-3.1;193;77770;1
eclipse-3.1;194;80120;7
eclipse-3.1;195;77239;849
eclipse-3.1;196;79304;227
eclipse-3.1;197;79450;3
eclipse-3.1;198;79952;3
eclipse-3.1;199;79306;1
eclipse-3.1;200;79486;28
eclipse-3.1;201;79884;121
eclipse-3.1;202;78418;1
eclipse-3.1;203;79772;716
eclipse-3.1;204;80382;82
eclipse-3.1;205;79788;1
eclipse-3.1;206;77548;2
eclipse-3.1;207;80288;2
eclipse-3.1;208;80227;5
eclipse-3.1;209;80500;27
eclipse-3.1;210;80573;7
eclipse-3.1;211;80546;1
eclipse-3.1;212;80617;2
eclipse-3.1;213;80331;3
eclipse-3.1;214;80409;2
eclipse-3.1;215;79951;80
eclipse-3.1;216;80541;1
eclipse-3.1;217;78335;3
eclipse-3.1;218;79255;1
eclipse-3.1;219;78423;13
eclipse-3.1;220;80284;1
eclipse-3.1;221;80229;105
eclipse-3.1;222;80679;1
eclipse-3.1;223;80653;6
eclipse-3.1;224;80651;204
eclipse-3.1;225;80287;112
eclipse-3.1;226;80610;2
eclipse-3.1;227;80726;24
eclipse-3.1;228;80728;1
eclipse-3.1;229;80720;2
eclipse-3.1;230;80373;1
eclipse-3.1;231;80729;1
eclipse-3.1;232;80555;5
eclipse-3.1;233;80707;4
eclipse-3.1;234;77449;22
eclipse-3.1;235;78198;17
eclipse-3.1;236;80493;82
eclipse-3.1;237;78248;2
eclipse-3.1;238;76862;1
eclipse-3.1;239;80332;1
eclipse-3.1;240;80879;10
eclipse-3.1;241;79510;12
eclipse-3.1;242;80068;2
eclipse-3.1;243;80046;150
eclipse-3.1;244;77330;1
eclipse-3.1;245;78089;11
eclipse-3.1;246;78160;150
eclipse-3.1;247;77034;1773
eclipse-3.1;248;78735;4
eclipse-3.1;249;78740;84
eclipse-3.1;250;78905;3
eclipse-3.1;251;79091;53
eclipse-3.1;252;77573;31
eclipse-3.1;253;78275;5964
eclipse-3.1;254;77184;105
eclipse-3.1;255;78931;11
eclipse-3.1;256;80384;4
eclipse-3.1;257;78714;1
eclipse-3.1;258;78801;25
eclipse-3.1;259;79108;3
eclipse-3.1;260;79271;103
eclipse-3.1;261;80602;5
eclipse-3.1;262;79362;4
eclipse-3.1;263;79814;4
eclipse-3.1;264;79809;3
eclipse-3.1;265;79098;3
eclipse-3.1;266;79110;2
eclipse-3.1;267;79974;1
eclipse-3.1;268;77359;7
eclipse-3.1;269;79136;1
eclipse-3.1;270;80957;203
eclipse-3.1;271;80960;5
eclipse-3.1;272;79460;2
eclipse-3.1;273;79263;14
eclipse-3.1;274;79109;1
eclipse-3.1;275;79544;71
eclipse-3.1;276;79570;16
eclipse-3.1;277;79545;866
eclipse-3.1;278;79612;3
eclipse-3.1;279;79609;30
eclipse-3.1;280;78315;72
eclipse-3.1;281;78770;1
eclipse-3.1;282;78793;8
eclipse-3.1;283;80769;4
eclipse-3.1;284;77738;1
eclipse-3.1;285;77398;76
eclipse-3.1;286;78878;1
eclipse-3.1;287;80400;124
eclipse-3.1;288;79395;2
eclipse-3.1;289;80780;12
eclipse-3.1;290;79512;238
eclipse-3.1;291;80672;10
eclipse-3.1;292;77915;1
eclipse-3.1;293;80378;3
eclipse-3.1;294;79690;16
eclipse-3.1;295;80114;12
eclipse-3.1;296;80041;3
eclipse-3.1;297;79795;215
eclipse-3.1;298;81168;1
eclipse-3.1;299;79779;165
eclipse-3.1;300;79668;1
eclipse-3.1;301;81239;1
eclipse-3.1;302;79752;1
eclipse-3.1;303;80596;8
eclipse-3.1;304;77704;3
eclipse-3.1;305;80133;598
eclipse-3.1;306;80179;276
eclipse-3.1;307;80174;1
eclipse-3.1;308;80385;309
eclipse-3.1;309;78762;2236
eclipse-3.1;310;79148;13
eclipse-3.1;311;79638;8
eclipse-3.1;312;80482;3
eclipse-3.1;313;80020;1098
eclipse-3.1;314;80259;1
eclipse-3.1;315;78947;4
eclipse-3.1;316;81280;3
eclipse-3.1;317;80522;4
eclipse-3.1;318;81040;1
eclipse-3.1;319;80788;4
eclipse-3.1;320;81023;28
eclipse-3.1;321;81317;808
eclipse-3.1;322;81090;1
eclipse-3.1;323;81001;166
eclipse-3.1;324;81164;1
eclipse-3.1;325;79957;8
eclipse-3.1;326;81078;5
eclipse-3.1;327;80694;1
eclipse-3.1;328;81049;47
eclipse-3.1;329;81299;12
eclipse-3.1;330;81268;45
eclipse-3.1;331;81274;7
eclipse-3.1;332;81199;10
eclipse-3.1;333;80276;2
eclipse-3.1;334;78321;1603
eclipse-3.1;335;81349;4
eclipse-3.1;336;81435;2
eclipse-3.1;337;81075;6
eclipse-3.1;338;81348;3
eclipse-3.1;339;81424;1
eclipse-3.1;340;79793;88
eclipse-3.1;341;75806;1
eclipse-3.1;342;81234;2
eclipse-3.1;343;81371;435
eclipse-3.1;344;81484;1
eclipse-3.1;345;80721;6
eclipse-3.1;346;80677;46
eclipse-3.1;347;78854;1
eclipse-3.1;348;80387;120
eclipse-3.1;349;81529;1
eclipse-3.1;350;79477;1
eclipse-3.1;351;81540;1
eclipse-3.1;352;81541;5
eclipse-3.1;353;82031;2
eclipse-3.1;354;82168;11
eclipse-3.1;355;82108;1
eclipse-3.1;356;82244;5
eclipse-3.1;357;81870;140
eclipse-3.1;358;81563;2
eclipse-3.1;359;81276;2503
eclipse-3.1;360;80977;66
eclipse-3.1;361;80627;4
eclipse-3.1;362;80333;1
eclipse-3.1;363;82270;1
eclipse-3.1;364;81479;1
eclipse-3.1;365;81409;3
eclipse-3.1;366;81970;11
eclipse-3.1;367;82172;122
eclipse-3.1;368;80574;7
eclipse-3.1;369;80551;2
eclipse-3.1;370;82284;193
eclipse-3.1;371;81042;1
eclipse-3.1;372;82281;1
eclipse-3.1;373;34150;6
eclipse-3.1;374;76779;1191
eclipse-3.1;375;82368;11
eclipse-3.1;376;82370;204
eclipse-3.1;377;81542;7
eclipse-3.1;378;82150;5
eclipse-3.1;379;82416;20
eclipse-3.1;380;82198;1
eclipse-3.1;381;82393;4
eclipse-3.1;382;82167;6
eclipse-3.1;383;82366;101
eclipse-3.1;384;82345;1
eclipse-3.1;385;81270;13
eclipse-3.1;386;81328;6
eclipse-3.1;387;82410;1
eclipse-3.1;388;78453;33
eclipse-3.1;389;80924;63
eclipse-3.1;390;82280;3
eclipse-3.1;391;82553;471
eclipse-3.1;392;80991;2
eclipse-3.1;393;82402;98
eclipse-3.1;394;82403;5
eclipse-3.1;395;82592;47
eclipse-3.1;396;82585;1894
eclipse-3.1;397;82376;2
eclipse-3.1;398;82396;3
eclipse-3.1;399;81029;1
eclipse-3.1;400;82344;9
eclipse-3.1;401;81707;2
eclipse-3.1;402;82681;1
eclipse-3.1;403;82718;3
eclipse-3.1;404;78013;93
eclipse-3.1;405;82713;1
eclipse-3.1;406;82478;239
eclipse-3.1;407;76272;3
eclipse-3.1;408;81236;1
eclipse-3.1;409;82708;1
eclipse-3.1;410;82509;1
eclipse-3.1;411;82479;84
eclipse-3.1;412;82909;1
eclipse-3.1;413;82894;10
eclipse-3.1;414;82862;1
eclipse-3.1;415;82789;1
eclipse-3.1;416;80528;6
eclipse-3.1;417;70238;94
eclipse-3.1;418;81717;805
eclipse-3.1;419;82908;19
eclipse-3.1;420;82835;2
eclipse-3.1;421;82880;2
eclipse-3.1;422;82485;1
eclipse-3.1;423;76520;3
eclipse-3.1;424;78923;5
eclipse-3.1;425;82486;29
eclipse-3.1;426;82579;44
eclipse-3.1;427;83101;1
eclipse-3.1;428;82528;7
eclipse-3.1;429;81296;1
eclipse-3.1;430;82959;36
eclipse-3.1;431;82397;1
eclipse-3.1;432;82866;18
eclipse-3.1;433;82993;3
eclipse-3.1;434;83035;6
eclipse-3.1;435;80988;87
eclipse-3.1;436;83132;1
eclipse-3.1;437;80506;5
eclipse-3.1;438;81265;8
eclipse-3.1;439;82865;2
eclipse-3.1;440;83227;52
eclipse-3.1;441;83103;2
eclipse-3.1;442;82871;3
eclipse-3.1;443;83250;1495
eclipse-3.1;444;82883;2
eclipse-3.1;445;82885;6
eclipse-3.1;446;82886;3
eclipse-3.1;447;82895;12
eclipse-3.1;448;82900;4
eclipse-3.1;449;82840;2
eclipse-3.1;450;82729;8
eclipse-3.1;451;82931;1
eclipse-3.1;452;83194;2
eclipse-3.1;453;83053;78
eclipse-3.1;454;83131;2
eclipse-3.1;455;82833;2
eclipse-3.1;456;82875;31
eclipse-3.1;457;82869;4
eclipse-3.1;458;83235;1
eclipse-3.1;459;83277;4
eclipse-3.1;460;77757;39
eclipse-3.1;461;58185;1
eclipse-3.1;462;83410;1
eclipse-3.1;463;82242;1
eclipse-3.1;464;83475;1
eclipse-3.1;465;82492;6
eclipse-3.1;466;82199;1
eclipse-3.1;467;83365;32
eclipse-3.1;468;83419;23
eclipse-3.1;469;82912;2
eclipse-3.1;470;75891;1
eclipse-3.1;471;83254;9
eclipse-3.1;472;82498;5
eclipse-3.1;473;83153;406
eclipse-3.1;474;83261;1
eclipse-3.1;475;83644;1
eclipse-3.1;476;83367;1
eclipse-3.1;477;83595;174
eclipse-3.1;478;82126;1
eclipse-3.1;479;83555;2
eclipse-3.1;480;82984;1
eclipse-3.1;481;82807;2
eclipse-3.1;482;83251;110
eclipse-3.1;483;83674;1
eclipse-3.1;484;82346;95
eclipse-3.1;485;81449;564
eclipse-3.1;486;78534;2
eclipse-3.1;487;83273;1
eclipse-3.1;488;83343;18
eclipse-3.1;489;83436;3
eclipse-3.1;490;83779;42
eclipse-3.1;491;76211;1
eclipse-3.1;492;77681;2
eclipse-3.1;493;81367;3
eclipse-3.1;494;78988;2
eclipse-3.1;495;83748;9
eclipse-3.1;496;82576;1
eclipse-3.1;497;83385;1
eclipse-3.1;498;83825;3
eclipse-3.1;499;83980;2
eclipse-3.1;500;75849;17
eclipse-3.1;501;84023;16
eclipse-3.1;502;83054;17
eclipse-3.1;503;83558;1
eclipse-3.1;504;76806;14
eclipse-3.1;505;83541;73
eclipse-3.1;506;81313;3
eclipse-3.1;507;82870;96
eclipse-3.1;508;83647;2
eclipse-3.1;509;79754;90
eclipse-3.1;510;81463;1
eclipse-3.1;511;76534;367
eclipse-3.1;512;83322;71
eclipse-3.1;513;84217;37
eclipse-3.1;514;83702;1
eclipse-3.1;515;84197;2
eclipse-3.1;516;83598;405
eclipse-3.1;517;84072;12
eclipse-3.1;518;83237;1
eclipse-3.1;519;83256;1
eclipse-3.1;520;80556;1
eclipse-3.1;521;66556;2
eclipse-3.1;522;84258;1
eclipse-3.1;523;83453;85
eclipse-3.1;524;83455;13
eclipse-3.1;525;83577;8
eclipse-3.1;526;84190;15
eclipse-3.1;527;84078;1
eclipse-3.1;528;84227;1
eclipse-3.1;529;84354;25
eclipse-3.1;530;81521;34
eclipse-3.1;531;83742;23
eclipse-3.1;532;83699;294
eclipse-3.1;533;84490;4
eclipse-3.1;534;84271;1
eclipse-3.1;535;84493;298
eclipse-3.1;536;82260;49
eclipse-3.1;537;84189;4
eclipse-3.1;538;84273;15
eclipse-3.1;539;84449;10
eclipse-3.1;540;84275;5
eclipse-3.1;541;83745;32
eclipse-3.1;542;84392;76
eclipse-3.1;543;83317;6
eclipse-3.1;544;77781;1
eclipse-3.1;545;84454;1
eclipse-3.1;546;80069;3
eclipse-3.1;547;81428;15
eclipse-3.1;548;84584;5
eclipse-3.1;549;84259;2
eclipse-3.1;550;83607;3
eclipse-3.1;551;83448;22
eclipse-3.1;552;82777;4
eclipse-3.1;553;82799;22
eclipse-3.1;554;84330;1
eclipse-3.1;555;84546;6
eclipse-3.1;556;84331;1
eclipse-3.1;557;82868;1
eclipse-3.1;558;84605;5
eclipse-3.1;559;84385;5
eclipse-3.1;560;83794;1
eclipse-3.1;561;80435;2
eclipse-3.1;562;84394;1
eclipse-3.1;563;84342;29
eclipse-3.1;564;84082;1
eclipse-3.1;565;83358;1
eclipse-3.1;566;81058;299
eclipse-3.1;567;84637;2
eclipse-3.1;568;84657;65
eclipse-3.1;569;84194;1394
eclipse-3.1;570;84588;1
eclipse-3.1;571;84587;1
eclipse-3.1;572;84257;77
eclipse-3.1;573;78553;7
eclipse-3.1;574;84799;1
eclipse-3.1;575;84795;1
eclipse-3.1;576;82318;11
eclipse-3.1;577;84586;1
eclipse-3.1;578;75797;79
eclipse-3.1;579;82939;1
eclipse-3.1;580;84249;8
eclipse-3.1;581;85002;133
eclipse-3.1;582;84604;3
eclipse-3.1;583;85004;7
eclipse-3.1;584;84752;1
eclipse-3.1;585;82461;268
eclipse-3.1;586;79419;75
eclipse-3.1;587;80325;1
eclipse-3.1;588;81324;1
eclipse-3.1;589;84825;50
eclipse-3.1;590;84672;16
eclipse-3.1;591;84907;4
eclipse-3.1;592;85048;1
eclipse-3.1;593;84958;18
eclipse-3.1;594;84761;2
eclipse-3.1;595;84935;1
eclipse-3.1;596;80597;2
eclipse-3.1;597;85101;2
eclipse-3.1;598;85127;271
eclipse-3.1;599;84983;24
eclipse-3.1;600;85139;1
eclipse-3.1;601;79883;1
eclipse-3.1;602;82137;57
eclipse-3.1;603;82558;843
eclipse-3.1;604;83489;27
eclipse-3.1;605;83236;97
eclipse-3.1;606;83600;7
eclipse-3.1;607;85150;77
eclipse-3.1;608;84932;10
eclipse-3.1;609;83793;60
eclipse-3.1;610;84834;48
eclipse-3.1;611;84951;7
eclipse-3.1;612;83713;26
eclipse-3.1;613;82504;85
eclipse-3.1;614;82648;1
eclipse-3.1;615;79334;141
eclipse-3.1;616;82542;14
eclipse-3.1;617;80800;1
eclipse-3.1;618;85272;2
eclipse-3.1;619;84912;1408
eclipse-3.1;620;83364;258
eclipse-3.1;621;85277;2078
eclipse-3.1;622;83245;1
eclipse-3.1;623;82405;1
eclipse-3.1;624;84075;2
eclipse-3.1;625;84925;8
eclipse-3.1;626;85291;13
eclipse-3.1;627;80839;1
eclipse-3.1;628;85241;174
eclipse-3.1;629;82987;1
eclipse-3.1;630;84933;198
eclipse-3.1;631;85007;2
eclipse-3.1;632;85023;103
eclipse-3.1;633;85325;17
eclipse-3.1;634;85344;2666
eclipse-3.1;635;82891;18
eclipse-3.1;636;83507;112
eclipse-3.1;637;84999;7
eclipse-3.1;638;84641;4
eclipse-3.1;639;83896;9
eclipse-3.1;640;83359;1
eclipse-3.1;641;84724;91
eclipse-3.1;642;82136;59
eclipse-3.1;643;84007;1
eclipse-3.1;644;82253;1
eclipse-3.1;645;84787;6
eclipse-3.1;646;82616;1
eclipse-3.1;647;82670;2
eclipse-3.1;648;82510;34
eclipse-3.1;649;83011;14
eclipse-3.1;650;82985;2
eclipse-3.1;651;83095;1
eclipse-3.1;652;83315;1
eclipse-3.1;653;83013;14
eclipse-3.1;654;84870;2
eclipse-3.1;655;83098;314
eclipse-3.1;656;85215;9
eclipse-3.1;657;84008;25
eclipse-3.1;658;84252;1
eclipse-3.1;659;84806;22
eclipse-3.1;660;83297;1
eclipse-3.1;661;84437;1
eclipse-3.1;662;82859;750
eclipse-3.1;663;81244;9
eclipse-3.1;664;83032;21
eclipse-3.1;665;83536;89
eclipse-3.1;666;83860;248
eclipse-3.1;667;83219;129
eclipse-3.1;668;83817;78
eclipse-3.1;669;84181;1
eclipse-3.1;670;78934;28
eclipse-3.1;671;83383;282
eclipse-3.1;672;84504;14
eclipse-3.1;673;84416;255
eclipse-3.1;674;84558;24
eclipse-3.1;675;83648;2
eclipse-3.1;676;84717;13
eclipse-3.1;677;84778;3
eclipse-3.1;678;63433;70
eclipse-3.1;679;84990;1
eclipse-3.1;680;84168;146
eclipse-3.1;681;84573;308
eclipse-3.1;682;84141;10
eclipse-3.1;683;82326;2
eclipse-3.1;684;84617;746
eclipse-3.1;685;84700;105
eclipse-3.1;686;85306;5
eclipse-3.1;687;83284;1
eclipse-3.1;688;82617;11
eclipse-3.1;689;79180;1
eclipse-3.1;690;82605;1
eclipse-3.1;691;84763;2416
eclipse-3.1;692;85169;1
eclipse-3.1;693;80648;1
eclipse-3.1;694;80058;121
eclipse-3.1;695;82388;1
eclipse-3.1;696;85311;301
eclipse-3.1;697;79441;11
eclipse-3.1;698;83700;1
eclipse-3.1;699;82814;40
eclipse-3.1;700;83369;1
eclipse-3.1;701;81614;2
eclipse-3.1;702;85428;1
eclipse-3.1;703;83262;676
eclipse-3.1;704;80830;1
eclipse-3.1;705;84578;6
eclipse-3.1;706;82905;5
eclipse-3.1;707;85409;3
eclipse-3.1;708;83182;7
eclipse-3.1;709;85434;3679
eclipse-3.1;710;85686;23
eclipse-3.1;711;85582;1227
eclipse-3.1;712;85653;2
eclipse-3.1;713;85254;4
eclipse-3.1;714;85590;1
eclipse-3.1;715;85696;306
eclipse-3.1;716;85532;17
eclipse-3.1;717;84111;4
eclipse-3.1;718;85603;7
eclipse-3.1;719;85390;1
eclipse-3.1;720;85433;7
eclipse-3.1;721;85302;217
eclipse-3.1;722;85550;8
eclipse-3.1;723;85473;2
eclipse-3.1;724;85663;2
eclipse-3.1;725;85330;1
eclipse-3.1;726;85579;1
eclipse-3.1;727;85701;1
eclipse-3.1;728;85452;19
eclipse-3.1;729;84113;1
eclipse-3.1;730;79433;155
eclipse-3.1;731;81983;1
eclipse-3.1;732;81830;4
eclipse-3.1;733;85694;1
eclipse-3.1;734;84557;155
eclipse-3.1;735;85773;3
eclipse-3.1;736;85829;80
eclipse-3.1;737;85446;1
eclipse-3.1;738;76293;17
eclipse-3.1;739;84350;34
eclipse-3.1;740;85740;1
eclipse-3.1;741;86028;3
eclipse-3.1;742;85623;1
eclipse-3.1;743;84694;1
eclipse-3.1;744;86219;2382
eclipse-3.1;745;85451;1
eclipse-3.1;746;85718;1
eclipse-3.1;747;86164;1
eclipse-3.1;748;85890;1
eclipse-3.1;749;85872;3
eclipse-3.1;750;85734;20
eclipse-3.1;751;86222;82
eclipse-3.1;752;86000;8
eclipse-3.1;753;86426;97
eclipse-3.1;754;86614;69
eclipse-3.1;755;85074;1
eclipse-3.1;756;85322;3
eclipse-3.1;757;85964;116
eclipse-3.1;758;86030;1
eclipse-3.1;759;86199;5
eclipse-3.1;760;86381;134
eclipse-3.1;761;83464;1
eclipse-3.1;762;86450;69
eclipse-3.1;763;86363;3
eclipse-3.1;764;86727;429
eclipse-3.1;765;86278;384
eclipse-3.1;766;86573;2
eclipse-3.1;767;86847;182
eclipse-3.1;768;84012;2
eclipse-3.1;769;87133;1
eclipse-3.1;770;82273;3
eclipse-3.1;771;87108;1
eclipse-3.1;772;77234;64
eclipse-3.1;773;78588;1
eclipse-3.1;774;87194;1
eclipse-3.1;775;86917;856
eclipse-3.1;776;86850;3
eclipse-3.1;777;85600;4
eclipse-3.1;778;85626;2
eclipse-3.1;779;87198;2957
eclipse-3.1;780;86632;30
eclipse-3.1;781;87071;19
eclipse-3.1;782;84362;1
eclipse-3.1;783;84742;2
eclipse-3.1;784;87363;11
eclipse-3.1;785;87081;1
eclipse-3.1;786;86659;3
eclipse-3.1;787;86174;143
eclipse-3.1;788;84218;3
eclipse-3.1;789;87421;1
eclipse-3.1;790;86793;1
eclipse-3.1;791;86733;2
eclipse-3.1;792;87458;1
eclipse-3.1;793;87014;1
eclipse-3.1;794;86918;25
eclipse-3.1;795;86571;6
eclipse-3.1;796;79808;3
eclipse-3.1;797;83636;3
eclipse-3.1;798;86103;1
eclipse-3.1;799;86995;1
eclipse-3.1;800;75786;1
eclipse-3.1;801;87676;216
eclipse-3.1;802;76668;1
eclipse-3.1;803;84689;11
eclipse-3.1;804;75752;1
eclipse-3.1;805;87850;1
eclipse-3.1;806;87360;1
eclipse-3.1;807;82802;4
eclipse-3.1;808;86223;1
eclipse-3.1;809;87710;115
eclipse-3.1;810;87553;16
eclipse-3.1;811;87397;7
eclipse-3.1;812;82854;2
eclipse-3.1;813;87600;2
eclipse-3.1;814;87665;2083
eclipse-3.1;815;86863;11
eclipse-3.1;816;86013;2
eclipse-3.1;817;86294;642
eclipse-3.1;818;85966;335
eclipse-3.1;819;86617;3
eclipse-3.1;820;83246;4391
eclipse-3.1;821;87692;50
eclipse-3.1;822;86859;4
eclipse-3.1;823;86895;3
eclipse-3.1;824;87039;865
eclipse-3.1;825;86887;2
eclipse-3.1;826;86428;1
eclipse-3.1;827;81260;4
eclipse-3.1;828;88071;8
eclipse-3.1;829;88051;13
eclipse-3.1;830;86224;11
eclipse-3.1;831;87033;4
eclipse-3.1;832;87089;3
eclipse-3.1;833;82947;304
eclipse-3.1;834;87829;3
eclipse-3.1;835;86565;5
eclipse-3.1;836;86478;10
eclipse-3.1;837;85938;2
eclipse-3.1;838;81329;1
eclipse-3.1;839;87794;10
eclipse-3.1;840;85911;2
eclipse-3.1;841;85275;101
eclipse-3.1;842;87765;8
eclipse-3.1;843;88339;971
eclipse-3.1;844;87370;1245
eclipse-3.1;845;84882;1
eclipse-3.1;846;85618;4
eclipse-3.1;847;85474;2
eclipse-3.1;848;88276;2
eclipse-3.1;849;87434;11
eclipse-3.1;850;88140;1
eclipse-3.1;851;88535;1
eclipse-3.1;852;88585;1
eclipse-3.1;853;86510;2
eclipse-3.1;854;88037;3
eclipse-3.1;855;88557;168
eclipse-3.1;856;87569;18
eclipse-3.1;857;82951;3
eclipse-3.1;858;86386;2
eclipse-3.1;859;86572;1
eclipse-3.1;860;88465;1
eclipse-3.1;861;86384;1
eclipse-3.1;862;88689;134
eclipse-3.1;863;88554;24
eclipse-3.1;864;88027;7
eclipse-3.1;865;88264;1
eclipse-3.1;866;88404;1
eclipse-3.1;867;88232;1
eclipse-3.1;868;88818;1
eclipse-3.1;869;88805;1
eclipse-3.1;870;86122;141
eclipse-3.1;871;88850;1
eclipse-3.1;872;88833;1
eclipse-3.1;873;87208;14
eclipse-3.1;874;88226;3
eclipse-3.1;875;88532;10
eclipse-3.1;876;87647;4
eclipse-3.1;877;88559;5
eclipse-3.1;878;88915;95
eclipse-3.1;879;79698;1
eclipse-3.1;880;84652;196
eclipse-3.1;881;86856;6
eclipse-3.1;882;88891;1
eclipse-3.1;883;85672;19
eclipse-3.1;884;88925;59
eclipse-3.1;885;87739;29
eclipse-3.1;886;88237;49
eclipse-3.1;887;86680;15
eclipse-3.1;888;87955;9
eclipse-3.1;889;88555;2
eclipse-3.1;890;88864;2
eclipse-3.1;891;88322;1
eclipse-3.1;892;86717;1
eclipse-3.1;893;89150;1
eclipse-3.1;894;89196;10
eclipse-3.1;895;88831;3
eclipse-3.1;896;89117;1
eclipse-3.1;897;87855;284
eclipse-3.1;898;89078;1
eclipse-3.1;899;89139;1
eclipse-3.1;900;89259;111
eclipse-3.1;901;88899;1
eclipse-3.1;902;84400;2
eclipse-3.1;903;87379;3
eclipse-3.1;904;88963;35
eclipse-3.1;905;86725;1
eclipse-3.1;906;88393;4
eclipse-3.1;907;87574;1
eclipse-3.1;908;84770;4730
eclipse-3.1;909;89303;1
eclipse-3.1;910;89447;6
eclipse-3.1;911;80793;5
eclipse-3.1;912;85255;117
eclipse-3.1;913;86078;1
eclipse-3.1;914;88634;2
eclipse-3.1;915;87269;1
eclipse-3.1;916;88635;16
eclipse-3.1;917;79324;19
eclipse-3.1;918;84255;1
eclipse-3.1;919;84707;4906
eclipse-3.1;920;83067;1
eclipse-3.1;921;82979;1
eclipse-3.1;922;86315;2
eclipse-3.1;923;86610;21
eclipse-3.1;924;87111;1
eclipse-3.1;925;87826;10
eclipse-3.1;926;87400;4
eclipse-3.1;927;87654;1
eclipse-3.1;928;84738;1
eclipse-3.1;929;85052;1
eclipse-3.1;930;86166;91
eclipse-3.1;931;88114;1
eclipse-3.1;932;88175;434
eclipse-3.1;933;88191;3
eclipse-3.1;934;88863;1
eclipse-3.1;935;88993;17
eclipse-3.1;936;89340;1
eclipse-3.1;937;85750;1
eclipse-3.1;938;85285;1
eclipse-3.1;939;87977;2
eclipse-3.1;940;88656;3
eclipse-3.1;941;87632;654
eclipse-3.1;942;84022;9
eclipse-3.1;943;85506;1
eclipse-3.1;944;87419;29
eclipse-3.1;945;87020;5
eclipse-3.1;946;88873;4
eclipse-3.1;947;88878;17
eclipse-3.1;948;89311;1
eclipse-3.1;949;89218;2
eclipse-3.1;950;83321;174
eclipse-3.1;951;88172;1
eclipse-3.1;952;89020;1
eclipse-3.1;953;85379;97
eclipse-3.1;954;87675;1
eclipse-3.1;955;87672;1
eclipse-3.1;956;85402;7
eclipse-3.1;957;88838;1
eclipse-3.1;958;88505;1
eclipse-3.1;959;87354;1
eclipse-3.1;960;85192;40
eclipse-3.1;961;84446;1
eclipse-3.1;962;87402;195
eclipse-3.1;963;88295;230
eclipse-3.1;964;86502;110
eclipse-3.1;965;87268;1
eclipse-3.1;966;88845;37
eclipse-3.1;967;86184;5
eclipse-3.1;968;89025;1
eclipse-3.1;969;89033;1
eclipse-3.1;970;86948;1
eclipse-3.1;971;88134;1
eclipse-3.1;972;85580;7
eclipse-3.1;973;88116;3
eclipse-3.1;974;88352;1
eclipse-3.1;975;85601;2
eclipse-3.1;976;85698;1
eclipse-3.1;977;88219;2
eclipse-3.1;978;88757;1
eclipse-3.1;979;88223;5
eclipse-3.1;980;81797;34
eclipse-3.1;981;88737;34
eclipse-3.1;982;87796;69
eclipse-3.1;983;85226;1
eclipse-3.1;984;83770;1
eclipse-3.1;985;85397;67
eclipse-3.1;986;85933;78
eclipse-3.1;987;86410;31
eclipse-3.1;988;86663;5
eclipse-3.1;989;86779;3
eclipse-3.1;990;86878;55
eclipse-3.1;991;87042;2
eclipse-3.1;992;87173;3
eclipse-3.1;993;87350;5
eclipse-3.1;994;87481;27
eclipse-3.1;995;87498;15
eclipse-3.1;996;87777;63
eclipse-3.1;997;87818;1
eclipse-3.1;998;88224;288
eclipse-3.1;999;88252;9
eclipse-3.1;1000;88446;2
eclipse-3.1;1001;88575;1
eclipse-3.1;1002;88841;2
eclipse-3.1;1003;82429;2
eclipse-3.1;1004;88849;6
eclipse-3.1;1005;88921;2
eclipse-3.1;1006;89014;207
eclipse-3.1;1007;89302;18
eclipse-3.1;1008;89318;9
eclipse-3.1;1009;83002;2
eclipse-3.1;1010;86596;31
eclipse-3.1;1011;86840;11
eclipse-3.1;1012;89533;65
eclipse-3.1;1013;84944;244
eclipse-3.1;1014;86390;3
eclipse-3.1;1015;88793;37
eclipse-3.1;1016;88945;4
eclipse-3.1;1017;89293;1
eclipse-3.1;1018;88828;1
eclipse-3.1;1019;86743;7
eclipse-3.1;1020;89005;3
eclipse-3.1;1021;86906;6
eclipse-3.1;1022;89399;4
eclipse-3.1;1023;89119;2
eclipse-3.1;1024;87856;4
eclipse-3.1;1025;89797;1
eclipse-3.1;1026;89477;47
eclipse-3.1;1027;89581;25
eclipse-3.1;1028;85216;1
eclipse-3.1;1029;88674;1
eclipse-3.1;1030;89717;12
eclipse-3.1;1031;81333;181
eclipse-3.1;1032;79908;6
eclipse-3.1;1033;83059;1
eclipse-3.1;1034;83625;1
eclipse-3.1;1035;89772;1
eclipse-3.1;1036;86531;1
eclipse-3.1;1037;89308;499
eclipse-3.1;1038;84307;10
eclipse-3.1;1039;89682;307
eclipse-3.1;1040;86167;89
eclipse-3.1;1041;89621;63
eclipse-3.1;1042;89475;1
eclipse-3.1;1043;85519;36
eclipse-3.1;1044;89530;375
eclipse-3.1;1045;89891;6
eclipse-3.1;1046;80718;1
eclipse-3.1;1047;89816;10
eclipse-3.1;1048;89946;1
eclipse-3.1;1049;87074;2
eclipse-3.1;1050;90043;3
eclipse-3.1;1051;81453;2
eclipse-3.1;1052;90049;3
eclipse-3.1;1053;89363;62
eclipse-3.1;1054;87719;4
eclipse-3.1;1055;89601;149
eclipse-3.1;1056;89013;1
eclipse-3.1;1057;80976;1
eclipse-3.1;1058;90080;1
eclipse-3.1;1059;85067;4
eclipse-3.1;1060;89275;14
eclipse-3.1;1061;89932;14
eclipse-3.1;1062;87750;1
eclipse-3.1;1063;89566;11
eclipse-3.1;1064;89590;3
eclipse-3.1;1065;90018;8
eclipse-3.1;1066;90293;5
eclipse-3.1;1067;90159;1
eclipse-3.1;1068;90249;1
eclipse-3.1;1069;90084;4
eclipse-3.1;1070;90225;5763
eclipse-3.1;1071;89262;2
eclipse-3.1;1072;89926;1
eclipse-3.1;1073;90237;8
eclipse-3.1;1074;89748;1
eclipse-3.1;1075;89652;1
eclipse-3.1;1076;89585;9
eclipse-3.1;1077;88931;1
eclipse-3.1;1078;90362;1
eclipse-3.1;1079;87997;26
eclipse-3.1;1080;89287;33
eclipse-3.1;1081;90510;1
eclipse-3.1;1082;90480;1
eclipse-3.1;1083;89271;1
eclipse-3.1;1084;88829;14
eclipse-3.1;1085;90475;1
eclipse-3.1;1086;90714;5
eclipse-3.1;1087;75972;27
eclipse-3.1;1088;77675;16
eclipse-3.1;1089;89936;993
eclipse-3.1;1090;90507;3
eclipse-3.1;1091;90812;1
eclipse-3.1;1092;89883;6
eclipse-3.1;1093;90154;1
eclipse-3.1;1094;90887;11
eclipse-3.1;1095;89055;1
eclipse-3.1;1096;90892;1
eclipse-3.1;1097;90318;45
eclipse-3.1;1098;90980;1
eclipse-3.1;1099;88677;2
eclipse-3.1;1100;89651;261
eclipse-3.1;1101;90260;1
eclipse-3.1;1102;90130;1
eclipse-3.1;1103;89745;49
eclipse-3.1;1104;82796;2
eclipse-3.1;1105;86692;3616
eclipse-3.1;1106;88261;753
eclipse-3.1;1107;90198;1
eclipse-3.1;1108;91043;417
eclipse-3.1;1109;90636;1
eclipse-3.1;1110;86772;5
eclipse-3.1;1111;90760;14
eclipse-3.1;1112;90805;24
eclipse-3.1;1113;90759;35
eclipse-3.1;1114;90470;4
eclipse-3.1;1115;85595;42
eclipse-3.1;1116;90455;135
eclipse-3.1;1117;87086;1
eclipse-3.1;1118;89991;3
eclipse-3.1;1119;86236;1
eclipse-3.1;1120;91204;3
eclipse-3.1;1121;89416;1
eclipse-3.1;1122;89709;2
eclipse-3.1;1123;89965;3
eclipse-3.1;1124;91208;1
eclipse-3.1;1125;91224;1
eclipse-3.1;1126;86631;50
eclipse-3.1;1127;84998;2
eclipse-3.1;1128;81242;227
eclipse-3.1;1129;91310;8
eclipse-3.1;1130;91565;1
eclipse-3.1;1131;90803;1
eclipse-3.1;1132;91393;7
eclipse-3.1;1133;91471;13
eclipse-3.1;1134;90975;3
eclipse-3.1;1135;91569;13
eclipse-3.1;1136;91597;1
eclipse-3.1;1137;89620;84
eclipse-3.1;1138;89184;1037
eclipse-3.1;1139;91291;4
eclipse-3.1;1140;91742;1
eclipse-3.1;1141;91354;2
eclipse-3.1;1142;91054;8
eclipse-3.1;1143;89865;9
eclipse-3.1;1144;91558;7
eclipse-3.1;1145;85333;1
eclipse-3.1;1146;90983;53
eclipse-3.1;1147;88128;19
eclipse-3.1;1148;90526;9
eclipse-3.1;1149;90093;4
eclipse-3.1;1150;88939;1
eclipse-3.1;1151;91956;2
eclipse-3.1;1152;91560;98
eclipse-3.1;1153;85000;21
eclipse-3.1;1154;87604;28
eclipse-3.1;1155;92035;1
eclipse-3.1;1156;91297;5
eclipse-3.1;1157;90346;1
eclipse-3.1;1158;77146;1
eclipse-3.1;1159;92017;1
eclipse-3.1;1160;92121;22
eclipse-3.1;1161;90218;1
eclipse-3.1;1162;91605;1
eclipse-3.1;1163;92106;1
eclipse-3.1;1164;92236;612
eclipse-3.1;1165;85058;121
eclipse-3.1;1166;89604;1
eclipse-3.1;1167;92162;6
eclipse-3.1;1168;88131;3
eclipse-3.1;1169;81249;2
eclipse-3.1;1170;91754;2
eclipse-3.1;1171;91889;6
eclipse-3.1;1172;78166;7
eclipse-3.1;1173;90224;11
eclipse-3.1;1174;91625;1
eclipse-3.1;1175;91981;1
eclipse-3.1;1176;91984;1
eclipse-3.1;1177;92132;1
eclipse-3.1;1178;91495;2
eclipse-3.1;1179;88717;2
eclipse-3.1;1180;91332;154
eclipse-3.1;1181;81337;1
eclipse-3.1;1182;91776;1
eclipse-3.1;1183;92141;2
eclipse-3.1;1184;92192;71
eclipse-3.1;1185;92358;16
eclipse-3.1;1186;87420;1
eclipse-3.1;1187;89693;27
eclipse-3.1;1188;92244;1
eclipse-3.1;1189;92539;1
eclipse-3.1;1190;91989;8
eclipse-3.1;1191;81330;3
eclipse-3.1;1192;81034;219
eclipse-3.1;1193;85588;56
eclipse-3.1;1194;88262;131
eclipse-3.1;1195;91580;1
eclipse-3.1;1196;92602;17
eclipse-3.1;1197;90848;7
eclipse-3.1;1198;92283;1
eclipse-3.1;1199;89643;22
eclipse-3.1;1200;92704;1
eclipse-3.1;1201;92776;365
eclipse-3.1;1202;92712;1
eclipse-3.1;1203;92801;2961
eclipse-3.1;1204;90790;5
eclipse-3.1;1205;85033;1
eclipse-3.1;1206;92049;6
eclipse-3.1;1207;90283;20
eclipse-3.1;1208;92812;2
eclipse-3.1;1209;88414;1
eclipse-3.1;1210;92798;1
eclipse-3.1;1211;87697;1
eclipse-3.1;1212;92928;1
eclipse-3.1;1213;92995;5
eclipse-3.1;1214;92979;3499
eclipse-3.1;1215;93014;1
eclipse-3.1;1216;90782;7
eclipse-3.1;1217;92924;2
eclipse-3.1;1218;92572;3
eclipse-3.1;1219;92546;3
eclipse-3.1;1220;78040;2
eclipse-3.1;1221;83022;21
eclipse-3.1;1222;92591;6
eclipse-3.1;1223;92920;4
eclipse-3.1;1224;92902;104
eclipse-3.1;1225;92930;1
eclipse-3.1;1226;93140;1
eclipse-3.1;1227;82573;38
eclipse-3.1;1228;90289;14
eclipse-3.1;1229;93267;206
eclipse-3.1;1230;93398;893
eclipse-3.1;1231;89544;1
eclipse-3.1;1232;89708;7
eclipse-3.1;1233;93074;5
eclipse-3.1;1234;90549;651
eclipse-3.1;1235;93053;15
eclipse-3.1;1236;92307;1
eclipse-3.1;1237;92612;2
eclipse-3.1;1238;92181;20
eclipse-3.1;1239;93567;100
eclipse-3.1;1240;93069;49
eclipse-3.1;1241;91159;4
eclipse-3.1;1242;91349;34
eclipse-3.1;1243;83205;16
eclipse-3.1;1244;93634;1
eclipse-3.1;1245;93695;21
eclipse-3.1;1246;93561;540
eclipse-3.1;1247;93319;109
eclipse-3.1;1248;93787;3
eclipse-3.1;1249;89548;5
eclipse-3.1;1250;92349;2
eclipse-3.1;1251;93273;2
eclipse-3.1;1252;93335;1
eclipse-3.1;1253;93378;1
eclipse-3.1;1254;93792;1
eclipse-3.1;1255;93796;1
eclipse-3.1;1256;92245;3
eclipse-3.1;1257;93636;1
eclipse-3.1;1258;93849;155
eclipse-3.1;1259;92561;276
eclipse-3.1;1260;93340;2
eclipse-3.1;1261;92939;1
eclipse-3.1;1262;88078;3
eclipse-3.1;1263;80191;12
eclipse-3.1;1264;82175;4370
eclipse-3.1;1265;93961;4
eclipse-3.1;1266;82530;1
eclipse-3.1;1267;78653;11
eclipse-3.1;1268;90387;3
eclipse-3.1;1269;78652;8
eclipse-3.1;1270;92102;9
eclipse-3.1;1271;94077;147
eclipse-3.1;1272;90809;8
eclipse-3.1;1273;93803;1
eclipse-3.1;1274;93712;2
eclipse-3.1;1275;93198;3
eclipse-3.1;1276;93805;16
eclipse-3.1;1277;93578;7
eclipse-3.1;1278;91346;25
eclipse-3.1;1279;92581;77
eclipse-3.1;1280;93949;100
eclipse-3.1;1281;88697;4
eclipse-3.1;1282;89419;1
eclipse-3.1;1283;93800;54
eclipse-3.1;1284;87447;1
eclipse-3.1;1285;90815;158
eclipse-3.1;1286;94128;30
eclipse-3.1;1287;92862;23
eclipse-3.1;1288;92934;2
eclipse-3.1;1289;92992;3
eclipse-3.1;1290;94192;3
eclipse-3.1;1291;83069;1
eclipse-3.1;1292;84561;73
eclipse-3.1;1293;84575;1
eclipse-3.1;1294;84723;1
eclipse-3.1;1295;85317;350
eclipse-3.1;1296;85490;26
eclipse-3.1;1297;93663;2
eclipse-3.1;1298;88144;34
eclipse-3.1;1299;89462;18
eclipse-3.1;1300;89506;2
eclipse-3.1;1301;89609;3
eclipse-3.1;1302;89814;7
eclipse-3.1;1303;90281;12
eclipse-3.1;1304;90835;25
eclipse-3.1;1305;92061;2
eclipse-3.1;1306;91783;4
eclipse-3.1;1307;92063;1746
eclipse-3.1;1308;93083;2
eclipse-3.1;1309;93250;1
eclipse-3.1;1310;93584;16
eclipse-3.1;1311;93863;1
eclipse-3.1;1312;93962;154
eclipse-3.1;1313;94115;6
eclipse-3.1;1314;94182;254
eclipse-3.1;1315;93449;18
eclipse-3.1;1316;93008;1
eclipse-3.1;1317;93010;3
eclipse-3.1;1318;93002;8
eclipse-3.1;1319;91644;10
eclipse-3.1;1320;90338;1
eclipse-3.1;1321;90096;3
eclipse-3.1;1322;93030;7
eclipse-3.1;1323;82988;1
eclipse-3.1;1324;88926;9
eclipse-3.1;1325;89019;1
eclipse-3.1;1326;90698;3
eclipse-3.1;1327;92764;47
eclipse-3.1;1328;89034;6
eclipse-3.1;1329;93051;1
eclipse-3.1;1330;93192;2
eclipse-3.1;1331;87888;1
eclipse-3.1;1332;89000;9
eclipse-3.1;1333;89031;1
eclipse-3.1;1334;89550;4
eclipse-3.1;1335;92366;9
eclipse-3.1;1336;93245;36
eclipse-3.1;1337;89029;2
eclipse-3.1;1338;94060;9
eclipse-3.1;1339;92707;6
eclipse-3.1;1340;92506;1
eclipse-3.1;1341;93116;1
eclipse-3.1;1342;88084;1
eclipse-3.1;1343;93178;1
eclipse-3.1;1344;92137;6
eclipse-3.1;1345;89504;35
eclipse-3.1;1346;92161;3
eclipse-3.1;1347;92215;1
eclipse-3.1;1348;93364;730
eclipse-3.1;1349;93658;161
eclipse-3.1;1350;93635;1
eclipse-3.1;1351;37668;2
eclipse-3.1;1352;92497;2
eclipse-3.1;1353;91764;1
eclipse-3.1;1354;78303;3
eclipse-3.1;1355;86521;2
eclipse-3.1;1356;89707;6
eclipse-3.1;1357;89197;1
eclipse-3.1;1358;90651;12
eclipse-3.1;1359;93176;4
eclipse-3.1;1360;88031;12
eclipse-3.1;1361;93175;8
eclipse-3.1;1362;81076;71
eclipse-3.1;1363;93263;11
eclipse-3.1;1364;11407;1
eclipse-3.1;1365;81675;22
eclipse-3.1;1366;93236;3
eclipse-3.1;1367;93360;1
eclipse-3.1;1368;86958;1
eclipse-3.1;1369;90073;1
eclipse-3.1;1370;92835;42
eclipse-3.1;1371;92988;9
eclipse-3.1;1372;89971;2
eclipse-3.1;1373;94133;2
eclipse-3.1;1374;89280;87
eclipse-3.1;1375;80059;1
eclipse-3.1;1376;81460;5
eclipse-3.1;1377;81444;293
eclipse-3.1;1378;81477;8
eclipse-3.1;1379;93193;1
eclipse-3.1;1380;90161;12
eclipse-3.1;1381;79268;6
eclipse-3.1;1382;90788;1
eclipse-3.1;1383;90859;36
eclipse-3.1;1384;91747;3
eclipse-3.1;1385;92777;3
eclipse-3.1;1386;93118;10
eclipse-3.1;1387;93355;10
eclipse-3.1;1388;93516;2
eclipse-3.1;1389;93840;3
eclipse-3.1;1390;93751;6
eclipse-3.1;1391;93907;1
eclipse-3.1;1392;93998;1
eclipse-3.1;1393;94131;1
eclipse-3.1;1394;89246;1
eclipse-3.1;1395;92019;1549
eclipse-3.1;1396;92148;64
eclipse-3.1;1397;88867;1
eclipse-3.1;1398;79123;163
eclipse-3.1;1399;81934;441
eclipse-3.1;1400;87468;1
eclipse-3.1;1401;90357;1
eclipse-3.1;1402;94007;48
eclipse-3.1;1403;87171;28
eclipse-3.1;1404;88202;1
eclipse-3.1;1405;83083;3
eclipse-3.1;1406;84224;8
eclipse-3.1;1407;88769;1
eclipse-3.1;1408;86329;13
eclipse-3.1;1409;93093;1
eclipse-3.1;1410;89393;60
eclipse-3.1;1411;88653;2
eclipse-3.1;1412;82914;63
eclipse-3.1;1413;90415;122
eclipse-3.1;1414;84056;194
eclipse-3.1;1415;77787;1
eclipse-3.1;1416;88919;1
eclipse-3.1;1417;89596;2
eclipse-3.1;1418;88629;22
eclipse-3.1;1419;94793;1
eclipse-3.1;1420;92434;23
eclipse-3.1;1421;94493;1
eclipse-3.1;1422;94829;1
eclipse-3.1;1423;94853;1
eclipse-3.1;1424;94279;4
eclipse-3.1;1425;93473;1
eclipse-3.1;1426;94348;1
eclipse-3.1;1427;94208;2
eclipse-3.1;1428;94420;6
eclipse-3.1;1429;83501;1
eclipse-3.1;1430;90521;6
eclipse-3.1;1431;92203;17
eclipse-3.1;1432;84499;1
eclipse-3.1;1433;91298;20
eclipse-3.1;1434;92217;3
eclipse-3.1;1435;93352;1
eclipse-3.1;1436;81229;241
eclipse-3.1;1437;89900;3
eclipse-3.1;1438;88759;2
eclipse-3.1;1439;88998;1
eclipse-3.1;1440;94859;51
eclipse-3.1;1441;94683;3
eclipse-3.1;1442;93854;403
eclipse-3.1;1443;94498;1
eclipse-3.1;1444;94970;197
eclipse-3.1;1445;92000;2
eclipse-3.1;1446;92012;2
eclipse-3.1;1447;92015;1
eclipse-3.1;1448;92171;1
eclipse-3.1;1449;93077;4
eclipse-3.1;1450;93540;3
eclipse-3.1;1451;80063;37
eclipse-3.1;1452;94168;9
eclipse-3.1;1453;84690;8
eclipse-3.1;1454;89777;2
eclipse-3.1;1455;93727;141
eclipse-3.1;1456;88298;10
eclipse-3.1;1457;90186;59
eclipse-3.1;1458;94516;526
eclipse-3.1;1459;90612;10
eclipse-3.1;1460;90615;294
eclipse-3.1;1461;91371;126
eclipse-3.1;1462;91761;0
eclipse-3.1;1463;94571;47
eclipse-3.1;1464;92005;140
eclipse-3.1;1465;92451;20
eclipse-3.1;1466;92981;9
eclipse-3.1;1467;94201;5
eclipse-3.1;1468;94474;47
eclipse-3.1;1469;82488;466
eclipse-3.1;1470;94163;21
eclipse-3.1;1471;94162;20
eclipse-3.1;1472;94572;1
eclipse-3.1;1473;92831;1
eclipse-3.1;1474;91249;799
eclipse-3.1;1475;91244;41
eclipse-3.1;1476;90579;72
eclipse-3.1;1477;93623;43
eclipse-3.1;1478;76816;1
eclipse-3.1;1479;94467;24
eclipse-3.1;1480;89096;102
eclipse-3.1;1481;91221;6253
eclipse-3.1;1482;90213;16
eclipse-3.1;1483;92360;4
eclipse-3.1;1484;91238;54
eclipse-3.1;1485;94543;1
eclipse-3.1;1486;94757;8
eclipse-3.1;1487;94292;1
eclipse-3.1;1488;94926;1
eclipse-3.1;1489;95001;3
eclipse-3.1;1490;94216;307
eclipse-3.1;1491;91137;1
eclipse-3.1;1492;92291;88
eclipse-3.1;1493;93993;1
eclipse-3.1;1494;94355;156
eclipse-3.1;1495;94456;1
eclipse-3.1;1496;94540;53
eclipse-3.1;1497;91994;1
eclipse-3.1;1498;93720;1
eclipse-3.1;1499;93238;2
eclipse-3.1;1500;93718;1
eclipse-3.1;1501;95173;11
eclipse-3.1;1502;82790;1
eclipse-3.1;1503;89109;1
eclipse-3.1;1504;93258;1
eclipse-3.1;1505;86362;1
eclipse-3.1;1506;92785;4
eclipse-3.1;1507;84406;10
eclipse-3.1;1508;85587;1
eclipse-3.1;1509;93414;1
eclipse-3.1;1510;95048;135
eclipse-3.1;1511;78460;27
eclipse-3.1;1512;93390;19
eclipse-3.1;1513;94995;8
eclipse-3.1;1514;95044;6
eclipse-3.1;1515;94446;1
eclipse-3.1;1516;95352;8
eclipse-3.1;1517;94408;47
eclipse-3.1;1518;91098;3245
eclipse-3.1;1519;95462;2
eclipse-3.1;1520;95406;8
eclipse-3.1;1521;95151;3
eclipse-3.1;1522;94972;206
eclipse-3.1;1523;95300;3
eclipse-3.1;1524;95416;3
eclipse-3.1;1525;84959;2
eclipse-3.1;1526;89961;519
eclipse-3.1;1527;94223;47
eclipse-3.1;1528;95190;26
eclipse-3.1;1529;95256;47
eclipse-3.1;1530;95426;15
eclipse-3.1;1531;95294;16
eclipse-3.1;1532;95598;3
eclipse-3.1;1533;90389;1
eclipse-3.1;1534;93329;1
eclipse-3.1;1535;94440;1
eclipse-3.1;1536;88739;1
eclipse-3.1;1537;89472;27
eclipse-3.1;1538;87586;2
eclipse-3.1;1539;88328;217
eclipse-3.1;1540;95379;1
eclipse-3.1;1541;95744;22
eclipse-3.1;1542;95729;1
eclipse-3.1;1543;95486;298
eclipse-3.1;1544;94749;21
eclipse-3.1;1545;95687;4
eclipse-3.1;1546;92998;2
eclipse-3.1;1547;95795;1256
eclipse-3.1;1548;94727;39
eclipse-3.1;1549;95682;1
eclipse-3.1;1550;94183;12
eclipse-3.1;1551;95197;2
eclipse-3.1;1552;94545;24
eclipse-3.1;1553;88186;1
eclipse-3.1;1554;93904;1
eclipse-3.1;1555;94211;4
eclipse-3.1;1556;93545;1
eclipse-3.1;1557;78123;132
eclipse-3.1;1558;94883;86
eclipse-3.1;1559;94423;2
eclipse-3.1;1560;86011;1
eclipse-3.1;1561;94506;8
eclipse-3.1;1562;95476;2
eclipse-3.1;1563;95662;1
eclipse-3.1;1564;95612;39
eclipse-3.1;1565;87668;1272
eclipse-3.1;1566;95027;6
eclipse-3.1;1567;94726;1
eclipse-3.1;1568;95988;10
eclipse-3.1;1569;92855;3
eclipse-3.1;1570;95910;1
eclipse-3.1;1571;94578;1
eclipse-3.1;1572;80070;29
eclipse-3.1;1573;95061;99
eclipse-3.1;1574;95296;1
eclipse-3.1;1575;95297;1
eclipse-3.1;1576;85769;2
eclipse-3.1;1577;95585;1
eclipse-3.1;1578;93474;1
eclipse-3.1;1579;95321;1
eclipse-3.1;1580;89559;1
eclipse-3.1;1581;90206;2
eclipse-3.1;1582;95204;1
eclipse-3.1;1583;95956;2
eclipse-3.1;1584;92547;3
eclipse-3.1;1585;95867;2
eclipse-3.1;1586;95987;127
eclipse-3.1;1587;94281;1
eclipse-3.1;1588;95422;1
eclipse-3.1;1589;95852;1
eclipse-3.1;1590;89835;14
eclipse-3.1;1591;91516;7
eclipse-3.1;1592;95456;18
eclipse-3.1;1593;93330;1
eclipse-3.1;1594;94524;45
eclipse-3.1;1595;95701;1
eclipse-3.1;1596;94573;73
eclipse-3.1;1597;96128;4
eclipse-3.1;1598;84492;5
eclipse-3.1;1599;92062;65
eclipse-3.1;1600;93686;1
eclipse-3.1;1601;96305;1
eclipse-3.1;1602;96016;12
eclipse-3.1;1603;95807;1
eclipse-3.1;1604;91268;1
eclipse-3.1;1605;92949;1
eclipse-3.1;1606;96384;10
eclipse-3.1;1607;94129;1
eclipse-3.1;1608;95477;4
eclipse-3.1;1609;96375;2
eclipse-3.1;1610;96140;2
eclipse-3.1;1611;95223;1
eclipse-3.1;1612;92428;1
eclipse-3.1;1613;94956;12
eclipse-3.1;1614;94366;313
eclipse-3.1;1615;94447;1
eclipse-3.1;1616;96514;9
eclipse-3.1;1617;96527;40
eclipse-3.1;1618;96515;6501
eclipse-3.1;1619;89845;2
eclipse-3.1;1620;91674;4
eclipse-3.1;1621;95663;41
eclipse-3.1;1622;96161;3
eclipse-3.1;1623;96175;1
eclipse-3.1;1624;88003;3
eclipse-3.1;1625;96530;6
eclipse-3.1;1626;96541;1
eclipse-3.1;1627;96158;18
eclipse-3.1;1628;88699;7
eclipse-3.1;1629;96649;1
eclipse-3.1;1630;88614;395
eclipse-3.1;1631;96693;2
eclipse-3.1;1632;91786;20
eclipse-3.1;1633;77252;6
eclipse-3.1;1634;95216;68
eclipse-3.1;1635;96294;26
eclipse-3.1;1636;96338;2
eclipse-3.1;1637;96385;1
eclipse-3.1;1638;95681;11
eclipse-3.1;1639;94865;8
eclipse-3.1;1640;96710;4
eclipse-3.1;1641;91916;731
eclipse-3.1;1642;94041;9
eclipse-3.1;1643;90035;94
eclipse-3.1;1644;96727;1
eclipse-3.1;1645;89127;1
eclipse-3.1;1646;95888;1
eclipse-3.1;1647;94333;2
eclipse-3.1;1648;96831;1
eclipse-3.1;1649;95863;11
eclipse-3.1;1650;87543;2
eclipse-3.1;1651;95675;3
eclipse-3.1;1652;95470;17
eclipse-3.1;1653;87587;1
eclipse-3.1;1654;88820;3
eclipse-3.1;1655;81365;1
eclipse-3.1;1656;95217;51
eclipse-3.1;1657;95792;1
eclipse-3.1;1658;95222;1
eclipse-3.1;1659;95844;1
eclipse-3.1;1660;96497;3264
eclipse-3.1;1661;90935;14
eclipse-3.1;1662;95608;5
eclipse-3.1;1663;93549;1
eclipse-3.1;1664;84234;27
eclipse-3.1;1665;85308;7
eclipse-3.1;1666;94391;506
eclipse-3.1;1667;94636;9
eclipse-3.1;1668;94674;1
eclipse-3.1;1669;96470;14
eclipse-3.1;1670;96199;1
eclipse-3.1;1671;96887;99
eclipse-3.1;1672;88395;48
eclipse-3.1;1673;89632;101
eclipse-3.1;1674;91615;2078
eclipse-3.1;1675;91670;1170
eclipse-3.1;1676;94598;1248
eclipse-3.1;1677;93905;1
eclipse-3.1;1678;94267;262
eclipse-3.1;1679;86246;565
eclipse-3.1;1680;95262;1
eclipse-3.1;1681;95388;9
eclipse-3.1;1682;81701;1
eclipse-3.1;1683;95114;1
eclipse-3.1;1684;95394;20
eclipse-3.1;1685;95431;232
eclipse-3.1;1686;95580;27
eclipse-3.1;1687;95748;4
eclipse-3.1;1688;95911;10
eclipse-3.1;1689;96642;24
eclipse-3.1;1690;96698;1
eclipse-3.1;1691;89849;126
eclipse-3.1;1692;93119;196
eclipse-3.1;1693;92733;5
eclipse-3.1;1694;93249;683
eclipse-3.1;1695;94653;38
eclipse-3.1;1696;94303;109
eclipse-3.1;1697;93891;872
eclipse-3.1;1698;95505;127
eclipse-3.1;1699;95167;18
eclipse-3.1;1700;96464;1
eclipse-3.1;1701;96213;1
eclipse-3.1;1702;89589;2
eclipse-3.1;1703;89689;1
eclipse-3.1;1704;91387;76
eclipse-3.1;1705;95100;318
eclipse-3.1;1706;95046;1
eclipse-3.1;1707;94438;2
eclipse-3.1;1708;94402;1
eclipse-3.1;1709;94915;229
eclipse-3.1;1710;95548;40
eclipse-3.1;1711;95574;1
eclipse-3.1;1712;95731;47
eclipse-3.1;1713;95974;456
eclipse-3.1;1714;94459;2
eclipse-3.1;1715;91343;1
eclipse-3.1;1716;92398;2
eclipse-3.1;1717;88364;2
eclipse-3.1;1718;96227;1
eclipse-3.1;1719;94381;7
eclipse-3.1;1720;94762;17
eclipse-3.1;1721;96318;50
eclipse-3.1;1722;94400;1
eclipse-3.1;1723;96440;408
eclipse-3.1;1724;96326;2
eclipse-3.1;1725;96730;2
eclipse-3.1;1726;78236;122
eclipse-3.1;1727;94710;1
eclipse-3.1;1728;94390;165
eclipse-3.1;1729;96087;2
eclipse-3.1;1730;95810;1
eclipse-3.1;1731;95324;2
eclipse-3.1;1732;94547;26
eclipse-3.1;1733;95568;29
eclipse-3.1;1734;95805;1
eclipse-3.1;1735;96057;9
eclipse-3.1;1736;95464;13
eclipse-3.1;1737;96414;1
eclipse-3.1;1738;95611;4
eclipse-3.1;1739;94489;129
eclipse-3.1;1740;79401;2
eclipse-3.1;1741;96740;2
eclipse-3.1;1742;94349;1
eclipse-3.1;1743;92963;9
eclipse-3.1;1744;90709;11
eclipse-3.1;1745;88243;96
eclipse-3.1;1746;96866;1866
eclipse-3.1;1747;95561;3
eclipse-3.1;1748;90552;6
eclipse-3.1;1749;97018;26
eclipse-3.1;1750;94879;206
eclipse-3.1;1751;95439;1
eclipse-3.1;1752;96045;11
eclipse-3.1;1753;95879;196
eclipse-3.1;1754;95926;4
eclipse-3.1;1755;94836;9634
eclipse-3.1;1756;94741;2
eclipse-3.1;1757;94600;14
eclipse-3.1;1758;94171;7
eclipse-3.1;1759;95958;298
eclipse-3.1;1760;90645;5
eclipse-3.1;1761;97158;4
eclipse-3.1;1762;97130;2
eclipse-3.1;1763;94403;1
eclipse-3.1;1764;84353;153
eclipse-3.1;1765;95672;6
eclipse-3.1;1766;97129;1
eclipse-3.1;1767;95078;1
eclipse-3.1;1768;96724;1
eclipse-3.1;1769;94406;1
eclipse-3.1;1770;94535;36
eclipse-3.1;1771;96451;1
eclipse-3.1;1772;94687;2
eclipse-3.1;1773;85309;36
eclipse-3.1;1774;93333;2
eclipse-3.1;1775;81418;1
eclipse-3.1;1776;94774;317
eclipse-3.1;1777;94769;127
eclipse-3.1;1778;94466;1
eclipse-3.1;1779;93724;6
eclipse-3.1;1780;97335;7
eclipse-3.1;1781;97490;1
eclipse-3.1;1782;96672;1
eclipse-3.1;1783;96122;2
eclipse-3.1;1784;87583;1
eclipse-3.1;1785;85654;1996
eclipse-3.1;1786;93692;1
eclipse-3.1;1787;95538;1
eclipse-3.1;1788;96202;1500
eclipse-3.1;1789;97818;5047
eclipse-3.1;1790;88726;1293
eclipse-3.1;1791;87787;1
eclipse-3.1;1792;96830;3
eclipse-3.1;1793;96868;166
eclipse-3.1;1794;88181;173
eclipse-3.1;1795;95335;3
eclipse-3.1;1796;95944;2003
eclipse-3.1;1797;94504;30
eclipse-3.1;1798;96766;2
eclipse-3.1;1799;97175;2
eclipse-3.1;1800;97986;1
eclipse-3.1;1801;98008;1
eclipse-3.1;1802;97471;1
eclipse-3.1;1803;96432;1589
eclipse-3.1;1804;85770;251
eclipse-3.1;1805;98124;3
eclipse-3.1;1806;97364;6
eclipse-3.1;1807;97945;28
eclipse-3.1;1808;98070;9
eclipse-3.1;1809;94465;54
eclipse-3.1;1810;96668;1
eclipse-3.1;1811;97479;19
eclipse-3.1;1812;94441;29
eclipse-3.1;1813;96885;1
eclipse-3.1;1814;98107;2
eclipse-3.1;1815;97577;10
eclipse-3.1;1816;98122;3
eclipse-3.1;1817;98169;29
eclipse-3.1;1818;97651;6
eclipse-3.1;1819;97336;1
eclipse-3.1;1820;98219;2
eclipse-3.1;1821;97024;1
eclipse-3.1;1822;97678;1
eclipse-3.1;1823;98059;13
eclipse-3.1;1824;98330;30
eclipse-3.1;1825;90264;741
eclipse-3.1;1826;98423;2
eclipse-3.1;1827;97792;12
eclipse-3.1;1828;95902;227
eclipse-3.1;1829;98075;523
eclipse-3.1;1830;98123;189
eclipse-3.1;1831;96656;115
eclipse-3.1;1832;97674;11
eclipse-3.1;1833;97843;2
eclipse-3.1;1834;98256;1277
eclipse-3.1;1835;97367;510
eclipse-3.1;1836;97608;496
eclipse-3.1;1837;96921;7
eclipse-3.1;1838;97136;2
eclipse-3.1;1839;97216;2
eclipse-3.1;1840;97639;3
eclipse-3.1;1841;97708;2
eclipse-3.1;1842;97710;1
eclipse-3.1;1843;97741;16
eclipse-3.1;1844;98202;115
eclipse-3.1;1845;97745;2
eclipse-3.1;1846;97564;105
eclipse-3.1;1847;95298;1
eclipse-3.1;1848;97738;565
eclipse-3.1;1849;96731;1
eclipse-3.1;1850;96728;1
eclipse-3.1;1851;98358;6
eclipse-3.1;1852;97363;2327
eclipse-3.1;1853;97906;2
eclipse-3.1;1854;98676;2509
eclipse-3.1;1855;98674;361
eclipse-3.1;1856;98673;12
eclipse-3.1;1857;97866;2
eclipse-3.1;1858;97876;53
eclipse-3.1;1859;98686;1
eclipse-3.1;1860;98682;80
eclipse-3.1;1861;98376;1
eclipse-3.1;1862;96859;1
eclipse-3.1;1863;96888;2
eclipse-3.1;1864;96972;9
eclipse-3.1;1865;97327;4
eclipse-3.1;1866;97304;1
eclipse-3.1;1867;97628;4
eclipse-3.1;1868;97742;3
eclipse-3.1;1869;97847;1
eclipse-3.1;1870;98389;7
eclipse-3.1;1871;95490;2
eclipse-3.1;1872;97421;14
eclipse-3.1;1873;89175;1
eclipse-3.1;1874;98828;1
eclipse-3.1;1875;98231;9
eclipse-3.1;1876;98545;1
eclipse-3.1;1877;88038;7
eclipse-3.1;1878;97177;2
eclipse-3.1;1879;95113;2
eclipse-3.1;1880;96964;2
eclipse-3.1;1881;95710;11748
eclipse-3.1;1882;98987;1
eclipse-3.1;1883;91543;1
eclipse-3.1;1884;97338;16
eclipse-3.1;1885;99005;1
eclipse-3.1;1886;98835;15
eclipse-3.1;1887;99111;3
eclipse-3.1;1888;96820;34
eclipse-3.1;1889;97857;2
eclipse-3.1;1890;99029;503
eclipse-3.1;1891;97103;61
eclipse-3.1;1892;98048;12
eclipse-3.1;1893;98090;1
eclipse-3.1;1894;99174;1
eclipse-3.1;1895;98853;2
eclipse-3.1;1896;87222;23
eclipse-3.1;1897;93371;5
eclipse-3.1;1898;97337;1
eclipse-3.1;1899;98007;53
eclipse-3.1;1900;99235;14
eclipse-3.1;1901;98522;1
eclipse-3.1;1902;98604;47
eclipse-3.1;1903;90916;32
eclipse-3.1;1904;99314;1
eclipse-3.1;1905;99337;86
eclipse-3.1;1906;96605;1
eclipse-3.1;1907;89335;64
eclipse-3.1;1908;96767;30
eclipse-3.1;1909;96821;1
eclipse-3.1;1910;96794;3
eclipse-3.1;1911;99070;3
eclipse-3.1;1912;96974;2
eclipse-3.1;1913;97939;6
eclipse-3.1;1914;97139;109
eclipse-3.1;1915;97190;77
eclipse-3.1;1916;97247;14
eclipse-3.1;1917;97459;173
eclipse-3.1;1918;97744;3
eclipse-3.1;1919;98037;76
eclipse-3.1;1920;97841;77
eclipse-3.1;1921;98009;12
eclipse-3.1;1922;98091;3
eclipse-3.1;1923;98165;25
eclipse-3.1;1924;98473;2
eclipse-3.1;1925;98750;1
eclipse-3.1;1926;98954;3
eclipse-3.1;1927;82068;17
eclipse-3.1;1928;99084;142
eclipse-3.1;1929;99300;1
eclipse-3.1;1930;96489;36
eclipse-3.1;1931;99142;5
eclipse-3.1;1932;98245;1
eclipse-3.1;1933;95168;2
eclipse-3.1;1934;97648;103
eclipse-3.1;1935;97451;1
eclipse-3.1;1936;78927;76
eclipse-3.1;1937;99064;1
eclipse-3.1;1938;95931;8
eclipse-3.1;1939;96861;2
eclipse-3.1;1940;97691;34
eclipse-3.1;1941;98118;20
eclipse-3.1;1942;79309;284
eclipse-3.1;1943;82560;26
eclipse-3.1;1944;84001;757
eclipse-3.1;1945;93975;12
eclipse-3.1;1946;98711;5
eclipse-3.1;1947;85384;112
eclipse-3.1;1948;94641;3
eclipse-3.1;1949;98115;112
eclipse-3.1;1950;94907;1
eclipse-3.1;1951;98906;129
eclipse-3.1;1952;97860;2
eclipse-3.1;1953;98332;1
eclipse-3.1;1954;96765;1235
eclipse-3.1;1955;96918;46
eclipse-3.1;1956;96944;50
eclipse-3.1;1957;98432;8
eclipse-3.1;1958;97307;148
eclipse-3.1;1959;95665;11
eclipse-3.1;1960;89718;6
eclipse-3.1;1961;88905;1
eclipse-3.1;1962;95747;5
eclipse-3.1;1963;99088;1
eclipse-3.1;1964;89623;2
eclipse-3.1;1965;98020;3
eclipse-3.1;1966;93528;4
eclipse-3.1;1967;98683;1
eclipse-3.1;1968;94669;1
eclipse-3.1;1969;84112;12
eclipse-3.1;1970;91961;1
eclipse-3.1;1971;94852;37
eclipse-3.1;1972;96872;1
eclipse-3.1;1973;97497;2
eclipse-3.1;1974;98497;35
eclipse-3.1;1975;97811;3
eclipse-3.1;1976;96463;1
eclipse-3.1;1977;94457;185
eclipse-3.1;1978;97387;2
eclipse-3.1;1979;85003;7
eclipse-3.1;1980;97325;8
eclipse-3.1;1981;96722;1
eclipse-3.1;1982;94482;13
eclipse-3.1;1983;97395;4
eclipse-3.1;1984;97632;600
eclipse-3.1;1985;94471;1
eclipse-3.1;1986;97109;31
eclipse-3.1;1987;99073;1
eclipse-3.1;1988;98030;1
eclipse-3.1;1989;83658;1
eclipse-3.1;1990;88137;1
eclipse-3.1;1991;88240;34
eclipse-3.1;1992;88733;1
eclipse-3.1;1993;88890;1
eclipse-3.1;1994;89026;2
eclipse-3.1;1995;89032;1
eclipse-3.1;1996;89137;2
eclipse-3.1;1997;89625;2
eclipse-3.1;1998;98249;98
eclipse-3.1;1999;99063;1
eclipse-3.1;2000;78551;1
eclipse-3.1;2001;99558;2
eclipse-3.1;2002;99977;2
eclipse-3.1;2003;100001;2
eclipse-3.1;2004;98790;117
eclipse-3.1;2005;99286;9
eclipse-3.1;2006;99624;14
eclipse-3.1;2007;98872;3
eclipse-3.1;2008;99407;1
eclipse-3.1;2009;99796;1
eclipse-3.1;2010;100068;4
eclipse-3.1;2011;100137;332
eclipse-3.1;2012;99693;137
eclipse-3.1;2013;92135;112
eclipse-3.1;2014;98162;2
eclipse-3.1;2015;98003;3
eclipse-3.1;2016;96657;1
eclipse-3.1;2017;99752;932
eclipse-3.1;2018;98900;1
eclipse-3.1;2019;98995;1
eclipse-3.1;2020;99067;1
eclipse-3.1;2021;99247;2
eclipse-3.1;2022;99996;8
eclipse-3.1;2023;100118;97
eclipse-3.1;2024;99809;1
eclipse-3.1;2025;99629;66
eclipse-3.1;2026;100246;458
eclipse-3.1;2027;99282;57
eclipse-3.1;2028;99355;3874
eclipse-3.1;2029;99375;474
eclipse-3.1;2030;99397;7
eclipse-3.1;2031;99999;39
eclipse-3.1;2032;100062;628
eclipse-3.1;2033;100162;768
eclipse-3.1;2034;100302;2
eclipse-3.1;2035;94401;4
eclipse-3.1;2036;85133;25
eclipse-3.1;2037;99499;2
eclipse-3.1;2038;97379;1
eclipse-3.1;2039;96022;2
eclipse-3.1;2040;97717;51
eclipse-3.1;2041;97722;205
eclipse-3.1;2042;98005;1
eclipse-3.1;2043;99376;1961
eclipse-3.1;2044;95322;1
eclipse-3.1;2045;99801;5
eclipse-3.1;2046;95150;2
eclipse-3.1;2047;99957;1
eclipse-3.1;2048;92508;4
eclipse-3.1;2049;98605;2470
eclipse-3.1;2050;100393;2
eclipse-3.1;2051;76530;1
eclipse-3.1;2052;99785;23
eclipse-3.1;2053;100336;15
eclipse-3.1;2054;98387;92
eclipse-3.1;2055;97766;4
eclipse-3.1;2056;100283;1
eclipse-3.1;2057;99440;3
eclipse-3.1;2058;100040;11
eclipse-3.1;2059;93348;3
eclipse-3.1;2060;89627;1
eclipse-3.1;2061;76767;5
eclipse-3.1;2062;99526;33
eclipse-3.1;2063;97726;91
eclipse-3.1;2064;100806;4
eclipse-3.1;2065;94633;13
eclipse-3.1;2066;96037;1
eclipse-3.1;2067;98014;1
eclipse-3.1;2068;98305;1399
eclipse-3.1;2069;100346;1
eclipse-3.1;2070;99177;1
eclipse-3.1;2071;100177;3
eclipse-3.1;2072;88813;70
eclipse-3.1;2073;98740;12
eclipse-3.1;2074;73487;7
eclipse-3.1;2075;97712;4556
eclipse-3.1;2076;100089;105
eclipse-3.1;2077;101092;1
eclipse-3.1;2078;100357;2177
eclipse-3.1;2079;100767;1
eclipse-3.1;2080;78634;12
eclipse-3.1;2081;100565;66
eclipse-3.1;2082;101138;2
eclipse-3.1;2083;96784;6
eclipse-3.1;2084;97783;1
eclipse-3.1;2085;95745;10
eclipse-3.1;2086;101118;2
eclipse-3.1;2087;98160;307
eclipse-3.1;2088;100737;1
eclipse-3.1;2089;82839;42
eclipse-3.1;2090;78503;12
eclipse-3.1;2091;95679;1158
eclipse-3.1;2092;100009;31
eclipse-3.1;2093;101120;10
eclipse-3.1;2094;101350;1
eclipse-3.1;2095;84140;2
eclipse-3.1;2096;100807;1192
eclipse-3.1;2097;100331;6
eclipse-3.1;2098;77673;320
eclipse-3.1;2099;101250;2
eclipse-3.1;2100;88267;17
eclipse-3.1;2101;97121;858
eclipse-3.1;2102;97655;36
eclipse-3.1;2103;96413;39
eclipse-3.1;2104;97796;3677
eclipse-3.1;2105;98437;25
eclipse-3.1;2106;77999;1
eclipse-3.1;2107;97063;22
eclipse-3.1;2108;100586;1
eclipse-3.1;2109;100803;1
eclipse-3.1;2110;99060;1
eclipse-3.1;2111;99982;1
eclipse-3.1;2112;103552;9
eclipse-3.1;2113;103553;11
eclipse-3.1;2114;103652;2
eclipse-3.1;2115;99220;6
eclipse-3.1;2116;94814;1816
eclipse-3.1;2117;103669;2
eclipse-3.1;2118;103694;3
eclipse-3.1;2119;103832;1
eclipse-3.1;2120;78078;1
eclipse-3.1;2121;94922;11
eclipse-3.1;2122;97990;509
eclipse-3.1;2123;104374;3
eclipse-3.1;2124;104477;3
eclipse-3.1;2125;104711;1
eclipse-3.1;2126;99230;5
eclipse-3.1;2127;103918;1188
eclipse-3.1;2128;100543;11
eclipse-3.1;2129;105018;10
eclipse-3.1;2130;81045;54
eclipse-3.1;2131;90724;1
eclipse-3.1;2132;103410;15
eclipse-3.1;2133;88752;15
eclipse-3.1;2134;100480;6
eclipse-3.1;2135;105476;2394
eclipse-3.1;2136;105487;4
eclipse-3.1;2137;105474;6
eclipse-3.1;2138;105490;16
eclipse-3.1;2139;105486;3
eclipse-3.1;2140;105464;1
eclipse-3.1;2141;105471;1
eclipse-3.1;2142;105484;1
eclipse-3.1;2143;105239;4
eclipse-3.1;2144;94603;7
eclipse-3.1;2145;105472;19
eclipse-3.1;2146;105468;23
eclipse-3.1;2147;105450;3
eclipse-3.1;2148;105463;1
eclipse-3.1;2149;105469;1
eclipse-3.1;2150;105475;1
eclipse-3.1;2151;105488;3
eclipse-3.1;2152;105865;2
eclipse-3.1;2153;102427;1973
eclipse-3.1;2154;105230;88
eclipse-3.1;2155;105255;39
eclipse-3.1;2156;105264;11
eclipse-3.1;2157;104573;32
eclipse-3.1;2158;102794;130
eclipse-3.1;2159;100387;1
eclipse-3.1;2160;104966;24
eclipse-3.1;2161;96916;154
eclipse-3.1;2162;89471;3
eclipse-3.1;2163;104852;2
eclipse-3.1;2164;104675;324
eclipse-3.1;2165;104854;13
eclipse-3.1;2166;106057;7
eclipse-3.1;2167;104322;1
eclipse-3.1;2168;102494;1
eclipse-3.1;2169;105192;1
eclipse-3.1;2170;104765;27
eclipse-3.1;2171;104704;1
eclipse-3.1;2172;105261;87
eclipse-3.1;2173;99423;29
eclipse-3.1;2174;104245;1
eclipse-3.1;2175;104877;1
eclipse-3.1;2176;76714;190
eclipse-3.1;2177;104654;80
eclipse-3.1;2178;98141;5
eclipse-3.1;2179;100889;1
eclipse-3.1;2180;76496;24
eclipse-3.1;2181;105648;1
eclipse-3.1;2182;105665;447
eclipse-3.1;2183;105697;2
eclipse-3.1;2184;101215;17
eclipse-3.1;2185;102911;4330
eclipse-3.1;2186;105936;2812
eclipse-3.1;2187;86159;1
eclipse-3.1;2188;84824;3
eclipse-3.1;2189;95815;1
eclipse-3.1;2190;98771;1
eclipse-3.1;2191;101950;5
eclipse-3.1;2192;99099;1
eclipse-3.1;2193;102439;6
eclipse-3.1;2194;104991;559
eclipse-3.1;2195;99864;1
eclipse-3.1;2196;100156;3
eclipse-3.1;2197;97882;1
eclipse-3.1;2198;101065;27
eclipse-3.1;2199;105837;8
eclipse-3.1;2200;106492;83
eclipse-3.1;2201;106157;8
eclipse-3.1;2202;104129;3
eclipse-3.1;2203;104342;1
eclipse-3.1;2204;102829;3
eclipse-3.1;2205;89910;2
eclipse-3.1;2206;90258;1
eclipse-3.1;2207;101800;15
eclipse-3.1;2208;106705;5
eclipse-3.1;2209;105231;2
eclipse-3.1;2210;101905;23
eclipse-3.1;2211;95307;41
eclipse-3.1;2212;99733;1
eclipse-3.1;2213;104778;3
eclipse-3.1;2214;105827;269
eclipse-3.1;2215;107145;2
eclipse-3.1;2216;105779;11
eclipse-3.1;2217;96893;4
eclipse-3.1;2218;92013;11
eclipse-3.1;2219;79467;35
eclipse-3.1;2220;107360;2
eclipse-3.1;2221;106046;4
eclipse-3.1;2222;107622;1
eclipse-3.1;2223;107605;6
eclipse-3.1;2224;100460;3
eclipse-3.1;2225;99753;92
eclipse-3.1;2226;107854;398
eclipse-3.1;2227;88552;2
eclipse-3.1;2228;107488;1
eclipse-3.1;2229;98621;2958
eclipse-3.1;2230;107847;1
eclipse-3.1;2231;90712;1
eclipse-3.1;2232;96053;4
eclipse-3.1;2233;105017;28
eclipse-3.1;2234;105772;1
eclipse-3.1;2235;80791;2
eclipse-3.1;2236;106339;1
eclipse-3.1;2237;107434;1
eclipse-3.1;2238;107820;1
eclipse-3.1;2239;108271;1
eclipse-3.1;2240;100233;13
eclipse-3.1;2241;100868;554
eclipse-3.1;2242;96059;1141
eclipse-3.1;2243;95096;126
eclipse-3.1;2244;107934;4
eclipse-3.1;2245;108699;3
eclipse-3.1;2246;107031;77
eclipse-3.1;2247;108802;1
eclipse-3.1;2248;108258;680
eclipse-3.1;2249;108426;61
eclipse-3.1;2250;88824;1
eclipse-3.1;2251;104987;1052
eclipse-3.1;2252;96114;4
eclipse-3.1;2253;95357;5677
eclipse-3.1;2254;105807;1016
eclipse-3.1;2255;99416;168
eclipse-3.1;2256;108126;257
eclipse-3.1;2257;95907;353
eclipse-3.1;2258;108473;184
eclipse-3.1;2259;109863;23
eclipse-3.1;2260;94448;6
eclipse-3.1;2261;94761;41
eclipse-3.1;2262;96129;1
eclipse-3.1;2263;107391;6306
eclipse-3.1;2264;107535;2
eclipse-3.1;2265;76978;1
eclipse-3.1;2266;105185;1
eclipse-3.1;2267;107660;14
eclipse-3.1;2268;68787;2
eclipse-3.1;2269;82743;3
eclipse-3.1;2270;98800;154
eclipse-3.1;2271;84881;8
eclipse-3.1;2272;99723;18
eclipse-3.1;2273;90646;1
eclipse-3.1;2274;98248;1
eclipse-3.1;2275;101540;138
eclipse-3.1;2276;104202;1600
eclipse-3.1;2277;108953;18
eclipse-3.1;2278;105816;66
eclipse-3.1;2279;87683;767
eclipse-3.1;2280;108107;14
eclipse-3.1;2281;82706;1
eclipse-3.1;2282;97523;3
eclipse-3.1;2283;102485;176
eclipse-3.1;2284;106668;10
eclipse-3.1;2285;107038;1
eclipse-3.1;2286;109830;1
eclipse-3.1;2287;77979;2
eclipse-3.1;2288;104558;1
eclipse-3.1;2289;100325;1
eclipse-3.1;2290;108144;1
eclipse-3.1;2291;105649;1
eclipse-3.1;2292;90825;44
eclipse-3.1;2293;109452;4
eclipse-3.1;2294;108978;1
eclipse-3.1;2295;107474;6
eclipse-3.1;2296;98147;472
eclipse-3.1;2297;102285;7
eclipse-3.1;2298;95658;1
eclipse-3.1;2299;107479;5
eclipse-3.1;2300;92286;1
eclipse-3.1;2301;109513;1
eclipse-3.1;2302;103148;4
eclipse-3.1;2303;100808;834
eclipse-3.1;2304;100797;50
eclipse-3.1;2305;110191;114
eclipse-3.1;2306;91426;8
eclipse-3.1;2307;97220;3
eclipse-3.1;2308;101329;1
eclipse-3.1;2309;105223;84
eclipse-3.1;2310;101328;929
eclipse-3.1;2311;105262;95
eclipse-3.1;2312;105263;7
eclipse-3.1;2313;101247;48
eclipse-3.1;2314;101885;4
eclipse-3.1;2315;97326;1
eclipse-3.1;2316;106403;11
eclipse-3.1;2317;105635;480
eclipse-3.1;2318;101955;16
eclipse-3.1;2319;104738;4
eclipse-3.1;2320;104664;4
eclipse-3.1;2321;103320;2057
eclipse-3.1;2322;102778;179
eclipse-3.1;2323;103636;1
eclipse-3.1;2324;84609;10
eclipse-3.1;2325;101683;275
eclipse-3.1;2326;101434;1524
eclipse-3.1;2327;106574;855
eclipse-3.1;2328;96600;7
eclipse-3.1;2329;103514;65
eclipse-3.1;2330;104492;5
eclipse-3.1;2331;95589;2678
eclipse-3.1;2332;103379;2088
eclipse-3.1;2333;102787;1
eclipse-3.1;2334;109639;1
eclipse-3.1;2335;104657;30
eclipse-3.1;2336;105576;127
eclipse-3.1;2337;102305;22
eclipse-3.1;2338;102284;3343
eclipse-3.1;2339;105430;11
eclipse-3.1;2340;106388;64
eclipse-3.1;2341;98137;1
eclipse-3.1;2342;111171;587
eclipse-3.1;2343;79709;1
eclipse-3.1;2344;102422;41
eclipse-3.1;2345;99858;1
eclipse-3.1;2346;102955;10
eclipse-3.1;2347;110028;1
eclipse-3.1;2348;98039;1
eclipse-3.1;2349;96180;2
eclipse-3.1;2350;100782;2
eclipse-3.1;2351;95363;20
eclipse-3.1;2352;95368;5
eclipse-3.1;2353;89956;17
eclipse-3.1;2354;107602;9
eclipse-3.1;2355;97765;1
eclipse-3.1;2356;100591;43
eclipse-3.1;2357;96746;1
eclipse-3.1;2358;100654;5
eclipse-3.1;2359;100784;1
eclipse-3.1;2360;96210;9
eclipse-3.1;2361;97051;4
eclipse-3.1;2362;111407;11
eclipse-3.1;2363;111489;17
eclipse-3.1;2364;111561;37
eclipse-3.1;2365;87211;10
eclipse-3.1;2366;102102;64
eclipse-3.1;2367;100908;110
eclipse-3.1;2368;103462;1
eclipse-3.1;2369;101080;305
eclipse-3.1;2370;109491;2
eclipse-3.1;2371;111908;2
eclipse-3.1;2372;112385;4
eclipse-3.1;2373;112230;8
eclipse-3.1;2374;90353;2
eclipse-3.1;2375;102127;6
eclipse-3.1;2376;111822;1
eclipse-3.1;2377;112576;173
eclipse-3.1;2378;99266;15
eclipse-3.1;2379;94291;5
eclipse-3.1;2380;97308;7
eclipse-3.1;2381;109510;1
eclipse-3.1;2382;88548;2
eclipse-3.1;2383;86580;1
eclipse-3.1;2384;111633;2
eclipse-3.1;2385;111739;70
eclipse-3.1;2386;113678;89
eclipse-3.1;2387;112670;1
eclipse-3.1;2388;113697;1
eclipse-3.1;2389;113849;3
eclipse-3.1;2390;113899;7
eclipse-3.1;2391;83206;223
eclipse-3.1;2392;113971;635
eclipse-3.1;2393;111219;1
eclipse-3.1;2394;109940;1
eclipse-3.1;2395;111420;3
eclipse-3.1;2396;112137;626
eclipse-3.1;2397;86112;13
eclipse-3.1;2398;110766;1
eclipse-3.1;2399;114289;101
eclipse-3.1;2400;109329;12
eclipse-3.1;2401;111250;13
eclipse-3.1;2402;83711;262
eclipse-3.1;2403;108801;120
eclipse-3.1;2404;110076;2
eclipse-3.1;2405;111802;8
eclipse-3.1;2406;86307;7
eclipse-3.1;2407;104900;1
eclipse-3.1;2408;100693;2
eclipse-3.1;2409;114733;5
eclipse-3.1;2410;108709;4
eclipse-3.1;2411;108705;863
eclipse-3.1;2412;110148;9
eclipse-3.1;2413;114240;3
eclipse-3.1;2414;102081;2
eclipse-3.1;2415;86750;62
eclipse-3.1;2416;96044;2
eclipse-3.1;2417;95043;18
eclipse-3.1;2418;102893;2
eclipse-3.1;2419;112358;112
eclipse-3.1;2420;115722;3
eclipse-3.1;2421;97456;19
eclipse-3.1;2422;102266;1095
eclipse-3.1;2423;116517;19
eclipse-3.1;2424;114170;5
eclipse-3.1;2425;116894;1
eclipse-3.1;2426;82277;29
eclipse-3.1;2427;105238;1
eclipse-3.1;2428;92341;34
eclipse-3.1;2429;117558;23
eclipse-3.1;2430;114683;60
eclipse-3.1;2431;117848;16
eclipse-3.1;2432;107739;1
eclipse-3.1;2433;100273;8
eclipse-3.1;2434;118060;2
eclipse-3.1;2435;116330;1
eclipse-3.1;2436;105955;1
eclipse-3.1;2437;90031;1
eclipse-3.1;2438;106567;1
eclipse-3.1;2439;103326;1
eclipse-3.1;2440;117574;28
eclipse-3.1;2441;118246;5
eclipse-3.1;2442;89429;2
eclipse-3.1;2443;118071;1
eclipse-3.1;2444;99091;2
eclipse-3.1;2445;113659;1
eclipse-3.1;2446;101942;1
eclipse-3.1;2447;110227;2
eclipse-3.1;2448;112613;6
eclipse-3.1;2449;118104;2
eclipse-3.1;2450;97706;2
eclipse-3.1;2451;116296;2
eclipse-3.1;2452;88914;6
eclipse-3.1;2453;97829;1
eclipse-3.1;2454;115015;2
eclipse-3.1;2455;83992;544
eclipse-3.1;2456;92901;6
eclipse-3.1;2457;106419;6
eclipse-3.1;2458;100081;1
eclipse-3.1;2459;106422;1
eclipse-3.1;2460;106421;3
eclipse-3.1;2461;119814;11
eclipse-3.1;2462;110188;32
eclipse-3.1;2463;98154;7639
eclipse-3.1;2464;115363;5701
eclipse-3.1;2465;116028;3
eclipse-3.1;2466;116858;23
eclipse-3.1;2467;102270;18
eclipse-3.1;2468;117890;131
eclipse-3.1;2469;103501;1
eclipse-3.1;2470;96704;1
eclipse-3.1;2471;107271;23
eclipse-3.1;2472;114565;2654
eclipse-3.1;2473;110204;141
eclipse-3.1;2474;114962;13
eclipse-3.1;2475;116911;3
eclipse-3.1;2476;89664;2
eclipse-3.1;2477;109544;1
eclipse-3.1;2478;111839;7
eclipse-3.1;2479;113832;32
eclipse-3.1;2480;118845;384
eclipse-3.1;2481;115283;1
eclipse-3.1;2482;115731;1
eclipse-3.1;2483;114801;8
eclipse-3.1;2484;107839;30
eclipse-3.1;2485;109281;1
eclipse-3.1;2486;110186;3
eclipse-3.1;2487;117576;2
eclipse-3.1;2488;113788;55
eclipse-3.1;2489;101874;4
eclipse-3.1;2490;116931;1
eclipse-3.1;2491;118094;4
eclipse-3.1;2492;80644;128
eclipse-3.1;2493;109248;1
eclipse-3.1;2494;109702;3
eclipse-3.1;2495;116061;1
eclipse-3.1;2496;120545;2
eclipse-3.1;2497;106454;25
eclipse-3.1;2498;120695;409
eclipse-3.1;2499;93380;8
eclipse-3.1;2500;92164;1
eclipse-3.1;2501;102318;53
eclipse-3.1;2502;117602;1
eclipse-3.1;2503;109104;1453
eclipse-3.1;2504;122751;1
eclipse-3.1;2505;103381;3
eclipse-3.1;2506;100595;2
eclipse-3.1;2507;122825;32
eclipse-3.1;2508;101766;3
eclipse-3.1;2509;110636;30
eclipse-3.1;2510;111017;4
eclipse-3.1;2511;116060;1
eclipse-3.1;2512;122421;1
eclipse-3.1;2513;115408;143
eclipse-3.1;2514;114855;453
eclipse-3.1;2515;117382;7
eclipse-3.1;2516;116095;2
eclipse-3.1;2517;105874;31
eclipse-3.1;2518;85899;2853
eclipse-3.1;2519;107056;0
eclipse-3.1;2520;118153;4
eclipse-3.1;2521;94537;67
eclipse-3.1;2522;119244;9
eclipse-3.1;2523;77645;8
eclipse-3.1;2524;111427;7
eclipse-3.1;2525;114521;1
eclipse-3.1;2526;98272;45
eclipse-3.1;2527;105077;1
eclipse-3.1;2528;95371;1
eclipse-3.1;2529;123820;1
eclipse-3.1;2530;105573;7
eclipse-3.1;2531;117043;1
eclipse-3.1;2532;97644;7
eclipse-3.1;2533;104684;3
eclipse-3.1;2534;111532;26
eclipse-3.1;2535;122664;1
eclipse-3.1;2536;86493;2
eclipse-3.1;2537;124418;1
eclipse-3.1;2538;98099;1
eclipse-3.1;2539;104416;5
eclipse-3.1;2540;103706;2
eclipse-3.1;2541;101090;17
eclipse-3.1;2542;107335;408
eclipse-3.1;2543;119705;46
eclipse-3.1;2544;92640;1
eclipse-3.1;2545;109211;5
eclipse-3.1;2546;125442;2
eclipse-3.1;2547;114664;1
eclipse-3.1;2548;125646;178
eclipse-3.1;2549;89599;1
eclipse-3.1;2550;107204;10
eclipse-3.1;2551;104104;42
eclipse-3.1;2552;108114;281
eclipse-3.1;2553;103976;18
eclipse-3.1;2554;112533;4
eclipse-3.1;2555;107813;1
eclipse-3.1;2556;126392;4
eclipse-3.1;2557;126437;1
eclipse-3.1;2558;100032;3
eclipse-3.1;2559;87206;1
eclipse-3.1;2560;124565;1
eclipse-3.1;2561;127136;1
eclipse-3.1;2562;127130;1
eclipse-3.1;2563;125994;449
eclipse-3.1;2564;123603;830
eclipse-3.1;2565;80196;1
eclipse-3.1;2566;126515;6
eclipse-3.1;2567;125410;4
eclipse-3.1;2568;85350;1
eclipse-3.1;2569;105928;1
eclipse-3.1;2570;127366;6024
eclipse-3.1;2571;98127;6
eclipse-3.1;2572;106545;1
eclipse-3.1;2573;124290;1
eclipse-3.1;2574;121414;1
eclipse-3.1;2575;102626;10
eclipse-3.1;2576;121710;3
eclipse-3.1;2577;123721;15
eclipse-3.1;2578;105677;56
eclipse-3.1;2579;123296;2
eclipse-3.1;2580;120414;90
eclipse-3.1;2581;102572;8
eclipse-3.1;2582;110173;52
eclipse-3.1;2583;121730;571
eclipse-3.1;2584;32553;1781
eclipse-3.1;2585;85774;21
eclipse-3.1;2586;99009;1
eclipse-3.1;2587;109980;2
eclipse-3.1;2588;119175;1788
eclipse-3.1;2589;126091;2
eclipse-3.1;2590;125270;49
eclipse-3.1;2591;127199;81
eclipse-3.1;2592;122746;2
eclipse-3.1;2593;99155;2
eclipse-3.1;2594;126465;448
eclipse-3.1;2595;84407;13
eclipse-3.1;2596;106424;3
eclipse-3.1;2597;119617;565
eclipse-3.1;2598;112005;12
eclipse-3.1;2599;106289;15
eclipse-3.1;2600;128538;2
eclipse-3.1;2601;111898;8
eclipse-3.1;2602;108747;4
eclipse-3.1;2603;86923;33
eclipse-3.1;2604;128757;8
eclipse-3.1;2605;128931;28
eclipse-3.1;2606;102526;50
eclipse-3.1;2607;129093;8
eclipse-3.1;2608;102282;4
eclipse-3.1;2609;129094;1
eclipse-3.1;2610;106789;34
eclipse-3.1;2611;128345;4
eclipse-3.1;2612;102259;6
eclipse-3.1;2613;129834;59
eclipse-3.1;2614;90597;4
eclipse-3.1;2615;102114;3
eclipse-3.1;2616;130199;3
eclipse-3.1;2617;130426;1281
eclipse-3.1;2618;130424;68
eclipse-3.1;2619;130411;4431
eclipse-3.1;2620;130404;167
eclipse-3.1;2621;126938;16
eclipse-3.1;2622;88098;14
eclipse-3.1;2623;128991;1
eclipse-3.1;2624;79912;1
eclipse-3.1;2625;130414;44
eclipse-3.1;2626;130687;3
eclipse-3.1;2627;124799;1
eclipse-3.1;2628;130700;15
eclipse-3.1;2629;130407;29
eclipse-3.1;2630;90102;3
eclipse-3.1;2631;90971;1
eclipse-3.1;2632;124257;1
eclipse-3.1;2633;125432;1
eclipse-3.1;2634;102943;1
eclipse-3.1;2635;103374;3625
eclipse-3.1;2636;129867;1
eclipse-3.1;2637;131420;257
eclipse-3.1;2638;131692;1
eclipse-3.1;2639;107272;3
eclipse-3.1;2640;80833;10
eclipse-3.1;2641;104150;2
eclipse-3.1;2642;78596;2
eclipse-3.1;2643;96248;22
eclipse-3.1;2644;131440;4
eclipse-3.1;2645;94212;2
eclipse-3.1;2646;132901;8
eclipse-3.1;2647;111106;8
eclipse-3.1;2648;132598;1
eclipse-3.1;2649;90469;5
eclipse-3.1;2650;133193;8
eclipse-3.1;2651;133424;4
eclipse-3.1;2652;104536;1
eclipse-3.1;2653;133292;3992
eclipse-3.1;2654;77332;1
eclipse-3.1;2655;115791;3
eclipse-3.1;2656;106393;14
eclipse-3.1;2657;128276;1479
eclipse-3.1;2658;130465;13
eclipse-3.1;2659;99904;1
eclipse-3.1;2660;78722;17
eclipse-3.1;2661;130378;3
eclipse-3.1;2662;90257;1
eclipse-3.1;2663;106839;14
eclipse-3.1;2664;37712;1
eclipse-3.1;2665;85005;1
eclipse-3.1;2666;95884;24
eclipse-3.1;2667;96828;2
eclipse-3.1;2668;91050;5
eclipse-3.1;2669;94721;1
eclipse-3.1;2670;107721;2
eclipse-3.1;2671;134001;2
eclipse-3.1;2672;83005;30
eclipse-3.1;2673;106725;59
eclipse-3.1;2674;120559;106
eclipse-3.1;2675;108937;1
eclipse-3.1;2676;102866;1
eclipse-3.1;2677;108954;4629
eclipse-3.1;2678;131032;3
eclipse-3.1;2679;89474;2
eclipse-3.1;2680;110837;746
eclipse-3.1;2681;131693;14
eclipse-3.1;2682;106871;1
eclipse-3.1;2683;127762;18
eclipse-3.1;2684;107385;6
eclipse-3.1;2685;97023;44
eclipse-3.1;2686;108102;16
eclipse-3.1;2687;135792;24
eclipse-3.1;2688;109073;2
eclipse-3.1;2689;123588;3
eclipse-3.1;2690;128343;14
eclipse-3.1;2691;108256;5746
eclipse-3.1;2692;110184;2
eclipse-3.1;2693;99729;52
eclipse-3.1;2694;81264;6
eclipse-3.1;2695;90517;115
eclipse-3.1;2696;136172;101
eclipse-3.1;2697;83318;392
eclipse-3.1;2698;96648;1
eclipse-3.1;2699;108087;10
eclipse-3.1;2700;106450;10
eclipse-3.1;2701;105767;7
eclipse-3.1;2702;101754;1
eclipse-3.1;2703;104496;3
eclipse-3.1;2704;125416;151
eclipse-3.1;2705;124499;4
eclipse-3.1;2706;110169;1
eclipse-3.1;2707;111556;33
eclipse-3.1;2708;108314;1
eclipse-3.1;2709;107580;14
eclipse-3.1;2710;17523;3
eclipse-3.1;2711;106588;327
eclipse-3.1;2712;102654;3
eclipse-3.1;2713;135083;1
eclipse-3.1;2714;84336;3413
eclipse-3.1;2715;107067;10
eclipse-3.1;2716;98692;32
eclipse-3.1;2717;137097;22
eclipse-3.1;2718;116908;44
eclipse-3.1;2719;117508;2
eclipse-3.1;2720;95176;40
eclipse-3.1;2721;137375;2
eclipse-3.1;2722;99145;11
eclipse-3.1;2723;95253;215
eclipse-3.1;2724;113455;63
eclipse-3.1;2725;77336;15
eclipse-3.1;2726;137227;4
eclipse-3.1;2727;138563;26
eclipse-3.1;2728;136087;3
eclipse-3.1;2729;138830;1
eclipse-3.1;2730;108039;1
eclipse-3.1;2731;124552;1
eclipse-3.1;2732;112661;1
eclipse-3.1;2733;90273;2
eclipse-3.1;2734;113370;1
eclipse-3.1;2735;80904;43
eclipse-3.1;2736;83685;129
eclipse-3.1;2737;95829;64
eclipse-3.1;2738;97085;5
eclipse-3.1;2739;138404;2566
eclipse-3.1;2740;137228;3
eclipse-3.1;2741;126419;3
eclipse-3.1;2742;135956;25
eclipse-3.1;2743;101354;1
eclipse-3.1;2744;108769;43
eclipse-3.1;2745;139280;6
eclipse-3.1;2746;138803;96
eclipse-3.1;2747;106631;9
eclipse-3.1;2748;95945;87
eclipse-3.1;2749;106803;2
eclipse-3.1;2750;107121;59
eclipse-3.1;2751;114093;37
eclipse-3.1;2752;97565;45
eclipse-3.1;2753;112222;2
eclipse-3.1;2754;92564;1
eclipse-3.1;2755;89428;16
eclipse-3.1;2756;112225;2
eclipse-3.1;2757;116924;1
eclipse-3.1;2758;85072;2
eclipse-3.1;2759;128452;5
eclipse-3.1;2760;89636;46
eclipse-3.1;2761;124314;2
eclipse-3.1;2762;147399;295
eclipse-3.1;2763;90768;2
eclipse-3.1;2764;97473;3
eclipse-3.1;2765;139290;1
eclipse-3.1;2766;88574;2
eclipse-3.1;2767;139450;11
eclipse-3.1;2768;141682;1
eclipse-3.1;2769;142496;1
eclipse-3.1;2770;142881;34
eclipse-3.1;2771;105777;8
eclipse-3.1;2772;117949;1
eclipse-3.1;2773;101180;1
eclipse-3.1;2774;108276;6
eclipse-3.1;2775;102300;20
eclipse-3.1;2776;149604;412
eclipse-3.1;2777;95613;663
eclipse-3.1;2778;89195;14
eclipse-3.1;2779;98569;61
eclipse-3.1;2780;82064;1
eclipse-3.1;2781;92555;1
eclipse-3.1;2782;89977;99
eclipse-3.1;2783;104320;8
eclipse-3.1;2784;102756;1
eclipse-3.1;2785;151113;19
eclipse-3.1;2786;151502;127
eclipse-3.1;2787;151501;5
eclipse-3.1;2788;151609;325
eclipse-3.1;2789;151702;16
eclipse-3.1;2790;152001;6
eclipse-3.1;2791;152054;6
eclipse-3.1;2792;152200;4
eclipse-3.1;2793;152294;1638
eclipse-3.1;2794;152229;92
eclipse-3.1;2795;108345;6
eclipse-3.1;2796;149506;23
eclipse-3.1;2797;109003;4
eclipse-3.1;2798;87096;3
eclipse-3.1;2799;145367;1
eclipse-3.1;2800;102728;4
eclipse-3.1;2801;146214;1
eclipse-3.1;2802;88325;1
eclipse-3.1;2803;152452;22
eclipse-3.1;2804;81834;38
eclipse-3.1;2805;120704;1
eclipse-3.1;2806;108466;158
eclipse-3.1;2807;79208;2
eclipse-3.1;2808;110994;13
eclipse-3.1;2809;98388;1
eclipse-3.1;2810;101644;7
eclipse-3.1;2811;82240;1
eclipse-3.1;2812;96626;3
eclipse-3.1;2813;153872;211
eclipse-3.1;2814;148081;61
eclipse-3.1;2815;113266;704
eclipse-3.1;2816;95152;247
eclipse-3.1;2817;156827;1865
eclipse-3.1;2818;157132;23
eclipse-3.1;2819;157072;10
eclipse-3.1;2820;153536;17
eclipse-3.1;2821;135355;1
eclipse-3.1;2822;135369;5
eclipse-3.1;2823;96835;1
eclipse-3.1;2824;157738;14
eclipse-3.1;2825;115789;10479
eclipse-3.1;2826;157740;123
eclipse-3.1;2827;157944;682
eclipse-3.1;2828;108869;1
eclipse-3.1;2829;106372;13
eclipse-3.1;2830;160043;1
eclipse-3.1;2831;89608;83
eclipse-3.1;2832;86482;15
eclipse-3.1;2833;90600;2
eclipse-3.1;2834;95008;4
eclipse-3.1;2835;80116;1
eclipse-3.1;2836;104714;25
eclipse-3.1;2837;109528;4
eclipse-3.1;2838;87494;286
eclipse-3.1;2839;104114;23
eclipse-3.1;2840;115947;321
eclipse-3.1;2841;164438;30
eclipse-3.1;2842;161000;1570
eclipse-3.1;2843;164495;129
eclipse-3.1;2844;82248;8
eclipse-3.1;2845;104780;1
eclipse-3.1;2846;105235;1
eclipse-3.1;2847;106084;26
eclipse-3.1;2848;104369;1
eclipse-3.1;2849;166617;351
eclipse-3.1;2850;98707;2
eclipse-3.1;2851;101252;7
eclipse-3.1;2852;99928;53
eclipse-3.1;2853;90451;285
eclipse-3.1;2854;109254;18
eclipse-3.1;2855;102813;4
eclipse-3.1;2856;102888;342
eclipse-3.1;2857;149004;384
eclipse-3.1;2858;98503;6
eclipse-3.1;2859;93611;1
eclipse-3.1;2860;108618;1
eclipse-3.1;2861;87504;3
eclipse-3.1;2862;97859;5
eclipse-3.1;2863;86579;6
eclipse-3.1;2864;104022;16
eclipse-3.1;2865;103026;3
eclipse-3.1;2866;88359;2
eclipse-3.1;2867;102826;1
eclipse-3.1;2868;94667;1
eclipse-3.1;2869;89834;25
eclipse-3.1;2870;107443;6
eclipse-3.1;2871;141830;13
eclipse-3.1;2872;88568;1
eclipse-3.1;2873;88907;89
eclipse-3.1;2874;84911;14
eclipse-3.1;2875;84906;36
eclipse-3.1;2876;96491;130
eclipse-3.1;2877;75852;1
eclipse-3.1;2878;95188;1
eclipse-3.1;2879;100478;1
eclipse-3.1;2880;112630;10
eclipse-3.1;2881;97199;1643
eclipse-3.1;2882;111529;22
eclipse-3.1;2883;104371;7
eclipse-3.1;2884;82541;1
eclipse-3.1;2885;106318;16
eclipse-3.1;2886;78064;22
eclipse-3.1;2887;96832;1
eclipse-3.1;2888;14654;3
eclipse-3.1;2889;157737;4
eclipse-3.1;2890;86456;1
eclipse-3.1;2891;100076;1
eclipse-3.1;2892;132385;2
eclipse-3.1;2893;113957;1
eclipse-3.1;2894;79068;2
eclipse-3.1;2895;78666;33
eclipse-3.1;2896;82256;3
eclipse-3.1;2897;95889;1
eclipse-3.1;2898;106876;2
eclipse-3.1;2899;91236;1
eclipse-3.1;2900;89648;22
eclipse-3.1;2901;109482;149
eclipse-3.1;2902;85608;2
eclipse-3.1;2903;102879;1
eclipse-3.1;2904;102055;110
eclipse-3.1;2905;82500;29
eclipse-3.1;2906;77710;127
eclipse-3.1;2907;85435;234
eclipse-3.1;2908;98242;1
eclipse-3.1;2909;82850;420
eclipse-3.1;2910;131330;1
eclipse-3.1;2911;134740;270
eclipse-3.1;2912;78790;1
eclipse-3.1;2913;87225;83
eclipse-3.1;2914;92241;1
eclipse-3.1;2915;84314;1
eclipse-3.1;2916;110172;88
eclipse-3.1;2917;102875;59
eclipse-3.1;2918;85780;95
eclipse-3.1;2919;99738;3
eclipse-3.1;2920;79529;7
eclipse-3.1;2921;79318;214
eclipse-3.1;2922;101993;19
eclipse-3.1;2923;125905;3
eclipse-3.1;2924;117899;9
eclipse-3.1;2925;99631;14
eclipse-3.1;2926;102031;8
eclipse-3.1;2927;83248;4944
eclipse-3.1;2928;93373;1
eclipse-3.1;2929;95292;19
eclipse-3.1;2930;106460;21
eclipse-3.1;2931;97667;28
eclipse-3.1;2932;95052;161
eclipse-3.1;2933;111034;1
eclipse-3.1;2934;110378;9
eclipse-3.1;2935;93353;1
eclipse-3.1;2936;97229;154
eclipse-3.1;2937;107029;33
eclipse-3.1;2938;109389;1
eclipse-3.1;2939;104203;6
eclipse-3.1;2940;95594;1
eclipse-3.1;2941;108591;7
eclipse-3.1;2942;96962;67
eclipse-3.1;2943;87057;4
eclipse-3.1;2944;98467;1
eclipse-3.1;2945;85742;14
eclipse-3.1;2946;103747;4
eclipse-3.1;2947;121727;1
eclipse-3.1;2948;121789;1
eclipse-3.1;2949;121796;3
eclipse-3.1;2950;121797;1
eclipse-3.1;2951;97901;1
eclipse-3.1;2952;83216;30
eclipse-3.1;2953;83307;3
eclipse-3.1;2954;84702;9
eclipse-3.1;2955;89178;1
eclipse-3.1;2956;108813;7
eclipse-3.1;2957;85382;1
eclipse-3.1;2958;104047;1
eclipse-3.1;2959;85729;30
eclipse-3.1;2960;87852;211
eclipse-3.1;2961;101524;55
eclipse-3.1;2962;91047;13
eclipse-3.1;2963;97676;4
eclipse-3.1;2964;106059;0
eclipse-3.1;2965;121794;1
eclipse-3.1;2966;102192;1
eclipse-3.1;2967;132266;3
eclipse-3.1;2968;78856;31
eclipse-3.1;2969;100095;1
eclipse-3.1;2970;87868;42
eclipse-3.1;2971;99234;2
eclipse-3.1;2972;100688;1
eclipse-3.1;2973;118624;45
eclipse-3.1;2974;102616;1
eclipse-3.1;2975;103810;2
eclipse-3.1;2976;79581;65
eclipse-3.1;2977;88204;192
eclipse-3.1;2978;99059;165
eclipse-3.1;2979;109440;5
eclipse-3.1;2980;81020;1
eclipse-3.1;2981;95950;23
eclipse-3.1;2982;111259;145
eclipse-3.1;2983;78746;31
eclipse-3.1;2984;97645;2
eclipse-3.1;2985;102440;1
eclipse-3.1;2986;91449;1
eclipse-3.1;2987;114588;6
eclipse-3.1;2988;91317;4
eclipse-3.1;2989;102366;49
eclipse-3.1;2990;89610;25
eclipse-3.1;2991;85373;1
eclipse-3.1;2992;84225;125
eclipse-3.1;2993;76351;7
eclipse-3.1;2994;114569;174
eclipse-3.1;2995;223886;1
eclipse-3.1;2996;98108;1
eclipse-3.1;2997;93206;1
eclipse-3.1;2998;82712;284
eclipse-3.1;2999;96604;2523
eclipse-3.1;3000;97310;5
eclipse-3.1;3001;90959;3
eclipse-3.1;3002;86268;22
eclipse-3.1;3003;109290;13
eclipse-3.1;3004;99602;1734
eclipse-3.1;3005;99037;1777
eclipse-3.1;3006;97649;1
eclipse-3.1;3007;94825;1
eclipse-3.1;3008;133072;650
eclipse-3.1;3009;85204;1
eclipse-3.1;3010;97553;2
eclipse-3.1;3011;89894;9
eclipse-3.1;3012;91781;19
eclipse-3.1;3013;87460;4
eclipse-3.1;3014;169682;446
eclipse-3.1;3015;138561;2
eclipse-3.1;3016;247027;2
eclipse-3.1;3017;247198;24
eclipse-3.1;3018;247091;13
eclipse-3.1;3019;114116;17
eclipse-3.1;3020;84603;1
eclipse-3.1;3021;80213;4
eclipse-3.1;3022;108162;1064
eclipse-3.1;3023;81322;12
eclipse-3.1;3024;84107;2
eclipse-3.1;3025;109277;2
eclipse-3.1;3026;97786;12
eclipse-3.1;3027;88524;2
eclipse-3.1;3028;212324;4
eclipse-3.1;3029;87775;2
eclipse-3.1;3030;92757;1
eclipse-3.1;3031;83408;24
eclipse-3.1;3032;101241;6
eclipse-3.1;3033;96185;93
eclipse-3.1;3034;104839;43
eclipse-3.1;3035;89044;17
eclipse-3.1;3036;105071;1
eclipse-3.1;3037;106221;1
eclipse-3.1;3038;102326;17
eclipse-3.1;3039;99399;36
eclipse-3.1;3040;112337;1
eclipse-3.1;3041;102473;99
eclipse-3.1;3042;84720;40
eclipse-3.1;3043;102281;27
eclipse-3.1;3044;102885;4
eclipse-3.1;3045;89256;1
eclipse-3.1;3046;76854;1630
eclipse-3.1;3047;108611;9
eclipse-3.1;3048;80577;2
eclipse-3.1;3049;99493;4
eclipse-3.1;3050;81514;2
eclipse-3.1;3051;88265;2
eclipse-3.1;3052;101233;3
eclipse-3.1;3053;97413;1976
eclipse-3.1;3054;100593;8
eclipse-3.1;3055;108236;7
eclipse-3.1;3056;104545;2
eclipse-3.1;3057;95410;1
eclipse-3.1;3058;94497;3
eclipse-3.1;3059;103863;1
eclipse-3.1;3060;114377;6
eclipse-3.1;3061;126705;1
eclipse-3.1;3062;101610;376
eclipse-3.1;3063;80053;1
eclipse-3.1;3064;119192;5
eclipse-3.1;3065;108784;1
eclipse-3.1;3066;94796;137
eclipse-3.1;3067;300054;391
eclipse-3.1;3068;108792;1
eclipse-3.1;3069;105914;1
eclipse-3.1;3070;101476;1
eclipse-3.1;3071;100799;149
eclipse-3.1;3072;84226;1
eclipse-3.1;3073;94382;4
eclipse-3.1;3074;110354;15
eclipse-3.1;3075;85298;1
swt-3.1;1;75739;1
swt-3.1;2;77948;20
swt-3.1;3;78548;11
swt-3.1;4;78559;5
swt-3.1;5;79107;5
swt-3.1;6;79481;1
swt-3.1;7;80120;3
swt-3.1;8;80276;2
swt-3.1;9;78854;1
swt-3.1;10;81265;3
swt-3.1;11;80506;1
swt-3.1;12;58185;1
swt-3.1;13;83251;1
swt-3.1;14;82346;2
swt-3.1;15;83699;39
swt-3.1;16;79419;8
swt-3.1;17;83262;47
swt-3.1;18;80830;3
swt-3.1;19;82905;1
swt-3.1;20;84557;19
swt-3.1;21;86000;8
swt-3.1;22;84012;1
swt-3.1;23;87363;6
swt-3.1;24;87676;12
swt-3.1;25;86294;25
swt-3.1;26;87855;34
swt-3.1;27;89533;3
swt-3.1;28;90018;5
swt-3.1;29;87997;8
swt-3.1;30;88829;5
swt-3.1;31;86631;8
swt-3.1;32;81242;10
swt-3.1;33;92017;1
swt-3.1;34;88717;1
swt-3.1;35;92612;3
swt-3.1;36;92181;5
swt-3.1;37;91159;2
swt-3.1;38;79268;221
swt-3.1;39;94467;6
swt-3.1;40;94598;37
swt-3.1;41;93724;1
swt-3.1;42;97651;3
swt-3.1;43;97678;1
swt-3.1;44;97745;1
swt-3.1;45;97177;1
swt-3.1;46;99376;116
swt-3.1;47;100040;1
swt-3.1;48;78634;2
swt-3.1;49;94603;4
swt-3.1;50;96916;4
swt-3.1;51;102794;2
swt-3.1;52;100387;1
swt-3.1;53;104966;1
swt-3.1;54;90258;3
swt-3.1;55;107145;2
swt-3.1;56;92013;1
swt-3.1;57;96053;2
swt-3.1;58;105772;1
swt-3.1;59;84609;4
swt-3.1;60;99266;2
swt-3.1;61;113971;3
swt-3.1;62;112358;13
swt-3.1;63;82277;3
swt-3.1;64;92341;8
swt-3.1;65;117574;12
swt-3.1;66;93380;1
swt-3.1;67;103976;4
swt-3.1;68;106289;4
swt-3.1;69;104150;1
swt-3.1;70;81264;2
swt-3.1;71;99145;1
swt-3.1;72;101354;1
swt-3.1;73;108769;2
swt-3.1;74;85072;2
swt-3.1;75;102756;1
swt-3.1;76;81834;12
swt-3.1;77;106372;3
swt-3.1;78;115947;26
swt-3.1;79;84911;1
swt-3.1;80;84906;1
swt-3.1;81;14654;3
swt-3.1;82;82500;3
swt-3.1;83;92241;1
swt-3.1;84;108591;2
swt-3.1;85;108813;6
swt-3.1;86;78856;13
swt-3.1;87;100095;1
swt-3.1;88;111259;5
swt-3.1;89;91317;2
swt-3.1;90;87460;2
swt-3.1;91;92757;1
swt-3.1;92;83408;4
swt-3.1;93;108236;1
swt-3.1;94;104545;1
swt-3.1;95;95410;1
swt-3.1;96;103863;1
swt-3.1;97;119192;1
swt-3.1;98;108792;1
