{"id":85,"bug_id":"DERBY-1914","text":"test lang/wisconsin gives garbage output on zOS.. When running the test lang/wisconsin.  tmp file shows non-native characters. However, this is most likely a test/test harness specific problem, for if one executes the simple statistics gathering commands through ij, there is no problem. Note that other tests do produce readable (native) output.","class_goldset":["java.testing.org.apache.derbyTesting.functionTests.tests.lang.wisconsin"],"file_goldset":["java.testing.org.apache.derbyTesting.functionTests.tests.lang.wisconsin"],"creation_date":"2006-10-03T03:04:24.000+0000","resolution_date":"2013-04-03T22:42:25.000+0000"}
{"id":87,"bug_id":"DERBY-3024","text":"Validation of shared plans hurts scalability. To investigate whether there was anything in the SQL execution layer that prevented scaling on a multi-CPU machine, I wrote a multi-threaded test which continuously executed \"VALUES 1\" using a PreparedStatement. I ran the test on a machine with 8 CPUs and expected the throughput to be proportional to the number of concurrent clients up to 8 clients (the same as the number of CPUs). However, the throughput only had a small increase from 1 to 2 clients, and adding more clients did not increase the throughput. Looking at the test in a profiler, it seems like the threads are spending a lot of time waiting to enter synchronization blocks in GenericPreparedStatement.upToDate() and BaseActivation.checkStatementValidity() (both of which are synchronized on the a GenericPreparedStatement object). I then changed the test slightly, appending a comment with a unique thread id to the \"VALUES 1\" statement.  When I made that change, the test scaled more or less perfectly up to 8 concurrent threads.","class_goldset":["java.engine.org.apache.derby.impl.store.access.btree.index.B2IFactory","java.engine.org.apache.derby.impl.store.access.heap.HeapConglomerateFactory","java.engine.org.apache.derby.impl.store.raw.data.FileContainer","java.engine.org.apache.derby.impl.store.raw.data.InputStreamContainer","java.engine.org.apache.derby.impl.store.raw.data.RAFContainer","java.engine.org.apache.derby.impl.store.raw.data.TempRAFContainer","java.testing.org.apache.derbyTesting.functionTests.tests.lang.DBInJarTest"],"file_goldset":["java.engine.org.apache.derby.impl.store.access.btree.index.B2IFactory","java.engine.org.apache.derby.impl.store.access.heap.HeapConglomerateFactory","java.engine.org.apache.derby.impl.store.raw.data.FileContainer","java.engine.org.apache.derby.impl.store.raw.data.InputStreamContainer","java.engine.org.apache.derby.impl.store.raw.data.RAFContainer","java.engine.org.apache.derby.impl.store.raw.data.TempRAFContainer","java.testing.org.apache.derbyTesting.functionTests.tests.lang.DBInJarTest"],"creation_date":"2007-08-23T10:24:31.000+0000","resolution_date":"2012-10-02T08:45:01.000+0000"}
{"id":90,"bug_id":"DERBY-4279","text":"Statement cache deadlock. Due to a design flaw in the statement cache, a deadlock can occur if a prepared statement becomes out-of-date.  The application is using the embedded Derby driver. The application has two threads, and each thread uses its own connection. There is a table named MYTABLE with column MYCOLUMN. 1. A thread prepares and executes the query SELECT MYCOLUMN FROM MYTABLE. The prepared statement is stored in the statement cache (see org.apache.derby.impl.sql.GenericStatement for this logic) 2. After some time, the prepared statement becomes invalid or out-of-date for some reason (see org.apache.derby.impl.sql.GenericPreparedStatement) 3. Thread 1 begins a transaction and executes LOCK TABLE MYTABLE IN EXCLUSIVE MODE 4. Thread 2 begins a transaction and executes SELECT MYCOLUMN FROM MYTABLE. The statement is in the statement cache but it is out-of-date. The thread begins to recompile the statement. To compile the statement, the thread needs a shared lock on MYTABLE. Thread 1 already has an exclusive lock on MYTABLE. Thread 2 waits. 5. Thread 1 executes SELECT MYCOLUMN FROM MYTABLE. The statement is in the statement cache but it is being compiled. Thread 1 waits on the statement\u0027s monitor. 6. We have a deadlock. Derby eventually detects a lock timeout, but the error message is not descriptive. The stacks at the time of the deadlock are:","class_goldset":["java.engine.org.apache.derby.iapi.sql.PreparedStatement","java.engine.org.apache.derby.impl.sql.GenericActivationHolder","java.engine.org.apache.derby.impl.sql.GenericPreparedStatement","java.engine.org.apache.derby.impl.sql.GenericStatement","java.engine.org.apache.derby.impl.sql.compile.ResultColumnList"],"file_goldset":["java.engine.org.apache.derby.iapi.sql.PreparedStatement","java.engine.org.apache.derby.impl.sql.GenericActivationHolder","java.engine.org.apache.derby.impl.sql.GenericPreparedStatement","java.engine.org.apache.derby.impl.sql.GenericStatement","java.engine.org.apache.derby.impl.sql.compile.ResultColumnList"],"creation_date":"2009-06-19T23:29:37.000+0000","resolution_date":"2012-09-12T17:09:39.000+0000"}
{"id":91,"bug_id":"DERBY-4647","text":"BaseTestCase.execJavaCmd() does not work with weme 6.2. Spawning a java process with BaseTestCase.execJavaCmd() does not work with weme 6.2, I think because the boot classpath does not get passed.   The error is actually\n.  execJavaProcess does pick up the j9 executable but does not pass on the other settings. This is how my script invokes the test with j9.","class_goldset":["java.testing.org.apache.derbyTesting.functionTests.tests.store.BootLockMinion","java.testing.org.apache.derbyTesting.functionTests.tests.store.BootLockTest"],"file_goldset":["java.testing.org.apache.derbyTesting.functionTests.tests.store.BootLockMinion","java.testing.org.apache.derbyTesting.functionTests.tests.store.BootLockTest"],"creation_date":"2010-05-07T18:34:26.000+0000","resolution_date":"2012-09-12T23:20:04.000+0000"}
{"id":93,"bug_id":"DERBY-4873","text":"NullPointerException in testBoundaries with ibm jvm 1.6 . With the line skipping the testBoundaries fixture of the InternationalConnectTest commented out, I get the following stack when I run the test with ibm 1.6:","class_goldset":["java.engine.org.apache.derby.impl.store.raw.data.BaseDataFileFactory"],"file_goldset":["java.engine.org.apache.derby.impl.store.raw.data.BaseDataFileFactory"],"creation_date":"2010-10-28T23:45:13.000+0000","resolution_date":"2012-10-31T10:01:49.000+0000"}
{"id":96,"bug_id":"DERBY-5045","text":"Assert failures in UpdateStatisticsTest. I saw these failures when running suites.All against revision 1070949 + the 1b patch attached to DERBY-642:","class_goldset":["java.engine.org.apache.derby.impl.services.daemon.IndexStatisticsDaemonImpl"],"file_goldset":["java.engine.org.apache.derby.impl.services.daemon.IndexStatisticsDaemonImpl"],"creation_date":"2011-02-16T09:03:56.000+0000","resolution_date":"2012-09-12T23:20:04.000+0000"}
{"id":100,"bug_id":"DERBY-5407","text":"When run across the network, dblook produces unusable DDL for VARCHAR FOR BIT DATA columns.. In private correspondence, Mani Afschar Yazdi reports that dblook omits the length specification for VARCHAR FOR BIT DATA columns when run across the network. Embedded dblook runs fine. I can reproduce this problem as follows: 1 Bring up a server (here I am using port 8246). 2 Create a database with the following ij script:   3 Now run dblook across the network:  This produces the following DDL for the table:   A similar experiment using an embedded database produces usable DDL which includes a length specification for the VARCHAR FOR BIT DATA column.","class_goldset":["java.engine.org.apache.derby.catalog.types.BaseTypeIdImpl","java.testing.org.apache.derbyTesting.functionTests.tests.lang.SystemCatalogTest"],"file_goldset":["java.engine.org.apache.derby.catalog.types.BaseTypeIdImpl","java.testing.org.apache.derbyTesting.functionTests.tests.lang.SystemCatalogTest"],"creation_date":"2011-09-12T13:50:38.000+0000","resolution_date":"2012-07-25T18:30:35.000+0000"}
{"id":103,"bug_id":"DERBY-5546","text":"ResultSet#updateBigDecimal on a REAL column does not do underflow checking. In contrast, ResultSet#updateBigDecimal on a FLOAT or DOUBLE column gives the expected error on underflow. Cf. the attached repro program MissingUnderflowCheck.","class_goldset":["java.engine.org.apache.derby.iapi.types.SQLDouble","java.engine.org.apache.derby.iapi.types.SQLReal","java.testing.org.apache.derbyTesting.functionTests.tests.jdbcapi.ParameterMappingTest"],"file_goldset":["java.engine.org.apache.derby.iapi.types.SQLDouble","java.engine.org.apache.derby.iapi.types.SQLReal","java.testing.org.apache.derbyTesting.functionTests.tests.jdbcapi.ParameterMappingTest"],"creation_date":"2011-12-16T18:08:12.000+0000","resolution_date":"2013-02-20T04:24:48.000+0000"}
{"id":104,"bug_id":"DERBY-5567","text":"AlterTableTest#testDropColumn fails: drop view cannot be performed due to dependency. Saw this when running suitesAll on 10.8.2.2:                                          Prior to this, though, I saw this on the console, but no error/failure.","class_goldset":["java.engine.org.apache.derby.iapi.sql.dictionary.ViewDescriptor"],"file_goldset":["java.engine.org.apache.derby.iapi.sql.dictionary.ViewDescriptor"],"creation_date":"2012-01-05T13:35:04.000+0000","resolution_date":"2012-10-09T18:55:11.000+0000"}
{"id":105,"bug_id":"DERBY-5638","text":"intermittent test failure in test_05_ClobNegative when running full largedata._Suite; LobLimitsTestjava.sql.SQLException: Table/View \u0027BLOBTBL\u0027 already exists in Schema \u0027APP\u0027.. I\u0027ve seen the following failure when running the largedata suite:                                                    Note, when this happens, the suite exits, so that instead of the expected 20 (or 21 on windows, see DERBY-5624 for reason for skipping on Linux default installs with 1024 max open files) we only get 15 (or 16) tests run - if the test doesn\u0027t fail it goes on to run the last 5 fixtures again for network server.","class_goldset":["java.testing.org.apache.derbyTesting.functionTests.tests.largedata.LobLimitsLiteTest","java.testing.org.apache.derbyTesting.functionTests.tests.largedata.LobLimitsTest","java.testing.org.apache.derbyTesting.junit.CleanDatabaseTestSetup"],"file_goldset":["java.testing.org.apache.derbyTesting.functionTests.tests.largedata.LobLimitsLiteTest","java.testing.org.apache.derbyTesting.functionTests.tests.largedata.LobLimitsTest","java.testing.org.apache.derbyTesting.junit.CleanDatabaseTestSetup"],"creation_date":"2012-03-01T19:43:10.000+0000","resolution_date":"2012-09-13T23:22:43.000+0000"}
{"id":108,"bug_id":"DERBY-5750","text":"Sending an empty string as table name to compress table procedure or empty string as index name to update statistics procedure makes the parser throw an exception.. When empty string is passed for the index name to the update statistics procedure, it throws following exception(passing an empty string for table to compress table procedure also gives simiar exception). The new stored procedure being created through DERBY-4115 for dropping the statistics also gave similar exception","class_goldset":["java.engine.org.apache.derby.catalog.SystemProcedures","java.testing.org.apache.derbyTesting.functionTests.tests.lang.CompressTableTest","java.testing.org.apache.derbyTesting.functionTests.tests.lang.UpdateStatisticsTest"],"file_goldset":["java.engine.org.apache.derby.catalog.SystemProcedures","java.testing.org.apache.derbyTesting.functionTests.tests.lang.CompressTableTest","java.testing.org.apache.derbyTesting.functionTests.tests.lang.UpdateStatisticsTest"],"creation_date":"2012-05-09T03:56:42.000+0000","resolution_date":"2012-07-03T03:39:18.000+0000"}
{"id":110,"bug_id":"DERBY-5838","text":"By using syscs_set_database_property, you can set the database version to a garbage string which prevents you from booting the database.. The following script shows this problem:         -- fails to boot","class_goldset":["java.engine.org.apache.derby.impl.sql.LanguageDbPropertySetter","java.testing.org.apache.derbyTesting.functionTests.tests.lang.SQLAuthorizationPropTest"],"file_goldset":["java.engine.org.apache.derby.impl.sql.LanguageDbPropertySetter","java.testing.org.apache.derbyTesting.functionTests.tests.lang.SQLAuthorizationPropTest"],"creation_date":"2012-07-02T12:53:00.000+0000","resolution_date":"2012-07-17T15:39:01.000+0000"}
{"id":111,"bug_id":"DERBY-5851","text":"Inconsistent code coverage shown for LogicalPreparedStatement40. I tried running org.apache.derbyTesting.functionTests.tests.jdbc4.PreparedStatementTest with a connectionCPDecorator in a JDBC4 environment.  But in code coverage report methods such as setNClob show no coverage in LogicalPreparedStatement40 class. But in PreparedStatement40 class all these methods are shown as covered.  But it is not shown in emma code coverage report.","class_goldset":["java.testing.org.apache.derbyTesting.functionTests.tests.jdbc4.PreparedStatementTest"],"file_goldset":["java.testing.org.apache.derbyTesting.functionTests.tests.jdbc4.PreparedStatementTest"],"creation_date":"2012-07-08T17:28:49.000+0000","resolution_date":"2012-07-19T13:33:15.000+0000"}
{"id":112,"bug_id":"DERBY-5911","text":"WHERE condition getting pushed into sub-query with FETCH. Derby pushes query conditions down into subqueries with FETCH limits, thus creating wrong results. Take the following snippet:  The first query correctly returns the rows (Colombian,5), (Colombian_Decaf,20). The second query (which filters the result of the first one) returns (Colombian,5), (French_Roast,5).  It shows up because (supposedly) the filter condition has been evaluated before the fetch limit.","class_goldset":["java.engine.org.apache.derby.impl.sql.compile.ProjectRestrictNode","java.engine.org.apache.derby.impl.sql.compile.SelectNode","java.testing.org.apache.derbyTesting.functionTests.tests.lang.OrderByAndOffsetFetchInSubqueries"],"file_goldset":["java.engine.org.apache.derby.impl.sql.compile.ProjectRestrictNode","java.engine.org.apache.derby.impl.sql.compile.SelectNode","java.testing.org.apache.derbyTesting.functionTests.tests.lang.OrderByAndOffsetFetchInSubqueries"],"creation_date":"2012-08-28T11:18:36.000+0000","resolution_date":"2012-09-12T22:53:44.000+0000"}
{"id":114,"bug_id":"DERBY-5916","text":"java.lang.NullPointerException org.apache.derby.impl.store.raw.data.BaseDataFileFactory.stop() connecting to network server. I got a report of the exception below trying to connect to  database with absolute path and network server and the database name attribute. I haven\u0027t gotten  information  on the derby version or  platform, Below is the url I received with some characters replaced.","class_goldset":["java.engine.org.apache.derby.impl.store.raw.data.BaseDataFileFactory"],"file_goldset":["java.engine.org.apache.derby.impl.store.raw.data.BaseDataFileFactory"],"creation_date":"2012-09-01T04:16:09.000+0000","resolution_date":"2012-10-08T21:50:54.000+0000"}
{"id":117,"bug_id":"DERBY-6053","text":"Client should use a prepared statement rather than regular statement for Connection.setTransactionIsolation. The program below shows repeated calls to setTransactionIsolation.","class_goldset":["java.client.org.apache.derby.client.am.Connection"],"file_goldset":["java.client.org.apache.derby.client.am.Connection"],"creation_date":"2013-01-25T15:02:53.000+0000","resolution_date":"2013-02-28T22:43:45.000+0000"}
{"id":124,"bug_id":"DERBY-6131","text":"select from view with \"upper\" and \"in\" list throws a ClassCastException. the issue can be reproduced 1 create table myTbl1 (name varchar(1000)); 2 create table myTbl2 (name varchar(1000)); 3 create view myView (name) as select t1.name from myTbl1 t1 union all select t2.name from myTbl2 t2; 4 select name from myView where upper(name) in (\u0027AA\u0027, \u0027BB\u0027); #4 failed with \"org.apache.derby.impl.sql.compile.SimpleStringOperatorNode incompatible with org.apache.derby.impl.sql.compile.ColumnReference: java.lang.ClassCastException\" If the view is created as \"create myView (name) as select t1.name from myTbl1 t1\", the query worked fine.","class_goldset":["java.engine.org.apache.derby.impl.sql.compile.PredicateList","java.testing.org.apache.derbyTesting.functionTests.tests.lang._Suite","java.testing.org.apache.derbyTesting.junit.BaseJDBCTestCase"],"file_goldset":["java.engine.org.apache.derby.impl.sql.compile.PredicateList","java.testing.org.apache.derbyTesting.functionTests.tests.lang._Suite","java.testing.org.apache.derbyTesting.junit.BaseJDBCTestCase"],"creation_date":"2013-03-27T13:17:37.000+0000","resolution_date":"2013-04-10T19:12:46.000+0000"}
