{"id":154,"bug_id":"1193683","text":"Hi, when you have some folded text \\(folding closed\\)   Close it you\u0027ll get  Delete one \\{ You\u0027ll have  and no text fold anymore.  But the weird thing is that the text is not completely lost because you can type another \\{ \\(no need to undo\\) and the fold will reappear magically. So the text was still here but hidden by jEdit\u0027s text area","class_goldset":["org.gjt.sp.jedit.textarea.BufferHandler"],"file_goldset":["org.gjt.sp.jedit.textarea.BufferHandler"],"creation_date":"2005-05-02 09:22:25","resolution_date":"2007-07-31 22:06:01"}
{"id":155,"bug_id":"1382388","text":"Incorrect Python code indentation . I have found a little bug: processing the \"Indent\nLines\" command \\(CTRL + I\\) to the Python code causes the\nwrong identation of selected text. Example:\nBefore:\nif \\(row +1\\) \u0026gt; self.grid.GetNumberRows\\(\\):\nself.table.data.append\\(obj\\)\nself.grid.AppendRows\\(1, True\\)\nelse:\nself.grid.SetCellValue\\(row, 0, fileName\\)\nself.table.data.append\\(obj\\)\nself.grid.AutoSizeColumn\\(0, True\\) after:\nif \\(row +1\\) \u0026gt; self.grid.GetNumberRows\\(\\):\nself.table.data.append\\(obj\\)\nself.grid.AppendRows\\(1, True\\)\nelse:\nself.grid.SetCellValue\\(row, 0, fileName\\)\nself.table.data.append\\(obj\\)\nself.grid.AutoSizeColumn\\(0, True\\)","class_goldset":["org.gjt.sp.jedit.Mode","org.gjt.sp.jedit.buffer.JEditBuffer","org.gjt.sp.jedit.indent.IndentAction.NoIncrease","org.gjt.sp.jedit.indent.WhitespaceRule"],"file_goldset":["org.gjt.sp.jedit.Mode","org.gjt.sp.jedit.buffer.JEditBuffer","org.gjt.sp.jedit.indent.IndentAction.NoIncrease","org.gjt.sp.jedit.indent.WhitespaceRule"],"creation_date":"2005-12-16 12:19:21","resolution_date":"2007-02-23 08:05:07"}
{"id":156,"bug_id":"1520774","text":"If I type \u0027/\u0027 + enter in the File-Browser I get the\nfile list in the attatched screen shot.   In 4.2 Final, just typeing \u0027/\u0027 took me to the root\ndirectory \"/\".","class_goldset":["org.gjt.sp.jedit.MiscUtilities"],"file_goldset":["org.gjt.sp.jedit.MiscUtilities"],"creation_date":"2006-07-11 20:43:16","resolution_date":"2008-05-27 05:44:33"}
{"id":157,"bug_id":"1536064","text":"focus in filesystembrowser NOT in filenamefield. When I try to open a file \\(Ctrl-O\\) the focus in the filesystembrowser is on the Commands menu instead of the filename field.","class_goldset":["org.gjt.sp.jedit.GUIUtilities"],"file_goldset":["org.gjt.sp.jedit.GUIUtilities"],"creation_date":"2006-08-07 15:14:23","resolution_date":"2006-08-26 05:11:17"}
{"id":158,"bug_id":"1538051","text":"Memory used reported inconsistent. When I double click on the memory gauge \\(bottom right\\)\nthe GC runs and then a dialog appears that reports\nnumbers that have nothing to do with the numbers I can\nsee on the bottom right.","class_goldset":["org.gjt.sp.jedit.gui.StatusBar","org.gjt.sp.jedit.gui.StatusBar.MemoryStatusWidgetFactory.MemoryStatus","org.gjt.sp.jedit.jEdit"],"file_goldset":["org.gjt.sp.jedit.gui.StatusBar","org.gjt.sp.jedit.gui.StatusBar.MemoryStatusWidgetFactory.MemoryStatus","org.gjt.sp.jedit.jEdit"],"creation_date":"2006-08-10 13:33:21","resolution_date":"2007-01-10 20:35:32"}
{"id":161,"bug_id":"1542026","text":"Keyboard navigation through menubar inserts char into buffer. Using the keyboard \\(characters, or space for \ncheckboxes \\[return for checkboxes works correctly\\]\\) \nto navigate through the menubar inserts the pressed \ncharacters literally in the current buffer if the \nchoice is not a sub-/menu, but an action, even if the \npressed character is not anything choosable \\(e. g. \nAlt+p -\u0026gt; a\\)","class_goldset":["org.gjt.sp.jedit.jEdit.MyFocusManager"],"file_goldset":["org.gjt.sp.jedit.jEdit.MyFocusManager"],"creation_date":"2006-08-17 14:41:54","resolution_date":"2007-09-21 10:07:21"}
{"id":163,"bug_id":"1549282","text":"jEdit doesn\u0027t interpret the \"NO\" button correctly when I trying to cancel the file saving procedure of r/o file.","class_goldset":["org.gjt.sp.jedit.Buffer"],"file_goldset":["org.gjt.sp.jedit.Buffer"],"creation_date":"2006-08-30 13:25:49","resolution_date":"2006-09-12 12:34:29"}
{"id":164,"bug_id":"1571752","text":"Before \u0027Add Explicit fold\u0027 the content of buffer looks like this \\(\u0027X\u0027 means selection boundaries\\):      After:","class_goldset":["org.gjt.sp.jedit.textarea.TextArea"],"file_goldset":["org.gjt.sp.jedit.textarea.TextArea"],"creation_date":"2006-10-05 21:26:12","resolution_date":"2007-08-01 22:07:42"}
{"id":165,"bug_id":"1575505","text":"Enter this text:  Select the word \\(solid\\). Press C+j.    Nothing happens","class_goldset":["org.gjt.sp.jedit.textarea.TextArea"],"file_goldset":["org.gjt.sp.jedit.textarea.TextArea"],"creation_date":"2006-10-11 19:54:43","resolution_date":"2006-10-19 12:48:46"}
{"id":166,"bug_id":"1584436","text":"I edit larger texts with soft wrap turned on. If I cut\na text fragment that is larger then the text view, and\nthen move back to the beginning of the text buffer by\nusing the cursor keys, Page-Up or Ctrl-Home, I usually\nget a NullPointerException. Steps to reproduce: \\- load http://www.jedit.org/users-guide/starting.html \\- set buffer line wrap \u003d soft, wrap at 80 characters \\- cut lines 5 to 45 \\- press Ctrl-Home This results in a BeanShell error dialog. The beginning\nof the text buffer is then missing in the display.","class_goldset":["org.gjt.sp.jedit.textarea.Anchor"],"file_goldset":["org.gjt.sp.jedit.textarea.Anchor"],"creation_date":"2006-10-25 13:50:49","resolution_date":"2007-02-20 22:40:36"}
{"id":167,"bug_id":"1593359","text":"JEditTextArea processes keyboard input that is not for it. JEditTextArea processes keyboard input that is not meant for it. e. g. if focus is on Activity Log Dockable or Java Insight Dockable, pressing Del-key deletes characters from the buffer.","class_goldset":["org.gjt.sp.jedit.gui.InputHandler"],"file_goldset":["org.gjt.sp.jedit.gui.InputHandler"],"creation_date":"2006-11-09 12:26:59","resolution_date":"2006-12-19 08:04:50"}
{"id":168,"bug_id":"1593523","text":"If doing \"Toggle Tree View\" in HyperSearch Results \nwindow context menu, it doesn\u0027t switch properly, \nmeans if switching back to show the path and filename \nin one line, the path is missing.","class_goldset":["org.gjt.sp.jedit.search.HyperSearchOperationNode"],"file_goldset":["org.gjt.sp.jedit.search.HyperSearchOperationNode"],"creation_date":"2006-11-09 15:46:22","resolution_date":"2007-01-06 18:13:26"}
{"id":169,"bug_id":"1599709","text":"NPE with JEditBuffer and new indenting. To reproduce: Save an empty buffer as test.php. Type: \\--------------- \u0026lt;? php $foo \u003d \u0027\u0026lt;ENTER\u0026gt; \\--------------- When pressing ENTER, after the \"\u0027\", the following exception gets thrown:","class_goldset":["org.gjt.sp.jedit.buffer.JEditBuffer"],"file_goldset":["org.gjt.sp.jedit.buffer.JEditBuffer"],"creation_date":"2006-11-20 13:17:56","resolution_date":"2006-11-21 04:08:42"}
{"id":170,"bug_id":"1600401","text":"StringIndexOutOfBoundsException in TokenMarker. After pressing ENTER in a rather long line in a . php file, I got the following exception. The line appeared wrong highlighted in the first place, that why I wanted to see if splitting it would resolve the highlight issue. After this the buffer window is not usable anymore \\(e.g. I cannot enter it, nor does it get repainted\\).","class_goldset":["org.gjt.sp.jedit.syntax.TokenMarker"],"file_goldset":["org.gjt.sp.jedit.syntax.TokenMarker"],"creation_date":"2006-11-21 13:16:31","resolution_date":"2015-02-04 17:44:47.541000"}
{"id":174,"bug_id":"1658252","text":"C mode: incorrect bracket matching in multi-line defines. Try this define:  The brackets don\u0027t match.","class_goldset":["org.gjt.sp.jedit.syntax.ParserRule","org.gjt.sp.jedit.syntax.TokenMarker","org.gjt.sp.jedit.syntax.XModeHandler","org.gjt.sp.jedit.syntax.XModeHandler.TagDecl"],"file_goldset":["org.gjt.sp.jedit.syntax.ParserRule","org.gjt.sp.jedit.syntax.TokenMarker","org.gjt.sp.jedit.syntax.XModeHandler","org.gjt.sp.jedit.syntax.XModeHandler.TagDecl"],"creation_date":"2007-02-12 17:48:03","resolution_date":"2007-03-08 08:11:25"}
{"id":175,"bug_id":"1663617","text":"Hi, when an xml file is in a folder that contains spaces in it\u0027s name, if there is an error in the xml that is displayed in ErrorList, when clicking on it, the ErrorList will open another buffer. The reason is that it replaces the path by an URL, and replaces the space by a %20.","class_goldset":["org.gjt.sp.jedit.jEdit"],"file_goldset":["org.gjt.sp.jedit.jEdit"],"creation_date":"2007-02-19 16:11:38","resolution_date":"2007-03-07 03:20:10"}
{"id":176,"bug_id":"1668893","text":"Recently I mentioned, that when changing encoding to UTF-16, then saving file and reopening it a BOM appears at the end of each line \\(in my case it is FF FE\\) before \\n","class_goldset":["org.gjt.sp.jedit.MiscUtilities","org.gjt.sp.jedit.bufferio.BufferIORequest"],"file_goldset":["org.gjt.sp.jedit.MiscUtilities","org.gjt.sp.jedit.bufferio.BufferIORequest"],"creation_date":"2007-02-26 09:54:00","resolution_date":"2007-03-07 04:08:36"}
{"id":178,"bug_id":"1724940","text":"If I highlight multiple selections of text in the text area and then begin typing, only the first character of what I type is inserted in the selected areas \\(except for where the cursor ended up after making the selection\\). For example if I have the text:  and I highlight both p\u0027s in the \u0026lt;p\u0026gt; tags and then type \"div\" I end up with:","class_goldset":["org.gjt.sp.jedit.textarea.BufferHandler"],"file_goldset":["org.gjt.sp.jedit.textarea.BufferHandler"],"creation_date":"2007-05-24 15:02:18","resolution_date":"2007-09-25 16:08:10"}
{"id":179,"bug_id":"1739675","text":"After compile and update my jedit to pre10 \\(revision 9820+\\) i got some erros trying to use c+i with python files.","class_goldset":["org.gjt.sp.jedit.indent.WhitespaceRule"],"file_goldset":["org.gjt.sp.jedit.indent.WhitespaceRule"],"creation_date":"2007-06-19 11:44:12","resolution_date":"2007-06-23 21:41:47"}
{"id":180,"bug_id":"1768638","text":"1\\. Open a clean jEdit session, i.e. rename your . jedit settings directory to something else 2\\. Start jEdit 3\\. Open Global Options and select General 4\\. Set option \u0027if open files are changed on disk\u0027 to \u0027prompt\u0027 5\\. Set option \u0027Check for file change upon\u0027 to \u0027visiting or saving the buffer\u0027 6\\. Create two buffers and save them, e.g. f1 and f2 7\\. Select buffer f1 8\\. Overwrite buffer f2 from the command line, e.g. echo Hello \u0026gt; f2 9\\. Switch back to jEdit 10\\. Switch to buffer f2 with the buffer switcher  Nothing happens  Switch focus to another window and back to jEdit again.  You\u0027re prompted to take an action for buffer f2   Install the RecentBufferSwitcher 15\\. Open the Global options and select a shortcut for Open Buffers command, e.g. C+TAB. 16\\. Select the f1 buffer again 17\\. Overwrite the f2 buffer from command line again 18\\. Switch back to jEdit 19\\. Switch buffer with C+TAB  You\u0027re immediately prompted to take an action for the modified f2 buffer.","class_goldset":["org.gjt.sp.jedit.Buffer","org.gjt.sp.jedit.EditServer","org.gjt.sp.jedit.View","org.gjt.sp.jedit.View.WindowHandler","org.gjt.sp.jedit.gui.CloseDialog.ActionHandler","org.gjt.sp.jedit.jEdit","org.gjt.sp.jedit.options.GeneralOptionPane","org.gjt.sp.jedit.search.SearchAndReplace"],"file_goldset":["org.gjt.sp.jedit.Buffer","org.gjt.sp.jedit.EditServer","org.gjt.sp.jedit.View","org.gjt.sp.jedit.View.WindowHandler","org.gjt.sp.jedit.gui.CloseDialog.ActionHandler","org.gjt.sp.jedit.jEdit","org.gjt.sp.jedit.options.GeneralOptionPane","org.gjt.sp.jedit.search.SearchAndReplace"],"creation_date":"2008-01-14 19:10:55","resolution_date":"2012-09-01 18:29:20"}
{"id":181,"bug_id":"1834620","text":"Regex capturing groups above $9 can\u0027t be accessed. Capturing groups above $9 can\u0027t be accessed in jEdit 4.2final. For example...     Actual output: 123456789101112","class_goldset":["org.gjt.sp.jedit.search.SearchAndReplace"],"file_goldset":["org.gjt.sp.jedit.search.SearchAndReplace"],"creation_date":"2007-11-19 16:13:11","resolution_date":"2008-02-22 23:19:06"}
{"id":183,"bug_id":"1869978","text":"untitled buffer not closed with 2 views. When jEdit has only one buffer open, which name is untitled-x and which is empty and not dirty, it is closed automatically when another buffer is opened.  But it does not work, if there are more than one open views.","class_goldset":["org.gjt.sp.jedit.jEdit"],"file_goldset":["org.gjt.sp.jedit.jEdit"],"creation_date":"2008-01-12 16:00:50","resolution_date":"2008-02-26 20:48:42"}
{"id":184,"bug_id":"1906288","text":"Open jEdit and take a clean buffer. Let the TextArea has 8 visible lines. Write 3 empty lines. Now write one line, that spans at least 3 screenlines. Now write some empty lines below the last line, so that the scrollbar is shown on the right side. Now delete the line above the one, that spans several lines and look at the scrollbar. it\u0027s getting smaller each time you delete the line above the long one.   Open jEdit and take a clean buffer. Let the TextArea has 8 visible lines. Be sure, that the last line is not partially visible. Write something into the first line so that it spans two screenlines. Now write 9 further short lines so that you have 10 physical lines in total - 2 more than visible. Now select the whole first line \\(Selection from the very beginning of the first screenline until the very beginning of the third screenline\\) and remove it \\(Ctrl-X\\). You see that, for no reason, the scrollbar disappears. Now scroll down  \\(with Array-Down-Key\\) to the very last line of the buffer. You will get the following exception:                                                         I would liketo fix this bug, but I don\u0027t know which side-effects it would have not to update the scrollLine in setScreenLineCount. Can anybody give some response? I think, this bug also results in some of the NPE occuring at scrolling sometimes.","class_goldset":["org.gjt.sp.jedit.textarea.Anchor"],"file_goldset":["org.gjt.sp.jedit.textarea.Anchor"],"creation_date":"2008-03-03 14:28:07","resolution_date":"2008-03-08 22:05:58"}
{"id":185,"bug_id":"1913979","text":"HistoryTextField: array out of bounds when no history. Try to search for something. you get this:","class_goldset":["org.gjt.sp.jedit.search.SearchDialog"],"file_goldset":["org.gjt.sp.jedit.search.SearchDialog"],"creation_date":"2008-03-14 01:09:06","resolution_date":"2008-03-18 21:17:35"}
{"id":186,"bug_id":"1942313","text":"Expanding a fold twice moves caret unexpectedly. Create the following file, and save it as test.cpp:     Change the folding mode \\(if necessary\\) to \\`indent\u0027. Move the caret to the \\`hij\u0027 line. Press Alt+Backspace to contract the fold.  Press Alt+Enter to expand the fold.  Press Alt+Enter a second time. The caret moves unexpectedly to the \\`bcd\u0027 line.","class_goldset":["org.gjt.sp.jedit.textarea.DisplayManager"],"file_goldset":["org.gjt.sp.jedit.textarea.DisplayManager"],"creation_date":"2008-04-14 18:08:29","resolution_date":"2008-04-20 23:15:18"}
{"id":187,"bug_id":"1984000","text":"Untitled buffer is lost after C+n. When I\u0027m editing an untitled buffer and call File \u0026gt; New, the edited buffer is lost from the buffer list.","class_goldset":["org.gjt.sp.jedit.bufferset.BufferSet"],"file_goldset":["org.gjt.sp.jedit.bufferset.BufferSet"],"creation_date":"2008-06-03 23:51:25","resolution_date":"2008-06-04 22:03:45"}
{"id":188,"bug_id":"1999448","text":"Unnecesarry fold expantion when folded lines are edited. \\(Quoted from Matthieu\u0027s comment for patch \\#1999448\\)\nif I use explicit fold, with this buffer    all folds are folded. I remove one \"l\" from hello.","class_goldset":["org.gjt.sp.jedit.textarea.BufferHandler","org.gjt.sp.jedit.textarea.DisplayManager","org.gjt.sp.jedit.textarea.TextArea"],"file_goldset":["org.gjt.sp.jedit.textarea.BufferHandler","org.gjt.sp.jedit.textarea.DisplayManager","org.gjt.sp.jedit.textarea.TextArea"],"creation_date":"2008-08-23 10:28:24","resolution_date":"2008-08-23 10:28:24"}
{"id":189,"bug_id":"2015210","text":"1\\)Utilites-\u0026gt;Global Options-\u0026gt;Appearance Inputing negative number in \"History text field entries to remember\u0027\u0027 will result in thrown of IllegalArgumentException. Similarly\n2\\)Utilites-\u0026gt;Global Options-\u0026gt;Autosave \u0026 Backup Inputing negative number in \"Autosave frequency\\(secs\\)\" will result in thrown of IllegalArgumentException.","class_goldset":["org.gjt.sp.jedit.options.AppearanceOptionPane","org.gjt.sp.jedit.options.SaveBackupOptionPane"],"file_goldset":["org.gjt.sp.jedit.options.AppearanceOptionPane","org.gjt.sp.jedit.options.SaveBackupOptionPane"],"creation_date":"2008-07-10 16:26:02","resolution_date":"2008-07-15 11:29:26"}
{"id":190,"bug_id":"2017514","text":"Summary: Select all \\(Ctrl+A\\), then right-click in the selection \\(as if to copy, or cut\\). About one in 3 or 4 times, I lose the selection.","class_goldset":["org.gjt.sp.jedit.textarea.MouseHandler"],"file_goldset":["org.gjt.sp.jedit.textarea.MouseHandler"],"creation_date":"2008-07-13 20:48:23","resolution_date":"2009-01-05 08:52:23"}
{"id":191,"bug_id":"2129419","text":"NPE in EditPane.setBuffer when quitting jEdit. When trying to quit jEdit, I get the following Null-Pointer-Exception, which is probably related to some files being changed/deleted \\(due to a \"cvs up\" in the background\\).   dialog already failed, so that \"Close\" was the only option that worked. The NPE:","class_goldset":["org.gjt.sp.jedit.gui.CloseDialog.ListHandler"],"file_goldset":["org.gjt.sp.jedit.gui.CloseDialog.ListHandler"],"creation_date":"2008-09-25 23:53:11","resolution_date":"2008-09-29 21:23:35"}
{"id":192,"bug_id":"2173112","text":"In a new buffer, make 10 empty lines. \\(NOTE: they don\u0027t have to be empty\\) Select any five lines \\(i.e. a text selection\\) Search for $ \\(with hypersearch, selection, and regular expressions turned on\\) This only matches the first 4 lines. The fifth is not matched Now search for $ and replace with z Since the fifth line was not matched, z is placed on only the first 4 lines.","class_goldset":["org.gjt.sp.jedit.search.HyperSearchRequest"],"file_goldset":["org.gjt.sp.jedit.search.HyperSearchRequest"],"creation_date":"2008-10-16 23:00:21","resolution_date":"2008-10-17 04:45:37"}
{"id":193,"bug_id":"2218621","text":"When I type \"-\" \\(minus\\) in FileBrowser\u0027s Path dropdown and press enter, minus is appended to the path instead of changing path to current buffer. When I choose \"Directory of current buffer\" from commands menu, it works ok. ~ and / options are working fine. There is also small inconsistency, because in search and replace dialog to current buffer points empty dropdown, not minus. Maybe in FileBrowser it should as well, but for now neither minus nor empty field points to current directory.","class_goldset":["org.gjt.sp.jedit.MiscUtilities"],"file_goldset":["org.gjt.sp.jedit.MiscUtilities"],"creation_date":"2008-11-03 10:05:46","resolution_date":"2009-05-06 15:09:47"}
{"id":194,"bug_id":"2220033","text":"Relative position in status bar is inaccurate. 1\\. open a file larger than is visible all at once\n2\\. using the down arrow key, scroll down through the file\n3\\. notice that the relative position displays \"BOT\" well before the bottom of the file\n4\\. continue to scroll completely to the bottom of the file\n5\\. using the up arrow key, scroll up through the file\n6\\. notice that the relative position continues to say \"BOT\" well up from the bottom of the file","class_goldset":["org.gjt.sp.jedit.gui.StatusBar","org.gjt.sp.jedit.gui.StatusBar.MouseHandler","org.gjt.sp.jedit.options.StatusBarOptionPane"],"file_goldset":["org.gjt.sp.jedit.gui.StatusBar","org.gjt.sp.jedit.gui.StatusBar.MouseHandler","org.gjt.sp.jedit.options.StatusBarOptionPane"],"creation_date":"2008-11-04 05:39:53","resolution_date":"2008-11-15 16:29:03"}
{"id":196,"bug_id":"2781716","text":"Line numbers in Hypersearch Results are wrongly highlighted. Reproduction recipe:\nPut \"1\" for an empty buffer, and do hypersearch for \"1\". The result becomes \"1: 1\" and both \"1\" for line number and for the text\nis highlighted.","class_goldset":["org.gjt.sp.jedit.search.HyperSearchResults.HighlightingTree"],"file_goldset":["org.gjt.sp.jedit.search.HyperSearchResults.HighlightingTree"],"creation_date":"2009-04-26 16:42:52","resolution_date":"2009-04-26 19:47:08"}
{"id":197,"bug_id":"2824045","text":"Toggle FullScreen Mode: Window ends up under others. Sometimes when I toggle fullscreen mode, the jEdit window appears behind other windows \\(such as my desktop panel\\). This happens in BOTH directions \\(switching it on and off\\).","class_goldset":["org.gjt.sp.jedit.View"],"file_goldset":["org.gjt.sp.jedit.View"],"creation_date":"2009-07-20 00:56:45","resolution_date":"2009-07-22 10:57:11"}
{"id":198,"bug_id":"950961","text":"Here is the example text folded using explicit folding:\n1| //\\{\\{\\{\n2| Folding\n3| Test\n4| Case\n5| //\\}\\}\\}\n6| Other text which folds to:\n1| //\\{\\{\\{ \\[4 lines\\]\n6| Other text By placing the caret after the last brace and pressing \nreturn we get the\nfollowing result:\n1| //\\{\\{\\{\n2| New text entered\n7| Other text In the editor the fold is now showen as unfolded, but the \ntext within the fold is not displayed. To display the \ncontents of the fold you have to close the fold and open \nit again which then would display the expected text:\n1| //\\{\\{\\{\n2| New text entered\n3| Folding\n4| Test\n5| Case\n6| //\\}\\}\\}\n7| Other text  Secondly, with explict folding only, \nplacing the caret between the braces that make up the \nstart of the fold whilst folded and pressing return causes \nthe fold to be \u0027lost\u0027. As in the space taken up by the fold \nis still indicated by jEdit but the fold is no longer \ndisplayed:\n1| //\\{\\{\n2|    ^\\{\n7| Other text","class_goldset":["org.gjt.sp.jedit.buffer.BufferAdapter","org.gjt.sp.jedit.buffer.BufferChangeListener.Adapter","org.gjt.sp.jedit.buffer.JEditBuffer","org.gjt.sp.jedit.textarea.BufferHandler","org.gjt.sp.jedit.textarea.RangeMap"],"file_goldset":["org.gjt.sp.jedit.buffer.BufferAdapter","org.gjt.sp.jedit.buffer.BufferChangeListener.Adapter","org.gjt.sp.jedit.buffer.JEditBuffer","org.gjt.sp.jedit.textarea.BufferHandler","org.gjt.sp.jedit.textarea.RangeMap"],"creation_date":"2004-05-09 21:37:09","resolution_date":"2007-09-21 19:41:04"}
