{"id":258,"bug_id":"PIG-2767","text":"The following script fails:        The schema of \"dereferenced\" should be {f1: int, nested_tuple: (f2: int,\nf3: int)}.","class_goldset":["src.org.apache.pig.newplan.logical.expression.DereferenceExpression","test.org.apache.pig.test.TestPigServer"],"file_goldset":["src.org.apache.pig.newplan.logical.expression.DereferenceExpression","test.org.apache.pig.test.TestPigServer"],"creation_date":"2012-06-25T14:11:20.000+0000","resolution_date":"2013-04-22T20:13:20.000+0000"}
{"id":259,"bug_id":"PIG-2828","text":"While using TOP, and if the DataBag contains null value to compare, it will generate the following exception:                  So we need to judge the field1 whether is null.","class_goldset":["src.org.apache.pig.builtin.TOP","src.org.apache.pig.data.DataType","test.org.apache.pig.test.TestNull"],"file_goldset":["src.org.apache.pig.builtin.TOP","src.org.apache.pig.data.DataType","test.org.apache.pig.test.TestNull"],"creation_date":"2012-07-19T10:03:16.000+0000","resolution_date":"2013-06-04T07:02:17.000+0000"}
{"id":268,"bug_id":"PIG-3310","text":"Consider the following example       On input data:\n{code}\n1       1001    101\n1       1002    103\n1       1003    102\n1       1004    102\n2       1005    101\n2       1003    101\n2       1002    123\n3       1042    101\n3       1005    101\n3       1002    133\n{code}         The second column should be a member id so (1,2,3,4,5).","class_goldset":["src.org.apache.pig.newplan.logical.relational.LOSplitOutput"],"file_goldset":["src.org.apache.pig.newplan.logical.relational.LOSplitOutput"],"creation_date":"2013-05-03T07:59:57.000+0000","resolution_date":"2013-05-30T18:57:12.000+0000"}
{"id":274,"bug_id":"PIG-3424","text":"Package import list should consider class name as is first even if -Dudf.import.list is passed. Currently if -Dudf.import.list is passed it adds them to the beginning of the list and \"\" (class name as is) which is defined by default always is pushed to end of list.","class_goldset":["src.org.apache.pig.impl.PigContext","test.org.apache.pig.test.TestPigContext"],"file_goldset":["src.org.apache.pig.impl.PigContext","test.org.apache.pig.test.TestPigContext"],"creation_date":"2013-08-15T14:56:20.000+0000","resolution_date":"2013-08-19T00:56:41.000+0000"}
