{"key":"AMQP-170","title":"Message header value has type com.rabbitmq.client.impl.LongStringHelper.ByteArrayLongString","description":""}
{"key":"AMQP-190","title":"CachingConnectionFactory leaks channels when synchronized with a TransactionManager","description":""}
{"key":"AMQP-250","title":"Anonymous reply-queue Doesn\u0027t Work with Send/Reply Operations","description":""}
{"key":"AMQP-280","title":"Fix Race Condition in Test","description":""}
{"key":"AMQP-332","title":"Adding multiple listeners inside a single listener-container element is not working","description":""}
{"key":"AMQP-290","title":"Rabbit namespace little bug, when using reference to queueArgumentsMap","description":""}
{"key":"AMQP-340","title":"Wrong RabbitMQ credentials are not considered as fatal error by SimpleMessageListenerContainer","description":""}
{"key":"AMQP-434","title":"convertAndSend() methods can throw MessageConversionException but that\u0027s not documented","description":""}
{"key":"AMQP-481","title":"@RabbitListener cannot be a scoped proxy","description":""}
{"key":"AMQP-502","title":"Fanout binding is not created due to missing routing key","description":""}
{"key":"AMQP-496","title":"Some threads are not interrupted when Workers did not finish before shutdownTimeout","description":""}
{"key":"AMQP-516","title":"Setting autoDelete or exclusive to anything, including \"true\" in @Queue without a queue name results in them being disabled","description":""}
{"key":"AMQP-541","title":"@Header and @Payload Annotations Not Recognized on Proxy","description":""}
{"key":"AMQP-565","title":"NPE in RabbitAdmin","description":""}
{"key":"AMQP-633","title":"Non Transactional RabbitTemplate Uses Container Transactional Channel","description":""}
{"key":"AMQP-653","title":"RabbitMessagingTemplate doesn\u0027t take advantage of RabbitTemplate\u0027s registered converters","description":""}
{"key":"AMQP-196","title":"RabbitTemplate/RabbitGatewaySupport incompatible with JDK proxy","description":""}
{"key":"AMQP-656","title":"Unable to refer to the default exchange using @Argument within a @RabbitListener","description":""}
{"key":"AMQP-121","title":"\u003clistener-container concurrency\u003d\"5\"/\u003e blows up","description":""}
{"key":"AMQP-122","title":"RabbitAdmin needs to handle starting up with no broker","description":""}
{"key":"AMQP-164","title":"Exchange parsers do not handle anonymous queues correctly","description":""}
