{"key":"IO-180","title":"LineIterator documentation ","description":""}
{"key":"IO-252","title":"NumberFormatException from FileUtils.toFile method","description":""}
{"key":"IO-307","title":"ReaderInputStream#read(byte[] b, int off, int len) should check for valid parameters","description":""}
{"key":"IO-481","title":"org.apache.commons.io.FileUtils#waitFor waits too long","description":""}
