{"key":"WFCORE-1908","title":"Tab completion suggest writing attribute which has access type metric and is not writable","description":""}
{"key":"WFCORE-727","title":"Some commands throws NPE on tab completion once disconnected","description":""}
{"key":"WFCORE-267","title":"CLI prints output twice if using cli client jar","description":""}
{"key":"WFCORE-1229","title":"Reloading the embed host controller logs ERROR messages","description":""}
{"key":"WFCORE-1611","title":"CLI could stuck if SIGINT is send during authentication dialogue","description":""}
{"key":"WFCORE-1027","title":"Inconsistent read-resource results with host scoped roles","description":""}
{"key":"WFCORE-916","title":" Kerberos authentication into Management Console does not fallback correctly","description":""}
{"key":"WFCORE-438","title":"The CLI freezes in phase of requesting username/password","description":""}
{"key":"WFCORE-1915","title":"ParseUtils.parseAttributeValue should not fail due to DMR type conversions","description":""}
{"key":"WFCORE-1578","title":"Better check of names of existing resources when adding \u0027{local|remote-destination-outbound-socket-binding\u0027","description":""}
{"key":"WFCORE-716","title":"Once server in reload-required state capabilities no longer checked at stage Model.","description":""}
{"key":"WFCORE-1309","title":"Applying patch - \"no space available\" not specific enough","description":""}
{"key":"WFCORE-1552","title":"Slaves should report the master\u0027s version in the domain model","description":""}
{"key":"WFCORE-1607","title":"Removing children of security-realm always finishes with {\"outcome\" \u003d\u003e \"success\"}","description":""}
{"key":"WFCORE-229","title":"server-config operations \"leaks\" to server\u0027s resources","description":""}
{"key":"WFCORE-997","title":"Security realm using ldaps hangs forever during SSL handshake, when ldap server is killed","description":""}
{"key":"WFCORE-752","title":"Only one deployment overlay can be created for each deployment","description":""}
{"key":"WFCORE-1354","title":"Cannot clone a profile with a remoting subsystem but no io subsystem","description":""}
{"key":"WFCORE-1936","title":"Value of parameters \"restart-required\" for fixed-*port attributes does not match reality for socket-binding and *-destination-outbound-socket-binding in CLI","description":""}
{"key":"WFCORE-507","title":" Unit test FileSystemDeploymentServiceUnitTestCase fails on IBM JDK ","description":""}
{"key":"WFCORE-1635","title":"Write attribute on a new deployment scanner fails in batch","description":""}
{"key":"WFCORE-1035","title":"stop-embedded-host-controller command is not available in non-modular environment","description":""}
{"key":"WFCORE-763","title":"Persisting an empty list [] gets read as a list with empty string [\"\"] resulting in IllegalArgumentException","description":""}
{"key":"WFCORE-1114","title":"NPE in DeploymentStatusHandler","description":""}
{"key":"WFCORE-1896","title":"Deployment operation browse-content(archive\u003dtrue) does not return archives in archived deployments","description":""}
{"key":"WFCORE-500","title":"domain mode: remove a path entry from a server instance fails","description":""}
{"key":"WFCORE-1481","title":"list-add operation doesn\u0027t work on login-modules attribute","description":""}
{"key":"WFCORE-1039","title":"Intermittent failure in notification listener testing in org.jboss.as.jmx.rbac.JmxRbacEnabledTestCase","description":""}
{"key":"WFCORE-1263","title":"MBeanServer.queryMBeans will include the ObjectInstance for the root mbean for the jboss.as[.expr] JMX domains","description":""}
{"key":"WFCORE-765","title":"Shutdown error in domain mode","description":""}
{"key":"WFCORE-1959","title":"Deploying an empty managed exploded deployment to server group in domain fails","description":""}
{"key":"WFCORE-1590","title":"Default parameter length validating ignores setMinSize(0)","description":""}
{"key":"WFCORE-1062","title":"Deployments from the domain/data/content folder goes missing after few minutes if the Host controller is started with --backup option.","description":""}
{"key":"WFCORE-495","title":"WFLY won\u0027t startup due to \"WFLYCTL0212: Duplicate resource [(\\\"deployment\\\" \u003d\u003e \\\"xxx.war\\\")]\"","description":""}
{"key":"WFCORE-1428","title":"log-file.stream attribute is of type LONG but contains a string","description":""}
{"key":"WFCORE-754","title":"EAP fails to start with -bmanagement\u003d option and with specific IP settings","description":""}
{"key":"WFCORE-1980","title":"Property file passed via CLI does not resolve expressions with relative path value in vault attributes","description":""}
{"key":"WFCORE-989","title":"Premature registration of reconnecting server","description":""}
{"key":"WFCORE-499","title":"System properties are broken in domain mode","description":""}
{"key":"WFCORE-1710","title":"WFCORE-1106 work ignores fact that HostCapabilityScope exists","description":""}
{"key":"WFCORE-815","title":"One profile can have more ancestors with same submodules","description":""}
{"key":"WFCORE-1439","title":"Allow for testsuite to pass on French OS","description":""}
{"key":"WFCORE-1992","title":"CLI inconsistently parse {} in another object as UNDEFINED","description":""}
{"key":"WFCORE-1687","title":"WFLYCTL0357 warning upon undeploying any deployment","description":""}
{"key":"WFCORE-1120","title":"Launcher sets \"-Djava.net.preferIPv4Stack\u003dtrue\" also with IPv6 profile","description":""}
{"key":"WFCORE-534","title":"Deployment scanner runtime-failure-causes-rollback attribute is not stored to the model","description":""}
{"key":"WFCORE-1437","title":"Using JKS truststore leads to \"FIPS mode: only SunJSSE TrustManagers may be used\"","description":""}
{"key":"WFCORE-834","title":"Capability resolution does not properly deal with \u0027included\u0027 profiles and socket-binding-groups","description":""}
{"key":"WFCORE-2013","title":"Unable to access http management interface secured by legacy ldap realm","description":""}
{"key":"WFCORE-1718","title":"Handlers within Audit Logger are not removed properly when Audit Logger is removed","description":""}
{"key":"WFCORE-540","title":"CVE-2014-7849 WildFly Domain Management: Limited RBAC authorization bypass","description":""}
{"key":"WFCORE-1115","title":"Intermittent failures of CompositeOperationTestCase \u0026 CoreResourceManagementTestCase","description":""}
{"key":"WFCORE-1346","title":"extension remove reports sucess even if the extension does not exist","description":""}
{"key":"WFCORE-894","title":"Empty properties list parsing leads to an error","description":""}
{"key":"WFCORE-2008","title":"Unable to use path in input-stream-index argument in /core-service\u003dpatching:patch","description":""}
{"key":"WFCORE-604","title":" After failed to deploy, remain deployment information in JBOSS_HOME/{standalone|domaine}/data/content directory","description":""}
{"key":"WFCORE-1715","title":"HostProcessReloadHandler does not reset the HostRunningModeControl\u0027s restartMode","description":""}
{"key":"WFCORE-892","title":"Cli output of some tests contains only \"0: \" (instead of correct result)","description":""}
{"key":"WFCORE-701","title":"Inconsistent domain server status reports between server-config resource and server resource","description":""}
{"key":"WFCORE-798","title":"Parser support missing for EAP 6.3 version of \u0027skip-group-loading\u0027","description":""}
{"key":"WFCORE-2021","title":"\"ls /socket-binding-group\u003d*\" should print proper error message","description":""}
{"key":"WFCORE-1067","title":" CVE-2015-5304 Missing authorization check for Monitor/Deployer/Auditor role when shutting down server or canceling op","description":""}
{"key":"WFCORE-1642","title":"Fix domain mode for configuration changes","description":""}
{"key":"WFCORE-638","title":"deployment runtime-name mismatch between content repo and server-group and logs","description":""}
{"key":"WFCORE-1452","title":"Socket binding resources do not register a requirement for their interface","description":""}
{"key":"WFCORE-922","title":"Remove unneeded cloning of model nodes when persisting the kernel configs","description":""}
{"key":"WFCORE-2083","title":"Reduce number of object allocations and memory footprint","description":""}
{"key":"WFCORE-626","title":"Global list-get operation can inadvertently create list elements","description":""}
{"key":"WFCORE-1708","title":"ReconnectSyslogServerTestCase from wf-core fails intermittently","description":""}
{"key":"WFCORE-1453","title":"module patched in a one-off not included in the next cp is not port-forwarded from the prev cp","description":""}
{"key":"WFCORE-58","title":"Setting some locales causes missing buttons on console and throws errors.","description":""}
{"key":"WFCORE-942","title":"Parameter completion for :read-resource and :read-children-resources is broken","description":""}
{"key":"WFCORE-1136","title":"Subsystem parser tests fail when woodstox parser is on classpath","description":""}
{"key":"WFCORE-1756","title":"Adding content to an exploded deployment with overwrite to false should fail if file already exists","description":""}
{"key":"WFCORE-625","title":"Error message in CLI if extension existing on the server is not present in the CLI instalaltion","description":""}
{"key":"WFCORE-71","title":"ProtocolLogger is used outside org.jboss.as.protocol module but isn\u0027t available","description":""}
{"key":"WFCORE-1464","title":"LogContexts are not removed for ear subdeployments","description":""}
{"key":"WFCORE-1188","title":"Exiting CLI requires stty sane command to be issued on Linux","description":""}
{"key":"WFCORE-896","title":"Cannot patch EAP once Docs are excluded from installation","description":""}
{"key":"WFCORE-230","title":"Failure by ProcessController to launch a server vm is not logged","description":""}
{"key":"WFCORE-1714","title":"Tab completion doesn\u0027t offer more options once prefix match some value","description":""}
{"key":"WFCORE-955","title":"Server is not responding after attempt to set parent of profile to non-existent profile","description":""}
{"key":"WFCORE-1214","title":"Operation headers not propagated to domain servers when \u0027composite\u0027 op is used","description":""}
{"key":"WFCORE-1333","title":"Editing of default deployment scanner\u0027s relative-to attribute can cause server crash","description":""}
{"key":"WFCORE-72","title":"deploy --force fails in CLI GUI","description":""}
{"key":"WFCORE-676","title":"data-source ..  --new-connection-sql  does not allow double qoutes in the SQL","description":""}
{"key":"WFCORE-1765","title":"unclear NullPointerException if the deployment-scanner element is removed from the configuration","description":""}
{"key":"WFCORE-868","title":"CLI if/else is not handling special characters strings with parenthesis","description":""}
{"key":"WFCORE-1373","title":"Unable to specify custom configuration directory via -Djboss.server.config.dir","description":""}
{"key":"WFCORE-154","title":"Patching does not process subdirectories","description":""}
{"key":"WFCORE-1134","title":"A java.lang.Error in Stage.DONE can lead to hangs","description":""}
{"key":"WFCORE-657","title":"CLI embedded server does not always clean up properly","description":""}
{"key":"WFCORE-1657","title":"Confusing tab completion for adding a module dependencies","description":""}
{"key":"WFCORE-1028","title":"Poor handling of invalid roles","description":""}
{"key":"WFCORE-233","title":"Subsystem ordering is lost during marshalling","description":""}
{"key":"WFCORE-1212","title":"TestModule does not clean up after itself properly","description":""}
{"key":"WFCORE-980","title":"The capability registry fails to rollback properly","description":""}
{"key":"WFCORE-687","title":"patches with duplicate element patch-id values should be rejected","description":""}
{"key":"WFCORE-1793","title":"add-content operation fails to overwrite existing content with overwrite\u003dtrue set when passing content by file path","description":""}
{"key":"WFCORE-268","title":"CLI GUI fails if connecting to AS7 or EAP6","description":""}
{"key":"WFCORE-1546","title":"Whitespaces in the middle of the value are siletly ignored","description":""}
{"key":"WFCORE-1210","title":"Transformations are not triggered for aliases","description":""}
{"key":"WFCORE-1815","title":"It\u0027s not possible to re-add extension ","description":""}
{"key":"WFCORE-172","title":"Wrong application name used for Syslog logging","description":""}
{"key":"WFCORE-876","title":"Reload or Shutdown inside IF statement is performed before the if/else block batch is executed","description":""}
{"key":"WFCORE-213","title":"Clean unreferenced items from the content repository","description":""}
{"key":"WFCORE-1493","title":"org.jboss.as.host.controller.Main.getHostSystemProperties() doesn\u0027t propagate -Djdk.launcher.addexports.%d\u003d%s value properly","description":""}
{"key":"WFCORE-1198","title":"CLI does not resolve multiple properties if one property is undefined","description":""}
{"key":"WFCORE-1479","title":"Jar sub deployment has as first dependency parent ear","description":""}
{"key":"WFCORE-949","title":"Removing http-interface autocompletes but fails","description":""}
{"key":"WFCORE-702","title":"periodic-size-rotating-file-handler is missing from logging profiles","description":""}
{"key":"WFCORE-145","title":"CLI run-batch command cannot process files with comments or blank lines","description":""}
{"key":"WFCORE-1572","title":"Suggestion list for argument value is not generated if the value contains a whitespace","description":""}
{"key":"WFCORE-1261","title":"Changing the max-history attribute value for configuration-changes fails","description":""}
{"key":"WFCORE-940","title":"CLI gets fooled by early connection","description":""}
{"key":"WFCORE-1851","title":"Inconsistent behaviour with browse-content(depth\u003d1) operation between archived and exploded deployments","description":""}
{"key":"WFCORE-706","title":"Non exploded deployments are incorrectly marked as exploded","description":""}
{"key":"WFCORE-285","title":"cli tab completion gets confused by double slash","description":""}
{"key":"WFCORE-1570","title":"Saved rollout-plan \u0027name\u0027 or \u0027id\u0027 attribute discrepancy","description":""}
{"key":"WFCORE-1288","title":"installing CP over one-off fails if the modules patched by the one-off are not patched in the CP","description":""}
{"key":"WFCORE-1864","title":"Whitespaces are not removed from dependencies in module add command","description":""}
{"key":"WFCORE-442","title":"AbstractMultiTargetHandler-based handlers do not propagate failures to the top level failure-description","description":""}
{"key":"WFCORE-931","title":"Embedded host-controller throws NPE on regular shutdown","description":""}
{"key":"WFCORE-1595","title":"CLI doesn\u0027t autocomplete for unalias command","description":""}
{"key":"WFCORE-1311","title":"WFCORE-893 Fix breaks mixed-domain","description":""}
{"key":"WFCORE-1007","title":"Warnings about missing notification descriptions when an operation removes an extension","description":""}
