{"key":"DATAMONGO-887","title":"","description":"public interface SourceRepository extends PagingAndSortingRepository\u003cMyEntity, ObjectId\u003e {\n\n\n\n\n}\n\n\n\n\n\n\n\n\n\n// Entity\n\n\n\n\n @Document(\"test_collection\")\n\n\n\n\npublic class MyEntity {\n\n\n\n\nprivate TreeMap\u003cString,MyClass\u003e treeMap;\n\n\n\n\n}\n\n\n\n\n\n\n\n\n\n// TreeMap value class\n\n\n\n\n public class MyClass {\n\n\n\n\nprivate String foo \u003d \"bar\";\n\n\n\n\n}"}
{"key":"DATAMONGO-897","title":"","description":"MongoTemplate.findAndModify(...)  @DbRef @DbRef"}
{"key":"DATAMONGO-892","title":"","description":"parserContext.isNested()"}
