{"key":"WFCORE-716","title":"","description":"attribute(name\u003dsecurity-realm)\n\n\n\n\n {\n\n\n\n\n    \"outcome\" \u003d\u003e \"success\",\n\n\n\n\n    \"response-headers\" \u003d\u003e {\n\n\n\n\n        \"operation-requires-reload\" \u003d\u003e true,\n\n\n\n\n        \"process-state\" \u003d\u003e \"reload-required\"\n\n\n\n\n    }\n\n\n\n\n attribute(name\u003dsecurity-domain, value\u003dMgMtDom)\n\n\n\n\n {\n\n\n\n\n    \"outcome\" \u003d\u003e \"success\",\n\n\n\n\n    \"response-headers\" \u003d\u003e {\n\n\n\n\n        \"operation-requires-reload\" \u003d\u003e true,\n\n\n\n\n        \"process-state\" \u003d\u003e \"reload-required\"\n\n\n\n\n    }"}
{"key":"WFCORE-1027","title":"","description":"{roles\u003dmaster-monitor}\n\n\n\n\n {\n\n\n\n\n                \"directory-grouping\" \u003d\u003e \"by-server\",\n\n\n\n\n                \"domain-controller\" \u003d\u003e {\"local\" \u003d\u003e {} {\"org.jboss.as.jmx\" \u003d\u003e undefined} {\n\n\n\n\n                    \"management\" \u003d\u003e undefined,\n\n\n\n\n                    \"public\" \u003d\u003e undefined,\n\n\n\n\n                    \"unsecure\" \u003d\u003e undefined\n\n\n\n\n                } {\"default\" \u003d\u003e undefined} {\"jmx\" \u003d\u003e undefined} {roles\u003dslave-maintainer}\n\n\n\n\n {roles\u003dslave-maintainer}\n\n\n\n\n {\"org.jboss.as.jmx\" \u003d\u003e undefined} {\n\n\n\n\n                \"management\" \u003d\u003e undefined,\n\n\n\n\n                \"public\" \u003d\u003e undefined,\n\n\n\n\n                \"unsecure\" \u003d\u003e undefined\n\n\n\n\n            } {\"default\" \u003d\u003e undefined} {\"jmx\" \u003d\u003e undefined}"}
{"key":"WFCORE-815","title":"","description":"add(name\u003dincludes, value\u003dmail-01)\n add(name\u003dincludes, value\u003dmail-02)\n\n {\n\n\n\n\n    \"outcome\" \u003d\u003e \"failed\",\n\n\n\n\n    \"failure-description\" \u003d\u003e {\"domain-failure-description\" \u003d\u003e \"WFLYCTL0401: Profile \u0027mail-01\u0027 defines subsystem \u0027mail\u0027 which is also defined in its ancestor profile \u0027mail-02\u0027. Overriding subsystems is not supported\"} add(name\u003dincludes, value\u003dmail-01)\n add(name\u003dincludes, value\u003dmail-02)"}
{"key":"WFCORE-1114","title":"","description":"AbstractDeploymentUnitService.getStatus()  TransformListener()"}
{"key":"WFCORE-989","title":"","description":"{\"server-group\" \u003d\u003e {\n\n\n\n\n        \"main-server-group\" \u003d\u003e {\"host\" \u003d\u003e {\"slave\" \u003d\u003e {\"main-three\" \u003d\u003e \"WFLYHC0153: Channel closed\"}"}
{"key":"WFCORE-922","title":"","description":"ModelNode.asPropertyList() The asPropertyList()"}
{"key":"WFCORE-955","title":"","description":"add()\n {\n\n\n\n\n    \"outcome\" \u003d\u003e \"failed\",\n\n\n\n\n    \"failure-description\" \u003d\u003e \"java.lang.NullPointerException:null\"\n\n\n\n\n}\n\n\n\n\n add()"}
{"key":"WFCORE-1028","title":"","description":"{roles\u003dslave-monitor}"}
{"key":"WFCORE-876","title":"","description":"resource()"}
{"key":"WFCORE-949","title":"","description":"remove()"}
{"key":"WFCORE-1007","title":"","description":"migrate()\n\n\n\n\n {\n\n\n\n\n    \"outcome\" \u003d\u003e \"success\",\n\n\n\n\n    \"result\" \u003d\u003e {\"migration-warnings\" \u003d\u003e []}\n\n\n\n\n migrate()\n\n\n\n\n {\n\n\n\n\n    \"outcome\" \u003d\u003e \"success\",\n\n\n\n\n    \"result\" \u003d\u003e {\"migration-warnings\" \u003d\u003e []}\n\n\n\n\n migrate()\n\n\n\n\n {\n\n\n\n\n    \"outcome\" \u003d\u003e \"success\",\n\n\n\n\n    \"result\" \u003d\u003e {\"migration-warnings\" \u003d\u003e []}"}
