{"key":"WFCORE-1908","title":"","description":"attribute(name\u003dmessage-count, value\u003d5)\n\n\n\n\n {\n\n\n\n\n    \"outcome\" \u003d\u003e \"failed\",\n\n\n\n\n    \"failure-description\" \u003d\u003e \"WFLYCTL0048: Attribute message-count is not writable\",\n\n\n\n\n    \"rolled-back\" \u003d\u003e true\n\n\n\n\n}"}
{"key":"WFCORE-1578","title":"","description":"{remote|local} add()\n\n\n\n\n add(host\u003dlocalhost,port\u003d8765)\n\n\n\n\n add(socket-binding-ref\u003dhttp)\n\n\n\n\n {remote|local}"}
{"key":"WFCORE-1936","title":"","description":"description(recursive\u003dtrue)"}
{"key":"WFCORE-1635","title":"","description":"add(path\u003dlog, relative-to\u003d\"jboss.server.base.dir\", auto-deploy-exploded\u003dfalse, scan-enabled\u003dfalse)\n\n\n\n\n attribute(name\u003dscan-interval, value\u003d6000)\n\n\n\n\n add(path\u003dlog, relative-to\u003d\"jboss.server.base.dir\", auto-deploy-exploded\u003dfalse, scan-enabled\u003dfalse)\n\n\n\n\n attribute(name\u003dscan-interval, value\u003d6000)"}
{"key":"WFCORE-1896","title":"","description":"content(archive\u003dtrue)  content()\n\n\n\n\n {\n\n\n\n\n    \"outcome\" \u003d\u003e \"success\",\n\n\n\n\n    \"result\" \u003d\u003e [\n\n\n\n\n        {\n\n\n\n\n            \"path\" \u003d\u003e \"jboss-kitchensink-ear-web.war\",\n\n\n\n\n            \"directory\" \u003d\u003e false,\n\n\n\n\n            \"file-size\" \u003d\u003e 63190L\n\n\n\n\n        } {\n\n\n\n\n            \"path\" \u003d\u003e \"jboss-kitchensink-ear-ejb.jar\",\n\n\n\n\n            \"directory\" \u003d\u003e false,\n\n\n\n\n            \"file-size\" \u003d\u003e 12256L\n\n\n\n\n        } {\n\n\n\n\n            \"path\" \u003d\u003e \"META-INF/maven/\",\n\n\n\n\n            \"directory\" \u003d\u003e true\n\n\n\n\n        } {\n\n\n\n\n            \"path\" \u003d\u003e \"META-INF/MANIFEST.MF\",\n\n\n\n\n            \"directory\" \u003d\u003e false,\n\n\n\n\n            \"file-size\" \u003d\u003e 130L\n\n\n\n\n        } {\n\n\n\n\n            \"path\" \u003d\u003e \"META-INF/application.xml\",\n\n\n\n\n            \"directory\" \u003d\u003e false,\n\n\n\n\n            \"file-size\" \u003d\u003e 802L\n\n\n\n\n        } {\n\n\n\n\n            \"path\" \u003d\u003e \"META-INF/kitchensink-ear-quickstart-ds.xml\",\n\n\n\n\n            \"directory\" \u003d\u003e false,\n\n\n\n\n            \"file-size\" \u003d\u003e 1955L\n\n\n\n\n        } {\n\n\n\n\n            \"path\" \u003d\u003e \"META-INF/\",\n\n\n\n\n            \"directory\" \u003d\u003e true\n\n\n\n\n        }\n\n\n\n\n     content(archive\u003dtrue)\n\n\n\n\n {\"outcome\" \u003d\u003e \"success\"}\n\n\n\n\n\n\n {\"outcome\" \u003d\u003e \"success\"}\n\n\n\n\n {\"outcome\" \u003d\u003e \"success\"}\n\n\n\n\n {\"outcome\" \u003d\u003e \"success\"}\n\n\n\n\n content(archive\u003dtrue)\n\n\n\n\n {\n\n\n\n\n    \"outcome\" \u003d\u003e \"success\",\n\n\n\n\n    \"result\" \u003d\u003e [\n\n\n\n\n        {\n\n\n\n\n            \"path\" \u003d\u003e \"jboss-kitchensink-ear-web.war\",\n\n\n\n\n            \"directory\" \u003d\u003e false,\n\n\n\n\n            \"file-size\" \u003d\u003e 63190L\n\n\n\n\n        } {\n\n\n\n\n            \"path\" \u003d\u003e \"jboss-kitchensink-ear-ejb.jar\",\n\n\n\n\n            \"directory\" \u003d\u003e false,\n\n\n\n\n            \"file-size\" \u003d\u003e 12256L\n\n\n\n\n        }"}
{"key":"WFCORE-1590","title":"","description":"static final SimpleAttributeDefinition REPLACEMENT \u003d new SimpleAttributeDefinitionBuilder(ElytronDescriptionConstants.REPLACEMENT, ModelType.STRING, false)\n\n\n\n\n        .setAllowExpression(true)\n\n\n\n\n        .setMinSize(0)\n\n\n\n\n        .setFlags(AttributeAccess.Flag.RESTART_RESOURCE_SERVICES)\n\n\n\n\n        .build();\n\n\n\n\n\n\n add(pattern\u003d\"@ELYTRON.ORG\", replacement\u003d\"\", replace-all\u003dtrue)"}
{"key":"WFCORE-1959","title":"","description":"{empty\u003dtrue} add()"}
{"key":"WFCORE-1718","title":"","description":"remove()\n remove()\n {\n\n\n\n\n    \"outcome\" \u003d\u003e \"failed\",\n\n\n\n\n    \"failure-description\" \u003d\u003e \"WFLYCTL0158: Operation handler failed: java.lang.NullPointerException\",\n\n\n\n\n    \"rolled-back\" \u003d\u003e true\n\n\n\n\n}\n\n\n\n\n\n\n attribute(name\u003dlevel,value\u003dDEBUG)"}
{"key":"WFCORE-1992","title":"","description":"{}  {path\u003d$SOME_PATH} {} {}\n\n\n\n\n\n\n\n\n\n\n\n\n {rdn-identifier\u003duid,otp-credential-mapper\u003d{}"}
{"key":"WFCORE-2021","title":"","description":"{\"WFLYCTL0062: Composite operation failed and was rolled back. Steps that failed:\" \u003d\u003e {\"Operation step-1\" \u003d\u003e \"WFLYCTL0030: No resource definition is registered for address [(\\\"subsystem\\\" \u003d\u003e \\\"*\\\")]\"}"}
{"key":"WFCORE-1572","title":"","description":"{rollout id\u003dfoo}"}
{"key":"WFCORE-1793","title":"","description":"{\"outcome\" \u003d\u003e \"success\"}\n\n\n\n\n {\"outcome\" \u003d\u003e \"success\"}\n\n\n\n\n {\"outcome\" \u003d\u003e \"success\"}\n\n\n\n\n {path\u003d/home/mjurc/testing/eap7-204/test.txt, target-path\u003dtest.txt} {path\u003d/home/mjurc/testing/eap7-204/test.txt, target-path\u003dtest.txt} {path\u003d/home/mjurc/testing/eap7-204/test.txt, target-path\u003dtest.txt}"}
{"key":"WFCORE-1570","title":"","description":"group(rolling-to-servers\u003dfalse,max-failed-servers\u003d1) group(rolling-to-servers\u003dtrue,max-failure-percentage\u003d20)  {rollout id\u003dmy-rollout-plan}"}
{"key":"WFCORE-1851","title":"","description":"content(depth\u003d1)  {\n\n\n\n\n    \"outcome\" \u003d\u003e \"success\",\n\n\n\n\n    \"result\" \u003d\u003e [\n\n\n\n\n        {\n\n\n\n\n            \"path\" \u003d\u003e \"jboss-kitchensink-ear-web.war\",\n\n\n\n\n            \"directory\" \u003d\u003e false,\n\n\n\n\n            \"file-size\" \u003d\u003e 63190L\n\n\n\n\n        } {\n\n\n\n\n            \"path\" \u003d\u003e \"jboss-kitchensink-ear-ejb.jar\",\n\n\n\n\n            \"directory\" \u003d\u003e false,\n\n\n\n\n            \"file-size\" \u003d\u003e 12256L\n\n\n\n\n        } {\n\n\n\n\n            \"path\" \u003d\u003e \"META-INF/\",\n\n\n\n\n            \"directory\" \u003d\u003e true\n\n\n\n\n        }\n\n\n\n\n     {\n\n\n\n\n    \"outcome\" \u003d\u003e \"success\",\n\n\n\n\n    \"result\" \u003d\u003e [\n\n\n\n\n        {\n\n\n\n\n            \"path\" \u003d\u003e \"META-INF/\",\n\n\n\n\n            \"directory\" \u003d\u003e true\n\n\n\n\n        } {\n\n\n\n\n            \"path\" \u003d\u003e \"META-INF/MANIFEST.MF\",\n\n\n\n\n            \"directory\" \u003d\u003e false,\n\n\n\n\n            \"file-size\" \u003d\u003e 130L\n\n\n\n\n        } {\n\n\n\n\n            \"path\" \u003d\u003e \"jboss-kitchensink-ear-web.war\",\n\n\n\n\n            \"directory\" \u003d\u003e false,\n\n\n\n\n            \"file-size\" \u003d\u003e 63190L\n\n\n\n\n        } {\n\n\n\n\n            \"path\" \u003d\u003e \"jboss-kitchensink-ear-ejb.jar\",\n\n\n\n\n            \"directory\" \u003d\u003e false,\n\n\n\n\n            \"file-size\" \u003d\u003e 12256L\n\n\n\n\n        } {\n\n\n\n\n            \"path\" \u003d\u003e \"META-INF/application.xml\",\n\n\n\n\n            \"directory\" \u003d\u003e false,\n\n\n\n\n            \"file-size\" \u003d\u003e 802L\n\n\n\n\n        } {\n\n\n\n\n            \"path\" \u003d\u003e \"META-INF/kitchensink-ear-quickstart-ds.xml\",\n\n\n\n\n            \"directory\" \u003d\u003e false,\n\n\n\n\n            \"file-size\" \u003d\u003e 1955L\n\n\n\n\n        }"}
{"key":"WFCORE-1864","title":"","description":"{{\n...\n    \u003cdependencies\u003e\n        \u003cmodule name\u003d\"org.a\"/\u003e\n        \u003cmodule name\u003d\" org.b \"/\u003e\n    \u003c/dependencies\u003e\n...\n}}"}
