{"id":6899,"bug_id":"WFCORE-1908","text":"Tab completion suggest writing attribute which has access type metric and is not writable. ","file_goldset":["org.jboss.as.cli.Util","org.jboss.as.cli.impl.AttributeNamePathCompleter","org.jboss.as.cli.parsing.test.AttributeNamePathCompletionTestCase"],"creation_date":"2016-10-31T08:13:57.000-05:00","resolution_date":"2016-11-02T21:27:51.000-05:00"}
{"id":6900,"bug_id":"WFCORE-727","text":"Some commands throws NPE on tab completion once disconnected. ","file_goldset":["org.jboss.as.cli.impl.CommandCandidatesProvider","org.jboss.as.cli.handlers.ReadAttributeHandler","org.jboss.as.cli.handlers.LsHandler"],"creation_date":"2015-06-02T06:44:33.000-05:00","resolution_date":"2015-06-10T10:10:11.000-05:00"}
{"id":6901,"bug_id":"WFCORE-267","text":"CLI prints output twice if using cli client jar. ","file_goldset":["org.jboss.as.cli.CommandLineMain"],"creation_date":"2014-11-19T19:47:31.000-06:00","resolution_date":"2014-12-05T23:16:30.000-06:00"}
{"id":6902,"bug_id":"WFCORE-1229","text":"Reloading the embed host controller logs ERROR messages. ","file_goldset":["org.jboss.as.domain.controller.operations.coordination.PrepareStepHandler"],"creation_date":"2015-12-15T22:24:13.000-06:00","resolution_date":"2016-01-29T22:35:27.000-06:00"}
{"id":6903,"bug_id":"WFCORE-1611","text":"CLI could stuck if SIGINT is send during authentication dialogue. ","file_goldset":["org.jboss.as.cli.impl.CliShutdownHook"],"creation_date":"2016-06-22T08:49:33.000-05:00","resolution_date":"2016-06-28T10:23:55.000-05:00"}
{"id":6904,"bug_id":"WFCORE-1027","text":"Inconsistent read-resource results with host scoped roles. ","file_goldset":["org.jboss.as.test.integration.domain.rbac.ListRoleNamesTestCase","org.jboss.as.test.integration.domain.rbac.WildcardReadsTestCase","org.jboss.as.test.integration.domain.rbac.JmxRBACProviderHostScopedRolesTestCase","org.jboss.as.test.integration.domain.rbac.RBACProviderHostScopedRolesTestCase","org.jboss.as.test.integration.domain.rbac.AbstractHostScopedRolesTestCase","org.jboss.as.controller.operations.global.GlobalOperationHandlers"],"creation_date":"2015-10-01T18:16:10.000-05:00","resolution_date":"2015-10-06T16:00:01.000-05:00"}
{"id":6905,"bug_id":"WFCORE-916","text":" Kerberos authentication into Management Console does not fallback correctly. ","file_goldset":["org.jboss.as.domain.management.logging.DomainManagementLogger","org.jboss.as.domain.management.security.KeytabService"],"creation_date":"2015-08-18T05:52:06.000-05:00","resolution_date":"2015-10-08T09:51:45.000-05:00"}
{"id":6906,"bug_id":"WFCORE-438","text":"The CLI freezes in phase of requesting username/password. ","file_goldset":["org.jboss.as.cli.impl.CLIModelControllerClient"],"creation_date":"2014-12-02T14:36:19.000-06:00","resolution_date":"2014-12-09T14:07:17.000-06:00"}
{"id":6907,"bug_id":"WFCORE-1915","text":"ParseUtils.parseAttributeValue should not fail due to DMR type conversions. ","file_goldset":["org.jboss.as.controller.parsing.ParseUtils"],"creation_date":"2016-10-31T19:24:55.000-05:00","resolution_date":"2016-11-04T22:18:10.000-05:00"}
{"id":6908,"bug_id":"WFCORE-1578","text":"Better check of names of existing resources when adding \u0027{local|remote-destination-outbound-socket-binding\u0027. ","file_goldset":["org.jboss.as.server.services.net.SocketBindingAddHandler","org.jboss.as.controller.logging.ControllerLogger","org.jboss.as.server.services.net.RemoteDestinationOutboundSocketBindingAddHandler","org.jboss.as.server.services.net.LocalDestinationOutboundSocketBindingAddHandler"],"creation_date":"2016-06-07T05:13:13.000-05:00","resolution_date":"2016-06-30T22:42:01.000-05:00"}
{"id":6909,"bug_id":"WFCORE-716","text":"Once server in reload-required state capabilities no longer checked at stage Model.. ","file_goldset":["org.jboss.as.controller.CapabilityReferenceRecorder"],"creation_date":"2015-05-27T10:21:36.000-05:00","resolution_date":"2015-06-10T13:09:19.000-05:00"}
{"id":6910,"bug_id":"WFCORE-1309","text":"Applying patch - \"no space available\" not specific enough. ","file_goldset":["org.jboss.as.patching.runner.PatchToolImpl","org.jboss.as.patching.IoUtils","org.jboss.as.patching.logging.PatchLogger"],"creation_date":"2016-01-19T13:43:54.000-06:00","resolution_date":"2016-02-03T08:13:21.000-06:00"}
{"id":6911,"bug_id":"WFCORE-1552","text":"Slaves should report the master\u0027s version in the domain model. ","file_goldset":["org.jboss.as.domain.controller.operations.SyncModelServerStateTestCase","org.jboss.as.domain.controller.operations.SyncModelOperationHandler"],"creation_date":"2016-05-13T14:57:20.000-05:00","resolution_date":"2016-11-04T22:26:25.000-05:00"}
{"id":6912,"bug_id":"WFCORE-1607","text":"Removing children of security-realm always finishes with {\"outcome\" \u003d\u003e \"success\"}. ","file_goldset":["org.jboss.as.domain.management.security.SecurityRealmChildRemoveHandler"],"creation_date":"2016-06-17T12:23:38.000-05:00","resolution_date":"2016-07-07T02:45:16.000-05:00"}
{"id":6913,"bug_id":"WFCORE-229","text":"server-config operations \"leaks\" to server\u0027s resources. ","file_goldset":["org.jboss.as.controller.registry.ProxyControllerRegistration","org.jboss.as.controller.registry.DelegatingImmutableManagementResourceRegistration","org.jboss.as.subsystem.test.SubsystemTestDelegate","org.jboss.as.controller.registry.NodeSubregistry","org.jboss.as.controller.registry.ImmutableManagementResourceRegistration","org.jboss.as.controller.registry.ConcreteResourceRegistration","org.jboss.as.controller.registry.AbstractResourceRegistration","org.jboss.as.controller.registry.DelegatingManagementResourceRegistration","org.jboss.as.domain.controller.operations.AbstractOperationTestCase","org.jboss.as.controller.extension.ExtensionRegistry","org.jboss.as.controller.registry.AliasResourceRegistration"],"creation_date":"2014-11-07T15:20:11.000-06:00","resolution_date":"2014-12-16T15:37:45.000-06:00"}
{"id":6914,"bug_id":"WFCORE-997","text":"Security realm using ldaps hangs forever during SSL handshake, when ldap server is killed. ","file_goldset":["org.jboss.as.domain.management.connections.ldap.ThreadLocalSSLSocketFactory","org.jboss.as.domain.management.security.WrapperSSLContext"],"creation_date":"2015-09-22T03:53:31.000-05:00","resolution_date":"2015-10-08T12:06:14.000-05:00"}
{"id":6915,"bug_id":"WFCORE-752","text":"Only one deployment overlay can be created for each deployment. ","file_goldset":["org.jboss.as.server.deploymentoverlay.DeploymentOverlayIndex"],"creation_date":"2015-06-09T14:36:24.000-05:00","resolution_date":"2015-06-10T13:12:50.000-05:00"}
{"id":6916,"bug_id":"WFCORE-1354","text":"Cannot clone a profile with a remoting subsystem but no io subsystem. ","file_goldset":["org.jboss.as.subsystem.test.AbstractSubsystemBaseTest","org.jboss.as.remoting.RemotingExtension"],"creation_date":"2016-02-03T00:19:08.000-06:00","resolution_date":"2016-02-15T20:05:47.000-06:00"}
{"id":6917,"bug_id":"WFCORE-1936","text":"Value of parameters \"restart-required\" for fixed-*port attributes does not match reality for socket-binding and *-destination-outbound-socket-binding in CLI. ","file_goldset":["org.jboss.as.server.services.net.OutboundSocketBindingResourceDefinition","org.jboss.as.controller.resource.AbstractSocketBindingResourceDefinition"],"creation_date":"2016-11-04T10:57:06.000-05:00","resolution_date":"2016-11-07T18:40:35.000-06:00"}
{"id":6918,"bug_id":"WFCORE-507","text":" Unit test FileSystemDeploymentServiceUnitTestCase fails on IBM JDK . ","file_goldset":["org.jboss.as.patching.tests.PatchModuleInvalidationWithRenamingFailureTestCase"],"creation_date":"2015-01-16T14:01:08.000-06:00","resolution_date":"2015-01-20T10:16:26.000-06:00"}
{"id":6919,"bug_id":"WFCORE-1635","text":"Write attribute on a new deployment scanner fails in batch. ","file_goldset":["org.jboss.as.server.deployment.scanner.AbstractWriteAttributeHandler"],"creation_date":"2016-07-05T07:04:51.000-05:00","resolution_date":"2016-07-08T23:36:17.000-05:00"}
{"id":6920,"bug_id":"WFCORE-1035","text":"stop-embedded-host-controller command is not available in non-modular environment. ","file_goldset":["org.wildfly.core.embedded.EmbeddedServerReference"],"creation_date":"2015-10-01T12:24:37.000-05:00","resolution_date":"2015-10-16T08:47:34.000-05:00"}
{"id":6921,"bug_id":"WFCORE-763","text":"Persisting an empty list [] gets read as a list with empty string [\"\"] resulting in IllegalArgumentException. ","file_goldset":["org.jboss.as.controller.AttributeParser","org.jboss.as.controller.SimpleListAttributeDefinitionUnitTestCase"],"creation_date":"2015-06-16T14:59:39.000-05:00","resolution_date":"2015-06-18T20:36:00.000-05:00"}
{"id":6922,"bug_id":"WFCORE-1114","text":"NPE in DeploymentStatusHandler. ","file_goldset":["org.jboss.as.server.deployment.AbstractDeploymentUnitService"],"creation_date":"2015-11-06T02:08:35.000-06:00","resolution_date":"2016-03-18T17:45:32.000-05:00"}
{"id":6923,"bug_id":"WFCORE-1896","text":"Deployment operation browse-content(archive\u003dtrue) does not return archives in archived deployments. ","file_goldset":["org.jboss.as.repository.ContentFilter","org.jboss.as.repository.PathUtilTest","org.jboss.as.repository.PathUtil"],"creation_date":"2016-10-26T09:44:51.000-05:00","resolution_date":"2016-11-07T20:31:31.000-06:00"}
{"id":6924,"bug_id":"WFCORE-500","text":"domain mode: remove a path entry from a server instance fails. ","file_goldset":["org.jboss.as.controller.services.path.PathRemoveHandler"],"creation_date":"2015-01-13T13:10:50.000-06:00","resolution_date":"2015-01-22T01:53:22.000-06:00"}
{"id":6925,"bug_id":"WFCORE-1481","text":"list-add operation doesn\u0027t work on login-modules attribute. ","file_goldset":["org.jboss.as.controller.operations.global.WriteAttributeHandler","org.jboss.as.controller.AbstractWriteAttributeHandler","org.jboss.as.controller.operations.global.AbstractCollectionHandler","org.jboss.as.controller.operations.global.ReadAttributeHandler","org.jboss.as.controller.operation.global.EnhancedSyntaxTestCase","org.jboss.as.controller.operation.global.CollectionOperationsTestCase"],"creation_date":"2016-04-18T14:48:59.000-05:00","resolution_date":"2016-07-26T02:42:04.000-05:00"}
{"id":6926,"bug_id":"WFCORE-1039","text":"Intermittent failure in notification listener testing in org.jboss.as.jmx.rbac.JmxRbacEnabledTestCase. ","file_goldset":["org.jboss.as.jmx.rbac.Bean","org.jboss.as.jmx.rbac.TestModelMBean"],"creation_date":"2015-10-07T17:13:27.000-05:00","resolution_date":"2015-10-19T18:48:35.000-05:00"}
{"id":6927,"bug_id":"WFCORE-1263","text":"MBeanServer.queryMBeans will include the ObjectInstance for the root mbean for the jboss.as[.expr] JMX domains. ","file_goldset":["org.jboss.as.jmx.model.ModelControllerMBeanHelper"],"creation_date":"2016-01-04T20:13:11.000-06:00","resolution_date":"2016-03-18T19:27:52.000-05:00"}
{"id":6928,"bug_id":"WFCORE-765","text":"Shutdown error in domain mode. ","file_goldset":["org.jboss.as.server.operations.ServerDomainProcessShutdownHandler"],"creation_date":"2015-06-16T11:16:33.000-05:00","resolution_date":"2015-06-18T20:36:51.000-05:00"}
{"id":6929,"bug_id":"WFCORE-1959","text":"Deploying an empty managed exploded deployment to server group in domain fails. ","file_goldset":["org.jboss.as.domain.controller.operations.coordination.ServerOperationResolver"],"creation_date":"2016-11-08T16:28:30.000-06:00","resolution_date":"2016-11-09T01:18:14.000-06:00"}
{"id":6930,"bug_id":"WFCORE-1590","text":"Default parameter length validating ignores setMinSize(0). ","file_goldset":["org.jboss.as.controller.AbstractAttributeDefinitionBuilder","org.jboss.as.controller.test.WriteAttributeOperationTestCase","org.jboss.as.controller.AttributeDefinition","org.jboss.as.controller.SimpleAttributeDefinitionUnitTestCase","org.jboss.as.controller.operations.validation.BytesValidator"],"creation_date":"2016-06-12T14:18:43.000-05:00","resolution_date":"2016-08-11T15:17:26.000-05:00"}
{"id":6931,"bug_id":"WFCORE-1062","text":"Deployments from the domain/data/content folder goes missing after few minutes if the Host controller is started with --backup option.. ","file_goldset":["org.jboss.as.domain.controller.resources.DomainDeploymentResourceDefinition","org.jboss.as.domain.controller.operations.deployment.DeploymentAddHandler","org.jboss.as.controller.persistence.FilePersistenceUtils","org.jboss.as.server.deployment.ContentCleanerService","org.jboss.as.repository.ContentRepository"],"creation_date":"2015-10-20T09:33:46.000-05:00","resolution_date":"2015-10-22T13:43:41.000-05:00"}
{"id":6932,"bug_id":"WFCORE-495","text":"WFLY won\u0027t startup due to \"WFLYCTL0212: Duplicate resource [(\\\"deployment\\\" \u003d\u003e \\\"xxx.war\\\")]\". ","file_goldset":["org.jboss.as.server.deployment.DeploymentFullReplaceHandler"],"creation_date":"2015-01-12T08:48:29.000-06:00","resolution_date":"2015-01-23T22:27:07.000-06:00"}
{"id":6933,"bug_id":"WFCORE-1428","text":"log-file.stream attribute is of type LONG but contains a string. ","file_goldset":["org.jboss.as.logging.LogFileResourceDefinition"],"creation_date":"2016-03-04T14:45:35.000-06:00","resolution_date":"2016-03-18T22:17:52.000-05:00"}
{"id":6934,"bug_id":"WFCORE-754","text":"EAP fails to start with -bmanagement\u003d option and with specific IP settings. ","file_goldset":["org.jboss.as.host.controller.ServerInventoryService"],"creation_date":"2015-06-02T11:17:26.000-05:00","resolution_date":"2015-06-18T20:37:41.000-05:00"}
{"id":6935,"bug_id":"WFCORE-1980","text":"Property file passed via CLI does not resolve expressions with relative path value in vault attributes. ","file_goldset":["org.jboss.as.cli.parsing.test.PropertyReplacementTestCase","org.jboss.as.cli.ArgumentValueConverter","org.jboss.as.cli.util.CLIExpressionResolver"],"creation_date":"2016-11-14T11:38:17.000-06:00","resolution_date":"2016-11-17T22:18:43.000-06:00"}
{"id":6936,"bug_id":"WFCORE-989","text":"Premature registration of reconnecting server. ","file_goldset":["org.jboss.as.host.controller.ServerInventoryImpl","org.jboss.as.host.controller.mgmt.ServerToHostProtocolHandler"],"creation_date":"2015-09-19T03:11:07.000-05:00","resolution_date":"2015-10-23T17:03:25.000-05:00"}
{"id":6937,"bug_id":"WFCORE-499","text":"System properties are broken in domain mode. ","file_goldset":["org.jboss.as.test.integration.domain.suites.CoreResourceManagementTestCase","org.jboss.as.server.operations.SystemPropertyAddHandler","org.jboss.as.server.controller.resources.SystemPropertyResourceDefinition","org.jboss.as.host.controller.ManagedServerBootCmdFactory"],"creation_date":"2015-01-13T01:54:46.000-06:00","resolution_date":"2015-02-06T23:21:02.000-06:00"}
{"id":6938,"bug_id":"WFCORE-1710","text":"WFCORE-1106 work ignores fact that HostCapabilityScope exists. ","file_goldset":["org.jboss.as.controller.CapabilityRegistry"],"creation_date":"2016-08-11T16:39:18.000-05:00","resolution_date":"2016-08-11T18:29:34.000-05:00"}
{"id":6939,"bug_id":"WFCORE-815","text":"One profile can have more ancestors with same submodules. ","file_goldset":["org.jboss.as.host.controller.logging.HostControllerLogger","org.jboss.as.domain.controller.operations.SocketBindingGroupIncludesHandlerTestCase","org.jboss.as.domain.controller.operations.ProfileIncludesHandlerTestCase"],"creation_date":"2015-07-13T07:57:45.000-05:00","resolution_date":"2015-07-15T13:34:32.000-05:00"}
{"id":6940,"bug_id":"WFCORE-1439","text":"Allow for testsuite to pass on French OS. ","file_goldset":["org.jboss.as.test.manualmode.management.cli.ManagementOpTimeoutTestCase","org.jboss.as.server.deployment.scanner.XmlCompletionScannerTest","org.jboss.as.server.deployment.scanner.XmlCompletionScanner","org.jboss.as.test.integration.mgmt.access.ConfigurationChangesHistoryTestCase","org.jboss.as.server.deployment.scanner.logging.DeploymentScannerLogger","org.jboss.as.test.integration.mgmt.access.ValidateAddressOrOperationTestCase","org.jboss.as.test.integration.domain.suites.ResponseStreamTestCase"],"creation_date":"2016-03-17T15:20:26.000-05:00","resolution_date":"2016-03-18T22:18:45.000-05:00"}
{"id":6941,"bug_id":"WFCORE-1992","text":"CLI inconsistently parse {} in another object as UNDEFINED. ","file_goldset":["org.jboss.as.cli.parsing.test.ArgumentValueConverterTestCase","org.jboss.as.cli.parsing.arguments.ArgumentValueCallbackHandler"],"creation_date":"2016-11-15T14:35:44.000-06:00","resolution_date":"2016-11-17T22:27:41.000-06:00"}
{"id":6942,"bug_id":"WFCORE-1687","text":"WFLYCTL0357 warning upon undeploying any deployment. ","file_goldset":["org.jboss.as.server.deployment.DeploymentHandlerUtil"],"creation_date":"2016-08-02T14:41:35.000-05:00","resolution_date":"2016-08-15T15:57:03.000-05:00"}
{"id":6943,"bug_id":"WFCORE-1120","text":"Launcher sets \"-Djava.net.preferIPv4Stack\u003dtrue\" also with IPv6 profile. ","file_goldset":["org.wildfly.core.launcher.CommandBuilderTest","org.wildfly.core.launcher.Arguments"],"creation_date":"2015-11-10T12:21:50.000-06:00","resolution_date":"2015-11-17T16:48:53.000-06:00"}
{"id":6944,"bug_id":"WFCORE-534","text":"Deployment scanner runtime-failure-causes-rollback attribute is not stored to the model. ","file_goldset":["org.jboss.as.server.deployment.scanner.DeploymentScannerDefinition","org.jboss.as.server.deployment.scanner.DeploymentScannerParsingTestCase"],"creation_date":"2015-02-08T01:39:32.000-06:00","resolution_date":"2015-02-08T23:40:38.000-06:00"}
{"id":6945,"bug_id":"WFCORE-1437","text":"Using JKS truststore leads to \"FIPS mode: only SunJSSE TrustManagers may be used\". ","file_goldset":["org.jboss.as.domain.management.security.FileTrustManagerService"],"creation_date":"2016-03-16T17:00:04.000-05:00","resolution_date":"2016-03-19T00:44:11.000-05:00"}
{"id":6946,"bug_id":"WFCORE-834","text":"Capability resolution does not properly deal with \u0027included\u0027 profiles and socket-binding-groups. ","file_goldset":["org.jboss.as.controller.CompositeOperationHandler","org.jboss.as.controller.OperationContextImpl","org.jboss.as.controller.SocketCapabilityResolutionUnitTestCase","org.jboss.as.controller.capability.registry.CapabilityResolutionContext","org.jboss.as.controller.ModelControllerImpl","org.jboss.as.controller.AbstractOperationContext","org.jboss.as.controller.capability.registry.CapabilityId"],"creation_date":"2015-07-21T19:12:42.000-05:00","resolution_date":"2015-07-30T22:18:30.000-05:00"}
{"id":6947,"bug_id":"WFCORE-2013","text":"Unable to access http management interface secured by legacy ldap realm. ","file_goldset":["org.jboss.as.domain.management.security.SecurityRealmService"],"creation_date":"2016-11-18T09:47:51.000-06:00","resolution_date":"2016-11-18T17:03:08.000-06:00"}
{"id":6948,"bug_id":"WFCORE-1718","text":"Handlers within Audit Logger are not removed properly when Audit Logger is removed. ","file_goldset":["org.jboss.as.domain.management.audit.AccessAuditResourceDefinition","org.jboss.as.domain.management.audit.AuditLogLoggerResourceDefinition","org.jboss.as.domain.management.audit.AuditLogHandlerReferenceResourceDefinition"],"creation_date":"2016-08-16T09:49:11.000-05:00","resolution_date":"2016-08-31T21:54:29.000-05:00"}
{"id":6949,"bug_id":"WFCORE-540","text":"CVE-2014-7849 WildFly Domain Management: Limited RBAC authorization bypass. ","file_goldset":["org.jboss.as.controller.OperationContextImpl","org.jboss.as.host.controller.resources.NativeManagementResourceDefinition","org.jboss.as.model.test.ModelTestModelDescriptionValidator","org.jboss.as.host.controller.resources.HttpManagementResourceDefinition","org.jboss.as.server.mgmt.HttpManagementResourceDefinition","org.jboss.as.server.mgmt.NativeManagementResourceDefinition","org.jboss.as.remoting.ConnectorResource","org.jboss.as.controller.test.AbstractControllerTestBase","org.jboss.as.test.integration.mgmt.access.ReadResourceDescriptionVsActualOperationTestCase","org.jboss.as.controller.access.rbac.AddResourceTestCase"],"creation_date":"2015-02-12T17:43:23.000-06:00","resolution_date":"2015-02-13T00:22:02.000-06:00"}
{"id":6950,"bug_id":"WFCORE-1115","text":"Intermittent failures of CompositeOperationTestCase \u0026 CoreResourceManagementTestCase. ","file_goldset":["org.jboss.as.test.integration.domain.suites.IgnoredResourcesProfileCloneTestCase"],"creation_date":"2015-11-09T11:29:41.000-06:00","resolution_date":"2015-11-19T20:41:55.000-06:00"}
{"id":6951,"bug_id":"WFCORE-1346","text":"extension remove reports sucess even if the extension does not exist. ","file_goldset":["org.jboss.as.controller.extension.ExtensionRemoveHandler","org.wildfly.core.test.standalone.extension.remove.ExtensionRemoveTestCase"],"creation_date":"2016-02-02T07:24:08.000-06:00","resolution_date":"2016-03-22T01:00:41.000-05:00"}
{"id":6952,"bug_id":"WFCORE-894","text":"Empty properties list parsing leads to an error. ","file_goldset":["org.jboss.as.controller.AttributeParsers","org.jboss.as.controller.operations.global.MapOperations"],"creation_date":"2015-08-20T08:12:07.000-05:00","resolution_date":"2015-08-21T19:54:07.000-05:00"}
{"id":6953,"bug_id":"WFCORE-2008","text":"Unable to use path in input-stream-index argument in /core-service\u003dpatching:patch. ","file_goldset":["org.jboss.as.patching.management.PatchResourceDefinition"],"creation_date":"2016-11-17T14:07:57.000-06:00","resolution_date":"2016-11-18T19:40:20.000-06:00"}
{"id":6954,"bug_id":"WFCORE-604","text":" After failed to deploy, remain deployment information in JBOSS_HOME/{standalone|domaine}/data/content directory. ","file_goldset":["org.jboss.as.domain.controller.operations.deployment.DeploymentAddHandler","org.jboss.as.host.controller.mgmt.ServerToHostProtocolHandler","org.jboss.as.domain.controller.operations.ApplyRemoteMasterDomainModelHandler","org.jboss.as.host.controller.model.host.HostResourceDefinition","org.jboss.as.repository.LocalDeploymentFileRepository","org.jboss.as.domain.controller.operations.deployment.DeploymentFullReplaceHandler","org.jboss.as.host.controller.DomainModelControllerService","org.jboss.as.domain.controller.operations.deployment.DeploymentRemoveHandler","org.jboss.as.server.deploymentoverlay.DeploymentOverlayContentAdd","org.jboss.as.domain.controller.operations.deployment.ServerGroupDeploymentReplaceHandler","org.jboss.as.host.controller.RemoteDomainConnectionService","org.jboss.as.server.logging.ServerLogger","org.jboss.as.core.model.test.TestModelControllerService","org.jboss.as.server.deployment.DeploymentFullReplaceHandler","org.jboss.as.server.deployment.DeploymentAddHandlerTestCase","org.jboss.as.repository.logging.DeploymentRepositoryLogger","org.jboss.as.management.client.content.ManagedDMRContentTypeResource","org.jboss.as.core.model.test.LegacyKernelServicesImpl","org.jboss.as.domain.controller.operations.deployment.ServerGroupDeploymentAddHandler","org.jboss.as.subsystem.test.TestModelControllerService","org.jboss.as.server.controller.resources.ServerRootResourceDefinition","org.jboss.as.server.deploymentoverlay.DeploymentOverlayContentDefinition","org.jboss.as.repository.DeploymentFileRepository","org.jboss.as.server.test.InterfaceManagementUnitTestCase","org.jboss.as.host.controller.mgmt.MasterDomainControllerOperationHandlerImpl","org.jboss.as.host.controller.HostControllerService","org.jboss.as.domain.controller.operations.deployment.ServerGroupDeploymentRemoveHandler","org.jboss.as.management.client.content.ManagedDMRContentTypeAddHandler","org.jboss.as.repository.LocalFileRepository","org.jboss.as.server.ApplicationServerService","org.jboss.as.test.shared.ModelParserUtils","org.jboss.as.host.controller.ManagedServerOperationsFactory","org.jboss.as.domain.controller.resources.DomainRootDefinition","org.jboss.as.server.deployment.DeploymentRemoveHandler","org.jboss.as.domain.controller.resources.ServerGroupResourceDefinition","org.jboss.as.repository.ContentRepository","org.jboss.as.domain.controller.resources.DomainDeploymentResourceDefinition","org.jboss.as.server.mgmt.domain.RemoteFileRepositoryService","org.jboss.as.server.deployment.DeploymentReplaceHandler","org.jboss.as.server.deployment.DeploymentAddHandler"],"creation_date":"2015-03-18T09:19:35.000-05:00","resolution_date":"2015-03-25T18:39:26.000-05:00"}
{"id":6955,"bug_id":"WFCORE-1715","text":"HostProcessReloadHandler does not reset the HostRunningModeControl\u0027s restartMode. ","file_goldset":["org.jboss.as.host.controller.operations.StartServersHandler"],"creation_date":"2016-08-15T19:04:54.000-05:00","resolution_date":"2016-08-31T21:55:37.000-05:00"}
{"id":6956,"bug_id":"WFCORE-892","text":"Cli output of some tests contains only \"0: \" (instead of correct result). ","file_goldset":["org.jboss.as.test.integration.management.util.CustomCLIExecutor"],"creation_date":"2015-08-19T15:20:34.000-05:00","resolution_date":"2015-11-25T19:13:59.000-06:00"}
{"id":6957,"bug_id":"WFCORE-701","text":"Inconsistent domain server status reports between server-config resource and server resource. ","file_goldset":["org.jboss.as.host.controller.ManagedServer"],"creation_date":"2015-05-19T15:06:17.000-05:00","resolution_date":"2016-03-30T14:44:00.000-05:00"}
{"id":6958,"bug_id":"WFCORE-798","text":"Parser support missing for EAP 6.3 version of \u0027skip-group-loading\u0027. ","file_goldset":["org.jboss.as.domain.management.parsing.ManagementXml_Legacy"],"creation_date":"2015-07-07T19:42:47.000-05:00","resolution_date":"2015-08-26T13:27:09.000-05:00"}
{"id":6959,"bug_id":"WFCORE-2021","text":"\"ls /socket-binding-group\u003d*\" should print proper error message. ","file_goldset":["org.jboss.as.cli.handlers.LsHandler"],"creation_date":"2016-11-21T08:50:23.000-06:00","resolution_date":"2016-12-06T12:06:09.000-06:00"}
{"id":6960,"bug_id":"WFCORE-1067","text":" CVE-2015-5304 Missing authorization check for Monitor/Deployer/Auditor role when shutting down server or canceling op. ","file_goldset":["org.jboss.as.test.integration.domain.rbac.AbstractStandardRolesTestCase","org.jboss.as.test.integration.mgmt.access.StandardRolesBasicTestCase","org.jboss.as.domain.management.controller.CancelActiveOperationHandler","org.jboss.as.server.operations.ServerShutdownHandler","org.jboss.as.host.controller.operations.HostShutdownHandler"],"creation_date":"2015-10-21T12:22:10.000-05:00","resolution_date":"2015-12-04T17:40:21.000-06:00"}
{"id":6961,"bug_id":"WFCORE-1642","text":"Fix domain mode for configuration changes. ","file_goldset":["org.jboss.as.domain.management.ConfigurationChangeResourceDefinition","org.jboss.as.domain.management.logging.DomainManagementLogger","org.jboss.as.domain.management.CoreManagementResourceDefinition","org.jboss.as.host.controller.ManagedServerOperationsFactory","org.jboss.as.domain.controller.operations.coordination.ServerOperationResolver"],"creation_date":"2016-07-08T15:12:56.000-05:00","resolution_date":"2016-09-01T01:03:34.000-05:00"}
{"id":6962,"bug_id":"WFCORE-638","text":"deployment runtime-name mismatch between content repo and server-group and logs. ","file_goldset":["org.jboss.as.domain.controller.operations.deployment.DeploymentFullReplaceHandler"],"creation_date":"2015-03-31T16:49:09.000-05:00","resolution_date":"2015-04-10T19:48:42.000-05:00"}
{"id":6963,"bug_id":"WFCORE-1452","text":"Socket binding resources do not register a requirement for their interface. ","file_goldset":["org.jboss.as.server.services.net.SocketBindingAddHandler","org.jboss.as.server.services.net.BindingAddHandler","org.jboss.as.server.services.net.BindingInterfaceHandler"],"creation_date":"2016-03-28T21:29:48.000-05:00","resolution_date":"2016-03-30T14:44:25.000-05:00"}
{"id":6964,"bug_id":"WFCORE-922","text":"Remove unneeded cloning of model nodes when persisting the kernel configs. ","file_goldset":["org.jboss.as.host.controller.parsing.HostXml_4","org.jboss.as.host.controller.parsing.DomainXml_4","org.jboss.as.domain.management.parsing.ManagementXml_4","org.jboss.as.server.parsing.StandaloneXml_4"],"creation_date":"2015-08-26T21:07:03.000-05:00","resolution_date":"2015-08-28T22:36:44.000-05:00"}
{"id":6965,"bug_id":"WFCORE-2083","text":"Reduce number of object allocations and memory footprint. ","file_goldset":["org.jboss.as.controller.AttributeDefinition","org.jboss.as.controller.ResourceBuilderRoot","org.jboss.as.controller.AttributeMarshallers","org.jboss.as.controller.AbstractAttributeDefinitionBuilder","org.jboss.as.controller.SimpleOperationDefinitionBuilder","org.jboss.as.controller.registry.AbstractModelResource","org.jboss.as.controller.AttributeMarshaller","org.jboss.as.controller.SimpleResourceDefinition","org.jboss.as.controller.SimpleListAttributeDefinition","org.jboss.as.controller.SimpleOperationDefinition"],"creation_date":"2016-12-05T14:02:40.000-06:00","resolution_date":"2016-12-09T15:38:05.000-06:00"}
{"id":6966,"bug_id":"WFCORE-626","text":"Global list-get operation can inadvertently create list elements. ","file_goldset":["org.jboss.as.controller.operations.global.MapOperations","org.jboss.as.controller.operations.global.ListOperations"],"creation_date":"2015-04-06T15:53:19.000-05:00","resolution_date":"2015-04-15T13:17:29.000-05:00"}
{"id":6967,"bug_id":"WFCORE-1708","text":"ReconnectSyslogServerTestCase from wf-core fails intermittently. ","file_goldset":["org.jboss.as.test.manualmode.logging.AbstractSyslogReconnectionTestCase"],"creation_date":"2016-08-11T09:17:09.000-05:00","resolution_date":"2016-09-01T12:09:32.000-05:00"}
{"id":6968,"bug_id":"WFCORE-1453","text":"module patched in a one-off not included in the next cp is not port-forwarded from the prev cp. ","file_goldset":["org.jboss.as.patching.runner.PatchingTasks","org.jboss.as.patching.runner.PatchMergeUnitTestCase","org.jboss.as.patching.runner.PatchingTask","org.jboss.as.patching.runner.PatchingTaskDescription","org.jboss.as.patching.runner.IdentityPatchRunner","org.jboss.as.test.patching.CPRollingbackOneOffTestCase","org.jboss.as.patching.metadata.ModuleItem","org.jboss.as.patching.runner.IdentityPatchContext"],"creation_date":"2016-03-29T20:21:07.000-05:00","resolution_date":"2016-03-31T15:57:24.000-05:00"}
{"id":6969,"bug_id":"WFCORE-58","text":"Setting some locales causes missing buttons on console and throws errors.. ","file_goldset":["org.jboss.as.remoting.Protocol","org.jboss.as.test.integration.management.rbac.PermissionsCoverageTestUtil","org.jboss.as.domain.management.security.password.PasswordCheckUtil","org.jboss.as.host.controller.discovery.S3Util","org.jboss.as.controller.access.rbac.StandardRoleMapper","org.jboss.as.test.integration.management.interfaces.JmxInterfaceStringUtils","org.jboss.as.controller.operations.global.ReadResourceDescriptionHandler","org.jboss.as.threads.ThreadPoolManagementUtils","org.jboss.as.host.controller.DirectoryGrouping"],"creation_date":"2014-08-18T05:18:45.000-05:00","resolution_date":"2014-09-01T18:26:22.000-05:00"}
{"id":6970,"bug_id":"WFCORE-942","text":"Parameter completion for :read-resource and :read-children-resources is broken. ","file_goldset":["org.jboss.as.cli.operation.impl.DefaultOperationCandidatesProvider"],"creation_date":"2015-09-01T20:48:03.000-05:00","resolution_date":"2015-09-02T11:19:46.000-05:00"}
{"id":6971,"bug_id":"WFCORE-1136","text":"Subsystem parser tests fail when woodstox parser is on classpath. ","file_goldset":["org.jboss.as.subsystem.test.transformers.subsystem.map_to_child_resource.TransformerAttachmentAndInspectModelSubsystemTestCase","org.jboss.as.subsystem.test.TestParser"],"creation_date":"2015-11-17T16:00:10.000-06:00","resolution_date":"2015-12-04T19:15:01.000-06:00"}
{"id":6972,"bug_id":"WFCORE-1756","text":"Adding content to an exploded deployment with overwrite to false should fail if file already exists. ","file_goldset":["org.jboss.as.repository.ContentRepositoryTest","org.jboss.as.repository.ContentRepositoryImpl"],"creation_date":"2016-08-31T14:23:41.000-05:00","resolution_date":"2016-09-01T12:11:24.000-05:00"}
{"id":6973,"bug_id":"WFCORE-625","text":"Error message in CLI if extension existing on the server is not present in the CLI instalaltion. ","file_goldset":["org.jboss.as.cli.embedded.EmbedServerHandler","org.jboss.as.cli.impl.CommandContextImpl","org.jboss.as.cli.impl.ExtensionsLoader"],"creation_date":"2015-04-03T14:46:11.000-05:00","resolution_date":"2015-04-21T15:21:16.000-05:00"}
{"id":6974,"bug_id":"WFCORE-71","text":"ProtocolLogger is used outside org.jboss.as.protocol module but isn\u0027t available. ","file_goldset":["org.jboss.as.server.mgmt.domain.HostControllerConnection","org.jboss.as.host.controller.mgmt.HostControllerRegistrationHandler","org.jboss.as.host.controller.mgmt.ServerToHostProtocolHandler","org.jboss.as.protocol.mgmt.FutureManagementChannel"],"creation_date":"2014-08-26T19:34:17.000-05:00","resolution_date":"2014-09-03T16:13:20.000-05:00"}
{"id":6975,"bug_id":"WFCORE-1464","text":"LogContexts are not removed for ear subdeployments. ","file_goldset":["org.jboss.as.logging.deployments.AbstractLoggingDeploymentProcessor"],"creation_date":"2016-04-05T16:34:51.000-05:00","resolution_date":"2016-04-05T20:52:05.000-05:00"}
{"id":6976,"bug_id":"WFCORE-1188","text":"Exiting CLI requires stty sane command to be issued on Linux. ","file_goldset":["org.jboss.as.cli.impl.CommandContextImpl","org.jboss.as.cli.impl.Console"],"creation_date":"2015-12-04T23:12:51.000-06:00","resolution_date":"2015-12-16T22:46:12.000-06:00"}
{"id":6977,"bug_id":"WFCORE-896","text":"Cannot patch EAP once Docs are excluded from installation. ","file_goldset":["org.jboss.as.patching.runner.BundlePatchingTask","org.jboss.as.patching.runner.PatchingTaskDescription","org.jboss.as.patching.runner.AbstractPatchingTask","org.jboss.as.patching.metadata.ModificationBuilderTarget","org.jboss.as.patching.runner.PatchingTask","org.jboss.as.patching.runner.IdentityPatchRunner","org.jboss.as.patching.runner.FileRemoveTask","org.jboss.as.patching.tests.AbstractPatchTestBuilder","org.jboss.as.patching.metadata.PatchXml_1_0","org.jboss.as.patching.runner.FileUpdateTask","org.jboss.as.patching.tests.PatchStepAssertions","org.jboss.as.patching.metadata.PatchXml","org.jboss.as.patching.metadata.ContentModification","org.jboss.as.patching.runner.ModuleUpdateTask","org.jboss.as.patching.logging.PatchLogger","org.jboss.as.patching.metadata.PatchXmlUtils","org.jboss.as.patching.runner.ModuleRemoveTask","org.jboss.as.patching.runner.ContentModificationUtils","org.jboss.as.patching.metadata.RollbackPatchXml_1_0"],"creation_date":"2015-08-20T11:24:44.000-05:00","resolution_date":"2015-09-03T15:53:21.000-05:00"}
{"id":6978,"bug_id":"WFCORE-230","text":"Failure by ProcessController to launch a server vm is not logged. ","file_goldset":["org.jboss.as.test.integration.domain.management.ServerAutoStartTestCase","org.jboss.as.host.controller.ServerInventoryImpl","org.jboss.as.test.integration.domain.ServerManagementTestCase","org.jboss.as.host.controller.ManagedServer"],"creation_date":"2014-11-07T17:46:38.000-06:00","resolution_date":"2015-05-01T15:02:55.000-05:00"}
{"id":6979,"bug_id":"WFCORE-1714","text":"Tab completion doesn\u0027t offer more options once prefix match some value. ","file_goldset":["org.jboss.as.cli.CommandCompleter"],"creation_date":"2016-08-15T08:26:57.000-05:00","resolution_date":"2016-09-06T22:14:31.000-05:00"}
{"id":6980,"bug_id":"WFCORE-955","text":"Server is not responding after attempt to set parent of profile to non-existent profile. ","file_goldset":["org.jboss.as.controller.logging.ControllerLogger","org.jboss.as.controller.OperationContextImpl","org.jboss.as.controller.AbstractOperationContext","org.jboss.as.controller.capability.registry.IncludingResourceCapabilityScope","org.jboss.as.controller.SocketCapabilityResolutionUnitTestCase","org.jboss.as.controller.AbstractCapabilityResolutionTestCase"],"creation_date":"2015-08-27T14:34:07.000-05:00","resolution_date":"2015-09-04T13:33:34.000-05:00"}
{"id":6981,"bug_id":"WFCORE-1214","text":"Operation headers not propagated to domain servers when \u0027composite\u0027 op is used. ","file_goldset":["org.jboss.as.domain.controller.operations.coordination.OperationCoordinatorStepHandler","org.jboss.as.domain.controller.operations.coordination.DomainRolloutStepHandler"],"creation_date":"2015-12-11T23:17:45.000-06:00","resolution_date":"2015-12-16T22:48:39.000-06:00"}
{"id":6982,"bug_id":"WFCORE-1333","text":"Editing of default deployment scanner\u0027s relative-to attribute can cause server crash. ","file_goldset":["org.jboss.as.server.deployment.scanner.DeploymentScannerDefinition","org.jboss.as.server.deployment.scanner.logging.DeploymentScannerLogger"],"creation_date":"2016-01-27T03:12:39.000-06:00","resolution_date":"2016-04-07T00:21:18.000-05:00"}
{"id":6983,"bug_id":"WFCORE-72","text":"deploy --force fails in CLI GUI. ","file_goldset":["org.jboss.as.cli.impl.CliLauncher"],"creation_date":"2014-08-27T02:09:20.000-05:00","resolution_date":"2014-09-18T16:27:07.000-05:00"}
{"id":6984,"bug_id":"WFCORE-676","text":"data-source ..  --new-connection-sql  does not allow double qoutes in the SQL. ","file_goldset":["org.jboss.as.cli.parsing.command.ArgumentValueState","org.jboss.as.cli.parsing.test.CommandTestCase"],"creation_date":"2015-04-22T08:24:07.000-05:00","resolution_date":"2015-05-08T19:09:09.000-05:00"}
{"id":6985,"bug_id":"WFCORE-1765","text":"unclear NullPointerException if the deployment-scanner element is removed from the configuration. ","file_goldset":["org.jboss.as.controller.ParallelBootOperationStepHandler"],"creation_date":"2016-09-05T16:22:02.000-05:00","resolution_date":"2016-09-06T22:20:53.000-05:00"}
{"id":6986,"bug_id":"WFCORE-868","text":"CLI if/else is not handling special characters strings with parenthesis. ","file_goldset":["org.jboss.as.cli.handlers.ifelse.NotEqualsOperation","org.jboss.as.cli.handlers.ifelse.NotGreaterThanOperation","org.jboss.as.cli.handlers.ifelse.LesserThanOperation","org.jboss.as.cli.impl.ArgumentWithValue","org.jboss.as.cli.handlers.ifelse.IfHandler","org.jboss.as.cli.parsing.ifelse.test.IfExpressionParsingTestCase","org.jboss.as.cli.handlers.ifelse.BaseOperation","org.jboss.as.cli.handlers.ifelse.IfElseControlFlow","org.jboss.as.cli.handlers.ifelse.EqualsOperation","org.jboss.as.cli.parsing.DefaultStateWithEndCharacter","org.jboss.as.cli.parsing.ifelse.test.ComparisonTestBase","org.jboss.as.cli.handlers.ifelse.AndOperation","org.jboss.as.cli.handlers.ifelse.OrOperation","org.jboss.as.cli.handlers.ifelse.GreaterThanOperation","org.jboss.as.cli.handlers.ifelse.NotLesserThanOperation"],"creation_date":"2015-08-05T08:12:55.000-05:00","resolution_date":"2015-09-10T21:35:00.000-05:00"}
{"id":6987,"bug_id":"WFCORE-1373","text":"Unable to specify custom configuration directory via -Djboss.server.config.dir. ","file_goldset":["org.wildfly.core.embedded.EmbeddedProcessFactory"],"creation_date":"2016-02-15T11:24:44.000-06:00","resolution_date":"2016-04-16T11:13:34.000-05:00"}
{"id":6988,"bug_id":"WFCORE-154","text":"Patching does not process subdirectories. ","file_goldset":["org.jboss.as.patching.runner.IdentityPatchContext"],"creation_date":"2014-10-08T05:08:10.000-05:00","resolution_date":"2014-10-15T11:11:29.000-05:00"}
{"id":6989,"bug_id":"WFCORE-1134","text":"A java.lang.Error in Stage.DONE can lead to hangs. ","file_goldset":["org.jboss.as.controller.remote.ModelControllerClientOperationHandler","org.jboss.as.protocol.mgmt.ActiveOperationSupport","org.jboss.as.test.integration.domain.suites.DomainTestSuite","org.jboss.as.domain.controller.operations.coordination.DomainFinalResultHandler","org.jboss.as.protocol.mgmt.ManagementRequestContext","org.jboss.as.controller.remote.OperationAttachmentsProxy","org.jboss.as.controller.remote.TransactionalProtocolOperationHandler","org.jboss.as.protocol.mgmt.ActiveOperation","org.jboss.as.controller.logging.ControllerLogger","org.jboss.as.protocol.mgmt.ManagementResponseHeader","org.jboss.as.controller.remote.ResponseAttachmentInputStreamSupportTestCase","org.jboss.as.test.integration.domain.extension.ExtensionSetup","org.jboss.as.protocol.mgmt.AbstractMessageHandler"],"creation_date":"2015-11-16T21:40:20.000-06:00","resolution_date":"2015-12-16T22:49:00.000-06:00"}
{"id":6990,"bug_id":"WFCORE-657","text":"CLI embedded server does not always clean up properly. ","file_goldset":["org.jboss.as.server.BootstrapImpl"],"creation_date":"2015-04-20T16:38:33.000-05:00","resolution_date":"2015-05-08T20:26:27.000-05:00"}
{"id":6991,"bug_id":"WFCORE-1657","text":"Confusing tab completion for adding a module dependencies. ","file_goldset":["org.jboss.as.cli.handlers.module.ASModuleHandler"],"creation_date":"2016-07-15T11:51:17.000-05:00","resolution_date":"2016-09-19T17:13:58.000-05:00"}
{"id":6992,"bug_id":"WFCORE-1028","text":"Poor handling of invalid roles. ","file_goldset":["org.jboss.as.controller.logging.ControllerLogger","org.jboss.as.controller.operations.global.GlobalOperationHandlers","org.jboss.as.test.integration.domain.ServerManagementTestCase","org.jboss.as.controller.access.rbac.RoleMapper"],"creation_date":"2015-10-01T19:12:08.000-05:00","resolution_date":"2016-04-16T11:14:27.000-05:00"}
{"id":6993,"bug_id":"WFCORE-233","text":"Subsystem ordering is lost during marshalling. ","file_goldset":["org.jboss.as.controller.OperationContextImpl"],"creation_date":"2014-11-09T13:46:25.000-06:00","resolution_date":"2014-11-09T20:11:39.000-06:00"}
{"id":6994,"bug_id":"WFCORE-1212","text":"TestModule does not clean up after itself properly. ","file_goldset":["org.jboss.as.test.module.util.TestModule"],"creation_date":"2015-12-11T18:04:50.000-06:00","resolution_date":"2015-12-16T22:55:15.000-06:00"}
{"id":6995,"bug_id":"WFCORE-980","text":"The capability registry fails to rollback properly. ","file_goldset":["org.jboss.as.controller.CapabilityRegistryTestCase","org.jboss.as.controller.CapabilityRegistry"],"creation_date":"2015-09-15T18:30:52.000-05:00","resolution_date":"2015-09-16T16:37:15.000-05:00"}
{"id":6996,"bug_id":"WFCORE-687","text":"patches with duplicate element patch-id values should be rejected. ","file_goldset":["org.jboss.as.patching.installation.LayerTestCase","org.jboss.as.patching.metadata.PatchXmlUnitTestCase","org.jboss.as.patching.metadata.PatchXml","org.jboss.as.patching.metadata.PatchBuilder","org.jboss.as.patching.logging.PatchLogger","org.jboss.as.patching.metadata.PatchXmlUtils"],"creation_date":"2015-05-11T12:39:25.000-05:00","resolution_date":"2015-05-13T21:01:15.000-05:00"}
{"id":6997,"bug_id":"WFCORE-1793","text":"add-content operation fails to overwrite existing content with overwrite\u003dtrue set when passing content by file path. ","file_goldset":["org.jboss.as.server.deployment.ExplodedDeploymentAddContentHandler","org.jboss.as.server.controller.resources.DeploymentAttributes"],"creation_date":"2016-09-14T08:08:21.000-05:00","resolution_date":"2016-09-20T21:22:42.000-05:00"}
{"id":6998,"bug_id":"WFCORE-268","text":"CLI GUI fails if connecting to AS7 or EAP6. ","file_goldset":["org.jboss.as.cli.gui.ServerLogsPanel","org.jboss.as.cli.gui.GuiMain"],"creation_date":"2014-11-19T19:55:59.000-06:00","resolution_date":"2014-11-20T17:41:51.000-06:00"}
{"id":6999,"bug_id":"WFCORE-1546","text":"Whitespaces in the middle of the value are siletly ignored. ","file_goldset":["org.jboss.as.cli.parsing.test.OperationParsingTestCase","org.jboss.as.cli.parsing.operation.PropertyValueState"],"creation_date":"2016-05-11T07:07:27.000-05:00","resolution_date":"2016-05-17T21:10:47.000-05:00"}
{"id":7000,"bug_id":"WFCORE-1210","text":"Transformations are not triggered for aliases. ","file_goldset":["org.jboss.as.controller.registry.AliasEntry","org.jboss.as.controller.transform.TransformersImpl","org.jboss.as.controller.transform.CompositeOperationTransformer"],"creation_date":"2015-12-11T14:47:25.000-06:00","resolution_date":"2015-12-16T22:57:43.000-06:00"}
{"id":7001,"bug_id":"WFCORE-1815","text":"It\u0027s not possible to re-add extension . ","file_goldset":["org.jboss.as.controller.extension.ExtensionRegistry"],"creation_date":"2016-09-23T11:56:00.000-05:00","resolution_date":"2016-09-28T18:34:44.000-05:00"}
{"id":7002,"bug_id":"WFCORE-172","text":"Wrong application name used for Syslog logging. ","file_goldset":["org.jboss.as.controller.audit.SyslogAuditLogHandler"],"creation_date":"2014-10-15T08:27:13.000-05:00","resolution_date":"2015-05-21T13:09:58.000-05:00"}
{"id":7003,"bug_id":"WFCORE-876","text":"Reload or Shutdown inside IF statement is performed before the if/else block batch is executed. ","file_goldset":["org.jboss.as.cli.handlers.ifelse.IfElseControlFlow","org.jboss.as.cli.handlers.trycatch.TryCatchFinallyControlFlow","org.jboss.as.test.integration.management.cli.TryCatchFinallyTestCase","org.jboss.as.test.integration.management.cli.ifelse.NonExistingPathComparisonTestCase","org.jboss.as.test.integration.management.cli.ifelse.BasicIfElseTestCase"],"creation_date":"2015-08-12T07:52:43.000-05:00","resolution_date":"2015-09-18T13:23:39.000-05:00"}
{"id":7004,"bug_id":"WFCORE-213","text":"Clean unreferenced items from the content repository. ","file_goldset":["org.jboss.as.domain.controller.operations.deployment.DeploymentAddHandler","org.jboss.as.host.controller.mgmt.ServerToHostProtocolHandler","org.jboss.as.domain.controller.operations.ApplyRemoteMasterDomainModelHandler","org.jboss.as.host.controller.model.host.HostResourceDefinition","org.jboss.as.repository.LocalDeploymentFileRepository","org.jboss.as.domain.controller.operations.deployment.DeploymentFullReplaceHandler","org.jboss.as.host.controller.DomainModelControllerService","org.jboss.as.domain.controller.operations.deployment.DeploymentRemoveHandler","org.jboss.as.server.deploymentoverlay.DeploymentOverlayContentAdd","org.jboss.as.domain.controller.operations.deployment.ServerGroupDeploymentReplaceHandler","org.jboss.as.host.controller.RemoteDomainConnectionService","org.jboss.as.server.logging.ServerLogger","org.jboss.as.core.model.test.TestModelControllerService","org.jboss.as.server.deployment.DeploymentFullReplaceHandler","org.jboss.as.server.deployment.DeploymentAddHandlerTestCase","org.jboss.as.repository.logging.DeploymentRepositoryLogger","org.jboss.as.management.client.content.ManagedDMRContentTypeResource","org.jboss.as.core.model.test.LegacyKernelServicesImpl","org.jboss.as.domain.controller.operations.deployment.ServerGroupDeploymentAddHandler","org.jboss.as.subsystem.test.TestModelControllerService","org.jboss.as.server.controller.resources.ServerRootResourceDefinition","org.jboss.as.server.deploymentoverlay.DeploymentOverlayContentDefinition","org.jboss.as.repository.DeploymentFileRepository","org.jboss.as.server.test.InterfaceManagementUnitTestCase","org.jboss.as.host.controller.mgmt.MasterDomainControllerOperationHandlerImpl","org.jboss.as.host.controller.HostControllerService","org.jboss.as.domain.controller.operations.deployment.ServerGroupDeploymentRemoveHandler","org.jboss.as.management.client.content.ManagedDMRContentTypeAddHandler","org.jboss.as.repository.LocalFileRepository","org.jboss.as.server.ApplicationServerService","org.jboss.as.test.shared.ModelParserUtils","org.jboss.as.host.controller.ManagedServerOperationsFactory","org.jboss.as.domain.controller.resources.DomainRootDefinition","org.jboss.as.server.deployment.DeploymentRemoveHandler","org.jboss.as.domain.controller.resources.ServerGroupResourceDefinition","org.jboss.as.repository.ContentRepository","org.jboss.as.domain.controller.resources.DomainDeploymentResourceDefinition","org.jboss.as.server.mgmt.domain.RemoteFileRepositoryService","org.jboss.as.server.deployment.DeploymentReplaceHandler","org.jboss.as.server.deployment.DeploymentAddHandler"],"creation_date":"2013-03-26T14:22:57.000-05:00","resolution_date":"2014-11-21T07:51:17.000-06:00"}
{"id":7005,"bug_id":"WFCORE-1493","text":"org.jboss.as.host.controller.Main.getHostSystemProperties() doesn\u0027t propagate -Djdk.launcher.addexports.%d\u003d%s value properly. ","file_goldset":["org.jboss.as.host.controller.Main"],"creation_date":"2016-04-20T20:05:27.000-05:00","resolution_date":"2016-05-20T03:11:49.000-05:00"}
{"id":7006,"bug_id":"WFCORE-1198","text":"CLI does not resolve multiple properties if one property is undefined. ","file_goldset":["org.jboss.as.cli.parsing.ExpressionBaseState","org.jboss.as.cli.parsing.test.PropertyReplacementTestCase"],"creation_date":"2015-12-09T09:30:00.000-06:00","resolution_date":"2015-12-23T05:08:33.000-06:00"}
{"id":7007,"bug_id":"WFCORE-1479","text":"Jar sub deployment has as first dependency parent ear. ","file_goldset":["org.jboss.as.server.deployment.module.SubDeploymentDependencyProcessor"],"creation_date":"2016-04-18T13:45:05.000-05:00","resolution_date":"2016-10-03T18:54:49.000-05:00"}
{"id":7008,"bug_id":"WFCORE-949","text":"Removing http-interface autocompletes but fails. ","file_goldset":["org.jboss.as.subsystem.test.AdditionalInitialization","org.wildfly.core.test.standalone.mgmt.HTTPSManagementInterfaceTestCase","org.jboss.as.jmx.RemotingConnectorResource","org.jboss.as.server.operations.HttpManagementRemoveHandler","org.jboss.as.host.controller.resources.NativeManagementResourceDefinition","org.jboss.as.test.integration.domain.HTTPSManagementInterfaceTestCase","org.jboss.as.server.operations.NativeRemotingManagementRemoveHandler","org.jboss.as.server.operations.NativeManagementRemoveHandler","org.jboss.as.host.controller.resources.HttpManagementResourceDefinition","org.wildfly.core.test.standalone.mgmt.HTTPSConnectionWithCLITestCase","org.jboss.as.remoting.management.ManagementRemotingServices","org.jboss.as.remoting.logging.RemotingLogger","org.jboss.as.server.mgmt.NativeManagementResourceDefinition","org.jboss.as.host.controller.operations.HttpManagementRemoveHandler","org.jboss.as.server.mgmt.HttpManagementResourceDefinition"],"creation_date":"2015-09-03T05:08:35.000-05:00","resolution_date":"2015-09-21T18:59:23.000-05:00"}
{"id":7009,"bug_id":"WFCORE-702","text":"periodic-size-rotating-file-handler is missing from logging profiles. ","file_goldset":["org.jboss.as.logging.LoggingSubsystemTestCase","org.jboss.as.logging.LoggingSubsystemParser"],"creation_date":"2015-05-19T18:15:41.000-05:00","resolution_date":"2015-05-22T17:03:25.000-05:00"}
{"id":7010,"bug_id":"WFCORE-145","text":"CLI run-batch command cannot process files with comments or blank lines. ","file_goldset":["org.jboss.as.cli.handlers.batch.BatchRunHandler","org.jboss.as.test.integration.management.cli.BatchFileTestCase","org.jboss.as.cli.handlers.BaseOperationCommand"],"creation_date":"2014-10-02T13:28:22.000-05:00","resolution_date":"2014-11-26T13:02:59.000-06:00"}
{"id":7011,"bug_id":"WFCORE-1572","text":"Suggestion list for argument value is not generated if the value contains a whitespace. ","file_goldset":["org.jboss.as.cli.parsing.ParserUtil","org.jboss.as.cli.parsing.test.CommandTestCase","org.jboss.as.cli.parsing.DefaultStateWithEndCharacter"],"creation_date":"2016-05-27T16:20:10.000-05:00","resolution_date":"2016-06-20T02:04:49.000-05:00"}
{"id":7012,"bug_id":"WFCORE-1261","text":"Changing the max-history attribute value for configuration-changes fails. ","file_goldset":["org.jboss.as.domain.management.ConfigurationChangeResourceDefinition","org.wildfly.core.test.standalone.mgmt.api.core.ConfigurationChangesHistoryTestCase"],"creation_date":"2016-01-04T17:37:05.000-06:00","resolution_date":"2016-01-14T04:39:08.000-06:00"}
{"id":7013,"bug_id":"WFCORE-940","text":"CLI gets fooled by early connection. ","file_goldset":["org.jboss.as.cli.impl.CommandContextImpl"],"creation_date":"2015-08-31T12:20:01.000-05:00","resolution_date":"2015-09-22T11:59:51.000-05:00"}
{"id":7014,"bug_id":"WFCORE-1851","text":"Inconsistent behaviour with browse-content(depth\u003d1) operation between archived and exploded deployments. ","file_goldset":["org.jboss.as.repository.ContentRepositoryTest","org.jboss.as.repository.PathUtil"],"creation_date":"2016-10-04T12:28:40.000-05:00","resolution_date":"2016-10-04T20:01:11.000-05:00"}
{"id":7015,"bug_id":"WFCORE-706","text":"Non exploded deployments are incorrectly marked as exploded. ","file_goldset":["org.jboss.as.server.deployment.SubDeploymentProcessor"],"creation_date":"2015-05-20T22:37:34.000-05:00","resolution_date":"2015-05-22T17:04:45.000-05:00"}
{"id":7016,"bug_id":"WFCORE-285","text":"cli tab completion gets confused by double slash. ","file_goldset":["org.jboss.as.cli.parsing.test.AddressOnlyParsingTestCase","org.jboss.as.cli.operation.impl.DefaultOperationRequestParser","org.jboss.as.cli.operation.CommandLineParser","org.jboss.as.cli.operation.impl.DefaultCallbackHandler"],"creation_date":"2014-11-14T14:25:02.000-06:00","resolution_date":"2014-12-03T19:09:09.000-06:00"}
{"id":7017,"bug_id":"WFCORE-1570","text":"Saved rollout-plan \u0027name\u0027 or \u0027id\u0027 attribute discrepancy. ","file_goldset":["org.jboss.as.cli.parsing.operation.header.RolloutPlanState","org.jboss.as.cli.parsing.operation.header.RolloutPlanHeaderCallbackHandler","org.jboss.as.cli.operation.impl.RolloutPlanCompleter"],"creation_date":"2016-05-27T12:51:56.000-05:00","resolution_date":"2016-06-20T02:05:22.000-05:00"}
{"id":7018,"bug_id":"WFCORE-1288","text":"installing CP over one-off fails if the modules patched by the one-off are not patched in the CP. ","file_goldset":["org.jboss.as.patching.installation.MutableTargetImpl","org.jboss.as.patching.runner.IdentityPatchContext","org.jboss.as.patching.installation.InstallationManager","org.jboss.as.patching.runner.IdentityPatchRunner","org.jboss.as.patching.runner.PatchingTask"],"creation_date":"2016-01-11T18:27:07.000-06:00","resolution_date":"2016-01-26T12:21:44.000-06:00"}
{"id":7019,"bug_id":"WFCORE-1864","text":"Whitespaces are not removed from dependencies in module add command. ","file_goldset":["org.jboss.as.cli.handlers.module.ASModuleHandler","org.jboss.as.test.integration.management.cli.ModuleTestCase"],"creation_date":"2016-10-13T09:12:31.000-05:00","resolution_date":"2016-10-26T20:18:59.000-05:00"}
{"id":7020,"bug_id":"WFCORE-442","text":"AbstractMultiTargetHandler-based handlers do not propagate failures to the top level failure-description. ","file_goldset":["org.jboss.as.controller.operations.global.GlobalOperationHandlers"],"creation_date":"2014-12-02T19:15:13.000-06:00","resolution_date":"2015-05-28T21:46:55.000-05:00"}
{"id":7021,"bug_id":"WFCORE-931","text":"Embedded host-controller throws NPE on regular shutdown. ","file_goldset":["org.jboss.as.host.controller.model.host.HostResourceDefinition"],"creation_date":"2015-08-28T12:00:07.000-05:00","resolution_date":"2015-09-23T00:44:31.000-05:00"}
{"id":7022,"bug_id":"WFCORE-1595","text":"CLI doesn\u0027t autocomplete for unalias command. ","file_goldset":["org.jboss.as.cli.operation.OperationRequestCompleter"],"creation_date":"2016-06-15T10:10:43.000-05:00","resolution_date":"2016-06-24T15:28:45.000-05:00"}
{"id":7023,"bug_id":"WFCORE-1311","text":"WFCORE-893 Fix breaks mixed-domain. ","file_goldset":["org.jboss.as.remoting.RemotingExtension"],"creation_date":"2016-01-19T22:40:20.000-06:00","resolution_date":"2016-01-27T19:40:41.000-06:00"}
{"id":7024,"bug_id":"WFCORE-1007","text":"Warnings about missing notification descriptions when an operation removes an extension. ","file_goldset":["org.jboss.as.controller.logging.ControllerLogger","org.jboss.as.controller.AbstractOperationContext"],"creation_date":"2015-09-24T06:45:11.000-05:00","resolution_date":"2015-09-25T15:39:44.000-05:00"}
