{"key":"WFCORE-1027","title":"Inconsistent read-resource results with host scoped roles","description":"Setting up host scoped roles as follows https://gist.github.com/heiko-braun/0dc810ed04db8739defd there are inconsistent results in the filtering.                                                                                                                                               master-monitor should behave the same as slave-maintainer. {roles\u003dmaster-monitor}\n\n\n\n\n {\n\n\n\n\n                \"directory-grouping\" \u003d\u003e \"by-server\",\n\n\n\n\n                \"domain-controller\" \u003d\u003e {\"local\" \u003d\u003e {} {\"org.jboss.as.jmx\" \u003d\u003e undefined} {\n\n\n\n\n                    \"management\" \u003d\u003e undefined,\n\n\n\n\n                    \"public\" \u003d\u003e undefined,\n\n\n\n\n                    \"unsecure\" \u003d\u003e undefined\n\n\n\n\n                } {\"default\" \u003d\u003e undefined} {\"jmx\" \u003d\u003e undefined} {roles\u003dslave-maintainer}\n\n\n\n\n {roles\u003dslave-maintainer}\n\n\n\n\n {\"org.jboss.as.jmx\" \u003d\u003e undefined} {\n\n\n\n\n                \"management\" \u003d\u003e undefined,\n\n\n\n\n                \"public\" \u003d\u003e undefined,\n\n\n\n\n                \"unsecure\" \u003d\u003e undefined\n\n\n\n\n            } {\"default\" \u003d\u003e undefined} {\"jmx\" \u003d\u003e undefined}"}
{"key":"WFCORE-815","title":"One profile can have more ancestors with same submodules","description":"get fresh EAP             No errors.                  add(name\u003dincludes, value\u003dmail-01)\n add(name\u003dincludes, value\u003dmail-02)\n\n {\n\n\n\n\n    \"outcome\" \u003d\u003e \"failed\",\n\n\n\n\n    \"failure-description\" \u003d\u003e {\"domain-failure-description\" \u003d\u003e \"WFLYCTL0401: Profile \u0027mail-01\u0027 defines subsystem \u0027mail\u0027 which is also defined in its ancestor profile \u0027mail-02\u0027. Overriding subsystems is not supported\"} add(name\u003dincludes, value\u003dmail-01)\n add(name\u003dincludes, value\u003dmail-02)"}
{"key":"WFCORE-1007","title":"Warnings about missing notification descriptions when an operation removes an extension","description":"When I use migration operation the console log is filled with warning messages of type   If I do the sequence of operation                                                                                                                                         I think that the migration operation should not show those warnings. migrate()\n\n\n\n\n {\n\n\n\n\n    \"outcome\" \u003d\u003e \"success\",\n\n\n\n\n    \"result\" \u003d\u003e {\"migration-warnings\" \u003d\u003e []}\n\n\n\n\n migrate()\n\n\n\n\n {\n\n\n\n\n    \"outcome\" \u003d\u003e \"success\",\n\n\n\n\n    \"result\" \u003d\u003e {\"migration-warnings\" \u003d\u003e []}\n\n\n\n\n migrate()\n\n\n\n\n {\n\n\n\n\n    \"outcome\" \u003d\u003e \"success\",\n\n\n\n\n    \"result\" \u003d\u003e {\"migration-warnings\" \u003d\u003e []}"}
