{"id":3593,"bug_id":"DATAMONGO-938","text":"Exception when creating geo within Criteria using MapReduce. I am getting an IllegalArgumentException when I try to query a MongoDB collection using a Criteria.within and a Box.   The exception reads:","file_goldset":["org.springframework.data.mongodb.core.mapreduce.MapReduceTests","org.springframework.data.mongodb.core.MongoTemplate"],"creation_date":"2014-05-21T06:09:48.000-05:00","resolution_date":"2014-06-17T22:56:12.000-05:00"}
{"id":3594,"bug_id":"DATAMONGO-430","text":"When I perform a query that includes more than one criteria, only the first criteria is being considered, others are discarded. An example is attached; When the query is performed by MongoDB driver it works fine, but with Spring, the problem occurs.","file_goldset":["org.springframework.data.mongodb.core.QueryMapper","org.springframework.data.mongodb.core.query.QueryMapperUnitTests"],"creation_date":"2012-04-10T03:35:56.000-05:00","resolution_date":"2012-04-10T07:38:52.000-05:00"}
{"id":3595,"bug_id":"DATAMONGO-1263","text":"When an association between documents involves generic types, the type information is not correctly inferred at startup time resulting in missing indexes.  Given:  When defining a class Catalog with a list of \"wrapped\" books:  The index \"name\" inherited from AbstractProduct is created (book2.content.name) inside \"catalog\" , but the index defined on the Book class itself (isbn) is not created as Spring Data Mongo is only inferring type infromation from the ProductWrapper class definition (ProductWrapper \u003cT extends AbstractProduct\u003e).  If the wrapper class is defined as ProductWrapper\u003cT\u003e, then no indexes are created at all on Catalog.books2.content.","file_goldset":["org.springframework.data.mongodb.core.index.MongoPersistentEntityIndexResolverUnitTests","org.springframework.data.mongodb.core.index.MongoPersistentEntityIndexResolver"],"creation_date":"2015-07-30T09:03:41.000-05:00","resolution_date":"2015-11-09T19:09:44.000-06:00"}
{"id":3596,"bug_id":"DATAMONGO-952","text":"If you are using repository based queries and try to use @Query annotation to limit the fetched fields, it has zero effect. For example repository query:   The query above returns all fields of the User and the fields definition has no effect at all. If you are using @Query with value attribute to define the query, then the fields limitation is applied though.","file_goldset":["org.springframework.data.mongodb.repository.query.PartTreeMongoQuery"],"creation_date":"2014-06-10T22:45:47.000-05:00","resolution_date":"2014-06-18T03:56:07.000-05:00"}
{"id":3597,"bug_id":"DATAMONGO-1290","text":"@Query annotation with byte[] parameter does not work. ... but only the first works. Please find an example project with test attached!","file_goldset":["org.springframework.data.mongodb.repository.query.StringBasedMongoQuery","org.springframework.data.mongodb.repository.query.StringBasedMongoQueryUnitTests"],"creation_date":"2015-09-17T15:30:23.000-05:00","resolution_date":"2015-11-20T12:25:32.000-06:00"}
{"id":3598,"bug_id":"DATAMONGO-467","text":"String @id field is not mapped to ObjectId when using QueryDSL \".id\" path. Using this entity (@Document) definition with a String as the declared ID:    and the following query  Always returns null for a repository find. Looking at the mongoDb query log (mongod -v) it appears that the spring-data-mongodb/QueryDSL layers are not translating the String 4f43b6a384aea4e77d403709 to ObjectId(\"4f43b6a384aea4e77d403709\") as one would normally do in the mongo shell.","file_goldset":["org.springframework.data.mongodb.repository.support.SpringDataMongodbSerializerUnitTests"],"creation_date":"2012-06-24T08:58:49.000-05:00","resolution_date":"2012-06-25T04:13:59.000-05:00"}
{"id":3599,"bug_id":"DATAMONGO-987","text":"Problem with lazy loading in @DBRef when getting data using MongoTemplate. The situation is simple: if we reference on an entity class another entity (both annotated with @Document) called Parent and Child. Here is the code:                      // Than we try to load this same entity from the database     assertNull(persisted.getChild()); // it fails    I attached a project with the JUnit test which reproduces the problem for you.","file_goldset":["org.springframework.data.mongodb.core.convert.MappingMongoConverter","org.springframework.data.mongodb.core.convert.DbRefMappingMongoConverterUnitTests"],"creation_date":"2014-07-14T12:01:52.000-05:00","resolution_date":"2014-07-17T06:20:13.000-05:00"}
{"id":3600,"bug_id":"DATAMONGO-1289","text":"NullPointerException when saving an object with no \"id\" field or @Id annotation. Instead of this, I\u0027m seeing a NullPointerException when attempting to save an object that doesn\u0027t have an \"id\" field or an @Id annotated field.","file_goldset":["org.springframework.data.mongodb.repository.support.MongoRepositoryFactory","org.springframework.data.mongodb.repository.support.MappingMongoEntityInformation"],"creation_date":"2015-09-17T11:43:51.000-05:00","resolution_date":"2015-12-16T10:47:48.000-06:00"}
{"id":3601,"bug_id":"DATAMONGO-505","text":"Assume you have the following scenario:            The execution of findByProperty() will fail as the given array (or collection) is not correctly translated into a collection of DBRefs. The reason is that ConvertingIterator treats the value as is and wants to create a DBRef from it.","file_goldset":["org.springframework.data.mongodb.repository.query.ConvertingParameterAccessorUnitTests","org.springframework.data.mongodb.repository.query.ConvertingParameterAccessor"],"creation_date":"2012-08-14T03:07:56.000-05:00","resolution_date":"2012-08-15T10:09:59.000-05:00"}
{"id":3602,"bug_id":"DATAMONGO-1027","text":"Collection inherits complex index from embedded class/object. Say I have two collections: Books and Author Author has a unique compound index and Book has a list of authors as property. Now if I add different book with the same author to books, the insert is ignored because books inherits the index from authors. On a subsequent context restart I\u0027m also getting a duplicate key exception:","file_goldset":["org.springframework.data.mongodb.core.index.MongoPersistentEntityIndexResolverUnitTests","org.springframework.data.mongodb.core.index.Indexed","org.springframework.data.mongodb.core.index.GeoSpatialIndexed","org.springframework.data.mongodb.core.index.CompoundIndex","org.springframework.data.mongodb.core.index.MongoPersistentEntityIndexResolver","org.springframework.data.mongodb.core.index.MongoPersistentEntityIndexCreatorUnitTests"],"creation_date":"2014-08-16T13:49:22.000-05:00","resolution_date":"2014-08-26T06:29:39.000-05:00"}
{"id":3603,"bug_id":"DATAMONGO-1360","text":"I have a MongoDb document I successfully store using Spring Data MongoDb. It looks like this:       When I create a custom Criteria query that looks like this:   The resulting MongoDb query looks like this:  It consequently fails with this message:   It does not fail when I use a java.util.Date in my query even though I have stilled persisted my document with a java.time.LocalDateTime object. The query then looks slightly different like this:","file_goldset":["org.springframework.data.mongodb.core.MongoTemplate","org.springframework.data.mongodb.core.geo.AbstractGeoSpatialTests","org.springframework.data.mongodb.core.Venue"],"creation_date":"2016-01-16T07:47:34.000-06:00","resolution_date":"2016-01-20T14:42:07.000-06:00"}
{"id":3604,"bug_id":"DATAMONGO-523","text":"@TypeAlias annotation not used with AbstractMongoConfiguration . When using the AbstractMongoConfiguration without any further modifications regarding the converter (afterMappingMongoConverterCreation) the @TypeAlias annotation is not used when writing the _class property. Seems like it always uses the SimpleTypeInformationMapper.","file_goldset":["org.springframework.data.mongodb.core.convert.MappingMongoConverterUnitTests"],"creation_date":"2012-09-01T03:39:51.000-05:00","resolution_date":"2012-09-03T06:26:10.000-05:00"}
{"id":3605,"bug_id":"DATAMONGO-1288","text":"Update.inc(String, Number) method fails to work with AtomicInteger. Even though the org.springframework.data.mongodb.core.query.Update.inc(String, Number) method takes the parameter as Number, it doesn\u0027t actually work right with things that aren\u0027t simple primitive object wrappers. For example, if you pass in an AtomicInteger, the update fails to execute, as the generated json isn\u0027t correct.","file_goldset":["org.springframework.data.mongodb.core.convert.CustomConversions","org.springframework.data.mongodb.core.convert.MongoConverters","org.springframework.data.mongodb.core.convert.UpdateMapperUnitTests"],"creation_date":"2015-09-16T23:51:16.000-05:00","resolution_date":"2016-02-11T13:09:46.000-06:00"}
{"id":3606,"bug_id":"DATAMONGO-1068","text":"There is an entity like this:     I need to issue a criteria to fetch all documents in which none of elements of occupied falls into a specified date range. The query JSON is:           Then, I tried on       But the serialization to JSON for c is:         It seems that c1 will be explained to empty Map by invoking elemMatch(Criteria) because I haven\u0027t assign a key to it.","file_goldset":["org.springframework.data.mongodb.core.query.Criteria","org.springframework.data.mongodb.core.query.CriteriaTests"],"creation_date":"2014-10-08T19:43:32.000-05:00","resolution_date":"2014-10-21T03:27:47.000-05:00"}
{"id":3607,"bug_id":"DATAMONGO-585","text":"Exception during authentication in multithreaded access. Specifically what can be used for a test case is use a ThreadPoolExecutor, set a minpool and maxpool value of 5, add 25 objects to be executed. Those objects are a class which implements Runnable. Those objects each then perform a bunch of inserts into mongoDB using a DocumentDao which calls mongoOperations.insert.","file_goldset":["org.springframework.data.mongodb.core.MongoDbUtils"],"creation_date":"2012-12-01T08:28:43.000-06:00","resolution_date":"2012-12-03T02:47:10.000-06:00"}
{"id":3608,"bug_id":"DATAMONGO-1050","text":"SimpleMongoRepository.findById(id, class)  don\u0027t return ids for nested documents.. SimpleMongoRepository.findById(id, class)  don\u0027t return ids for nested documents. E.g.         When it return B documents, innerDocs A objects have id \u003d\u003d null.","file_goldset":["org.springframework.data.mongodb.core.mapping.BasicMongoPersistentPropertyUnitTests","org.springframework.data.mongodb.core.convert.QueryMapperUnitTests","org.springframework.data.mongodb.core.convert.MappingMongoConverterUnitTests","org.springframework.data.mongodb.core.mapping.BasicMongoPersistentProperty"],"creation_date":"2014-09-09T03:41:12.000-05:00","resolution_date":"2014-11-10T07:19:13.000-06:00"}
{"id":3609,"bug_id":"DATAMONGO-1436","text":"When registering any custom converters for MongoDB, the CustomConversions constructor_ adds a whole slew of hard-coded converters to the list. These include NumberToNumberConverterFactory, which apparently converts java.lang.Number-\u003ejava.lang.Number and causes warnings to be logged.","file_goldset":["org.springframework.data.mongodb.core.convert.MongoConvertersUnitTests","org.springframework.data.mongodb.core.convert.MongoConverters"],"creation_date":"2016-05-24T02:53:21.000-05:00","resolution_date":"2016-05-24T12:06:13.000-05:00"}
{"id":3610,"bug_id":"DATAMONGO-629","text":"Different results when using count and find with the same criteria with \u0027id\u0027 field. Assume we have following query:   mongoTemplate.find(q,java.util.HashMap.class,\u0027test\u0027) gives following query (peeked in mongo console):             The same query, when used in count (mongoTemplate.count(q,\u0027test\u0027)) gives:                  This is inconsistent since we could have records with field id and they will be retrieved properly from the db. Count on the other hand will give bad results since it uses _id field.  This is probably the cause of the strange behaviour because find() method does not use QueryMapper and count() does.","file_goldset":["org.springframework.data.mongodb.core.convert.QueryMapper","org.springframework.data.mongodb.core.MongoTemplateTests","org.springframework.data.mongodb.core.convert.QueryMapperUnitTests","org.springframework.data.mongodb.core.mapping.MongoMappingContext"],"creation_date":"2013-03-22T04:08:25.000-05:00","resolution_date":"2013-03-27T04:22:53.000-05:00"}
{"id":3611,"bug_id":"DATAMONGO-1078","text":"@Query annotated repository query fails to map complex Id structure.. StringBasedMongoQuery converts any complex object to the according mongo type including type restrictions via _class. Therefore annotated queries like:    end up being converted to:","file_goldset":["org.springframework.data.mongodb.core.MongoTemplate","org.springframework.data.mongodb.core.convert.MappingMongoConverter"],"creation_date":"2014-10-28T02:23:26.000-05:00","resolution_date":"2014-11-10T07:42:07.000-06:00"}
{"id":3612,"bug_id":"DATAMONGO-1438","text":"I get a warning in my logs since switched to Spring Data MongoDB Hopper-SR1 Release Train in Spring Boot 1.3.5. When I start my Spring Boot 1.3.5 application with no custom conversions and with Spring Data MongoDB Release Train Hopper-SR1 I get following warning in my logs:     I have alle my Domain classes they are saved in MongoDB annotated with @Document (see DATAMONGO-1413)","file_goldset":["org.springframework.data.mongodb.core.convert.MongoConvertersUnitTests","org.springframework.data.mongodb.core.convert.MongoConverters"],"creation_date":"2016-05-26T14:01:14.000-05:00","resolution_date":"2016-05-26T14:03:47.000-05:00"}
{"id":3613,"bug_id":"DATAMONGO-1088","text":"@Query $in does not remove \"_class\" property on collection of embedded objects . Following method on repository    generates incorrect query.    I attached test project demonstrating this bug.","file_goldset":["org.springframework.data.mongodb.core.MongoTemplate","org.springframework.data.mongodb.core.convert.MappingMongoConverter"],"creation_date":"2014-11-07T03:08:58.000-06:00","resolution_date":"2014-11-12T23:11:42.000-06:00"}
{"id":3614,"bug_id":"DATAMONGO-571","text":"Spring Data for MongoDb doesn\u0027t save null values when @Version is added to domain class . 1. Domain class is loaded from mongodb using CrudRepository.findOne() method. 2. The loaded instances any non id nor @Version annotated field is set to null. 3. The loaded instance is saved to same mongodb using CrudRepository.save() method. 4. The field that has been set to null doesnt write to database, its unchanged.","file_goldset":["org.springframework.data.mongodb.core.MongoTemplateTests","org.springframework.data.mongodb.core.query.Update"],"creation_date":"2012-11-09T08:00:10.000-06:00","resolution_date":"2013-04-11T03:05:45.000-05:00"}
{"id":3615,"bug_id":"DATAMONGO-688","text":"There is no precedence between @Id annotation and field named \"id\" - both are attempted to be used. If you have a domain class with an attribute named \"id\", even if you annotate a DIFFERENT field with \"@Id\", spring-data-mongo errors trying to map 2 things to the id. While the error is correct in that you can\u0027t have 2, it surprises me that one doesn\u0027t take precedence over the other.","file_goldset":["org.springframework.data.mongodb.core.mapping.MongoPersistentProperty","org.springframework.data.mongodb.core.mapping.MongoMappingContextUnitTests","org.springframework.data.mongodb.core.mapping.BasicMongoPersistentEntity","org.springframework.data.mongodb.core.mapping.BasicMongoPersistentProperty"],"creation_date":"2013-06-03T14:11:53.000-05:00","resolution_date":"2013-07-08T03:12:11.000-05:00"}
{"id":3616,"bug_id":"DATAMONGO-1123","text":"geoNear, does not return all matching elements, it returns only a max of 100 documents. I have the following query:         I expect 1000 \"matching\" documents But i only get 100. There is some default being set, that restricts the result to 100.","file_goldset":["org.springframework.data.mongodb.core.MongoOperations"],"creation_date":"2014-12-17T09:39:36.000-06:00","resolution_date":"2015-01-07T06:15:01.000-06:00"}
{"id":3617,"bug_id":"DATAMONGO-1394","text":"Trying to use eq on reference\u0027s $id, with no luck. This is an example code:               List\u003cBook\u003e list \u003d bookRepository.findAll(exp);  // EMPTY Doing:      or:","file_goldset":["org.springframework.data.mongodb.repository.support.SpringDataMongodbSerializer","org.springframework.data.mongodb.repository.support.QuerydslRepositorySupportTests"],"creation_date":"2016-03-09T10:36:46.000-06:00","resolution_date":"2016-07-27T09:01:01.000-05:00"}
{"id":3618,"bug_id":"DATAMONGO-398","text":"When I attempt to save an object from org.apache.felix\u0027s versions of org.osgi.service.event.Event, the stack trace below occurs. This appears to be due to the system attempting to save the topic field in Event as event.topics.  I am using the following dependency versions","file_goldset":["org.springframework.data.mongodb.core.convert.MappingMongoConverterUnitTests","org.springframework.data.mongodb.core.convert.MappingMongoConverter"],"creation_date":"2012-02-10T07:11:53.000-06:00","resolution_date":"2012-02-10T07:22:05.000-06:00"}
{"id":3619,"bug_id":"DATAMONGO-1126","text":"I\u0027ve been trying to use the In-keyword with identifiers and making the query pageable. The query returns results but getTotalElements() and getTotalPages() always returns 0. Also when you try to get any other page than 0, no results return.  Below is a strip down example I used for testing; I\u0027ve created 3 types and 10 items per those types, results in a total of 30 items.                                             Assert.assertEquals(30, results.getTotalElements()); // this is returning 0 Assert.assertEquals(6, results.getTotalPages());     // this is returning 0","file_goldset":["org.springframework.data.mongodb.repository.query.AbstractMongoQueryUnitTests","org.springframework.data.mongodb.repository.query.AbstractMongoQuery","org.springframework.data.mongodb.core.MongoOperations","org.springframework.data.mongodb.core.MongoTemplate","org.springframework.data.mongodb.repository.Person"],"creation_date":"2014-12-21T06:03:21.000-06:00","resolution_date":"2015-01-20T08:04:31.000-06:00"}
{"id":3620,"bug_id":"DATAMONGO-392","text":"Updating an object does not write type information for objects to be updated. I\u0027m using quite complex domain model, that consist of instantiable domain classes as well as of abstract ones. I used 1.0.0. M5 version, and the type information (under _class key) was stored with object when it was necessary to be able to read it from database later.  RELEASE version that broke my application as it saves the objects without type information and later it is impossible to read it back to java model. What I found is that MappingMongoConverter.writeInternal(...) method that in turn calls addCustomTypeIfNecessary(...) (line 330) which puts type information into DBObject. During execution of convertToMongoType(...) (at line 851) removeTypeInfoRecursively(...) is called which clears type data saved earlier under _class key.","file_goldset":["org.springframework.data.mongodb.core.MongoTemplateTests","org.springframework.data.mongodb.core.MongoTemplate"],"creation_date":"2012-02-07T04:28:15.000-06:00","resolution_date":"2013-07-08T06:13:48.000-05:00"}
{"id":3621,"bug_id":"DATAMONGO-1406","text":"Query mapper does not use @Field field name when querying nested fields in combination with nested keywords. we have a document class;                  In MongoTemplate.java, the call to :    resolves the fields to the input query to the ones in the @Field annotations, except for these in embedded arrays. So, in the example above, resolution fields in DBObject remains resolution. While, the status field resolves to stat.  The query submitted to mongo after getMappedObject is called:  Which doesn\u0027t get any data, because there is no field called resolution (the field in mongo is res). Note: The query input to getMappedObject is:  Notice the status and displays fields correctly get converted to the value in the @Field annotation.   This basically means that any queries that operate on fields (with a name different from the peristed name) in the inner list will fail.","file_goldset":["org.springframework.data.mongodb.core.convert.QueryMapper","org.springframework.data.mongodb.core.convert.QueryMapperUnitTests"],"creation_date":"2016-04-04T18:59:49.000-05:00","resolution_date":"2016-08-25T11:50:06.000-05:00"}
{"id":3622,"bug_id":"DATAMONGO-1202","text":"Under simple scenarios with reflexive DBRef relations works as expected, but if used in conjunction with generics it doesn\u0027t create the index expected. I provide a github project with two scenarios: Employer: Very simple reflexive relation that works nicely (EmployerTest) Customer: A little more complex scenario using GenericCustomer as a base class to allow having many different kinds of customers. This scenario fails at creating the index (CustomerTest).  If you run Application it will just create indexes and put some data in customer collection assuming a MongoD is running locally at 27017","file_goldset":["org.springframework.data.mongodb.core.index.MongoPersistentEntityIndexCreatorIntegrationTests","org.springframework.data.mongodb.core.index.IndexResolver","org.springframework.data.mongodb.core.index.MongoPersistentEntityIndexCreator","org.springframework.data.mongodb.core.index.MongoPersistentEntityIndexResolver"],"creation_date":"2015-04-14T02:36:40.000-05:00","resolution_date":"2015-06-01T00:45:42.000-05:00"}
{"id":3623,"bug_id":"DATAMONGO-702","text":"Spring Data MongoDB projection search, is not properly configured with respective Java Pojo. If Model Java POJO, is annotated with @Field, then during search with query.fields(). include(field) uning mongoTemplate it does not java property field as field parameter, rather it needs the name declared with name defined with @Field annotation.","file_goldset":["org.springframework.data.mongodb.core.MongoTemplateTests","org.springframework.data.mongodb.core.MongoTemplate"],"creation_date":"2013-06-20T00:12:30.000-05:00","resolution_date":"2013-07-09T02:35:34.000-05:00"}
{"id":3624,"bug_id":"DATAMONGO-413","text":"Using \"Or\" in repository query yields a ClassCastException. This:  Gives:","file_goldset":["org.springframework.data.mongodb.repository.query.MongoQueryCreator","org.springframework.data.mongodb.repository.query.MongoQueryCreatorUnitTests","org.springframework.data.mongodb.core.query.OrQuery"],"creation_date":"2012-03-09T17:21:02.000-06:00","resolution_date":"2012-03-12T04:51:50.000-05:00"}
{"id":3625,"bug_id":"DATAMONGO-1232","text":"The IgnoreCase query generator is subject to a sort of \"regex injection\" attack, because the query generator simply slaps ^. . $ around the string and passes it directly to MongoDB. This fails when the string contains any sort of special characters. In my case, I\u0027m trying to perform a case-insensitive find on an e-mail address with the + sign, a legal character, but the regex interprets this as 1. . *.","file_goldset":["org.springframework.data.mongodb.repository.query.MongoQueryCreator","org.springframework.data.mongodb.repository.query.MongoQueryCreatorUnitTests"],"creation_date":"2015-06-03T10:27:23.000-05:00","resolution_date":"2015-06-24T11:21:16.000-05:00"}
{"id":3626,"bug_id":"DATAMONGO-717","text":"Application context is not properly distributed to persistent entities. The MongoMappingContext does not properly distribute the application context when set to persistent entities that have already been added. Current code:","file_goldset":["org.springframework.data.mongodb.config.AbstractMongoConfigurationUnitTests"],"creation_date":"2013-07-10T11:13:46.000-05:00","resolution_date":"2013-07-10T14:09:31.000-05:00"}
{"id":3627,"bug_id":"DATAMONGO-1486","text":"Changes to MappingMongoConverter Result in Class Cast Exception. We have a situation where we have a model object that looks like the following:   When we execute the following:         We end up getting the following exception:","file_goldset":["org.springframework.data.mongodb.core.convert.MappingMongoConverter","org.springframework.data.mongodb.core.convert.UpdateMapperUnitTests"],"creation_date":"2016-09-07T16:46:53.000-05:00","resolution_date":"2016-09-08T08:31:45.000-05:00"}
{"id":3628,"bug_id":"DATAMONGO-423","text":"Criteria.regex should use java.util.Pattern instead of $regex. If you try:    throws this exception:          while this does not:","file_goldset":["org.springframework.data.mongodb.core.query.Criteria","org.springframework.data.mongodb.core.MongoTemplateTests","org.springframework.data.mongodb.core.query.QueryTests"],"creation_date":"2012-03-29T06:03:26.000-05:00","resolution_date":"2012-04-02T11:48:19.000-05:00"}
{"id":3629,"bug_id":"DATAMONGO-721","text":"Polymorphic attribute type not persisted on update operations. Here is our situation: we have an entity which have an attribute which is a list of another kind of entity, like the code below.   When using MongoTemplate class with code such as below, the _class attribute is not inserted on the embedded document, so, if one of the items of the list attribute is a subclass of ChildClass, and ChildClass is an abstract class, we begin to face instantiation problems. Here is one example of usage of MongoTemplate in which we found a problem.   If child is a subclass of ChildClass, the _class attribute is not added to the embedded document.","file_goldset":["org.springframework.data.mongodb.core.convert.QueryMapper"],"creation_date":"2013-07-11T11:36:06.000-05:00","resolution_date":"2013-07-16T04:40:15.000-05:00"}
{"id":3630,"bug_id":"DATAMONGO-1250","text":"Custom converter implementation not used in updates. I have a custom (de)serialiser for an enumerated type, and it works perfectly when saving and loading a @Document annotated POJO. It also works when building and executing a Query object. However when used in an Update, it is either ignored, or called in situations where it shouldn\u0027t. Please clone https://github.com/patrickherrera/converter_test.git for a full test application. In brief there is a POJO and for the purposes of the test it has a static enum with the desired converters:                                                 There is a unit test that drives a few scenarios:                                                By use of a positive and negative case, it appears that the converter is being called correctly when used in the Query builder. When it comes to an Update, the Enum is unable to be serialised correctly, and an exception is thrown to that effect.  So it appears that the customer converter for converting from my Enum is not called in this situation.  The BigDecimal is converted to a String by an existing converter I assume, but then my customer converter is called to try and convert the numeric String into an Allocation Enum which of course fails.  That second variant never seems to be called in MappingMongoConverter, but perhaps if that type information was passed then it would not use my Allocation converter. Without type information it seems the default is just to use the first converter that can handle the input type, in this case a String.","file_goldset":["org.springframework.data.mongodb.core.convert.UpdateMapper","org.springframework.data.mongodb.core.convert.UpdateMapperUnitTests"],"creation_date":"2015-07-03T21:07:44.000-05:00","resolution_date":"2015-07-04T10:10:16.000-05:00"}
{"id":3631,"bug_id":"DATAMONGO-1236","text":"MongoOperations findAndModify and updateFirst do not include the _class in Map values. When a map of type LinkedHashMap\u003cString, Object\u003e  is updated via MongoOperations findAndModify or updateFirst, the _class field is not saved for the map values. Therefore, later reads of the data do not convert the value to the correct type, instead leaving it as LinkedHashMap. Please see attached maven project for test illustrating the problem.","file_goldset":["org.springframework.data.mongodb.core.convert.UpdateMapper","org.springframework.data.mongodb.core.convert.UpdateMapperUnitTests"],"creation_date":"2015-06-08T11:17:11.000-05:00","resolution_date":"2015-07-08T01:26:13.000-05:00"}
{"id":3632,"bug_id":"DATAMONGO-602","text":"Querying with $in operator on the id field of type BigInteger returns zero results. There is a problem when trying to query for documents with id field is in a given list of BigInteger values.  For example, these lines will work only if given id list contains only one item.     The query looks like this for a profileIds with multiple elements  and it looks like this when there is only one item in the list.  In the first case, query will return no results and in the second it will work and return an Iterable with one item.","file_goldset":["org.springframework.data.mongodb.core.MongoTemplateTests"],"creation_date":"2013-01-30T02:22:53.000-06:00","resolution_date":"2013-08-07T10:11:51.000-05:00"}
{"id":3633,"bug_id":"DATAMONGO-805","text":"Excluding DBRef field in a query causes a MappingException. Excluding a field in a query where the field is a DBRef as below throws a MappingException.      Exception trace:                                        I\u0027ve attached a simple test case that throws the MappingException.","file_goldset":["org.springframework.data.mongodb.core.convert.QueryMapper","org.springframework.data.mongodb.core.convert.QueryMapperUnitTests","org.springframework.data.mongodb.core.mapping.MappingTests"],"creation_date":"2013-12-02T06:34:36.000-06:00","resolution_date":"2014-01-14T05:35:09.000-06:00"}
{"id":3634,"bug_id":"DATAMONGO-897","text":"NullPointerException is thrown when using MongoTemplate.findAndModify(...) with @DbRef and interface as @DbRef target.","file_goldset":["org.springframework.data.mongodb.core.convert.QueryMapper","org.springframework.data.mongodb.core.convert.UpdateMapperUnitTests"],"creation_date":"2014-04-01T04:38:51.000-05:00","resolution_date":"2014-04-14T23:48:22.000-05:00"}
{"id":3635,"bug_id":"DATAMONGO-892","text":"\u003cmongo:mapping-converter\u003e can\u0027t be configured as nested bean definition. The sample config which worked in the 1.1.1 version, but doesn\u0027t work now:              That\u0027s because MappingMongoConverterParser doesn\u0027t check if the parserContext.isNested(), registers BeanDefinition and returns null","file_goldset":["org.springframework.data.mongodb.config.MappingMongoConverterParserIntegrationTests","org.springframework.data.mongodb.config.MappingMongoConverterParser"],"creation_date":"2014-03-28T09:08:03.000-05:00","resolution_date":"2014-04-15T00:13:36.000-05:00"}
{"id":3636,"bug_id":"DATAMONGO-647","text":"Using \"OrderBy\" in \"query by method name\" ignores the @Field annotation for field alias.. I created a method using the \"query by method name\" approach: Inside my Answer object, I have a field called \"Score\" that is annotated with    When the query is run, the database attempts to sort the results by \"score\" rather than my \"sr\" field name.","file_goldset":["org.springframework.data.mongodb.core.convert.QueryMapperUnitTests"],"creation_date":"2013-04-09T17:29:02.000-05:00","resolution_date":"2014-05-19T05:42:41.000-05:00"}
{"id":3637,"bug_id":"DATAMONGO-745","text":"@Query($in) and Pageable in result Page total \u003d 0. Hi If I used MongoRepository and anotation Quary and Pageable in response I get true result but getTotalElements \u003d\u003d 0","file_goldset":["org.springframework.data.mongodb.repository.Person","org.springframework.data.mongodb.repository.AbstractPersonRepositoryIntegrationTests","org.springframework.data.mongodb.repository.PersonRepository"],"creation_date":"2013-09-03T02:15:08.000-05:00","resolution_date":"2014-06-17T22:51:44.000-05:00"}
