{"key":"WFCORE-1578","title":"","description":"Lets have some /socket-binding-group\u003dstandard-sockets/socket-binding with particular name. Then when I create some /socket-binding-group\u003dstandard-sockets/remote-destination-outbound-socket-binding or /socket-binding-group\u003dstandard-sockets/local-destination-outbound-socket-binding using same name as of already existing socket-binding resource, add operation is successful but when I perform server reload, it crashes as it is not able to parse configuration.  Start EAP and log to CLI create your own socket-binding resource and {remote|local}-destination-outbound-socket-binding resource with same names and perform reload      server crashes with following stacktrace in console log:                                    If there is a problem for those resources to have same names I would welcome that names are checked during the add operation already regarding to all resources in socket-binding and {remote|local}-destination-outbound-socket-binding.  {remote|local} add()\n\n\n\n\n add(host\u003dlocalhost,port\u003d8765)\n\n\n\n\n add(socket-binding-ref\u003dhttp)\n\n\n\n\n {remote|local}"}
{"key":"WFCORE-1908","title":"Tab completion suggest writing attribute which has access type metric and is not writable","description":"CLI tab completion suggests attributes that are not writable and their access-type is metric Example    On attempt to write metric attribute, for example message-count, non writable error is printed       CLI should not suggest writing attributes that are not writable. attribute(name\u003dmessage-count, value\u003d5)\n\n\n\n\n {\n\n\n\n\n    \"outcome\" \u003d\u003e \"failed\",\n\n\n\n\n    \"failure-description\" \u003d\u003e \"WFLYCTL0048: Attribute message-count is not writable\",\n\n\n\n\n    \"rolled-back\" \u003d\u003e true\n\n\n\n\n}"}
{"key":"WFCORE-1936","title":"","description":"fixed-port attribute of socket-binding and fixed-source-port attributes of *-destination-outbound-socket-binding define in its description that there is not necessary to do reload or restart for any of them.  If you tries to change such attributes you are informed that reload is necessary.  description(recursive\u003dtrue)"}
{"key":"WFCORE-1572","title":"Suggestion list for argument value is not generated if the value contains a whitespace","description":"When an argument value contains a space (eg. deploy /path/to/test-application. war --all-server-groups --headers\u003d{rollout id\u003dfoo}) and if user hits tab after the whitespace, suggestions are generated based on the command, rather than the current argument\u0027s name. {rollout id\u003dfoo}"}
{"key":"WFCORE-1570","title":"","description":"When using rollout plans for EAP deployment scenarios I can create my own named rollout-plan for ease of use. I can then apply rollout command later on, referring with name of my own rollout plan that should be used.  When I create rollout-plan, I use command like:  see --name attribute given to name my rollout plan When I then refer to it I use following command:   see id attribute given to rollout header operation Yes, this is really minor issue, but I think that these two attributes used in aforementioned commands should be unified (preferably to name instead of id) as user might be confused when using it.   group(rolling-to-servers\u003dfalse,max-failed-servers\u003d1) group(rolling-to-servers\u003dtrue,max-failure-percentage\u003d20)  {rollout id\u003dmy-rollout-plan}"}
{"key":"WFCORE-1864","title":"Whitespaces are not removed from dependencies in module add command","description":"Running module add --name\u003dfoo.bar --resources\u003dfoo.jar --dependencies\u003d[org.a, org.b ] will result in following dependencies in module.xml         The module name in dependencies should be stripped of leading and trailing whitespaces. {{\n...\n    \u003cdependencies\u003e\n        \u003cmodule name\u003d\"org.a\"/\u003e\n        \u003cmodule name\u003d\" org.b \"/\u003e\n    \u003c/dependencies\u003e\n...\n}}"}
