{"key":"CONFIGURATION-214","title":"Adding an integer and getting it as a long causes an exception","description":"The problem is that when an object in a property is not a Long, the only attempt of PropertyConverter.toLong() is that of treating it as a string. It could try to convert it to a Number first and then try to convert it to a long."}
{"key":"CONFIGURATION-242","title":"The configuration returned by HierarchicalConfiguration.subset() does not globally interpolate","description":"Interpolation is only performed in the subset configuration itself. If the referenced property is not in the subset (but somewhere else in the parent configuration), it cannot be resolved. Interpolation should take all properties of the parent configuration into account."}
{"key":"CONFIGURATION-275","title":"ConfigurationUtils.append() doesn\u0027t merge list properties","description":"ConfigurationUtils.append() appends the list object instead of the list elements to the target list. If the list [X, Y] is appended to the list [A, B], the result is [A, B, [X, Y]] instead of [A, B, X, Y]"}
{"key":"CONFIGURATION-481","title":"","description":"I get \"${myvar}-product\" instead of \"abc-product\"."}
