{"key":"DATAMONGO-505","title":"Conversion of associations doesn\u0027t work for collection values","description":"Assume you have the following scenario:"}
{"key":"DATAMONGO-523","title":"@TypeAlias annotation not used with AbstractMongoConfiguration ","description":"When using the AbstractMongoConfiguration without any further modifications regarding the converter (afterMappingMongoConverterCreation) the @TypeAlias annotation is not used when writing the _class property."}
{"key":"DATAMONGO-585","title":"Exception during authentication in multithreaded access","description":"Specifically what can be used for a test case is use a ThreadPoolExecutor, set a minpool and maxpool value of 5, add 25 objects to be executed. Those objects are a class which implements Runnable. Those objects each then perform a bunch of inserts into mongoDB using a DocumentDao which calls mongoOperations.insert."}
