{"key":"DATAMONGO-629","title":"Different results when using count and find with the same criteria with \u0027id\u0027 field","description":"Assume we have following query:"}
{"key":"DATAMONGO-571","title":"Spring Data for MongoDb doesn\u0027t save null values when @Version is added to domain class ","description":"1. Domain class is loaded from mongodb using CrudRepository.findOne() method. 2. The loaded instances any non id nor @Version annotated field is set to null. 3. The loaded instance is saved to same mongodb using CrudRepository.save() method. 4. The field that has been set to null doesnt write to database, its unchanged."}
{"key":"DATAMONGO-602","title":"Querying with $in operator on the id field of type BigInteger returns zero results","description":"There is a problem when trying to query for documents with id field is in a given list of BigInteger values.  For example, these lines will work only if given id list contains only one item."}
{"key":"DATAMONGO-647","title":"Using \"OrderBy\" in \"query by method name\" ignores the @Field annotation for field alias.","description":"I created a method using the \"query by method name\" approach: Inside my Answer object, I have a field called \"Score\" that is annotated with    When the query is run, the database attempts to sort the results by \"score\" rather than my \"sr\" field name."}
