{"id":74,"bug_id":"COMPRESS-276","text":"NullPointerException in ZipArchiveOutputStream with invalid entries. Writing raw data seems to cause problems in multiple ways, because an internal field is not set. Is this a wrong API usage? java.io.ByteArrayOutputStream var0 \u003d new java.io.ByteArrayOutputStream(); org.apache.commons.compress.archivers.jar.JarArchiveOutputStream var1 \u003d new org.apache.commons.compress.archivers.jar.JarArchiveOutputStream((java.io.OutputStream)var0); var1.write(25843); Other tests (see attachment) are very similar and cause the same problem. They can probably be ignored because the first test is the shortest one.","file_goldset":["org.apache.commons.compress.archivers.sevenz.SevenZFile","org.apache.commons.compress.archivers.sevenz.SevenZOutputFile","org.apache.commons.compress.archivers.dump.DumpArchiveInputStream","org.apache.commons.compress.archivers.tar.TarArchiveInputStream","org.apache.commons.compress.archivers.tar.TarArchiveOutputStream","org.apache.commons.compress.archivers.arj.ArjArchiveInputStream","org.apache.commons.compress.archivers.zip.ZipArchiveOutputStream"],"creation_date":"2014-04-11T05:03:17.000-05:00","resolution_date":"2014-04-13T08:33:29.000-05:00"}
{"id":75,"bug_id":"COMPRESS-273","text":"NullPointerException when creation fields/entries from scratch. The API has public default constructors for many data types. However, when these 0-argument constructors are used, certain internal references are null, resulting in a NullPointerException soon after. This also applies to some 1-argument constructors where two references should be set before get... is used later. Either (1) these constructors should be non-public, (2) there should be documentation that certain fields need to be set later for an instance to be usable. In the latter case, there must be public set methods for the missing data. The attachment contains a number of similar test cases that show the same issue in a couple of classes. An example: org.apache.commons.compress.archivers.zip.UnicodeCommentExtraField var0 \u003d new org.apache.commons.compress.archivers.zip.UnicodeCommentExtraField(); org.apache.commons.compress.archivers.zip.ZipShort var1 \u003d var0.getLocalFileDataLength();","file_goldset":["org.apache.commons.compress.archivers.cpio.CpioArchiveEntry","org.apache.commons.compress.archivers.zip.UnrecognizedExtraField","org.apache.commons.compress.archivers.zip.ExtraFieldUtils","org.apache.commons.compress.archivers.zip.AbstractUnicodeExtraField"],"creation_date":"2014-04-11T04:13:32.000-05:00","resolution_date":"2014-04-18T14:14:16.000-05:00"}
{"id":76,"bug_id":"COMPRESS-278","text":"Incorrect handling of NUL username and group Tar.gz entries. With version 1.8 of commons-compress it\u0027s no longer possible to decompress  files from an archive if the archive contains entries having null (or being empty?) set as username and/or usergroup. With version 1.7 this still worked now I get this exception: java.io.IOException: Error detected parsing the header \tat org.apache.commons.compress.archivers.tar.TarArchiveInputStream.getNextTarEntry(TarArchiveInputStream.java:249) \tat TestBed.AppTest.extractNoFileOwner(AppTest.java:30) Caused by: java.lang.IllegalArgumentException: Invalid byte 32 at offset 7 in \u0027       {NUL}\u0027 len\u003d8 \tat org.apache.commons.compress.archivers.tar.TarUtils.parseOctal(TarUtils.java:134) \tat org.apache.commons.compress.archivers.tar.TarUtils.parseOctalOrBinary(TarUtils.java:173) \tat org.apache.commons.compress.archivers.tar.TarArchiveEntry.parseTarHeader(TarArchiveEntry.java:953) \tat org.apache.commons.compress.archivers.tar.TarArchiveEntry.parseTarHeader(TarArchiveEntry.java:940) \tat org.apache.commons.compress.archivers.tar.TarArchiveEntry.\u003cinit\u003e(TarArchiveEntry.java:324) \tat org.apache.commons.compress.archivers.tar.TarArchiveInputStream.getNextTarEntry(TarArchiveInputStream.java:247) \t... 27 more This exception leads to my suspision that the regression was introduced with the fix for this ticket COMPRESS-262, which has a nearly identical exception provided. Some test code you can run to verify it: package TestBed; import java.io.File; import java.io.FileInputStream; import java.io.FileNotFoundException; import java.io.IOException; import org.apache.commons.compress.archivers.tar.TarArchiveEntry; import org.apache.commons.compress.archivers.tar.TarArchiveInputStream; import org.apache.commons.compress.compressors.gzip.GzipCompressorInputStream; import org.junit.Test; /** * Unit test for simple App. */ public class AppTest { @Test public void extractNoFileOwner() { TarArchiveInputStream tarInputStream \u003d null; try { tarInputStream \u003d new TarArchiveInputStream( new GzipCompressorInputStream( new FileInputStream( new File( \"/home/pknobel/redis-dist-2.8.3_1-linux.tar.gz\" ) ) ) ); TarArchiveEntry entry; while ( ( entry \u003d tarInputStream.getNextTarEntry() ) ! \u003d null ) { System.out.println( entry.getName() ); System.out.println(entry.getUserName()+\"/\"+entry.getGroupName()); } } catch ( FileNotFoundException e ) { e.printStackTrace(); } catch ( IOException e ) { e.printStackTrace(); } } } With 1.7 the TestCase outputed this: redis-dist-2.8.3_1/bin/ / redis-dist-2.8.3_1/bin/redis-server jenkins/jenkins redis-dist-2.8.3_1/bin/redis-cli jenkins/jenkins With 1.8 it\u0027s failing once it reaches the null valued entry, which is the first. The archive is created using maven assembly plugin, and I tried the same with maven ant task. Both generating an archive with not set username and groups for at least some entries. You can download the archive from http://heli0s.darktech.org/redis/2.8.3_1/redis-dist-2.8.3_1-linux.tar.gz If you run a tar -tvzf on the file you see this report: drwxr-xr-x 0/0               0 2014-04-18 09:43 redis-dist-2.8.3_1-SNAPSHOT/bin/ -rwxr-xr-x pknobel/pknobel 3824588 2014-01-02 14:58 redis-dist-2.8.3_1-SNAPSHOT/bin/redis-cli -rwxr-xr-x pknobel/pknobel 5217234 2014-01-02 14:58 redis-dist-2.8.3_1-SNAPSHOT/bin/redis-server The user 0/0 probably indicates that it\u0027s not set although it\u0027s the root user id. A correctly root user file would show up as root/root","file_goldset":["org.apache.commons.compress.archivers.tar.TarUtilsTest","org.apache.commons.compress.archivers.tar.TarUtils"],"creation_date":"2014-04-18T16:09:05.000-05:00","resolution_date":"2014-04-19T06:01:10.000-05:00"}
