{"id":240,"bug_id":"DATAMONGO-462","text":"findAll() fails with NPE - discovering the root cause. This bug report is based on a forum thread(see Reference URL). I do not want to duplicate the original posts. Here is my response. Hello Oliver, This morning I built spring data from source which provided a more informative error (see below). My code doesn\u0027t use the  @PersistenceConstructor annotation. I\u0027ll investigate. My source is open source. It is pre-alpha at this time. You\u0027ll find it on github (https://github.com/kern3020/harbinger). Exception in thread \"main\" org.springframework.data.mapping.model.MappingInstantiationException: Could not instantiate bean class [java.net.URL]: No default constructor_ found; nested exception is java.lang.NoSuchMethodException: java.net.URL. \u003cinit\u003e() \tat org.springframework.data.convert.ReflectionEntityInstantiator.createInstance(ReflectionEntityInstantiator.java:63) \tat org.springframework.data.mongodb.core.convert.MappingMongoConverter.read(MappingMongoConverter.java:230) \tat org.springframework.data.mongodb.core.convert.MappingMongoConverter.read(MappingMongoConverter.java:210) \tat org.springframework.data.mongodb.core.convert.MappingMongoConverter$MongoDbPropertyValueProvider.getPropertyValue(MappingMongoConverter.java:953) \tat org.springframework.data.mongodb.core.convert.MappingMongoConverter.getValueInternal(MappingMongoConverter.java:708) \tat org.springframework.data.mongodb.core.convert.MappingMongoConverter$1.doWithPersistentProperty(MappingMongoConverter.java:246) \tat org.springframework.data.mongodb.core.convert.MappingMongoConverter$1.doWithPersistentProperty(MappingMongoConverter.java:236) \tat org.springframework.data.mapping.model.BasicPersistentEntity.doWithProperties(BasicPersistentEntity.java:183) \tat org.springframework.data.mongodb.core.convert.MappingMongoConverter.read(MappingMongoConverter.java:236) \tat org.springframework.data.mongodb.core.convert.MappingMongoConverter.read(MappingMongoConverter.java:210) \tat org.springframework.data.mongodb.core.convert.MappingMongoConverter.read(MappingMongoConverter.java:174) \tat org.springframework.data.mongodb.core.convert.MappingMongoConverter.read(MappingMongoConverter.java:170) \tat org.springframework.data.mongodb.core.convert.MappingMongoConverter.read(MappingMongoConverter.java:73) \tat org.springframework.data.mongodb.core.MongoTemplate$ReadDbObjectCallback.doWith(MongoTemplate.java:1700) \tat org.springframework.data.mongodb.core.MongoTemplate.executeFindMultiInternal(MongoTemplate.java:1451) \tat org.springframework.data.mongodb.core.MongoTemplate.findAll(MongoTemplate.java:959) \tat org.john.app.InstituteRepository.dump(InstituteRepository.java:58) at org.john.app.InstituteRepository$$FastClassByCGLIB$$7799dab9. invoke(\u003cgenerated\u003e) \tat net.sf.cglib.proxy.MethodProxy.invoke(MethodProxy.java:191) \tat org.springframework.aop.framework.Cglib2AopProxy$CglibMethodInvocation.invokeJoinpoint(Cglib2AopProxy.java:689) \tat org.springframework.aop.framework.ReflectiveMethodInvocation.proceed(ReflectiveMethodInvocation.java:150) \tat org.springframework.dao.support.PersistenceExceptionTranslationInterceptor.invoke(PersistenceExceptionTranslationInterceptor.java:138) \tat org.springframework.aop.framework.ReflectiveMethodInvocation.proceed(ReflectiveMethodInvocation.java:172) \tat org.springframework.aop.framework.Cglib2AopProxy$DynamicAdvisedInterceptor.intercept(Cglib2AopProxy.java:622) at org.john.app.InstituteRepository$$EnhancerByCGLIB$$a998483c.dump(\u003cgenerated\u003e) \tat org.john.app.ReaperApp.main(ReaperApp.java:49) Caused by: org.springframework.beans.BeanInstantiationException: Could not instantiate bean class [java.net.URL]: No default constructor_ found; nested exception is java.lang.NoSuchMethodException: java.net.URL.\u003cinit\u003e() \tat org.springframework.beans.BeanUtils.instantiateClass(BeanUtils.java:107) \tat org.springframework.data.convert.ReflectionEntityInstantiator.createInstance(ReflectionEntityInstantiator.java:60) \t... 25 more Caused by: java.lang.NoSuchMethodException: java.net.URL.\u003cinit\u003e() \tat java.lang.Class.getConstructor0(Class.java:2723) \tat java.lang.Class.getDeclaredConstructor(Class.java:2002) \tat org.springframework.beans.BeanUtils.instantiateClass(BeanUtils.java:104)","file_goldset":["org.springframework.data.mongodb.core.convert.MappingMongoConverterUnitTests","org.springframework.data.mongodb.core.convert.CustomConversions","org.springframework.data.mongodb.core.convert.MongoConverters","org.springframework.data.mongodb.core.convert.CustomConversionsUnitTests"],"creation_date":"2012-06-19T08:57:02.000-05:00","resolution_date":"2012-06-19T10:00:45.000-05:00"}
{"id":241,"bug_id":"DATAMONGO-420","text":"Extra quotes being added to @Query values and fields. Quotes are being added to values passed into @Query annotations. @Query( value \u003d \" { ? 0 } \", fields \u003d \" { ? 1 } \" ) someMethod( String values, String fields ); Whatever I pass into \"values\" or \"fields\" gets wrapped in quotes when inserted into the query sent to MongoDB. String values \u003d \"value : \u0027things\u0027\"; -\u003e rendered as - { \"value : \u0027things\u0027\" } -\u003e This is not a valid query - the double quotes around it break it. String values \u003d \"field : 0\"; -\u003e rendered as - { \"field : 0\" } -\u003e This is not a valid projection - the double quotes around it break it. String values \u003d \"field\\\" : \\\"0\"; -\u003e rendered as - { \"field\" : \"0\" } -\u003e This is not a valid projection - the double quotes around zero turn it into a string so it renders as \"true\" instead of 0/undefined. Thanks.","file_goldset":["org.springframework.data.mongodb.repository.query.StringBasedMongoQueryUnitTests","org.springframework.data.mongodb.repository.query.StringBasedMongoQuery"],"creation_date":"2012-03-22T10:09:35.000-05:00","resolution_date":"2014-07-17T12:51:47.000-05:00"}
{"id":242,"bug_id":"DATAMONGO-402","text":"Inner class not supported. Inner class not supported in 1.0.1. GA. It works fine in 1.0.0. GA java.lang.IllegalArgumentException: No property null found for type class org.test.EnclosingClass$InsideClass \tat org.springframework.data.mapping.PropertyPath.\u003cinit\u003e(PropertyPath.java:73) \tat org.springframework.data.mapping.PropertyPath.\u003cinit\u003e(PropertyPath.java:92) \tat org.springframework.data.mapping.PropertyPath.create(PropertyPath.java:312) \tat org.springframework.data.mapping.PropertyPath.create(PropertyPath.java:294) \tat org.springframework.data.mapping.PropertyPath.from(PropertyPath.java:258) \tat org.springframework.data.mapping.PropertyPath.from(PropertyPath.java:239) \tat org.springframework.data.mongodb.core.convert.MappedConstructor$MappedParameter.\u003cinit\u003e(MappedConstructor.java:125) \tat org.springframework.data.mongodb.core.convert.MappedConstructor.\u003cinit\u003e(MappedConstructor.java:57) \tat org.springframework.data.mongodb.core.convert.MappingMongoConverter.read(MappingMongoConverter.java:212) \tat org.springframework.data.mongodb.core.convert.MappingMongoConverter.read(MappingMongoConverter.java:200) \tat org.springframework.data.mongodb.core.convert.MappingMongoConverter.getValueInternal(MappingMongoConverter.java:713) \tat org.springframework.data.mongodb.core.convert.MappingMongoConverter$1.doWithPersistentProperty(MappingMongoConverter.java:230) \tat org.springframework.data.mongodb.core.convert.MappingMongoConverter$1.doWithPersistentProperty(MappingMongoConverter.java:220) \tat org.springframework.data.mapping.model.BasicPersistentEntity.doWithProperties(BasicPersistentEntity.java:173) \tat org.springframework.data.mongodb.core.convert.MappingMongoConverter.read(MappingMongoConverter.java:220) \tat org.springframework.data.mongodb.core.convert.MappingMongoConverter.read(MappingMongoConverter.java:200) \tat org.springframework.data.mongodb.core.convert.MappingMongoConverter.read(MappingMongoConverter.java:164) \tat org.springframework.data.mongodb.core.convert.MappingMongoConverter.read(MappingMongoConverter.java:73) \tat org.springframework.data.mongodb.core.MongoTemplate$ReadDbObjectCallback.doWith(MongoTemplate.java:1693) \tat org.springframework.data.mongodb.core.MongoTemplate.executeFindOneInternal(MongoTemplate.java:1405) \tat org.springframework.data.mongodb.core.MongoTemplate.doFindOne(MongoTemplate.java:1224) \tat org.springframework.data.mongodb.core.MongoTemplate.findOne(MongoTemplate.java:455) \tat org.springframework.data.mongodb.core.MongoTemplate.findOne(MongoTemplate.java:450) \tat org.test.InnerClassTest.testInnerClass(InnerClassTest.java:43)","file_goldset":["org.springframework.data.mongodb.core.convert.MappingMongoConverterUnitTests","org.springframework.data.mongodb.core.convert.MappingMongoConverter"],"creation_date":"2012-02-17T00:31:18.000-06:00","resolution_date":"2012-03-09T06:31:10.000-06:00"}
{"id":243,"bug_id":"DATAMONGO-413","text":"Using \"Or\" in repository query yields a ClassCastException. This: List\u003cUser\u003e findByEmailOrAlias(String email, String alias); Gives: 2012-03-09 17:19:55,057 [main] DEBUG org.springframework.data.mongodb.repository.query.MongoQueryCreator - Created query { \"email\" : \"a@b.c\" , \"alias\" : \"abc\" , \"$or\" : { }} 2012-03-09 17:19:55,062 [main] DEBUG org.springframework.data.mongodb.core.MongoTemplate - find using query: { \"email\" : \"a@b.c\" , \"$or\" : { }} fields: null for class: class com.musicalabs.api.model.User in collection: user Exception in thread \"main\" java.lang.ClassCastException: com.mongodb.BasicDBObject cannot be cast to java.lang.Iterable \tat org.springframework.data.mongodb.core.QueryMapper.getMappedObject(QueryMapper.java:92) \tat org.springframework.data.mongodb.core.MongoTemplate.doFind(MongoTemplate.java:1259) \tat org.springframework.data.mongodb.core.MongoTemplate.doFind(MongoTemplate.java:1248) \tat org.springframework.data.mongodb.core.MongoTemplate.find(MongoTemplate.java:471) \tat org.springframework.data.mongodb.repository.query.AbstractMongoQuery$Execution.readCollection(AbstractMongoQuery.java:125) \tat org.springframework.data.mongodb.repository.query.AbstractMongoQuery$CollectionExecution.execute(AbstractMongoQuery.java:142) \tat org.springframework.data.mongodb.repository.query.AbstractMongoQuery.execute(AbstractMongoQuery.java:88) \tat org.springframework.data.repository.core.support.RepositoryFactorySupport$QueryExecutorMethodInterceptor.invoke(RepositoryFactorySupport.java:302) \tat org.springframework.aop.framework.ReflectiveMethodInvocation.proceed(ReflectiveMethodInvocation.java:172) \tat org.springframework.aop.framework.JdkDynamicAopProxy.invoke(JdkDynamicAopProxy.java:202) \tat $Proxy22.findByEmailOrAlias(Unknown Source) \tat com.acme.Fake.main(Fake.java:23) While that: List\u003cUser\u003e findByEmailAndAlias(String email, String alias); works fine.","file_goldset":["org.springframework.data.mongodb.repository.query.MongoQueryCreator","org.springframework.data.mongodb.repository.query.MongoQueryCreatorUnitTests","org.springframework.data.mongodb.core.query.OrQuery"],"creation_date":"2012-03-09T17:21:02.000-06:00","resolution_date":"2012-03-12T04:51:50.000-05:00"}
{"id":244,"bug_id":"DATAMONGO-425","text":"Binding a Date to a manually defined repository query fails. See this StackOverflow question for details.","file_goldset":["org.springframework.data.mongodb.repository.config.MongoNamespaceIntegrationTests","org.springframework.data.mongodb.repository.Person","org.springframework.data.mongodb.repository.AbstractPersonRepositoryIntegrationTests","org.springframework.data.mongodb.repository.PersonRepository","org.springframework.data.mongodb.repository.query.StringBasedMongoQuery"],"creation_date":"2012-04-02T04:56:44.000-05:00","resolution_date":"2012-04-02T09:09:29.000-05:00"}
{"id":245,"bug_id":"DATAMONGO-423","text":"Criteria.regex should use java.util.Pattern instead of $regex. mongod complains about $regex in some cases. If you try: DBCollection c \u003d ... c.find( new BasicDBObject( \"x\" , new BasicDBObject(\"$not\", new BasicDBObject(\"$regex\", \"b\") ) ) ); throws this exception: com.mongodb.MongoException: can\u0027t use $not with $regex, use BSON regex type instead \tat com.mongodb.MongoException.parse(MongoException.java:82) at com.mongodb.DBApiLayer$MyCollection. __find(DBApiLayer.java:312) at com.mongodb.DBCursor. _check(DBCursor.java:369) at com.mongodb.DBCursor. _hasNext(DBCursor.java:504) \tat com.mongodb.DBCursor.hasNext(DBCursor.java:529) while this does not: DBCollection c \u003d ... c.find( new BasicDBObject( \"x\" , new BasicDBObject(\"$not\", Pattern.compile( \"b\" , Pattern.CASE_INSENSITIVE ) ) ) );","file_goldset":["org.springframework.data.mongodb.core.query.Criteria","org.springframework.data.mongodb.core.MongoTemplateTests","org.springframework.data.mongodb.core.query.QueryTests"],"creation_date":"2012-03-29T06:03:26.000-05:00","resolution_date":"2012-04-02T11:48:19.000-05:00"}
