{"id":144,"bug_id":"DATACMNS-154","text":"Overwriting of delete(T entity) saveAndFlush(T entity); does not work anymore. During initialization of the following repository an exception occurs for these two methods. public interface UserRepository extends JpaRepository\u003cUser, Long\u003e, PagingAndSortingRepository\u003cUser, Long\u003e { public User saveAndFlush(User entity); public void delete(User entity); } Caused by: org.springframework.beans.factory.BeanCreationException: Error creating bean with name \u0027userRepository\u0027: FactoryBean threw exception on object creation; nested exception is java.lang.IllegalArgumentException: Could not create query metamodel for method public abstract entities.User repositories.UserRepository.saveAndFlush(entities.User)!         at org.springframework.beans.factory.support.FactoryBeanRegistrySupport.doGetObjectFromFactoryBean(FactoryBeanRegistrySupport.java:149)         at org.springframework.beans.factory.support.FactoryBeanRegistrySupport.getObjectFromFactoryBean(FactoryBeanRegistrySupport.java:102)         at org.springframework.beans.factory.support.AbstractBeanFactory.getObjectForBeanInstance(AbstractBeanFactory.java:1442)         at org.springframework.beans.factory.support.AbstractBeanFactory.doGetBean(AbstractBeanFactory.java:248)         at org.springframework.beans.factory.support.AbstractBeanFactory.getBean(AbstractBeanFactory.java:193)         at org.springframework.beans.factory.support.DefaultListableBeanFactory.findAutowireCandidates(DefaultListableBeanFactory.java:848)         at org.springframework.beans.factory.support.DefaultListableBeanFactory.doResolveDependency(DefaultListableBeanFactory.java:790)         at org.springframework.beans.factory.support.DefaultListableBeanFactory.resolveDependency(DefaultListableBeanFactory.java:707)         at org.springframework.beans.factory.annotation.AutowiredAnnotationBeanPostProcessor$AutowiredFieldElement.inject(AutowiredAnnotationBeanPostProcessor.java:478)         ... 41 more Caused by: java.lang.IllegalArgumentException: Could not create query metamodel for method public abstract entities.User repositories.UserRepository.saveAndFlush(entities.User)!         at org.springframework.data.jpa.repository.query.JpaQueryLookupStrategy$CreateQueryLookupStrategy.resolveQuery(JpaQueryLookupStrategy.java:95)         at org.springframework.data.jpa.repository.query.JpaQueryLookupStrategy$CreateIfNotFoundQueryLookupStrategy.resolveQuery(JpaQueryLookupStrategy.java:164)         at org.springframework.data.jpa.repository.query.JpaQueryLookupStrategy$AbstractQueryLookupStrategy.resolveQuery(JpaQueryLookupStrategy.java:71)         at org.springframework.data.repository.core.support.RepositoryFactorySupport$QueryExecutorMethodInterceptor.\u003cinit\u003e(RepositoryFactorySupport.java:269)         at org.springframework.data.repository.core.support.RepositoryFactorySupport.getRepository(RepositoryFactorySupport.java:142)         at org.springframework.data.repository.core.support.RepositoryFactoryBeanSupport.getObject(RepositoryFactoryBeanSupport.java:114)         at org.springframework.data.repository.core.support.RepositoryFactoryBeanSupport.getObject(RepositoryFactoryBeanSupport.java:38)         at org.springframework.beans.factory.support.FactoryBeanRegistrySupport.doGetObjectFromFactoryBean(FactoryBeanRegistrySupport.java:142)         ... 49 more Caused by: java.lang.IllegalArgumentException: No property save found for type class entities.User         at org.springframework.data.mapping.PropertyPath.\u003cinit\u003e(PropertyPath.java:73)         at org.springframework.data.mapping.PropertyPath.\u003cinit\u003e(PropertyPath.java:92)         at org.springframework.data.mapping.PropertyPath.create(PropertyPath.java:319)         at org.springframework.data.mapping.PropertyPath.create(PropertyPath.java:301)         at org.springframework.data.mapping.PropertyPath.from(PropertyPath.java:265)         at org.springframework.data.mapping.PropertyPath.from(PropertyPath.java:239)         at org.springframework.data.repository.query.parser.Part.\u003cinit\u003e(Part.java:70)         at org.springframework.data.repository.query.parser.PartTree$OrPart.\u003cinit\u003e(PartTree.java:180)         at org.springframework.data.repository.query.parser.PartTree$Predicate.buildTree(PartTree.java:260)         at org.springframework.data.repository.query.parser.PartTree$Predicate.\u003cinit\u003e(PartTree.java:240)         at org.springframework.data.repository.query.parser.PartTree.\u003cinit\u003e(PartTree.java:68)         at org.springframework.data.jpa.repository.query.PartTreeJpaQuery.\u003cinit\u003e(PartTreeJpaQuery.java:57)         at org.springframework.data.jpa.repository.query.JpaQueryLookupStrategy$CreateQueryLookupStrategy.resolveQuery(JpaQueryLookupStrategy.java:93)         ... 56 more The same code works with snapshot before weekend (13.04.2012). So","file_goldset":["org.springframework.data.repository.core.support.DefaultRepositoryInformationUnitTests","org.springframework.data.repository.core.support.DefaultRepositoryInformation"],"creation_date":"2012-04-17T06:02:43.000-05:00","resolution_date":"2012-04-19T03:52:20.000-05:00"}
{"id":145,"bug_id":"DATACMNS-157","text":"@Query in extending interface is not picked up correctly. I try to define an interface method in a super repository interface and \u0027implement\u0027 this in an extending interface with @Query. This does not work. Tested in the latest nightly build: @NoRepositoryBean public interface EntityRepository\u003cT\u003e extends JpaRepository\u003cT, Long\u003e { T findByDealer(Dealer dealer); } public interface CarRepository extends EntityRepository\u003cPersonalSiteVehicle\u003e { @Override @Query(\"select p from PersonalSiteVehicle p join p.detail d join d.enrichable e where e.dealer \u003d ? 1\") PersonalSiteVehicle findByDealer(Dealer dealer); } Results in Caused by: org.springframework.beans.factory.BeanCreationException: Error creating bean with name \u0027carRepository\u0027: FactoryBean threw exception on object creation; nested exception is java.lang.IllegalArgumentException: Could not create query metamodel for method public abstract java.lang.Object nl.inmotiv.indi.repository.EntityRepository.findByDealer(nl.inmotiv.indi.domain.Dealer)! \tat org.springframework.beans.factory.support.FactoryBeanRegistrySupport.doGetObjectFromFactoryBean(FactoryBeanRegistrySupport.java:149) \tat org.springframework.beans.factory.support.FactoryBeanRegistrySupport.getObjectFromFactoryBean(FactoryBeanRegistrySupport.java:102) \tat org.springframework.beans.factory.support.AbstractBeanFactory.getObjectForBeanInstance(AbstractBeanFactory.java:1442) \tat org.springframework.beans.factory.support.AbstractBeanFactory.doGetBean(AbstractBeanFactory.java:248) \tat org.springframework.beans.factory.support.AbstractBeanFactory.getBean(AbstractBeanFactory.java:193) \tat org.springframework.beans.factory.support.DefaultListableBeanFactory.findAutowireCandidates(DefaultListableBeanFactory.java:848) \tat org.springframework.beans.factory.support.DefaultListableBeanFactory.doResolveDependency(DefaultListableBeanFactory.java:790) \tat org.springframework.beans.factory.support.DefaultListableBeanFactory.resolveDependency(DefaultListableBeanFactory.java:707) \tat org.springframework.beans.factory.annotation.AutowiredAnnotationBeanPostProcessor$AutowiredFieldElement.inject(AutowiredAnnotationBeanPostProcessor.java:478) \t... 32 more Caused by: java.lang.IllegalArgumentException: Could not create query metamodel for method public abstract java.lang.Object nl.inmotiv.indi.repository.EntityRepository.findByDealer(nl.inmotiv.indi.domain.Dealer)! \tat org.springframework.data.jpa.repository.query.JpaQueryLookupStrategy$CreateQueryLookupStrategy.resolveQuery(JpaQueryLookupStrategy.java:95) \tat org.springframework.data.jpa.repository.query.JpaQueryLookupStrategy$CreateIfNotFoundQueryLookupStrategy.resolveQuery(JpaQueryLookupStrategy.java:164) \tat org.springframework.data.jpa.repository.query.JpaQueryLookupStrategy$AbstractQueryLookupStrategy.resolveQuery(JpaQueryLookupStrategy.java:71) \tat org.springframework.data.repository.core.support.RepositoryFactorySupport$QueryExecutorMethodInterceptor.\u003cinit\u003e(RepositoryFactorySupport.java:269) \tat org.springframework.data.repository.core.support.RepositoryFactorySupport.getRepository(RepositoryFactorySupport.java:142) \tat org.springframework.data.repository.core.support.RepositoryFactoryBeanSupport.getObject(RepositoryFactoryBeanSupport.java:114) \tat org.springframework.data.repository.core.support.RepositoryFactoryBeanSupport.getObject(RepositoryFactoryBeanSupport.java:38) \tat org.springframework.beans.factory.support.FactoryBeanRegistrySupport.doGetObjectFromFactoryBean(FactoryBeanRegistrySupport.java:142) \t... 40 more Caused by: java.lang.IllegalArgumentException: No property dealer found for type class nl.inmotiv.indi.domain.PersonalSiteVehicle \tat org.springframework.data.mapping.PropertyPath.\u003cinit\u003e(PropertyPath.java:73) \tat org.springframework.data.mapping.PropertyPath.\u003cinit\u003e(PropertyPath.java:92) \tat org.springframework.data.mapping.PropertyPath.create(PropertyPath.java:319) \tat org.springframework.data.mapping.PropertyPath.create(PropertyPath.java:301) \tat org.springframework.data.mapping.PropertyPath.from(PropertyPath.java:265) \tat org.springframework.data.mapping.PropertyPath.from(PropertyPath.java:239) \tat org.springframework.data.repository.query.parser.Part.\u003cinit\u003e(Part.java:70) \tat org.springframework.data.repository.query.parser.PartTree$OrPart.\u003cinit\u003e(PartTree.java:180) \tat org.springframework.data.repository.query.parser.PartTree$Predicate.buildTree(PartTree.java:260) \tat org.springframework.data.repository.query.parser.PartTree$Predicate.\u003cinit\u003e(PartTree.java:240) \tat org.springframework.data.repository.query.parser.PartTree.\u003cinit\u003e(PartTree.java:71) \tat org.springframework.data.jpa.repository.query.PartTreeJpaQuery.\u003cinit\u003e(PartTreeJpaQuery.java:57) \tat org.springframework.data.jpa.repository.query.JpaQueryLookupStrategy$CreateQueryLookupStrategy.resolveQuery(JpaQueryLookupStrategy.java:93) It looks like Spring Data does not use the @Query annotation in the sub interface.","file_goldset":["org.springframework.data.repository.core.support.DefaultRepositoryInformationUnitTests","org.springframework.data.repository.core.support.DefaultRepositoryInformation"],"creation_date":"2012-04-20T01:24:38.000-05:00","resolution_date":"2012-04-20T05:15:54.000-05:00"}
{"id":146,"bug_id":"DATACMNS-160","text":"Regression of Repository instances with only delete* methods. A repository which only defines delete methods is not created by the Spring Data code with the exception: org.springframework.beans.factory.BeanCreationException: Error creating bean with name \u0027treeEntityDeleteRepository\u0027: FactoryBean threw exception on object creation; nested exception is java.lang.IllegalArgumentException: Could not create query metamodel for method public abstract void example.data.DeleteOnlyRepository.delete(java.lang.Object)! \tat org.springframework.beans.factory.support.FactoryBeanRegistrySupport.doGetObjectFromFactoryBean(FactoryBeanRegistrySupport.java:149) \tat org.springframework.beans.factory.support.FactoryBeanRegistrySupport.getObjectFromFactoryBean(FactoryBeanRegistrySupport.java:102) \tat org.springframework.beans.factory.support.AbstractBeanFactory.getObjectForBeanInstance(AbstractBeanFactory.java:1441) \tat org.springframework.beans.factory.support.AbstractBeanFactory.doGetBean(AbstractBeanFactory.java:305) \tat org.springframework.beans.factory.support.AbstractBeanFactory.getBean(AbstractBeanFactory.java:193) \tat org.springframework.beans.factory.support.DefaultListableBeanFactory.preInstantiateSingletons(DefaultListableBeanFactory.java:585) \tat org.springframework.context.support.AbstractApplicationContext.finishBeanFactoryInitialization(AbstractApplicationContext.java:913) \tat org.springframework.context.support.AbstractApplicationContext.refresh(AbstractApplicationContext.java:464) \tat org.springframework.context.support.ClassPathXmlApplicationContext.\u003cinit\u003e(ClassPathXmlApplicationContext.java:139) \tat org.springframework.context.support.ClassPathXmlApplicationContext.\u003cinit\u003e(ClassPathXmlApplicationContext.java:83) \tat example.data.RepositoryTest.testExample(RepositoryTest.java:10) \tat sun.reflect.NativeMethodAccessorImpl.invoke0(Native Method) \tat sun.reflect.NativeMethodAccessorImpl.invoke(NativeMethodAccessorImpl.java:57) \tat sun.reflect.DelegatingMethodAccessorImpl.invoke(DelegatingMethodAccessorImpl.java:43) \tat java.lang.reflect.Method.invoke(Method.java:601) \tat org.junit.runners.model.FrameworkMethod$1.runReflectiveCall(FrameworkMethod.java:44) \tat org.junit.internal.runners.model.ReflectiveCallable.run(ReflectiveCallable.java:15) \tat org.junit.runners.model.FrameworkMethod.invokeExplosively(FrameworkMethod.java:41) \tat org.junit.internal.runners.statements.InvokeMethod.evaluate(InvokeMethod.java:20) \tat org.junit.runners.BlockJUnit4ClassRunner.runNotIgnored(BlockJUnit4ClassRunner.java:79) \tat org.junit.runners.BlockJUnit4ClassRunner.runChild(BlockJUnit4ClassRunner.java:71) \tat org.junit.runners.BlockJUnit4ClassRunner.runChild(BlockJUnit4ClassRunner.java:49) \tat org.junit.runners.ParentRunner$3.run(ParentRunner.java:193) \tat org.junit.runners.ParentRunner$1.schedule(ParentRunner.java:52) \tat org.junit.runners.ParentRunner.runChildren(ParentRunner.java:191) \tat org.junit.runners.ParentRunner.access$000(ParentRunner.java:42) \tat org.junit.runners.ParentRunner$2.evaluate(ParentRunner.java:184) \tat org.junit.runners.ParentRunner.run(ParentRunner.java:236) \tat org.eclipse.jdt.internal.junit4.runner.JUnit4TestReference.run(JUnit4TestReference.java:50) \tat org.eclipse.jdt.internal.junit.runner.TestExecution.run(TestExecution.java:38) \tat org.eclipse.jdt.internal.junit.runner.RemoteTestRunner.runTests(RemoteTestRunner.java:467) \tat org.eclipse.jdt.internal.junit.runner.RemoteTestRunner.runTests(RemoteTestRunner.java:683) \tat org.eclipse.jdt.internal.junit.runner.RemoteTestRunner.run(RemoteTestRunner.java:390) \tat org.eclipse.jdt.internal.junit.runner.RemoteTestRunner.main(RemoteTestRunner.java:197) Caused by: java.lang.IllegalArgumentException: Could not create query metamodel for method public abstract void example.data.DeleteOnlyRepository.delete(java.lang.Object)! \tat org.springframework.data.jpa.repository.query.JpaQueryLookupStrategy$CreateQueryLookupStrategy.resolveQuery(JpaQueryLookupStrategy.java:95) \tat org.springframework.data.jpa.repository.query.JpaQueryLookupStrategy$CreateIfNotFoundQueryLookupStrategy.resolveQuery(JpaQueryLookupStrategy.java:164) \tat org.springframework.data.jpa.repository.query.JpaQueryLookupStrategy$AbstractQueryLookupStrategy.resolveQuery(JpaQueryLookupStrategy.java:71) \tat org.springframework.data.repository.core.support.RepositoryFactorySupport$QueryExecutorMethodInterceptor.\u003cinit\u003e(RepositoryFactorySupport.java:269) \tat org.springframework.data.repository.core.support.RepositoryFactorySupport.getRepository(RepositoryFactorySupport.java:142) \tat org.springframework.data.repository.core.support.RepositoryFactoryBeanSupport.getObject(RepositoryFactoryBeanSupport.java:114) \tat org.springframework.data.repository.core.support.RepositoryFactoryBeanSupport.getObject(RepositoryFactoryBeanSupport.java:38) \tat org.springframework.beans.factory.support.FactoryBeanRegistrySupport.doGetObjectFromFactoryBean(FactoryBeanRegistrySupport.java:142) \t... 33 more Caused by: java.lang.IllegalArgumentException: No property delete found for type class example.data.TreeEntity \tat org.springframework.data.mapping.PropertyPath.\u003cinit\u003e(PropertyPath.java:73) \tat org.springframework.data.mapping.PropertyPath.\u003cinit\u003e(PropertyPath.java:92) \tat org.springframework.data.mapping.PropertyPath.create(PropertyPath.java:319) \tat org.springframework.data.mapping.PropertyPath.create(PropertyPath.java:301) \tat org.springframework.data.mapping.PropertyPath.from(PropertyPath.java:265) \tat org.springframework.data.mapping.PropertyPath.from(PropertyPath.java:239) \tat org.springframework.data.repository.query.parser.Part.\u003cinit\u003e(Part.java:70) \tat org.springframework.data.repository.query.parser.PartTree$OrPart.\u003cinit\u003e(PartTree.java:180) \tat org.springframework.data.repository.query.parser.PartTree$Predicate.buildTree(PartTree.java:260) \tat org.springframework.data.repository.query.parser.PartTree$Predicate.\u003cinit\u003e(PartTree.java:240) \tat org.springframework.data.repository.query.parser.PartTree.\u003cinit\u003e(PartTree.java:68) \tat org.springframework.data.jpa.repository.query.PartTreeJpaQuery.\u003cinit\u003e(PartTreeJpaQuery.java:57) \tat org.springframework.data.jpa.repository.query.JpaQueryLookupStrategy$CreateQueryLookupStrategy.resolveQuery(JpaQueryLookupStrategy.java:93) \t... 40 more caused by a repository which extends: public interface DeleteOnlyRepository\u003cT, ID extends Serializable\u003e extends Repository\u003cT, ID\u003e{ public void delete(ID paramID); public void delete(T paramT); public void delete(Iterable\u003c? extends T\u003e paramIterable); public void deleteAll(); } This appears to be a regression following the upgrade to Spring Data Commons 1.3.0 RC1, as it\u0027s not present when using Spring Data JPA 1.1.0. RC1, only when using the build snapshots. I realise that the bug is most likely in the data commons package, but I wasn\u0027t sure how to reproduce it without using the JPA component, so I\u0027m reporting here for the mo - hope that\u0027s OK. I attach a sample Maven project to reproduce the issue The reason for wanting such a repository is to prevent clients from performing CRU operations on a child object without the use of the parent, but I do need to offer the ability to delete it.","file_goldset":["org.springframework.data.repository.core.support.DefaultRepositoryInformationUnitTests","org.springframework.data.repository.core.support.DefaultRepositoryInformation"],"creation_date":"2012-04-21T08:47:35.000-05:00","resolution_date":"2012-04-26T09:13:19.000-05:00"}
{"id":147,"bug_id":"DATACMNS-176","text":"StackOverflowError when inserted object is a CGLIB proxy. When trying to persist an object [to MongoDB (spring-data-mongodb v1.1.0. M1)] that is in \"session\" scope and using a CGLIB proxy (ie: \"@Scope(value\u003d\"session\", proxyMode \u003d ScopedProxyMode.TARGET_CLASS)\") I receive a StackOverflowError. When removing the session scoping, it works correctly.java.lang.StackOverflowError \tat java.util.HashMap$EntryIterator.\u003cinit\u003e(HashMap.java:832) \tat java.util.HashMap$EntryIterator.\u003cinit\u003e(HashMap.java:832) \tat java.util.HashMap.newEntryIterator(HashMap.java:846) \tat java.util.HashMap$EntrySet.iterator(HashMap.java:950) \tat java.util.AbstractMap.hashCode(AbstractMap.java:459) \tat org.springframework.util.ObjectUtils.nullSafeHashCode(ObjectUtils.java:336) \tat org.springframework.data.util.TypeDiscoverer.hashCode(TypeDiscoverer.java:365) \tat org.springframework.data.util.ClassTypeInformation.hashCode(ClassTypeInformation.java:39) \tat org.springframework.util.ObjectUtils.nullSafeHashCode(ObjectUtils.java:336) \tat org.springframework.data.util.ParentTypeAwareTypeInformation.hashCode(ParentTypeAwareTypeInformation.java:79) \tat org.springframework.util.ObjectUtils.nullSafeHashCode(ObjectUtils.java:336) \tat org.springframework.data.util.ParentTypeAwareTypeInformation.hashCode(ParentTypeAwareTypeInformation.java:79) \tat org.springframework.util.ObjectUtils.nullSafeHashCode(ObjectUtils.java:336) \tat org.springframework.data.util.ParentTypeAwareTypeInformation.hashCode(ParentTypeAwareTypeInformation.java:79) \tat org.springframework.util.ObjectUtils.nullSafeHashCode(ObjectUtils.java:336) .... (Repeats)","file_goldset":["org.springframework.data.util.ClassTypeInformation"],"creation_date":"2012-05-21T11:47:05.000-05:00","resolution_date":"2012-09-13T10:21:33.000-05:00"}
