{"id":169,"bug_id":"DATACMNS-68","text":"NullPointerException in AbstractPersistentProperty::getComponentType(). class TestClassSet extends TreeSet\u003cObject\u003e { } class TestClassComplex { private String id; private TestClassSet testClassSet; public String getId() { return id; } public TestClassSet getTestClassSet() { return testClassSet; } public void setTestClassSet(TestClassSet testClassSet) { this.testClassSet \u003d testClassSet; } } The following code appears to work fine: List\u003cTestClassSet\u003e o \u003d mongoTemplate.findAll(TestClassSet.class); But this fails with the NPE below: List\u003cTestClassComplex\u003e o \u003d mongoTemplate.findAll(TestClassComplex.class); java.lang.NullPointerException: null         at org.springframework.data.mapping.model.AbstractPersistentProperty.getComponentType(AbstractPersistentProperty.java:147) ~[spring-data-commons-core-1.2.0.BUILD-20110826.083456-44.jar:na]         at org.springframework.data.mapping.model.AbstractPersistentProperty.isComplexType(AbstractPersistentProperty.java:136) ~[spring-data-commons-core-1.2.0.BUILD-20110826.083456-44.jar:na]         at org.springframework.data.mapping.model.AbstractPersistentProperty.isEntity(AbstractPersistentProperty.java:143) ~[spring-data-commons-core-1.2.0.BUILD-20110826.083456-44.jar:na]         at org.springframework.data.mapping.context.AbstractMappingContext.getNestedTypeToAdd(AbstractMappingContext.java:316) ~[spring-data-commons-core-1.2.0.BUILD-20110826.083456-44.jar:na]         at org.springframework.data.mapping.context.AbstractMappingContext.access$100(AbstractMappingContext.java:65) ~[spring-data-commons-core-1.2.0.BUILD-20110826.083456-44.jar:na]         at org.springframework.data.mapping.context.AbstractMappingContext$1.doWith(AbstractMappingContext.java:267) ~[spring-data-commons-core-1.2.0.BUILD-20110826.083456-44.jar:na]         at org.springframework.util.ReflectionUtils.doWithFields(ReflectionUtils.java:513) ~[spring-core-3.0.5.RELEASE.jar:3.0.5.RELEASE]         at org.springframework.data.mapping.context.AbstractMappingContext.addPersistentEntity(AbstractMappingContext.java:244) ~[spring-data-commons-core-1.2.0.BUILD-20110826.083456-44.jar:na]         at org.springframework.data.mapping.context.AbstractMappingContext.getPersistentEntity(AbstractMappingContext.java:165) ~[spring-data-commons-core-1.2.0.BUILD-20110826.083456-44.jar:na]         at org.springframework.data.mapping.context.AbstractMappingContext.getPersistentEntity(AbstractMappingContext.java:140) ~[spring-data-commons-core-1.2.0.BUILD-20110826.083456-44.jar:na]         at org.springframework.data.mapping.context.AbstractMappingContext.getPersistentEntity(AbstractMappingContext.java:65) ~[spring-data-commons-core-1.2.0.BUILD-20110826.083456-44.jar:na]         at org.springframework.data.mongodb.core.MongoTemplate.determineCollectionName(MongoTemplate.java:1105) ~[spring-data-mongodb-1.0.0.BUILD-20110826.114729-388.jar:na]         at org.springframework.data.mongodb.core.MongoTemplate.findAll(MongoTemplate.java:786) ~[spring-data-mongodb-1.0.0.BUILD-20110826.114729-388.jar:na] ...","file_goldset":["org.springframework.data.util.ClassTypeInformation"],"creation_date":"2011-08-26T08:05:09.000-05:00","resolution_date":"2011-08-31T12:08:41.000-05:00"}
{"id":170,"bug_id":"DATACMNS-19","text":"Invalid entity metadata when domain class implements persistable. Latest snapshot (spring-data-jpa-1.0.0. BUILD-20110227.093237-171.jar) introduced a bug which makes find queries (with Specification API) to fail for domain objects which implement Persistable. I believe issue is either in JpaRepositoryFactory stragery for creating entity information - if domain class implements Persistable, PersistableEntityMetadata fixes domain class to Persistable.class which looses actual domain class. Here is relevant stack trace snippet: java.lang.IllegalArgumentException: Not an entity: interface org.springframework.data.domain.Persistable \tat org.hibernate.ejb.metamodel.MetamodelImpl.entity(MetamodelImpl.java:160) \tat org.hibernate.ejb.criteria.QueryStructure.from(QueryStructure.java:138) \tat org.hibernate.ejb.criteria.CriteriaQueryImpl.from(CriteriaQueryImpl.java:179) \tat org.springframework.data.jpa.repository.support.SimpleJpaRepository.applySpecificationToCriteria(SimpleJpaRepository.java:450) \tat org.springframework.data.jpa.repository.support.SimpleJpaRepository.getQuery(SimpleJpaRepository.java:385) \tat org.springframework.data.jpa.repository.support.SimpleJpaRepository.findAll(SimpleJpaRepository.java:267) \tat sun.reflect.NativeMethodAccessorImpl.invoke0(Native Method) \tat sun.reflect.NativeMethodAccessorImpl.invoke(NativeMethodAccessorImpl.java:39) \tat sun.reflect.DelegatingMethodAccessorImpl.invoke(DelegatingMethodAccessorImpl.java:25) \tat java.lang.reflect.Method.invoke(Method.java:597) \tat org.springframework.data.repository.support.RepositoryFactorySupport$QueryExecuterMethodInterceptor.executeMethodOn(RepositoryFactorySupport.java:268) \tat org.springframework.data.repository.support.RepositoryFactorySupport$QueryExecuterMethodInterceptor.invoke(RepositoryFactorySupport.java:249) \tat org.springframework.aop.framework.ReflectiveMethodInvocation.proceed(ReflectiveMethodInvocation.java:172) \tat org.springframework.transaction.interceptor.TransactionInterceptor.invoke(TransactionInterceptor.java:110) \tat org.springframework.aop.framework.ReflectiveMethodInvocation.proceed(ReflectiveMethodInvocation.java:172) \tat org.springframework.dao.support.PersistenceExceptionTranslationInterceptor.invoke(PersistenceExceptionTranslationInterceptor.java:155) \tat org.springframework.aop.framework.ReflectiveMethodInvocation.proceed(ReflectiveMethodInvocation.java:172) \tat org.springframework.aop.framework.JdkDynamicAopProxy.invoke(JdkDynamicAopProxy.java:202) \tat $Proxy60.findAll(Unknown Source) \tat sun.reflect.NativeMethodAccessorImpl.invoke0(Native Method) \tat sun.reflect.NativeMethodAccessorImpl.invoke(NativeMethodAccessorImpl.java:39) \tat sun.reflect.DelegatingMethodAccessorImpl.invoke(DelegatingMethodAccessorImpl.java:25) \tat java.lang.reflect.Method.invoke(Method.java:597) \tat org.springframework.aop.support.AopUtils.invokeJoinpointUsingReflection(AopUtils.java:309) \tat org.springframework.aop.framework.ReflectiveMethodInvocation.invokeJoinpoint(ReflectiveMethodInvocation.java:183) \tat org.springframework.aop.framework.ReflectiveMethodInvocation.proceed(ReflectiveMethodInvocation.java:150) \tat org.springframework.transaction.interceptor.TransactionInterceptor.invoke(TransactionInterceptor.java:110) \tat org.springframework.aop.framework.ReflectiveMethodInvocation.proceed(ReflectiveMethodInvocation.java:172) \tat org.springframework.aop.framework.JdkDynamicAopProxy.invoke(JdkDynamicAopProxy.java:202) \tat $Proxy61.findAll(Unknown Source)","file_goldset":["org.springframework.data.repository.PagingAndSortingRepository","org.springframework.data.repository.Repository"],"creation_date":"2011-02-28T02:07:47.000-06:00","resolution_date":"2011-03-02T00:11:20.000-06:00"}
{"id":171,"bug_id":"DATACMNS-42","text":"MappingContext does not map BigDecimal correctly. ","file_goldset":["org.springframework.data.mapping.MappingBeanHelper"],"creation_date":"2011-06-03T20:44:13.000-05:00","resolution_date":"2011-06-06T15:52:18.000-05:00"}
{"id":172,"bug_id":"DATACMNS-57","text":"Use of parameterized type in constructor_ arguments is not supported. When an object contains a List of another object (no simple types), the MongoMappingConverter finds correct generic type for the field, but when this field is used in the PersistenceConstructor, the type is considered to be the raw type and then no information is available to convert batck the DBObject instances for this list. In the TypeDiscover class, the method getParameterTypes(Constructor\u003c?\u003e) use the reflection method Class\u003c?\u003e [] Constructor.getParameterTypes() that give no hint on the generic parameter types. I replaced this call with Type[] Constructor::getGenericParameterTypes(), that has solved my problem.","file_goldset":["org.springframework.data.util.TypeDiscoverer","org.springframework.data.util.TypeDiscovererUnitTests"],"creation_date":"2011-07-26T08:39:54.000-05:00","resolution_date":"2011-07-28T08:48:21.000-05:00"}
