{"id":543,"bug_id":"WFCORE-727","text":"Some commands throws NPE on tab completion once disconnected. Some commands throws NullPointerException when CLI is disconnected from controller and user tries to use tab completion (so far I found these: ls, read-attribute, read-operation). No exception is thrown with 6.4.0. GA","file_goldset":["org.jboss.as.cli.impl.CommandCandidatesProvider","org.jboss.as.cli.handlers.ReadAttributeHandler","org.jboss.as.cli.handlers.LsHandler"],"creation_date":"2015-06-02T06:44:33.000-05:00","resolution_date":"2015-06-10T10:10:11.000-05:00"}
{"id":544,"bug_id":"WFCORE-1027","text":"Inconsistent read-resource results with host scoped roles. Setting up host scoped roles as follows https://gist.github.com/heiko-braun/0dc810ed04db8739defd there are inconsistent results in the filtering. When using a role which only selects the master there is no access-control response header showing the filtered resources, and the slave wrongly appears in the results: [domain@localhost:9990 /] /host\u003d*:read-resource{roles\u003dmaster-monitor} { \"outcome\" \u003d\u003e \"success\", \"result\" \u003d\u003e [ { \"address\" \u003d\u003e [(\"host\" \u003d\u003e \"master\")], \"outcome\" \u003d\u003e \"success\", \"result\" \u003d\u003e { \"directory-grouping\" \u003d\u003e \"by-server\", \"domain-controller\" \u003d\u003e {\"local\" \u003d\u003e {}}, \"management-major-version\" \u003d\u003e 4, \"management-micro-version\" \u003d\u003e 0, \"management-minor-version\" \u003d\u003e 0, \"master\" \u003d\u003e true, \"name\" \u003d\u003e \"master\", \"namespaces\" \u003d\u003e [], \"organization\" \u003d\u003e undefined, \"product-name\" \u003d\u003e \"WildFly Core\", \"product-version\" \u003d\u003e \"2.0.0.CR6-SNAPSHOT\", \"release-codename\" \u003d\u003e \"Kenny\", \"release-version\" \u003d\u003e \"2.0.0.CR6-SNAPSHOT\", \"schema-locations\" \u003d\u003e [], \"core-service\" \u003d\u003e { \"host-environment\" \u003d\u003e undefined, \"platform-mbean\" \u003d\u003e undefined, \"management\" \u003d\u003e undefined, \"discovery-options\" \u003d\u003e undefined, \"ignored-resources\" \u003d\u003e undefined, \"patching\" \u003d\u003e undefined, \"module-loading\" \u003d\u003e undefined }, \"extension\" \u003d\u003e {\"org.jboss.as.jmx\" \u003d\u003e undefined}, \"interface\" \u003d\u003e { \"management\" \u003d\u003e undefined, \"public\" \u003d\u003e undefined, \"unsecure\" \u003d\u003e undefined }, \"jvm\" \u003d\u003e {\"default\" \u003d\u003e undefined}, \"path\" \u003d\u003e undefined, \"server\" \u003d\u003e { \"server-one\" \u003d\u003e undefined, \"server-two\" \u003d\u003e undefined, \"server-three\" \u003d\u003e undefined }, \"server-config\" \u003d\u003e { \"server-one\" \u003d\u003e undefined, \"server-two\" \u003d\u003e undefined, \"server-three\" \u003d\u003e undefined }, \"socket-binding-group\" \u003d\u003e undefined, \"subsystem\" \u003d\u003e {\"jmx\" \u003d\u003e undefined}, \"system-property\" \u003d\u003e undefined } }, { \"address\" \u003d\u003e [(\"host\" \u003d\u003e \"localhost\")], \"outcome\" \u003d\u003e \"success\", \"result\" \u003d\u003e undefined } ] } When using a role that only selects the slave we get a proper access-control header [domain@localhost:9990 /] /host\u003d*:read-resource{roles\u003dslave-maintainer} { \"outcome\" \u003d\u003e \"success\", \"result\" \u003d\u003e [{ \"address\" \u003d\u003e [(\"host\" \u003d\u003e \"localhost\")], \"outcome\" \u003d\u003e \"success\", \"result\" \u003d\u003e undefined }], \"response-headers\" \u003d\u003e {\"access-control\" \u003d\u003e [{ \"absolute-address\" \u003d\u003e [], \"relative-address\" \u003d\u003e [], \"filtered-children-types\" \u003d\u003e [\"host\"] }]} The same output on master with WFCORE-994 applied: [domain@localhost:9990 /] /host\u003d*:read-resource{roles\u003dslave-maintainer} { \"outcome\" \u003d\u003e \"success\", \"result\" \u003d\u003e [{ \"address\" \u003d\u003e [(\"host\" \u003d\u003e \"slave\")], \"outcome\" \u003d\u003e \"success\", \"result\" \u003d\u003e { \"directory-grouping\" \u003d\u003e \"by-server\", \"domain-controller\" \u003d\u003e {\"remote\" \u003d\u003e { \"protocol\" \u003d\u003e undefined, \"port\" \u003d\u003e undefined, \"host\" \u003d\u003e undefined, \"username\" \u003d\u003e undefined, \"ignore-unused-configuration\" \u003d\u003e undefined, \"admin-only-policy\" \u003d\u003e undefined, \"security-realm\" \u003d\u003e \"ManagementRealm\" }}, \"management-major-version\" \u003d\u003e 4, \"management-micro-version\" \u003d\u003e 0, \"management-minor-version\" \u003d\u003e 0, \"master\" \u003d\u003e false, \"name\" \u003d\u003e \"slave\", \"namespaces\" \u003d\u003e [], \"organization\" \u003d\u003e undefined, \"product-name\" \u003d\u003e undefined, \"product-version\" \u003d\u003e undefined, \"release-codename\" \u003d\u003e \"Kenny\", \"release-version\" \u003d\u003e \"2.0.0.CR6-SNAPSHOT\", \"schema-locations\" \u003d\u003e [], \"core-service\" \u003d\u003e { \"host-environment\" \u003d\u003e undefined, \"platform-mbean\" \u003d\u003e undefined, \"management\" \u003d\u003e undefined, \"discovery-options\" \u003d\u003e undefined, \"ignored-resources\" \u003d\u003e undefined, \"patching\" \u003d\u003e undefined, \"module-loading\" \u003d\u003e undefined }, \"extension\" \u003d\u003e {\"org.jboss.as.jmx\" \u003d\u003e undefined}, \"interface\" \u003d\u003e { \"management\" \u003d\u003e undefined, \"public\" \u003d\u003e undefined, \"unsecure\" \u003d\u003e undefined }, \"jvm\" \u003d\u003e {\"default\" \u003d\u003e undefined}, \"path\" \u003d\u003e undefined, \"server\" \u003d\u003e { \"server-one\" \u003d\u003e undefined, \"server-two\" \u003d\u003e undefined }, \"server-config\" \u003d\u003e { \"server-one\" \u003d\u003e undefined, \"server-two\" \u003d\u003e undefined }, \"socket-binding-group\" \u003d\u003e undefined, \"subsystem\" \u003d\u003e {\"jmx\" \u003d\u003e undefined}, \"system-property\" \u003d\u003e undefined } }], \"response-headers\" \u003d\u003e {\"access-control\" \u003d\u003e [{ \"absolute-address\" \u003d\u003e [], \"relative-address\" \u003d\u003e [], \"filtered-children-types\" \u003d\u003e [\"host\"] }]} } master-monitor should behave the same as slave-maintainer.","file_goldset":["org.jboss.as.test.integration.domain.rbac.ListRoleNamesTestCase","org.jboss.as.test.integration.domain.rbac.WildcardReadsTestCase","org.jboss.as.test.integration.domain.rbac.JmxRBACProviderHostScopedRolesTestCase","org.jboss.as.test.integration.domain.rbac.RBACProviderHostScopedRolesTestCase","org.jboss.as.test.integration.domain.rbac.AbstractHostScopedRolesTestCase","org.jboss.as.controller.operations.global.GlobalOperationHandlers"],"creation_date":"2015-10-01T18:16:10.000-05:00","resolution_date":"2015-10-06T16:00:01.000-05:00"}
{"id":545,"bug_id":"WFCORE-916","text":" Kerberos authentication into Management Console does not fallback correctly. Fallback management realm is not taken into account for Kerberos authentication into Management Console. In cases when Kerberos authentication to Management Console is configured also with fallback mechanism (properties, security-domain...) and one of: realm in principal is not set correctly path to keytab is not set correctly is set in EAP configuration and when user with valid kerberos ticket tries to access Management Console then fallback is not taken into account and user cant access management console.","file_goldset":["org.jboss.as.domain.management.logging.DomainManagementLogger","org.jboss.as.domain.management.security.KeytabService"],"creation_date":"2015-08-18T05:52:06.000-05:00","resolution_date":"2015-10-08T09:51:45.000-05:00"}
{"id":546,"bug_id":"WFCORE-716","text":"Once server in reload-required state capabilities no longer checked at stage Model.. Once a server is in the state reload-required capabilities and requirements are no longer checked e.g.: - [standalone@localhost:9990 /] . /core-service\u003dmanagement/management-interface\u003dhttp-interface:undefine-attribute(name\u003dsecurity-realm) { \"outcome\" \u003d\u003e \"success\", \"response-headers\" \u003d\u003e { \"operation-requires-reload\" \u003d\u003e true, \"process-state\" \u003d\u003e \"reload-required\" } } The following command is referencing a non-existent capability: - [standalone@localhost:9990 /] . /core-service\u003dmanagement/management-interface\u003dhttp-interface:write-attribute(name\u003dsecurity-domain, value\u003dMgMtDom) { \"outcome\" \u003d\u003e \"success\", \"response-headers\" \u003d\u003e { \"operation-requires-reload\" \u003d\u003e true, \"process-state\" \u003d\u003e \"reload-required\" } } When I execute :reload it will fail: - 11:21:18,567 ERROR [org.jboss.as.controller.management-operation] (Controller Boot Thread) WFLYCTL0013: Operation (\"add\") failed - address: ([ (\"core-service\" \u003d\u003e \"management\"), (\"management-interface\" \u003d\u003e \"http-interface\") ]): java.lang.IllegalStateException: WFLYCTL0364: Capability \u0027org.wildfly.security.security-domain. MgMtDom\u0027 is unknown. \tat org.jboss.as.controller.ModelControllerImpl$CapabilityRegistryImpl.getCapabilityRegistration(ModelControllerImpl.java:1388)","file_goldset":["org.jboss.as.controller.CapabilityReferenceRecorder"],"creation_date":"2015-05-27T10:21:36.000-05:00","resolution_date":"2015-06-10T13:09:19.000-05:00"}
{"id":547,"bug_id":"WFCORE-997","text":"Security realm using ldaps hangs forever during SSL handshake, when ldap server is killed. During failover testing we hit the problem of stuck thread. When ldap server is killed in particular time of ssl handshake EAP hangs and waits forever on response, which will never come. Causing thread to block forever. Same problem can be seen in LdapLoginModule using ldaps without specifying com.sun.jndi.ldap.connect.timeout value. Possible solution is to add option to declare com.sun.jndi.ldap.connect.timeout for security realm and provide some default non-empty value, e.g. 15 seconds.","file_goldset":["org.jboss.as.domain.management.connections.ldap.ThreadLocalSSLSocketFactory","org.jboss.as.domain.management.security.WrapperSSLContext"],"creation_date":"2015-09-22T03:53:31.000-05:00","resolution_date":"2015-10-08T12:06:14.000-05:00"}
{"id":548,"bug_id":"WFCORE-1114","text":"NPE in DeploymentStatusHandler. Saw an NPE in a test run. This is because AbstractDeploymentUnitService.getStatus() references the possibly null \u0027monitor\u0027 field. org.jboss.as.test.manualmode.deployment.DeploymentScannerOperationTestCase.testStartup: java.lang.AssertionError: null     at org.jboss.as.test.manualmode.deployment.DeploymentScannerOperationTestCase.testStartup(DeploymentScannerOperationTestCase.java:92) ------- Stdout: ------- 23:55:18,131 INFO  [org.wildfly.core.testrunner.Server] (main) Starting container with: /usr/java/jdk1.8.0_65/jre/bin/java -D[Standalone] -javaagent:/store/repository/org/jboss/byteman/byteman/2.2.1/byteman-2.2.1.jar\u003dport:9091,boot:/store/repository/org/jboss/byteman/byteman/2.2.1/byteman-2.2.1.jar,sys:/opt/buildAgent/work/8d74ae55e497982e/testsuite/shared/target/wildfly-core-testsuite-shared-3.0.0.Alpha1-SNAPSHOT.jar -Dorg.jboss.byteman.transform.all -Dorg.jboss.byteman.verbose\u003dtrue -Dmaven.repo.local\u003d/store/repository -Xmx512m -Djboss.dist\u003d/opt/buildAgent/work/8d74ae55e497982e/testsuite/manualmode/target/wildfly-core -Djava.net.preferIPv4Stack\u003dfalse -Djava.net.preferIPv6Addresses\u003dtrue -server -Dts.timeout.factor\u003d100 -Djbossas.ts.dir\u003d/opt/buildAgent/work/8d74ae55e497982e/testsuite/manualmode -ea -Dorg.jboss.boot.log.file\u003d/opt/buildAgent/work/8d74ae55e497982e/testsuite/manualmode/target/wildfly-core/standalone/log/server.log -Dlogging.configuration\u003dfile:/opt/buildAgent/work/8d74ae55e497982e/testsuite/manualmode/target/wildfly-core/standalone/configuration/logging. properties -jar /opt/buildAgent/work/8d74ae55e497982e/testsuite/manualmode/target/wildfly-core/jboss-modules.jar -mp /opt/buildAgent/work/8d74ae55e497982e/testsuite/manualmode/target/wildfly-core/modules org.jboss.as.standalone -Djboss.home.dir\u003d/opt/buildAgent/work/8d74ae55e497982e/testsuite/manualmode/target/wildfly-core -Djboss.server.base.dir\u003d/opt/buildAgent/work/8d74ae55e497982e/testsuite/manualmode/target/wildfly-core/standalone -Djboss.server.log.dir\u003d/opt/buildAgent/work/8d74ae55e497982e/testsuite/manualmode/target/wildfly-core/standalone/log -Djboss.server.config.dir\u003d/opt/buildAgent/work/8d74ae55e497982e/testsuite/manualmode/target/wildfly-core/standalone/configuration -c\u003dstandalone.xml -bmanagement\u003d::1 -Djboss.http.port\u003d8080 -Djboss.bind.address\u003d::1 23:55:18,299 INFO  [org.xnio] (main) XNIO version 3.3.2. Final TransformListener() : accepting requests on localhost:9091 23:55:18,427 INFO  [org.xnio.nio] (main) XNIO NIO Implementation Version 3.3.2. Final 23:55:18,469 INFO  [org.jboss.remoting] (main) JBoss Remoting version 4.0.14. Final [0m23:55:18,781 INFO  [org.jboss.modules] (main) JBoss Modules version 1.4.4. Final [0m [0m23:55:19,059 INFO  [org.jboss.msc] (main) JBoss MSC version 1.2.6. Final [0m [0m23:55:19,150 INFO  [org.jboss.as] (MSC service thread 1-4) WFLYSRV0049: WildFly Core 3.0.0.Alpha1-SNAPSHOT \"Kenny\" starting [0m [0m23:55:19,716 INFO  [org.jboss.as.server] (Controller Boot Thread) WFLYSRV0039: Creating http management service using socket-binding (management-http) [0m [0m23:55:19,739 INFO  [org.xnio] (MSC service thread 1-2) XNIO version 3.3.2. Final [0m [0m23:55:19,747 INFO  [org.xnio.nio] (MSC service thread 1-2) XNIO NIO Implementation Version 3.3.2. Final [0m [0m23:55:19,799 INFO  [org.jboss.remoting] (MSC service thread 1-2) JBoss Remoting version 4.0.14. Final [0m [33m23:55:19,896 WARN  [org.jboss.as.domain.http.api.undertow] (MSC service thread 1-4) WFLYDMHTTP0003: Unable to load console module for slot main, disabling console [0m [0m23:55:20,084 INFO  [org.jboss.as] (Controller Boot Thread) WFLYSRV0060: Http management interface listening on http://[::1]:9990/management [0m [0m23:55:20,084 INFO  [org.jboss.as] (Controller Boot Thread) WFLYSRV0051: Admin console listening on http://[::1]:9990 [0m [0m23:55:20,084 INFO  [org.jboss.as] (Controller Boot Thread) WFLYSRV0025: WildFly Core 3.0.0.Alpha1-SNAPSHOT \"Kenny\" started in 1710ms - Started 55 of 57 services (15 services are lazy, passive or on-demand) [0m [0m23:55:20,610 INFO  [org.jboss.as.repository] (DeploymentScanner-threads - 2) WFLYDR0001: Content added at location /opt/buildAgent/work/8d74ae55e497982e/testsuite/manualmode/target/wildfly-core/standalone/data/content/21/5cf647697bfbd1ed32b458a4568c01fb6e8dd6/content [0m [0m23:55:20,628 INFO  [org.jboss.as.server.deployment] (MSC service thread 1-4) WFLYSRV0027: Starting deployment of \"deployment-one.jar\" (runtime-name: \"deployment-one.jar\") [0m [0m23:55:20,669 INFO  [org.jboss.as.server] (DeploymentScanner-threads - 2) WFLYSRV0010: Deployed \"deployment-one.jar\" (runtime-name : \"deployment-one.jar\") [0m [0m23:55:21,399 INFO  [org.jboss.as.server.deployment] (MSC service thread 1-4) WFLYSRV0028: Stopped deployment deployment-one.jar (runtime-name: deployment-one.jar) in 6ms [0m [31m23:55:21,403 ERROR [org.jboss.as.controller.management-operation] (management-handler-thread - 2) WFLYCTL0013: Operation (\"read-attribute\") failed - address: ([(\"deployment\" \u003d\u003e \"deployment-one.jar\")]): java.lang.NullPointerException     at org.jboss.as.server.deployment.AbstractDeploymentUnitService.getStatus(AbstractDeploymentUnitService.java:111)     at org.jboss.as.server.deployment.DeploymentStatusHandler$1.execute(DeploymentStatusHandler.java:61)     at org.jboss.as.controller.AbstractOperationContext.executeStep(AbstractOperationContext.java:890)     at org.jboss.as.controller.AbstractOperationContext.processStages(AbstractOperationContext.java:659)     at org.jboss.as.controller.AbstractOperationContext.executeOperation(AbstractOperationContext.java:370)     at org.jboss.as.controller.OperationContextImpl.executeOperation(OperationContextImpl.java:1341)     at org.jboss.as.controller.ModelControllerImpl.internalExecute(ModelControllerImpl.java:392)     at org.jboss.as.controller.ModelControllerImpl.execute(ModelControllerImpl.java:217)     at org.jboss.as.controller.remote.ModelControllerClientOperationHandler$ExecuteRequestHandler.doExecute(ModelControllerClientOperationHandler.java:207)     at org.jboss.as.controller.remote.ModelControllerClientOperationHandler$ExecuteRequestHandler.access$300(ModelControllerClientOperationHandler.java:129)     at org.jboss.as.controller.remote.ModelControllerClientOperationHandler$ExecuteRequestHandler$1$1.run(ModelControllerClientOperationHandler.java:151)     at org.jboss.as.controller.remote.ModelControllerClientOperationHandler$ExecuteRequestHandler$1$1.run(ModelControllerClientOperationHandler.java:147)     at java.security.AccessController.doPrivileged(Native Method)     at javax.security.auth.Subject.doAs(Subject.java:422)     at org.jboss.as.controller.AccessAuditContext.doAs(AccessAuditContext.java:92)     at org.jboss.as.controller.remote.ModelControllerClientOperationHandler$ExecuteRequestHandler$1.execute(ModelControllerClientOperationHandler.java:147)     at org.jboss.as.protocol.mgmt.AbstractMessageHandler$ManagementRequestContextImpl$1.doExecute(AbstractMessageHandler.java:363)     at org.jboss.as.protocol.mgmt.AbstractMessageHandler$AsyncTaskRunner.run(AbstractMessageHandler.java:465)     at java.util.concurrent.ThreadPoolExecutor.runWorker(ThreadPoolExecutor.java:1142)     at java.util.concurrent.ThreadPoolExecutor$Worker.run(ThreadPoolExecutor.java:617)     at java.lang.Thread.run(Thread.java:745)     at org.jboss.threads.JBossThread.run(JBossThread.java:320)","file_goldset":["org.jboss.as.server.deployment.AbstractDeploymentUnitService"],"creation_date":"2015-11-06T02:08:35.000-06:00","resolution_date":"2016-03-18T17:45:32.000-05:00"}
{"id":549,"bug_id":"WFCORE-1035","text":"stop-embedded-host-controller command is not available in non-modular environment. stop-embedded-host-controller command for stopping the embed host controller instance is not available once the CLI is running in non-modular environment. [pkremens@dhcp-10-40-5-17 client] $ java -jar jboss-cli-client.jar WARN: can\u0027t find jboss-cli.xml. Using default configuration values. You are disconnected at the moment. Type \u0027connect\u0027 to connect to the server or \u0027help\u0027 for the list of supported commands. [disconnected /] embed-host-controller --jboss-home\u003d~/workspace/jboss-eap-7.0/ Warning! The CLI is running in a non-modular environment and cannot load commands from management extensions. [domain@embedded /] stop-embedded-host-controller The command is not available in the current context (e.g. required subsystems or connection to the controller might be unavailable). # only stop-embedded-server is available [domain@embedded /] s set  stop-embedded-server # stop-embedded-host-controller command should be used for this [domain@embedded /] stop-embedded-server [disconnected /]","file_goldset":["org.wildfly.core.embedded.EmbeddedServerReference"],"creation_date":"2015-10-01T12:24:37.000-05:00","resolution_date":"2015-10-16T08:47:34.000-05:00"}
{"id":550,"bug_id":"WFCORE-1039","text":"Intermittent failure in notification listener testing in org.jboss.as.jmx.rbac.JmxRbacEnabledTestCase. For a while we\u0027ve seen rare failures of JMX tests that look like this: java.lang.RuntimeException: java.security.PrivilegedActionException: javax.management.ListenerNotFoundException: Unknown listener     at org.jboss.as.jmx.rbac.JmxRbacTestCase.checkMBeanAccess(JmxRbacTestCase.java:484)     at org.jboss.as.jmx.rbac.JmxRbacTestCase.testMonitorNonSensitiveMBeans(JmxRbacTestCase.java:219) ... Caused by: java.security.PrivilegedActionException: null     at java.security.AccessController.doPrivileged(Native Method)     at javax.security.auth.Subject.doAs(Subject.java:422)     at org.jboss.as.jmx.rbac.JmxRbacTestCase.checkMBeanAccess(JmxRbacTestCase.java:254)     at org.jboss.as.jmx.rbac.JmxRbacTestCase.testMonitorNonSensitiveMBeans(JmxRbacTestCase.java:219) ... Caused by: javax.management.ListenerNotFoundException: Unknown listener     at com.sun.jmx.interceptor.DefaultMBeanServerInterceptor.removeNotificationListener(DefaultMBeanServerInterceptor.java:1339)     at com.sun.jmx.interceptor.DefaultMBeanServerInterceptor.removeNotificationListener(DefaultMBeanServerInterceptor.java:1242)     at com.sun.jmx.mbeanserver.JmxMBeanServer.removeNotificationListener(JmxMBeanServer.java:870)     at org.jboss.as.jmx.PluggableMBeanServerImpl$TcclMBeanServer.removeNotificationListener(PluggableMBeanServerImpl.java:1544)     at org.jboss.as.jmx.PluggableMBeanServerImpl.removeNotificationListener(PluggableMBeanServerImpl.java:969)     at org.jboss.as.jmx.rbac.JmxRbacTestCase$1.run(JmxRbacTestCase.java:368)     at org.jboss.as.jmx.rbac.JmxRbacTestCase$1.run(JmxRbacTestCase.java:254)     at java.security.AccessController.doPrivileged(Native Method)     at javax.security.auth.Subject.doAs(Subject.java:422)     at org.jboss.as.jmx.rbac.JmxRbacTestCase.checkMBeanAccess(JmxRbacTestCase.java:254)     at org.jboss.as.jmx.rbac.JmxRbacTestCase.testMonitorNonSensitiveMBeans(JmxRbacTestCase.java:219) The problem is the TestModelMBean used by the test is not holding a ref to the \"listenerWrapper\" that the JVM MBeanServer passes into its addNotificationListener method. That allows that listenerWrapper to be gc\u0027d, resulting in the failure of the removeNotificationListener call on the next line of the test. The test holding a ref to the listener doesn\u0027t matter, as it\u0027s a \"listenerWrapper\" object that matters.","file_goldset":["org.jboss.as.jmx.rbac.Bean","org.jboss.as.jmx.rbac.TestModelMBean"],"creation_date":"2015-10-07T17:13:27.000-05:00","resolution_date":"2015-10-19T18:48:35.000-05:00"}
{"id":551,"bug_id":"WFCORE-815","text":"One profile can have more ancestors with same submodules. Description of problem: One profile can have more ancestors with same submodules. It leads to WFLYCTL0212: Duplicate resource [(\"subsystem\" \u003d\u003e \"subsystem_name\")] . Hierarchical composition of profiles was added to AS with EAP7-281 and WFCORE-382 How reproducible: Always Steps to Reproduce: get fresh EAP . /domain.sh . /jboss-cli.sh -c /profile\u003dmail-01:add /profile\u003dmail-02:add /profile\u003dmail-01/subsystem\u003dmail:add /profile\u003dmail-02/subsystem\u003dmail:add /profile\u003ddefault-new:add /profile\u003ddefault-new:list-add(name\u003dincludes, value\u003dmail-01) /profile\u003ddefault-new:list-add(name\u003dincludes, value\u003dmail-02) Actual results: No errors. Expected results: { \"outcome\" \u003d\u003e \"failed\", \"failure-description\" \u003d\u003e {\"domain-failure-description\" \u003d\u003e \"WFLYCTL0401: Profile \u0027mail-01\u0027 defines subsystem \u0027mail\u0027 which is also defined in its ancestor profile \u0027mail-02\u0027. Overriding subsystems is not supported\"}, \"rolled-back\" \u003d\u003e true } Workaround: Add any subsystem to default-new profile: /profile\u003dmail-01:add /profile\u003dmail-02:add /profile\u003dmail-01/subsystem\u003dmail:add /profile\u003dmail-02/subsystem\u003dmail:add /profile\u003ddefault-new:add /profile\u003ddefault-new/subsystem\u003djdr:add /profile\u003ddefault-new:list-add(name\u003dincludes, value\u003dmail-01) /profile\u003ddefault-new:list-add(name\u003dincludes, value\u003dmail-02)","file_goldset":["org.jboss.as.host.controller.logging.HostControllerLogger","org.jboss.as.domain.controller.operations.SocketBindingGroupIncludesHandlerTestCase","org.jboss.as.domain.controller.operations.ProfileIncludesHandlerTestCase"],"creation_date":"2015-07-13T07:57:45.000-05:00","resolution_date":"2015-07-15T13:34:32.000-05:00"}
{"id":552,"bug_id":"WFCORE-1062","text":"Deployments from the domain/data/content folder goes missing after few minutes if the Host controller is started with --backup option.. Host controller started with --backup option deletes the deployments from the domain/data/content folder after approximately 10 mins. The deployment is restored or recreated if the HostController is started. Version-Release number of selected component (if applicable): 6.4. x How reproducible: Steps to Reproduce: 1. Setup domaincontroller 2. Setup hostcontroller 3. Start domaincontroller 4. Start hostcontroller with --backup option. 5. deploy an application using cli or admin console . /jboss-cli.sh --connect --controller\u003dx.x.x.x:9999 --command\u003d\u0027deploy /PathToApp/App. war --server-groups\u003dmain-server-group\u0027 6. deployments are available under $JBOSS_HOME/domain/data/content 7. Wait for approximately 10 minutes 8. Cached deployments are deleted on hostcontroller (domain/data/content is empty). Following is the logging seen on the console : ++++++++++++++ [Host Controller] 14:20:40,439 INFO  [org.jboss.as.repository] (Host Controller Service Threads - 4) JBAS014903: Content /NotBackedUp/JAR-Folder/EAPs/EAP6/jboss-eap-6.4.3-Patched/domain/data/content/47/1108a27fa1b82e6a92fb56ee25bc76f2625249 is obsolete and will be removed [Host Controller] 14:20:40,440 INFO  [org.jboss.as.repository] (Host Controller Service Threads - 4) JBAS014901: Content removed from location /NotBackedUp/JAR-Folder/EAPs/EAP6/jboss-eap-6.4.3-Patched/domain/data/content/47/1108a27fa1b82e6a92fb56ee25bc76f2625249/content ++++++++++++++ 9. After restarting the Host Controller, the deployment is restored and the cached deployment can now be seen under the Host Controller\u0027s domain/data/content folder. Actual results: Deployment folder form domain/data/content folder gets deleted after approx 10 mins and are restored if the Host Controller is restarted Expected results: The cached deplpyments folder should never be removed from the HostController\u0027s domain/data/content folder. Additional info: This does not affect the availability of the application since the applications are also availbale with the assigned server\u0027s under their data/content folder.","file_goldset":["org.jboss.as.domain.controller.resources.DomainDeploymentResourceDefinition","org.jboss.as.domain.controller.operations.deployment.DeploymentAddHandler","org.jboss.as.controller.persistence.FilePersistenceUtils","org.jboss.as.server.deployment.ContentCleanerService","org.jboss.as.repository.ContentRepository"],"creation_date":"2015-10-20T09:33:46.000-05:00","resolution_date":"2015-10-22T13:43:41.000-05:00"}
{"id":553,"bug_id":"WFCORE-989","text":"Premature registration of reconnecting server. ServerInventoryImpl.reconnectServer is registering the ProxyController for the reconnecting server with the DomainModelControllerService. The problem is that ProxyController is not yet in a state where it can forward requests to the server. That won\u0027t happen until the server calls back with a DomainServerProtocol.SERVER_RECONNECT_REQUEST and the ServerToHostProtocolHandler.ServerReconnectRequestHandler handles it. The effect is if a request for the server comes in during this window, it will fail. If that request is part of a domain operation rollout (because during the window the HC regarded the server as \u0027live\u0027 and instructed the DC to send rollout ops to it), then the domain rollout will be affected. This happened in the testsuite failure I just saw. Most significant logging is as follows: 2015-09-18 17:59:32,229 INFO  [org.jboss.as] (Controller Boot Thread) WFLYSRV0025: WildFly Core 2.0.0.CR2-SNAPSHOT \"Kenny\" (Host Controller) started in 93ms - Started 48 of 51 services (15 services are lazy, passive or on-demand) 2015-09-18 17:59:32,247 INFO  [org.jboss.as.controller.management-operation] (Remoting \"slave:MANAGEMENT\" task-16) Initialized for 1849055188 2015-09-18 17:59:32,247 INFO  [org.jboss.as.host.controller] (Remoting \"slave:MANAGEMENT\" task-14) WFLYHC0021: Server [Server:main-three] connected using connection [Channel ID 08aa200b (inbound) of Remoting connection 27e3d90d to /127.0.0.1:49272] 2015-09-18 17:59:32,247 INFO  [org.jboss.as.host.controller] (Remoting \"slave:MANAGEMENT\" task-15) WFLYHC0021: Server [Server:other-two] connected using connection [Channel ID 02bd2646 (inbound) of Remoting connection 64a8b7f2 to /127.0.0.1:49273] 2015-09-18 17:59:32,247 INFO  [org.jboss.as.controller.management-operation] (Host Controller Service Threads - 34) Initialized for 1849055188 2015-09-18 17:59:32,252 INFO  [org.jboss.as.controller.management-operation] (Host Controller Service Threads - 34) sending prepared response for 1849055188  --- interrupted: false 2015-09-18 17:59:32,254 INFO  [org.jboss.as.controller.management-operation] (Remoting \"slave:MANAGEMENT\" task-1) Initialized for 1933145457 2015-09-18 17:59:32,254 INFO  [org.jboss.as.controller.management-operation] (Remoting \"slave:MANAGEMENT\" task-1) Initialized for 481103151 2015-09-18 17:59:32,254 INFO  [org.jboss.as.controller.management-operation] (Host Controller Service Threads - 36) Initialized for 1933145457 2015-09-18 17:59:32,254 INFO  [org.jboss.as.controller.management-operation] (Host Controller Service Threads - 37) Initialized for 481103151 2015-09-18 17:59:32,255 INFO  [org.jboss.as.controller.management-operation] (Host Controller Service Threads - 36) sending pre-prepare failed response for 1933145457  --- interrupted: false 2015-09-18 17:59:32,256 INFO  [org.jboss.as.controller.management-operation] (Host Controller Service Threads - 37) sending pre-prepare failed response for 481103151  --- interrupted: false The HC completes boot. Then servers main-three and other-two register. The HC sends a prepared response to a request. This is the host rollout request to the slave from the DC with the response being the ops to invoke on the servers. The HC reports sending a \"pre-prepare failed response\" to two requests. These are the requests the DC has asked it to proxy to the servers. The result of all this for the client is the following failure of a management op: Failed operation: { \"operation\" \u003d\u003e \"add\", \"address\" \u003d\u003e [(\"extension\" \u003d\u003e \"org.jboss.as.test.hc.extension\")] } Response: { \"outcome\" \u003d\u003e \"failed\", \"result\" \u003d\u003e undefined, \"failure-description\" \u003d\u003e {\"WFLYDC0074: Operation failed or was rolled back on all servers. Server failures:\" \u003d\u003e {\"server-group\" \u003d\u003e { \"main-server-group\" \u003d\u003e {\"host\" \u003d\u003e {\"slave\" \u003d\u003e {\"main-three\" \u003d\u003e \"WFLYHC0153: Channel closed\"}}}, \"other-server-group\" \u003d\u003e {\"host\" \u003d\u003e {\"slave\" \u003d\u003e {\"other-two\" \u003d\u003e \"WFLYHC0153: Channel closed\"}}} }}}, \"rolled-back\" \u003d\u003e true, \"server-groups\" \u003d\u003e { \"main-server-group\" \u003d\u003e {\"host\" \u003d\u003e { \"master\" \u003d\u003e {\"main-one\" \u003d\u003e {\"response\" \u003d\u003e { \"outcome\" \u003d\u003e \"failed\", \"result\" \u003d\u003e [(\"HC\" \u003d\u003e \"1.1.1\")], \"rolled-back\" \u003d\u003e true }}}, \"slave\" \u003d\u003e {\"main-three\" \u003d\u003e {\"response\" \u003d\u003e { \"outcome\" \u003d\u003e \"failed\", \"result\" \u003d\u003e undefined, \"failure-description\" \u003d\u003e \"WFLYHC0153: Channel closed\", \"rolled-back\" \u003d\u003e true }}} }}, \"other-server-group\" \u003d\u003e {\"host\" \u003d\u003e {\"slave\" \u003d\u003e {\"other-two\" \u003d\u003e {\"response\" \u003d\u003e { \"outcome\" \u003d\u003e \"failed\", \"result\" \u003d\u003e undefined, \"failure-description\" \u003d\u003e \"WFLYHC0153: Channel closed\", \"rolled-back\" \u003d\u003e true }}}}} } } The \"WFLYHC0153: Channel closed\" failure is what is produced when an attempt is made to invoke on a disconnected proxy controller.","file_goldset":["org.jboss.as.host.controller.ServerInventoryImpl","org.jboss.as.host.controller.mgmt.ServerToHostProtocolHandler"],"creation_date":"2015-09-19T03:11:07.000-05:00","resolution_date":"2015-10-23T17:03:25.000-05:00"}
{"id":554,"bug_id":"WFCORE-834","text":"Capability resolution does not properly deal with \u0027included\u0027 profiles and socket-binding-groups. Resolution of capabilities declared in the domain \u0027profile\u0027 and \u0027socket-binding-group\u0027 resource tree works properly when the resources don\u0027t include others. But once \u0027includes\u0027 are declared, the capability resolution won\u0027t understand the relationship between the including resource and the included ones, and capabilities declared in the included ones will not be resolvable.","file_goldset":["org.jboss.as.controller.CompositeOperationHandler","org.jboss.as.controller.OperationContextImpl","org.jboss.as.controller.SocketCapabilityResolutionUnitTestCase","org.jboss.as.controller.capability.registry.CapabilityResolutionContext","org.jboss.as.controller.ModelControllerImpl","org.jboss.as.controller.AbstractOperationContext","org.jboss.as.controller.capability.registry.CapabilityId"],"creation_date":"2015-07-21T19:12:42.000-05:00","resolution_date":"2015-07-30T22:18:30.000-05:00"}
{"id":555,"bug_id":"WFCORE-894","text":"Empty properties list parsing leads to an error. PropertiesAttribute parser does not allow empty properties list which is redundant but valid. What is more removing last property using map-remove operation leads to a configuration with empty properties tags.","file_goldset":["org.jboss.as.controller.AttributeParsers","org.jboss.as.controller.operations.global.MapOperations"],"creation_date":"2015-08-20T08:12:07.000-05:00","resolution_date":"2015-08-21T19:54:07.000-05:00"}
{"id":556,"bug_id":"WFCORE-798","text":"Parser support missing for EAP 6.3 version of \u0027skip-group-loading\u0027. Trying to run WildFly full\u0027s ParseAndMarshalModelsTestCase against the EAP 6.3 configs results in failures like this: Caused by: javax.xml.stream.XMLStreamException: ParseError at [row,col]:[37,21] Message: WFLYCTL0197: Unexpected attribute \u0027skip-group-loading\u0027 encountered \tat org.jboss.as.controller.parsing.ParseUtils.unexpectedAttribute(ParseUtils.java:117) at org.jboss.as.domain.management.parsing.ManagementXml_Legacy.parseLocalAuthentication_1_3(ManagementXml_Legacy.java:2105) at org.jboss.as.domain.management.parsing.ManagementXml_Legacy.parseAuthentication_1_3(ManagementXml_Legacy.java:1486) at org.jboss.as.domain.management.parsing.ManagementXml_Legacy.parseSecurityRealm_1_3(ManagementXml_Legacy.java:779) at org.jboss.as.domain.management.parsing.ManagementXml_Legacy.parseSecurityRealms(ManagementXml_Legacy.java:649) at org.jboss.as.domain.management.parsing.ManagementXml_Legacy.parseManagement_1_5(ManagementXml_Legacy.java:224) at org.jboss.as.domain.management.parsing.ManagementXml_Legacy.parseManagement(ManagementXml_Legacy.java:151) at org.jboss.as.server.parsing.StandaloneXml_Legacy.readServerElement_1_4(StandaloneXml_Legacy.java:444) at org.jboss.as.server.parsing.StandaloneXml_Legacy.readElement(StandaloneXml_Legacy.java:136) \tat org.jboss.as.server.parsing.StandaloneXml.readElement(StandaloneXml.java:66) \tat org.jboss.as.server.parsing.StandaloneXml.readElement(StandaloneXml.java:47) \tat org.jboss.staxmapper.XMLMapperImpl.processNested(XMLMapperImpl.java:110) \tat org.jboss.staxmapper.XMLMapperImpl.parseDocument(XMLMapperImpl.java:69) \tat org.jboss.as.controller.persistence.XmlConfigurationPersister.load(XmlConfigurationPersister.java:123) \t... 136 more The EAP 6.4 configs have this attribute but don\u0027t fail, so it seems the problem is isolated to the 6.3 schema parsing; i.e. urn:jboss:domain:1.6.","file_goldset":["org.jboss.as.domain.management.parsing.ManagementXml_Legacy"],"creation_date":"2015-07-07T19:42:47.000-05:00","resolution_date":"2015-08-26T13:27:09.000-05:00"}
{"id":557,"bug_id":"WFCORE-922","text":"Remove unneeded cloning of model nodes when persisting the kernel configs. In the kernel part of domain.xml, host.xml and standalone.xml marshaling look to eliminate use of ModelNode.asPropertyList(), at least from spots where the ModelNode may be a large data structure. The asPropertyList() call results in a potentially expensive clone of data.","file_goldset":["org.jboss.as.host.controller.parsing.HostXml_4","org.jboss.as.host.controller.parsing.DomainXml_4","org.jboss.as.domain.management.parsing.ManagementXml_4","org.jboss.as.server.parsing.StandaloneXml_4"],"creation_date":"2015-08-26T21:07:03.000-05:00","resolution_date":"2015-08-28T22:36:44.000-05:00"}
{"id":558,"bug_id":"WFCORE-892","text":"Cli output of some tests contains only \"0: \" (instead of correct result). Description of problem: Cli output of some tests in wildfly core contains only \"0: \" (instead of correct result) How reproducible: 66% on RHEL \u0026\u0026 IBM JDK 8 Affected tests found so far: org.jboss.as.test.manualmode.vault.VaultPasswordsInCLITestCase#testWrongVaultPassword java.lang.AssertionError: Password should be wrong Expected: a string containing \"Keystore was tampered with, or password was incorrect\" but: was \"0: \" \tat org.hamcrest.MatcherAssert.assertThat(MatcherAssert.java:20) \tat org.junit.Assert.assertThat(Assert.java:865) \tat org.jboss.as.test.manualmode.vault.VaultPasswordsInCLITestCase.testWrongVaultPassword(VaultPasswordsInCLITestCase.java:135) org.jboss.as.test.manualmode.vault.VaultPasswordsInCLITestCase#testRightVaultPassword java.lang.AssertionError: Password should be right and authentication successful Expected: a string containing \"\\\"outcome\\\" \u003d\u003e \\\"success\\\"\" but: was \"0: \" \tat org.hamcrest.MatcherAssert.assertThat(MatcherAssert.java:20) \tat org.junit.Assert.assertThat(Assert.java:865) \tat org.jboss.as.test.manualmode.vault.VaultPasswordsInCLITestCase.testRightVaultPassword(VaultPasswordsInCLITestCase.java:148) org.wildfly.core.test.standalone.mgmt.HTTPSConnectionWithCLITestCase#testTrustedCLICertificate org.jboss.as.test.manualmode.management.cli.CustomVaultInCLITestCase#testWrongVaultPassword Steps to Reproduce: mvn install -Dts.manualmode -fae -Dmaven.test.failure.ignore\u003dtrue -Dnode0\u003d$MYTESTIP_1 -DfailIfNoTests\u003dfalse -Dtest\u003dVaultPasswordsInCLITestCase","file_goldset":["org.jboss.as.test.integration.management.util.CustomCLIExecutor"],"creation_date":"2015-08-19T15:20:34.000-05:00","resolution_date":"2015-11-25T19:13:59.000-06:00"}
{"id":559,"bug_id":"WFCORE-942","text":"Parameter completion for :read-resource and :read-children-resources is broken. When I try to use tab completion to add parameters to \"read-resource\" and \"read-children-resources\" operations, it does not suggest any params but instead just closes the parameter list.","file_goldset":["org.jboss.as.cli.operation.impl.DefaultOperationCandidatesProvider"],"creation_date":"2015-09-01T20:48:03.000-05:00","resolution_date":"2015-09-02T11:19:46.000-05:00"}
{"id":560,"bug_id":"WFCORE-896","text":"Cannot patch EAP once Docs are excluded from installation. EAP installer allows user to exclude some packs from installation. Docs directory is one of them. If user choose to do so, $JBOSS_HOME/docs directory is not present in distribution. Trying to apply a patch (contains changes with docs files) on such a distribution gives me: java.io.FileNotFoundException: /home/pkremens/workspace/jboss-eap-7.0/docs/schema/saml-schema-authn-context-xmldsig-2.0. xsd (No such file or directory) This could block customers, who are using installer to get EAP, from consuming the patches for CP releases in future. Patch was generated using: https://github.com/jbossas/patch-gen dr8_to_dr8x.zip patch.xml: \u003c?xml version\u003d\"1.0\" ?\u003e \u003cpatch xmlns\u003d\"urn:jboss:patch:1.0\" id\u003d\"dr8_to_dr8x\"\u003e \u003cdescription\u003e No description available \u003c/description\u003e \u003cupgrade name\u003d\"EAP\" version\u003d\"7.0.0.Alpha1\" to-version\u003d\"7.0.0.Alpha1\"/\u003e \u003celement id\u003d\"layer-base-dr8_to_dr8x\"\u003e \u003cdescription\u003e No description available \u003c/description\u003e \u003cupgrade name\u003d\"base\"/\u003e \u003c/element\u003e \u003cmisc-files\u003e \u003cadded path\u003d\"docs/schema/saml-schema-authn-context-xmldsig-2.1.xsd\" hash\u003d\"25d2e47a02d248101af86cff07daf9d51d8da379\"/\u003e \u003cupdated path\u003d\"docs/schema/saml-schema-ecp-2.0.xsd\" hash\u003d\"97984434c30816939c0f64b9388dc75d977a3b17\" new-hash\u003d\"fa7e234444b3c5d9ede81b4799dfaff8632d987a\"/\u003e \u003cremoved path\u003d\"docs/schema/saml-schema-authn-context-xmldsig-2.0.xsd\" hash\u003d\"25d2e47a02d248101af86cff07daf9d51d8da379\"/\u003e \u003c/misc-files\u003e \u003c/patch\u003e","file_goldset":["org.jboss.as.patching.runner.BundlePatchingTask","org.jboss.as.patching.runner.PatchingTaskDescription","org.jboss.as.patching.runner.AbstractPatchingTask","org.jboss.as.patching.metadata.ModificationBuilderTarget","org.jboss.as.patching.runner.PatchingTask","org.jboss.as.patching.runner.IdentityPatchRunner","org.jboss.as.patching.runner.FileRemoveTask","org.jboss.as.patching.tests.AbstractPatchTestBuilder","org.jboss.as.patching.metadata.PatchXml_1_0","org.jboss.as.patching.runner.FileUpdateTask","org.jboss.as.patching.tests.PatchStepAssertions","org.jboss.as.patching.metadata.PatchXml","org.jboss.as.patching.metadata.ContentModification","org.jboss.as.patching.runner.ModuleUpdateTask","org.jboss.as.patching.logging.PatchLogger","org.jboss.as.patching.metadata.PatchXmlUtils","org.jboss.as.patching.runner.ModuleRemoveTask","org.jboss.as.patching.runner.ContentModificationUtils","org.jboss.as.patching.metadata.RollbackPatchXml_1_0"],"creation_date":"2015-08-20T11:24:44.000-05:00","resolution_date":"2015-09-03T15:53:21.000-05:00"}
{"id":561,"bug_id":"WFCORE-955","text":"Server is not responding after attempt to set parent of profile to non-existent profile. Description of problem: Server is not responding after attempt to set parent of profile to non-existent profile. Server is not responding also after attempt to set parent of socket-binding-group to non-existent socket-binding-group. This works correctly on wildfly-core (2.0.0. Beta4). But this occurs on wildfly (master branch) and on EAP 7.0.0. DR9. It may be some integration issue. Priority of this jira tends to be critical. How reproducible: Always Steps to Reproduce (profile): Get fresh EAP . /domain.sh . /jboss-cli.sh /profile\u003dnew:add() /profile\u003dnew:write-attribute(name\u003dincludes,value\u003d[nonsence]) /profile\u003dnew:remove Actual results: [domain@localhost:9990 /] /profile\u003dnew:write-attribute(name\u003dincludes,value\u003d[nonsence]) { \"outcome\" \u003d\u003e \"failed\", \"failure-description\" \u003d\u003e \"java.lang.NullPointerException:null\" } [domain@localhost:9990 /] /profile\u003dnew:remove server needs to be restarted Expected results: [domain@localhost:9990 /] /profile\u003dnew:write-attribute(name\u003dincludes,value\u003d[nonsence]) { \"outcome\" \u003d\u003e \"failed\", \"failure-description\" \u003d\u003e {\"domain-failure-description\" \u003d\u003e \"WFLYCTL0369: Required capabilities are not available: org.wildfly.domain.profile.nonsence in context \u0027profiles\u0027\"}, \"rolled-back\" \u003d\u003e true } [domain@localhost:9990 /] /profile\u003dnew:remove { \"outcome\" \u003d\u003e \"success\", \"result\" \u003d\u003e undefined, \"server-groups\" \u003d\u003e undefined } Steps to reproduce (socket-binding-group): Get fresh EAP . /domain.sh . /jboss-cli.sh /profile\u003dnew:add() /socket-binding-group\u003dtestt:add(default-interface\u003dpublic,includes\u003d[nonsence]) /profile\u003dnew:remove","file_goldset":["org.jboss.as.controller.logging.ControllerLogger","org.jboss.as.controller.OperationContextImpl","org.jboss.as.controller.AbstractOperationContext","org.jboss.as.controller.capability.registry.IncludingResourceCapabilityScope","org.jboss.as.controller.SocketCapabilityResolutionUnitTestCase","org.jboss.as.controller.AbstractCapabilityResolutionTestCase"],"creation_date":"2015-08-27T14:34:07.000-05:00","resolution_date":"2015-09-04T13:33:34.000-05:00"}
{"id":562,"bug_id":"WFCORE-868","text":"CLI if/else is not handling special characters strings with parenthesis. When using CLI if-else scripting that uses a string that contains parenthesis it fails with the following message: Failed to handle \u0027if (outcome \u003d\u003d success \u0026\u0026 result.value ! \u003d \"a64180c0)e7187af86b435229de904104\") of /system-property\u003dtest:read-resource\u0027: Unexpected operation at 49 in \u0027(outcome \u003d\u003d success \u0026\u0026 result.value ! \u003d \"a64180c0)e7187af86b435229de904104\")\u0027","file_goldset":["org.jboss.as.cli.handlers.ifelse.NotEqualsOperation","org.jboss.as.cli.handlers.ifelse.NotGreaterThanOperation","org.jboss.as.cli.handlers.ifelse.LesserThanOperation","org.jboss.as.cli.impl.ArgumentWithValue","org.jboss.as.cli.handlers.ifelse.IfHandler","org.jboss.as.cli.parsing.ifelse.test.IfExpressionParsingTestCase","org.jboss.as.cli.handlers.ifelse.BaseOperation","org.jboss.as.cli.handlers.ifelse.IfElseControlFlow","org.jboss.as.cli.handlers.ifelse.EqualsOperation","org.jboss.as.cli.parsing.DefaultStateWithEndCharacter","org.jboss.as.cli.parsing.ifelse.test.ComparisonTestBase","org.jboss.as.cli.handlers.ifelse.AndOperation","org.jboss.as.cli.handlers.ifelse.OrOperation","org.jboss.as.cli.handlers.ifelse.GreaterThanOperation","org.jboss.as.cli.handlers.ifelse.NotLesserThanOperation"],"creation_date":"2015-08-05T08:12:55.000-05:00","resolution_date":"2015-09-10T21:35:00.000-05:00"}
{"id":563,"bug_id":"WFCORE-980","text":"The capability registry fails to rollback properly. If we register an already registered capability at a new RegistrationPoint and the operation rollbacks the registry still has the new RegistrationPoint. The publishedFullRegistry should be a deep copy of the registry: Reproducer working with the WFCORE-949 pr: /socket-binding-group\u003dstandard-sockets/socket-binding\u003dmanagement-native:add(port\u003d9999, interface\u003dmanagement) /core-service\u003dmanagement/management-interface\u003dnative-interface:add(socket-binding\u003dnative-management, security-realm\u003dManagementRealm) /core-service\u003dmanagement/management-interface\u003dnative-interface:add(socket-binding\u003dmanagement-native, security-realm\u003dManagementRealm)","file_goldset":["org.jboss.as.controller.CapabilityRegistryTestCase","org.jboss.as.controller.CapabilityRegistry"],"creation_date":"2015-09-15T18:30:52.000-05:00","resolution_date":"2015-09-16T16:37:15.000-05:00"}
{"id":564,"bug_id":"WFCORE-876","text":"Reload or Shutdown inside IF statement is performed before the if/else block batch is executed. Executing a reload or shutdown inside an if/else block results in the reload or restart occurring before the other commands in the batch are executed. if (outcome \u003d\u003d success) of /subsystem\u003dlogging/logger\u003dorg.jboss.as.cli:read-resource() /subsystem\u003dlogging:write-attribute(name\u003duse-deployment-logging-config shutdown --restart\u003dtrue end-if This command will actually leave the server in a reload-required state. The shutdown, or reload, will occur before the write-attribute is executed.","file_goldset":["org.jboss.as.cli.handlers.ifelse.IfElseControlFlow","org.jboss.as.cli.handlers.trycatch.TryCatchFinallyControlFlow","org.jboss.as.test.integration.management.cli.TryCatchFinallyTestCase","org.jboss.as.test.integration.management.cli.ifelse.NonExistingPathComparisonTestCase","org.jboss.as.test.integration.management.cli.ifelse.BasicIfElseTestCase"],"creation_date":"2015-08-12T07:52:43.000-05:00","resolution_date":"2015-09-18T13:23:39.000-05:00"}
{"id":565,"bug_id":"WFCORE-949","text":"Removing http-interface autocompletes but fails. Executing /core-service\u003dmanagement/management-interface\u003dhttp-interface:remove() autocompletes but does not succeed. This is a link to a paste of the server stacktrace. http://pastebin.test.redhat.com/310136","file_goldset":["org.jboss.as.subsystem.test.AdditionalInitialization","org.wildfly.core.test.standalone.mgmt.HTTPSManagementInterfaceTestCase","org.jboss.as.jmx.RemotingConnectorResource","org.jboss.as.server.operations.HttpManagementRemoveHandler","org.jboss.as.host.controller.resources.NativeManagementResourceDefinition","org.jboss.as.test.integration.domain.HTTPSManagementInterfaceTestCase","org.jboss.as.server.operations.NativeRemotingManagementRemoveHandler","org.jboss.as.server.operations.NativeManagementRemoveHandler","org.jboss.as.host.controller.resources.HttpManagementResourceDefinition","org.wildfly.core.test.standalone.mgmt.HTTPSConnectionWithCLITestCase","org.jboss.as.remoting.management.ManagementRemotingServices","org.jboss.as.remoting.logging.RemotingLogger","org.jboss.as.server.mgmt.NativeManagementResourceDefinition","org.jboss.as.host.controller.operations.HttpManagementRemoveHandler","org.jboss.as.server.mgmt.HttpManagementResourceDefinition"],"creation_date":"2015-09-03T05:08:35.000-05:00","resolution_date":"2015-09-21T18:59:23.000-05:00"}
{"id":566,"bug_id":"WFCORE-940","text":"CLI gets fooled by early connection. CLI in confused by early connection to domain which is booting. CLI acts as I was connected to the standalone instance, some high level commands are not executable. [pkremens@dhcp-10-40-5-149 bin]$ . /domain.sh ... # run while domain is booting [pkremens@dhcp-10-40-5-149 bin]$ . /jboss-cli.sh -c [standalone@localhost:9999 /] # domain has fully booted [standalone@localhost:9999 /] ls -l ATTRIBUTE                VALUE                 TYPE launch-type              DOMAIN                STRING ... [standalone@localhost:9999 /] shutdown --host\u003dmaster --host is not allowed in the standalone mode.","file_goldset":["org.jboss.as.cli.impl.CommandContextImpl"],"creation_date":"2015-08-31T12:20:01.000-05:00","resolution_date":"2015-09-22T11:59:51.000-05:00"}
{"id":567,"bug_id":"WFCORE-1028","text":"Poor handling of invalid roles. A CLI request with an invalid value in the \"roles\" header results in improper behavior: [domain@localhost:9990 /] /host\u003d*:read-resource{roles\u003dslave-monitor} { \"outcome\" \u003d\u003e \"failed\", \"result\" \u003d\u003e [], \"rolled-back\" \u003d\u003e true } The op should fail because the role doesn\u0027t exist, but there is no failure-description. The following is dumped in the HC log: [Host Controller] 12:22:12,314 ERROR [org.jboss.as.controller.management-operation] (management-handler-thread - 3) WFLYCTL0013: Operation (\"resolve\") failed - address: ([]): java.lang.IllegalArgumentException: WFLYCTL0327: Unknown role \u0027slave-monitor\u0027 [Host Controller] \tat org.jboss.as.controller.access.rbac.StandardRoleMapper.canRunAs(StandardRoleMapper.java:95) [Host Controller] \tat org.jboss.as.controller.access.rbac.RunAsRoleMapper.mapRoles(RunAsRoleMapper.java:143) [Host Controller] \tat org.jboss.as.controller.access.rbac.RunAsRoleMapper.mapRoles(RunAsRoleMapper.java:71) [Host Controller] \tat org.jboss.as.controller.access.rbac.DefaultPermissionFactory.getUserPermissions(DefaultPermissionFactory.java:109) [Host Controller] \tat org.jboss.as.controller.access.permission.ManagementPermissionAuthorizer.authorize(ManagementPermissionAuthorizer.java:91) [Host Controller] \tat org.jboss.as.controller.access.management.DelegatingConfigurableAuthorizer.authorize(DelegatingConfigurableAuthorizer.java:99) [Host Controller] \tat org.jboss.as.controller.OperationContextImpl.getBasicAuthorizationResponse(OperationContextImpl.java:1753) [Host Controller] \tat org.jboss.as.controller.OperationContextImpl.authorize(OperationContextImpl.java:1651) [Host Controller] \tat org.jboss.as.controller.OperationContextImpl.readResourceFromRoot(OperationContextImpl.java:833) [Host Controller] \tat org.jboss.as.controller.OperationContextImpl.readResource(OperationContextImpl.java:818) [Host Controller] \tat org.jboss.as.controller.operations.global.GlobalOperationHandlers$ModelAddressResolver.execute(GlobalOperationHandlers.java:402) [Host Controller] \tat org.jboss.as.controller.operations.global.GlobalOperationHandlers$ModelAddressResolver.execute(GlobalOperationHandlers.java:306) [Host Controller] \tat org.jboss.as.controller.AbstractOperationContext.executeStep(AbstractOperationContext.java:890) [Host Controller] \tat org.jboss.as.controller.AbstractOperationContext.processStages(AbstractOperationContext.java:659) [Host Controller] \tat org.jboss.as.controller.AbstractOperationContext.executeOperation(AbstractOperationContext.java:370) [Host Controller] \tat org.jboss.as.controller.OperationContextImpl.executeOperation(OperationContextImpl.java:1336) [Host Controller] \tat org.jboss.as.controller.ModelControllerImpl.internalExecute(ModelControllerImpl.java:391) [Host Controller] \tat org.jboss.as.controller.ModelControllerImpl.execute(ModelControllerImpl.java:217) [Host Controller] \tat org.jboss.as.controller.remote.ModelControllerClientOperationHandler$ExecuteRequestHandler.doExecute(ModelControllerClientOperationHandler.java:207) [Host Controller] \tat org.jboss.as.controller.remote.ModelControllerClientOperationHandler$ExecuteRequestHandler.access$300(ModelControllerClientOperationHandler.java:129) [Host Controller] \tat org.jboss.as.controller.remote.ModelControllerClientOperationHandler$ExecuteRequestHandler$1$1.run(ModelControllerClientOperationHandler.java:151) [Host Controller] \tat org.jboss.as.controller.remote.ModelControllerClientOperationHandler$ExecuteRequestHandler$1$1.run(ModelControllerClientOperationHandler.java:147) [Host Controller] \tat java.security.AccessController.doPrivileged(Native Method) [Host Controller] \tat javax.security.auth.Subject.doAs(Subject.java:422) [Host Controller] \tat org.jboss.as.controller.AccessAuditContext.doAs(AccessAuditContext.java:92) [Host Controller] \tat org.jboss.as.controller.remote.ModelControllerClientOperationHandler$ExecuteRequestHandler$1.execute(ModelControllerClientOperationHandler.java:147) [Host Controller] \tat org.jboss.as.protocol.mgmt.AbstractMessageHandler$2$1.doExecute(AbstractMessageHandler.java:299) [Host Controller] \tat org.jboss.as.protocol.mgmt.AbstractMessageHandler$AsyncTaskRunner.run(AbstractMessageHandler.java:519) [Host Controller] \tat java.util.concurrent.ThreadPoolExecutor.runWorker(ThreadPoolExecutor.java:1142) [Host Controller] \tat java.util.concurrent.ThreadPoolExecutor$Worker.run(ThreadPoolExecutor.java:617) [Host Controller] \tat java.lang.Thread.run(Thread.java:745) [Host Controller] \tat org.jboss.threads.JBossThread.run(JBossThread.java:320)","file_goldset":["org.jboss.as.controller.logging.ControllerLogger","org.jboss.as.controller.operations.global.GlobalOperationHandlers","org.jboss.as.test.integration.domain.ServerManagementTestCase","org.jboss.as.controller.access.rbac.RoleMapper"],"creation_date":"2015-10-01T19:12:08.000-05:00","resolution_date":"2016-04-16T11:14:27.000-05:00"}
{"id":568,"bug_id":"WFCORE-931","text":"Embedded host-controller throws NPE on regular shutdown. Invoking the /host\u003dmaster:shutdown operation on embedded host-controller gives me NPE. Standalone [standalone@embedded /] shutdown The command is not available in the current context (e.g. required subsystems or connection to the controller might be unavailable). [standalone@embedded /] :shutdown { \"outcome\" \u003d\u003e \"failed\", \"failure-description\" \u003d\u003e \"WFLYCTL0031: No operation named \u0027shutdown\u0027 exists at address []\", \"rolled-back\" \u003d\u003e true } Domain Using operation style :shutdown throws NPE. Tab completion for this operation works, which could be a little bit misleading in this case. [domain@embedded /] shutdown --host\u003dmaster The command is not available in the current context (e.g. required subsystems or connection to the controller might be unavailable). [domain@embedded /] /host\u003dmaster:shutdown 13:34:57,512 ERROR [org.jboss.as.controller.management-operation] (AeshProcess: 3) WFLYCTL0013: Operation (\"shutdown\") failed - address: ([(\"host\" \u003d\u003e \"master\")]): java.lang.NullPointerException \tat org.jboss.as.host.controller.DomainModelControllerService.stopLocalHost(DomainModelControllerService.java:911) \tat org.jboss.as.host.controller.DomainModelControllerService.stopLocalHost(DomainModelControllerService.java:903) \tat org.jboss.as.host.controller.operations.HostShutdownHandler$1.execute(HostShutdownHandler.java:89) \tat org.jboss.as.controller.AbstractOperationContext.executeStep(AbstractOperationContext.java:846) \tat org.jboss.as.controller.AbstractOperationContext.processStages(AbstractOperationContext.java:637) \tat org.jboss.as.controller.AbstractOperationContext.executeOperation(AbstractOperationContext.java:362) \tat org.jboss.as.controller.OperationContextImpl.executeOperation(OperationContextImpl.java:1296) \tat org.jboss.as.controller.ModelControllerImpl.internalExecute(ModelControllerImpl.java:395) \tat org.jboss.as.controller.ModelControllerImpl.execute(ModelControllerImpl.java:212) \tat org.jboss.as.controller.ModelControllerImpl$3.execute(ModelControllerImpl.java:661) \tat org.jboss.as.controller.ModelControllerImpl$3.execute(ModelControllerImpl.java:651) \tat org.jboss.as.controller.client.helpers.DelegatingModelControllerClient.execute(DelegatingModelControllerClient.java:63) \tat org.jboss.as.cli.embedded.ThreadContextsModelControllerClient.execute(ThreadContextsModelControllerClient.java:59) \tat org.jboss.as.cli.handlers.OperationRequestHandler.handle(OperationRequestHandler.java:85) \tat org.jboss.as.cli.impl.CommandContextImpl.handle(CommandContextImpl.java:728) \tat org.jboss.as.cli.impl.CommandContextImpl.handleSafe(CommandContextImpl.java:774) \tat org.jboss.as.cli.impl.CommandContextImpl$2.execute(CommandContextImpl.java:389) \tat org.jboss.aesh.console.AeshProcess.run(AeshProcess.java:53) \tat java.util.concurrent.ThreadPoolExecutor.runWorker(ThreadPoolExecutor.java:1142) \tat java.util.concurrent.ThreadPoolExecutor$Worker.run(ThreadPoolExecutor.java:617) \tat java.lang.Thread.run(Thread.java:745) { \"outcome\" \u003d\u003e \"failed\", \"failure-description\" \u003d\u003e \"WFLYCTL0158: Operation handler failed: java.lang.NullPointerException\", \"rolled-back\" \u003d\u003e true } [domain@embedded /] :read-resource Failed to execute operation.: WFLYEMB0023: The embedded server is stopping and invocations on the ModelControllerClient are not available [domain@embedded /] stop-embedded-host-controller 13:35:19,252 ERROR [org.jboss.as.protocol] (AeshProcess: 5) WFLYPRT0003: Failed to close resource org.jboss.as.cli.embedded.ThreadContextsModelControllerClient@626966ee: java.lang.IllegalStateException: WFLYEMB0023: The embedded server is stopping and invocations on the ModelControllerClient are not available \tat org.wildfly.core.embedded.EmbeddedHostControllerFactory$HostControllerImpl.getActiveModelControllerClient(EmbeddedHostControllerFactory.java:331) \tat org.wildfly.core.embedded.EmbeddedHostControllerFactory$HostControllerImpl.access$200(EmbeddedHostControllerFactory.java:225) \tat org.wildfly.core.embedded.EmbeddedHostControllerFactory$HostControllerImpl$3.getDelegate(EmbeddedHostControllerFactory.java:309) \tat org.jboss.as.controller.client.helpers.DelegatingModelControllerClient.close(DelegatingModelControllerClient.java:103) \tat org.jboss.as.cli.embedded.ThreadContextsModelControllerClient.close(ThreadContextsModelControllerClient.java:139) \tat org.jboss.as.protocol.StreamUtils.safeClose(StreamUtils.java:66) \tat org.jboss.as.cli.impl.CommandContextImpl.disconnectController(CommandContextImpl.java:1165) \tat org.jboss.as.cli.embedded.StopEmbeddedHostControllerHandler.doHandle(StopEmbeddedHostControllerHandler.java:56) \tat org.jboss.as.cli.handlers.CommandHandlerWithHelp.handle(CommandHandlerWithHelp.java:88) \tat org.jboss.as.cli.impl.CommandContextImpl.handle(CommandContextImpl.java:751) \tat org.jboss.as.cli.impl.CommandContextImpl.handleSafe(CommandContextImpl.java:774) \tat org.jboss.as.cli.impl.CommandContextImpl$2.execute(CommandContextImpl.java:389) \tat org.jboss.aesh.console.AeshProcess.run(AeshProcess.java:53) \tat java.util.concurrent.ThreadPoolExecutor.runWorker(ThreadPoolExecutor.java:1142) \tat java.util.concurrent.ThreadPoolExecutor$Worker.run(ThreadPoolExecutor.java:617) \tat java.lang.Thread.run(Thread.java:745)","file_goldset":["org.jboss.as.host.controller.model.host.HostResourceDefinition"],"creation_date":"2015-08-28T12:00:07.000-05:00","resolution_date":"2015-09-23T00:44:31.000-05:00"}
{"id":569,"bug_id":"WFCORE-1007","text":"Warnings about missing notification descriptions when an operation removes an extension. When I use migration operation the console log is filled with warning messages of type WARN  [org.jboss.as.controller] (management-handler-thread - 1) WFLYCTL0357: Notification of type resource-removed is not described for the resource at the address [(\"subsystem\" \u003d\u003e \"jacorb\")] This is the same either for jacorb or web or messaging subsystem. If I do the sequence of operation [standalone@localhost:9999 /] /subsystem\u003djacorb:migrate() { \"outcome\" \u003d\u003e \"success\", \"result\" \u003d\u003e {\"migration-warnings\" \u003d\u003e []} } [standalone@localhost:9999 /] /subsystem\u003dmessaging:migrate() { \"outcome\" \u003d\u003e \"success\", \"result\" \u003d\u003e {\"migration-warnings\" \u003d\u003e []} } [standalone@localhost:9999 /] /subsystem\u003dwe web  webservices  weld [standalone@localhost:9999 /] /subsystem\u003dweb web  webservices [standalone@localhost:9999 /] /subsystem\u003dweb:migrate() { \"outcome\" \u003d\u003e \"success\", \"result\" \u003d\u003e {\"migration-warnings\" \u003d\u003e []} } then I the log looks like 2015-09-24 08:41:09,729 WARN  [org.jboss.as.controller] (management-handler-thread - 1) WFLYCTL0357: Notification of type resource-removed is not described for the resource at the address [(\"subsystem\" \u003d\u003e \"jacorb\")] 2015-09-24 08:43:13,229 WARN  [org.jboss.as.controller] (management-handler-thread - 7) WFLYCTL0357: Notification of type resource-removed is not described for the resource at the address [ (\"subsystem\" \u003d\u003e \"messaging\"), (\"hornetq-server\" \u003d\u003e \"default\"), (\"jms-queue\" \u003d\u003e \"DLQ\") ] 2015-09-24 08:43:13,230 WARN  [org.jboss.as.controller] (management-handler-thread - 7) WFLYCTL0357: Notification of type resource-removed is not described for the resource at the address [ (\"subsystem\" \u003d\u003e \"messaging\"), (\"hornetq-server\" \u003d\u003e \"default\"), (\"jms-queue\" \u003d\u003e \"ExpiryQueue\") ] 2015-09-24 08:43:13,230 WARN  [org.jboss.as.controller] (management-handler-thread - 7) WFLYCTL0357: Notification of type resource-removed is not described for the resource at the address [ (\"subsystem\" \u003d\u003e \"messaging\"), (\"hornetq-server\" \u003d\u003e \"default\"), (\"pooled-connection-factory\" \u003d\u003e \"hornetq-ra\") ] 2015-09-24 08:43:13,230 WARN  [org.jboss.as.controller] (management-handler-thread - 7) WFLYCTL0357: Notification of type resource-removed is not described for the resource at the address [ (\"subsystem\" \u003d\u003e \"messaging\"), (\"hornetq-server\" \u003d\u003e \"default\"), (\"connection-factory\" \u003d\u003e \"RemoteConnectionFactory\") ] 2015-09-24 08:43:13,231 WARN  [org.jboss.as.controller] (management-handler-thread - 7) WFLYCTL0357: Notification of type resource-removed is not described for the resource at the address [ (\"subsystem\" \u003d\u003e \"messaging\"), (\"hornetq-server\" \u003d\u003e \"default\"), (\"connection-factory\" \u003d\u003e \"InVmConnectionFactory\") ] 2015-09-24 08:43:13,231 WARN  [org.jboss.as.controller] (management-handler-thread - 7) WFLYCTL0357: Notification of type resource-removed is not described for the resource at the address [ (\"subsystem\" \u003d\u003e \"messaging\"), (\"hornetq-server\" \u003d\u003e \"default\"), (\"address-setting\" \u003d\u003e \"#\") ] 2015-09-24 08:43:13,231 WARN  [org.jboss.as.controller] (management-handler-thread - 7) WFLYCTL0357: Notification of type resource-removed is not described for the resource at the address [ (\"subsystem\" \u003d\u003e \"messaging\"), (\"hornetq-server\" \u003d\u003e \"default\"), (\"security-setting\" \u003d\u003e \"#\"), (\"role\" \u003d\u003e \"guest\") ] 2015-09-24 08:43:13,232 WARN  [org.jboss.as.controller] (management-handler-thread - 7) WFLYCTL0357: Notification of type resource-removed is not described for the resource at the address [ (\"subsystem\" \u003d\u003e \"messaging\"), (\"hornetq-server\" \u003d\u003e \"default\"), (\"security-setting\" \u003d\u003e \"#\") ] 2015-09-24 08:43:13,232 WARN  [org.jboss.as.controller] (management-handler-thread - 7) WFLYCTL0357: Notification of type resource-removed is not described for the resource at the address [ (\"subsystem\" \u003d\u003e \"messaging\"), (\"hornetq-server\" \u003d\u003e \"default\"), (\"in-vm-acceptor\" \u003d\u003e \"in-vm\") ] 2015-09-24 08:43:13,232 WARN  [org.jboss.as.controller] (management-handler-thread - 7) WFLYCTL0357: Notification of type resource-removed is not described for the resource at the address [ (\"subsystem\" \u003d\u003e \"messaging\"), (\"hornetq-server\" \u003d\u003e \"default\"), (\"remote-acceptor\" \u003d\u003e \"netty-throughput\"), (\"param\" \u003d\u003e \"direct-deliver\") ] 2015-09-24 08:43:13,233 WARN  [org.jboss.as.controller] (management-handler-thread - 7) WFLYCTL0357: Notification of type resource-removed is not described for the resource at the address [ (\"subsystem\" \u003d\u003e \"messaging\"), (\"hornetq-server\" \u003d\u003e \"default\"), (\"remote-acceptor\" \u003d\u003e \"netty-throughput\"), (\"param\" \u003d\u003e \"batch-delay\") ] 2015-09-24 08:43:13,233 WARN  [org.jboss.as.controller] (management-handler-thread - 7) WFLYCTL0357: Notification of type resource-removed is not described for the resource at the address [ (\"subsystem\" \u003d\u003e \"messaging\"), (\"hornetq-server\" \u003d\u003e \"default\"), (\"remote-acceptor\" \u003d\u003e \"netty-throughput\") ] 2015-09-24 08:43:13,233 WARN  [org.jboss.as.controller] (management-handler-thread - 7) WFLYCTL0357: Notification of type resource-removed is not described for the resource at the address [ (\"subsystem\" \u003d\u003e \"messaging\"), (\"hornetq-server\" \u003d\u003e \"default\"), (\"remote-acceptor\" \u003d\u003e \"netty\") ] 2015-09-24 08:43:13,234 WARN  [org.jboss.as.controller] (management-handler-thread - 7) WFLYCTL0357: Notification of type resource-removed is not described for the resource at the address [ (\"subsystem\" \u003d\u003e \"messaging\"), (\"hornetq-server\" \u003d\u003e \"default\"), (\"in-vm-connector\" \u003d\u003e \"in-vm\") ] 2015-09-24 08:43:13,234 WARN  [org.jboss.as.controller] (management-handler-thread - 7) WFLYCTL0357: Notification of type resource-removed is not described for the resource at the address [ (\"subsystem\" \u003d\u003e \"messaging\"), (\"hornetq-server\" \u003d\u003e \"default\"), (\"remote-connector\" \u003d\u003e \"netty-throughput\"), (\"param\" \u003d\u003e \"batch-delay\") ] 2015-09-24 08:43:13,234 WARN  [org.jboss.as.controller] (management-handler-thread - 7) WFLYCTL0357: Notification of type resource-removed is not described for the resource at the address [ (\"subsystem\" \u003d\u003e \"messaging\"), (\"hornetq-server\" \u003d\u003e \"default\"), (\"remote-connector\" \u003d\u003e \"netty-throughput\") ] 2015-09-24 08:43:13,235 WARN  [org.jboss.as.controller] (management-handler-thread - 7) WFLYCTL0357: Notification of type resource-removed is not described for the resource at the address [ (\"subsystem\" \u003d\u003e \"messaging\"), (\"hornetq-server\" \u003d\u003e \"default\"), (\"remote-connector\" \u003d\u003e \"netty\") ] 2015-09-24 08:43:13,235 WARN  [org.jboss.as.controller] (management-handler-thread - 7) WFLYCTL0357: Notification of type resource-removed is not described for the resource at the address [ (\"subsystem\" \u003d\u003e \"messaging\"), (\"hornetq-server\" \u003d\u003e \"default\") ] 2015-09-24 08:43:13,235 WARN  [org.jboss.as.controller] (management-handler-thread - 7) WFLYCTL0357: Notification of type resource-removed is not described for the resource at the address [(\"subsystem\" \u003d\u003e \"messaging\")] 2015-09-24 08:43:20,957 WARN  [org.jboss.as.controller] (management-handler-thread - 7) WFLYCTL0357: Notification of type resource-removed is not described for the resource at the address [ (\"subsystem\" \u003d\u003e \"web\"), (\"configuration\" \u003d\u003e \"jsp-configuration\") ] 2015-09-24 08:43:20,957 WARN  [org.jboss.as.controller] (management-handler-thread - 7) WFLYCTL0357: Notification of type resource-removed is not described for the resource at the address [ (\"subsystem\" \u003d\u003e \"web\"), (\"configuration\" \u003d\u003e \"static-resources\") ] 2015-09-24 08:43:20,958 WARN  [org.jboss.as.controller] (management-handler-thread - 7) WFLYCTL0357: Notification of type resource-removed is not described for the resource at the address [ (\"subsystem\" \u003d\u003e \"web\"), (\"configuration\" \u003d\u003e \"container\") ] 2015-09-24 08:43:20,958 WARN  [org.jboss.as.controller] (management-handler-thread - 7) WFLYCTL0357: Notification of type resource-removed is not described for the resource at the address [ (\"subsystem\" \u003d\u003e \"web\"), (\"virtual-server\" \u003d\u003e \"default-host\") ] 2015-09-24 08:43:20,958 WARN  [org.jboss.as.controller] (management-handler-thread - 7) WFLYCTL0357: Notification of type resource-removed is not described for the resource at the address [ (\"subsystem\" \u003d\u003e \"web\"), (\"connector\" \u003d\u003e \"http\") ] 2015-09-24 08:43:20,959 WARN  [org.jboss.as.controller] (management-handler-thread - 7) WFLYCTL0357: Notification of type resource-removed is not described for the resource at the address [(\"subsystem\" \u003d\u003e \"web\")] I think that the migration operation should not show those warnings.","file_goldset":["org.jboss.as.controller.logging.ControllerLogger","org.jboss.as.controller.AbstractOperationContext"],"creation_date":"2015-09-24T06:45:11.000-05:00","resolution_date":"2015-09-25T15:39:44.000-05:00"}
