{"id":526,"bug_id":"WFCORE-1120","text":"Launcher sets \"-Djava.net.preferIPv4Stack\u003dtrue\" also with IPv6 profile. Description of problem: Domain tests \"-Djava.net.preferIPv4Stack\u003dtrue\" also with IPv6 profile. This property is set in AbstractCommandBuilder of WildFly-Core: https://github.com/wildfly/wildfly-core/blob/master/launcher/src/main/java/org/wildfly/core/launcher/AbstractCommandBuilder.java#L50 There should be option for disable of this option in arquillian.xml file. And testsuite should use this option with IPv6 profile. How reproducible: Always Steps to Reproduce: . /integration-tests.sh -fae -Dmaven.test.failure.ignore\u003dtrue -Dnode0\u003d$MYTESTIPV6_1 -Dnode1\u003d$MYTESTIPV6_2 -Dipv6 -Dts.manualmode -Dtest\u003dOutboundLdapConnectionTestCase -DtestLogToFile\u003dfalse -Djboss.dist\u003d$JBOSS_DIST -Dts.noSmoke Actual results: 07:04:26,054 INFO  [org.jboss.as.arquillian.container.managed.ManagedDeployableContainer] (main) Starting container with: [/qa/tools/opt/jdk1.8.0_last/bin/java, ... -Djava.net.preferIPv4Stack\u003dtrue, -Djava.net.preferIPv4Stack\u003dfalse ... Expected results: EAP is not started with \"-Djava.net.preferIPv4Stack\u003dtrue\" property with IPv6 profile Additional info: Jenkins reproducer job: https://jenkins.mw.lab.eng.bos.redhat.com/hudson/view/EAP7/view/EAP7-AS-Testsuite/view/EAP7-AS-Testsuite-Reproducers/job/eap-7x-as-ts-ipv6-arqillian/jdk\u003djava18_default,label_exp\u003deap-sustaining\u0026\u0026RHEL6\u0026\u0026x86_64\u0026\u0026ipv6/2/console","file_goldset":["org.wildfly.core.launcher.CommandBuilderTest","org.wildfly.core.launcher.Arguments"],"creation_date":"2015-11-10T12:21:50.000-06:00","resolution_date":"2015-11-17T16:48:53.000-06:00"}
{"id":527,"bug_id":"WFCORE-1136","text":"Subsystem parser tests fail when woodstox parser is on classpath. When subsystem is testing remove resources and subsystem model is empty. Marshaling fails inside subsystem harness with Caused by: javax.xml.stream.XMLStreamException: Trying to write END_DOCUMENT when document has no root (ie. trying to output empty document). \tat com.ctc.wstx.sw.BaseStreamWriter.throwOutputError(BaseStreamWriter.java:1522) \tat com.ctc.wstx.sw.BaseStreamWriter.reportNwfStructure(BaseStreamWriter.java:1551) at com.ctc.wstx.sw.BaseStreamWriter. _finishDocument(BaseStreamWriter.java:1377) \tat com.ctc.wstx.sw.BaseStreamWriter.writeEndDocument(BaseStreamWriter.java:536) \tat org.jboss.staxmapper.FormattingXMLStreamWriter.writeEndDocument(FormattingXMLStreamWriter.java:215) \tat org.jboss.as.subsystem.test.TestParser.writeContent(TestParser.java:80) \tat org.jboss.as.subsystem.test.TestParser.writeContent(TestParser.java:51) \tat org.jboss.staxmapper.XMLMapperImpl.doDeparse(XMLMapperImpl.java:88) \tat org.jboss.staxmapper.XMLMapperImpl.deparseDocument(XMLMapperImpl.java:83) \tat org.jboss.as.controller.persistence.AbstractConfigurationPersister.marshallAsXml(AbstractConfigurationPersister.java:117) \t... 51 more","file_goldset":["org.jboss.as.subsystem.test.transformers.subsystem.map_to_child_resource.TransformerAttachmentAndInspectModelSubsystemTestCase","org.jboss.as.subsystem.test.TestParser"],"creation_date":"2015-11-17T16:00:10.000-06:00","resolution_date":"2015-12-04T19:15:01.000-06:00"}
{"id":528,"bug_id":"WFCORE-1134","text":"A java.lang.Error in Stage.DONE can lead to hangs. As part of investigating https://bugzilla.redhat.com/show_bug.cgi?id\u003d1259767 I\u0027ve looked into general handling of situations when java.lang.Error is thrown during management operation execution. Handling prior to Stage.DONE looks ok, with the error caught, logged and the failure-description on the response set. But if the error happens after commit or during rollback, it isn\u0027t always properly triggering a response. In the intra-domain case the remote node that has the problem tries to send a failure response to the calling HC, but uses the wrong request id, resulting in that response being dropped and the calling HC continuing to wait. A post-commit Error seems pretty unlikely. A rollback error seems more possible, as a rollback may involve installing significant numbers of services.","file_goldset":["org.jboss.as.controller.remote.ModelControllerClientOperationHandler","org.jboss.as.protocol.mgmt.ActiveOperationSupport","org.jboss.as.test.integration.domain.suites.DomainTestSuite","org.jboss.as.domain.controller.operations.coordination.DomainFinalResultHandler","org.jboss.as.protocol.mgmt.ManagementRequestContext","org.jboss.as.controller.remote.OperationAttachmentsProxy","org.jboss.as.controller.remote.TransactionalProtocolOperationHandler","org.jboss.as.protocol.mgmt.ActiveOperation","org.jboss.as.controller.logging.ControllerLogger","org.jboss.as.protocol.mgmt.ManagementResponseHeader","org.jboss.as.controller.remote.ResponseAttachmentInputStreamSupportTestCase","org.jboss.as.test.integration.domain.extension.ExtensionSetup","org.jboss.as.protocol.mgmt.AbstractMessageHandler"],"creation_date":"2015-11-16T21:40:20.000-06:00","resolution_date":"2015-12-16T22:49:00.000-06:00"}
