{"key":"CONFIGURATION-567","title":"XMLBeanDeclaration.getNestedBeanDeclarations() doesn\u0027t escape the node name when query the child node","description":"When query the nested bean declaration, the child name may contain the special character. So when call \"HierarchicalConfiguration.configurationsAt()\", the node name should be escaped by the expression engine first as the following\n\n\n\ngetConfiguration().getExpressionEngine().nodeKey(node,\"\")\n\n\n\nCall sequence to the problem code:\n\ngetNestedBeanDeclarations()\n\n-\u003enested.put(child.getName(), createBeanDeclaration(child));\n\n   -\u003eList\u003cHierarchicalConfiguration\u003e list \u003d getConfiguration().configurationsAt(node.getName());\n\n\n","creation_date":"2014-02-05T15:52:21.000-06:00","resolution_date":"2014-04-27T17:35:41.000-05:00","fixed_files":["org.apache.commons.configuration.beanutils.TestXMLBeanDeclaration","org.apache.commons.configuration.beanutils.XMLBeanDeclaration"]}
{"key":"CONFIGURATION-573","title":"The values of XML configuration keys having namespace prefix are null","description":"Consider such snippet:\n\n\n\npublic void testElementWithNameSpace() throws Exception {\n\n    String xml \u003d\n\n            \"\u003cConfig\u003e\\n\" +\n\n            \"\u003cdsig:Transforms xmlns:dsig\u003d\\\"http://www.w3.org/2000/09/xmldsig#\\\"\u003e\\n\" +\n\n            \"  \u003cdsig:Transform Algorithm\u003d\\\"http://www.w3.org/TR/1999/REC-xpath-19991116\\\"\u003e\\n\" +\n\n            \"    \u003cdsig:XPath xmlns:ietf\u003d\\\"http://www.ietf.org\\\" xmlns:pl\u003d\\\"http://test.test\\\"\u003eself::pl:policy1\u003c/dsig:XPath\u003e\\n\" +\n\n            \"  \u003c/dsig:Transform\u003e\\n\" +\n\n            \"  \u003cdsig:Transform Algorithm\u003d\\\"http://www.w3.org/TR/2001/REC-xml-c14n-20010315\\\"/\u003e\\n\" +\n\n            \"\u003c/dsig:Transforms\u003e\" +\n\n            \"\u003c/Config\u003e\";\n\n    final XMLConfiguration config \u003d new XMLConfiguration();\n\n    config.setAttributeSplittingDisabled(true);\n\n    config.setDelimiterParsingDisabled(true);\n\n    config.setExpressionEngine(new XPathExpressionEngine());\n\n\n\n    config.load(new StringReader(xml));\n\n    System.out.println(ConfigurationUtils.toString(config));\n\n}\n\n\n\nIt prints all keys as null:\n\n\n\ndsig:Transforms/dsig:Transform/dsig:XPath\u003dnull\n\ndsig:Transforms/dsig:Transform/dsig:XPath/@xmlns:ietf\u003dnull\n\ndsig:Transforms/dsig:Transform/dsig:XPath/@xmlns:pl\u003dnull\n\ndsig:Transforms/dsig:Transform/@Algorithm\u003dnull\n\ndsig:Transforms/@xmlns:dsig\u003dnull\n\n\n\nWithout XPathExpressionEngine set it prints correct values:\n\n\n\ndsig:Transforms.dsig:Transform.dsig:XPath\u003dself::pl:policy1\n\ndsig:Transforms.dsig:Transform.dsig:XPath[@xmlns:ietf]\u003dhttp://www.ietf.org\n\ndsig:Transforms.dsig:Transform.dsig:XPath[@xmlns:pl]\u003dhttp://test.test\n\ndsig:Transforms.dsig:Transform[@Algorithm]\u003d[http://www.w3.org/TR/1999/REC-xpath-19991116, http://www.w3.org/TR/2001/REC-xml-c14n-20010315]\n\ndsig:Transforms[@xmlns:dsig]\u003dhttp://www.w3.org/2000/09/xmldsig#\n\n\n\nJXPath 1.3 version dependecy was used.\nAm I missing something?","creation_date":"2014-04-03T08:49:53.000-05:00","resolution_date":"2014-04-29T20:39:01.000-05:00","fixed_files":["org.apache.commons.configuration.tree.xpath.TestXPathExpressionEngineInConfig","org.apache.commons.configuration.tree.xpath.ConfigurationNodeIteratorChildren","org.apache.commons.configuration.tree.xpath.ConfigurationNodeIteratorAttribute","org.apache.commons.configuration.tree.xpath.ConfigurationNodeIteratorBase","org.apache.commons.configuration.tree.xpath.TestConfigurationIteratorAttributes","org.apache.commons.configuration.tree.xpath.TestConfigurationNodeIteratorChildren"]}
{"key":"CONFIGURATION-581","title":"SystemConfiguration can not get the correct system property","description":"Currently the SystemConfiguration does not handle the scenario like below\n  System.setProperty(\"demoId\", \"demoValue\");\n  SystemConfiguration sysConf \u003d new SystemConfiguration ();\n  System.setProperties(new Properties(System.getProperties())));\n System.setProperty(\"demoId\", \"newDemoValue\");\n String propertyFromSysConf \u003d sysConf.getProperty(\"demoId\")\nIn the above code the value of propertyFromSysConf is demoValue but not newDemoValue, and I think the correct value should be newDemoValue","creation_date":"2014-06-05T06:39:42.000-05:00","resolution_date":"2014-06-10T20:34:29.000-05:00","fixed_files":["org.apache.commons.configuration.MapConfiguration","org.apache.commons.configuration.TestSystemConfiguration"]}
{"key":"CONFIGURATION-582","title":"PropertiesConfigurationLayout.getCanonicalComment throws StringIndexOutOfBoundsException when line before property has a single space","description":"When a properties file has a line with a single space in it, calling getCanonicalComment(\u003cpropertyKey\u003e, false) on the PropertiesConfigurationLayout will throw a StringIndexOutOfBoundsException. Below is the stack trace:\n\n\n\njava.lang.StringIndexOutOfBoundsException: String index out of range: 1\n\n\tat java.lang.String.charAt(String.java:686)\n\n\tat org.apache.commons.configuration.PropertiesConfigurationLayout.stripCommentChar(PropertiesConfigurationLayout.java:768)\n\n\tat org.apache.commons.configuration.PropertiesConfigurationLayout.trimComment(PropertiesConfigurationLayout.java:741)\n\n\tat org.apache.commons.configuration.PropertiesConfigurationLayout.constructCanonicalComment(PropertiesConfigurationLayout.java:900)\n\n\tat org.apache.commons.configuration.PropertiesConfigurationLayout.getCanonicalComment(PropertiesConfigurationLayout.java:212)\n\n\n","creation_date":"2014-06-18T04:51:18.000-05:00","resolution_date":"2014-09-10T14:17:51.000-05:00","fixed_files":["org.apache.commons.configuration.PropertiesConfigurationLayout","org.apache.commons.configuration.TestPropertiesConfigurationLayout"]}
