{"key":"106","title":"","description":"The \"Only Due Invoices\" checkbox does not function\ncorrectly for invoices with payment terms using the\n\"Fixed Date\" form. The batch version of generating\nPayment Selections does function correctly!"}
{"key":"109","title":"","description":"Using Garden World, if you select a date range from somewhere in 2001 to today then ALL invoices are selected regardless of document status OR client!!! Not so bad if you are printing them and posting them to customers but if you use the email option then drafted (and potentially cancelled) invoices are sent too!"}
{"key":"113","title":"Consolidated shipments are not invoiced","description":"Only the first order in a consolidated shipment is invoiced."}
{"key":"114","title":"","description":"When consolidated invoiced is voided or reversed only the first order (which is referenced on the  document header) is voided/reversed."}
{"key":"116","title":"","description":"However, you can only enter a STATE depending on the COUNTRY. When you then change the Country ALL PREVIOUS ENTRIES are reverted back to the initial settings."}
{"key":"1240","title":"Posting not balanced when is producing more than 1 produc","description":"The accounting is not balanced  when more that 1 product BOM is produced.      3. Then click on  \"Create/post Production\" button in the Production header tab, this create the production line.     6. click on \"Not Postet\" Button, then there the botton label is changed to \"Dont Balanced\""}
{"key":"37","title":"","description":"Basically, the report viewer always jumps from the top\nof a page to the top of the next page when you attempt\nto scroll. If your screen is too small/ resolution too\nlow you can never see the bottom of the page."}
{"key":"814","title":"In Production fractional Qty becomes zero on production","description":"If we have quantity of BOM products in fractions then when we create production that automatically generates the ProductionLines for the product shows 0 for the items that have quantities in fractions."}
{"key":"815","title":"","description":"In landed cost form if we select the \"Costs\" as our cost distribution type then it is not working i.e. it is not generating any Landed cost allocation records."}
{"key":"820","title":"ProductNotOnPriceList Error when creating PO From Requisitio","description":"When we try to create a Purchase Order from using \"Create PO from Requisition\" process then it shows product not on price list exception, this is due as in \"RequisitionPOCreate.java\" we have not set the PriceList of order from Requisition and it choose the default price list and if that product is not on that pricelist than it throws exception."}
