{"key":"220","title":"OSD not displayed when jumping to next or previous track","description":"OSD only appears when pressing play button (after stop the track)"}
{"key":"230","title":"","description":"Problem: aTunes does not set tags for some mp3 files.   Subsequently, when aTunes tries to set this property, en exception is thrown. And the tags are not updated. Console output:"}
{"key":"231","title":"Can\u0027t add image if repository was read by older app version","description":"Adding image not possible.  public boolean isSupportsInternalImage() returns false as was never set to true (as not supported in old versions)."}
{"key":"240","title":"\"Set lyrics automatically\" cannot be terminated","description":"If I perform that action on an obscure artist whose lyrics will not be found, the \"Performing changes...\" window appears and never goes away. I\u0027ve literally waited for ten minutes on occasion; the lyrics are never found, and the window never closes. Since that window makes it impossible to do anything with aTunes, when this happens, I must forcefully kill the program.  The window has no cancel button; it _does_  have an \u0027X\u0027 button, but it does not actually do anything. While less frequent, I\u0027ve also had perpetual \"Performing changes...\" windows occur while trying to do other tag-related tasks."}
{"key":"245","title":"Radio \"Labels\" can not be added to playlist","description":"When trying to add a folder or label of radios to the playlist, this is not possible. For example it is not possible to add all \"Classical\" stations to the playlist by draging the folder icon into it."}
{"key":"260","title":"","description":"aTunes v1.11.0\nFull Screen looks like screenshot."}
{"key":"264","title":"Wrong song duration displayed by player","description":"On some longer songs that I bought from Amazon, the player displays the wrong song length when the song is playing. Example - the song 49:00 by Paul Westerberg is 43:55, but when the song starts playing, the time at the bottom of the player is 86:34. The time is correct in the info dialog.  It\u0027s two songs are both about 18:00 minutes long but show up as more than 36:00 in the player.  The songs sound ok - no problem with the actual playing."}
{"key":"207","title":"","description":"Hi, when I click on \"view -\u003e Full screen\" or F11 the full screen appear for 1 second and after that aTune back to standard view."}
{"key":"278","title":"","description":"The dialog allows me to edit a title, but as soon as I hit enter, tab, or mouse click another title, the change reverts to \"Track n\"."}
{"key":"212","title":"","description":"When the artist tab is selected, the picture, biography and album info is correct but very often the name is not. It is often from a prior song and will often linger for 2-3 songs"}
{"key":"281","title":"","description":"I tried to use the tray icon mute but it doesn\u0027t have effect unless I use the main UI\u0027s mute. I mute the OS but the GUI doesn\u0027t display oin the main UI Wondow or the tray icon."}
{"key":"213","title":"Not supported formats are not skipped under Xine","description":"Actual behaviour: - aTunes get stuck"}
