{"id":258,"bug_id":"PIG-2767","text":"Pig creates wrong schema after dereferencing nested tuple fields. The following script fails:        The schema of \"dereferenced\" should be {f1: int, nested_tuple: (f2: int,\nf3: int)}. DESCRIBE thinks it is {f1: int, f2: int} instead. When dump is\nused, the data is actually in form of the correct schema however, ex.     Because the schema is incorrect,\nthe reference to \"nested_tuple\" in the \"uses_dereferenced\" statement is\nconsidered to be invalid, and the script fails to run. The error is:   PigStorage()  ;\nDESCRIBE dereferenced;\n\n nested_tuple.f3;\nDESCRIBE uses_dereferenced;\n\n {f1: int, nested_tuple: (f2: int,\nf3: int)} {f1: int, f2: int}","class_goldset":["src.org.apache.pig.newplan.logical.expression.DereferenceExpression","test.org.apache.pig.test.TestPigServer"],"file_goldset":["src.org.apache.pig.newplan.logical.expression.DereferenceExpression","test.org.apache.pig.test.TestPigServer"],"creation_date":"2012-06-25T14:11:20.000+0000","resolution_date":"2013-04-22T20:13:20.000+0000"}
{"id":259,"bug_id":"PIG-2828","text":"Handle nulls in DataType.compare. While using TOP, and if the DataBag contains null value to compare, it will generate the following exception:                 The reason is that if the typeFound is true , and the dataType is not null, and field1 is null, the script failed. So we need to judge the field1 whether is null. Object field1 \u003d o1.get(fieldNum);\n                Object field2 \u003d o2.get(fieldNum);\n                if (!typeFound) {\n                    datatype \u003d DataType.findType(field1);\n                    typeFound \u003d true;\n                }\n                return DataType.compare(field1, field2, datatype, datatype);","class_goldset":["src.org.apache.pig.builtin.TOP","src.org.apache.pig.data.DataType","test.org.apache.pig.test.TestNull"],"file_goldset":["src.org.apache.pig.builtin.TOP","src.org.apache.pig.data.DataType","test.org.apache.pig.test.TestNull"],"creation_date":"2012-07-19T10:03:16.000+0000","resolution_date":"2013-06-04T07:02:17.000+0000"}
{"id":268,"bug_id":"PIG-3310","text":"ImplicitSplitInserter does not generate new uids for nested schema fields, leading to miscomputations. Consider the following example       On input data:\n{code}\n1       1001    101\n1       1002    103\n1       1003    102\n1       1004    102\n2       1005    101\n2       1003    101\n2       1002    123\n3       1042    101\n3       1005    101\n3       1002    133\n{code} This will give a wrongful output like . . {code} (1 1001,1001) (1 1002,1002) (1 1002,1002) (1 1002,1002) {code} The second column should be a member id so (1,2,3,4,5).                           {code}\n as shop;\n\nEXPLAIN K;\nDUMP K;\n{code}\n\n {code}\n {code}\n\n {code}\n {code}\n {code}\n    {code}\n\n {code}\n {code}\n\n LOSplitOutput.getSchema()","class_goldset":["src.org.apache.pig.newplan.logical.relational.LOSplitOutput"],"file_goldset":["src.org.apache.pig.newplan.logical.relational.LOSplitOutput"],"creation_date":"2013-05-03T07:59:57.000+0000","resolution_date":"2013-05-30T18:57:12.000+0000"}
