{"id":937,"bug_id":"AMQP-170","text":"Trying to read a value from the header of a message I get that this value is of com.rabbitmq.client.impl.LongStringHelper.ByteArrayLongString type, when it was supposed to be String.","file_goldset":["org.springframework.amqp.rabbit.connection.RabbitUtils"],"creation_date":"2011-05-25T05:23:19.000-05:00","resolution_date":"2011-05-27T11:31:19.000-05:00"}
{"id":938,"bug_id":"AMQP-290","text":"I think both way should work. XSD documentation says: ref \u003d The bean name of the Map to pass to the broker when this component is declared.","file_goldset":["org.springframework.amqp.rabbit.config.AbstractExchangeParser","org.springframework.amqp.rabbit.config.ExchangeParserTests","org.springframework.amqp.rabbit.config.QueueParserTests","org.springframework.amqp.rabbit.config.QueueParser"],"creation_date":"2013-01-04T02:26:52.000-06:00","resolution_date":"2013-09-25T12:11:46.000-05:00"}
{"id":939,"bug_id":"AMQP-340","text":"It would be nice to have a notification (exception) about wrong credentials right away (there is a comprehensive rabbit client exception that gets swallowed in SimpleMessageListenerContainer.run())","file_goldset":["org.springframework.amqp.rabbit.listener.MessageListenerContainerLifecycleIntegrationTests","org.springframework.amqp.rabbit.support.RabbitExceptionTranslator","org.springframework.amqp.rabbit.listener.BlockingQueueConsumer"],"creation_date":"2013-11-18T09:41:01.000-06:00","resolution_date":"2013-12-02T12:39:09.000-06:00"}
{"id":940,"bug_id":"AMQP-434","text":"This exception should be either added to the throws clause OR caught and wrapped in convertMessageIfNecessary()","file_goldset":["org.springframework.amqp.support.converter.MessageConversionException"],"creation_date":"2014-10-21T05:21:17.000-05:00","resolution_date":"2014-10-23T01:47:58.000-05:00"}
{"id":941,"bug_id":"AMQP-516","text":"Making them exclusive and auto delete by default when using a random name seems like a good idea, but it should probably be changed to something like:","file_goldset":["org.springframework.amqp.rabbit.annotation.RabbitListenerAnnotationBeanPostProcessor","org.springframework.amqp.rabbit.annotation.EnableRabbitIntegrationTests"],"creation_date":"2015-08-06T01:25:34.000-05:00","resolution_date":"2015-08-07T09:46:00.000-05:00"}
{"id":942,"bug_id":"AMQP-633","text":"We should never return the resourceHolder if the resourceFactory.isSynchedLocalTransactionAllowed() is false.","file_goldset":["org.springframework.amqp.rabbit.core.RabbitTemplate","org.springframework.amqp.rabbit.listener.LocallyTransactedTests"],"creation_date":"2016-08-18T15:48:45.000-05:00","resolution_date":"2016-08-23T16:13:16.000-05:00"}
{"id":943,"bug_id":"AMQP-122","text":"Starting up with no broker can happen of course and so it would be reasonable to have a warning logged just once until the broker becomes available.","file_goldset":["org.springframework.amqp.rabbit.core.RabbitAdminTests","org.springframework.amqp.rabbit.config.AdminParserTests","org.springframework.amqp.rabbit.connection.ConnectionFactory","org.springframework.amqp.rabbit.config.AdminParser","org.springframework.amqp.rabbit.test.BrokerRunning","org.springframework.amqp.rabbit.core.RabbitAdmin","org.springframework.amqp.rabbit.connection.SingleConnectionFactory"],"creation_date":"2011-03-21T03:43:37.000-05:00","resolution_date":"2011-03-22T06:56:14.000-05:00"}
