{"id":965,"bug_id":"CONFIGURATION-214","text":"It could try to convert it to a Number first and then try to convert it to a long.","file_goldset":["org.apache.commons.configuration.TestBaseConfiguration","org.apache.commons.configuration.PropertyConverter","org.apache.commons.configuration.TestPropertyConverter"],"creation_date":"2006-05-26T21:35:46.000-05:00","resolution_date":"2006-06-02T02:55:45.000-05:00"}
{"id":966,"bug_id":"CONFIGURATION-242","text":"Interpolation should take all properties of the parent configuration into account.","file_goldset":["org.apache.commons.configuration.HierarchicalConfiguration","org.apache.commons.configuration.TestSubnodeConfiguration","org.apache.commons.configuration.TestHierarchicalConfiguration"],"creation_date":"2006-12-02T18:09:41.000-06:00","resolution_date":"2006-12-02T18:22:36.000-06:00"}
{"id":967,"bug_id":"CONFIGURATION-275","text":"ConfigurationUtils.append() appends the list object instead of the list elements to the target list. If the list [X, Y] is appended to the list [A, B], the result is [A, B, [X, Y]] instead of [A, B, X, Y]","file_goldset":["org.apache.commons.configuration.AbstractConfiguration"],"creation_date":"2007-05-25T17:12:43.000-05:00","resolution_date":"2007-07-09T20:36:22.000-05:00"}
{"id":968,"bug_id":"CONFIGURATION-481","text":"I get \"${myvar}-product\" instead of \"abc-product\".","file_goldset":["org.apache.commons.configuration.TestDefaultConfigurationBuilder","org.apache.commons.configuration.DefaultConfigurationBuilder","org.apache.commons.configuration.interpol.ConfigurationInterpolator"],"creation_date":"2012-02-26T20:27:46.000-06:00","resolution_date":"2012-02-29T21:15:55.000-06:00"}
