{"key":"PIG-1831","title":"Indeterministic behavior in local mode due to static variable PigMapReduce.sJobConf","description":"The below script when run in local mode gives me a different output.  For example consider the below script :                   And input is \nabcd    label1  11      feature1\nacbd    label2  22      feature2\nadbc    label3  33      feature3 Here if I store relation B and D then everytime i get the result  :\nacbd            3\nabcd            3\nadbc            3 But if i dont store relations B and D then I get an empty output. Here again I have observed that this behaviour is random ie sometimes like 1out of 5 runs there will be output. PigStorage()"}
{"key":"PIG-730","title":"problem combining schema from a union of several LOAD expressions, with a nested bag inside the schema.","description":"---\u003e Would expect both C and D to work, but only C works. D gives the error shown below. ---\u003e Turns out using outlinks.t.target (instead of outlinks.target) works for D but not for C.                                    flatten(outlinks.target);\n flatten(outlinks.target);"}
{"key":"PIG-1837","title":"Error while using IsEmpty function","description":"I have the following 2 inputs:   And the following script to work on the data:    After running for a while, I get the following error:  {(0)}  {(0)}"}
{"key":"PIG-767","title":"Schema reported from DESCRIBE and actual schema of inner bags are different.","description":"The following script:        Prints for the DESCRIBE commands:  The reported schemas for urlContentsG and urlContentsF are wrong. They are also against the section \"Schemas for Complex Data Types\" in http://wiki.apache.org/pig-data/attachments/FrontPage/attachments/plrm.htm#_Schemas.     BinStorage()  DESCRIBE urlContents;\nDUMP urlContents;\n\n BY url;\nDESCRIBE urlContentsG;\n\n urlContents.pg;\n\nDESCRIBE urlContentsF;\nDUMP urlContentsF;\n\n\n {url: chararray,pg: chararray}\n {group: chararray,urlContents: {url: chararray,pg: chararray}}\n {group: chararray,pg: {pg: chararray}}\n\n {group: chararray,urlContents: {t1:(url: chararray,pg: chararray)}}\n\n {chararray}  {(chararray)}"}
{"key":"PIG-1843","title":"NPE in schema generation","description":"Hit NPE in following script:\n{code}\na \u003d load \u0027table_testBagDereferenceInMiddle2\u0027 as (a0:chararray);\nb \u003d foreach a generate MapGenerate(STRSPLIT(a0).  Error message:                    {code}\n ;\n{code}\n{code}\npublic class MapGenerate extends EvalFunc\u003cMap\u003e {\n    @Override\n    public Map exec(Tuple input) throws IOException {\n        Map m \u003d new HashMap();\n        m.put(\"key\", new Integer(input.size()));\n        return m;\n    }\n    \n    @Override\n    public Schema outputSchema(Schema input) {\n        return new Schema(new Schema.FieldSchema(getSchemaName(\"parselong\", input), DataType.MAP));\n    }\n}\n{code}"}
{"key":"PIG-946","title":"Combiner optimizer does not optimize when limit follow group, foreach","description":"The following script is combinable but is not optimized:\na \u003d load \u0027/user/pig/tests/data/singlefile/studenttab10k\u0027;\nb \u003d group a by $1;\nc \u003d foreach b generate group, AVG(a.$2);\nd \u003d limit c 10;\ndump d; 10;\ndump d;"}
{"key":"PIG-1856","title":"Custom jar is not packaged with the new job created by LimitAdjuster ","description":"The script:   The script, however,  fails since the piggybank jar isn\u0027t shipped to the backend with the additional job created by the LimitAdjuster.  {code}\n {code}"}
{"key":"PIG-1858","title":"UDF in nested plan results frontend exception","description":"The below is my script :\n{code}\nregister myanotherudf.jar;\nA \u003d load \u0027myinput\u0027 using PigStorage() as ( date:chararray,bcookie:chararray,count:int,avg:double,pvs:int);\nB \u003d foreach A generate (int)(avg / 100.0) * 100   as avg, pvs;\nC \u003d group B by ( avg );\nD \u003d foreach C {\n        Pvs \u003d order B by pvs;\n        Const \u003d org.vivek.MyAnotherUDF(Pvs.pvs).     The below is the exception that I get :                               When i trun off new logical plan the script executes successfully.  {code}\n PigStorage()  {\n        Pvs \u003d order B by pvs;\n        Const \u003d org.vivek.MyAnotherUDF(Pvs.pvs).(count,sum);\n        generate Const.sum as sum;\n        } ;\n{code}"}
{"key":"PIG-1866","title":"Dereference a bag within a tuple does not work","description":"The following script does not work (both in new and old logical plan):         Error from old logical plan:               Error from new logical plan:             If we change \"b \u003d foreach a generate t.b1;\" to \"b \u003d foreach a generate t.i;\", it works fine, only refer to a bag does not work. {code}\n t.b1;\ndump b;\n{code}"}
{"key":"PIG-1868","title":"New logical plan fails when I have complex data types from udf","description":"The below is my script :  On C3 it fails with below message :\n{code}\nCouldn\u0027t find matching uid -1 for project (Name: Project Type: bytearray Uid: 45 Input: 0 Column: 1)\n{code} The below is the describe on C1 ;\n{code}\nC1: {seq: {t: (previous: (id: chararray,ts: int,url: chararray),current: (id: chararray,ts: int,url: chararray),next: (id: chararray,ts: int,url: chararray))}}\n{code} The script works if I turn off new logical plan or use Pig 0.7. {code}\n {\n Tuples \u003d order B1 by ts;\n generate Tuples;\n} { t: ( previous, current, next ) } as id;\ndump C3;\n{code}\n\n {code}\n {code}\n\n on C1 ;\n{code}\nC1: {seq: {t: (previous: (id: chararray,ts: int,url: chararray),current: (id: chararray,ts: int,url: chararray),next: (id: chararray,ts: int,url: chararray))}}\n{code}"}
{"key":"PIG-1892","title":"Bug in new logical plan : No output generated even though there are valid records","description":"I have the below script which provides me no output even though there are valid records in relation B which is used for the left out join.    For the script to work I have to turn off the coloumn prune optimizer by -t ColumnMapKeyPrune or rearrange the script such that;\nB0 \u003d filter A0 by ( (map2#\u0027params\u0027#\u0027prop\u0027 \u003d\u003d 464)   and (map2#\u0027params\u0027#\u0027query\u0027 is not null) and (map1#\u0027type\u0027 \u003d\u003d \u0027c\u0027) );\nC \u003d  filter A0 by ( (map2#\u0027params\u0027#\u0027prop\u0027 \u003d\u003d 464)   and (map2#\u0027params\u0027#\u0027query\u0027 is not null) and (map1#\u0027type\u0027 \u003d\u003d \u0027p\u0027) ); Maploader()"}
{"key":"PIG-1893","title":"Pig report input size -1 for empty input file","description":"In the following script:      If 1.txt is empty, Pig will report Successfully read -1 records from: \"1.txt\"   {code}\n by b0;\ndump c;\n{code}"}
{"key":"PIG-1188","title":"Padding nulls to the input tuple according to input schema","description":"Currently, the number of fields in the input tuple is determined by the data.  Here is one example: Pig script:      Input file:      Current result: {code} (1 2) (1 2,3) (1 {code}       {code}\n as (a0, a1);\ndump a;\n{code}\n {code}\n {code}\n {code}\n {code}\n\n {code}\n {code}"}
{"key":"PIG-1912","title":"non-deterministic output when a file is loaded multiple times","description":"I have a small demonstration script (actually, a directory with one main script and several other scripts that it calls) where the output (STOREd to a file) is not consistent between runs.  The problem appears to be that when a dataset X gets LOADed twice, with things other than LOADs occurring between the loads (like a FOREACH GENERATE), a FOREACH GENERATE that is later performed on X doesn\u0027t always choose the correct columns. The correctness of the output was highly variable on my computer, for one of my co-workers it *almost* always failed, and for two other of my co-workers they didn\u0027t see any failures, so it\u0027s likely to be a race condition or something like that. -- FILES FOR REPLICATING THE PROBLEM                                         -- correct_output.                   Non-deterministic in the sense that the output of the script is not\nthe same between different times it is run on the same input; usually\nthe input is right, but sometimes it\u0027s wrong for no apparent reason.  The scripts load the file data.csv and write to the output\ndirectory, but the file output/Y/part-m-00000 is sometimes different\nbetween consecutive runs.                       while (( i \u003c 10 ));  {results[*]}\n\n @operasolutions.com\n(360)"}
{"key":"PIG-1277","title":"Pig should give error message when cogroup on tuple keys of different inner type","description":"When we cogroup on a tuple, if the inner type of tuple does not match, we treat them as different keys.   Here is one example:\nUDF:\n{code}\npublic class MapGenerate extends EvalFunc\u003cMap\u003e {\n    @Override\n    public Map exec(Tuple input) throws IOException {\n        // TODO Auto-generated method stub\n        Map m \u003d new HashMap();\n        m.put(\"key\", new Integer(input.size()));\n        return m;\n    }\n    \n    @Override\n    public Schema outputSchema(Schema input) {\n        return new Schema(new Schema.FieldSchema(null, DataType.MAP));\n    }\n}\n{code} Pig script: \n{code}\na \u003d load \u00271.               Real result: {code} ((1 1),{(1,1)},{}) ((1 1),{},{(1,1)}) {code}  UDF:\n{code}\npublic class MapGenerate extends EvalFunc\u003cMap\u003e {\n    @Override\n    public Map exec(Tuple input) throws IOException {\n        // TODO Auto-generated method stub\n        Map m \u003d new HashMap();\n        m.put(\"key\", new Integer(input.size()));\n        return m;\n    }\n    \n    @Override\n    public Schema outputSchema(Schema input) {\n        return new Schema(new Schema.FieldSchema(null, DataType.MAP));\n    }\n}\n{code}\n\n {code}\n by (c0, c1);\ndump e;\n{code}\n\n {code}\n {code}\n\n {code}\n {code}\n\n {code}\n {(1,1)} {(1,1)} {code}\n\n {code}\n {(1,1)} {} {} {(1,1)} {code}"}
{"key":"PIG-1927","title":"Dereference partial name failed","description":"The following script fail:                          {code}\n generate e0;\ndescribe f;\n{code}"}
{"key":"PIG-1771","title":"New logical plan: Merge schema fail if LoadFunc.getSchema return different schema with \"Load...AS\"","description":"The following script fail:      Error message:          {code}\n BinStorage() tuple() ;\ndump auxData;\n{code}"}
{"key":"PIG-1935","title":"New logical plan: Should not push up filter in front of Bincond","description":"The following script produce wrong result:     We get nothing.  {code}\n PigStorage()  ;\ndump filtered;\n{code}"}
{"key":"PIG-1776","title":"changing statement corresponding to alias after explain , then doing dump gives incorrect result","description":"/* but dumping c after following steps gives incorrect results */      {code}\n {code}"}
{"key":"PIG-1963","title":"in nested foreach, accumutive udf taking input from order-by does not get results in order","description":"This happens only when secondary sort is not being used for the order-by. For example -\n{code}\na1 \u003d load \u0027fruits.txt\u0027 as (f1:int,f2);\na2 \u003d load \u0027fruits.txt\u0027 as (f1:int,f2);      {code}\n explain d;\ndump d;\n{code}"}
{"key":"PIG-1785","title":"New logical plan: uid conflict in flattened fields","description":"The following script produce wrong result:\n{code}\na \u003d load \u00271.  1 txt:    We get nothing. {code}\n b0\u003eb2;\ndump c;\n{code}\n\n {(1,2),(2,3)}"}
{"key":"PIG-1979","title":"New logical plan failing with ERROR 2229: Couldn\u0027t find matching uid -1 ","description":"The below is my script \n{code}\nregister myudf.jar;\nc01 \u003d LOAD \u0027input\u0027  USING org.test.MyTableLoader(\u0027\u0027);\nc02 \u003d FILTER c01  BY result \u003d\u003d \u0027OK\u0027  AND formatted IS NOT NULL  AND formatted !    The script is failing in building the plan, while applying for logical optimization rule for AddForEach.  The problem is happening when I try to include doc_005::category in the projection for relation finalresult.            The script goes through fine if I disable AddForEach rule by -t AddForEach {code}\n PigStorage() PigStorage() ;\n{code}\n\n {code}\n\n import java.io.IOException;\nimport org.apache.pig.EvalFunc;\nimport org.apache.pig.data.*;\nimport org.apache.pig.impl.logicalLayer.FrontendException;\nimport org.apache.pig.impl.logicalLayer.schema.Schema;\nimport org.apache.pig.impl.logicalLayer.schema.Schema.FieldSchema;\n\npublic class MyExtractor extends EvalFunc\u003cDataBag\u003e\n{\n  @Override\n\tpublic Schema outputSchema(Schema arg0) {\n\t  try {\n\t\t\treturn Schema.generateNestedSchema(DataType.BAG, DataType.CHARARRAY);\n\t\t} catch (FrontendException e) {\n\t\t\tSystem.err.println(\"Error while generating schema. \"+e);\n\t\t\treturn new Schema(new FieldSchema(null, DataType.BAG));\n\t\t}\n\t}\n\n  @Override\n  public DataBag exec(Tuple inputTuple)\n    throws IOException\n  {\n    try {\n      Tuple tp2 \u003d TupleFactory.getInstance().newTuple(1);\n      tp2.set(0, (inputTuple.get(0).toString()+inputTuple.hashCode()));\n      DataBag retBag \u003d BagFactory.getInstance().newDefaultBag();\n      retBag.add(tp2);\n      return retBag;\n    }\n    catch (Exception e) {\n      throw new IOException(\" Caught exception\", e);\n    }\n  }\n}\n\n {code}"}
{"key":"PIG-1808","title":"Error message in 0.8 not much helpful as compared to 0.7","description":"The below script fails both in 0.7 and 0.8 since A requires a valid schema to be defined. But the error message in 0.8 is not helpful. Error message in 0.8              Error message in 0.7      null;\nDUMP D;"}
{"key":"PIG-1993","title":"PigStorageSchema throw NPE with ColumnPruning","description":"The following script fail:       Error message:          {code}\n GENERATE a1;\ndump b;\n{code}"}
{"key":"PIG-1812","title":"Problem with DID_NOT_FIND_LOAD_ONLY_MAP_PLAN","description":"I have the following input files:     My script is listed below:             When running this script, I got a warning about \"Encountered Warning DID_NOT_FIND_LOAD_ONLY_MAP_PLAN 1 time(s)\" and pig error log as below:                                   But, when I removed the DISTINCT statement before COGROUP, i.e. \"B \u003d distinct B;\"  this script can run smoothly. I have also tried other reducer side operations like ORDER, it seems that they will also trigger above error.  {t:(id:chararray, wht:float)} flatten(cat_bag.id)  {\n        I \u003d order M by ts;\n        J \u003d order B by ts;\n        generate flatten(group) as (pkg:chararray, cat_id:chararray), J.ts as tsorig, I.ts as tsmap;\n}"}
{"key":"PIG-313","title":"Error handling aggregate of a computation","description":"Query which fails:  Error output:            {code}\n {code}\n\n {quote}\n {quote}"}
{"key":"PIG-1813","title":"Pig 0.8 throws ERROR 1075 while trying to refer a map in the result of  eval udf.Works with 0.7","description":"The above script fails when run with Pig 0.8 but runs fine with Pig 0.7 or if pig.usenewlogicalplan\u003dfalse. The below is the exception thrown in 0.8 :                   flatten(org.myudf.GETFIRST(value))  PigStorage()"}
