{"key":"DATACMNS-594","title":"Strange generics behaviour for multiply nested generic types","description":"This behaviour was incorrectly reported reopening DATACMNS-590 by me, sorry about that After the resolution of DATACMNS-590, we found another strange behaviour using Spring Data MongoDB, but only disabling the default type mapper resolution, which resolves the class type to map using an attribute. See github repo and run unit tests. I simplify a lot the domain model and use the generics in the minimal expression as possible to reproduce this, and I think now is much easier to understand. Take a close look at: CustomerNonTypedRepositoryTest.testFindOne CustomerNonTypedRepositoryTest.testFindOneItem Retrieving a Customer and navigate to ItemType will lead to a ClassCastException due the lost of generic type. But if we retrieve an Item and navigate to ItemType is ok. I know this is a corner case, and as said in DATACMNS-590 this will probably lead into a \u0027work-as-designed\u0027 resolution. We can\u0027t use the default type, because we are not using Spring to populate the database, but we think we can workaround this providing a custom type mapper. Thank you"}
{"key":"DATACMNS-68","title":"NullPointerException in AbstractPersistentProperty::getComponentType()","description":"class TestClassSet extends TreeSet\u003cObject\u003e { } class TestClassComplex { private String id; private TestClassSet testClassSet; public String getId() { return id; } public TestClassSet getTestClassSet() { return testClassSet; } public void setTestClassSet(TestClassSet testClassSet) { this.testClassSet \u003d testClassSet; } } The following code appears to work fine: List\u003cTestClassSet\u003e o \u003d mongoTemplate.findAll(TestClassSet.class); But this fails with the NPE below: List\u003cTestClassComplex\u003e o \u003d mongoTemplate.findAll(TestClassComplex.class); java.lang.NullPointerException: null         at org.springframework.data.mapping.model.AbstractPersistentProperty.getComponentType(AbstractPersistentProperty.java:147) ~[spring-data-commons-core-1.2.0.BUILD-20110826.083456-44.jar:na]         at org.springframework.data.mapping.model.AbstractPersistentProperty.isComplexType(AbstractPersistentProperty.java:136) ~[spring-data-commons-core-1.2.0.BUILD-20110826.083456-44.jar:na]         at org.springframework.data.mapping.model.AbstractPersistentProperty.isEntity(AbstractPersistentProperty.java:143) ~[spring-data-commons-core-1.2.0.BUILD-20110826.083456-44.jar:na]         at org.springframework.data.mapping.context.AbstractMappingContext.getNestedTypeToAdd(AbstractMappingContext.java:316) ~[spring-data-commons-core-1.2.0.BUILD-20110826.083456-44.jar:na]         at org.springframework.data.mapping.context.AbstractMappingContext.access$100(AbstractMappingContext.java:65) ~[spring-data-commons-core-1.2.0.BUILD-20110826.083456-44.jar:na]         at org.springframework.data.mapping.context.AbstractMappingContext$1.doWith(AbstractMappingContext.java:267) ~[spring-data-commons-core-1.2.0.BUILD-20110826.083456-44.jar:na]         at org.springframework.util.ReflectionUtils.doWithFields(ReflectionUtils.java:513) ~[spring-core-3.0.5.RELEASE.jar:3.0.5.RELEASE]         at org.springframework.data.mapping.context.AbstractMappingContext.addPersistentEntity(AbstractMappingContext.java:244) ~[spring-data-commons-core-1.2.0.BUILD-20110826.083456-44.jar:na]         at org.springframework.data.mapping.context.AbstractMappingContext.getPersistentEntity(AbstractMappingContext.java:165) ~[spring-data-commons-core-1.2.0.BUILD-20110826.083456-44.jar:na]         at org.springframework.data.mapping.context.AbstractMappingContext.getPersistentEntity(AbstractMappingContext.java:140) ~[spring-data-commons-core-1.2.0.BUILD-20110826.083456-44.jar:na]         at org.springframework.data.mapping.context.AbstractMappingContext.getPersistentEntity(AbstractMappingContext.java:65) ~[spring-data-commons-core-1.2.0.BUILD-20110826.083456-44.jar:na]         at org.springframework.data.mongodb.core.MongoTemplate.determineCollectionName(MongoTemplate.java:1105) ~[spring-data-mongodb-1.0.0.BUILD-20110826.114729-388.jar:na]         at org.springframework.data.mongodb.core.MongoTemplate.findAll(MongoTemplate.java:786) ~[spring-data-mongodb-1.0.0.BUILD-20110826.114729-388.jar:na] ..."}
{"key":"DATACMNS-609","title":"Multiple usage of repository setup means (XML or annotation) creates multiple bean definitions for RepositoryInterfaceAwareBeanPostProcessor","description":"Apparently every time the tag jpa:repositories is used in XML files, a new instance of RepositoryInterfaceAwareBeanPostProcessor is created and registered with the bean factory. This is mainly a performance problem because predictBeanType()-method is then called N times for every relevant bean. This can easily be reproduced with the version 51d1c5d of git@github.com:spring-projects/spring-data-jpa-examples.git by adding an extra stanza like \u003cjpa:repositories base-package\u003d\"org.springframework.dummy\" /\u003e to simple-repository-context.xml and running XmlConfigCachingRepositoryTests."}
{"key":"DATACMNS-114","title":"Wrong custom implementation automatically detected","description":"We have two repositories with a similar name suffix. Both repositories have a custom interface and implementation, also ending with a similar name suffix. When automatically scanning the repositories, and their custom implementation, the wrong custom implementation is wired to our repository bean. Resulting in the following exception: Caused by: java.lang.IllegalArgumentException: No property find found for type class com.myproject.Contract \tat org.springframework.data.repository.query.parser.Property.\u003cinit\u003e(Property.java:76) \tat org.springframework.data.repository.query.parser.Property.\u003cinit\u003e(Property.java:97) \tat org.springframework.data.repository.query.parser.Property.create(Property.java:312) \tat org.springframework.data.repository.query.parser.Property.create(Property.java:326) \tat org.springframework.data.repository.query.parser.Property.create(Property.java:326) \tat org.springframework.data.repository.query.parser.Property.create(Property.java:326) \tat org.springframework.data.repository.query.parser.Property.create(Property.java:292) \tat org.springframework.data.repository.query.parser.Property.from(Property.java:251) \tat org.springframework.data.repository.query.parser.Property.from(Property.java:232) \tat org.springframework.data.repository.query.parser.Part.\u003cinit\u003e(Part.java:48) \tat org.springframework.data.repository.query.parser.PartTree$OrPart.\u003cinit\u003e(PartTree.java:242) \tat org.springframework.data.repository.query.parser.PartTree.buildTree(PartTree.java:101) \tat org.springframework.data.repository.query.parser.PartTree.\u003cinit\u003e(PartTree.java:77) \tat org.springframework.data.jpa.repository.query.PartTreeJpaQuery.\u003cinit\u003e(PartTreeJpaQuery.java:56) \tat org.springframework.data.jpa.repository.query.JpaQueryLookupStrategy$CreateQueryLookupStrategy.resolveQuery(JpaQueryLookupStrategy.java:92) \tat org.springframework.data.jpa.repository.query.JpaQueryLookupStrategy$CreateIfNotFoundQueryLookupStrategy.resolveQuery(JpaQueryLookupStrategy.java:159) \tat org.springframework.data.jpa.repository.query.JpaQueryLookupStrategy$AbstractQueryLookupStrategy.resolveQuery(JpaQueryLookupStrategy.java:71) \tat org.springframework.data.repository.core.support.RepositoryFactorySupport$QueryExecutorMethodInterceptor.\u003cinit\u003e(RepositoryFactorySupport.java:303) \tat org.springframework.data.repository.core.support.RepositoryFactorySupport.getRepository(RepositoryFactorySupport.java:157) \tat org.springframework.data.repository.core.support.RepositoryFactoryBeanSupport.getObject(RepositoryFactoryBeanSupport.java:120) \tat org.springframework.data.repository.core.support.RepositoryFactoryBeanSupport.getObject(RepositoryFactoryBeanSupport.java:39) \tat org.springframework.beans.factory.support.FactoryBeanRegistrySupport.doGetObjectFromFactoryBean(FactoryBeanRegistrySupport.java:142) \t... 67 more For example: We have a repository named ContractRepository with a custom interface ContractRepositoryCustom and an implementation ContractRepositoryImpl, all defined inside the same package. In another package we have a repository, for another entity type, named AnotherContractRepository with a custom interface AnotherContractRepositoryCustom and an implementation AnotherContractRepositoryImpl. When starting the application context, the contractRepository bean is linked to our anotherContractRepositoryImpl rather than the contractRepositoryImpl. This behavior seems to be operating system dependent, as it only occurs on our Linux CI server. The cause of our problem can be found at AbstractRepositoryConfigDefinitionParser.detectCustomImplementation(...). It might be desirable to scan on getImplementationClassName() before applying the wildcard prefix."}
{"key":"DATACMNS-154","title":"Overwriting of delete(T entity) saveAndFlush(T entity); does not work anymore","description":"During initialization of the following repository an exception occurs for these two methods. public interface UserRepository extends JpaRepository\u003cUser, Long\u003e, PagingAndSortingRepository\u003cUser, Long\u003e { public User saveAndFlush(User entity); public void delete(User entity); } Caused by: org.springframework.beans.factory.BeanCreationException: Error creating bean with name \u0027userRepository\u0027: FactoryBean threw exception on object creation; nested exception is java.lang.IllegalArgumentException: Could not create query metamodel for method public abstract entities.User repositories.UserRepository.saveAndFlush(entities.User)!         at org.springframework.beans.factory.support.FactoryBeanRegistrySupport.doGetObjectFromFactoryBean(FactoryBeanRegistrySupport.java:149)         at org.springframework.beans.factory.support.FactoryBeanRegistrySupport.getObjectFromFactoryBean(FactoryBeanRegistrySupport.java:102)         at org.springframework.beans.factory.support.AbstractBeanFactory.getObjectForBeanInstance(AbstractBeanFactory.java:1442)         at org.springframework.beans.factory.support.AbstractBeanFactory.doGetBean(AbstractBeanFactory.java:248)         at org.springframework.beans.factory.support.AbstractBeanFactory.getBean(AbstractBeanFactory.java:193)         at org.springframework.beans.factory.support.DefaultListableBeanFactory.findAutowireCandidates(DefaultListableBeanFactory.java:848)         at org.springframework.beans.factory.support.DefaultListableBeanFactory.doResolveDependency(DefaultListableBeanFactory.java:790)         at org.springframework.beans.factory.support.DefaultListableBeanFactory.resolveDependency(DefaultListableBeanFactory.java:707)         at org.springframework.beans.factory.annotation.AutowiredAnnotationBeanPostProcessor$AutowiredFieldElement.inject(AutowiredAnnotationBeanPostProcessor.java:478)         ... 41 more Caused by: java.lang.IllegalArgumentException: Could not create query metamodel for method public abstract entities.User repositories.UserRepository.saveAndFlush(entities.User)!         at org.springframework.data.jpa.repository.query.JpaQueryLookupStrategy$CreateQueryLookupStrategy.resolveQuery(JpaQueryLookupStrategy.java:95)         at org.springframework.data.jpa.repository.query.JpaQueryLookupStrategy$CreateIfNotFoundQueryLookupStrategy.resolveQuery(JpaQueryLookupStrategy.java:164)         at org.springframework.data.jpa.repository.query.JpaQueryLookupStrategy$AbstractQueryLookupStrategy.resolveQuery(JpaQueryLookupStrategy.java:71)         at org.springframework.data.repository.core.support.RepositoryFactorySupport$QueryExecutorMethodInterceptor.\u003cinit\u003e(RepositoryFactorySupport.java:269)         at org.springframework.data.repository.core.support.RepositoryFactorySupport.getRepository(RepositoryFactorySupport.java:142)         at org.springframework.data.repository.core.support.RepositoryFactoryBeanSupport.getObject(RepositoryFactoryBeanSupport.java:114)         at org.springframework.data.repository.core.support.RepositoryFactoryBeanSupport.getObject(RepositoryFactoryBeanSupport.java:38)         at org.springframework.beans.factory.support.FactoryBeanRegistrySupport.doGetObjectFromFactoryBean(FactoryBeanRegistrySupport.java:142)         ... 49 more Caused by: java.lang.IllegalArgumentException: No property save found for type class entities.User         at org.springframework.data.mapping.PropertyPath.\u003cinit\u003e(PropertyPath.java:73)         at org.springframework.data.mapping.PropertyPath.\u003cinit\u003e(PropertyPath.java:92)         at org.springframework.data.mapping.PropertyPath.create(PropertyPath.java:319)         at org.springframework.data.mapping.PropertyPath.create(PropertyPath.java:301)         at org.springframework.data.mapping.PropertyPath.from(PropertyPath.java:265)         at org.springframework.data.mapping.PropertyPath.from(PropertyPath.java:239)         at org.springframework.data.repository.query.parser.Part.\u003cinit\u003e(Part.java:70)         at org.springframework.data.repository.query.parser.PartTree$OrPart.\u003cinit\u003e(PartTree.java:180)         at org.springframework.data.repository.query.parser.PartTree$Predicate.buildTree(PartTree.java:260)         at org.springframework.data.repository.query.parser.PartTree$Predicate.\u003cinit\u003e(PartTree.java:240)         at org.springframework.data.repository.query.parser.PartTree.\u003cinit\u003e(PartTree.java:68)         at org.springframework.data.jpa.repository.query.PartTreeJpaQuery.\u003cinit\u003e(PartTreeJpaQuery.java:57)         at org.springframework.data.jpa.repository.query.JpaQueryLookupStrategy$CreateQueryLookupStrategy.resolveQuery(JpaQueryLookupStrategy.java:93)         ... 56 more The same code works with snapshot before weekend (13.04.2012). So"}
{"key":"DATACMNS-616","title":"AnnotationRevisionMetadata can\u0027t access private fields","description":"Trying to use a custom Envers revision class: @Entity @RevisionEntity(ExtendedRevisionListener.class) @Table(name \u003d \"revinfo\") public class ExtendedRevision implements Serializable { @Id @GeneratedValue @Column(name \u003d \"REV\") @RevisionNumber private Integer id; @RevisionTimestamp @Temporal(TemporalType.TIMESTAMP) @Column(name \u003d \"REVTSTMP\", nullable \u003d false) private Date date; @Column(nullable \u003d false, length \u003d 15) private String username; public Integer getId() { return id; } public Date getDate() { return date; } public String getUsername() { return username; } public void setUsername(String username) { this.username \u003d username; } triggers this error: java.lang.IllegalStateException: Could not access method: Class org.springframework.util.ReflectionUtils can not access a member of class ExtendedRevision with modifiers \"private\" \tat org.springframework.util.ReflectionUtils.handleReflectionException(ReflectionUtils.java:262) \tat org.springframework.util.ReflectionUtils.getField(ReflectionUtils.java:132) \tat org.springframework.data.util.AnnotationDetectionFieldCallback.getValue(AnnotationDetectionFieldCallback.java:82) \tat org.springframework.data.history.AnnotationRevisionMetadata.\u003cinit\u003e(AnnotationRevisionMetadata.java:54) I assume the fields have to be made accessible from the field callback."}
{"key":"DATACMNS-157","title":"@Query in extending interface is not picked up correctly","description":"I try to define an interface method in a super repository interface and \u0027implement\u0027 this in an extending interface with @Query. This does not work. Tested in the latest nightly build: @NoRepositoryBean public interface EntityRepository\u003cT\u003e extends JpaRepository\u003cT, Long\u003e { T findByDealer(Dealer dealer); } public interface CarRepository extends EntityRepository\u003cPersonalSiteVehicle\u003e { @Override @Query(\"select p from PersonalSiteVehicle p join p.detail d join d.enrichable e where e.dealer \u003d ? 1\") PersonalSiteVehicle findByDealer(Dealer dealer); } Results in Caused by: org.springframework.beans.factory.BeanCreationException: Error creating bean with name \u0027carRepository\u0027: FactoryBean threw exception on object creation; nested exception is java.lang.IllegalArgumentException: Could not create query metamodel for method public abstract java.lang.Object nl.inmotiv.indi.repository.EntityRepository.findByDealer(nl.inmotiv.indi.domain.Dealer)! \tat org.springframework.beans.factory.support.FactoryBeanRegistrySupport.doGetObjectFromFactoryBean(FactoryBeanRegistrySupport.java:149) \tat org.springframework.beans.factory.support.FactoryBeanRegistrySupport.getObjectFromFactoryBean(FactoryBeanRegistrySupport.java:102) \tat org.springframework.beans.factory.support.AbstractBeanFactory.getObjectForBeanInstance(AbstractBeanFactory.java:1442) \tat org.springframework.beans.factory.support.AbstractBeanFactory.doGetBean(AbstractBeanFactory.java:248) \tat org.springframework.beans.factory.support.AbstractBeanFactory.getBean(AbstractBeanFactory.java:193) \tat org.springframework.beans.factory.support.DefaultListableBeanFactory.findAutowireCandidates(DefaultListableBeanFactory.java:848) \tat org.springframework.beans.factory.support.DefaultListableBeanFactory.doResolveDependency(DefaultListableBeanFactory.java:790) \tat org.springframework.beans.factory.support.DefaultListableBeanFactory.resolveDependency(DefaultListableBeanFactory.java:707) \tat org.springframework.beans.factory.annotation.AutowiredAnnotationBeanPostProcessor$AutowiredFieldElement.inject(AutowiredAnnotationBeanPostProcessor.java:478) \t... 32 more Caused by: java.lang.IllegalArgumentException: Could not create query metamodel for method public abstract java.lang.Object nl.inmotiv.indi.repository.EntityRepository.findByDealer(nl.inmotiv.indi.domain.Dealer)! \tat org.springframework.data.jpa.repository.query.JpaQueryLookupStrategy$CreateQueryLookupStrategy.resolveQuery(JpaQueryLookupStrategy.java:95) \tat org.springframework.data.jpa.repository.query.JpaQueryLookupStrategy$CreateIfNotFoundQueryLookupStrategy.resolveQuery(JpaQueryLookupStrategy.java:164) \tat org.springframework.data.jpa.repository.query.JpaQueryLookupStrategy$AbstractQueryLookupStrategy.resolveQuery(JpaQueryLookupStrategy.java:71) \tat org.springframework.data.repository.core.support.RepositoryFactorySupport$QueryExecutorMethodInterceptor.\u003cinit\u003e(RepositoryFactorySupport.java:269) \tat org.springframework.data.repository.core.support.RepositoryFactorySupport.getRepository(RepositoryFactorySupport.java:142) \tat org.springframework.data.repository.core.support.RepositoryFactoryBeanSupport.getObject(RepositoryFactoryBeanSupport.java:114) \tat org.springframework.data.repository.core.support.RepositoryFactoryBeanSupport.getObject(RepositoryFactoryBeanSupport.java:38) \tat org.springframework.beans.factory.support.FactoryBeanRegistrySupport.doGetObjectFromFactoryBean(FactoryBeanRegistrySupport.java:142) \t... 40 more Caused by: java.lang.IllegalArgumentException: No property dealer found for type class nl.inmotiv.indi.domain.PersonalSiteVehicle \tat org.springframework.data.mapping.PropertyPath.\u003cinit\u003e(PropertyPath.java:73) \tat org.springframework.data.mapping.PropertyPath.\u003cinit\u003e(PropertyPath.java:92) \tat org.springframework.data.mapping.PropertyPath.create(PropertyPath.java:319) \tat org.springframework.data.mapping.PropertyPath.create(PropertyPath.java:301) \tat org.springframework.data.mapping.PropertyPath.from(PropertyPath.java:265) \tat org.springframework.data.mapping.PropertyPath.from(PropertyPath.java:239) \tat org.springframework.data.repository.query.parser.Part.\u003cinit\u003e(Part.java:70) \tat org.springframework.data.repository.query.parser.PartTree$OrPart.\u003cinit\u003e(PartTree.java:180) \tat org.springframework.data.repository.query.parser.PartTree$Predicate.buildTree(PartTree.java:260) \tat org.springframework.data.repository.query.parser.PartTree$Predicate.\u003cinit\u003e(PartTree.java:240) \tat org.springframework.data.repository.query.parser.PartTree.\u003cinit\u003e(PartTree.java:71) \tat org.springframework.data.jpa.repository.query.PartTreeJpaQuery.\u003cinit\u003e(PartTreeJpaQuery.java:57) \tat org.springframework.data.jpa.repository.query.JpaQueryLookupStrategy$CreateQueryLookupStrategy.resolveQuery(JpaQueryLookupStrategy.java:93) It looks like Spring Data does not use the @Query annotation in the sub interface."}
{"key":"DATACMNS-683","title":"Enabling Spring Data web support breaks @ModelAttribute binding in Spring MVC","description":"Given following Java config class package be.vdab.web; import org.springframework.context.annotation.ComponentScan; import org.springframework.context.annotation.Configuration; import org.springframework.data.web.config.EnableSpringDataWebSupport; import org.springframework.web.servlet.config.annotation.EnableWebMvc; import org.springframework.web.servlet.config.annotation.WebMvcConfigurerAdapter; // enkele imports @Configuration @EnableWebMvc @EnableSpringDataWebSupport @ComponentScan public class CreateControllerBeans extends WebMvcConfigurerAdapter { } , following Controller class package be.vdab.web; import org.springframework.stereotype.Controller; import org.springframework.web.bind.annotation.ModelAttribute; import org.springframework.web.bind.annotation.RequestMapping; import org.springframework.web.bind.annotation.RequestMethod; import org.springframework.web.servlet.ModelAndView; import be.vdab.entities.Person; @Controller @RequestMapping(value \u003d \"/\") public class PersonController { private static final String TOEVOEGEN_VIEW \u003d \"/WEB-INF/JSP/index.jsp\"; @RequestMapping(method\u003dRequestMethod.GET) ModelAndView get() { return new ModelAndView(TOEVOEGEN_VIEW). addObject(new Person()); } @RequestMapping(method \u003d RequestMethod.POST) String post(@ModelAttribute Person person) { if (person \u003d\u003d null) { throw new IllegalArgumentException(\"person IS NULL\"); } return \"redirect:/\"; } } and following JSP \u003c%@page contentType\u003d\"text/html\" pageEncoding\u003d\"UTF-8\" session\u003d\"false\"%\u003e \u003c%@taglib prefix\u003d\"form\" uri\u003d\"http://www.springframework.org/tags/form\" %\u003e \u003c!doctype html\u003e \u003chtml lang\u003d\"nl\"\u003e \u003chead\u003e \u003ctitle\u003eAdd person\u003c/title\u003e \u003c/head\u003e \u003cbody\u003e \u003cform:form action\u003d\"\" method\u003d\"post\" commandName\u003d\"person\"\u003e \u003cform:label path\u003d\"name\"\u003eName:\u003c/form:label\u003e \u003cform:input path\u003d\"name\" autofocus\u003d\"true\"/\u003e \u003cinput type\u003d\"submit\"\u003e \u003c/form:form\u003e \u003c/body\u003e \u003c/html\u003e the method post in PersonController throws the InvalidArgumentException because the person parameter is null. Observation 1: This worked up to and including spring-data-jpa 1.7.2. RELEASE Observation 2: The bug disappears when @EnableSpringDataWebSupport is put in comment in CreateControllerBeans.java Observation 3: The bug disappears when @ModelAttribute is put in comment in PersonController.java You can clone a project that shows the bug from https://github.com/desmethans/springDataJpaError.git"}
{"key":"DATACMNS-160","title":"Regression of Repository instances with only delete* methods","description":"A repository which only defines delete methods is not created by the Spring Data code with the exception: org.springframework.beans.factory.BeanCreationException: Error creating bean with name \u0027treeEntityDeleteRepository\u0027: FactoryBean threw exception on object creation; nested exception is java.lang.IllegalArgumentException: Could not create query metamodel for method public abstract void example.data.DeleteOnlyRepository.delete(java.lang.Object)! \tat org.springframework.beans.factory.support.FactoryBeanRegistrySupport.doGetObjectFromFactoryBean(FactoryBeanRegistrySupport.java:149) \tat org.springframework.beans.factory.support.FactoryBeanRegistrySupport.getObjectFromFactoryBean(FactoryBeanRegistrySupport.java:102) \tat org.springframework.beans.factory.support.AbstractBeanFactory.getObjectForBeanInstance(AbstractBeanFactory.java:1441) \tat org.springframework.beans.factory.support.AbstractBeanFactory.doGetBean(AbstractBeanFactory.java:305) \tat org.springframework.beans.factory.support.AbstractBeanFactory.getBean(AbstractBeanFactory.java:193) \tat org.springframework.beans.factory.support.DefaultListableBeanFactory.preInstantiateSingletons(DefaultListableBeanFactory.java:585) \tat org.springframework.context.support.AbstractApplicationContext.finishBeanFactoryInitialization(AbstractApplicationContext.java:913) \tat org.springframework.context.support.AbstractApplicationContext.refresh(AbstractApplicationContext.java:464) \tat org.springframework.context.support.ClassPathXmlApplicationContext.\u003cinit\u003e(ClassPathXmlApplicationContext.java:139) \tat org.springframework.context.support.ClassPathXmlApplicationContext.\u003cinit\u003e(ClassPathXmlApplicationContext.java:83) \tat example.data.RepositoryTest.testExample(RepositoryTest.java:10) \tat sun.reflect.NativeMethodAccessorImpl.invoke0(Native Method) \tat sun.reflect.NativeMethodAccessorImpl.invoke(NativeMethodAccessorImpl.java:57) \tat sun.reflect.DelegatingMethodAccessorImpl.invoke(DelegatingMethodAccessorImpl.java:43) \tat java.lang.reflect.Method.invoke(Method.java:601) \tat org.junit.runners.model.FrameworkMethod$1.runReflectiveCall(FrameworkMethod.java:44) \tat org.junit.internal.runners.model.ReflectiveCallable.run(ReflectiveCallable.java:15) \tat org.junit.runners.model.FrameworkMethod.invokeExplosively(FrameworkMethod.java:41) \tat org.junit.internal.runners.statements.InvokeMethod.evaluate(InvokeMethod.java:20) \tat org.junit.runners.BlockJUnit4ClassRunner.runNotIgnored(BlockJUnit4ClassRunner.java:79) \tat org.junit.runners.BlockJUnit4ClassRunner.runChild(BlockJUnit4ClassRunner.java:71) \tat org.junit.runners.BlockJUnit4ClassRunner.runChild(BlockJUnit4ClassRunner.java:49) \tat org.junit.runners.ParentRunner$3.run(ParentRunner.java:193) \tat org.junit.runners.ParentRunner$1.schedule(ParentRunner.java:52) \tat org.junit.runners.ParentRunner.runChildren(ParentRunner.java:191) \tat org.junit.runners.ParentRunner.access$000(ParentRunner.java:42) \tat org.junit.runners.ParentRunner$2.evaluate(ParentRunner.java:184) \tat org.junit.runners.ParentRunner.run(ParentRunner.java:236) \tat org.eclipse.jdt.internal.junit4.runner.JUnit4TestReference.run(JUnit4TestReference.java:50) \tat org.eclipse.jdt.internal.junit.runner.TestExecution.run(TestExecution.java:38) \tat org.eclipse.jdt.internal.junit.runner.RemoteTestRunner.runTests(RemoteTestRunner.java:467) \tat org.eclipse.jdt.internal.junit.runner.RemoteTestRunner.runTests(RemoteTestRunner.java:683) \tat org.eclipse.jdt.internal.junit.runner.RemoteTestRunner.run(RemoteTestRunner.java:390) \tat org.eclipse.jdt.internal.junit.runner.RemoteTestRunner.main(RemoteTestRunner.java:197) Caused by: java.lang.IllegalArgumentException: Could not create query metamodel for method public abstract void example.data.DeleteOnlyRepository.delete(java.lang.Object)! \tat org.springframework.data.jpa.repository.query.JpaQueryLookupStrategy$CreateQueryLookupStrategy.resolveQuery(JpaQueryLookupStrategy.java:95) \tat org.springframework.data.jpa.repository.query.JpaQueryLookupStrategy$CreateIfNotFoundQueryLookupStrategy.resolveQuery(JpaQueryLookupStrategy.java:164) \tat org.springframework.data.jpa.repository.query.JpaQueryLookupStrategy$AbstractQueryLookupStrategy.resolveQuery(JpaQueryLookupStrategy.java:71) \tat org.springframework.data.repository.core.support.RepositoryFactorySupport$QueryExecutorMethodInterceptor.\u003cinit\u003e(RepositoryFactorySupport.java:269) \tat org.springframework.data.repository.core.support.RepositoryFactorySupport.getRepository(RepositoryFactorySupport.java:142) \tat org.springframework.data.repository.core.support.RepositoryFactoryBeanSupport.getObject(RepositoryFactoryBeanSupport.java:114) \tat org.springframework.data.repository.core.support.RepositoryFactoryBeanSupport.getObject(RepositoryFactoryBeanSupport.java:38) \tat org.springframework.beans.factory.support.FactoryBeanRegistrySupport.doGetObjectFromFactoryBean(FactoryBeanRegistrySupport.java:142) \t... 33 more Caused by: java.lang.IllegalArgumentException: No property delete found for type class example.data.TreeEntity \tat org.springframework.data.mapping.PropertyPath.\u003cinit\u003e(PropertyPath.java:73) \tat org.springframework.data.mapping.PropertyPath.\u003cinit\u003e(PropertyPath.java:92) \tat org.springframework.data.mapping.PropertyPath.create(PropertyPath.java:319) \tat org.springframework.data.mapping.PropertyPath.create(PropertyPath.java:301) \tat org.springframework.data.mapping.PropertyPath.from(PropertyPath.java:265) \tat org.springframework.data.mapping.PropertyPath.from(PropertyPath.java:239) \tat org.springframework.data.repository.query.parser.Part.\u003cinit\u003e(Part.java:70) \tat org.springframework.data.repository.query.parser.PartTree$OrPart.\u003cinit\u003e(PartTree.java:180) \tat org.springframework.data.repository.query.parser.PartTree$Predicate.buildTree(PartTree.java:260) \tat org.springframework.data.repository.query.parser.PartTree$Predicate.\u003cinit\u003e(PartTree.java:240) \tat org.springframework.data.repository.query.parser.PartTree.\u003cinit\u003e(PartTree.java:68) \tat org.springframework.data.jpa.repository.query.PartTreeJpaQuery.\u003cinit\u003e(PartTreeJpaQuery.java:57) \tat org.springframework.data.jpa.repository.query.JpaQueryLookupStrategy$CreateQueryLookupStrategy.resolveQuery(JpaQueryLookupStrategy.java:93) \t... 40 more caused by a repository which extends: public interface DeleteOnlyRepository\u003cT, ID extends Serializable\u003e extends Repository\u003cT, ID\u003e{ public void delete(ID paramID); public void delete(T paramT); public void delete(Iterable\u003c? extends T\u003e paramIterable); public void deleteAll(); } This appears to be a regression following the upgrade to Spring Data Commons 1.3.0 RC1, as it\u0027s not present when using Spring Data JPA 1.1.0. RC1, only when using the build snapshots. I realise that the bug is most likely in the data commons package, but I wasn\u0027t sure how to reproduce it without using the JPA component, so I\u0027m reporting here for the mo - hope that\u0027s OK. I attach a sample Maven project to reproduce the issue The reason for wanting such a repository is to prevent clients from performing CRU operations on a child object without the use of the parent, but I do need to offer the ability to delete it."}
{"key":"DATACMNS-228","title":"Mapping sub-system should exclude Groovy introduced properties from persistent properties","description":"When using Groovy classes with the mapping metadata sub-system, the Groovy compiler introduced fields like metaClass should not be considered a persistent property."}
{"key":"DATACMNS-695","title":"Potential NullPointerException in AbstractMappingContext","description":"We found the reported issue upgrading Spring Data MongoDB library from 1.3.5. RELEASE to 1.5.5. RELEASE. The issue is triggered querying a nested generic field qualified with a custom class (not primitive). Following snippet shows the nested field we are trying to query: public class External{ . . private Optional\u003cInternal\u003e field \u003d new Optional\u003cInternal\u003e(); . . } The call to mongoOperations throws a NullPointerException originating from AbstractMappingContext. It is a Spring Data Commons class and we noticed that the issue starts from version 1.7.2. RELEASE of this library, just after commit 02046da."}
{"key":"DATACMNS-176","title":"StackOverflowError when inserted object is a CGLIB proxy","description":"When trying to persist an object [to MongoDB (spring-data-mongodb v1.1.0. M1)] that is in \"session\" scope and using a CGLIB proxy (ie: \"@Scope(value\u003d\"session\", proxyMode \u003d ScopedProxyMode.TARGET_CLASS)\") I receive a StackOverflowError. When removing the session scoping, it works correctly.java.lang.StackOverflowError \tat java.util.HashMap$EntryIterator.\u003cinit\u003e(HashMap.java:832) \tat java.util.HashMap$EntryIterator.\u003cinit\u003e(HashMap.java:832) \tat java.util.HashMap.newEntryIterator(HashMap.java:846) \tat java.util.HashMap$EntrySet.iterator(HashMap.java:950) \tat java.util.AbstractMap.hashCode(AbstractMap.java:459) \tat org.springframework.util.ObjectUtils.nullSafeHashCode(ObjectUtils.java:336) \tat org.springframework.data.util.TypeDiscoverer.hashCode(TypeDiscoverer.java:365) \tat org.springframework.data.util.ClassTypeInformation.hashCode(ClassTypeInformation.java:39) \tat org.springframework.util.ObjectUtils.nullSafeHashCode(ObjectUtils.java:336) \tat org.springframework.data.util.ParentTypeAwareTypeInformation.hashCode(ParentTypeAwareTypeInformation.java:79) \tat org.springframework.util.ObjectUtils.nullSafeHashCode(ObjectUtils.java:336) \tat org.springframework.data.util.ParentTypeAwareTypeInformation.hashCode(ParentTypeAwareTypeInformation.java:79) \tat org.springframework.util.ObjectUtils.nullSafeHashCode(ObjectUtils.java:336) \tat org.springframework.data.util.ParentTypeAwareTypeInformation.hashCode(ParentTypeAwareTypeInformation.java:79) \tat org.springframework.util.ObjectUtils.nullSafeHashCode(ObjectUtils.java:336) .... (Repeats)"}
{"key":"DATACMNS-748","title":"Spring version check in QueryExecutionConverters might fail","description":"With the latest Gosling RC I\u0027m intermittently seeing the following Exceptions on deployment. Usually a consecutive deployment will be successful. org.springframework.beans.factory.BeanCreationException: Error creating bean with name \u0027entryDao\u0027: Invocation of init method failed; nested exception is java.lang.ExceptionInInitializerError \tat org.springframework.beans.factory.support.AbstractAutowireCapableBeanFactory.initializeBean(AbstractAutowireCapableBeanFactory.java:1578) ~[spring-beans-4.2.0.RELEASE.jar:na] \tat org.springframework.beans.factory.support.AbstractAutowireCapableBeanFactory.doCreateBean(AbstractAutowireCapableBeanFactory.java:545) ~[spring-beans-4.2.0.RELEASE.jar:na] \tat org.springframework.beans.factory.support.AbstractAutowireCapableBeanFactory.createBean(AbstractAutowireCapableBeanFactory.java:482) ~[spring-beans-4.2.0.RELEASE.jar:na] \tat org.springframework.beans.factory.support.AbstractBeanFactory$1.getObject(AbstractBeanFactory.java:305) ~[spring-beans-4.2.0.RELEASE.jar:na] \tat org.springframework.beans.factory.support.DefaultSingletonBeanRegistry.getSingleton(DefaultSingletonBeanRegistry.java:230) ~[spring-beans-4.2.0.RELEASE.jar:na] \tat org.springframework.beans.factory.support.AbstractBeanFactory.doGetBean(AbstractBeanFactory.java:301) ~[spring-beans-4.2.0.RELEASE.jar:na] \tat org.springframework.beans.factory.support.AbstractBeanFactory.getBean(AbstractBeanFactory.java:196) ~[spring-beans-4.2.0.RELEASE.jar:na] \tat org.springframework.beans.factory.support.DefaultListableBeanFactory.findAutowireCandidates(DefaultListableBeanFactory.java:1145) ~[spring-beans-4.2.0.RELEASE.jar:na] \tat org.springframework.beans.factory.support.DefaultListableBeanFactory.doResolveDependency(DefaultListableBeanFactory.java:1069) ~[spring-beans-4.2.0.RELEASE.jar:na] \tat org.springframework.beans.factory.support.DefaultListableBeanFactory.resolveDependency(DefaultListableBeanFactory.java:967) ~[spring-beans-4.2.0.RELEASE.jar:na] \tat org.springframework.beans.factory.annotation.AutowiredAnnotationBeanPostProcessor$AutowiredFieldElement.inject(AutowiredAnnotationBeanPostProcessor.java:543) ~[spring-beans-4.2.0.RELEASE.jar:na] ... 37 common frames omitted Caused by: java.lang.ExceptionInInitializerError: null \tat org.springframework.data.repository.core.support.QueryExecutionResultHandler.\u003cinit\u003e(QueryExecutionResultHandler.java:41) ~[spring-data-commons-1.11.0.RC1.jar:na] \tat org.springframework.data.repository.core.support.RepositoryFactorySupport$QueryExecutorMethodInterceptor.\u003cinit\u003e(RepositoryFactorySupport.java:383) ~[spring-data-commons-1.11.0.RC1.jar:na] \tat org.springframework.data.repository.core.support.RepositoryFactorySupport.getRepository(RepositoryFactorySupport.java:203) ~[spring-data-commons-1.11.0.RC1.jar:na] \tat org.springframework.data.repository.core.support.RepositoryFactoryBeanSupport.initAndReturn(RepositoryFactoryBeanSupport.java:251) ~[spring-data-commons-1.11.0.RC1.jar:na] \tat org.springframework.data.repository.core.support.RepositoryFactoryBeanSupport.afterPropertiesSet(RepositoryFactoryBeanSupport.java:237) ~[spring-data-commons-1.11.0.RC1.jar:na] \tat org.springframework.data.jpa.repository.support.JpaRepositoryFactoryBean.afterPropertiesSet(JpaRepositoryFactoryBean.java:92) ~[spring-data-jpa-1.9.0.RC1.jar:na] \tat org.springframework.beans.factory.support.AbstractAutowireCapableBeanFactory.invokeInitMethods(AbstractAutowireCapableBeanFactory.java:1637) ~[spring-beans-4.2.0.RELEASE.jar:na] \tat org.springframework.beans.factory.support.AbstractAutowireCapableBeanFactory.initializeBean(AbstractAutowireCapableBeanFactory.java:1574) ~[spring-beans-4.2.0.RELEASE.jar:na] ... 47 common frames omitted Caused by: java.lang.IllegalArgumentException: [Assertion failed] - this String argument must have text; it must not be null, empty, or blank \tat org.springframework.util.Assert.hasText(Assert.java:168) ~[spring-core-4.2.0.RELEASE.jar:4.2.0.RELEASE] \tat org.springframework.util.Assert.hasText(Assert.java:181) ~[spring-core-4.2.0.RELEASE.jar:4.2.0.RELEASE] \tat org.springframework.data.util.Version.parse(Version.java:67) ~[spring-data-commons-1.11.0.RC1.jar:na] \tat org.springframework.data.repository.util.QueryExecutionConverters.\u003cclinit\u003e(QueryExecutionConverters.java:47) ~[spring-data-commons-1.11.0.RC1.jar:na] ... 55 common frames omitted Own analysis: Commit in question: https://github.com/spring-projects/spring-data-commons/commit/e0dafd29f4027bd2fe40215c8a916e61bff16740 The usage of org.springframework.core.SpringVersion.getVersion() is unreliable, as already stated in the comment section of said class: /** * Class that exposes the Spring version. Fetches the * \"Implementation-Version\" manifest attribute from the jar file. * * \u003cp\u003eNote that some ClassLoaders do not expose the package metadata, * hence this class might not be able to determine the Spring version * in all environments. Consider using a reflection-based check instead: * For example, checking for the presence of a specific Spring 2.0 * method that you intend to call. * * @author Juergen Hoeller * @since 1.1 */ The code in QueryExecutionConverters private static final Version SPRING_VERSION \u003d Version.parse(SpringVersion.getVersion()); fails to handle null, because Version.parse() has an Assert.hasText() and can\u0027t handle null. So there are at least two obvious things to consider here: One is the not handling the null case. And the other is the reliance on SpringVersion.getVersion(), which is said to not work in all environments. Or probably in my case has timing issues."}
{"key":"DATACMNS-769","title":"Cannot create auto-generated @Async method with pagination","description":"When I create a repository with asynchronous paging query, I get a BeanCreationException about incompatible return type, which must be Slice, Page or List (see stacktrace.txt). public interface TRepository extends MongoRepository\u003cT, String\u003e { @Async CompletableFuture\u003cList\u003cT\u003e\u003e findByUrl(String url, Pageable p); // works neither with Future nor with ListenableFuture }"}
{"key":"DATACMNS-233","title":"DomainClassConverter should gracefully return null for null sources or empty strings","description":"I\u0027ve noticed an important issue related to automatic web binding of String id to Domain class. Imagine the use case where you have an Order domain class which has a ManyToOne reference to Customer. When posting a new Order where Order.customer \u003d\u003d \"\" then a converter exception is thrown: Failed to convert property value of type java.lang.String to required type org.mycomp.domain.Customer for property customer; nested exception is org.springframework.core.convert.ConversionFailedException: Failed to convert from type java.lang.String to type @javax. validation.constraints.NotNull @javax. persistence.ManyToOne org.mycomp.domain.Customer for value \u0027; nested exception is org.springframework.dao.InvalidDataAccessApiUsageException: The given id must not be null! ; nested exception is java.lang.IllegalArgumentException: The given id must not be null! I think it should not try to convert to Domain class if id is null or empty. And note that for optional references this even might even cause a complete blocker? This is the code I used: \u003cform:select path\u003d\"customer\"\u003e \u003cform:option value\u003d\"\" label\u003d\"Select\" /\u003e \u003cform:options items\u003d\"${customers}\" itemValue\u003d\"id\"\u003e\u003c/form:options\u003e \u003c/form:select\u003e"}
{"key":"DATACMNS-257","title":"PropertyPath cannot deal with all uppercase fields","description":"Cannot execute MongoOperations.findOne method if my model entity contains @Id field which name is uppercase, like UID. Here an example: class Foo{ @Id private String UID; //code omitted } Steps to reproduce: 1) create an entity like in example code snippet in MongoDb 2) try to perform find by id operation by calling MongoOperations.findOne 3) at this step you will get an exception java.lang.IllegalArgumentException: No property uID found on com.xxxxxxxxxxxxx.TemplateDefinitionObject! \tat org.springframework.data.mapping.context.AbstractMappingContext.getPersistentPropertyPath(AbstractMappingContext.java:225) \tat org.springframework.data.mongodb.core.convert.QueryMapper.getPath(QueryMapper.java:202) \tat org.springframework.data.mongodb.core.convert.QueryMapper.determineKey(QueryMapper.java:221) \tat org.springframework.data.mongodb.core.convert.QueryMapper.getMappedObject(QueryMapper.java:87) \tat org.springframework.data.mongodb.core.MongoTemplate.doFindOne(MongoTemplate.java:1307) \tat org.springframework.data.mongodb.core.MongoTemplate.findById(MongoTemplate.java:516) \tat org.springframework.data.mongodb.core.MongoTemplate.findById(MongoTemplate.java:509) \tat org.springframework.data.mongodb.repository.support.SimpleMongoRepository.findOne(SimpleMongoRepository.java:99) \tat sun.reflect.NativeMethodAccessorImpl.invoke0(Native Method) \tat sun.reflect.NativeMethodAccessorImpl.invoke(NativeMethodAccessorImpl.java:57) \tat sun.reflect.DelegatingMethodAccessorImpl.invoke(DelegatingMethodAccessorImpl.java:43) \tat java.lang.reflect.Method.invoke(Method.java:616) \tat org.springframework.data.repository.core.support.RepositoryFactorySupport$QueryExecutorMethodInterceptor.executeMethodOn(RepositoryFactorySupport.java:334) \tat org.springframework.data.repository.core.support.RepositoryFactorySupport$QueryExecutorMethodInterceptor.invoke(RepositoryFactorySupport.java:319) \tat org.springframework.aop.framework.ReflectiveMethodInvocation.proceed(ReflectiveMethodInvocation.java:172) \tat org.springframework.aop.framework.JdkDynamicAopProxy.invoke(JdkDynamicAopProxy.java:202) \tat $Proxy37.findOne(Unknown Source) \tat com.xxxxxxxx.ShortTest.testFoo(ShortTest.java:65) \tat sun.reflect.NativeMethodAccessorImpl.invoke0(Native Method) \tat sun.reflect.NativeMethodAccessorImpl.invoke(NativeMethodAccessorImpl.java:57) \tat sun.reflect.DelegatingMethodAccessorImpl.invoke(DelegatingMethodAccessorImpl.java:43) \tat java.lang.reflect.Method.invoke(Method.java:616) \tat org.junit.runners.model.FrameworkMethod$1.runReflectiveCall(FrameworkMethod.java:44) \tat org.junit.internal.runners.model.ReflectiveCallable.run(ReflectiveCallable.java:15) \tat org.junit.runners.model.FrameworkMethod.invokeExplosively(FrameworkMethod.java:41) \tat org.junit.internal.runners.statements.InvokeMethod.evaluate(InvokeMethod.java:20) \tat org.springframework.test.context.junit4.statements.RunBeforeTestMethodCallbacks.evaluate(RunBeforeTestMethodCallbacks.java:74) \tat org.springframework.test.context.junit4.statements.RunAfterTestMethodCallbacks.evaluate(RunAfterTestMethodCallbacks.java:83) \tat org.springframework.test.context.junit4.statements.SpringRepeat.evaluate(SpringRepeat.java:72) \tat org.springframework.test.context.junit4.SpringJUnit4ClassRunner.runChild(SpringJUnit4ClassRunner.java:231) \tat org.junit.runners.BlockJUnit4ClassRunner.runChild(BlockJUnit4ClassRunner.java:50) \tat org.junit.runners.ParentRunner$3.run(ParentRunner.java:193) \tat org.junit.runners.ParentRunner$1.schedule(ParentRunner.java:52) \tat org.junit.runners.ParentRunner.runChildren(ParentRunner.java:191) \tat org.junit.runners.ParentRunner.access$000(ParentRunner.java:42) \tat org.junit.runners.ParentRunner$2.evaluate(ParentRunner.java:184) \tat org.springframework.test.context.junit4.statements.RunBeforeTestClassCallbacks.evaluate(RunBeforeTestClassCallbacks.java:61) \tat org.springframework.test.context.junit4.statements.RunAfterTestClassCallbacks.evaluate(RunAfterTestClassCallbacks.java:71) \tat org.junit.runners.ParentRunner.run(ParentRunner.java:236) \tat org.springframework.test.context.junit4.SpringJUnit4ClassRunner.run(SpringJUnit4ClassRunner.java:174) \tat org.eclipse.jdt.internal.junit4.runner.JUnit4TestReference.run(JUnit4TestReference.java:50) \tat org.eclipse.jdt.internal.junit.runner.TestExecution.run(TestExecution.java:38) \tat org.eclipse.jdt.internal.junit.runner.RemoteTestRunner.runTests(RemoteTestRunner.java:467) \tat org.eclipse.jdt.internal.junit.runner.RemoteTestRunner.runTests(RemoteTestRunner.java:683) \tat org.eclipse.jdt.internal.junit.runner.RemoteTestRunner.run(RemoteTestRunner.java:390) \tat org.eclipse.jdt.internal.junit.runner.RemoteTestRunner.main(RemoteTestRunner.java:197)"}
{"key":"DATACMNS-859","title":"ResultProcessor doesn\u0027t handle Stream instances correctly","description":""}
{"key":"DATACMNS-276","title":"ParameterizedTypeInformation is missing hashCode() method","description":""}
{"key":"DATACMNS-943","title":"Redeclared save(Iterable) results in wrong method overload to be invoked eventually","description":"I have upgrade my project from spring boot 1.3.1 to 1.4.1. After the update the code seems to behave fine in windows with java 1.8.0_45 64bit But in jenkins server (on linux) with the same java version the code breaks with this exception org.springframework.beans.NotReadablePropertyException: Invalid property \u0027id\u0027 of bean class [java.util.Arrays$ArrayList]: Could not find field for property during fallback access! \tat org.springframework.data.util.DirectFieldAccessFallbackBeanWrapper.getPropertyValue(DirectFieldAccessFallbackBeanWrapper.java:56) \tat org.springframework.data.jpa.repository.support.JpaMetamodelEntityInformation.getId(JpaMetamodelEntityInformation.java:149) \tat org.springframework.data.repository.core.support.AbstractEntityInformation.isNew(AbstractEntityInformation.java:51) \tat org.springframework.data.jpa.repository.support.JpaMetamodelEntityInformation.isNew(JpaMetamodelEntityInformation.java:225) \tat org.springframework.data.jpa.repository.support.SimpleJpaRepository.save(SimpleJpaRepository.java:505) \tat sun.reflect.NativeMethodAccessorImpl.invoke0(Native Method) \tat sun.reflect.NativeMethodAccessorImpl.invoke(NativeMethodAccessorImpl.java:62) \tat sun.reflect.DelegatingMethodAccessorImpl.invoke(DelegatingMethodAccessorImpl.java:43) \tat java.lang.reflect.Method.invoke(Method.java:497) \tat org.springframework.data.repository.core.support.RepositoryFactorySupport$QueryExecutorMethodInterceptor.executeMethodOn(RepositoryFactorySupport.java:503) \tat org.springframework.data.repository.core.support.RepositoryFactorySupport$QueryExecutorMethodInterceptor.doInvoke(RepositoryFactorySupport.java:488) \tat org.springframework.data.repository.core.support.RepositoryFactorySupport$QueryExecutorMethodInterceptor.invoke(RepositoryFactorySupport.java:460) \tat org.springframework.aop.framework.ReflectiveMethodInvocation.proceed(ReflectiveMethodInvocation.java:179) \tat org.springframework.data.projection.DefaultMethodInvokingMethodInterceptor.invoke(DefaultMethodInvokingMethodInterceptor.java:61) \tat org.springframework.aop.framework.ReflectiveMethodInvocation.proceed(ReflectiveMethodInvocation.java:179) \tat org.springframework.transaction.interceptor.TransactionInterceptor$1.proceedWithInvocation(TransactionInterceptor.java:99) \tat org.springframework.transaction.interceptor.TransactionAspectSupport.invokeWithinTransaction(TransactionAspectSupport.java:281) \tat org.springframework.transaction.interceptor.TransactionInterceptor.invoke(TransactionInterceptor.java:96) \tat org.springframework.aop.framework.ReflectiveMethodInvocation.proceed(ReflectiveMethodInvocation.java:179) \tat org.springframework.dao.support.PersistenceExceptionTranslationInterceptor.invoke(PersistenceExceptionTranslationInterceptor.java:136) \tat org.springframework.aop.framework.ReflectiveMethodInvocation.proceed(ReflectiveMethodInvocation.java:179) at The invoking call is myRepository.save(Arrays.asList(new MyEntity(1, \"foo\"), new MyEntity(2, \"bar\"))); . In linux and with the upgrade to spring boot 1.4.1 it seems the save(Iterable) method is not invoked, but the save(entity) method is invoked and causes this exception."}
{"key":"DATACMNS-390","title":"ConcurrentModificationException in MappingContextTypeInformationMapper.resolveTypeFrom","description":"I am using Spring Data and found the following Stacktrace in the logs: Caused by: java.util.ConcurrentModificationException \tat java.util.HashMap$HashIterator.nextEntry(HashMap.java:894) \tat java.util.HashMap$ValueIterator.next(HashMap.java:922) \tat org.springframework.data.convert.MappingContextTypeInformationMapper.resolveTypeFrom(MappingContextTypeInformationMapper.java:117) \tat org.springframework.data.convert.DefaultTypeMapper.getFromCacheOrCreate(DefaultTypeMapper.java:122) \tat org.springframework.data.convert.DefaultTypeMapper.readType(DefaultTypeMapper.java:102) \tat org.springframework.data.convert.DefaultTypeMapper.getDefaultedTypeToBeUsed(DefaultTypeMapper.java:164) \tat org.springframework.data.convert.DefaultTypeMapper.readType(DefaultTypeMapper.java:141) \tat org.springframework.data.mongodb.core.convert.MappingMongoConverter.read(MappingMongoConverter.java:186) I think that there might be a data race in the implementation of  org.springframework.data.mapping.context.AbstractMappingContext#getPersistentEntities() public Collection\u003cE\u003e getPersistentEntities() { try { read.lock(); return persistentEntities.values(); } finally { read.unlock(); } } Although the code acquires a read lock when returning the values of the HashMap \"persistentEntities\" it immediately releases the lock. This opens up the possibility that a thread modifies the values of \"persistentEntities\" while another thread is iterating over the values. The JavaDoc of java.util.HashMap#values() says \"If the map is modified while an iteration over the collection is in progress (except through the iterator\u0027s own \u003ctt\u003eremove\u003c/tt\u003e operation), the results of the iteration are undefined.\" In my case I get a ConcurrentModificationException. It would be nice, if you could take a look at this issue."}
{"key":"DATACMNS-379","title":"SortHanderMethodArgumentResolver fails to resolve comma-only sort parameter","description":"If specified \",\"(comma only) in parameter value of sort, occurred the ArrayIndexOutOfBoundsException. I expected that IllegalArgumentException occurs. Other patterns is occurred IllegalArgumentException."}
{"key":"DATACMNS-415","title":"Performance improvements in configuration subsystem","description":"Original email by Martin Lippert: The implementation creates a new ClassPathScanningCandidateComponentProvider without setting a MetadataReaderFactory. This causes a new caching metadata reading factory being created every time this method is called, resulting in more or less no caching for the metadata. I am not sure from where to get the appropriate MetadataReaderFactory, but the ConfigurationClassPostProcessor has the right one. I hope there is a way to reuse that, it would reduce the loading and parsing of byte code a lot."}
{"key":"DATACMNS-419","title":"PagedResourcesAssemblerArgumentResolver fails for methods with templated mappings","description":""}
{"key":"DATACMNS-441","title":"Analyzing @Query annotated bridge methods lead to NPEs during QueryMethod processing in Java 8","description":"We should skip bridge methods instead considering them for @Query annotation inspection, since we cannot extract the generic type parameter from bridge  methods."}
{"key":"DATACMNS-19","title":"Invalid entity metadata when domain class implements persistable","description":"Latest snapshot (spring-data-jpa-1.0.0. BUILD-20110227.093237-171.jar) introduced a bug which makes find queries (with Specification API) to fail for domain objects which implement Persistable. I believe issue is either in JpaRepositoryFactory stragery for creating entity information - if domain class implements Persistable, PersistableEntityMetadata fixes domain class to Persistable.class which looses actual domain class. Here is relevant stack trace snippet: java.lang.IllegalArgumentException: Not an entity: interface org.springframework.data.domain.Persistable \tat org.hibernate.ejb.metamodel.MetamodelImpl.entity(MetamodelImpl.java:160) \tat org.hibernate.ejb.criteria.QueryStructure.from(QueryStructure.java:138) \tat org.hibernate.ejb.criteria.CriteriaQueryImpl.from(CriteriaQueryImpl.java:179) \tat org.springframework.data.jpa.repository.support.SimpleJpaRepository.applySpecificationToCriteria(SimpleJpaRepository.java:450) \tat org.springframework.data.jpa.repository.support.SimpleJpaRepository.getQuery(SimpleJpaRepository.java:385) \tat org.springframework.data.jpa.repository.support.SimpleJpaRepository.findAll(SimpleJpaRepository.java:267) \tat sun.reflect.NativeMethodAccessorImpl.invoke0(Native Method) \tat sun.reflect.NativeMethodAccessorImpl.invoke(NativeMethodAccessorImpl.java:39) \tat sun.reflect.DelegatingMethodAccessorImpl.invoke(DelegatingMethodAccessorImpl.java:25) \tat java.lang.reflect.Method.invoke(Method.java:597) \tat org.springframework.data.repository.support.RepositoryFactorySupport$QueryExecuterMethodInterceptor.executeMethodOn(RepositoryFactorySupport.java:268) \tat org.springframework.data.repository.support.RepositoryFactorySupport$QueryExecuterMethodInterceptor.invoke(RepositoryFactorySupport.java:249) \tat org.springframework.aop.framework.ReflectiveMethodInvocation.proceed(ReflectiveMethodInvocation.java:172) \tat org.springframework.transaction.interceptor.TransactionInterceptor.invoke(TransactionInterceptor.java:110) \tat org.springframework.aop.framework.ReflectiveMethodInvocation.proceed(ReflectiveMethodInvocation.java:172) \tat org.springframework.dao.support.PersistenceExceptionTranslationInterceptor.invoke(PersistenceExceptionTranslationInterceptor.java:155) \tat org.springframework.aop.framework.ReflectiveMethodInvocation.proceed(ReflectiveMethodInvocation.java:172) \tat org.springframework.aop.framework.JdkDynamicAopProxy.invoke(JdkDynamicAopProxy.java:202) \tat $Proxy60.findAll(Unknown Source) \tat sun.reflect.NativeMethodAccessorImpl.invoke0(Native Method) \tat sun.reflect.NativeMethodAccessorImpl.invoke(NativeMethodAccessorImpl.java:39) \tat sun.reflect.DelegatingMethodAccessorImpl.invoke(DelegatingMethodAccessorImpl.java:25) \tat java.lang.reflect.Method.invoke(Method.java:597) \tat org.springframework.aop.support.AopUtils.invokeJoinpointUsingReflection(AopUtils.java:309) \tat org.springframework.aop.framework.ReflectiveMethodInvocation.invokeJoinpoint(ReflectiveMethodInvocation.java:183) \tat org.springframework.aop.framework.ReflectiveMethodInvocation.proceed(ReflectiveMethodInvocation.java:150) \tat org.springframework.transaction.interceptor.TransactionInterceptor.invoke(TransactionInterceptor.java:110) \tat org.springframework.aop.framework.ReflectiveMethodInvocation.proceed(ReflectiveMethodInvocation.java:172) \tat org.springframework.aop.framework.JdkDynamicAopProxy.invoke(JdkDynamicAopProxy.java:202) \tat $Proxy61.findAll(Unknown Source)"}
{"key":"DATACMNS-42","title":"MappingContext does not map BigDecimal correctly","description":""}
{"key":"DATACMNS-453","title":"NullPointerException at listing non-CRUD repositories in RepositoryMetadata.isPageableRepository()","description":"Listing repositories if one repository has no pageable finders leads to a NullPointerException."}
{"key":"DATACMNS-57","title":"Use of parameterized type in constructor_ arguments is not supported","description":"When an object contains a List of another object (no simple types), the MongoMappingConverter finds correct generic type for the field, but when this field is used in the PersistenceConstructor, the type is considered to be the raw type and then no information is available to convert batck the DBObject instances for this list. In the TypeDiscover class, the method getParameterTypes(Constructor\u003c?\u003e) use the reflection method Class\u003c?\u003e [] Constructor.getParameterTypes() that give no hint on the generic parameter types. I replaced this call with Type[] Constructor::getGenericParameterTypes(), that has solved my problem."}
{"key":"DATACMNS-509","title":"NullableWrapper Breaks JSON Conversion","description":"Since an upgrade to JPA 1.6 RC1, Spring MVC fails to properly address a NullableWrapper and this is returned, with the contents contained with the NullableWrapper. I have a MVC method that is returning: public Callable\u003cSet\u003cPos\u003e\u003e get(.....) { final Set\u003cPos\u003e allPos \u003d posService.findAll(); return ImmutableSortedSet.copyOf(allPos); } With Spring Data JPA 1.5. , I get on the wire a set of Pos\u0027s in JSON format, i.e., [{\"name: \"pos1\"}, {\"name: \"pos2\"}] With Spring Data JPA 1.6 RC1, I now get the NullableWrapper with Contents: [valueType: \"java.util.ArrayList\", value: [{\"name: \"pos1\"}, {\"name: \"pos2\"}]]"}
{"key":"DATACMNS-511","title":"AbstractMappingContext.addPersistentEntity causes infinite loop","description":"After updating from Codd SR2 to Dijkstra I could not run my tests. After debugging the issue I found that the problem lies in AbstractMappingContext.addPersistentEntity. This method is never called in Codd SR2 due to initialize not being triggered. We use quite a few abstract MappedSuperclasses that have circular references and apparently this does not work. An example: public class User extends AbstractTenantUser\u003cUser, Role, Permission, Tenant\u003e { ... } public abstract class AbstractTenantUser\u003cUSER extends AbstractTenantUser\u003cUSER, ROLE, PERMISSION, TENANT\u003e, ROLE extends AbstractRole\u003cUSER, PERMISSION\u003e, PERMISSION extends AbstractPermission\u003cUSER\u003e, TENANT extends AbstractTenant\u003cUSER\u003e\u003e extends AbstractUser\u003cUSER, ROLE, PERMISSION\u003e implements TenantEntity\u003cTENANT\u003e { ... } public abstract class AbstractUser\u003cUSER extends AbstractUser\u003cUSER, ROLE, PERMISSION\u003e, ROLE extends AbstractRole\u003cUSER, PERMISSION\u003e, PERMISSION extends AbstractPermission\u003cUSER\u003e\u003e extends AuditingDateBaseEntity\u003cUSER\u003e { ... } public abstract class AbstractPermission\u003cUSER extends AbstractUser\u003cUSER, ? , ? \u003e\u003e extends AuditingDateBaseEntity\u003cUSER\u003e { ... } public abstract class AuditingDateBaseEntity\u003cUSER extends AbstractUser\u003cUSER, ? , ? \u003e\u003e extends AbstractDateBaseEntity implements AuditingEntity\u003cUSER\u003e { ... } public abstract class AbstractDateBaseEntity extends AbstractBaseEntity implements DateEntity { ... } public abstract class AbstractBaseEntity implements BaseEntity { ... } I hope this gives enough insight into the problem and hopefully you can fix this soon."}
{"key":"DATACMNS-518","title":"Spring Data Infinite Loop in HashMap in PreferredConstructor and CustomConversions","description":"See also post at newsgroup: http://forum.spring.io/forum/spring-projects/data/750072-spring-data-infinite-loop-in-hashmap-in-preferredconstructor-and-customconversions Spring Data Infinite Loops in Production This post is related to an issue we have started seeing in production at the company where I work. I am trying to figure out where to take this next. Should I proceed to filing a bug report, or do I need to try and collect more information? It started happening a few weeks ago. We would see a box CPU suddenly go to 100% indefinitely until the app was redeployed. Fortunately, we did take thread dumps, and in one case a heap dump. We were able to see that there is a recurring infinite loop in two places in Spring Data. This has happened a total of 3 times now. Given the number of nodes we run in PROD, INT and QA (some number \u003e 30), and the length of time we have been in production on this stack, we would characterize it as a rare occurrence. But it worries us. One could ask \"what changed in the application to make this start happening?\" . Ack. We are in our busy season right now, so a lot of commits went into our application for the weeks prior to the first occurrence. And given the rare nature of the problem, it would be difficult to really identify even the time range of commits that we would need to evaluate. Root Cause In all 3 cases, the infinite loop is coming from concurrent updates to the thread-unsafe HashMap class. We see it happening within two Spring Data classes: org.springframework.data.mapping.PreferredConstructor org.springframework.data.mongodb.core.convert.CustomConversions I could explain why HashMap is getting stuck in infinite loops, but several others have already done a great job doing it, so I refer you there: http://mailinator.blogspot.dk/2009/06/beautiful-race-condition.html https://code.google.com/p/javasimon/issues/detail?id\u003d115 Stack Trace Snippets These stack traces come from our thread dumps. Each stack is seen multiple times when the problem occurs. PreferredConstructor \"http-bio-8080-exec-235\" daemon prio\u003d10 tid\u003d0x00007fb19c0a9800 nid\u003d0x5337 runnable [0x00007fb228953000] java.lang.Thread.State: RUNNABLE at java.util.HashMap.getEntry(HashMap.java:469) at java.util.HashMap.get(HashMap.java:421) at org.springframework.data.mapping.PreferredConstruc tor.isConstructorParameter(PreferredConstructor.ja va:120) at org.springframework.data.mapping.model.BasicPersis tentEntity.isConstructorArgument(BasicPersistentEn tity.java:98) at org.springframework.data.mongodb.core.convert.Mapp ingMongoConverter$1. doWithPersistentProperty(Mappi ngMongoConverter.java:252) at org.springframework.data.mongodb.core.convert.Mapp ingMongoConverter$1. doWithPersistentProperty(Mappi ngMongoConverter.java:249) at org.springframework.data.mapping.model.BasicPersis tentEntity.doWithProperties(BasicPersistentEntity.java:257) at CustomConversions \"http-bio-8080-exec-75\" daemon prio\u003d10 tid\u003d0x00007f3688018000 nid\u003d0x6c2e runnable [0x00007f376e9ef000] java.lang.Thread.State: RUNNABLE at java.util.HashMap.getEntry(HashMap.java:469) at java.util.HashMap.get(HashMap.java:421) at org.springframework.data.mongodb.core.convert.Cust omConversions.getCustomReadTarget(CustomConversion s.java:317) at org.springframework.data.mongodb.core.convert.Cust omConversions.hasCustomReadTarget(CustomConversion s.java:281) at org.springframework.data.mongodb.core.convert.Mapp ingMongoConverter.read(MappingMongoConverter.java: 200) at org.springframework.data.mongodb.core.convert.Mapp ingMongoConverter.readCollectionOrArray(MappingMon goConverter.java:791) at More Information I posted a lot more information about this issue here: http://peterlairdtech.blogspot.com/2014/06/spring-data-infinite-loop-in-hashmap-in.html Please let me know if there are things I can do to help diagnose this further. Thanks!"}
{"key":"DATACMNS-562","title":"MappingContext fails to resolve TreeMap as Map value type","description":"This is the Class of entity used to save to mongodb. ClassC.java public class ClassC extends ClassA { private ClassB b; public ClassB getB() { return b; } public void setB(ClassB b) { this.b \u003d b; } } class ClassA { private String name; private ClassD dObject; public String getName() { return name; } public void setName(String name) { this.name \u003d name; } public ClassD getdObject() { return dObject; } public void setdObject(ClassD dObject) { this.dObject \u003d dObject; } } class ClassB extends ClassA { } class ClassD { private TreeMap\u003cString, TreeMap\u003cString, String\u003e\u003e map \u003d new TreeMap\u003c\u003e(); public TreeMap\u003cString, TreeMap\u003cString, String\u003e\u003e getMap() { return map; } public void setMap(TreeMap\u003cString, TreeMap\u003cString, String\u003e\u003e map) { this.map \u003d map; } } This is the call entry: // handle this correctly somewhere // @Autowired // private MongoOperations\tmongoTemplate; ClassC cObject \u003d new ClassC(); cObject.setName(\"Jon\"); try { mongoTemplate.save(cObject, \"c\"); } catch (Exception e) { e.printStackTrace(); } Exception caught as below: java.lang.ArrayIndexOutOfBoundsException: 0 at org.springframework.data.util.ParameterizedTypeInformation.getComponentType(ParameterizedTypeInformation.java:147) at org.springframework.data.util.TypeDiscoverer.getActualType(TypeDiscoverer.java:292) at org.springframework.data.util.ParentTypeAwareTypeInformation.getActualType(ParentTypeAwareTypeInformation.java:29) at org.springframework.data.mapping.model.AbstractPersistentProperty.getPersistentEntityType(AbstractPersistentProperty.java:125) at org.springframework.data.mapping.context.AbstractMappingContext$PersistentPropertyCreator.createAndRegisterProperty(AbstractMappingContext.java:469) at org.springframework.data.mapping.context.AbstractMappingContext$PersistentPropertyCreator.doWith(AbstractMappingContext.java:427) at org.springframework.util.ReflectionUtils.doWithFields(ReflectionUtils.java:572) at org.springframework.data.mapping.context.AbstractMappingContext.addPersistentEntity(AbstractMappingContext.java:295) at org.springframework.data.mapping.context.AbstractMappingContext$PersistentPropertyCreator.createAndRegisterProperty(AbstractMappingContext.java:470) at org.springframework.data.mapping.context.AbstractMappingContext$PersistentPropertyCreator.doWith(AbstractMappingContext.java:427) at org.springframework.util.ReflectionUtils.doWithFields(ReflectionUtils.java:572) at org.springframework.data.mapping.context.AbstractMappingContext.addPersistentEntity(AbstractMappingContext.java:295) at org.springframework.data.mapping.context.AbstractMappingContext$PersistentPropertyCreator.createAndRegisterProperty(AbstractMappingContext.java:470) at org.springframework.data.mapping.context.AbstractMappingContext$PersistentPropertyCreator.doWith(AbstractMappingContext.java:427) at org.springframework.util.ReflectionUtils.doWithFields(ReflectionUtils.java:572) at org.springframework.data.mapping.context.AbstractMappingContext.addPersistentEntity(AbstractMappingContext.java:295) at org.springframework.data.mapping.context.AbstractMappingContext$PersistentPropertyCreator.createAndRegisterProperty(AbstractMappingContext.java:470) at org.springframework.data.mapping.context.AbstractMappingContext$PersistentPropertyCreator.doWith(AbstractMappingContext.java:427) at org.springframework.util.ReflectionUtils.doWithFields(ReflectionUtils.java:572) at org.springframework.data.mapping.context.AbstractMappingContext.addPersistentEntity(AbstractMappingContext.java:295) at org.springframework.data.mapping.context.AbstractMappingContext.getPersistentEntity(AbstractMappingContext.java:181) at org.springframework.data.mapping.context.AbstractMappingContext.getPersistentEntity(AbstractMappingContext.java:141) at org.springframework.data.mapping.context.AbstractMappingContext.getPersistentEntity(AbstractMappingContext.java:67) at org.springframework.data.mongodb.core.MongoTemplate.getPersistentEntity(MongoTemplate.java:1831) at org.springframework.data.mongodb.core.MongoTemplate.save(MongoTemplate.java:829) I got the same issues on both spring-data-mongodb-1.5.0-RELEASE.jar and spring-data-mongodb-1.5.2-RELEASE.jar. Below is some of my investigation, maybe helpful. It seems something unsafe in spring-data-commons-1.8.0-RELEASE.jar and spring-data-commons-1.8.2-RELEASE.jar. It seems that TreeMap has something different to HashMap, such as private transient EntrySet entrySet \u003d null;, which causes returning empty Type array to emit ArrayIndexOutOfBoundsException. May I know why the author treats Map as normal entity Type to traverse every field inside? Normally Map and List only used as container."}
{"key":"DATACMNS-590","title":"Bug in generics detection for multiply nested generic types","description":"It fails guess the concrete class of a two level embedded document in a concrete scenario using abstract class with generics. The reference git repository, reproduces this error running unit tests. It also downloads and runs a local MongoDB server using https://github.com/jirutka/embedmongo-Spring plugin."}
