{"id":5541,"bug_id":"DATACMNS-228","text":"When using Groovy classes with the mapping metadata sub-system, the Groovy compiler introduced fields like metaClass should not be considered a persistent property.","file_goldset":["org.springframework.data.mapping.context.AbstractMappingContextUnitTests","org.springframework.data.mapping.context.AbstractMappingContext"],"creation_date":"2012-09-10T02:05:09.000-05:00","resolution_date":"2012-09-10T06:29:13.000-05:00"}
{"id":5542,"bug_id":"DATACMNS-233","text":"Imagine the use case where you have an Order domain class which has a ManyToOne reference to Customer. When posting a new Order where Order.customer \u003d\u003d \"\" then a converter exception is thrown:       This is the code I used:","file_goldset":["org.springframework.data.repository.support.DomainClassConverter","org.springframework.data.repository.support.DomainClassConverterUnitTests"],"creation_date":"2012-09-14T07:38:12.000-05:00","resolution_date":"2012-09-17T01:05:34.000-05:00"}
{"id":5543,"bug_id":"DATACMNS-257","text":"Here an example:       1) create an entity like in example code snippet in MongoDb 2) try to perform find by id operation by calling MongoOperations.findOne","file_goldset":["org.springframework.data.mapping.PropertyPath","org.springframework.data.mapping.PropertyPathUnitTests"],"creation_date":"2012-11-29T02:29:27.000-06:00","resolution_date":"2012-12-12T23:20:27.000-06:00"}
