{"id":5645,"bug_id":"DATAMONGO-1202","text":"I provide a github project with two scenarios: Employer: Very simple reflexive relation that works nicely (EmployerTest) Customer: A little more complex scenario using GenericCustomer as a base class to allow having many different kinds of customers. This scenario fails at creating the index (CustomerTest).","file_goldset":["org.springframework.data.mongodb.core.index.MongoPersistentEntityIndexCreatorIntegrationTests","org.springframework.data.mongodb.core.index.IndexResolver","org.springframework.data.mongodb.core.index.MongoPersistentEntityIndexCreator","org.springframework.data.mongodb.core.index.MongoPersistentEntityIndexResolver"],"creation_date":"2015-04-14T02:36:40.000-05:00","resolution_date":"2015-06-01T00:45:42.000-05:00"}
{"id":5646,"bug_id":"DATAMONGO-1232","text":"In my case, I\u0027m trying to perform a case-insensitive find on an e-mail address with the + sign, a legal character, but the regex interprets this as 1.","file_goldset":["org.springframework.data.mongodb.repository.query.MongoQueryCreator","org.springframework.data.mongodb.repository.query.MongoQueryCreatorUnitTests"],"creation_date":"2015-06-03T10:27:23.000-05:00","resolution_date":"2015-06-24T11:21:16.000-05:00"}
{"id":5647,"bug_id":"DATAMONGO-1236","text":"When a map of type LinkedHashMap\u003cString, Object\u003e  is updated via MongoOperations findAndModify or updateFirst, the _class field is not saved for the map values.  Please see attached maven project for test illustrating the problem.","file_goldset":["org.springframework.data.mongodb.core.convert.UpdateMapper","org.springframework.data.mongodb.core.convert.UpdateMapperUnitTests"],"creation_date":"2015-06-08T11:17:11.000-05:00","resolution_date":"2015-07-08T01:26:13.000-05:00"}
