{"id":5613,"bug_id":"DATAMONGO-688","text":"If you have a domain class with an attribute named \"id\", even if you annotate a DIFFERENT field with \"@Id\", spring-data-mongo errors trying to map 2 things to the id.","file_goldset":["org.springframework.data.mongodb.core.mapping.MongoPersistentProperty","org.springframework.data.mongodb.core.mapping.MongoMappingContextUnitTests","org.springframework.data.mongodb.core.mapping.BasicMongoPersistentEntity","org.springframework.data.mongodb.core.mapping.BasicMongoPersistentProperty"],"creation_date":"2013-06-03T14:11:53.000-05:00","resolution_date":"2013-07-08T03:12:11.000-05:00"}
{"id":5614,"bug_id":"DATAMONGO-702","text":"If Model Java POJO, is annotated with @Field, then during search with query.fields(). include(field) uning mongoTemplate it does not java property field as field parameter, rather it needs the name declared with name defined with @Field annotation.","file_goldset":["org.springframework.data.mongodb.core.MongoTemplateTests","org.springframework.data.mongodb.core.MongoTemplate"],"creation_date":"2013-06-20T00:12:30.000-05:00","resolution_date":"2013-07-09T02:35:34.000-05:00"}
{"id":5615,"bug_id":"DATAMONGO-717","text":"Current code:","file_goldset":["org.springframework.data.mongodb.config.AbstractMongoConfigurationUnitTests"],"creation_date":"2013-07-10T11:13:46.000-05:00","resolution_date":"2013-07-10T14:09:31.000-05:00"}
{"id":5616,"bug_id":"DATAMONGO-721","text":"Here is our situation: we have an entity which have an attribute which is a list of another kind of entity, like the code below.   When using MongoTemplate class with code such as below, the _class attribute is not inserted on the embedded document, so, if one of the items of the list attribute is a subclass of ChildClass, and ChildClass is an abstract class, we begin to face instantiation problems. Here is one example of usage of MongoTemplate in which we found a problem.","file_goldset":["org.springframework.data.mongodb.core.convert.QueryMapper"],"creation_date":"2013-07-11T11:36:06.000-05:00","resolution_date":"2013-07-16T04:40:15.000-05:00"}
