{"id":5663,"bug_id":"SWARM-485","text":"Using a JAX-RS provider that extends JacksonJaxbJsonProvider throws a  java.lang.NoClassDefFoundError Link Error. A java.lang.NoClassDefFoundError Link Error is thrown when deploying a JAX-RS application with a custom provider that overrides com.fasterxml.jackson.jaxrs.json.JacksonJaxbJsonProvider","file_goldset":["org.wildfly.swarm.jaxrs.JAXRSArquillianTest"],"creation_date":"2016-05-26T18:01:46.000-05:00","resolution_date":"2016-06-02T03:48:53.000-05:00"}
{"id":5664,"bug_id":"SWARM-528","text":"If you set the swarm port using either swarm.http.port or swarm.port.offset via arquillian.xml e.g.         The problem is that if you use:     If you set the port property in arquillian.xml           Attempting to combine the port property and the offset does not work either e.g.","file_goldset":["org.wildfly.swarm.arquillian.resources.SwarmURLResourceProvider"],"creation_date":"2016-06-22T02:53:46.000-05:00","resolution_date":"2016-07-21T12:11:11.000-05:00"}
{"id":5665,"bug_id":"SWARM-486","text":"I attached the error log and the reproducer in \u0027Steps to Reproduce\u0027 section.","file_goldset":["org.wildfly.swarm.container.ProjectStagesTest"],"creation_date":"2016-05-28T18:25:37.000-05:00","resolution_date":"2016-07-27T08:33:48.000-05:00"}
{"id":5666,"bug_id":"SWARM-553","text":"When using LoggingFraction and PeriodicSizeRotatingFileHandler it gives me the following error:     Here is my whole code:","file_goldset":["org.wildfly.swarm.container.runtime.RuntimeServer"],"creation_date":"2016-07-08T19:50:16.000-05:00","resolution_date":"2016-07-29T06:31:15.000-05:00"}
