{"id":5771,"bug_id":"WFCORE-267","text":"If you are using the CLI client jar, all output is printed twice.","file_goldset":["org.jboss.as.cli.CommandLineMain"],"creation_date":"2014-11-19T19:47:31.000-06:00","resolution_date":"2014-12-05T23:16:30.000-06:00"}
{"id":5772,"bug_id":"WFCORE-229","text":"Start a regular domain  Examples:","file_goldset":["org.jboss.as.controller.registry.ProxyControllerRegistration","org.jboss.as.controller.registry.DelegatingImmutableManagementResourceRegistration","org.jboss.as.subsystem.test.SubsystemTestDelegate","org.jboss.as.controller.registry.NodeSubregistry","org.jboss.as.controller.registry.ImmutableManagementResourceRegistration","org.jboss.as.controller.registry.ConcreteResourceRegistration","org.jboss.as.controller.registry.AbstractResourceRegistration","org.jboss.as.controller.registry.DelegatingManagementResourceRegistration","org.jboss.as.domain.controller.operations.AbstractOperationTestCase","org.jboss.as.controller.extension.ExtensionRegistry","org.jboss.as.controller.registry.AliasResourceRegistration"],"creation_date":"2014-11-07T15:20:11.000-06:00","resolution_date":"2014-12-16T15:37:45.000-06:00"}
{"id":5773,"bug_id":"WFCORE-500","text":"Adding a \"path\" to a \"server-config\" in domain mode (works fine) and then remove it again results in a NullPointerException","file_goldset":["org.jboss.as.controller.services.path.PathRemoveHandler"],"creation_date":"2015-01-13T13:10:50.000-06:00","resolution_date":"2015-01-22T01:53:22.000-06:00"}
{"id":5774,"bug_id":"WFCORE-763","text":"e.g. if I persist an empty list to xml, and read it back again, using the default parser/marshaller, I should get back an empty list.","file_goldset":["org.jboss.as.controller.AttributeParser","org.jboss.as.controller.SimpleListAttributeDefinitionUnitTestCase"],"creation_date":"2015-06-16T14:59:39.000-05:00","resolution_date":"2015-06-18T20:36:00.000-05:00"}
{"id":5775,"bug_id":"WFCORE-495","text":"If you firstly deploy a . war application by CLI command, then deploy 2nd time same . war application by copying it to /depolyment directory. After server restart, it shows:          1. start wildfly and deploy a . war application by CLI. 2. copy same . war application to /deployment directory 3. restart wildfly to see the error message.","file_goldset":["org.jboss.as.server.deployment.DeploymentFullReplaceHandler"],"creation_date":"2015-01-12T08:48:29.000-06:00","resolution_date":"2015-01-23T22:27:07.000-06:00"}
{"id":5776,"bug_id":"WFCORE-701","text":"To reproduce, run domain.sh, find the pid of a server process, and kill -9 \u003cthepid\u003e. Then with the CLI:","file_goldset":["org.jboss.as.host.controller.ManagedServer"],"creation_date":"2015-05-19T15:06:17.000-05:00","resolution_date":"2016-03-30T14:44:00.000-05:00"}
{"id":5777,"bug_id":"WFCORE-765","text":"Download and unpack wildfly-dist-9.0.0.CR2.zip. Run bin/domain.sh and wait for servers to start. Hit Ctrl-C.","file_goldset":["org.jboss.as.server.operations.ServerDomainProcessShutdownHandler"],"creation_date":"2015-06-16T11:16:33.000-05:00","resolution_date":"2015-06-18T20:36:51.000-05:00"}
{"id":5778,"bug_id":"WFCORE-499","text":"The only way I could get the property to be applied was to start the server first, then add the property using boot-time\u003dfalse, although even in this case the property will disappear if the domain is restarted or the server is reloaded.","file_goldset":["org.jboss.as.test.integration.domain.suites.CoreResourceManagementTestCase","org.jboss.as.server.operations.SystemPropertyAddHandler","org.jboss.as.server.controller.resources.SystemPropertyResourceDefinition","org.jboss.as.host.controller.ManagedServerBootCmdFactory"],"creation_date":"2015-01-13T01:54:46.000-06:00","resolution_date":"2015-02-06T23:21:02.000-06:00"}
{"id":5779,"bug_id":"WFCORE-754","text":"EAP fails to start with -bmanagement\u003d option. IPv4 address is used in this option.          Example on dev98 machine:","file_goldset":["org.jboss.as.host.controller.ServerInventoryService"],"creation_date":"2015-06-02T11:17:26.000-05:00","resolution_date":"2015-06-18T20:37:41.000-05:00"}
{"id":5780,"bug_id":"WFCORE-58","text":"When WildFly 9 Alpha1 is started with the following system properties in the \"standalone.conf\" then the admin console behaves abnormally and shows some missing buttons in the console.","file_goldset":["org.jboss.as.remoting.Protocol","org.jboss.as.test.integration.management.rbac.PermissionsCoverageTestUtil","org.jboss.as.domain.management.security.password.PasswordCheckUtil","org.jboss.as.host.controller.discovery.S3Util","org.jboss.as.controller.access.rbac.StandardRoleMapper","org.jboss.as.test.integration.management.interfaces.JmxInterfaceStringUtils","org.jboss.as.controller.operations.global.ReadResourceDescriptionHandler","org.jboss.as.threads.ThreadPoolManagementUtils","org.jboss.as.host.controller.DirectoryGrouping"],"creation_date":"2014-08-18T05:18:45.000-05:00","resolution_date":"2014-09-01T18:26:22.000-05:00"}
{"id":5781,"bug_id":"WFCORE-604","text":"1. Fail to deploy application via jboss-cli 2. Find deployment info in JBOSS_HOME/{standalone|domaine}/data/content, but there are no standalone.xml in \u003cdeployments\u003e tag. 3. Fix deployment and success to deploy. 4. Find \"new\" deployment info in JBOSS_HOME/{standalone|domaine}/data/content, and the old deployment info will be still there.","file_goldset":["org.jboss.as.domain.controller.operations.deployment.DeploymentAddHandler","org.jboss.as.host.controller.mgmt.ServerToHostProtocolHandler","org.jboss.as.domain.controller.operations.ApplyRemoteMasterDomainModelHandler","org.jboss.as.host.controller.model.host.HostResourceDefinition","org.jboss.as.repository.LocalDeploymentFileRepository","org.jboss.as.domain.controller.operations.deployment.DeploymentFullReplaceHandler","org.jboss.as.host.controller.DomainModelControllerService","org.jboss.as.domain.controller.operations.deployment.DeploymentRemoveHandler","org.jboss.as.server.deploymentoverlay.DeploymentOverlayContentAdd","org.jboss.as.domain.controller.operations.deployment.ServerGroupDeploymentReplaceHandler","org.jboss.as.host.controller.RemoteDomainConnectionService","org.jboss.as.server.logging.ServerLogger","org.jboss.as.core.model.test.TestModelControllerService","org.jboss.as.server.deployment.DeploymentFullReplaceHandler","org.jboss.as.server.deployment.DeploymentAddHandlerTestCase","org.jboss.as.repository.logging.DeploymentRepositoryLogger","org.jboss.as.management.client.content.ManagedDMRContentTypeResource","org.jboss.as.core.model.test.LegacyKernelServicesImpl","org.jboss.as.domain.controller.operations.deployment.ServerGroupDeploymentAddHandler","org.jboss.as.subsystem.test.TestModelControllerService","org.jboss.as.server.controller.resources.ServerRootResourceDefinition","org.jboss.as.server.deploymentoverlay.DeploymentOverlayContentDefinition","org.jboss.as.repository.DeploymentFileRepository","org.jboss.as.server.test.InterfaceManagementUnitTestCase","org.jboss.as.host.controller.mgmt.MasterDomainControllerOperationHandlerImpl","org.jboss.as.host.controller.HostControllerService","org.jboss.as.domain.controller.operations.deployment.ServerGroupDeploymentRemoveHandler","org.jboss.as.management.client.content.ManagedDMRContentTypeAddHandler","org.jboss.as.repository.LocalFileRepository","org.jboss.as.server.ApplicationServerService","org.jboss.as.test.shared.ModelParserUtils","org.jboss.as.host.controller.ManagedServerOperationsFactory","org.jboss.as.domain.controller.resources.DomainRootDefinition","org.jboss.as.server.deployment.DeploymentRemoveHandler","org.jboss.as.domain.controller.resources.ServerGroupResourceDefinition","org.jboss.as.repository.ContentRepository","org.jboss.as.domain.controller.resources.DomainDeploymentResourceDefinition","org.jboss.as.server.mgmt.domain.RemoteFileRepositoryService","org.jboss.as.server.deployment.DeploymentReplaceHandler","org.jboss.as.server.deployment.DeploymentAddHandler"],"creation_date":"2015-03-18T09:19:35.000-05:00","resolution_date":"2015-03-25T18:39:26.000-05:00"}
{"id":5782,"bug_id":"WFCORE-268","text":"If you try to use a WildFly version CLI GUI to connect to AS7 or EAP6, you will get a failure.","file_goldset":["org.jboss.as.cli.gui.ServerLogsPanel","org.jboss.as.cli.gui.GuiMain"],"creation_date":"2014-11-19T19:55:59.000-06:00","resolution_date":"2014-11-20T17:41:51.000-06:00"}
{"id":5783,"bug_id":"WFCORE-638","text":"If this is the first deployment we run this command.    For subsequent deployments we force a redeploy over existing deployment.","file_goldset":["org.jboss.as.domain.controller.operations.deployment.DeploymentFullReplaceHandler"],"creation_date":"2015-03-31T16:49:09.000-05:00","resolution_date":"2015-04-10T19:48:42.000-05:00"}
{"id":5784,"bug_id":"WFCORE-145","text":"However, running the batch file containing comments/blank lines as a parameter to jboss-cli.sh works just fine (. /jboss-cli.sh -c --file\u003dscript.cli).","file_goldset":["org.jboss.as.cli.handlers.batch.BatchRunHandler","org.jboss.as.test.integration.management.cli.BatchFileTestCase","org.jboss.as.cli.handlers.BaseOperationCommand"],"creation_date":"2014-10-02T13:28:22.000-05:00","resolution_date":"2014-11-26T13:02:59.000-06:00"}
{"id":5785,"bug_id":"WFCORE-626","text":"Consider the following sequence of operations:","file_goldset":["org.jboss.as.controller.operations.global.MapOperations","org.jboss.as.controller.operations.global.ListOperations"],"creation_date":"2015-04-06T15:53:19.000-05:00","resolution_date":"2015-04-15T13:17:29.000-05:00"}
{"id":5786,"bug_id":"WFCORE-285","text":"Using two slashes in a CLI path and hitting TAB confuses the auto-completion","file_goldset":["org.jboss.as.cli.parsing.test.AddressOnlyParsingTestCase","org.jboss.as.cli.operation.impl.DefaultOperationRequestParser","org.jboss.as.cli.operation.CommandLineParser","org.jboss.as.cli.operation.impl.DefaultCallbackHandler"],"creation_date":"2014-11-14T14:25:02.000-06:00","resolution_date":"2014-12-03T19:09:09.000-06:00"}
{"id":5787,"bug_id":"WFCORE-230","text":"For example:","file_goldset":["org.jboss.as.test.integration.domain.management.ServerAutoStartTestCase","org.jboss.as.host.controller.ServerInventoryImpl","org.jboss.as.test.integration.domain.ServerManagementTestCase","org.jboss.as.host.controller.ManagedServer"],"creation_date":"2014-11-07T17:46:38.000-06:00","resolution_date":"2015-05-01T15:02:55.000-05:00"}
{"id":5788,"bug_id":"WFCORE-442","text":"An example is worth a thousand words:","file_goldset":["org.jboss.as.controller.operations.global.GlobalOperationHandlers"],"creation_date":"2014-12-02T19:15:13.000-06:00","resolution_date":"2015-05-28T21:46:55.000-05:00"}
