{"key":"80904","title":"","description":"import java.util.List;\nclass A {\n\tpublic A (List/*\u003cString\u003e*/ list, Integer integer) {\n\t}\n}"}
{"key":"85344","title":"","description":"public class Test {\n  public static void main(String[] args) {\n    Map\u003cString, Integer\u003e map\u003d new HashMap\u003cString, Integer\u003e();\n    System.out.println();     // \u003c-- breakpoint here\n  }\n}\n\n entrySet()"}
{"key":"133072","title":"","description":"package Fred;\n\nimport javax.swing.JFrame;\nimport javax.swing.SwingUtilities;\n\nimport org.eclipse.core.runtime.IPlatformRunnable;\n\npublic class Main implements IPlatformRunnable {\n\n       public Object run(Object args) throws Exception {\n               SwingUtilities.invokeLater(new Runnable() {\n                       public void run() {\n                               new JFrame(\"Fred\").setVisible(true);\n                       }\n               });\n               synchronized(this)\n               {\n                       wait();\n               }\n               return IPlatformRunnable.EXIT_OK;\n       }\n\n}"}
{"key":"83536","title":"","description":"package t1;\npublic class Test {\n    public static void main (String[] args) {\n        new Test ().test (new byte[5]);\n    }\n    private void test (Object... params) {\n    }\n}\n\n new Test () new Object[] {new byte[5]}"}
{"key":"92451","title":"","description":"public class Test {\n\tpublic static void main(String[] args) {\n\t\tjava.util.List elements \u003d null;\n\t\t// code assist works on this line\n\t\tnew Test(Test.toStrings((Test[])elements.toArray(new Test\n[0])));\n\t\t//code assist fails on this line\n\t}\n\tpublic Test(Object object) {\n\t}\n\tpublic static Object toStrings(Test[] objects) {\n\t\treturn null;\n\t}\n}"}
{"key":"76860","title":"","description":"testDeferredExpression()\n testNonDeferredExpression()"}
{"key":"78647","title":"","description":"public class Test {\n  public static void main(String[] args) {\n    int i\u003d \n      2\n      +\n      (short)3;  // \u003c-- breakpoint here\n  }\n}"}
{"key":"100137","title":"","description":"public class A {\n\tString dog1 \u003d \"Max\", dog2 \u003d \"Bailey\", dog3 \u003d \"Harriet\";\n\tpublic static void main(String[] args) {\n\t\tnew A().foo();\n\t}\n\t\n\tvoid foo() {\n\t\tString p\u003d \"\";\n\t}\n}"}
{"key":"94540","title":"","description":"Workbench.shutdown()  org.eclipse.ui.internal.WorkbenchPlugin.stop()"}
{"key":"85397","title":"","description":"strictfp enum Natural {\n\tONE, TWO;\n}\n\n strictfp enum Natural {\n\tONE, TWO;\n\t\n\tprivate Natural() {\n\t}\n}"}
{"key":"81045","title":"","description":"public class Test {\n\tstatic class Inner {\n\t}\n\tpublic static void main(String[] args) {\n\t\tInner inner\u003d null;\n\t\tSystem.out.println(1);  //  \u003c- breakpoint here\n\t}\n}"}
{"key":"98621","title":"","description":"class I18L  public class I18N {\n\n\tprotected static void loadMessages(Class clazz, String name) {\n\t\t...\n\t}\n}\n\n public class Messages extends I18L {\n  public static String unexpectedException;\n  ...\n  static {\n    loadMessages(Messages.class, \"messages.properties\");\n  }\n}"}
{"key":"78740","title":"","description":"becomeDetailed()  \n\npackage org.example.jdom;\n\nimport org.eclipse.core.runtime.IPlatformRunnable;\nimport org.eclipse.jdt.core.Flags;\nimport org.eclipse.jdt.core.jdom.DOMFactory;\nimport org.eclipse.jdt.core.jdom.IDOMCompilationUnit;\nimport org.eclipse.jdt.core.jdom.IDOMType;\n\npublic class Test implements IPlatformRunnable\n{\n  public Object run(Object object)\n  {\n    DOMFactory factory \u003d new DOMFactory();\n    IDOMCompilationUnit jCompilationUnit \u003d\nfactory.createCompilationUnit(\"package x; /** @model */ interface X  {}\", \"NAME\");\n    IDOMType jType \u003d (IDOMType)jCompilationUnit.getFirstChild().getNextNode(); \n    System.err.println(\"\" + ((jType.getFlags() \u0026 Flags.AccInterface) !\u003d 0));\n    jType.getComment();\n    System.err.println(\"\" + ((jType.getFlags() \u0026 Flags.AccInterface) !\u003d 0));\n    return new Integer(0);\n  }\n}"}
{"key":"87211","title":"","description":"The dragOver()  PartStack.getDropTarget()"}
{"key":"90283","title":"","description":"partActivated(IWorkbenchPartReference ref)  ref.getId()  ref.getPart(true) getSite()  ASTProvider.ActivationListener.isJavaEditor()"}
{"key":"133292","title":"","description":"{\n    /* On the next line, the first semicolon is a syntax error. \n     * The error is not reported, and the program will run and print \"Fail\".\n     * Without the semicolon, it prints \"foo\" as expected. */\n    public static Baz.C a[] \u003d  { new Baz.C(\"foo\") ; } public static void main(String args[]) {\n\tif (a \u003d\u003d null)\n\t    System.out.println(\"Fail\");\n\telse\n\t    System.out.println(a[0]);\n    }\n class Baz {\n    public static class C {\n\tString name;\n\tpublic C(String name) { this.name \u003d name; }\n\tpublic String toString() { return name; }\n    }\n}"}
{"key":"96440","title":"","description":"table.getClientArea()"}
{"key":"106492","title":"","description":"name.equals(\"IResourceTest.testDelete\")  testDelete()  runTest()  runBare()  protect()"}
{"key":"92602","title":"","description":"ThreadJob.joinRun(IProgressMonitor)  JobManager.beginRule(ISchedulingRule, IProgressMonitor)  WorkManager.checkIn(ISchedulingRule, IProgressMonitor)  Workspace.prepareOperation(ISchedulingRule, IProgressMonitor)  SynchronizationManager$ActivationListener.handleActivated(ResourceInfo)  SynchronizationManager$ActivationListener.handleActivated()  SynchronizationManager$ActivationListener.windowActivated(IWorkbenchWindow)\n Workbench$6.run()  InternalPlatform.run(ISafeRunnable)  Platform.run(ISafeRunnable)  Workbench.fireWindowActivated(IWorkbenchWindow)  WorkbenchWindow$5.shellActivated(ShellEvent)  TypedListener.handleEvent(Event)  EventTable.sendEvent(Event)  sendEvent(Event)  destroyWidget()  dispose()  dispose()  Shell.dispose()  close()  close()  BlockedJobsDialog.close()  BlockedJobsDialog.close(IProgressMonitor)  BlockedJobsDialog.clear(IProgressMonitor)  WorkbenchDialogBlockedHandler.clearBlocked()  EventLoopProgressMonitor.clearBlocked()  JobManager.reportUnblocked(IProgressMonitor)  ThreadJob.waitEnd(IProgressMonitor)  ThreadJob.joinRun(IProgressMonitor)  JobManager.beginRule(ISchedulingRule, IProgressMonitor)  WorkManager.checkIn(ISchedulingRule, IProgressMonitor)  Workspace.prepareOperation(ISchedulingRule, IProgressMonitor)  URIConverterImpl$WorkbenchHelper.createPlatformResourceInputStream(String)\n URIConverterImpl.createPlatformResourceInputStream(String)  URIConverterImpl.createInputStream(URI)  MonUtils.loadResource(ResourceSet, String)  MonUtils.getMonitorResource(ResourceSet, String)  MonUtils.getMonitorResource(Resource)  initializeMonAdapters()  Class.newInstanceImpl()  Class.newInstance()  ConfigurationElement.createExecutableExtension(Bundle, String, Object,\nIConfigurationElement, String)  ConfigurationElement.createExecutableExtension(Bundle, String, String, Object,\nIConfigurationElement, String)  ConfigurationElement.createExecutableExtension(String)  SectionDescriptor.getSectionClass()  TabDescriptor.createTab()  setInput(IWorkbenchPart,\nISelection)  selectionChanged(IWorkbenchPart,\nISelection)  BPELTabbedPropertySheetPage.selectionChanged(IWorkbenchPart, ISelection)  PropertySheet.selectionChanged(IWorkbenchPart, ISelection)  AbstractSelectionService$3.run()  InternalPlatform.run(ISafeRunnable)  Platform.run(ISafeRunnable)  fireSelection(IWorkbenchPart,\nISelection)  partActivated(IWorkbenchPart)\n WorkbenchPage.firePartActivated(IWorkbenchPart)  WorkbenchPage.setActivePart(IWorkbenchPart)  WorkbenchPage.activate(IWorkbenchPart)  WorkbenchPage$9.run()  BusyIndicator.showWhile(Display, Runnable)  SCDLUIUtils.openEditor(IWorkbenchPart, IFileEditorInput)  SCDLUIUtils.openEditor(IWorkbenchPart, IFile)  ComponentEditPart.performOpen()  performRequest(Request)  CreateImplementationAction.run()  runWithEvent(Event)  ActionContributionItem$7.handleEvent(Event)  EventTable.sendEvent(Event)  sendEvent(Event)  Display.runDeferredEvents()  Display.readAndDispatch()  Workbench.runEventLoop(Window$IExceptionHandler, Display)  Workbench.runUI()  Workbench.createAndRunWorkbench(Display, WorkbenchAdvisor)  PlatformUI.createAndRunWorkbench(Display, WorkbenchAdvisor)  IDEApplication.run(Object)  PlatformActivator$1.run(Object)  EclipseStarter.run(Object)"}
{"key":"83699","title":"","description":"StyledText.setFont(Font)  updateFont(Font, Font)  updateFont(Font, Font)  updateFont(Font, Font)  Composite.updateFont(Font, Font)  Composite.updateFont(Font, Font)  Composite.updateFont(Font, Font)  Composite.updateFont(Font, Font)  Composite.updateFont(Font, Font)  Composite.updateFont(Font, Font)  Composite.updateFont(Font, Font)  updateFont(Font, Font)  Display.updateFont()  Display.readAndDispatch()  Workbench.runEventLoop(Window$IExceptionHandler, Display)  Workbench.runUI()  Workbench.createAndRunWorkbench(Display, WorkbenchAdvisor)  PlatformUI.createAndRunWorkbench(Display, WorkbenchAdvisor)  IDEApplication.run(Object)  EclipseStarter.run(Object)"}
{"key":"85402","title":"","description":"import e.Team;\n   @Author(name\u003d{Team.DAVID, Team.JEROME})\n   public class Test {\n\t@Author(name\u003dTeam.PHILIPPE) void foo() {}\n\t@Author int t;\n  }\n \n  import e.Team;\n  public @interface Author {\n\tTeam[] name() default Team.FREDERIC;\n  }\n \n  package e;\n  public enum Team {\n\tPHILIPPE, DAVID, JEROME, FREDERIC;\n  }\n\n ResultCollector.accept(CompletionProposal)"}
{"key":"77234","title":"","description":"getTypeName() getTypeName()  JavaExceptionBreakpoint\n\ngetTypeName()"}
{"key":"90289","title":"","description":"IStackFrame.getVariables()"}
{"key":"93030","title":"","description":"IDEWorkbenchPlugin.getPluginWorkspace()\n\t\t\t\t loadProjectDescription(\n\t\t\t\tprovider.getContents(projectArchiveFile));\n org.eclipse.core.internal.resources.Workspace\n\nresult \u003d new ProjectDescriptionReader().read(new InputSource(stream));"}
{"key":"98686","title":"","description":"@\n\nClick"}
{"key":"77249","title":"","description":"@Jpf.Controller \npublic class Foo {...} @Jpf.Controller(\n    catches\u003d{\n       @Jpf.Catch(type\u003djava.lang.Exception.class, method\u003d\"handleException\"),\n       @Jpf.Catch(type\u003dPageFlowException.class, \nmethod\u003d\"handlePageFlowException\")\n    }\n)\npublic class Foo {\n...\n}"}
{"key":"100807","title":"","description":"JavaModelManager.getZipFile(IPath) JavaModelManager.closeZipFile(ZipFile) JavaModelManager.getZipFile(IPath) JavaModelManager.closeZipFile(ZipFile) JavaModelManager.getZipFile(IPath) JavaModelManager.closeZipFile(ZipFile) JavaModelManager.getZipFile(IPath) JavaModelManager.closeZipFile(ZipFile) JavaModelManager.getZipFile(IPath) JavaModelManager.closeZipFile(ZipFile) JavaModelManager.getZipFile(IPath) JavaModelManager.closeZipFile(ZipFile) JavaModelManager.getZipFile(IPath) JavaModelManager.closeZipFile(ZipFile) JavaModelManager.getZipFile(IPath) JavaModelManager.closeZipFile(ZipFile) JavaModelManager.getZipFile(IPath) JavaModelManager.closeZipFile(ZipFile)"}
{"key":"85672","title":"","description":"package folding;\n\nclass Test {\n    \n}"}
{"key":"81242","title":"","description":"Local Time \u003d Wed  Elapsed Time \u003d 107"}
{"key":"87569","title":"","description":"class which implements java.io.Serializable"}
{"key":"106725","title":"","description":"class that extends first"}
{"key":"78746","title":"","description":"interface I {\n    static void m(/*caret_here*/);\n}"}
{"key":"96489","title":"","description":"layout.addStandaloneView(BrowserApp.BROWSER_VIEW_ID, false,\nIPageLayout.RIGHT, .25f, IPageLayout.ID_EDITOR_AREA);"}
{"key":"84194","title":"","description":"import org.eclipse.core.runtime.*;"}
{"key":"95096","title":"","description":"import static java.lang.Math"}
{"key":"300054","title":"","description":"public class Bug {\n\tvoid bar() {\n\t\tSystem.out.println();\n\t}\n}\n System.out.println();"}
{"key":"98740","title":"","description":"String folder \u003d \"/temp\";//$NON-NLS-1$\nString projName \u003d \"project\";//$NON-NLS-1$ \nIProjectDescription description \u003d ResourcesPlugin.getWorkspace\n().loadProjectDescription(projPath);\nIProject project \u003d ResourcesPlugin.getWorkspace().getRoot().getProject\n(description.getName());\nproject.create(description, new NullProgressMonitor());\n\n project.open()  The members()  if (info.isSet(ICoreConstants.M_CHILDREN_UNKNOWN))\n\t\t\tworkspace.refreshManager.refresh(this);"}
{"key":"107031","title":"","description":"SWTError (Widget disposed)"}
{"key":"90600","title":"","description":"rewriter.rewriteAST(document, null)"}
{"key":"85734","title":"","description":"Runtime.exec(...)"}
{"key":"93069","title":"","description":"org.eclipse.core.internal.compatibility.PluginActivator.start()"}
{"key":"81428","title":"","description":"defaultArguments()   getConnectionArguments(Map)"}
{"key":"87665","title":"","description":"testOpenJavaEditor1()"}
{"key":"79091","title":"","description":"class X { Zork[] foo; }"}
{"key":"77573","title":"","description":"import static java.lang.Math"}
{"key":"98790","title":"","description":"site.getPart()"}
{"key":"95152","title":"","description":"InputReadJob readJob \u003d new InputReadJob(streamsProxy);"}
{"key":"96604","title":"","description":"import java.util.List;\n public class X\u003cU, V extends List\u003cU\u003e\u003e  void foo(X\u003cString, ?\u003e x1, X\u003cObject, ?\u003e x2)  get(...)"}
{"key":"76208","title":"","description":"Boolean.getBoolean((String)newValue)"}
{"key":"87692","title":"","description":"setConsoleWidth()"}
{"key":"93119","title":"","description":"package codeAssist;\n\nimport java.util.List ;\n\npublic class Extends {\n\tvoid m() {\n\t\tList \u003c? |\u003e\n\t}\n}"}
{"key":"86000","title":"","description":"package com.ibm.test.image;\n\nimport org.eclipse.swt.*;\nimport org.eclipse.swt.graphics.*;\n\npublic class ImageLoaderTest {\n\t\t\n\tpublic static void main(String[] args) {\n\t\tImageLoader loader;\n\t\tString dir\u003d\"c:\\\\image-problems\\\\\";\n\t\tString files[]\u003d{\n\t\t\t\t\"s34i3p04\",\n\t\t\t\t\"s34n3p04\",\n\t\t\t\t\"s35i3p04\",\n\t\t\t\t\"s35n3p04\",\n\t\t\t\t\"s36i3p04\",\n\t\t\t\t\"s36n3p04\",\n\t\t\t\t\"s37i3p04\",\n\t\t\t\t\"s37n3p04\",\n\t\t\t\t\"s38i3p04\",\n\t\t\t\t\"s38n3p04\",\n\t\t\t\t\"s39i3p04\",\n\t\t\t\t\"s39n3p04\"\n\t\t};\n\t\t\n\t\ttry {\n\t\t\tfor (int i\u003d0; i\u003cfiles.length; i++) {\n\t\t\tString filein  \u003d dir+files[i]+\".png\";\n\t\t\tString fileout \u003d dir+files[i]+\".jpg\";\n\t\t\t\n\t\t\tloader \u003d new ImageLoader();\n\t\t\tloader.load(filein);\n\t\t\tloader.save(fileout,SWT.IMAGE_JPEG);\n\t\t\t}\n\t\t} catch (SWTException e) {\n\t\t  e.printStackTrace();\n\t\t}\n\t}\n}"}
{"key":"79309","title":"","description":"import test.Testable;\nimport test.Testable.Types; // F3 leads to java.sql.Types\n\npublic class Test { \n\n\tpublic static void main( String[] args ) {\n\t\tSystem.out.println(Testable.Types.TEST);\n\t}\n}\n \npackage test;\n\npublic interface Testable {\n\tpublic interface Types {\n\t\tString TEST \u003d \"test\";\n\t}\n}"}
{"key":"96765","title":"","description":"public enum MyEnum {\n\n  A(){\n    public String toString() {\n      // no code completion here!\n      return null;\n    }\n  };\n\n}"}
{"key":"108466","title":"","description":"EclipseClassLoader.getResources(String)  getClass() getClassLoader() getResources(\"file.txt\")"}
{"key":"102427","title":"","description":"public class Helper {\n    public static int getValue() {...}\n}\n \nimport static Helper.*;\n\npublic class Doer {\n    public void doit() {\n        int i \u003d getValue();\n    }\n}\n getValue() getValue()"}
{"key":"82402","title":"","description":"DebugUIMessages.getString(ERROR)  e.getMessage()"}
{"key":"95352","title":"","description":"ObjectReferenceImpl.uniqueID()  isCollected()"}
{"key":"91098","title":"","description":"String a;\nString[] b;\nString[][] c;"}
{"key":"99282","title":"","description":"package com.bea;\n\npublic class TestEnumSwitch {\n\t\n\tpublic static synchronized void foo() {} \n\n\tpublic static final void main(String args[]) {\n\t\t\n\t\tfinal TestEnum e \u003d TestEnum.A1999;\n\t\t\n\t\tThread[] runners \u003d new Thread[40];\n\t\tfor (int i \u003d 0; i \u003c runners.length; i++) {\n\t\t\trunners[i] \u003d new Thread(new Runnable() {\n\t\t\t\tpublic void run() {\n\t\t\t\t\tswitch (e) {\n\t\t\t\t\tcase A1:\n\t\t\t\t\t\tSystem.err.println(\"1\");\n\t\t\t\t\t\tbreak;\n\t\t\t\t\tcase A2:\n\t\t\t\t\t\tSystem.err.println(\"2\");\n\t\t\t\t\t\tbreak;\n\t\t\t\t\tcase A8:\n\t\t\t\t\t\tSystem.err.println(\"8\");\n\t\t\t\t\t\tbreak;\n\t\t\t\t\tcase A13:\n\t\t\t\t\t\tSystem.err.println(\"13\");\n\t\t\t\t\t\tbreak;\n\t\t\t\t\tcase A1999:\n\t\t\t\t\t\tSystem.err.println(\"1999\");\n\t\t\t\t\t\tbreak;\n\t\t\t\t\tdefault:\n\t\t\t\t\t\tSystem.err.println(\"default\");\n\t\t\t\t\t\tbreak;\n\t\t\t\t\t}\n\t\t\t\t\t\n\t\t\t\t}\n\t\t\t});\n\t\t}\n\t\t\n\t\tfor (int i \u003d 0; i \u003c runners.length; i++) {\n\t\t\trunners[i].start();\n\t\t}\n\t\t\n\t}\n\t\n\tpublic enum TestEnum {\n\t\tA0, A1, A2, A3, A4, A5, A6, A7, A8, A9,\n\t\tA10, A11, A12, A13, A14, A15, A16, A17, A18, A19,\n\t\tA20, A21, A22, A23, A24, A25, A26, A27, A28, A29,\n\t\tA30, A31, A32, A33, A34, A35, A36, A37, A38, A39,\n\t\tA40, A41, A42, A43, A44, A45, A46, A47, A48, A49,\n\t\tA50, A51, A52, A53, A54, A55, A56, A57, A58, A59,\n\t\tA60, A61, A62, A63, A64, A65, A66, A67, A68, A69,\n\t\tA70, A71, A72, A73, A74, A75, A76, A77, A78, A79,\n\t\tA80, A81, A82, A83, A84, A85, A86, A87, A88, A89,\n\t\tA90, A91, A92, A93, A94, A95, A96, A97, A98, A99,\n\t\tA100, A101, A102, A103, A104, A105, A106, A107, A108, A109,\n\t\tA110, A111, A112, A113, A114, A115, A116, A117, A118, A119,\n\t\tA120, A121, A122, A123, A124, A125, A126, A127, A128, A129,\n\t\tA130, A131, A132, A133, A134, A135, A136, A137, A138, A139,\n\t\tA140, A141, A142, A143, A144, A145, A146, A147, A148, A149,\n\t\tA150, A151, A152, A153, A154, A155, A156, A157, A158, A159,\n\t\tA160, A161, A162, A163, A164, A165, A166, A167, A168, A169,\n\t\tA170, A171, A172, A173, A174, A175, A176, A177, A178, A179,\n\t\tA180, A181, A182, A183, A184, A185, A186, A187, A188, A189,\n\t\tA190, A191, A192, A193, A194, A195, A196, A197, A198, A199,\n\t\tA200, A201, A202, A203, A204, A205, A206, A207, A208, A209,\n\t\tA210, A211, A212, A213, A214, A215, A216, A217, A218, A219,\n\t\tA220, A221, A222, A223, A224, A225, A226, A227, A228, A229,\n\t\tA230, A231, A232, A233, A234, A235, A236, A237, A238, A239,\n\t\tA240, A241, A242, A243, A244, A245, A246, A247, A248, A249,\n\t\tA250, A251, A252, A253, A254, A255, A256, A257, A258, A259,\n\t\tA260, A261, A262, A263, A264, A265, A266, A267, A268, A269,\n\t\tA270, A271, A272, A273, A274, A275, A276, A277, A278, A279,\n\t\tA280, A281, A282, A283, A284, A285, A286, A287, A288, A289,\n\t\tA290, A291, A292, A293, A294, A295, A296, A297, A298, A299,\n\t\tA300, A301, A302, A303, A304, A305, A306, A307, A308, A309,\n\t\tA310, A311, A312, A313, A314, A315, A316, A317, A318, A319,\n\t\tA320, A321, A322, A323, A324, A325, A326, A327, A328, A329,\n\t\tA330, A331, A332, A333, A334, A335, A336, A337, A338, A339,\n\t\tA340, A341, A342, A343, A344, A345, A346, A347, A348, A349,\n\t\tA350, A351, A352, A353, A354, A355, A356, A357, A358, A359,\n\t\tA360, A361, A362, A363, A364, A365, A366, A367, A368, A369,\n\t\tA370, A371, A372, A373, A374, A375, A376, A377, A378, A379,\n\t\tA380, A381, A382, A383, A384, A385, A386, A387, A388, A389,\n\t\tA390, A391, A392, A393, A394, A395, A396, A397, A398, A399,\n\t\tA400, A401, A402, A403, A404, A405, A406, A407, A408, A409,\n\t\tA410, A411, A412, A413, A414, A415, A416, A417, A418, A419,\n\t\tA420, A421, A422, A423, A424, A425, A426, A427, A428, A429,\n\t\tA430, A431, A432, A433, A434, A435, A436, A437, A438, A439,\n\t\tA440, A441, A442, A443, A444, A445, A446, A447, A448, A449,\n\t\tA450, A451, A452, A453, A454, A455, A456, A457, A458, A459,\n\t\tA460, A461, A462, A463, A464, A465, A466, A467, A468, A469,\n\t\tA470, A471, A472, A473, A474, A475, A476, A477, A478, A479,\n\t\tA480, A481, A482, A483, A484, A485, A486, A487, A488, A489,\n\t\tA490, A491, A492, A493, A494, A495, A496, A497, A498, A499,\n\t\tA500, A501, A502, A503, A504, A505, A506, A507, A508, A509,\n\t\tA510, A511, A512, A513, A514, A515, A516, A517, A518, A519,\n\t\tA520, A521, A522, A523, A524, A525, A526, A527, A528, A529,\n\t\tA530, A531, A532, A533, A534, A535, A536, A537, A538, A539,\n\t\tA540, A541, A542, A543, A544, A545, A546, A547, A548, A549,\n\t\tA550, A551, A552, A553, A554, A555, A556, A557, A558, A559,\n\t\tA560, A561, A562, A563, A564, A565, A566, A567, A568, A569,\n\t\tA570, A571, A572, A573, A574, A575, A576, A577, A578, A579,\n\t\tA580, A581, A582, A583, A584, A585, A586, A587, A588, A589,\n\t\tA590, A591, A592, A593, A594, A595, A596, A597, A598, A599,\n\t\tA600, A601, A602, A603, A604, A605, A606, A607, A608, A609,\n\t\tA610, A611, A612, A613, A614, A615, A616, A617, A618, A619,\n\t\tA620, A621, A622, A623, A624, A625, A626, A627, A628, A629,\n\t\tA630, A631, A632, A633, A634, A635, A636, A637, A638, A639,\n\t\tA640, A641, A642, A643, A644, A645, A646, A647, A648, A649,\n\t\tA650, A651, A652, A653, A654, A655, A656, A657, A658, A659,\n\t\tA660, A661, A662, A663, A664, A665, A666, A667, A668, A669,\n\t\tA670, A671, A672, A673, A674, A675, A676, A677, A678, A679,\n\t\tA680, A681, A682, A683, A684, A685, A686, A687, A688, A689,\n\t\tA690, A691, A692, A693, A694, A695, A696, A697, A698, A699,\n\t\tA700, A701, A702, A703, A704, A705, A706, A707, A708, A709,\n\t\tA710, A711, A712, A713, A714, A715, A716, A717, A718, A719,\n\t\tA720, A721, A722, A723, A724, A725, A726, A727, A728, A729,\n\t\tA730, A731, A732, A733, A734, A735, A736, A737, A738, A739,\n\t\tA740, A741, A742, A743, A744, A745, A746, A747, A748, A749,\n\t\tA750, A751, A752, A753, A754, A755, A756, A757, A758, A759,\n\t\tA760, A761, A762, A763, A764, A765, A766, A767, A768, A769,\n\t\tA770, A771, A772, A773, A774, A775, A776, A777, A778, A779,\n\t\tA780, A781, A782, A783, A784, A785, A786, A787, A788, A789,\n\t\tA790, A791, A792, A793, A794, A795, A796, A797, A798, A799,\n\t\tA800, A801, A802, A803, A804, A805, A806, A807, A808, A809,\n\t\tA810, A811, A812, A813, A814, A815, A816, A817, A818, A819,\n\t\tA820, A821, A822, A823, A824, A825, A826, A827, A828, A829,\n\t\tA830, A831, A832, A833, A834, A835, A836, A837, A838, A839,\n\t\tA840, A841, A842, A843, A844, A845, A846, A847, A848, A849,\n\t\tA850, A851, A852, A853, A854, A855, A856, A857, A858, A859,\n\t\tA860, A861, A862, A863, A864, A865, A866, A867, A868, A869,\n\t\tA870, A871, A872, A873, A874, A875, A876, A877, A878, A879,\n\t\tA880, A881, A882, A883, A884, A885, A886, A887, A888, A889,\n\t\tA890, A891, A892, A893, A894, A895, A896, A897, A898, A899,\n\t\tA900, A901, A902, A903, A904, A905, A906, A907, A908, A909,\n\t\tA910, A911, A912, A913, A914, A915, A916, A917, A918, A919,\n\t\tA920, A921, A922, A923, A924, A925, A926, A927, A928, A929,\n\t\tA930, A931, A932, A933, A934, A935, A936, A937, A938, A939,\n\t\tA940, A941, A942, A943, A944, A945, A946, A947, A948, A949,\n\t\tA950, A951, A952, A953, A954, A955, A956, A957, A958, A959,\n\t\tA960, A961, A962, A963, A964, A965, A966, A967, A968, A969,\n\t\tA970, A971, A972, A973, A974, A975, A976, A977, A978, A979,\n\t\tA980, A981, A982, A983, A984, A985, A986, A987, A988, A989,\n\t\tA990, A991, A992, A993, A994, A995, A996, A997, A998, A999,\n\t\tA1000, A1001, A1002, A1003, A1004, A1005, A1006, A1007, A1008, A1009,\n\t\tA1010, A1011, A1012, A1013, A1014, A1015, A1016, A1017, A1018, A1019,\n\t\tA1020, A1021, A1022, A1023, A1024, A1025, A1026, A1027, A1028, A1029,\n\t\tA1030, A1031, A1032, A1033, A1034, A1035, A1036, A1037, A1038, A1039,\n\t\tA1040, A1041, A1042, A1043, A1044, A1045, A1046, A1047, A1048, A1049,\n\t\tA1050, A1051, A1052, A1053, A1054, A1055, A1056, A1057, A1058, A1059,\n\t\tA1060, A1061, A1062, A1063, A1064, A1065, A1066, A1067, A1068, A1069,\n\t\tA1070, A1071, A1072, A1073, A1074, A1075, A1076, A1077, A1078, A1079,\n\t\tA1080, A1081, A1082, A1083, A1084, A1085, A1086, A1087, A1088, A1089,\n\t\tA1090, A1091, A1092, A1093, A1094, A1095, A1096, A1097, A1098, A1099,\n\t\tA1100, A1101, A1102, A1103, A1104, A1105, A1106, A1107, A1108, A1109,\n\t\tA1110, A1111, A1112, A1113, A1114, A1115, A1116, A1117, A1118, A1119,\n\t\tA1120, A1121, A1122, A1123, A1124, A1125, A1126, A1127, A1128, A1129,\n\t    A1999,\n\t\t}\n}"}
{"key":"96766","title":"","description":"public class Tst {\n    \n    public static void main(String[] args) throws Exception {\n        \n        System.out.println(\"Log: Tst.main(Tst.java:5) Some message\");\n        System.out.println(\"Log: Tst.main(Tst.java:6)\");\n    }\n}"}
{"key":"87796","title":"","description":"AbstractTextEditor.dispose() Shell shell\u003d getSite().getShell();\n\tif (shell !\u003d null \u0026\u0026 !shell.isDisposed())\n\t\tshell.removeShellListener(fActivationListener);\n\n getSite() getShell()"}
{"key":"76472","title":"","description":"public class X {\n\tpublic static void main(String[] args) {\n\t\tlong[] tab \u003d new long[] {};\n\t\tSystem.out.println(tab.clone());\n\t\tSystem.out.println(tab.clone());\n\t}\n}\n\n clone()"}
{"key":"78160","title":"","description":"public class X extends Y\u003cY\u003c?\u003e\u003e {\n}\n class Y\u003cT\u003e {}\n\n public class X extends Y\u003cY\u003c?\u003e\u003e"}
{"key":"93249","title":"","description":"IRunnableWithProgress runnable\u003d new IRunnableWithProgress() {\n};\n\n public void run(org.eclipse.core.runtime.IProgressMonitor monitor) throws\nInvocationTargetException, InterruptedException"}
{"key":"84724","title":"","description":"public class Test {\n    public void foo() {\n        Cell c\u003d new Cell(\"\", \"\"); // calls Cell.Cell(String...)\n    }\n}\n class Cell {\n    public Cell(String... args) { }\n}"}
{"key":"102778","title":"","description":"int[] tab \u003d new int[] {1, 2, 3, 4, 5, 6, 7, 8, 9 };\nint sum \u003d 0;\nfor (int i : tab) {\n\tsum +\u003d i;\n}"}
{"key":"78201","title":"","description":"RefreshBuildFilesAction$1.run(IProgressMonitor)  ModalContext$ModalContextThread.run()"}
{"key":"76534","title":"","description":"createViewer(...)"}
{"key":"86610","title":"","description":"class AllZRZHTests"}
{"key":"82712","title":"","description":"import static java.lang.Math.*; public class Test {\n\n    void t() {\n        abs(\u003cCTRL+SPACE\u003e);\n    }\n}"}
{"key":"91346","title":"","description":"{buildDirectory}"}
{"key":"110837","title":"","description":"KeyAgreement.getInstance(\"DiffieHellman\")  \nimport java.security.NoSuchAlgorithmException;\nimport javax.crypto.KeyAgreement;\n\npublic class KeyAgreementProblem\n{\n    public static void main(String[] args) throws NoSuchAlgorithmException\n    {\n        KeyAgreement ka \u003d KeyAgreement.getInstance(\"DiffieHellman\");\n        System.out.println(ka);\n    }\n}\n javax.crypto.KeyAgreement.getInstance(DashoA12275)"}
{"key":"93727","title":"","description":"import org.drools.semantics.annotation.DroolsParameter;\n\npublic class Test\n{\n  public Object passthrough( @DroolsParameter(\"parameter\") Object parameter ) {\n    return parameter;\n  }\n}"}
{"key":"88295","title":"","description":"public class Class3 {\n\n\tenum Color {\n\t\tBLUE, WHITE, RED;\n\t}\n\t\n\tvoid select(Color c) {\n\t\t\n\t\tswitch(c){\n\t\t\tcase BLUE :\n\t\t\tcase WHITE:\n\t\t\tcase R\u003c|\u003e\n\t\t}\n\t}\n}"}
{"key":"95505","title":"","description":"{cursor}"}
{"key":"103379","title":"","description":"dispose()"}
{"key":"78245","title":"","description":"public enum TestEnum {\n  a;\n  public static void main(String[] args) {\n    System.out.println();   // \u003c- add a breakpoint here\n  }\n}"}
{"key":"96820","title":"","description":"enable()"}
{"key":"84770","title":"","description":"public class FormatterTest {\n  void doTest(\n      ) {\n     System.out.println(\"(\" + \n         Object.class + \")\");\n  }\n}\n toString()"}
{"key":"79544","title":"","description":"public class A\u003cX\u003e {\n    List\u003cInteger\u003e i;\n    List\u003cNumber\u003e n;\n    List\u003c? extends Number\u003e en;\n    List\u003cX\u003e x;\n}"}
{"key":"99355","title":"","description":"package p;\n\nclass Container\u003cT\u003e\n{\n   private final T m_t;\n\n   public Container(T t)\n   {\n      m_t \u003d t;\n   }\n\n   T get()\n   {\n      return m_t;\n   }\n}\n\nclass GenericContainer\n{\n   private final Container\u003c?\u003e m_c;\n\n   public GenericContainer(Container\u003c?\u003e c) \n   {\n      m_c \u003d c;\n   }\n\n   public Container\u003c?\u003e getC()\n   {\n      return m_c;\n   }\n}\n\npublic class A\n{\n   GenericContainer createContainer()\n   {\n      final Container\u003cString\u003e innerContainer \u003d new Container\u003cString\u003e(\"hello\");\n      final Container\u003cContainer\u003cString\u003e\u003e outerContainer \u003d new\nContainer\u003cContainer\u003cString\u003e\u003e(innerContainer);\n      return new GenericContainer(outerContainer);\n   }\n   \n   void method()\n   {\n      final GenericContainer createContainer \u003d createContainer();\n      @SuppressWarnings(\"unchecked\")\n      final Container\u003cContainer\u003cString\u003e\u003e c \u003d (Container\u003cContainer\u003cString\u003e\u003e)\ncreateContainer.getC();\n      //extract method from here\n      final Container\u003cString\u003e container \u003d c.get();\n      final String string \u003d container.get();\n      //to here\n   }\n}\n \n\npackage p;\n\nclass Container\u003cT\u003e\n{\n   private final T m_t;\n\n   public Container(T t)\n   {\n      m_t \u003d t;\n   }\n\n   T get()\n   {\n      return m_t;\n   }\n}\n\nclass GenericContainer\n{\n   private final Container\u003c?\u003e m_c;\n\n   public GenericContainer(Container\u003c?\u003e c) \n   {\n      m_c \u003d c;\n   }\n\n   public Container\u003c?\u003e getC()\n   {\n      return m_c;\n   }\n}\n\npublic class A\n{\n   GenericContainer createContainer()\n   {\n      final Container\u003cString\u003e innerContainer \u003d new Container\u003cString\u003e(\"hello\");\n      final Container\u003cContainer\u003cString\u003e\u003e outerContainer \u003d new\nContainer\u003cContainer\u003cString\u003e\u003e(innerContainer);\n      return new GenericContainer(outerContainer);\n   }\n   \n   void method()\n   {\n      final GenericContainer createContainer \u003d createContainer();\n      @SuppressWarnings(\"unchecked\")\n      final Container\u003cContainer\u003cString\u003e\u003e c \u003d (Container\u003cContainer\u003cString\u003e\u003e)\ncreateContainer.getC();\n      //extract method from here\n      extractedMethod(c);\n      //to here\n   }\n\n   private void extractedMethod(final final final Container\u003cContainer\u003cString\u003e\u003e c)\n   {\n      final Container\u003cString\u003e container \u003d c.get();\n      final String string \u003d container.get();\n   }\n}"}
{"key":"86614","title":"","description":"Target Workspace\u003dc Object.wait()\n Object.wait()\n Object.wait()\n Object.wait()  Object.wait()\n Object.wait()"}
{"key":"76677","title":"","description":"public class ConsoleTest {\n    public static void main(String[] args) {\n        try {\n\t        byte[] b \u003d new byte[100];\n\t        for(;;) {\n\t            int read \u003d System.in.read(b);\n\t            System.out.write(b, 0, read);\n\t        }\n        } catch (Exception e) {\n            e.printStackTrace();\n        }\n    }\n}"}
{"key":"83005","title":"","description":"@interface A {\n    // Content Assist here\n}"}
{"key":"103918","title":"","description":"public void start(BundleContext context) throws Exception {\n  super.start(context);\n  XmlBeanFactory bf \u003d new XmlBeanFactory(\n     new ClassPathResource(\"/bug/beans.xml\"));\n  bf.getBean(\"hang\");\n}\n\n bf.getBean(\"hang\")  bf.getBean()"}
{"key":"78275","title":"","description":"public class K {\n\tvoid a() {\n/*press Ctrl+Shift+Down here*/\t}\n\t}\n\t void m() {}"}
{"key":"93854","title":"","description":"Signature.getTypeParameters(String)  getText(Object)  HierarchyLabelProvider.getText(Object)  getText(Object)  updateLabel(ViewerLabel,\nObject)  buildLabel(ViewerLabel, Object,\nIViewerLabelProvider)  doUpdateItem(Item, Object)  AbstractTreeViewer$UpdateItemSafeRunnable.run()  InternalPlatform.run(ISafeRunnable)  Platform.run(ISafeRunnable)  JFaceUtil$1.run(ISafeRunnable)  SafeRunnable.run(ISafeRunnable)  StructuredViewer$UpdateItemSafeRunnable.run()  InternalPlatform.run(ISafeRunnable)  Platform.run(ISafeRunnable)  JFaceUtil$1.run(ISafeRunnable)  SafeRunnable.run(ISafeRunnable)  updateItem(Widget, Object)  AbstractTreeViewer$1.run()  BusyIndicator.showWhile(Display, Runnable)  createChildren(Widget)  TypeHierarchyViewPart$11.run()  BusyIndicator.showWhile(Display, Runnable)  TypeHierarchyViewPart.updateInput(IJavaElement)  TypeHierarchyViewPart.setInputElement(IJavaElement)  OpenTypeHierarchyUtil.openInViewPart(IWorkbenchWindow, IJavaElement)  OpenTypeHierarchyAction.run(ITextSelection)  dispatchRun(ISelection)  run()  runWithEvent(Event)  ActionHandler.execute(Map)  LegacyHandlerWrapper.execute(ExecutionEvent)  Command.execute(ExecutionEvent)  ParameterizedCommand.execute(Object, Object)  WorkbenchKeyboard.executeCommand(Binding, Object)  WorkbenchKeyboard.press(List, Event)  WorkbenchKeyboard.processKeyEvent(List, Event)  WorkbenchKeyboard.filterKeySequenceBindings(Event)  WorkbenchKeyboard.access$3(WorkbenchKeyboard, Event)  WorkbenchKeyboard$KeyDownFilter.handleEvent(Event)  EventTable.sendEvent(Event)  Display.filterEvent(Event)  sendEvent(Event)  Display.readAndDispatch()  Workbench.runEventLoop(Window$IExceptionHandler, Display)  Workbench.runUI()  Workbench.createAndRunWorkbench(Display, WorkbenchAdvisor)  PlatformUI.createAndRunWorkbench(Display, WorkbenchAdvisor)  IDEApplication.run(Object)  PlatformActivator$1.run(Object)  EclipseStarter.run(Object)"}
{"key":"91786","title":"","description":"toStrings()"}
{"key":"79545","title":"","description":"public class CharIntTest\n{\n    /**\n     * Eclipse value: \" \"\n     * JDK value:     \"32\"\n     */\n    public static String C \u003d \"\" + +\u0027 \u0027;\n    /**\n     * Eclipse value: \"32\"\n     * JDK value:     \"32\"\n     */\n    public static String I \u003d \"\" + +32;\n\n    public static void main(String[] args)\n    {\n        System.out.println(C);\n        System.out.println(I);\n    }\n}"}
{"key":"88339","title":"","description":"Platform.asLocalURL(IPluginDescriptor.getInstallURL())"}
{"key":"99423","title":"","description":"getStartPosition()  getStartPosition()"}
{"key":"113455","title":"","description":"problemView.getCurrentMarkers()"}
{"key":"95731","title":"","description":"JobErrorDialog.refresh(...)"}
{"key":"84944","title":"","description":"package parser;\n\npublic interface ValueParser\u003cT\u003e {\n\tT parse(final String string);\n}"}
{"key":"78315","title":"","description":"Platform.getAdapterManager() registerAdapters(factory, DiffNode.class);\n\n startup()"}
{"key":"88532","title":"","description":"{ws} {ws} {ws} {ws}"}
{"key":"104202","title":"","description":"import java.util.Vector;\n\npublic class Test {\n    private static Object getVector() {\n        return new Vector();\n    }\n    \n    private static void test() {\n        int i \u003d getVector(); // the error is on \"i\"\n        i \u003d getVector(); // the error is on \"getVector()\"\n    }\n}"}
{"key":"83205","title":"","description":"System.exit()  Object.wait()  it()  Object.wait()  Object.wait()"}
{"key":"87171","title":"","description":"public class Inline\u003cT\u003e {\n\tvoid foo(T t) {\n\t\tSystem.out.println(t);\n\t}\n}\n\n class Use {\n\tpublic static void main(String[] args) {\n\t\tInline\u003cString\u003e i\u003d null;\n\t\ti.foo(\"Eclipse\");\n\t}\n}\n\n i.foo(\"Eclipse\");\n root.findDeclaringNode(methodBinding);"}
{"key":"97190","title":"","description":"System.out.println(Long.MAX_VALUE);\nSystem.out.println(23092395825689123986L);"}
{"key":"94201","title":"","description":"public class MyApplet extends Applet {\n\tprivate static final long serialVersionUID \u003d 1L;\n\n\tpublic void paint(Graphics graphics) {\n\t\tgraphics.drawString(\"Hello World\", 50, 100);\n\t}\n}"}
{"key":"79690","title":"","description":"public class A_test1105 {\n\tpublic \u003cE\u003e void foo(E param) {\n\t\t/*[*/E local\u003d param;\n\t\tfoo(local);/*]*/\n\t}\n}"}
{"key":"99631","title":"","description":"@B public class Test {}"}
{"key":"92236","title":"","description":"org.eclipse.team.internal.core.TeamPlugin.stop()"}
{"key":"94216","title":"","description":"interface IGeneric\u003cT\u003e {\n}\n public class Generic\u003cT\u003e implements IGeneric\u003cT\u003e {\n    public static void main(String[] args) {\n        IGeneric\u003cString\u003e gen\u003d new Generic\u003cString\u003e();\n        System.out.println();  // \u003c-- breakpoint here\n    }\n}"}
{"key":"83206","title":"","description":"class User {\n    enum Color {RED, GREEN, BLUE}\n    void x() {\n        Color.valueOf(\"RED\");\n        Color.values();\n    }\n}\n\n valueOf(String) values()"}
{"key":"89014","title":"","description":"run()  public class Try {\n\tRunnable one\u003d new Runnable(){\n\t\tpublic void run() {\n\t\t}\n\t};\n\tRunnable two\u003d new Runnable(){\n\t\tpublic void run() {\n\t\t}\n\t};\n}"}
{"key":"92291","title":"","description":"Util.compare(Object, Object)  toString() org.eclipse.ui.commands.HandlerSubmission.compareTo(Object)  org.eclipse.ui.contexts.EnabledSubmission.compareTo(Object)"}
{"key":"97655","title":"","description":"Bundle.getState()  Bundle.getState()"}
{"key":"79957","title":"","description":"Table table\u003dnew Table(shell,SWT.VIRTUAL);\nTableViewer tv\u003dnew TableViewer(table);\ntv.setContentProvider(new NetworkContentProvider());\ntv.setLabelProvider(new NetworkLabelProvider());\ntv.setInput(model);\n tv.setInput(model1);"}
{"key":"94465","title":"","description":"String [] elms\u003d { \"abc\", \"cde\", \"xyz\" };"}
{"key":"115363","title":"","description":"Ljava/lang/String;Ljava/lang/String;Lorg/eclipse/jface/action/IContributionManager;"}
{"key":"99693","title":"","description":"private static void doGenerics() {\n\t\tList\u003cInteger\u003e list \u003d new ArrayList\u003cInteger\u003e();\n\t\tfor (int i \u003d 0; i \u003c 1000; i++) {\n\t\t\tint num \u003d rand.nextInt(10000) + 1;\n\t\t\tlist.add(num);\n\t\t}\n\t\t\n\t\tint max \u003d 0;\n//start eval\n\t\tfor (Integer integer : list) { // BREAKPOINT HERE\n\t\t\tmax \u003d Math.max(max, integer);\n\t\t}\n\t\tSystem.out.println(max);\n//end eval\n\t}"}
{"key":"97674","title":"","description":"VectorTest.testCapacity()\n fEmpty.toString() charAt(100000)"}
{"key":"83321","title":"","description":"package test1;\n\npublic class Completion {\n\t| // does not work here\n}\n\nenum Natural {\n\tONE;\n     // works here\n}\n\nclass After {\n    // works here\n}"}
{"key":"89621","title":"","description":"import java.awt.Frame;\nimport java.awt.event.WindowAdapter;\n\npublic class Foo extends Frame {\n\n    public void bar() {\n        addWindow\u003cCODE ASSIST HERE\u003eListener(new WindowAdapter());\n    }\n}"}
{"key":"80384","title":"","description":"getDeclarationSignature() class Signature"}
{"key":"117890","title":"","description":"JavaElement.getURLContents(...)  tearDownSuite()  URLConnection.getContentEncoding()  URLConnection.getContentEncoding()"}
{"key":"97722","title":"","description":"@\n\nDialog"}
{"key":"83383","title":"","description":"String signature\u003d \"foo(+Ljava.lang.Comparable;)\";\nSignature.getParameterCount(signature);"}
{"key":"89632","title":"","description":"Collection\u003cString\u003e c \u003d new ArrayList\u003cString\u003e();\n        c.add(\"a\");\n        c.add(\"b\");\n        c.add(\"c\");\n\n        for (Iterator\u003cString\u003e i \u003d c.iterator(); i.hasNext(); )\n            if (i.next().length() \u003d\u003d 4)\n            {\n                String x \u003d i.next();\n                System.out.println(x);\n            }\n        \n        return c;\n\n run()"}
{"key":"80672","title":"","description":"package p;\n@q.Ann\npublic class Use {\n}\n \npackage q;\npublic @interface Ann {\n}\n\n\n \npackage q;\nimport java.lang.annotation.*;\n@Target(ElementType.METHOD)\npublic @interface Ann {\n}\n \n @Ann"}
{"key":"83489","title":"","description":"class Test\u003cT\u003e {\n  void foo(T t) {}\n}"}
{"key":"98147","title":"","description":"package xy;\npublic class Try {\n\tString fName;\n\tint fID;\n\t\n\tpublic Try(String name, int id) {\n\t\tfName\u003d name;\n\t\tfID\u003d id;\n\t}\n\t\n\tpublic static void main(String[] args) {\n\t\tTry t\u003d new Try(\"Hello\", 5);\n\t\tcallee(t, t);\n\t}\n\t\n\tstatic void callee(Try t1, Try t2) {\n\t\tboolean same\u003d t1.equals(t2); //breakpoint here\n\t}\n\t\n}"}
{"key":"98202","title":"","description":"lStack(java.lang.StringBuffer)  r.getStackFrames()  org.eclipse.ant.internal.ui.debug.model.AntThread.getStackFrames0() \n org.eclipse.ant.internal.ui.debug.model.AntThread.getTopStackFrame() \n org.eclipse.debug.core.DebugPlugin$EventNotifier.run()  org.eclipse.core.internal.jobs.Worker.run()"}
