{"key":"AMQP-170","title":"Message header value has type com.rabbitmq.client.impl.LongStringHelper.ByteArrayLongString","description":"Trying to read a value from the header of a message I get that this value is of com.rabbitmq.client.impl.LongStringHelper.ByteArrayLongString type, when it was supposed to be String."}
{"key":"AMQP-290","title":"Rabbit namespace little bug, when using reference to queueArgumentsMap","description":"I think both way should work. XSD documentation says: ref \u003d The bean name of the Map to pass to the broker when this component is declared."}
{"key":"AMQP-340","title":"Wrong RabbitMQ credentials are not considered as fatal error by SimpleMessageListenerContainer","description":"It would be nice to have a notification (exception) about wrong credentials right away (there is a comprehensive rabbit client exception that gets swallowed in SimpleMessageListenerContainer.run())"}
{"key":"AMQP-434","title":"convertAndSend() methods can throw MessageConversionException but that\u0027s not documented","description":"This exception should be either added to the throws clause OR caught and wrapped in convertMessageIfNecessary()"}
{"key":"AMQP-516","title":"Setting autoDelete or exclusive to anything, including \"true\" in @Queue without a queue name results in them being disabled","description":"Making them exclusive and auto delete by default when using a random name seems like a good idea, but it should probably be changed to something like:"}
{"key":"AMQP-633","title":"Non Transactional RabbitTemplate Uses Container Transactional Channel","description":"We should never return the resourceHolder if the resourceFactory.isSynchedLocalTransactionAllowed() is false."}
{"key":"AMQP-122","title":"RabbitAdmin needs to handle starting up with no broker","description":"Starting up with no broker can happen of course and so it would be reasonable to have a warning logged just once until the broker becomes available."}
