{"key":"COMPRESS-332","title":"FramedSnappyCompressorInputStream.read returns invalid value at end of stream.","description":"FramedSnappyCompressorInputStream.read() returns 0 when the end of stream has been reached rather than -1."}
{"key":"COMPRESS-357","title":"BZip2CompressorOutputStream can affect output stream incorrectly","description":"1) synchronize finish() or 2) don\u0027t call finish from finalize()."}
{"key":"COMPRESS-171","title":"createArchiveInputStream detects text files less than 100 bytes as tar archives","description":"I\u0027m not an expert on compressed archives but perhaps the heuristic that if a stream is interpretable as a tar file without an exception being thrown should only be applied on archives greater than 100 bytes?"}
{"key":"COMPRESS-178","title":"TarArchiveInputStream throws IllegalArgumentException instead of IOException","description":"TarArchiveInputStream is throwing  IllegalArgumentException instead of IOException on corrupt files, in direct contradiction to the Javadoc.                                 Expected behavior: TarArchiveInputStream should wrap the IllegalArgumentException in an IOException."}
{"key":"COMPRESS-244","title":"7z reading of UINT64 data type is wrong for big values","description":"Brief description large values with a first byte indicating at least 4 additional bytes shift an integer by at least 32bits thus leading to an overflow and an incorrect value - the value needs to be casted to long before the bitshift!"}
{"key":"COMPRESS-245","title":"TarArchiveInputStream#getNextTarEntry returns null prematurely","description":"The file is created with tar cvzf in RHEL 6.5 and the contents look like this when extracted with the same tool:"}
{"key":"COMPRESS-273","title":"NullPointerException when creation fields/entries from scratch","description":"Either (1) these constructors should be non-public, (2) there should be documentation that certain fields need to be set later for an instance to be usable."}
