{"id":478,"bug_id":"100040","text":"Slowdown between 3.1 RC1 and N20050602 due to change to ImageList. ","file_goldset":["org.eclipse.swt.widgets.Button","org.eclipse.swt.widgets.Display","org.eclipse.swt.widgets.ImageList","org.eclipse.swt.widgets.Menu","org.eclipse.swt.widgets.TabFolder","org.eclipse.swt.widgets.Table","org.eclipse.swt.widgets.ToolItem","org.eclipse.swt.widgets.Tree"],"creation_date":"2005-06-14 14:19:00","resolution_date":"2005-06-17 14:49:00"}
{"id":479,"bug_id":"100387","text":"CTabFolder creates and disposes a Shell on every MouseHover. ","file_goldset":["org.eclipse.swt.custom.CTabFolder"],"creation_date":"2005-06-16 08:44:00","resolution_date":"2005-08-05 12:14:00"}
{"id":480,"bug_id":"102794","text":"GridLayout has change behaviour between 3.0.2 and 3.1. ","file_goldset":["org.eclipse.swt.layout.GridLayout"],"creation_date":"2005-07-05 17:56:00","resolution_date":"2005-08-05 12:14:00"}
{"id":481,"bug_id":"104150","text":"[Patch] Table cursor separated from table selection when clicking on grid lines or empty space. ","file_goldset":["org.eclipse.swt.custom.TableCursor"],"creation_date":"2005-07-16 19:58:00","resolution_date":"2006-03-15 15:21:00"}
{"id":482,"bug_id":"104545","text":"Make default size of empty composites smaller. ","file_goldset":["org.eclipse.swt.widgets.CoolBar"],"creation_date":"2005-07-20 14:21:00","resolution_date":"2009-08-27 04:54:00"}
{"id":483,"bug_id":"104966","text":"Link displays as enabled when setText called after setEnabled. ","file_goldset":["org.eclipse.swt.widgets.Link"],"creation_date":"2005-07-24 23:17:00","resolution_date":"2005-08-05 12:14:00"}
{"id":484,"bug_id":"108813","text":"LineStyles in Very Long Lines Takes Forever. ","file_goldset":["org.eclipse.swt.graphics.TextLayout"],"creation_date":"2005-09-06 01:47:00","resolution_date":"2007-09-20 15:23:00"}
{"id":485,"bug_id":"115947","text":"Accessibility : Cannot set tooltip Text for image in Table Column. ","file_goldset":["org.eclipse.swt.widgets.Display"],"creation_date":"2005-11-10 21:36:00","resolution_date":"2006-11-06 09:15:00"}
{"id":486,"bug_id":"117574","text":"RIGHT_TO_LEFT |  DOUBLE_BUFFERED don\u0027t get along. ","file_goldset":["org.eclipse.swt.graphics.GC","org.eclipse.swt.widgets.Composite"],"creation_date":"2005-11-22 15:22:00","resolution_date":"2005-11-28 17:40:00"}
{"id":487,"bug_id":"58185","text":"Eclipse fails to load oldstyle BMP files. ","file_goldset":["org.eclipse.swt.SWT","org.eclipse.swt.internal.image.FileFormat","org.eclipse.swt.internal.image.OS2BMPFileFormat","org.eclipse.swt.internal.image.WinBMPFileFormat"],"creation_date":"2004-04-12 15:16:00","resolution_date":"2005-01-22 10:59:00"}
{"id":488,"bug_id":"77948","text":"NullPointerException in CLabel.findMnemonic. ","file_goldset":["org.eclipse.swt.custom.CLabel"],"creation_date":"2004-11-05 09:53:00","resolution_date":"2004-11-12 08:40:00"}
{"id":489,"bug_id":"78548","text":"[consistency] Button Selection fires before MouseUp. ","file_goldset":["org.eclipse.swt.widgets.Button","org.eclipse.swt.widgets.ToolItem"],"creation_date":"2004-11-12 16:15:00","resolution_date":"2004-11-24 14:30:00"}
{"id":490,"bug_id":"78559","text":"[consistency] Slider fires two Selection events before MouseDown. ","file_goldset":["org.eclipse.swt.widgets.Slider"],"creation_date":"2004-11-12 17:08:00","resolution_date":"2004-11-24 15:31:00"}
{"id":491,"bug_id":"78634","text":"ImageData.getTransparencyMask - incorrect javadoc or implementation wrong. ","file_goldset":["org.eclipse.swt.graphics.ImageData"],"creation_date":"2004-11-15 12:29:00","resolution_date":"2005-06-22 10:00:00"}
{"id":492,"bug_id":"78854","text":"Memory leak in ClipboardProxy.getFunc(). ","file_goldset":["org.eclipse.swt.dnd.Clipboard","org.eclipse.swt.dnd.DragSource"],"creation_date":"2004-11-17 12:17:00","resolution_date":"2004-12-21 13:21:00"}
{"id":493,"bug_id":"79268","text":"Program API does not work with GNOME 2.8 (libgnomevfs-WARNING). ","file_goldset":["org.eclipse.swt.program.Program"],"creation_date":"2004-11-23 06:56:00","resolution_date":"2005-05-10 17:51:00"}
{"id":494,"bug_id":"80120","text":"CTabFolder layout puts top right item one pixel to far to the right. ","file_goldset":["org.eclipse.swt.custom.CTabFolder"],"creation_date":"2004-12-03 11:43:00","resolution_date":"2004-12-06 12:11:00"}
{"id":495,"bug_id":"81242","text":"[JUnit] GP in Clipboard.getContents. ","file_goldset":["org.eclipse.swt.browser.Browser","org.eclipse.swt.dnd.DragSource","org.eclipse.swt.dnd.DropTarget","org.eclipse.swt.graphics.Device","org.eclipse.swt.graphics.FontData","org.eclipse.swt.graphics.GC","org.eclipse.swt.internal.BidiUtil","org.eclipse.swt.widgets.ColorDialog","org.eclipse.swt.widgets.DirectoryDialog","org.eclipse.swt.widgets.Display","org.eclipse.swt.widgets.FileDialog","org.eclipse.swt.widgets.FontDialog","org.eclipse.swt.widgets.MessageBox","org.eclipse.swt.widgets.Tracker"],"creation_date":"2004-12-15 12:07:00","resolution_date":"2005-04-15 10:32:00"}
{"id":496,"bug_id":"81264","text":"Table fails to setTopIndex after new items are added to the table. ","file_goldset":["org.eclipse.swt.widgets.List","org.eclipse.swt.widgets.Table","org.eclipse.swt.widgets.Tree"],"creation_date":"2004-12-15 13:17:00","resolution_date":"2006-04-12 13:22:00"}
{"id":497,"bug_id":"81265","text":"background of tree is incorrect when disabled. ","file_goldset":["org.eclipse.swt.widgets.Tree"],"creation_date":"2004-12-15 13:33:00","resolution_date":"2005-01-19 15:05:00"}
{"id":498,"bug_id":"81834","text":"BIDI:  StyledText does not convert European Number to Arabic Number. ","file_goldset":["org.eclipse.swt.graphics.TextLayout","org.eclipse.swt.internal.win32.OS"],"creation_date":"2004-12-22 21:09:00","resolution_date":"2006-08-09 12:46:00"}
{"id":499,"bug_id":"82500","text":"TabFolder should not use PtCalcCanvas in getClientArea. ","file_goldset":["org.eclipse.swt.widgets.TabFolder"],"creation_date":"2005-01-10 14:34:00","resolution_date":"2007-05-17 16:36:00"}
{"id":500,"bug_id":"83262","text":"rxvt pastes null terminator. ","file_goldset":["org.eclipse.swt.dnd.RTFTransfer","org.eclipse.swt.dnd.TextTransfer"],"creation_date":"2005-01-19 17:41:00","resolution_date":"2005-02-16 20:17:00"}
{"id":501,"bug_id":"83699","text":"Font reset to default after screen saver. ","file_goldset":["org.eclipse.swt.widgets.Control"],"creation_date":"2005-01-26 06:03:00","resolution_date":"2005-02-05 10:38:00"}
{"id":502,"bug_id":"84557","text":"Table item does not appear in table. ","file_goldset":["org.eclipse.swt.widgets.TableColumn","org.eclipse.swt.widgets.TreeColumn"],"creation_date":"2005-02-07 07:06:00","resolution_date":"2005-02-18 07:42:00"}
{"id":503,"bug_id":"84609","text":"TableColumn has NPE while calling pack()  on last column. ","file_goldset":["org.eclipse.swt.widgets.Table","org.eclipse.swt.widgets.TableColumn"],"creation_date":"2005-02-07 13:35:00","resolution_date":"2005-09-26 13:20:00"}
{"id":504,"bug_id":"86000","text":"ImageLoader Save - produces invalid JPEG images. ","file_goldset":["org.eclipse.swt.internal.image.JPEGFileFormat"],"creation_date":"2005-02-21 14:47:00","resolution_date":"2005-02-23 18:02:00"}
{"id":505,"bug_id":"86294","text":"Find/Replace not working \"Illegal/Unsupported escape on the Mac. ","file_goldset":["org.eclipse.swt.widgets.Combo","org.eclipse.swt.widgets.Spinner","org.eclipse.swt.widgets.Text"],"creation_date":"2005-02-23 12:03:00","resolution_date":"2005-03-14 17:08:00"}
{"id":506,"bug_id":"86631","text":"Javadoc wrong for Image(stream). ","file_goldset":["org.eclipse.swt.graphics.Image"],"creation_date":"2005-02-25 09:55:00","resolution_date":"2005-04-14 16:53:00"}
{"id":507,"bug_id":"87363","text":"Regression: MenuDetect no longer opens new menus. ","file_goldset":["org.eclipse.swt.widgets.Table","org.eclipse.swt.widgets.Text","org.eclipse.swt.widgets.Tree","org.eclipse.swt.widgets.Widget"],"creation_date":"2005-03-08 08:00:00","resolution_date":"2005-03-08 08:50:00"}
{"id":508,"bug_id":"87460","text":"StyledText: Caret location not updated when line style is used. ","file_goldset":["org.eclipse.swt.custom.StyledText"],"creation_date":"2005-03-08 21:22:00","resolution_date":"2008-07-29 13:13:00"}
{"id":509,"bug_id":"87676","text":"Double-click only works on a tree\u0027s column0. ","file_goldset":["org.eclipse.swt.widgets.Tree"],"creation_date":"2005-03-10 12:28:00","resolution_date":"2005-03-10 14:19:00"}
{"id":510,"bug_id":"87855","text":"NullPointerException in Table.callWindowProc. ","file_goldset":["org.eclipse.swt.widgets.Table","org.eclipse.swt.widgets.Tree"],"creation_date":"2005-03-12 07:29:00","resolution_date":"2005-03-28 18:28:00"}
{"id":511,"bug_id":"87997","text":"TableEditor.dispose( ) causes NPE if linked Table is being disposed. ","file_goldset":["org.eclipse.swt.widgets.Table","org.eclipse.swt.widgets.Tree"],"creation_date":"2005-03-14 19:21:00","resolution_date":"2005-04-06 12:50:00"}
{"id":512,"bug_id":"88717","text":"[DND] Tree is scrolling very slow when dragging an Item to the Bottom. ","file_goldset":["org.eclipse.swt.dnd.TableDragUnderEffect","org.eclipse.swt.dnd.TreeDragUnderEffect"],"creation_date":"2005-03-22 04:34:00","resolution_date":"2005-04-23 18:19:00"}
{"id":513,"bug_id":"88829","text":"Table.setColumnOrder() may not fire enough Move events. ","file_goldset":["org.eclipse.swt.widgets.Table"],"creation_date":"2005-03-22 20:41:00","resolution_date":"2005-04-06 17:05:00"}
{"id":514,"bug_id":"89533","text":"[Themes] Colors and Fonts preferences page has funny icons for color entries. ","file_goldset":["org.eclipse.swt.widgets.ImageList"],"creation_date":"2005-03-30 08:55:00","resolution_date":"2005-03-31 07:11:00"}
{"id":515,"bug_id":"90258","text":"Table item not updated when item count \u003d\u003d 1. ","file_goldset":["org.eclipse.swt.widgets.Table"],"creation_date":"2005-04-05 04:56:00","resolution_date":"2005-08-11 15:55:00"}
{"id":516,"bug_id":"91159","text":"[Consistency] DropTarget event.dataType field not alwys set on DragEnter. ","file_goldset":["org.eclipse.swt.dnd.DropTarget"],"creation_date":"2005-04-12 12:28:00","resolution_date":"2005-05-04 10:54:00"}
{"id":517,"bug_id":"93380","text":"[DnD] 100% CPU usage when dragging files in the navigator or package explorer. ","file_goldset":["org.eclipse.swt.dnd.DragSource"],"creation_date":"2005-05-01 22:12:00","resolution_date":"2005-12-20 15:39:00"}
{"id":518,"bug_id":"93724","text":"Drag-and-drop creates signal names every time. ","file_goldset":["org.eclipse.swt.dnd.DragSource","org.eclipse.swt.dnd.DropTarget"],"creation_date":"2005-05-04 17:35:00","resolution_date":"2005-05-30 15:14:00"}
{"id":519,"bug_id":"94467","text":"Table layouts which only lay out once are giving bogus sizes. ","file_goldset":["org.eclipse.swt.widgets.ScrollBar","org.eclipse.swt.widgets.Scrollable","org.eclipse.swt.widgets.Table"],"creation_date":"2005-05-10 14:35:00","resolution_date":"2005-05-13 08:30:00"}
{"id":520,"bug_id":"94598","text":"DBCS3.1:Eclipse hangs when activate IIMF input in search scope of Help. ","file_goldset":["org.eclipse.swt.browser.Browser","org.eclipse.swt.widgets.Composite"],"creation_date":"2005-05-11 00:01:00","resolution_date":"2005-05-27 04:59:00"}
{"id":521,"bug_id":"96053","text":"Spinner: Pressing buttons should focus spinner and select text. ","file_goldset":["org.eclipse.swt.widgets.Spinner"],"creation_date":"2005-05-19 22:06:00","resolution_date":"2005-08-29 08:22:00"}
{"id":522,"bug_id":"96916","text":"Spinner.setToolTipText() doesn\u0027t work. ","file_goldset":["org.eclipse.swt.widgets.Combo","org.eclipse.swt.widgets.Control","org.eclipse.swt.widgets.Shell","org.eclipse.swt.widgets.Spinner"],"creation_date":"2005-05-27 03:44:00","resolution_date":"2005-08-05 12:14:00"}
{"id":523,"bug_id":"97651","text":"tree insert mark cheese. ","file_goldset":["org.eclipse.swt.dnd.TreeDragUnderEffect","org.eclipse.swt.widgets.Tree"],"creation_date":"2005-05-31 14:43:00","resolution_date":"2005-06-03 13:04:00"}
{"id":524,"bug_id":"99145","text":"Link widget only disables link, not text. ","file_goldset":["org.eclipse.swt.widgets.Link"],"creation_date":"2005-06-09 09:51:00","resolution_date":"2006-04-25 16:52:00"}
{"id":525,"bug_id":"99376","text":"TableColumn has width\u003d0 and second column missing. ","file_goldset":["org.eclipse.swt.custom.SashFormLayout"],"creation_date":"2005-06-10 10:56:00","resolution_date":"2005-06-16 18:24:00"}
