{"key":"MATH-691","title":"Statistics.setVarianceImpl makes getStandardDeviation produce NaN","description":"Invoking SummaryStatistics.setVarianceImpl(new Variance(true/false) makes getStandardDeviation produce NaN. The code to reproduce it:   new Variance(true/false)  {code:java}\n int[] scores \u003d {1, 2, 3, 4};\nSummaryStatistics stats \u003d new SummaryStatistics();\nstats.setVarianceImpl(new Variance(false)); //use \"population variance\"\nfor(int i : scores) {\n  stats.addValue(i);\n}\ndouble sd \u003d stats.getStandardDeviation();\nSystem.out.println(sd);\n{code}\n\n {code:java}\n   double sd \u003d FastMath.sqrt(stats.getSecondMoment() / stats.getN());\n{code}"}
{"key":"MATH-836","title":"","description":"The Fraction constructor_ Fraction(double, int) takes a double value and a int maximal denominator, and approximates a fraction. When the double value is a large, negative number with many digits in the fractional part, and the maximal denominator is a big, positive integer (in the 100\u0027000s), two distinct bugs can manifest: 1: the constructor_ returns a positive Fraction. Calling Fraction(-33655.1677817278, 371880) returns the fraction 410517235/243036, which both has the wrong sign, and is far away from the absolute value of the given value 2: the constructor_ does not manage to reduce the Fraction properly. Calling Fraction(-43979.60679604749, 366081) returns the fraction -1651878166/256677, which should have* been reduced to -24654898/3831.              public Fraction(double value, int maxDenominator)\n        throws FractionConversionException\n    {\n       this(value, 0, maxDenominator, 100);\n    }"}
{"key":"MATH-567","title":"class Dfp toDouble method return -inf whan Dfp value is 0 \"zero\"","description":"If the Dfp\u0027s value is 0 \"zero\", the toDouble() method returns a  negative infini.    A simple test case is :              toDouble()  toDouble()  import org.apache.commons.math.dfp.DfpField;\n\n\n public static void main(String[] args)  DfpField field \u003d new DfpField(100);\n\t\t getZero()  field.getZero() toDouble() newDfp(0.0)  field.newDfp(0.0) toDouble() toDouble()"}
{"key":"MATH-318","title":"wrong result in eigen decomposition","description":"Some results computed by EigenDecompositionImpl are wrong. The following case computed by Fortran Lapack fails with version 2.0\n{code}\n    public void testMathpbx02() {                                   {code}\n     public void testMathpbx02() {\n\n        double[] mainTridiagonal \u003d {\n        \t  7484.860960227216, 18405.28129035345, 13855.225609560746,\n        \t 10016.708722343366, 559.8117399576674, 6750.190788301587, \n        \t    71.21428769782159\n        };\n        double[] secondaryTridiagonal \u003d {\n        \t -4175.088570476366,1975.7955858241994,5193.178422374075, \n        \t  1995.286659169179,75.34535882933804,-234.0808002076056\n        };\n\n        // the reference values have been computed using routine DSTEMR\n        // from the fortran library LAPACK version 3.2.1\n        double[] refEigenValues \u003d {\n        \t\t20654.744890306974412,16828.208208485466457,\n        \t\t6893.155912634994820,6757.083016675340332,\n        \t\t5887.799885688558788,64.309089923240379,\n        \t\t57.992628792736340\n        };\n        RealVector[] refEigenVectors \u003d {\n        \t\tnew ArrayRealVector(new double[] {-0.270356342026904, 0.852811091326997, 0.399639490702077, 0.198794657813990, 0.019739323307666, 0.000106983022327, -0.000001216636321}),\n        \t\tnew ArrayRealVector(new double[] {0.179995273578326,-0.402807848153042,0.701870993525734,0.555058211014888,0.068079148898236,0.000509139115227,-0.000007112235617}),\n        \t\tnew ArrayRealVector(new double[] {-0.399582721284727,-0.056629954519333,-0.514406488522827,0.711168164518580,0.225548081276367,0.125943999652923,-0.004321507456014}),\n        \t\tnew ArrayRealVector(new double[] {0.058515721572821,0.010200130057739,0.063516274916536,-0.090696087449378,-0.017148420432597,0.991318870265707,-0.034707338554096}),\n        \t\tnew ArrayRealVector(new double[] {0.855205995537564,0.327134656629775,-0.265382397060548,0.282690729026706,0.105736068025572,-0.009138126622039,0.000367751821196}),\n        \t\tnew ArrayRealVector(new double[] {-0.002913069901144,-0.005177515777101,0.041906334478672,-0.109315918416258,0.436192305456741,0.026307315639535,0.891797507436344}),\n        \t\tnew ArrayRealVector(new double[] {-0.005738311176435,-0.010207611670378,0.082662420517928,-0.215733886094368,0.861606487840411,-0.025478530652759,-0.451080697503958})\n        };\n\n        // the following line triggers the exception\n        EigenDecomposition decomposition \u003d\n            new EigenDecompositionImpl(mainTridiagonal, secondaryTridiagonal, MathUtils.SAFE_MIN);\n\n        double[] eigenValues \u003d decomposition.getRealEigenvalues();\n        for (int i \u003d 0; i \u003c refEigenValues.length; ++i) {\n            assertEquals(refEigenValues[i], eigenValues[i], 1.0e-3);\n            if (refEigenVectors[i].dotProduct(decomposition.getEigenvector(i)) \u003c 0) {\n                assertEquals(0, refEigenVectors[i].add(decomposition.getEigenvector(i)).getNorm(), 1.0e-5);\n            } else {\n                assertEquals(0, refEigenVectors[i].subtract(decomposition.getEigenvector(i)).getNorm(), 1.0e-5);\n            }\n        }\n\n    }\n {code}"}
{"key":"MATH-482","title":"FastMath.max(50.0f, -50.0f) \u003d\u003e -50.0f; should be +50.0f","description":"FastMath.max(50.0f, -50.0f) \u003d\u003e -50.0f; should be +50.0f.  The bug was not detected by the test case \"testMinMaxFloat()\" because that has a bug too - it tests doubles, not floats. FastMath.max(50.0f, -50.0f)  testMinMaxFloat()"}
{"key":"MATH-274","title":"testing for symmetric positive definite matrix in CholeskyDecomposition","description":"I used this matrix:       And it works fine, because it is symmetric positive definite I tried this matrix:       And it should throw an exception but it does not.     double[][] cv \u003d {\n            {0.40434286, 0.09376327, 0.30328980, 0.04909388},\n            {0.09376327, 0.10400408, 0.07137959, 0.04762857},\n            {0.30328980, 0.07137959, 0.30458776, 0.04882449},\n            {0.04909388, 0.04762857, 0.04882449, 0.07543265}\n        };\n\n double[][] cv \u003d {\n            {0.40434286, -0.09376327, 0.30328980, 0.04909388},\n            {-0.09376327, 0.10400408, 0.07137959, 0.04762857},\n            {0.30328980, 0.07137959, 0.30458776, 0.04882449},\n            {0.04909388, 0.04762857, 0.04882449, 0.07543265}\n        };"}
{"key":"MATH-949","title":"LevenbergMarquardtOptimizer reports 0 iterations","description":"The method LevenbergMarquardtOptimizer.getIterations() does not report the correct number of iterations; It always returns 0.  I\u0027ve put a test case below. Notice how the evaluations count is correctly incremented, but the iterations count is not.                       LevenbergMarquardtOptimizer.getIterations()  BaseOptimizer.incrementEvaluationsCount()\n\n {noformat}\n     @Test\n    public void testGetIterations() {\n        // setup\n        LevenbergMarquardtOptimizer otim \u003d new LevenbergMarquardtOptimizer();\n\n        // action\n        otim.optimize(new MaxEval(100), new Target(new double[] { 1 }),\n                new Weight(new double[] { 1 }), new InitialGuess(\n                        new double[] { 3 }), new ModelFunction(\n                        new MultivariateVectorFunction() {\n                            @Override\n                            public double[] value(double[] point)\n                                    throws IllegalArgumentException {\n                                return new double[] { FastMath.pow(point[0], 4) };\n                            }\n                        }), new ModelFunctionJacobian(\n                        new MultivariateMatrixFunction() {\n                            @Override\n                            public double[][] value(double[] point)\n                                    throws IllegalArgumentException {\n                                return new double[][] { { 0.25 * FastMath.pow(\n                                        point[0], 3) } };\n                            }\n                        }));\n\n        // verify\n        assertThat(otim.getEvaluations(), greaterThan(1));\n        assertThat(otim.getIterations(), greaterThan(1));\n    }\n\n {noformat}"}
{"key":"MATH-929","title":"MultivariateNormalDistribution.density(double[]) returns wrong value when the dimension is odd","description":"To reproduce:\n{code}\nAssert.assertEquals(0.398942280401433, new MultivariateNormalDistribution(new double[]{0}, new double[][]{{1}}).  {code}\n Assert.assertEquals(0.398942280401433, new MultivariateNormalDistribution(new double[]{0}, new double[][]{{1}}).density(new double[]{0}), 1e-15);\n{code}"}
{"key":"MATH-1021","title":"HypergeometricDistribution.sample suffers from integer overflow","description":"It looks like the HypergeometricDistribution.sample() method doesn\u0027t work as well as it used to with large integer values -- the example code below should return a sample between 0 and 50, but usually returns -50.    HypergeometricDistribution.sample()  {code}\n import org.apache.commons.math3.distribution.HypergeometricDistribution;\n\npublic class Foo {\n  public static void main(String[] args) {\n    HypergeometricDistribution a \u003d new HypergeometricDistribution(\n        43130568, 42976365, 50);\n    System.out.printf(\"%d %d%n\", a.getSupportLowerBound(), a.getSupportUpperBound()); // Prints \"0 50\"\n    System.out.printf(\"%d%n\",a.sample());                                             // Prints \"-50\"\n  }\n}\n {code}\n\n HypergeometricDistribution.getNumericalMean()  {code}\n return (double) (getSampleSize() * getNumberOfSuccesses()) / (double) getPopulationSize();\n{code}\n {code}\n return getSampleSize() * ((double) getNumberOfSuccesses() / (double) getPopulationSize());\n{code}"}
{"key":"MATH-358","title":"ODE integrator goes past specified end of integration range","description":"The following test case shows the end event is not handled properly and an integration that should cover a 60s range in fact covers a 160s range, more than twice the specified range.                    {code}\n   public void testMissedEvent() throws IntegratorException, DerivativeException {\n          final double t0 \u003d 1878250320.0000029;\n          final double t \u003d  1878250379.9999986;\n          FirstOrderDifferentialEquations ode \u003d new FirstOrderDifferentialEquations() {\n            \n            public int getDimension() {\n                return 1;\n            }\n            \n            public void computeDerivatives(double t, double[] y, double[] yDot)\n                throws DerivativeException {\n                yDot[0] \u003d y[0] * 1.0e-6;\n            }\n        };\n\n        DormandPrince853Integrator integrator \u003d new DormandPrince853Integrator(0.0, 100.0,\n                                                                               1.0e-10, 1.0e-10);\n\n        double[] y \u003d { 1.0 };\n        integrator.setInitialStepSize(60.0);\n        double finalT \u003d integrator.integrate(ode, t0, y, t, y);\n        Assert.assertEquals(t, finalT, 1.0e-6);\n    }\n\n {code}"}
{"key":"MATH-60","title":"","description":"Please see the following code segment for more details:                   Note: Similarly, when I passed in the following inputs: input 2: (source \u003d 1 2 / -3, pos \u003d 0) input 3: ( source \u003d  -1 -2 / 3, pos \u003d 0) Function \"Fraction parse(String, ParsePosition)\" returned Fraction 1/3 (means the result Fraction had numerator \u003d 1 and  denominator \u003d 3)for all 3 inputs above. I think the function does not handle parsing the numberator/ denominator properly incase input string provide invalid numerator/denominator.  Fraction parse(String source, \nParsePostion pos) class ProperFractionFormat  ProperFractionFormat properFormat \u003d new ProperFractionFormat();\nresult \u003d null;\nString source \u003d \"1 -1 / 2\";\nParsePosition pos \u003d new ParsePosition(0);\n\n//Test 1 : fail \n public void testParseNegative(){\n \n   String source \u003d \"-1 -2 / 3\";\n   ParsePosition pos \u003d new ParsePosition(0);\n\n   Fraction actual \u003d properFormat.parse(source, pos);\n   assertNull(actual);\n}\n\n// Test2: success\n public void testParseNegative(){\n \n   String source \u003d \"-1 -2 / 3\";\n   ParsePosition pos \u003d new ParsePosition(0);\n\n   Fraction actual \u003d properFormat.parse(source, pos);  // return Fraction 1/3\n   assertEquals(1, source.getNumerator());\n   assertEquals(3, source.getDenominator());\n}\n\n parse(String, ParsePosition)"}
{"key":"MATH-280","title":"","description":"This code:  gives the exception below.  normal.inverseCumulativeProbability(0.977249868051820); works fine  0 9986501019683698 (should return 3.0000...) 0 9999683287581673 (should return 4.0000...)    public class NormalDistributionImpl extends AbstractContinuousDistribution \n\n\n  public abstract class AbstractContinuousDistribution\n\n\n DistributionFactory factory \u003d app.getDistributionFactory();\n        \tNormalDistribution normal \u003d factory.createNormalDistribution(0,1);\n        \tdouble result \u003d normal.inverseCumulativeProbability(0.9772498680518209);\n\n normal.inverseCumulativeProbability(0.977249868051820);"}
{"key":"MATH-713","title":"","description":"A variable with 0 coefficient may be assigned a negative value nevertheless restrictToNonnegative flag in call:\nSimplexSolver.optimize(function, constraints, GoalType.MINIMIZE, true); Function\n1 * x + 1 * y + 0 Constraints:\n1 * x + 0 * y \u003d 1 Result:\nx \u003d 1; y \u003d -1;  SimplexSolver.optimize(function, constraints, GoalType.MINIMIZE, true);\n\n x \u003d 1; y \u003d -1;"}
{"key":"MATH-942","title":"DiscreteDistribution.sample(int) may throw an exception if first element of singletons of sub-class type","description":"An exception will be thrown if: * {{singleons.get(0)}} is of type T1, an sub-class of T, and * {{DiscreteDistribution.sample()}} returns an object which is of type T, but not of type T1. To reproduce:\n{code}\nList\u003cPair\u003cObject,Double\u003e\u003e list \u003d new ArrayList\u003cPair\u003cObject, Double\u003e\u003e();\nlist.add(new Pair\u003cObject, Double\u003e(new Object() {}, new Double(0)));\nlist.add(new Pair\u003cObject, Double\u003e(new Object() {}, new Double(1)));\nnew DiscreteDistribution\u003cObject\u003e(list).   Array.newInstance(singletons.get(0).getClass(), sampleSize) singleons.get(0) {{DiscreteDistribution.sample()}}  {code}\n List\u003cPair\u003cObject,Double\u003e\u003e list \u003d new ArrayList\u003cPair\u003cObject, Double\u003e\u003e();\nlist.add(new Pair\u003cObject, Double\u003e(new Object() {}, new Double(0)));\nlist.add(new Pair\u003cObject, Double\u003e(new Object() {}, new Double(1)));\nnew DiscreteDistribution\u003cObject\u003e(list).sample(1);\n{code}"}
{"key":"MATH-221","title":"","description":"little java program + output that shows the bug:               res:  -0 - 1i\ncomp: 0 - 1i\nres\u003dcomp: false     class Complex  {code}\n import org.apache.commons.math.complex.*;\npublic class TestProg {\n        public static void main(String[] args) {\n\n                ComplexFormat f \u003d new ComplexFormat();\n                Complex c1 \u003d new Complex(0,1);\n                Complex c2 \u003d new Complex(-1,0);\n\n                Complex res \u003d c1.multiply(c2);\n                Complex comp \u003d new Complex(0,-1);\n\n                System.out.println(\"res:  \"+f.format(res));\n                System.out.println(\"comp: \"+f.format(comp));\n\n                System.out.println(\"res\u003dcomp: \"+res.equals(comp));\n        }\n}\n {code}"}
{"key":"MATH-631","title":"","description":"The following unit test:   fails with\n{noformat}\nillegal state: maximal count (100) exceeded: evaluations\n{noformat} Using \"PegasusSolver\", the answer is found after 17 evaluations. {code}\n @Test\npublic void testBug() {\n    final UnivariateRealFunction f \u003d new UnivariateRealFunction() {\n            @Override\n            public double value(double x) {\n                return Math.exp(x) - Math.pow(Math.PI, 3.0);\n            }\n        };\n\n    UnivariateRealSolver solver \u003d new RegulaFalsiSolver();\n    double root \u003d solver.solve(100, f, 1, 10);\n}\n {code}\n {noformat}\n {noformat}"}
{"key":"MATH-305","title":"NPE in  KMeansPlusPlusClusterer unittest","description":"When running this unittest, I am facing this NPE:   This is the unittest:         \n\n\npackage org.fao.fisheries.chronicles.calcuation.cluster;\n\nimport static org.junit.Assert.assertEquals;\nimport static org.junit.Assert.assertTrue;\n\nimport java.util.Arrays;\nimport java.util.List;\nimport java.util.Random;\n\nimport org.apache.commons.math.stat.clustering.Cluster;\nimport org.apache.commons.math.stat.clustering.EuclideanIntegerPoint;\nimport org.apache.commons.math.stat.clustering.KMeansPlusPlusClusterer;\nimport org.fao.fisheries.chronicles.input.CsvImportProcess;\nimport org.fao.fisheries.chronicles.input.Top200Csv;\nimport org.junit.Test;\n\npublic class ClusterAnalysisTest {\n\n\n\t@Test\n\tpublic void testPerformClusterAnalysis2() {\n\t\tKMeansPlusPlusClusterer\u003cEuclideanIntegerPoint\u003e transformer \u003d new KMeansPlusPlusClusterer\u003cEuclideanIntegerPoint\u003e(\n\t\t\t\tnew Random(1746432956321l));\n\t\tEuclideanIntegerPoint[] points \u003d new EuclideanIntegerPoint[] {\n\t\t\t\tnew EuclideanIntegerPoint(new int[] { 1959, 325100 }),\n\t\t\t\tnew EuclideanIntegerPoint(new int[] { 1960, 373200 }), };\n\t\tList\u003cCluster\u003cEuclideanIntegerPoint\u003e\u003e clusters \u003d transformer.cluster(Arrays.asList(points), 1, 1);\n\t\tassertEquals(1, clusters.size());\n\n\t}\n\n}"}
{"key":"MATH-369","title":"BisectionSolver.solve(final UnivariateRealFunction f, double min, double max, double initial) throws NullPointerException","description":"invoke:   NullPointerException will be thrown. new BisectionSolver() solve(someUnivariateFunctionImpl, 0.0, 1.0, 0.5);"}
{"key":"MATH-645","title":"MathRuntimeException with simple ebeMultiply on OpenMapRealVector","description":"The following piece of code                      {code} raises an exception         {code:java}\n import org.apache.commons.math.linear.OpenMapRealVector;\nimport org.apache.commons.math.linear.RealVector;\n\npublic class DemoBugOpenMapRealVector {\n    public static void main(String[] args) {\n        final RealVector u \u003d new OpenMapRealVector(3, 1E-6);\n        u.setEntry(0, 1.);\n        u.setEntry(1, 0.);\n        u.setEntry(2, 2.);\n        final RealVector v \u003d new OpenMapRealVector(3, 1E-6);\n        v.setEntry(0, 0.);\n        v.setEntry(1, 3.);\n        v.setEntry(2, 0.);\n        System.out.println(u);\n        System.out.println(v);\n        System.out.println(u.ebeMultiply(v));\n    }\n}\n {code}\n {noformat}\n {noformat}"}
