{"id":79,"bug_id":"DERBY-4835","text":"To reproduce, run the attached script 10_5_3_work.sql with the 10.5.3.0  release and then connect with 10.6.1.0 and insert into the table with the trigger:      tidlggls(blt_number,create_date,update_date,propagation_date,glossary_status,\n     time_stamp,min_max_size )\n  tidlrblt(BLT,BLT_SIZE,MIN_MAX_SIZE)  GeneratedMe\nthod; if (fromVersion.majorVersionNumber \u003e\u003d DataDictionary.DD_VERSION_DERBY_10_5)\n\t\t\t\tbootingDictionary.updateMetadataSPSes(tc);\n\t\t\telse\n\t\t\t\tbootingDictionary.clearSPSPlans();\n\n clearSPSPlans()","class_goldset":["org.apache.derby.impl.sql.catalog.DD_Version","org.apache.derbyTesting.functionTests.tests.upgradeTests.BasicSetup"],"file_goldset":["org.apache.derby.impl.sql.catalog.DD_Version","org.apache.derbyTesting.functionTests.tests.upgradeTests.BasicSetup"],"creation_date":"2010-10-06T16:05:13.000+0000","resolution_date":"2010-10-15T18:13:00.000+0000"}
{"id":80,"bug_id":"DERBY-4873","text":"With the line skipping the testBoundaries fixture of the InternationalConnectTest commented out, I get the following stack when I run the test with ibm 1.6:                                        testBoundaries(org.apache.derbyTesting.functionTests.tests.jdbcapi.InternationalConnectTest)","class_goldset":["org.apache.derby.impl.store.raw.data.BaseDataFileFactory"],"file_goldset":["org.apache.derby.impl.store.raw.data.BaseDataFileFactory"],"creation_date":"2010-10-28T23:45:13.000+0000","resolution_date":"2012-10-31T10:01:49.000+0000"}
{"id":83,"bug_id":"DERBY-4889","text":"The following code prints \"true\" with the embedded driver and \"false\" with the client driver:   If setByte() is replaced with setInt(), they both print \"true\". PreparedStatement ps \u003d c.prepareStatement(\"values cast(? as boolean)\");\n        ps.setByte(1, (byte) 32);\n        ResultSet rs \u003d ps.executeQuery();\n        rs.next();\n        System.out.println(rs.getBoolean(1));\n\n If setByte()  setInt()","class_goldset":["org.apache.derby.impl.drda.DRDAConnThread","org.apache.derbyTesting.functionTests.tests.jdbcapi.ParameterMappingTest"],"file_goldset":["org.apache.derby.impl.drda.DRDAConnThread","org.apache.derbyTesting.functionTests.tests.jdbcapi.ParameterMappingTest"],"creation_date":"2010-11-06T01:06:56.000+0000","resolution_date":"2010-11-08T18:56:38.000+0000"}
{"id":84,"bug_id":"DERBY-4892","text":"To reproduce, build Derby without ant.properties on a system where PropertySetter doesn\u0027t find JDK 1.4. Verify with -DprintCompilerProperties\u003dtrue that java14compile.classpath is built up of jar files from a Java 5 or Java 6 directory. Then run org.apache.derbyTesting.functionTests.tests.lang.UDTTest using a Java 1.4 JVM.                  The problem in client.am.Cursor can be seen if you follow the same procedure as above, and instead of UDTTest run ParameterMappingTest with the patch for DERBY-4891 that enables testing of booleans. test_06_casts(org.apache.derbyTesting.functionTests.tests.lang.UDTTest)","class_goldset":["org.apache.derby.client.am.Cursor","org.apache.derbyTesting.functionTests.tests.lang.Price","org.apache.derbyTesting.system.oe.client.Submitter"],"file_goldset":["org.apache.derby.client.am.Cursor","org.apache.derbyTesting.functionTests.tests.lang.Price","org.apache.derbyTesting.system.oe.client.Submitter"],"creation_date":"2010-11-06T09:14:51.000+0000","resolution_date":"2010-11-08T08:03:10.000+0000"}
