argouml-0.22;3814;0
argouml-0.22;549;1
argouml-0.22;1911;1
argouml-0.22;2522;1
argouml-0.22;2712;1
argouml-0.22;3145;1
argouml-0.22;3197;1
argouml-0.22;3350;1
argouml-0.22;3363;1
argouml-0.22;3498;1
argouml-0.22;3773;1
argouml-0.22;3911;1
argouml-0.22;3912;1
argouml-0.22;3918;1
argouml-0.22;4078;1
argouml-0.22;4088;1
argouml-0.22;4137;1
argouml-0.22;4148;1
argouml-0.22;4173;1
argouml-0.22;4227;1
argouml-0.22;4280;1
argouml-0.22;4298;1
argouml-0.22;4363;1
argouml-0.22;4372;1
argouml-0.22;1942;2
argouml-0.22;3164;2
argouml-0.22;3938;2
argouml-0.22;4007;2
argouml-0.22;4101;2
argouml-0.22;4130;2
argouml-0.22;4194;2
argouml-0.22;4324;2
argouml-0.22;2500;3
argouml-0.22;2618;3
argouml-0.22;4019;3
argouml-0.22;4031;3
argouml-0.22;4129;3
argouml-0.22;4178;3
argouml-0.22;4180;3
argouml-0.22;4302;3
argouml-0.22;1671;4
argouml-0.22;1884;4
argouml-0.22;2472;4
argouml-0.22;2732;4
argouml-0.22;3718;4
argouml-0.22;3923;4
argouml-0.22;1641;6
argouml-0.22;2145;6
argouml-0.22;3921;6
argouml-0.22;4103;6
argouml-0.22;2225;8
argouml-0.22;3974;8
argouml-0.22;3790;9
argouml-0.22;3882;9
argouml-0.22;2144;13
argouml-0.22;2460;16
argouml-0.22;3848;16
argouml-0.22;4005;16
argouml-0.22;4354;16
argouml-0.22;3803;18
argouml-0.22;3945;19
argouml-0.22;4349;19
argouml-0.22;4342;22
argouml-0.22;4364;22
argouml-0.22;4362;25
argouml-0.22;3812;26
argouml-0.22;4367;28
argouml-0.22;4049;31
argouml-0.22;3665;34
argouml-0.22;3619;39
argouml-0.22;4281;44
argouml-0.22;4085;49
argouml-0.22;3631;61
argouml-0.22;4037;80
argouml-0.22;4272;81
argouml-0.22;4276;85
argouml-0.22;3100;95
argouml-0.22;3947;95
argouml-0.22;4222;110
argouml-0.22;4200;119
argouml-0.22;4231;120
argouml-0.22;3774;157
argouml-0.22;4043;170
argouml-0.22;4181;175
argouml-0.22;4245;195
argouml-0.22;4330;339
argouml-0.22;4279;407
argouml-0.22;4155;455
argouml-0.22;3711;481
argouml-0.22;4162;586
argouml-0.22;4100;896
bookkeeper-4.1.0;BOOKKEEPER-514;1
bookkeeper-4.1.0;BOOKKEEPER-465;1
bookkeeper-4.1.0;BOOKKEEPER-424;1
bookkeeper-4.1.0;BOOKKEEPER-396;1
bookkeeper-4.1.0;BOOKKEEPER-387;1
bookkeeper-4.1.0;BOOKKEEPER-355;1
bookkeeper-4.1.0;BOOKKEEPER-349;1
bookkeeper-4.1.0;BOOKKEEPER-347;1
bookkeeper-4.1.0;BOOKKEEPER-346;1
bookkeeper-4.1.0;BOOKKEEPER-345;1
bookkeeper-4.1.0;BOOKKEEPER-330;1
bookkeeper-4.1.0;BOOKKEEPER-327;1
bookkeeper-4.1.0;BOOKKEEPER-300;1
bookkeeper-4.1.0;BOOKKEEPER-299;1
bookkeeper-4.1.0;BOOKKEEPER-78;1
bookkeeper-4.1.0;BOOKKEEPER-55;1
bookkeeper-4.1.0;BOOKKEEPER-498;2
bookkeeper-4.1.0;BOOKKEEPER-472;2
bookkeeper-4.1.0;BOOKKEEPER-381;2
bookkeeper-4.1.0;BOOKKEEPER-371;2
bookkeeper-4.1.0;BOOKKEEPER-337;2
bookkeeper-4.1.0;BOOKKEEPER-291;2
bookkeeper-4.1.0;BOOKKEEPER-248;2
bookkeeper-4.1.0;BOOKKEEPER-524;3
bookkeeper-4.1.0;BOOKKEEPER-447;4
bookkeeper-4.1.0;BOOKKEEPER-436;5
bookkeeper-4.1.0;BOOKKEEPER-336;5
bookkeeper-4.1.0;BOOKKEEPER-294;6
bookkeeper-4.1.0;BOOKKEEPER-491;8
bookkeeper-4.1.0;BOOKKEEPER-272;13
bookkeeper-4.1.0;BOOKKEEPER-376;21
bookkeeper-4.1.0;BOOKKEEPER-383;25
bookkeeper-4.1.0;BOOKKEEPER-325;25
bookkeeper-4.1.0;BOOKKEEPER-326;28
bookkeeper-4.1.0;BOOKKEEPER-495;30
bookkeeper-4.1.0;BOOKKEEPER-247;35
bookkeeper-4.1.0;BOOKKEEPER-304;60
bookkeeper-4.1.0;BOOKKEEPER-409;65
bookkeeper-4.1.0;BOOKKEEPER-319;78
bookkeeper-4.1.0;BOOKKEEPER-318;225
derby-10.7.1.1;DERBY-4890;1
derby-10.7.1.1;DERBY-4860;1
derby-10.7.1.1;DERBY-4825;1
derby-10.7.1.1;DERBY-4815;1
derby-10.7.1.1;DERBY-4776;1
derby-10.7.1.1;DERBY-4738;1
derby-10.7.1.1;DERBY-4717;1
derby-10.7.1.1;DERBY-4704;1
derby-10.7.1.1;DERBY-4692;1
derby-10.7.1.1;DERBY-4903;2
derby-10.7.1.1;DERBY-4810;2
derby-10.7.1.1;DERBY-4786;2
derby-10.7.1.1;DERBY-4718;2
derby-10.7.1.1;DERBY-4654;2
derby-10.7.1.1;DERBY-4884;4
derby-10.7.1.1;DERBY-4723;4
derby-10.7.1.1;DERBY-4674;4
derby-10.7.1.1;DERBY-4889;7
derby-10.7.1.1;DERBY-4888;10
derby-10.7.1.1;DERBY-4624;16
derby-10.7.1.1;DERBY-4748;18
derby-10.7.1.1;DERBY-4693;21
derby-10.7.1.1;DERBY-4828;34
derby-10.7.1.1;DERBY-4835;42
derby-10.7.1.1;DERBY-4665;49
derby-10.7.1.1;DERBY-4755;51
derby-10.7.1.1;DERBY-4664;67
derby-10.7.1.1;DERBY-4772;106
derby-10.7.1.1;DERBY-4803;119
derby-10.7.1.1;DERBY-4684;158
derby-10.7.1.1;DERBY-4671;268
derby-10.7.1.1;DERBY-4892;333
derby-10.7.1.1;DERBY-4873;623
derby-10.9.1.0;DERBY-6086;1
derby-10.9.1.0;DERBY-6079;1
derby-10.9.1.0;DERBY-6073;1
derby-10.9.1.0;DERBY-6033;1
derby-10.9.1.0;DERBY-6009;1
derby-10.9.1.0;DERBY-5989;1
derby-10.9.1.0;DERBY-5954;1
derby-10.9.1.0;DERBY-5948;1
derby-10.9.1.0;DERBY-5934;1
derby-10.9.1.0;DERBY-5930;1
derby-10.9.1.0;DERBY-5918;1
derby-10.9.1.0;DERBY-5914;1
derby-10.9.1.0;DERBY-5885;1
derby-10.9.1.0;DERBY-5878;1
derby-10.9.1.0;DERBY-5836;1
derby-10.9.1.0;DERBY-5833;1
derby-10.9.1.0;DERBY-5828;1
derby-10.9.1.0;DERBY-5827;1
derby-10.9.1.0;DERBY-5826;1
derby-10.9.1.0;DERBY-5561;1
derby-10.9.1.0;DERBY-5424;1
derby-10.9.1.0;DERBY-5232;1
derby-10.9.1.0;DERBY-5037;1
derby-10.9.1.0;DERBY-4631;1
derby-10.9.1.0;DERBY-6147;2
derby-10.9.1.0;DERBY-6089;2
derby-10.9.1.0;DERBY-6027;2
derby-10.9.1.0;DERBY-6000;2
derby-10.9.1.0;DERBY-5955;2
derby-10.9.1.0;DERBY-5834;2
derby-10.9.1.0;DERBY-5775;2
derby-10.9.1.0;DERBY-5638;2
derby-10.9.1.0;DERBY-5622;2
derby-10.9.1.0;DERBY-5357;2
derby-10.9.1.0;DERBY-5342;2
derby-10.9.1.0;DERBY-4789;2
derby-10.9.1.0;DERBY-4279;2
derby-10.9.1.0;DERBY-6085;3
derby-10.9.1.0;DERBY-6064;3
derby-10.9.1.0;DERBY-5172;3
derby-10.9.1.0;DERBY-1400;3
derby-10.9.1.0;DERBY-6044;4
derby-10.9.1.0;DERBY-6008;4
derby-10.9.1.0;DERBY-3652;4
derby-10.9.1.0;DERBY-3069;4
derby-10.9.1.0;DERBY-2076;4
derby-10.9.1.0;DERBY-6063;5
derby-10.9.1.0;DERBY-5927;5
derby-10.9.1.0;DERBY-5896;5
derby-10.9.1.0;DERBY-5546;5
derby-10.9.1.0;DERBY-5851;6
derby-10.9.1.0;DERBY-5014;6
derby-10.9.1.0;DERBY-4647;6
derby-10.9.1.0;DERBY-4066;6
derby-10.9.1.0;DERBY-2461;6
derby-10.9.1.0;DERBY-6094;7
derby-10.9.1.0;DERBY-5912;7
derby-10.9.1.0;DERBY-5040;7
derby-10.9.1.0;DERBY-5911;8
derby-10.9.1.0;DERBY-5740;8
derby-10.9.1.0;DERBY-5937;9
derby-10.9.1.0;DERBY-6058;10
derby-10.9.1.0;DERBY-6150;11
derby-10.9.1.0;DERBY-5996;14
derby-10.9.1.0;DERBY-5688;15
derby-10.9.1.0;DERBY-3808;16
derby-10.9.1.0;DERBY-4269;19
derby-10.9.1.0;DERBY-6053;23
derby-10.9.1.0;DERBY-5663;27
derby-10.9.1.0;DERBY-6133;30
derby-10.9.1.0;DERBY-5816;33
derby-10.9.1.0;DERBY-3024;33
derby-10.9.1.0;DERBY-5854;37
derby-10.9.1.0;DERBY-5838;37
derby-10.9.1.0;DERBY-5251;38
derby-10.9.1.0;DERBY-5377;57
derby-10.9.1.0;DERBY-5407;60
derby-10.9.1.0;DERBY-5916;65
derby-10.9.1.0;DERBY-5750;79
derby-10.9.1.0;DERBY-6108;83
derby-10.9.1.0;DERBY-5252;85
derby-10.9.1.0;DERBY-5995;105
derby-10.9.1.0;DERBY-5531;112
derby-10.9.1.0;DERBY-6131;126
derby-10.9.1.0;DERBY-5871;129
derby-10.9.1.0;DERBY-6092;182
derby-10.9.1.0;DERBY-5933;206
derby-10.9.1.0;DERBY-5045;306
derby-10.9.1.0;DERBY-4669;521
derby-10.9.1.0;DERBY-6065;612
derby-10.9.1.0;DERBY-6138;626
derby-10.9.1.0;DERBY-4873;663
derby-10.9.1.0;DERBY-1914;1060
derby-10.9.1.0;DERBY-2141;1768
derby-10.9.1.0;DERBY-5567;1771
hibernate-3.5.0b2;HHH-4836;1
hibernate-3.5.0b2;HHH-4777;1
hibernate-3.5.0b2;HHH-4773;1
hibernate-3.5.0b2;HHH-4772;1
hibernate-3.5.0b2;HHH-4764;1
hibernate-3.5.0b2;HHH-4720;1
hibernate-3.5.0b2;HHH-4581;1
hibernate-3.5.0b2;HHH-4572;1
hibernate-3.5.0b2;HHH-4567;1
hibernate-3.5.0b2;HHH-4560;1
hibernate-3.5.0b2;HHH-5042;2
hibernate-3.5.0b2;HHH-4780;2
hibernate-3.5.0b2;HHH-4617;2
hibernate-3.5.0b2;HHH-4760;3
hibernate-3.5.0b2;HHH-4767;5
hibernate-3.5.0b2;HHH-4774;6
hibernate-3.5.0b2;HHH-4576;7
hibernate-3.5.0b2;HHH-4647;35
hibernate-3.5.0b2;HHH-4775;71
hibernate-3.5.0b2;HHH-4583;219
hibernate-3.5.0b2;HHH-4614;287
jabref-2.6;1219592;1
jabref-2.6;1285977;1
jabref-2.6;1495181;1
jabref-2.6;1535044;1
jabref-2.6;1542552;1
jabref-2.6;1588028;1
jabref-2.6;1594123;1
jabref-2.6;1601651;1
jabref-2.6;1738920;1
jabref-2.6;1785416;1
jabref-2.6;1944198;1
jabref-2.6;2027944;1
jabref-2.6;1534537;2
jabref-2.6;1553552;2
jabref-2.6;1574773;2
jabref-2.6;2105329;2
jabref-2.6;1436014;3
jabref-2.6;1503956;3
jabref-2.6;1489454;4
jabref-2.6;1545601;4
jabref-2.6;1711135;4
jabref-2.6;2931293;4
jabref-2.6;1641247;5
jabref-2.6;2207462;5
jabref-2.6;2938562;5
jabref-2.6;2904968;6
jabref-2.6;1594169;7
jabref-2.6;1648789;8
jabref-2.6;1540646;9
jabref-2.6;2119059;11
jabref-2.6;1548875;13
jabref-2.6;1631548;17
jabref-2.6;1827568;19
jabref-2.6;1749613;29
jabref-2.6;1709449;31
jabref-2.6;1538769;39
jedit-4.3;1654543;0
jedit-4.3;1292706;1
jedit-4.3;1541009;1
jedit-4.3;1560584;1
jedit-4.3;1565447;1
jedit-4.3;1569735;1
jedit-4.3;1571629;1
jedit-4.3;1593389;1
jedit-4.3;1593576;1
jedit-4.3;1594910;1
jedit-4.3;1601718;1
jedit-4.3;1645528;1
jedit-4.3;1671312;1
jedit-4.3;1744674;1
jedit-4.3;1883809;1
jedit-4.3;1887293;1
jedit-4.3;1910061;1
jedit-4.3;1923613;1
jedit-4.3;1984974;1
jedit-4.3;2069249;1
jedit-4.3;2091052;1
jedit-4.3;2169354;1
jedit-4.3;2173091;1
jedit-4.3;2183929;1
jedit-4.3;2596087;1
jedit-4.3;2688862;1
jedit-4.3;2744708;1
jedit-4.3;2777073;1
jedit-4.3;2823909;1
jedit-4.3;2882702;1
jedit-4.3;2896464;1
jedit-4.3;2911122;1
jedit-4.3;1538702;2
jedit-4.3;1570554;2
jedit-4.3;1571752;2
jedit-4.3;1641997;2
jedit-4.3;1694133;2
jedit-4.3;1768638;2
jedit-4.3;1984000;2
jedit-4.3;2089713;2
jedit-4.3;2824045;2
jedit-4.3;1193683;3
jedit-4.3;1533473;3
jedit-4.3;1536064;3
jedit-4.3;1825720;3
jedit-4.3;1869978;3
jedit-4.3;1931333;3
jedit-4.3;2173112;3
jedit-4.3;2762745;3
jedit-4.3;1549282;4
jedit-4.3;1589360;4
jedit-4.3;1593359;4
jedit-4.3;1965114;4
jedit-4.3;1617509;5
jedit-4.3;1664900;5
jedit-4.3;1541372;6
jedit-4.3;1663617;6
jedit-4.3;1834620;6
jedit-4.3;1999448;6
jedit-4.3;2015210;6
jedit-4.3;1593523;7
jedit-4.3;1620694;8
jedit-4.3;950961;9
jedit-4.3;1538743;9
jedit-4.3;1630805;9
jedit-4.3;1942313;9
jedit-4.3;2220033;9
jedit-4.3;1668893;14
jedit-4.3;1584436;15
jedit-4.3;1866836;15
jedit-4.3;1658252;17
jedit-4.3;1906288;21
jedit-4.3;1382388;25
jedit-4.3;1520774;27
jedit-4.3;1724940;27
jedit-4.3;2218621;27
jedit-4.3;1538051;28
jedit-4.3;1723506;30
jedit-4.3;2781716;31
jedit-4.3;1599709;34
jedit-4.3;1548902;37
jedit-4.3;1575505;42
jedit-4.3;1913979;47
jedit-4.3;2017514;57
jedit-4.3;1600401;66
jedit-4.3;1542026;105
jedit-4.3;2129419;113
jedit-4.3;981012;271
jedit-4.3;2759434;281
jedit-4.3;1739675;645
lucene-4.0;LUCENE-4662;1
lucene-4.0;LUCENE-4633;1
lucene-4.0;LUCENE-4618;1
lucene-4.0;LUCENE-4615;1
lucene-4.0;LUCENE-4596;1
lucene-4.0;LUCENE-4594;1
lucene-4.0;LUCENE-4587;1
lucene-4.0;LUCENE-4566;1
lucene-4.0;LUCENE-4521;1
lucene-4.0;LUCENE-4513;1
lucene-4.0;LUCENE-4511;1
lucene-4.0;LUCENE-4485;1
lucene-4.0;LUCENE-4479;1
lucene-4.0;LUCENE-4459;1
lucene-4.0;LUCENE-4443;1
lucene-4.0;LUCENE-4639;2
lucene-4.0;LUCENE-4486;2
lucene-4.0;LUCENE-4480;2
lucene-4.0;LUCENE-4469;2
lucene-4.0;LUCENE-4671;4
lucene-4.0;LUCENE-4629;4
lucene-4.0;LUCENE-4585;4
lucene-4.0;LUCENE-4568;4
lucene-4.0;LUCENE-4466;5
lucene-4.0;LUCENE-4411;7
lucene-4.0;LUCENE-4899;8
lucene-4.0;LUCENE-4656;8
lucene-4.0;LUCENE-4567;9
lucene-4.0;LUCENE-4653;10
lucene-4.0;LUCENE-4660;11
lucene-4.0;LUCENE-4657;11
lucene-4.0;LUCENE-4532;26
lucene-4.0;LUCENE-4461;29
lucene-4.0;LUCENE-4561;43
lucene-4.0;LUCENE-4182;1130
mahout-0.8;MAHOUT-1409;1
mahout-0.8;MAHOUT-1398;1
mahout-0.8;MAHOUT-1379;1
mahout-0.8;MAHOUT-1368;1
mahout-0.8;MAHOUT-1367;1
mahout-0.8;MAHOUT-1319;1
mahout-0.8;MAHOUT-1308;1
mahout-0.8;MAHOUT-1301;1
mahout-0.8;MAHOUT-1291;1
mahout-0.8;MAHOUT-1276;1
mahout-0.8;MAHOUT-1242;1
mahout-0.8;MAHOUT-1389;2
mahout-0.8;MAHOUT-1378;2
mahout-0.8;MAHOUT-1371;2
mahout-0.8;MAHOUT-1364;2
mahout-0.8;MAHOUT-1358;2
mahout-0.8;MAHOUT-1357;2
mahout-0.8;MAHOUT-1336;2
mahout-0.8;MAHOUT-1285;2
mahout-0.8;MAHOUT-1030;2
mahout-0.8;MAHOUT-1314;3
mahout-0.8;MAHOUT-1320;4
mahout-0.8;MAHOUT-1261;6
mahout-0.8;MAHOUT-1317;8
mahout-0.8;MAHOUT-1339;9
mahout-0.8;MAHOUT-1284;10
mahout-0.8;MAHOUT-1351;11
mahout-0.8;MAHOUT-1349;15
mahout-0.8;MAHOUT-1410;19
mahout-0.8;MAHOUT-1396;84
openjpa-2.0.1;OPENJPA-2244;1
openjpa-2.0.1;OPENJPA-2056;1
openjpa-2.0.1;OPENJPA-2044;1
openjpa-2.0.1;OPENJPA-1993;1
openjpa-2.0.1;OPENJPA-1958;1
openjpa-2.0.1;OPENJPA-1939;1
openjpa-2.0.1;OPENJPA-1845;1
openjpa-2.0.1;OPENJPA-1788;1
openjpa-2.0.1;OPENJPA-1738;1
openjpa-2.0.1;OPENJPA-1691;1
openjpa-2.0.1;OPENJPA-2010;2
openjpa-2.0.1;OPENJPA-2007;2
openjpa-2.0.1;OPENJPA-1959;2
openjpa-2.0.1;OPENJPA-1912;2
openjpa-2.0.1;OPENJPA-1910;2
openjpa-2.0.1;OPENJPA-1877;2
openjpa-2.0.1;OPENJPA-1630;3
openjpa-2.0.1;OPENJPA-2011;4
openjpa-2.0.1;OPENJPA-1897;4
openjpa-2.0.1;OPENJPA-1837;4
openjpa-2.0.1;OPENJPA-1809;4
openjpa-2.0.1;OPENJPA-2149;5
openjpa-2.0.1;OPENJPA-1928;6
openjpa-2.0.1;OPENJPA-2132;9
openjpa-2.0.1;OPENJPA-1918;9
openjpa-2.0.1;OPENJPA-2289;10
openjpa-2.0.1;OPENJPA-1975;11
openjpa-2.0.1;OPENJPA-2146;12
openjpa-2.0.1;OPENJPA-1803;12
openjpa-2.0.1;OPENJPA-1752;12
openjpa-2.0.1;OPENJPA-1911;13
openjpa-2.0.1;OPENJPA-1787;25
openjpa-2.0.1;OPENJPA-1903;61
openjpa-2.0.1;OPENJPA-1901;83
openjpa-2.0.1;OPENJPA-1986;149
openjpa-2.2.0;OPENJPA-2257;1
openjpa-2.2.0;OPENJPA-2231;1
openjpa-2.2.0;OPENJPA-2196;1
openjpa-2.2.0;OPENJPA-2151;1
openjpa-2.2.0;OPENJPA-2133;1
openjpa-2.2.0;OPENJPA-2131;1
openjpa-2.2.0;OPENJPA-2107;1
openjpa-2.2.0;OPENJPA-2275;6
openjpa-2.2.0;OPENJPA-2149;6
openjpa-2.2.0;OPENJPA-1682;10
openjpa-2.2.0;OPENJPA-2227;17
openjpa-2.2.0;OPENJPA-2163;41
openjpa-2.2.0;OPENJPA-2255;47
openjpa-2.2.0;OPENJPA-428;47
openjpa-2.2.0;OPENJPA-2197;59
openjpa-2.2.0;OPENJPA-2174;108
openjpa-2.2.0;OPENJPA-2229;111
openjpa-2.2.0;OPENJPA-2247;221
pig-0.11.1;PIG-3512;1
pig-0.11.1;PIG-3485;1
pig-0.11.1;PIG-3468;1
pig-0.11.1;PIG-3461;1
pig-0.11.1;PIG-3390;1
pig-0.11.1;PIG-3360;1
pig-0.11.1;PIG-3335;1
pig-0.11.1;PIG-3331;1
pig-0.11.1;PIG-3327;1
pig-0.11.1;PIG-3322;1
pig-0.11.1;PIG-3321;1
pig-0.11.1;PIG-3318;1
pig-0.11.1;PIG-3313;1
pig-0.11.1;PIG-3309;1
pig-0.11.1;PIG-3255;1
pig-0.11.1;PIG-3210;1
pig-0.11.1;PIG-3173;1
pig-0.11.1;PIG-3168;1
pig-0.11.1;PIG-3097;1
pig-0.11.1;PIG-3065;1
pig-0.11.1;PIG-3470;2
pig-0.11.1;PIG-3445;2
pig-0.11.1;PIG-3339;2
pig-0.11.1;PIG-3048;2
pig-0.11.1;PIG-3424;3
pig-0.11.1;PIG-3204;3
pig-0.11.1;PIG-3199;3
pig-0.11.1;PIG-2828;3
pig-0.11.1;PIG-3114;4
pig-0.11.1;PIG-3405;5
pig-0.11.1;PIG-3355;5
pig-0.11.1;PIG-3510;6
pig-0.11.1;PIG-2956;6
pig-0.11.1;PIG-3316;8
pig-0.11.1;PIG-3060;11
pig-0.11.1;PIG-2970;16
pig-0.11.1;PIG-3310;18
pig-0.11.1;PIG-3292;24
pig-0.11.1;PIG-2767;27
pig-0.11.1;PIG-3379;28
pig-0.11.1;PIG-3329;28
pig-0.11.1;PIG-3455;39
pig-0.11.1;PIG-2265;42
pig-0.11.1;PIG-2606;45
pig-0.11.1;PIG-3290;59
pig-0.11.1;PIG-3495;120
pig-0.11.1;PIG-3247;123
pig-0.11.1;PIG-3267;129
pig-0.8.0;PIG-1978;1
pig-0.8.0;PIG-1964;1
pig-0.8.0;PIG-1923;1
pig-0.8.0;PIG-1894;1
pig-0.8.0;PIG-1885;1
pig-0.8.0;PIG-1884;1
pig-0.8.0;PIG-1881;1
pig-0.8.0;PIG-1870;1
pig-0.8.0;PIG-1862;1
pig-0.8.0;PIG-1842;1
pig-0.8.0;PIG-1841;1
pig-0.8.0;PIG-1839;1
pig-0.8.0;PIG-1820;1
pig-0.8.0;PIG-1808;1
pig-0.8.0;PIG-1781;1
pig-0.8.0;PIG-1779;1
pig-0.8.0;PIG-1770;1
pig-0.8.0;PIG-1769;1
pig-0.8.0;PIG-1697;1
pig-0.8.0;PIG-1612;1
pig-0.8.0;PIG-1561;1
pig-0.8.0;PIG-1479;1
pig-0.8.0;PIG-1304;1
pig-0.8.0;PIG-847;1
pig-0.8.0;PIG-750;1
pig-0.8.0;PIG-1962;2
pig-0.8.0;PIG-1955;2
pig-0.8.0;PIG-1918;2
pig-0.8.0;PIG-1893;2
pig-0.8.0;PIG-1876;2
pig-0.8.0;PIG-1829;2
pig-0.8.0;PIG-1693;2
pig-0.8.0;PIG-1680;2
pig-0.8.0;PIG-1675;2
pig-0.8.0;PIG-671;2
pig-0.8.0;PIG-1993;3
pig-0.8.0;PIG-1809;3
pig-0.8.0;PIG-1787;3
pig-0.8.0;PIG-1782;3
pig-0.8.0;PIG-1566;3
pig-0.8.0;PIG-1886;4
pig-0.8.0;PIG-1755;4
pig-0.8.0;PIG-1812;5
pig-0.8.0;PIG-1791;5
pig-0.8.0;PIG-1712;5
pig-0.8.0;PIG-1911;6
pig-0.8.0;PIG-1871;7
pig-0.8.0;PIG-1861;7
pig-0.8.0;PIG-1536;7
pig-0.8.0;PIG-946;8
pig-0.8.0;PIG-1892;9
pig-0.8.0;PIG-1785;9
pig-0.8.0;PIG-1618;9
pig-0.8.0;PIG-1854;10
pig-0.8.0;PIG-1776;10
pig-0.8.0;PIG-1975;11
pig-0.8.0;PIG-1910;11
pig-0.8.0;PIG-1963;12
pig-0.8.0;PIG-1912;16
pig-0.8.0;PIG-1858;17
pig-0.8.0;PIG-1866;18
pig-0.8.0;PIG-1749;19
pig-0.8.0;PIG-1927;23
pig-0.8.0;PIG-313;25
pig-0.8.0;PIG-1856;28
pig-0.8.0;PIG-1277;28
pig-0.8.0;PIG-1979;29
pig-0.8.0;PIG-1932;33
pig-0.8.0;PIG-1813;33
pig-0.8.0;PIG-1837;40
pig-0.8.0;PIG-1717;44
pig-0.8.0;PIG-1831;49
pig-0.8.0;PIG-1771;49
pig-0.8.0;PIG-1850;53
pig-0.8.0;PIG-1874;55
pig-0.8.0;PIG-767;73
pig-0.8.0;PIG-1977;74
pig-0.8.0;PIG-1935;83
pig-0.8.0;PIG-1188;83
pig-0.8.0;PIG-1843;111
pig-0.8.0;PIG-1868;200
pig-0.8.0;PIG-1815;387
pig-0.8.0;PIG-730;457
pig-0.8.0;PIG-496;559
pig-0.8.0;PIG-534;765
solr-4.4.0;SOLR-5261;0
solr-4.4.0;SOLR-5279;1
solr-4.4.0;SOLR-5274;1
solr-4.4.0;SOLR-5264;1
solr-4.4.0;SOLR-5263;1
solr-4.4.0;SOLR-5241;1
solr-4.4.0;SOLR-5233;1
solr-4.4.0;SOLR-5206;1
solr-4.4.0;SOLR-5201;1
solr-4.4.0;SOLR-5156;1
solr-4.4.0;SOLR-5134;1
solr-4.4.0;SOLR-5121;1
solr-4.4.0;SOLR-5108;1
solr-4.4.0;SOLR-5094;1
solr-4.4.0;SOLR-5082;1
solr-4.4.0;SOLR-4953;1
solr-4.4.0;SOLR-4882;1
solr-4.4.0;SOLR-4688;1
solr-4.4.0;SOLR-4679;1
solr-4.4.0;SOLR-4511;1
solr-4.4.0;SOLR-4249;1
solr-4.4.0;SOLR-3936;1
solr-4.4.0;SOLR-3852;1
solr-4.4.0;SOLR-3615;1
solr-4.4.0;SOLR-2345;1
solr-4.4.0;SOLR-5295;2
solr-4.4.0;SOLR-5258;2
solr-4.4.0;SOLR-5190;2
solr-4.4.0;SOLR-5122;2
solr-4.4.0;SOLR-4909;2
solr-4.4.0;SOLR-4764;2
solr-4.4.0;SOLR-4059;2
solr-4.4.0;SOLR-5281;3
solr-4.4.0;SOLR-5231;3
solr-4.4.0;SOLR-5227;3
solr-4.4.0;SOLR-5150;3
solr-4.4.0;SOLR-4817;3
solr-4.4.0;SOLR-4221;3
solr-4.4.0;SOLR-5148;4
solr-4.4.0;SOLR-5017;4
solr-4.4.0;SOLR-4808;4
solr-4.4.0;SOLR-4718;4
solr-4.4.0;SOLR-2548;4
solr-4.4.0;SOLR-5119;5
solr-4.4.0;SOLR-5246;8
solr-4.4.0;SOLR-5243;8
solr-4.4.0;SOLR-5083;15
solr-4.4.0;SOLR-5188;16
solr-4.4.0;SOLR-5291;17
solr-4.4.0;SOLR-5167;17
solr-4.4.0;SOLR-2570;38
solr-4.4.0;SOLR-5240;42
solr-4.4.0;SOLR-5107;53
solr-4.4.0;SOLR-5296;78
solr-4.4.0;SOLR-4489;110
tika-1.3;TIKA-1152;0
tika-1.3;TIKA-1070;0
tika-1.3;TIKA-1210;1
tika-1.3;TIKA-1202;1
tika-1.3;TIKA-1201;1
tika-1.3;TIKA-1193;1
tika-1.3;TIKA-1130;1
tika-1.3;TIKA-1124;1
tika-1.3;TIKA-1110;1
tika-1.3;TIKA-1078;1
tika-1.3;TIKA-992;1
tika-1.3;TIKA-961;1
tika-1.3;TIKA-1126;2
tika-1.3;TIKA-1109;2
tika-1.3;TIKA-820;5
tika-1.3;TIKA-1192;6
tika-1.3;TIKA-1074;11
tika-1.3;TIKA-1211;16
tika-1.3;TIKA-1047;17
tika-1.3;TIKA-1090;40
tika-1.3;TIKA-1083;132
tika-1.3;TIKA-1053;229
tika-1.3;TIKA-1014;312
zookeeper-3.4.5;ZOOKEEPER-1867;1
zookeeper-3.4.5;ZOOKEEPER-1861;1
zookeeper-3.4.5;ZOOKEEPER-1860;1
zookeeper-3.4.5;ZOOKEEPER-1858;1
zookeeper-3.4.5;ZOOKEEPER-1852;1
zookeeper-3.4.5;ZOOKEEPER-1844;1
zookeeper-3.4.5;ZOOKEEPER-1841;1
zookeeper-3.4.5;ZOOKEEPER-1798;1
zookeeper-3.4.5;ZOOKEEPER-1771;1
zookeeper-3.4.5;ZOOKEEPER-1770;1
zookeeper-3.4.5;ZOOKEEPER-1733;1
zookeeper-3.4.5;ZOOKEEPER-1718;1
zookeeper-3.4.5;ZOOKEEPER-1696;1
zookeeper-3.4.5;ZOOKEEPER-1666;1
zookeeper-3.4.5;ZOOKEEPER-1664;1
zookeeper-3.4.5;ZOOKEEPER-1657;1
zookeeper-3.4.5;ZOOKEEPER-1633;1
zookeeper-3.4.5;ZOOKEEPER-1628;1
zookeeper-3.4.5;ZOOKEEPER-1624;1
zookeeper-3.4.5;ZOOKEEPER-1622;1
zookeeper-3.4.5;ZOOKEEPER-1620;1
zookeeper-3.4.5;ZOOKEEPER-1606;1
zookeeper-3.4.5;ZOOKEEPER-1603;1
zookeeper-3.4.5;ZOOKEEPER-1602;1
zookeeper-3.4.5;ZOOKEEPER-1578;1
zookeeper-3.4.5;ZOOKEEPER-1564;1
zookeeper-3.4.5;ZOOKEEPER-1558;1
zookeeper-3.4.5;ZOOKEEPER-1552;1
zookeeper-3.4.5;ZOOKEEPER-1551;1
zookeeper-3.4.5;ZOOKEEPER-1505;1
zookeeper-3.4.5;ZOOKEEPER-1495;1
zookeeper-3.4.5;ZOOKEEPER-1478;1
zookeeper-3.4.5;ZOOKEEPER-1459;1
zookeeper-3.4.5;ZOOKEEPER-1448;1
zookeeper-3.4.5;ZOOKEEPER-1414;1
zookeeper-3.4.5;ZOOKEEPER-1413;1
zookeeper-3.4.5;ZOOKEEPER-1411;1
zookeeper-3.4.5;ZOOKEEPER-1388;1
zookeeper-3.4.5;ZOOKEEPER-1387;1
zookeeper-3.4.5;ZOOKEEPER-1379;1
zookeeper-3.4.5;ZOOKEEPER-1179;1
zookeeper-3.4.5;ZOOKEEPER-442;1
zookeeper-3.4.5;ZOOKEEPER-87;1
zookeeper-3.4.5;ZOOKEEPER-1839;2
zookeeper-3.4.5;ZOOKEEPER-1834;2
zookeeper-3.4.5;ZOOKEEPER-1812;2
zookeeper-3.4.5;ZOOKEEPER-1781;2
zookeeper-3.4.5;ZOOKEEPER-1766;2
zookeeper-3.4.5;ZOOKEEPER-1750;2
zookeeper-3.4.5;ZOOKEEPER-1573;2
zookeeper-3.4.5;ZOOKEEPER-1572;2
zookeeper-3.4.5;ZOOKEEPER-1382;2
zookeeper-3.4.5;ZOOKEEPER-1147;2
zookeeper-3.4.5;ZOOKEEPER-1873;3
zookeeper-3.4.5;ZOOKEEPER-1751;3
zookeeper-3.4.5;ZOOKEEPER-1648;3
zookeeper-3.4.5;ZOOKEEPER-1610;3
zookeeper-3.4.5;ZOOKEEPER-1096;3
zookeeper-3.4.5;ZOOKEEPER-1837;4
zookeeper-3.4.5;ZOOKEEPER-1769;4
zookeeper-3.4.5;ZOOKEEPER-1759;5
zookeeper-3.4.5;ZOOKEEPER-1667;5
zookeeper-3.4.5;ZOOKEEPER-1629;5
zookeeper-3.4.5;ZOOKEEPER-1535;5
zookeeper-3.4.5;ZOOKEEPER-1783;6
zookeeper-3.4.5;ZOOKEEPER-1755;9
zookeeper-3.4.5;ZOOKEEPER-1732;11
zookeeper-3.4.5;ZOOKEEPER-1691;11
zookeeper-3.4.5;ZOOKEEPER-876;11
zookeeper-3.4.5;ZOOKEEPER-1499;12
zookeeper-3.4.5;ZOOKEEPER-1700;16
zookeeper-3.4.5;ZOOKEEPER-1642;28
zookeeper-3.4.5;ZOOKEEPER-1715;31
zookeeper-3.4.5;ZOOKEEPER-1774;33
zookeeper-3.4.5;ZOOKEEPER-1778;36
zookeeper-3.4.5;ZOOKEEPER-1753;41
zookeeper-3.4.5;ZOOKEEPER-1474;42
zookeeper-3.4.5;ZOOKEEPER-1817;47
zookeeper-3.4.5;ZOOKEEPER-1815;51
zookeeper-3.4.5;ZOOKEEPER-1619;201
