argouml-0.22;1641
argouml-0.22;3848
argouml-0.22;3921
argouml-0.22;4005
bookkeeper-4.1.0;BOOKKEEPER-247
bookkeeper-4.1.0;BOOKKEEPER-272
bookkeeper-4.1.0;BOOKKEEPER-304
bookkeeper-4.1.0;BOOKKEEPER-319
bookkeeper-4.1.0;BOOKKEEPER-325
bookkeeper-4.1.0;BOOKKEEPER-409
derby-10.9.1.0;DERBY-2461
derby-10.9.1.0;DERBY-4066
derby-10.9.1.0;DERBY-5688
derby-10.9.1.0;DERBY-5854
derby-10.9.1.0;DERBY-5871
derby-10.9.1.0;DERBY-5995
derby-10.9.1.0;DERBY-5996
hibernate-3.5.0b2;HHH-4774
mahout-0.8;MAHOUT-1351
openjpa-2.0.1;OPENJPA-1803
openjpa-2.2.0;OPENJPA-2275
pig-0.11.1;PIG-3247
pig-0.8.0;PIG-1536
pig-0.8.0;PIG-1618
pig-0.8.0;PIG-1749
pig-0.8.0;PIG-1871
pig-0.8.0;PIG-1874
pig-0.8.0;PIG-1975
solr-4.4.0;SOLR-2570
solr-4.4.0;SOLR-5167
tika-1.3;TIKA-1053
tika-1.3;TIKA-1083
tika-1.3;TIKA-1090
zookeeper-3.4.5;ZOOKEEPER-1715
zookeeper-3.4.5;ZOOKEEPER-1778
zookeeper-3.4.5;ZOOKEEPER-1817
