{"id":136,"bug_id":"1436014","text":"No comma added to separate keywords. When adding a keyword via the content selector, no comma is added before the keyword.  But keywords still get separated by a space only.","class_goldset":["net.sf.jabref.EntryEditor","net.sf.jabref.FieldContentSelector","net.sf.jabref.groups.GroupDialog"],"file_goldset":["net.sf.jabref.EntryEditor","net.sf.jabref.FieldContentSelector","net.sf.jabref.groups.GroupDialog"],"creation_date":"2006-02-21 16:27:48","resolution_date":"2012-11-08 19:56:16.748000"}
{"id":137,"bug_id":"1503956","text":"Help text instead of Help icon. In Options -\u003e Preferences -\u003e Entry preview, the help button contains the text \"help\" instead of the usual help icon","class_goldset":["net.sf.jabref.ExternalTab","net.sf.jabref.PrefsDialog2","net.sf.jabref.PrefsDialog3","net.sf.jabref.PreviewPrefsTab"],"file_goldset":["net.sf.jabref.ExternalTab","net.sf.jabref.PrefsDialog2","net.sf.jabref.PrefsDialog3","net.sf.jabref.PreviewPrefsTab"],"creation_date":"2006-06-10 11:18:03","resolution_date":"2012-11-08 19:57:21.248000"}
{"id":138,"bug_id":"1538769","text":"Freezes when exiting Import dialog box by Cancel button. Jabref freezes with status string \"Starting import\"\nwhen closing the Import dialog box without opening a file.","class_goldset":["net.sf.jabref.gui.FileDialogs"],"file_goldset":["net.sf.jabref.gui.FileDialogs"],"creation_date":"2006-08-11 15:12:07","resolution_date":"2012-11-08 19:58:00.025000"}
{"id":139,"bug_id":"1540646","text":"default sort order: bibtexkey. Unfortunately, \n  Options -\u003e Preferences -\u003e Entry table -\u003e Primary sort\ncriterion \ndoes not offer \"bibtexkey\".","class_goldset":["net.sf.jabref.TablePrefsTab"],"file_goldset":["net.sf.jabref.TablePrefsTab"],"creation_date":"2006-08-15 14:34:33","resolution_date":"2012-11-08 19:58:00.544000"}
{"id":140,"bug_id":"1548875","text":"download pdf produces unsupported filename. After reconfiguring my bibtex key generator to\nincorporate the first word of the title, the download\npdf function now fails because it attempts to create\nfilenames based on the bibtex key. Because the title\u0027s\nfirst word might contain a character such as \u0027:\u0027 \\(this\ngets incorporated into the key\\), the filename is\nunsupported and the pdf does not get saved.","class_goldset":["net.sf.jabref.external.ExternalFilePanel","net.sf.jabref.gui.FileListEditor"],"file_goldset":["net.sf.jabref.external.ExternalFilePanel","net.sf.jabref.gui.FileListEditor"],"creation_date":"2006-08-29 20:40:57","resolution_date":"2012-11-08 19:58:09.604000"}
{"id":141,"bug_id":"1553552","text":"Not properly detecting changes to flag as changed. In version 2.1 of JabRef any changes made to a bibtex field via the interface are not being recognised as changes until the user switches to another field.   Since JabRef doesn\u0027t recognize that any changes were made the user has to actually deliberately change to a different field before any save operations; if you don\u0027t change fields but still hit save then quit, you\u0027ve just lost all changes you made to that last field.","class_goldset":["net.sf.jabref.BasePanel","net.sf.jabref.EntryEditor.CopyKeyAction","net.sf.jabref.EntryEditor.NextEntryAction","net.sf.jabref.EntryEditor.PrevEntryAction","net.sf.jabref.EntryEditor.StoreFieldAction","net.sf.jabref.EntryEditorTab"],"file_goldset":["net.sf.jabref.BasePanel","net.sf.jabref.EntryEditor.CopyKeyAction","net.sf.jabref.EntryEditor.NextEntryAction","net.sf.jabref.EntryEditor.PrevEntryAction","net.sf.jabref.EntryEditor.StoreFieldAction","net.sf.jabref.EntryEditorTab"],"creation_date":"2006-09-06 17:41:25","resolution_date":"2012-11-08 19:58:10.675000"}
{"id":142,"bug_id":"1594169","text":"Entry editor: navigation between panels. One can move from one panel to the next by pressing\nCTRL-TAB. But, in fact, it works the first time only. To move to\nthe other panel, one must press TAB \\_and then\\_ CTRL-TAB. Same behaviour with CTRL-SHIFT-TAB.","class_goldset":["net.sf.jabref.EntryEditorTab"],"file_goldset":["net.sf.jabref.EntryEditorTab"],"creation_date":"2006-11-10 14:01:06","resolution_date":"2012-11-10 11:04:19.007000"}
{"id":143,"bug_id":"1601651","text":"PDF subdirectory - missing first character. When using the AUTO facility to link to a pdf the link string returned in the \\`Pdf\u0027 field \\(under the \\`General\u0027 tab\\) is missing the first character of the subdirectory name. The \\`Options \u003e Preferences \u003e Use regular expression\u0027 is ticked and set to the default     The \\`Options \u003e Preferences \u003e Main PDF Dir\u0027  is set to:  The target PDF file is:  But the link set by the auto facility is:","class_goldset":["net.sf.jabref.Util","net.sf.jabref.external.RegExpFileSearch","tests.net.sf.jabref.UtilFindFileTest"],"file_goldset":["net.sf.jabref.Util","net.sf.jabref.external.RegExpFileSearch","tests.net.sf.jabref.UtilFindFileTest"],"creation_date":"2006-11-23 10:10:45","resolution_date":"2014-02-11 04:20:43.915000"}
{"id":144,"bug_id":"1631548","text":"\"Open last edited DB at startup\" depends on the working dir. another little bug/feature: The JabRef option \"Open last edited database at startup\" depends on the working directory at which JabRef is started.     results in an empty JabRef not opening $\\{HOME\\}/at-work/Bibliography/my\\_documents.bib.","class_goldset":["net.sf.jabref.JabRefFrame"],"file_goldset":["net.sf.jabref.JabRefFrame"],"creation_date":"2007-01-09 14:20:57","resolution_date":"2012-11-08 20:23:12.866000"}
{"id":145,"bug_id":"1648789","text":"Problem on writing XMP. When switching \"Do not write the following fields to XMP Metadata\" on, an error occurs at \"Writing XMP metadata for selected entries\":\n Error while writing \u0027C:\\\\....pdf\u0027:\n    null","class_goldset":["net.sf.jabref.XmpPrefsTab","net.sf.jabref.util.XMPSchemaBibtex"],"file_goldset":["net.sf.jabref.XmpPrefsTab","net.sf.jabref.util.XMPSchemaBibtex"],"creation_date":"2007-01-31 12:48:12","resolution_date":"2012-11-10 11:04:19.038000"}
{"id":146,"bug_id":"1709449","text":"Clicking a DOI from context menu fails. Now: Clicking the DOI icon fails, since the default DOI server is not prepended, i.e. Firefox says","class_goldset":["net.sf.jabref.Util","tests.net.sf.jabref.UtilTest"],"file_goldset":["net.sf.jabref.Util","tests.net.sf.jabref.UtilTest"],"creation_date":"2007-04-29 00:03:55","resolution_date":"2012-11-08 20:24:30.727000"}
{"id":147,"bug_id":"1711135","text":"BibTeX export error; missing space before line breaks. I noticed that the bib file saved by JabRef has line breaks in long lines.  If the line is broken right after a constant part of the string, this part may not have a space after it.    The exported string looks like this:   Notice how the last \"and\" has no space \\(should s/\\{ and\\}/\\{ and \\}/\\). This results in a concatonation for BibTeX that reads \"andContentsOfFooBarString\" as opposed to the correct \"and ContentsOfFooBarString\".","class_goldset":["net.sf.jabref.BasePanel","net.sf.jabref.JabRefFrame","net.sf.jabref.external.AutoSetExternalFileForEntries","net.sf.jabref.external.SynchronizeFileField","net.sf.jabref.external.SynchronizeFileField.OptionsDialog","net.sf.jabref.gui.FileListEditor","net.sf.jabref.gui.FileListTableModel","net.sf.jabref.gui.ImportInspectionDialog.AutoSetLinks","net.sf.jabref.gui.ImportInspectionDialog.LinkLocalFile","net.sf.jabref.imports.EndnoteImporter","net.sf.jabref.imports.FieldContentParser","net.sf.jabref.imports.RisImporter"],"file_goldset":["net.sf.jabref.BasePanel","net.sf.jabref.JabRefFrame","net.sf.jabref.external.AutoSetExternalFileForEntries","net.sf.jabref.external.SynchronizeFileField","net.sf.jabref.external.SynchronizeFileField.OptionsDialog","net.sf.jabref.gui.FileListEditor","net.sf.jabref.gui.FileListTableModel","net.sf.jabref.gui.ImportInspectionDialog.AutoSetLinks","net.sf.jabref.gui.ImportInspectionDialog.LinkLocalFile","net.sf.jabref.imports.EndnoteImporter","net.sf.jabref.imports.FieldContentParser","net.sf.jabref.imports.RisImporter"],"creation_date":"2007-05-02 10:16:51","resolution_date":"2012-11-08 20:24:36.267000"}
{"id":148,"bug_id":"1749613","text":"About translation. \"INFO: Could not get key binding for \"Synchronize files\"\" is displayed in the console \\* In Options -\u003e Preferences -\u003e External Files -\u003e Link to external files, the first item is not properly translated: In French, it appears as \"Répertoire principal file\". \"file\" is not translated.","class_goldset":["net.sf.jabref.ExternalTab"],"file_goldset":["net.sf.jabref.ExternalTab"],"creation_date":"2007-07-07 14:29:24","resolution_date":"2012-11-08 20:25:33"}
{"id":149,"bug_id":"1827568","text":"\"Save Database\" Menu not working in Version 2.2. While the save button works fine, the menu entry labeld \"save database\" does in fact NOT save the database. Fortunalety when quitting JabRef asks to save changes and that works. The Star \"\\*\" next to the file name is removed, so one thinks the bib file has been saved.","class_goldset":["net.sf.jabref.export.SaveDatabaseAction"],"file_goldset":["net.sf.jabref.export.SaveDatabaseAction"],"creation_date":"2007-11-07 14:45:36","resolution_date":"2012-11-10 11:04:19.063000"}
{"id":150,"bug_id":"2119059","text":"First author in RIS format. This keyword A1 is not detected by JabRef RIS import filter.","class_goldset":["net.sf.jabref.imports.RisImporter"],"file_goldset":["net.sf.jabref.imports.RisImporter"],"creation_date":"2008-09-19 09:40:17","resolution_date":"2012-11-08 20:32:04.127000"}
{"id":151,"bug_id":"2207462","text":"Web search results hidden behind JabRef window. \\* A new window opens with progress bar where the results will later be shown \\(yet empty\\). \\* The new window disappears \\(behind the main JabRef window\\) and a message box opens: \"444 entries found. To reduce server load, only 50 will be downloaded.\" \\* Hitting ok: Message box closes, but the result window stays in the background \\(invisible\\).","class_goldset":["net.sf.jabref.gui.ImportInspectionDialog","net.sf.jabref.imports.ACMPortalFetcher","net.sf.jabref.imports.ImportInspectionCommandLine"],"file_goldset":["net.sf.jabref.gui.ImportInspectionDialog","net.sf.jabref.imports.ACMPortalFetcher","net.sf.jabref.imports.ImportInspectionCommandLine"],"creation_date":"2008-10-29 14:31:16","resolution_date":"2012-11-08 20:32:49.881000"}
{"id":152,"bug_id":"2904968","text":"Entry Editor does not open. I have just noticed that in JabRef 6.2Beta2 \\(rev 3140\\), this does not always work \\(in fact, nothing happens after a double-click\\).  I have no idea if it is related to this issue, but the following message is displayed several times in the exceptions list:","class_goldset":["net.sf.jabref.EntryEditor"],"file_goldset":["net.sf.jabref.EntryEditor"],"creation_date":"2009-11-27 13:26:49","resolution_date":"2013-01-10 16:18:06.671000"}
{"id":153,"bug_id":"2938562","text":"Move of files turns relative filenames to absolute ones. Using this turns relative filenames \\(relative to the doc-folder of the database settings\\) to absolute filenames.","class_goldset":["net.sf.jabref.external.MoveFileAction"],"file_goldset":["net.sf.jabref.external.MoveFileAction"],"creation_date":"2010-01-24 12:59:46","resolution_date":"2012-11-08 20:41:39.749000"}
