{"id":154,"bug_id":"1193683","text":"folding bug, text is in a black hole. Close it you\u0027ll get   You\u0027ll have  and no text fold anymore.  But the weird thing is that the text is not completely lost because you can type another \\{ \\(no need to undo\\) and the fold will reappear magically. So the text was still here but hidden by jEdit\u0027s text area","class_goldset":["org.gjt.sp.jedit.textarea.BufferHandler"],"file_goldset":["org.gjt.sp.jedit.textarea.BufferHandler"],"creation_date":"2005-05-02 09:22:25","resolution_date":"2007-07-31 22:06:01"}
{"id":155,"bug_id":"1382388","text":"Incorrect Python code indentation . I have found a little bug: processing the \"Indent\nLines\" command \\(CTRL + I\\) to the Python code causes the\nwrong identation of selected text.  after:\nif \\(row +1\\) \u0026gt; self.grid.GetNumberRows\\(\\):\nself.table.data.append\\(obj\\)\nself.grid.AppendRows\\(1, True\\)\nelse:\nself.grid.SetCellValue\\(row, 0, fileName\\)\nself.table.data.append\\(obj\\)\nself.grid.AutoSizeColumn\\(0, True\\)","class_goldset":["org.gjt.sp.jedit.Mode","org.gjt.sp.jedit.buffer.JEditBuffer","org.gjt.sp.jedit.indent.IndentAction.NoIncrease","org.gjt.sp.jedit.indent.WhitespaceRule"],"file_goldset":["org.gjt.sp.jedit.Mode","org.gjt.sp.jedit.buffer.JEditBuffer","org.gjt.sp.jedit.indent.IndentAction.NoIncrease","org.gjt.sp.jedit.indent.WhitespaceRule"],"creation_date":"2005-12-16 12:19:21","resolution_date":"2007-02-23 08:05:07"}
{"id":156,"bug_id":"1520774","text":"\u0027/\u0027 + enter in VFSFileChooser File: field. If I type \u0027/\u0027 + enter in the File-Browser I get the\nfile list in the attatched screen shot.   In 4.2 Final, just typeing \u0027/\u0027 took me to the root\ndirectory \"/\".","class_goldset":["org.gjt.sp.jedit.MiscUtilities"],"file_goldset":["org.gjt.sp.jedit.MiscUtilities"],"creation_date":"2006-07-11 20:43:16","resolution_date":"2008-05-27 05:44:33"}
{"id":157,"bug_id":"1536064","text":"focus in filesystembrowser NOT in filenamefield. When I try to open a file \\(Ctrl-O\\) the focus in the filesystembrowser is on the Commands menu instead of the filename field.","class_goldset":["org.gjt.sp.jedit.GUIUtilities"],"file_goldset":["org.gjt.sp.jedit.GUIUtilities"],"creation_date":"2006-08-07 15:14:23","resolution_date":"2006-08-26 05:11:17"}
{"id":158,"bug_id":"1538051","text":"Memory used reported inconsistent. When I double click on the memory gauge \\(bottom right\\)\nthe GC runs and then a dialog appears that reports\nnumbers that have nothing to do with the numbers I can\nsee on the bottom right.","class_goldset":["org.gjt.sp.jedit.gui.StatusBar","org.gjt.sp.jedit.gui.StatusBar.MemoryStatusWidgetFactory.MemoryStatus","org.gjt.sp.jedit.jEdit"],"file_goldset":["org.gjt.sp.jedit.gui.StatusBar","org.gjt.sp.jedit.gui.StatusBar.MemoryStatusWidgetFactory.MemoryStatus","org.gjt.sp.jedit.jEdit"],"creation_date":"2006-08-10 13:33:21","resolution_date":"2007-01-10 20:35:32"}
{"id":160,"bug_id":"1541372","text":"move caret on collapsing a fold. If the caret is in a fold that gets collapsed, the \ncaret should be placed at first line of that fold, i. \ne. the remaining visible line, otherwise it reexpands \nthe fold on direction key press.","class_goldset":["org.gjt.sp.jedit.textarea.Gutter.MouseHandler","org.gjt.sp.jedit.textarea.JEditTextArea"],"file_goldset":["org.gjt.sp.jedit.textarea.Gutter.MouseHandler","org.gjt.sp.jedit.textarea.JEditTextArea"],"creation_date":"2006-08-16 15:32:58","resolution_date":"2006-09-08 09:14:38"}
{"id":161,"bug_id":"1542026","text":"Keyboard navigation through menubar inserts char into buffer. Using the keyboard \\(characters, or space for \ncheckboxes \\[return for checkboxes works correctly\\]\\) \nto navigate through the menubar inserts the pressed \ncharacters literally in the current buffer if the \nchoice is not a sub-/menu, but an action, even if the \npressed character is not anything choosable \\(e. g. \nAlt+p -\u0026gt; a\\)","class_goldset":["org.gjt.sp.jedit.jEdit.MyFocusManager"],"file_goldset":["org.gjt.sp.jedit.jEdit.MyFocusManager"],"creation_date":"2006-08-17 14:41:54","resolution_date":"2007-09-21 10:07:21"}
{"id":162,"bug_id":"1548902","text":"4.3pre6: Format paragraph - StringIndexOutOfBoundsException. If caret is not inside paragraph \\(e.g. buffer is \nempty\\), then in action \"Format paragraph\" occurs \nStringIndexOutOfBoundsException.","class_goldset":["org.gjt.sp.jedit.TextUtilities","org.gjt.sp.jedit.textarea.JEditTextArea"],"file_goldset":["org.gjt.sp.jedit.TextUtilities","org.gjt.sp.jedit.textarea.JEditTextArea"],"creation_date":"2006-08-29 21:46:40","resolution_date":"2006-09-04 11:53:05"}
{"id":163,"bug_id":"1549282","text":"Saving of a file with r/o flag.. jEdit doesn\u0027t interpret the \"NO\" button correctly when","class_goldset":["org.gjt.sp.jedit.Buffer"],"file_goldset":["org.gjt.sp.jedit.Buffer"],"creation_date":"2006-08-30 13:25:49","resolution_date":"2006-09-12 12:34:29"}
{"id":164,"bug_id":"1571752","text":"\u0027Add Explicit Fold\u0027  in PHP mode - wrong comments. Before \u0027Add Explicit fold\u0027 the content of buffer looks like this \\(\u0027X\u0027 means selection boundaries\\):      After:","class_goldset":["org.gjt.sp.jedit.textarea.TextArea"],"file_goldset":["org.gjt.sp.jedit.textarea.TextArea"],"creation_date":"2006-10-05 21:26:12","resolution_date":"2007-08-01 22:07:42"}
{"id":165,"bug_id":"1575505","text":"C+j bug. Nothing happens","class_goldset":["org.gjt.sp.jedit.textarea.TextArea"],"file_goldset":["org.gjt.sp.jedit.textarea.TextArea"],"creation_date":"2006-10-11 19:54:43","resolution_date":"2006-10-19 12:48:46"}
{"id":166,"bug_id":"1584436","text":"soft wrap, cut and null-pointer exception. If I cut\na text fragment that is larger then the text view, and\nthen move back to the beginning of the text buffer by\nusing the cursor keys, Page-Up or Ctrl-Home, I usually\nget a NullPointerException.      This results in a BeanShell error dialog. The beginning\nof the text buffer is then missing in the display.","class_goldset":["org.gjt.sp.jedit.textarea.Anchor"],"file_goldset":["org.gjt.sp.jedit.textarea.Anchor"],"creation_date":"2006-10-25 13:50:49","resolution_date":"2007-02-20 22:40:36"}
{"id":167,"bug_id":"1593359","text":"JEditTextArea processes keyboard input that is not for it. JEditTextArea processes keyboard input that is not meant for it.  Dockable or Java Insight Dockable, pressing Del-key deletes characters from the buffer.","class_goldset":["org.gjt.sp.jedit.gui.InputHandler"],"file_goldset":["org.gjt.sp.jedit.gui.InputHandler"],"creation_date":"2006-11-09 12:26:59","resolution_date":"2006-12-19 08:04:50"}
{"id":168,"bug_id":"1593523","text":"\"Toggle Tree View\" broken. If doing \"Toggle Tree View\" in HyperSearch Results \nwindow context menu, it doesn\u0027t switch properly, \nmeans if switching back to show the path and filename \nin one line, the path is missing.","class_goldset":["org.gjt.sp.jedit.search.HyperSearchOperationNode"],"file_goldset":["org.gjt.sp.jedit.search.HyperSearchOperationNode"],"creation_date":"2006-11-09 15:46:22","resolution_date":"2007-01-06 18:13:26"}
{"id":169,"bug_id":"1599709","text":"NPE with JEditBuffer and new indenting. When pressing ENTER, after the \"\u0027\", the following exception gets thrown:","class_goldset":["org.gjt.sp.jedit.buffer.JEditBuffer"],"file_goldset":["org.gjt.sp.jedit.buffer.JEditBuffer"],"creation_date":"2006-11-20 13:17:56","resolution_date":"2006-11-21 04:08:42"}
{"id":170,"bug_id":"1600401","text":"StringIndexOutOfBoundsException in TokenMarker. After pressing ENTER in a rather long line in a . php file, I got the following exception. The line appeared wrong highlighted in the first place, that why I wanted to see if splitting it would resolve the highlight issue. After this the buffer window is not usable anymore \\(e.g. I cannot enter it, nor does it get repainted\\).","class_goldset":["org.gjt.sp.jedit.syntax.TokenMarker"],"file_goldset":["org.gjt.sp.jedit.syntax.TokenMarker"],"creation_date":"2006-11-21 13:16:31","resolution_date":"2015-02-04 17:44:47.541000"}
{"id":171,"bug_id":"1620694","text":"Background Plugin - Scrolling with MouseWheel Issue. Since the 4.3preX the Background Plugin scrolls the Background Picture, when i am scrolling with the mousewheel or use the scrollbar. It still works fine \\(the picture is fixed\\) when i use the pageup pagedown keys.","class_goldset":["org.gjt.sp.jedit.textarea.BufferHandler","org.gjt.sp.jedit.textarea.TextArea","org.gjt.sp.jedit.textarea.TextAreaPainter"],"file_goldset":["org.gjt.sp.jedit.textarea.BufferHandler","org.gjt.sp.jedit.textarea.TextArea","org.gjt.sp.jedit.textarea.TextAreaPainter"],"creation_date":"2006-12-22 09:26:14","resolution_date":"2008-09-06 07:54:04"}
{"id":172,"bug_id":"1630805","text":"Escaped quotes messed up (since pre9). The syntax highlighting messes up for me with the first escaped quote in the javascript embedded in the PHP echo statement on line 7 and stays messed up until the closing parenthesis on line 25.","class_goldset":["org.gjt.sp.jedit.syntax.ParserRule","org.gjt.sp.jedit.syntax.TokenMarker"],"file_goldset":["org.gjt.sp.jedit.syntax.ParserRule","org.gjt.sp.jedit.syntax.TokenMarker"],"creation_date":"2007-01-08 18:13:34","resolution_date":"2007-01-29 21:34:41"}
{"id":173,"bug_id":"1641997","text":"automatic reloading of buffers. The option \"autoreload without notification\" is only available in buffer options. In the General Options pane, the apropriate List has 4 items, but the last item is empty and can\u0027t be selected.","class_goldset":["org.gjt.sp.jedit.options.GeneralOptionPane"],"file_goldset":["org.gjt.sp.jedit.options.GeneralOptionPane"],"creation_date":"2007-01-22 22:40:59","resolution_date":"2007-01-23 08:18:19"}
{"id":174,"bug_id":"1658252","text":"C mode: incorrect bracket matching in multi-line defines. The brackets don\u0027t match.","class_goldset":["org.gjt.sp.jedit.syntax.ParserRule","org.gjt.sp.jedit.syntax.TokenMarker","org.gjt.sp.jedit.syntax.XModeHandler","org.gjt.sp.jedit.syntax.XModeHandler.TagDecl"],"file_goldset":["org.gjt.sp.jedit.syntax.ParserRule","org.gjt.sp.jedit.syntax.TokenMarker","org.gjt.sp.jedit.syntax.XModeHandler","org.gjt.sp.jedit.syntax.XModeHandler.TagDecl"],"creation_date":"2007-02-12 17:48:03","resolution_date":"2007-03-08 08:11:25"}
{"id":175,"bug_id":"1663617","text":"Spaces in URL paths bug (xml/errorlist). Hi, when an xml file is in a folder that contains spaces in it\u0027s name, if there is an error in the xml that is displayed in ErrorList, when clicking on it, the ErrorList will open another buffer. The reason is that it replaces the path by an URL, and replaces the space by a %20.","class_goldset":["org.gjt.sp.jedit.jEdit"],"file_goldset":["org.gjt.sp.jedit.jEdit"],"creation_date":"2007-02-19 16:11:38","resolution_date":"2007-03-07 03:20:10"}
{"id":176,"bug_id":"1668893","text":"Wrong conversion to UTF-16 (with BOM). Recently I mentioned, that when changing encoding to UTF-16, then saving file and reopening it a BOM appears at the end of each line \\(in my case it is FF FE\\) before \\n","class_goldset":["org.gjt.sp.jedit.MiscUtilities","org.gjt.sp.jedit.bufferio.BufferIORequest"],"file_goldset":["org.gjt.sp.jedit.MiscUtilities","org.gjt.sp.jedit.bufferio.BufferIORequest"],"creation_date":"2007-02-26 09:54:00","resolution_date":"2007-03-07 04:08:36"}
{"id":177,"bug_id":"1723506","text":"Context menu key not functional on Windows. Normally, the context menu key has the same effect as a mouse right click; in jEdit, however, it has no effect.","class_goldset":["org.gjt.sp.jedit.textarea.JEditTextArea"],"file_goldset":["org.gjt.sp.jedit.textarea.JEditTextArea"],"creation_date":"2007-05-22 14:18:30","resolution_date":"2007-06-15 04:46:44"}
{"id":178,"bug_id":"1724940","text":"typing in multiple select. If I highlight multiple selections of text in the text area and then begin typing, only the first character of what I type is inserted in the selected areas \\(except for where the cursor ended up after making the selection\\).   and I highlight both p\u0027s in the \u0026lt;p\u0026gt; tags and then type \"div\" I end up with:","class_goldset":["org.gjt.sp.jedit.textarea.BufferHandler"],"file_goldset":["org.gjt.sp.jedit.textarea.BufferHandler"],"creation_date":"2007-05-24 15:02:18","resolution_date":"2007-09-25 16:08:10"}
{"id":179,"bug_id":"1739675","text":"Error in jedit svn revision 9820+. After compile and update my jedit to pre10 \\(revision 9820+\\) i got some erros trying to use c+i with python files.","class_goldset":["org.gjt.sp.jedit.indent.WhitespaceRule"],"file_goldset":["org.gjt.sp.jedit.indent.WhitespaceRule"],"creation_date":"2007-06-19 11:44:12","resolution_date":"2007-06-23 21:41:47"}
{"id":180,"bug_id":"1768638","text":"File status checking after buffer switch doesn\u0027t always work. Nothing happens    You\u0027re prompted to take an action for buffer f2               You\u0027re immediately prompted to take an action for the modified f2 buffer.","class_goldset":["org.gjt.sp.jedit.Buffer","org.gjt.sp.jedit.EditServer","org.gjt.sp.jedit.View","org.gjt.sp.jedit.View.WindowHandler","org.gjt.sp.jedit.gui.CloseDialog.ActionHandler","org.gjt.sp.jedit.jEdit","org.gjt.sp.jedit.options.GeneralOptionPane","org.gjt.sp.jedit.search.SearchAndReplace"],"file_goldset":["org.gjt.sp.jedit.Buffer","org.gjt.sp.jedit.EditServer","org.gjt.sp.jedit.View","org.gjt.sp.jedit.View.WindowHandler","org.gjt.sp.jedit.gui.CloseDialog.ActionHandler","org.gjt.sp.jedit.jEdit","org.gjt.sp.jedit.options.GeneralOptionPane","org.gjt.sp.jedit.search.SearchAndReplace"],"creation_date":"2008-01-14 19:10:55","resolution_date":"2012-09-01 18:29:20"}
{"id":181,"bug_id":"1834620","text":"Regex capturing groups above $9 can\u0027t be accessed. Capturing groups above $9 can\u0027t be accessed in jEdit 4.2final.      Actual output: 123456789101112","class_goldset":["org.gjt.sp.jedit.search.SearchAndReplace"],"file_goldset":["org.gjt.sp.jedit.search.SearchAndReplace"],"creation_date":"2007-11-19 16:13:11","resolution_date":"2008-02-22 23:19:06"}
{"id":183,"bug_id":"1869978","text":"untitled buffer not closed with 2 views. When jEdit has only one buffer open, which name is untitled-x and which is empty and not dirty, it is closed automatically when another buffer is opened.  But it does not work, if there are more than one open views.","class_goldset":["org.gjt.sp.jedit.jEdit"],"file_goldset":["org.gjt.sp.jedit.jEdit"],"creation_date":"2008-01-12 16:00:50","resolution_date":"2008-02-26 20:48:42"}
{"id":184,"bug_id":"1906288","text":"Bug in scrollLine calculation with soft-wrapped lines. it\u0027s getting smaller each time you delete the line above the long one.         You see that, for no reason, the scrollbar disappears.  You will get the following exception:                                                         I would liketo fix this bug, but I don\u0027t know which side-effects it would have not to update the scrollLine in setScreenLineCount. Can anybody give some response? I think, this bug also results in some of the NPE occuring at scrolling sometimes.","class_goldset":["org.gjt.sp.jedit.textarea.Anchor"],"file_goldset":["org.gjt.sp.jedit.textarea.Anchor"],"creation_date":"2008-03-03 14:28:07","resolution_date":"2008-03-08 22:05:58"}
{"id":185,"bug_id":"1913979","text":"HistoryTextField: array out of bounds when no history. you get this:","class_goldset":["org.gjt.sp.jedit.search.SearchDialog"],"file_goldset":["org.gjt.sp.jedit.search.SearchDialog"],"creation_date":"2008-03-14 01:09:06","resolution_date":"2008-03-18 21:17:35"}
{"id":186,"bug_id":"1942313","text":"Expanding a fold twice moves caret unexpectedly. The caret moves unexpectedly to the \\`bcd\u0027 line.","class_goldset":["org.gjt.sp.jedit.textarea.DisplayManager"],"file_goldset":["org.gjt.sp.jedit.textarea.DisplayManager"],"creation_date":"2008-04-14 18:08:29","resolution_date":"2008-04-20 23:15:18"}
{"id":187,"bug_id":"1984000","text":"Untitled buffer is lost after C+n. When I\u0027m editing an untitled buffer and call File \u0026gt; New, the edited buffer is lost from the buffer list.","class_goldset":["org.gjt.sp.jedit.bufferset.BufferSet"],"file_goldset":["org.gjt.sp.jedit.bufferset.BufferSet"],"creation_date":"2008-06-03 23:51:25","resolution_date":"2008-06-04 22:03:45"}
{"id":188,"bug_id":"1999448","text":"Unnecesarry fold expantion when folded lines are edited. all folds are folded.","class_goldset":["org.gjt.sp.jedit.textarea.BufferHandler","org.gjt.sp.jedit.textarea.DisplayManager","org.gjt.sp.jedit.textarea.TextArea"],"file_goldset":["org.gjt.sp.jedit.textarea.BufferHandler","org.gjt.sp.jedit.textarea.DisplayManager","org.gjt.sp.jedit.textarea.TextArea"],"creation_date":"2008-08-23 10:28:24","resolution_date":"2008-08-23 10:28:24"}
{"id":189,"bug_id":"2015210","text":"IllegalArgumentException. Inputing negative number in \"History text field entries to remember\u0027\u0027 will result in thrown of IllegalArgumentException.  Inputing negative number in \"Autosave frequency\\(secs\\)\" will result in thrown of IllegalArgumentException.","class_goldset":["org.gjt.sp.jedit.options.AppearanceOptionPane","org.gjt.sp.jedit.options.SaveBackupOptionPane"],"file_goldset":["org.gjt.sp.jedit.options.AppearanceOptionPane","org.gjt.sp.jedit.options.SaveBackupOptionPane"],"creation_date":"2008-07-10 16:26:02","resolution_date":"2008-07-15 11:29:26"}
{"id":190,"bug_id":"2017514","text":"Context menu and \u0027Select All\u0027. About one in 3 or 4 times, I lose the selection.","class_goldset":["org.gjt.sp.jedit.textarea.MouseHandler"],"file_goldset":["org.gjt.sp.jedit.textarea.MouseHandler"],"creation_date":"2008-07-13 20:48:23","resolution_date":"2009-01-05 08:52:23"}
{"id":191,"bug_id":"2129419","text":"NPE in EditPane.setBuffer when quitting jEdit. When trying to quit jEdit, I get the following Null-Pointer-Exception, which is probably related to some files being changed/deleted \\(due to a \"cvs up\" in the background\\).   dialog already failed, so that \"Close\" was the only option that worked. The NPE:","class_goldset":["org.gjt.sp.jedit.gui.CloseDialog.ListHandler"],"file_goldset":["org.gjt.sp.jedit.gui.CloseDialog.ListHandler"],"creation_date":"2008-09-25 23:53:11","resolution_date":"2008-09-29 21:23:35"}
{"id":192,"bug_id":"2173112","text":"4.3pre16: regex \u0027$\u0027 does not match last line in selection. This only matches the first 4 lines. The fifth is not matched  Since the fifth line was not matched, z is placed on only the first 4 lines.","class_goldset":["org.gjt.sp.jedit.search.HyperSearchRequest"],"file_goldset":["org.gjt.sp.jedit.search.HyperSearchRequest"],"creation_date":"2008-10-16 23:00:21","resolution_date":"2008-10-17 04:45:37"}
{"id":193,"bug_id":"2218621","text":"FileBrowser: Directory of current buffer. When I type \"-\" \\(minus\\) in FileBrowser\u0027s Path dropdown and press enter, minus is appended to the path instead of changing path to current buffer. When I choose \"Directory of current buffer\" from commands menu, it works ok. ~ and / options are working fine. There is also small inconsistency, because in search and replace dialog to current buffer points empty dropdown, not minus. Maybe in FileBrowser it should as well, but for now neither minus nor empty field points to current directory.","class_goldset":["org.gjt.sp.jedit.MiscUtilities"],"file_goldset":["org.gjt.sp.jedit.MiscUtilities"],"creation_date":"2008-11-03 10:05:46","resolution_date":"2009-05-06 15:09:47"}
{"id":194,"bug_id":"2220033","text":"Relative position in status bar is inaccurate. notice that the relative position displays \"BOT\" well before the bottom of the file\n4\\.   notice that the relative position continues to say \"BOT\" well up from the bottom of the file","class_goldset":["org.gjt.sp.jedit.gui.StatusBar","org.gjt.sp.jedit.gui.StatusBar.MouseHandler","org.gjt.sp.jedit.options.StatusBarOptionPane"],"file_goldset":["org.gjt.sp.jedit.gui.StatusBar","org.gjt.sp.jedit.gui.StatusBar.MouseHandler","org.gjt.sp.jedit.options.StatusBarOptionPane"],"creation_date":"2008-11-04 05:39:53","resolution_date":"2008-11-15 16:29:03"}
{"id":195,"bug_id":"2759434","text":"indent related bug (svn rev 14922). if True:\u0026lt;ENTER\u0026gt;\n\u0026lt;CARRET\u0026gt;\u0026lt;ENTER - the exception occures\u0026gt;","class_goldset":["org.gjt.sp.util.StandardUtilities"],"file_goldset":["org.gjt.sp.util.StandardUtilities"],"creation_date":"2009-04-13 17:19:22","resolution_date":"2009-04-13 18:41:07"}
{"id":196,"bug_id":"2781716","text":"Line numbers in Hypersearch Results are wrongly highlighted. The result becomes \"1: 1\" and both \"1\" for line number and for the text\nis highlighted.","class_goldset":["org.gjt.sp.jedit.search.HyperSearchResults.HighlightingTree"],"file_goldset":["org.gjt.sp.jedit.search.HyperSearchResults.HighlightingTree"],"creation_date":"2009-04-26 16:42:52","resolution_date":"2009-04-26 19:47:08"}
{"id":197,"bug_id":"2824045","text":"Toggle FullScreen Mode: Window ends up under others. Sometimes when I toggle fullscreen mode, the jEdit window appears behind other windows \\(such as my desktop panel\\). This happens in BOTH directions \\(switching it on and off\\).","class_goldset":["org.gjt.sp.jedit.View"],"file_goldset":["org.gjt.sp.jedit.View"],"creation_date":"2009-07-20 00:56:45","resolution_date":"2009-07-22 10:57:11"}
{"id":198,"bug_id":"950961","text":"Folding: handling newlines at the start of closed folds. which folds to:\n1| //\\{\\{\\{ \\[4 lines\\]\n6| Other text By placing the caret after the last brace and pressing \nreturn we get the\nfollowing result:\n1| //\\{\\{\\{\n2| New text entered\n7| Other text In the editor the fold is now showen as unfolded, but the \ntext within the fold is not displayed. To display the \ncontents of the fold you have to close the fold and open \nit again which then would display the expected text:\n1| //\\{\\{\\{\n2| New text entered\n3| Folding\n4| Test\n5| Case\n6| //\\}\\}\\}\n7| Other text  Secondly, with explict folding only, \nplacing the caret between the braces that make up the \nstart of the fold whilst folded and pressing return causes \nthe fold to be \u0027lost\u0027. As in the space taken up by the fold \nis still indicated by jEdit but the fold is no longer \ndisplayed:\n1| //\\{\\{\n2|    ^\\{\n7| Other text","class_goldset":["org.gjt.sp.jedit.buffer.BufferAdapter","org.gjt.sp.jedit.buffer.BufferChangeListener.Adapter","org.gjt.sp.jedit.buffer.JEditBuffer","org.gjt.sp.jedit.textarea.BufferHandler","org.gjt.sp.jedit.textarea.RangeMap"],"file_goldset":["org.gjt.sp.jedit.buffer.BufferAdapter","org.gjt.sp.jedit.buffer.BufferChangeListener.Adapter","org.gjt.sp.jedit.buffer.JEditBuffer","org.gjt.sp.jedit.textarea.BufferHandler","org.gjt.sp.jedit.textarea.RangeMap"],"creation_date":"2004-05-09 21:37:09","resolution_date":"2007-09-21 19:41:04"}
{"id":199,"bug_id":"981012","text":"The editor text area is not properly recognizing Indic input. The editor text area is not properly recognizing\nUnicode Indic \\(Sanskrit\\) input on Windows 2000.   The Notepad is\ndisplaying the word properly, but the JEdit is not\ndisplaying it properly.","class_goldset":["org.gjt.sp.jedit.syntax.Chunk"],"file_goldset":["org.gjt.sp.jedit.syntax.Chunk"],"creation_date":"2004-06-28 05:01:47","resolution_date":"2008-09-06 13:18:37"}
