{"id":200,"bug_id":"LUCENE-4182","text":"DocumentsWriterFlushControl.assertMemory tripped by NGramTokenizerTest.testRandomStrings. ","class_goldset":["org.apache.lucene.index.DocumentsWriterFlushControl"],"file_goldset":["org.apache.lucene.index.DocumentsWriterFlushControl"],"creation_date":"2012-06-29T11:45:34.000+0000","resolution_date":"2012-10-18T18:08:47.000+0000"}
{"id":201,"bug_id":"LUCENE-4411","text":"Depth requested in a facetRequest is reset when Sampling is in effect. When Sampling is enabled (and actually used) the Depth parameter gets reset to its default (1).","class_goldset":["org.apache.lucene.facet.search.sampling.Sampler.OverSampledFacetRequest"],"file_goldset":["org.apache.lucene.facet.search.sampling.Sampler.OverSampledFacetRequest"],"creation_date":"2012-09-20T11:49:13.000+0000","resolution_date":"2012-09-25T07:24:49.000+0000"}
{"id":202,"bug_id":"LUCENE-4461","text":"Multiple FacetRequest with the same path creates inconsistent results. Multiple FacetRequest are getting merged into one creating wrong results in this case:","class_goldset":["org.apache.lucene.facet.search.StandardFacetsAccumulator"],"file_goldset":["org.apache.lucene.facet.search.StandardFacetsAccumulator"],"creation_date":"2012-10-05T15:21:38.000+0000","resolution_date":"2012-12-16T19:15:55.000+0000"}
{"id":203,"bug_id":"LUCENE-4480","text":"NoSuchElementException from AnalyzingSuggester. Spinoff from LUCENE-3846 where Simon hit this ... it\u0027s a bug in FST\u0027s Util.TopNSearcher where it fails to handle queue exhaustion properly. I think WFSTSuggester isn\u0027t affected because by the time the queue is exhausted, the search is done (ie it never adds to the queue after it becomes exhausted).","class_goldset":["org.apache.lucene.util.fst.Util","org.apache.lucene.util.fst.Util.TopNSearcher"],"file_goldset":["org.apache.lucene.util.fst.Util","org.apache.lucene.util.fst.Util.TopNSearcher"],"creation_date":"2012-10-12T15:02:55.000+0000","resolution_date":"2012-10-12T15:08:35.000+0000"}
{"id":204,"bug_id":"LUCENE-4532","text":"TestDirectoryTaxonomyReader.testRefreshReadRecreatedTaxonomy failure. The following failure on Jenkins:","class_goldset":["org.apache.lucene.facet.taxonomy.directory.DirectoryTaxonomyReader","org.apache.lucene.facet.taxonomy.directory.DirectoryTaxonomyReader.ChildrenArraysImpl","org.apache.lucene.facet.taxonomy.directory.DirectoryTaxonomyWriter","org.apache.lucene.facet.taxonomy.directory.TestDirectoryTaxonomyWriter"],"file_goldset":["org.apache.lucene.facet.taxonomy.directory.DirectoryTaxonomyReader","org.apache.lucene.facet.taxonomy.directory.DirectoryTaxonomyReader.ChildrenArraysImpl","org.apache.lucene.facet.taxonomy.directory.DirectoryTaxonomyWriter","org.apache.lucene.facet.taxonomy.directory.TestDirectoryTaxonomyWriter"],"creation_date":"2012-11-04T08:51:37.000+0000","resolution_date":"2012-11-07T11:33:25.000+0000"}
{"id":205,"bug_id":"LUCENE-4561","text":"DWPT assert tripped again. TestBagOfPositions tripped the spooky DWPT ram used on flush assert in http://jenkins.sd-datasolutions.de/job/Lucene-Solr-4.x-Linux/2472/   Full failure:","class_goldset":["org.apache.lucene.index.DocumentsWriterFlushControl"],"file_goldset":["org.apache.lucene.index.DocumentsWriterFlushControl"],"creation_date":"2012-11-15T16:06:09.000+0000","resolution_date":"2012-11-16T13:09:14.000+0000"}
{"id":206,"bug_id":"LUCENE-4567","text":"WFSTCompletionLookup.lookup() NPE when empty fst. the fst Builder.finish() returns null when nothing is accepted, this then results in NPE in lookup(), see patch for extra nullchecks","class_goldset":["org.apache.lucene.search.suggest.fst.WFSTCompletionTest"],"file_goldset":["org.apache.lucene.search.suggest.fst.WFSTCompletionTest"],"creation_date":"2012-11-20T17:11:17.000+0000","resolution_date":"2012-11-20T19:02:12.000+0000"}
{"id":207,"bug_id":"LUCENE-4568","text":"Integer overflow in PagedBytes.PagedBytesData{In,Out}put.getPosition. PagedBytes.PagedBytesData{In,Out}put.getPosition overflow when there are more than Integer.MAX_VALUE bytes.","class_goldset":["org.apache.lucene.util.PagedBytes","org.apache.lucene.util.PagedBytes.PagedBytesDataInput","org.apache.lucene.util.PagedBytes.PagedBytesDataOutput","org.apache.lucene.util.TestPagedBytes"],"file_goldset":["org.apache.lucene.util.PagedBytes","org.apache.lucene.util.PagedBytes.PagedBytesDataInput","org.apache.lucene.util.PagedBytes.PagedBytesDataOutput","org.apache.lucene.util.TestPagedBytes"],"creation_date":"2012-11-21T10:40:57.000+0000","resolution_date":"2012-11-21T14:13:03.000+0000"}
{"id":208,"bug_id":"LUCENE-4629","text":"IndexWriter fails to delete documents if Iterator\u003cIndexDocument\u003e throws an exception. In DWPT we iterator over a document block and roll back documents if one of the docs fails with a non-aborting exception. Yet, we miss to delete those document if the iterator itself throws an exception.","class_goldset":["org.apache.lucene.index.DocumentsWriterPerThread"],"file_goldset":["org.apache.lucene.index.DocumentsWriterPerThread"],"creation_date":"2012-12-13T22:57:50.000+0000","resolution_date":"2012-12-14T11:26:34.000+0000"}
{"id":209,"bug_id":"LUCENE-4653","text":"Make TestIndexWriter.testThreadInterruptDeadlock meaner. Just tweaking the test to also call w.updateDocument (so we sometimes apply deletes) (Rob\u0027s idea) causes all sorts of fun failures ...","class_goldset":["org.apache.lucene.codecs.simpletext.SimpleTextFieldsReader","org.apache.lucene.index.ConcurrentMergeScheduler","org.apache.lucene.index.ReadersAndLiveDocs","org.apache.lucene.index.SegmentInfoPerCommit","org.apache.lucene.index.TestIndexWriter.IndexerThreadInterrupt"],"file_goldset":["org.apache.lucene.codecs.simpletext.SimpleTextFieldsReader","org.apache.lucene.index.ConcurrentMergeScheduler","org.apache.lucene.index.ReadersAndLiveDocs","org.apache.lucene.index.SegmentInfoPerCommit","org.apache.lucene.index.TestIndexWriter.IndexerThreadInterrupt"],"creation_date":"2013-01-03T00:18:15.000+0000","resolution_date":"2013-01-03T13:43:07.000+0000"}
{"id":210,"bug_id":"LUCENE-4656","text":"Fix IndexWriter working together with EmptyTokenizer and EmptyTokenStream (without CharTermAttribute), fix BaseTokenStreamTestCase. TestRandomChains can fail because EmptyTokenizer doesn\u0027t have a CharTermAttribute and doesn\u0027t compute the end offset (if the offset attribute was added by a filter).","class_goldset":["org.apache.lucene.analysis.BaseTokenStreamTestCase","org.apache.lucene.analysis.EmptyTokenizer","org.apache.lucene.queryparser.classic.TestMultiFieldQueryParser.AnalyzerReturningNull","org.apache.lucene.queryparser.flexible.standard.TestMultiFieldQPHelper.AnalyzerReturningNull"],"file_goldset":["org.apache.lucene.analysis.BaseTokenStreamTestCase","org.apache.lucene.analysis.EmptyTokenizer","org.apache.lucene.queryparser.classic.TestMultiFieldQueryParser.AnalyzerReturningNull","org.apache.lucene.queryparser.flexible.standard.TestMultiFieldQPHelper.AnalyzerReturningNull"],"creation_date":"2013-01-03T12:50:24.000+0000","resolution_date":"2013-01-03T23:45:03.000+0000"}
{"id":212,"bug_id":"LUCENE-4660","text":"When ConcurrentMergeScheduler stalls incoming threads it has unexpected hysteresis. Eg if you set maxMergeCount to 2, as soon as a 3rd merge need to kick off, we stall incoming segment-creating threads. Then we wait ... and we are supposed to resume the threads when the merge count drops back to 2, but instead we are only resuming when merge count gets to 1. Ie, we stall for too long (\u003d unexpected hysteresis).","class_goldset":["org.apache.lucene.index.ConcurrentMergeScheduler.MergeThread"],"file_goldset":["org.apache.lucene.index.ConcurrentMergeScheduler.MergeThread"],"creation_date":"2013-01-04T14:21:54.000+0000","resolution_date":"2013-01-04T16:13:35.000+0000"}
{"id":214,"bug_id":"LUCENE-4899","text":"FastVectorHighlihgter fails with SIOOB if single phrase or term is \u003e fragCharSize. The reason is that the current code expects the fragCharSize \u003e matchLength which is not necessarily true if you use phrases or if you have very long terms like URLs or so.","class_goldset":["org.apache.lucene.search.vectorhighlight.BaseFragListBuilder","org.apache.lucene.search.vectorhighlight.FieldPhraseList","org.apache.lucene.search.vectorhighlight.SimpleFragListBuilderTest"],"file_goldset":["org.apache.lucene.search.vectorhighlight.BaseFragListBuilder","org.apache.lucene.search.vectorhighlight.FieldPhraseList","org.apache.lucene.search.vectorhighlight.SimpleFragListBuilderTest"],"creation_date":"2013-04-03T08:54:00.000+0000","resolution_date":"2013-04-05T16:57:00.000+0000"}
