{"id":256,"bug_id":"PIG-2265","text":"Test case TestSecondarySort failure. Error message:","class_goldset":["src.org.apache.pig.backend.hadoop.executionengine.mapReduceLayer.MRCompiler","src.org.apache.pig.backend.hadoop.executionengine.mapReduceLayer.SecondaryKeyOptimizer","test.org.apache.pig.test.TestSecondarySort"],"file_goldset":["src.org.apache.pig.backend.hadoop.executionengine.mapReduceLayer.MRCompiler","src.org.apache.pig.backend.hadoop.executionengine.mapReduceLayer.SecondaryKeyOptimizer","test.org.apache.pig.test.TestSecondarySort"],"creation_date":"2011-09-06T14:42:27.000+0000","resolution_date":"2013-04-08T19:59:48.000+0000"}
{"id":257,"bug_id":"PIG-2606","text":"union/ join operations are not accepting same alias as multiple inputs. ","class_goldset":["src.org.apache.pig.parser.LogicalPlanBuilder","test.org.apache.pig.parser.TestErrorHandling"],"file_goldset":["src.org.apache.pig.parser.LogicalPlanBuilder","test.org.apache.pig.parser.TestErrorHandling"],"creation_date":"2012-03-17T01:49:00.000+0000","resolution_date":"2013-08-29T21:17:13.000+0000"}
{"id":258,"bug_id":"PIG-2767","text":"Pig creates wrong schema after dereferencing nested tuple fields. DESCRIBE thinks it is {f1: int, f2: int} instead. When dump is\nused, the data is actually in form of the correct schema however, ex.     Because the schema is incorrect,\nthe reference to \"nested_tuple\" in the \"uses_dereferenced\" statement is\nconsidered to be invalid, and the script fails to run. The error is:","class_goldset":["src.org.apache.pig.newplan.logical.expression.DereferenceExpression","test.org.apache.pig.test.TestPigServer"],"file_goldset":["src.org.apache.pig.newplan.logical.expression.DereferenceExpression","test.org.apache.pig.test.TestPigServer"],"creation_date":"2012-06-25T14:11:20.000+0000","resolution_date":"2013-04-22T20:13:20.000+0000"}
{"id":259,"bug_id":"PIG-2828","text":"Handle nulls in DataType.compare. While using TOP, and if the DataBag contains null value to compare, it will generate the following exception:                 The reason is that if the typeFound is true , and the dataType is not null, and field1 is null, the script failed.","class_goldset":["src.org.apache.pig.builtin.TOP","src.org.apache.pig.data.DataType","test.org.apache.pig.test.TestNull"],"file_goldset":["src.org.apache.pig.builtin.TOP","src.org.apache.pig.data.DataType","test.org.apache.pig.test.TestNull"],"creation_date":"2012-07-19T10:03:16.000+0000","resolution_date":"2013-06-04T07:02:17.000+0000"}
{"id":260,"bug_id":"PIG-2956","text":"Invalid cache specification for some streaming statement. ","class_goldset":["src.org.apache.pig.backend.hadoop.executionengine.mapReduceLayer.JobControlCompiler","test.org.apache.pig.test.TestJobSubmission"],"file_goldset":["src.org.apache.pig.backend.hadoop.executionengine.mapReduceLayer.JobControlCompiler","test.org.apache.pig.test.TestJobSubmission"],"creation_date":"2012-10-08T06:52:24.000+0000","resolution_date":"2013-05-31T17:18:39.000+0000"}
{"id":261,"bug_id":"PIG-2970","text":"Nested foreach getting incorrect schema when having unrelated inner query. While looking at PIG-2968, hit a weird error message.","class_goldset":["src.org.apache.pig.PigServer","src.org.apache.pig.backend.hadoop.executionengine.HExecutionEngine","test.org.apache.pig.test.TestEvalPipelineLocal"],"file_goldset":["src.org.apache.pig.PigServer","src.org.apache.pig.backend.hadoop.executionengine.HExecutionEngine","test.org.apache.pig.test.TestEvalPipelineLocal"],"creation_date":"2012-10-12T20:58:03.000+0000","resolution_date":"2013-05-02T00:46:08.000+0000"}
{"id":262,"bug_id":"PIG-3060","text":"FLATTEN in nested foreach fails when the input contains an empty bag. FLATTEN inside a foreach statement produces wrong results, if the input contains an empty bag.","class_goldset":["src.org.apache.pig.backend.hadoop.executionengine.physicalLayer.relationalOperators.POForEach","test.org.apache.pig.test.TestEvalPipelineLocal"],"file_goldset":["src.org.apache.pig.backend.hadoop.executionengine.physicalLayer.relationalOperators.POForEach","test.org.apache.pig.test.TestEvalPipelineLocal"],"creation_date":"2012-11-20T08:29:04.000+0000","resolution_date":"2013-04-08T18:16:12.000+0000"}
{"id":263,"bug_id":"PIG-3114","text":"Duplicated macro name error when using pigunit. Pig runs fine on cluster but getting parsing error with pigunit.","class_goldset":["src.org.apache.pig.PigServer","test.org.apache.pig.pigunit.PigTest","test.org.apache.pig.pigunit.pig.PigServer","test.org.apache.pig.test.pigunit.TestPigTest"],"file_goldset":["src.org.apache.pig.PigServer","test.org.apache.pig.pigunit.PigTest","test.org.apache.pig.pigunit.pig.PigServer","test.org.apache.pig.test.pigunit.TestPigTest"],"creation_date":"2013-01-04T01:49:42.000+0000","resolution_date":"2013-09-27T20:40:04.000+0000"}
{"id":264,"bug_id":"PIG-3204","text":"Change script parsing to parse entire script instead of line by line. Currently there are a lot of NN calls made to determine if there is a schema file for a path in a LOAD statement. When there is a slow NN(caused by whole bunch of other issues), it takes a lot of time for this and we found the scripts spending anywhere from 5 mins to 40 mins depending upon the script.","class_goldset":["src.org.apache.pig.PigServer","src.org.apache.pig.scripting.BoundScript","src.org.apache.pig.tools.grunt.GruntParser","test.org.apache.pig.test.TestGrunt","test.org.apache.pig.test.TestPigServer"],"file_goldset":["src.org.apache.pig.PigServer","src.org.apache.pig.scripting.BoundScript","src.org.apache.pig.tools.grunt.GruntParser","test.org.apache.pig.test.TestGrunt","test.org.apache.pig.test.TestPigServer"],"creation_date":"2013-02-21T22:09:40.000+0000","resolution_date":"2013-08-15T00:44:01.000+0000"}
{"id":265,"bug_id":"PIG-3267","text":"HCatStorer fail in limit query. Error happens before launching the second job. Error message:","class_goldset":["src.org.apache.pig.backend.hadoop.executionengine.physicalLayer.relationalOperators.POStore","test.org.apache.pig.test.TestMRCompiler"],"file_goldset":["src.org.apache.pig.backend.hadoop.executionengine.physicalLayer.relationalOperators.POStore","test.org.apache.pig.test.TestMRCompiler"],"creation_date":"2013-04-03T21:14:30.000+0000","resolution_date":"2013-04-12T00:30:56.000+0000"}
{"id":266,"bug_id":"PIG-3290","text":"TestLogicalPlanBuilder.testQuery85 fail in trunk. I can reproduce it locally as well, the exception is","class_goldset":["src.org.apache.pig.newplan.logical.expression.DereferenceExpression"],"file_goldset":["src.org.apache.pig.newplan.logical.expression.DereferenceExpression"],"creation_date":"2013-04-23T17:28:01.000+0000","resolution_date":"2013-04-24T07:15:41.000+0000"}
{"id":267,"bug_id":"PIG-3292","text":"Logical plan invalid state: duplicate uid in schema during self-join to get cross product. And an error:\n{code}\nERROR org.apache.pig.tools.grunt.Grunt - ERROR 2270: Logical plan invalid state: duplicate uid in schema : 1-7::x#16:bytearray,y::x#16:bytearray\n{code}","class_goldset":["src.org.apache.pig.newplan.logical.relational.LOCross","test.org.apache.pig.test.TestEvalPipelineLocal"],"file_goldset":["src.org.apache.pig.newplan.logical.relational.LOCross","test.org.apache.pig.test.TestEvalPipelineLocal"],"creation_date":"2013-04-24T08:06:41.000+0000","resolution_date":"2013-10-01T17:53:45.000+0000"}
{"id":268,"bug_id":"PIG-3310","text":"ImplicitSplitInserter does not generate new uids for nested schema fields, leading to miscomputations. This will give a wrongful output like . . {code} (1 1001,1001) (1 1002,1002) (1 1002,1002) (1 1002,1002) {code}","class_goldset":["src.org.apache.pig.newplan.logical.relational.LOSplitOutput"],"file_goldset":["src.org.apache.pig.newplan.logical.relational.LOSplitOutput"],"creation_date":"2013-05-03T07:59:57.000+0000","resolution_date":"2013-05-30T18:57:12.000+0000"}
{"id":269,"bug_id":"PIG-3316","text":"Pig failed to interpret DateTime values in some special cases. pig generates the following output (1 1970-01-01T00:00:00.000-01:00) (2 1970-01-01T00:00:00.000-01:00) which seemingly incorrectly interprets the day or month part as time zone.","class_goldset":["src.org.apache.pig.builtin.ToDate","test.org.apache.pig.test.TestDefaultDateTimeZone"],"file_goldset":["src.org.apache.pig.builtin.ToDate","test.org.apache.pig.test.TestDefaultDateTimeZone"],"creation_date":"2013-05-08T19:01:36.000+0000","resolution_date":"2013-05-10T20:46:39.000+0000"}
{"id":270,"bug_id":"PIG-3329","text":"RANK operator failed when working with SPLIT . job will fail with error message:","class_goldset":["src.org.apache.pig.backend.hadoop.executionengine.mapReduceLayer.MRCompiler","src.org.apache.pig.backend.hadoop.executionengine.mapReduceLayer.MapReduceOper"],"file_goldset":["src.org.apache.pig.backend.hadoop.executionengine.mapReduceLayer.MRCompiler","src.org.apache.pig.backend.hadoop.executionengine.mapReduceLayer.MapReduceOper"],"creation_date":"2013-05-17T03:44:41.000+0000","resolution_date":"2013-06-09T22:13:00.000+0000"}
{"id":272,"bug_id":"PIG-3360","text":"Some intermittent negative e2e tests fail on hadoop 2. One example is StreamingErrors_2. Here is the stack we get: Backend error message              Pig Stack Trace","class_goldset":["shims.src.hadoop20.org.apache.pig.backend.hadoop.executionengine.shims.HadoopShims","shims.src.hadoop23.org.apache.pig.backend.hadoop.executionengine.shims.HadoopShims","src.org.apache.pig.backend.hadoop.executionengine.mapReduceLayer.Launcher"],"file_goldset":["shims.src.hadoop20.org.apache.pig.backend.hadoop.executionengine.shims.HadoopShims","shims.src.hadoop23.org.apache.pig.backend.hadoop.executionengine.shims.HadoopShims","src.org.apache.pig.backend.hadoop.executionengine.mapReduceLayer.Launcher"],"creation_date":"2013-06-21T01:43:03.000+0000","resolution_date":"2013-09-24T23:51:24.000+0000"}
{"id":273,"bug_id":"PIG-3379","text":"Alias reuse in nested foreach causes PIG script to fail. ","class_goldset":["src.org.apache.pig.PigServer","src.org.apache.pig.newplan.logical.expression.ProjectExpression","src.org.apache.pig.newplan.logical.relational.LOInnerLoad","src.org.apache.pig.parser.LogicalPlanBuilder","test.org.apache.pig.test.TestEvalPipeline2"],"file_goldset":["src.org.apache.pig.PigServer","src.org.apache.pig.newplan.logical.expression.ProjectExpression","src.org.apache.pig.newplan.logical.relational.LOInnerLoad","src.org.apache.pig.parser.LogicalPlanBuilder","test.org.apache.pig.test.TestEvalPipeline2"],"creation_date":"2013-07-16T18:37:26.000+0000","resolution_date":"2013-08-23T21:07:12.000+0000"}
{"id":274,"bug_id":"PIG-3424","text":"Package import list should consider class name as is first even if -Dudf.import.list is passed. Currently if -Dudf.import.list is passed it adds them to the beginning of the list and \"\" (class name as is) which is defined by default always is pushed to end of list. In cases where the pig deployment itself contains predefined -Dudf.import.list, class resolution tries all of that before trying the fully qualified class name defined in LOAD as is.","class_goldset":["src.org.apache.pig.impl.PigContext","test.org.apache.pig.test.TestPigContext"],"file_goldset":["src.org.apache.pig.impl.PigContext","test.org.apache.pig.test.TestPigContext"],"creation_date":"2013-08-15T14:56:20.000+0000","resolution_date":"2013-08-19T00:56:41.000+0000"}
{"id":275,"bug_id":"PIG-3455","text":"Pig 0.11.1 OutOfMemory error. When running Pig on a relatively large script (around 1.5k lines, 85 assignments), Pig fails with the following error even before any jobs are fired:","class_goldset":["src.org.apache.pig.newplan.logical.relational.LogicalPlan"],"file_goldset":["src.org.apache.pig.newplan.logical.relational.LogicalPlan"],"creation_date":"2013-09-09T18:01:32.000+0000","resolution_date":"2013-09-18T15:55:28.000+0000"}
{"id":276,"bug_id":"PIG-3495","text":"Streaming udf e2e tests failures on Windows. ","class_goldset":["src.org.apache.pig.scripting.ScriptEngine"],"file_goldset":["src.org.apache.pig.scripting.ScriptEngine"],"creation_date":"2013-10-02T21:40:25.000+0000","resolution_date":"2013-10-03T18:06:35.000+0000"}
{"id":277,"bug_id":"PIG-3510","text":"New filter extractor fails with more than one filter statement. For the 1 filter case, the whole expression is pushed down whereas for the 2 filter case, only (event_id \u003d\u003d 419 OR event_id \u003d\u003d 418) is pushed down.","class_goldset":["src.org.apache.pig.newplan.logical.optimizer.LogicalPlanOptimizer"],"file_goldset":["src.org.apache.pig.newplan.logical.optimizer.LogicalPlanOptimizer"],"creation_date":"2013-10-09T23:02:45.000+0000","resolution_date":"2013-10-10T20:14:03.000+0000"}
