{"id":332,"bug_id":"TIKA-1014","text":"Allow custom MimeTypesReader. The current MimeTypesReader is package protected with private fields.","class_goldset":["tika-core.src.main.java.org.apache.tika.mime.MimeTypesReader.ClauseRecord","tika-core.src.test.java.org.apache.tika.TikaIT"],"file_goldset":["tika-core.src.main.java.org.apache.tika.mime.MimeTypesReader.ClauseRecord","tika-core.src.test.java.org.apache.tika.TikaIT"],"creation_date":"2012-10-30T06:01:31.000+0000","resolution_date":"2013-04-29T14:20:28.000+0000"}
{"id":333,"bug_id":"TIKA-1047","text":"Provide a JAX-RS to detect only the mediatype. The problem I have with this is that I need to send the entire document to get all metadata.","class_goldset":["tika-server.src.main.java.org.apache.tika.server.TikaResource"],"file_goldset":["tika-server.src.main.java.org.apache.tika.server.TikaResource"],"creation_date":"2012-12-19T18:55:52.000+0000","resolution_date":"2013-01-27T19:19:41.000+0000"}
{"id":334,"bug_id":"TIKA-1070","text":"StackOverflow error in org.apache.tika.sax.ToXMLContentHandler$ElementInfo.getPrefix(ToXMLContentHandler.java:58). The error occurs when parsing big \"XLS\" files and is caused by the ElementInfo stored in \"currentElement\". Each time a new element is started (method startElement) the current elment is newly overwritten with currentElement \u003d new ElementInfo(currentElement, namespaces); where the existing element is used as the parent element. Since the currentElement is not reset to the parent element after finishing the element (method: endElement) the method getPrefix recursively traverses the parents and finally causes the StackOverFlowError","class_goldset":["tika-core.src.main.java.org.apache.tika.sax.ToXMLContentHandler"],"file_goldset":["tika-core.src.main.java.org.apache.tika.sax.ToXMLContentHandler"],"creation_date":"2013-01-31T11:43:33.000+0000","resolution_date":"2013-06-25T15:00:40.000+0000"}
{"id":335,"bug_id":"TIKA-1074","text":"Extraction should continue if an exception is hit visiting an embedded document. In that issue, a problematic document (still not sure if document is corrupt, or possible POI bug) caused an exception when visiting the embedded documents. If I change Tika to suppress that exception, the rest of the document extracts fine.","class_goldset":["tika-app.src.main.java.org.apache.tika.cli.TikaCLI","tika-parsers.src.main.java.org.apache.tika.parser.microsoft.AbstractPOIFSExtractor","tika-parsers.src.main.java.org.apache.tika.parser.microsoft.SummaryExtractor"],"file_goldset":["tika-app.src.main.java.org.apache.tika.cli.TikaCLI","tika-parsers.src.main.java.org.apache.tika.parser.microsoft.AbstractPOIFSExtractor","tika-parsers.src.main.java.org.apache.tika.parser.microsoft.SummaryExtractor"],"creation_date":"2013-02-04T14:53:40.000+0000","resolution_date":"2013-02-21T21:38:54.000+0000"}
{"id":336,"bug_id":"TIKA-1152","text":"Process loops infinitely on parsing of a CHM file. By parsing [the attachment CHM file|^eventcombmt.chm] (MS Microsoft Help Files), Java process stuck.","class_goldset":["tika-parsers.src.main.java.org.apache.tika.parser.chm.lzx.ChmLzxBlock"],"file_goldset":["tika-parsers.src.main.java.org.apache.tika.parser.chm.lzx.ChmLzxBlock"],"creation_date":"2013-07-23T13:45:11.000+0000","resolution_date":"2013-12-27T03:48:19.000+0000"}
{"id":337,"bug_id":"TIKA-1192","text":"ArrayIndexOutOfBoundsException: 9 parsing RTF. When trying to parse an RTF file I\u0027m getting the following exception.","class_goldset":["tika-parsers.src.main.java.org.apache.tika.parser.rtf.TextExtractor","tika-parsers.src.test.java.org.apache.tika.parser.rtf.RTFParserTest"],"file_goldset":["tika-parsers.src.main.java.org.apache.tika.parser.rtf.TextExtractor","tika-parsers.src.test.java.org.apache.tika.parser.rtf.RTFParserTest"],"creation_date":"2013-11-06T21:31:41.000+0000","resolution_date":"2013-11-09T11:29:04.000+0000"}
{"id":338,"bug_id":"TIKA-1211","text":"OpenDocument (ODF) parser produces multiple startDocument() events. The parser already prevents multiple endDocuments, but not multiple startDocuments. The bug was introduced when we added parsing content.xml and meta.xml (TIKA-736, but both feed elements to the XHTML output, so we get multiple start/endDocuments).","class_goldset":["tika-core.src.main.java.org.apache.tika.sax.XHTMLContentHandler"],"file_goldset":["tika-core.src.main.java.org.apache.tika.sax.XHTMLContentHandler"],"creation_date":"2013-12-17T12:49:16.000+0000","resolution_date":"2013-12-24T15:52:56.000+0000"}
