{"key":"IO-83","title":"Bug with \u0027df\u0027 command on AIX 5.3","description":"Reported via commons-owner@\n--------------------------------------------\nFrom: James Urie\nSent: Tuesday, July 11, 2006 8:51 AM\nTo: \u0027commons-dev-subscribe@jakarta.apache.org\u0027\nSubject: New AIX fix?\nHello,\nI had to change the \"commons-io\" code to allow for usage on AIX 5.3.\nAttached is the file with changes.\nThe long and short of the change is that the \"df\" command used in the\nFile System Utils classes requires\nA \"P\" to be added to the switch to enable \"POSIX\" capability.\nJames Urie","creation_date":"2006-07-12T13:50:05.000-05:00","resolution_date":"2006-08-25T21:44:03.000-05:00","fixed_files":["org.apache.commons.io.FileSystemUtilsTestCase","org.apache.commons.io.FileSystemUtils"]}
{"key":"IO-90","title":"Infinite loop in FileSystemUtils.freeSpaceWindows if share directory empty","description":"When using FileSystemUtils.freeSpaceWindows in an empty share directory, the line containing the free space does not exist which causes an infinite loop (the outerloop doesn\u0027t decrease the i index).\nIn fact to deal with all possible errors, I propose to test the exitCode of the dir command.\nHere is a proposed new code for this function :\n    /**\n\nFind free space on the Windows platform using the \u0027dir\u0027 command.\n     *\n@param path  the path to get free space for, including the colon\n@return the amount of free drive space on the drive\n@throws IOException if an error occurs\n     */\n    long freeSpaceWindows(String path) throws IOException {\n        path \u003d FilenameUtils.normalize(path);\n        if (path.length() \u003e 2 \u0026\u0026 path.charAt(1) \u003d\u003d \u0027:\u0027) \n{\n            path \u003d path.substring(0, 2);  // seems to make it work\n        }\n\n        // build and run the \u0027dir\u0027 command\n        String[] cmdAttrbs \u003d new String[] \n{\"cmd.exe\", \"/C\", \"dir /-c \" + path}\n;\n        // read in the output of the command to an ArrayList\n        BufferedReader in \u003d null;\n        String line \u003d null;\n        ArrayList lines \u003d new ArrayList();\n        int errorLevel \u003d 0;\n        try {\n            Process proc \u003d Runtime.getRuntime().exec(cmdAttrbs);\n            in \u003d new BufferedReader(\n                new InputStreamReader(proc.getInputStream()));\n            line \u003d in.readLine();\n            while (line !\u003d null) \n{\n                line \u003d line.toLowerCase().trim();\n                lines.add(line);\n                line \u003d in.readLine();\n            }\n\n            proc.waitFor();\n            errorLevel \u003d proc.exitValue();\n        } finally \n{\n            IOUtils.closeQuietly(in);\n        }\n\n        if (lines.size() \u003d\u003d 0) \n{\n            // unknown problem, throw exception\n            throw new IOException(\n                    \"Command line \u0027dir /-c\u0027 did not return any info \" +\n                    \"for command \u0027\" + cmdAttrbs[2] + \"\u0027\");\n        }\n\n        if (errorLevel !\u003d 0) {\n            if (errorLevel \u003d\u003d 2) \n{\n                // Empty directory : unable to calculate the freeSpace\n                return Integer.MAX_VALUE; // ???\n            }\n else \n{\n                // unknown problem, throw exception\n                throw new IOException(\n                        \"Command line \u0027dir /-c\u0027 error [\" + errorLevel +\n                        \"] for command \u0027\" + cmdAttrbs[2] + \"\u0027\");\n            }\n        }\n        // now iterate over the lines we just read and find the LAST\n        // non-empty line (the free space bytes should be in the last element\n        // of the ArrayList anyway, but this will ensure it works even if it\u0027s\n        // not, still assuming it is on the last non-blank line)\n        long bytes \u003d -1;\n        int i \u003d lines.size() - 1;\n        int bytesStart \u003d 0;\n        int bytesEnd \u003d 0;\n        outerLoop: while (i \u003e 0) {\n            line \u003d (String) lines.get;\n            if (line.length() \u003e 0) {\n                // found it, so now read from the end of the line to find the\n                // last numeric character on the line, then continue until we\n                // find the first non-numeric character, and everything between\n                // that and the last numeric character inclusive is our free\n                // space bytes count\n                int j \u003d line.length() - 1;\n                innerLoop1: while (j \u003e\u003d 0) {\n                    char c \u003d line.charAt(j);\n                    if (Character.isDigit(c)) \n{\n                      // found the last numeric character, this is the end of\n                      // the free space bytes count\n                      bytesEnd \u003d j + 1;\n                      break innerLoop1;\n                    }\n                    j--;\n                }\n                innerLoop2: while (j \u003e\u003d 0) {\n                    char c \u003d line.charAt(j);\n                    if (!Character.isDigit(c) \u0026\u0026 c !\u003d \u0027,\u0027 \u0026\u0026 c !\u003d \u0027.\u0027) \n{\n                      // found the next non-numeric character, this is the\n                      // beginning of the free space bytes count\n                      bytesStart \u003d j + 1;\n                      break innerLoop2;\n                    }\n                    j--;\n                }\n                break outerLoop;\n            } else \n{\n                // If the last line is empty we are unable to parse the freeSpace\n                throw new IOException(\n                        \"Command line \u0027dir /-c\u0027 did not return valid info \" +\n                        \"for command \u0027\" + cmdAttrbs[2] + \"\u0027\");\n            }\n        }\n        // remove commas and dots in the bytes count\n        StringBuffer buf \u003d new StringBuffer(line.substring(bytesStart, bytesEnd));\n        for (int k \u003d 0; k \u003c buf.length(); k++) {\n            if (buf.charAt(k) \u003d\u003d \u0027,\u0027 || buf.charAt(k) \u003d\u003d \u0027.\u0027) \n{\n                buf.deleteCharAt(k--);\n            }\n        }\n        bytes \u003d Long.parseLong(buf.toString());\n        return bytes;\n    }","creation_date":"2006-08-02T17:13:47.000-05:00","resolution_date":"2006-08-26T00:06:22.000-05:00","fixed_files":["org.apache.commons.io.FileSystemUtilsTestCase","org.apache.commons.io.FileSystemUtils"]}
{"key":"IO-91","title":"FileSystemUtils.freeSpace does not work on Sun Solaris","description":"The method FileSystemUtils.freeSpace does not work on Sun Solaris.\n [junit] Testcase: testGetFreeSpace_String took 0.216 sec\n[junit] \tCaused an ERROR\n[junit] Command line \u0027df\u0027 did not return info as expected for path \u0027/\u0027- response on first line was \u0027/                  (/dev/dsk/c0t0d0s0 ):41676304 block  3133314 filer\u0027\n[junit] java.io.IOException: Command line \u0027df\u0027 did not return info as expected for path \u0027/\u0027- response on first line was \u0027/                  (/dev/dsk/c0t0d0s0 ):41676304 block  3133314 filer\u0027\n[junit] \tat org.apache.commons.io.FileSystemUtils.freeSpaceUnix(FileSystemUtils.java:315)\n[junit] \tat org.apache.commons.io.FileSystemUtils.freeSpaceOS(FileSystemUtils.java:179)\n[junit] \tat org.apache.commons.io.FileSystemUtils.freeSpace(FileSystemUtils.java:126)\n[junit] \tat org.apache.commons.io.FileSystemUtilsTestCase.testGetFreeSpace_String(FileSystemUtilsTestCase.java:90)\nThis is because on Solaris the df command work different if the flag -k is used or not:\n$ df /\n/                  (/dev/dsk/c0t1d0s0 ): 1070402 blocks   294205 files\n$ df -k /\nFilesystem            kbytes    used   avail capacity  Mounted on\n/dev/dsk/c0t1d0s0    1350955  815754  481163    63%    /\nI haven\u0027t found any flag that makes it output GNU format even when -k is omitted.","creation_date":"2006-08-03T07:12:33.000-05:00","resolution_date":"2006-08-29T20:52:38.000-05:00","fixed_files":["org.apache.commons.io.FileSystemUtilsTestCase","org.apache.commons.io.FileSystemUtils"]}
{"key":"IO-93","title":"FileSystemUtils needs to call Process.destroy() on exec\u0027d processes","description":"Calling the FileSystemUtils.getFreeSpace() method multiple times (~3000) will generate an IOException with the following text: \"Too many open files\". Documentation from Sun says this problem is due to not destroying the java.lang.Process object returned from the System.exec() call.\nSome sample code I wrote confirms that calling destroy prevents this error from occurring.","creation_date":"2006-09-19T01:47:37.000-05:00","resolution_date":"2006-10-07T11:59:33.000-05:00","fixed_files":["org.apache.commons.io.FileSystemUtilsTestCase","org.apache.commons.io.FileSystemUtils"]}
{"key":"IO-96","title":"Test case misuses read(byte[]) and read(char[])","description":"Message to mailing list from Anthony Green\nhttp://www.mail-archive.com/commons-dev@jakarta.apache.org/msg82127.html\n-----------------------------------------\nThis support routine from the commons-io project test code assumed that\nFileReader.read(byte[]) would always read the entire file.  There\u0027s no\nsuch guarantee, and some tests were failing on GNU Classpath based VMs\nbecause of this.\nThanks,\nAG\n src/test/org/apache/commons/io/testtools/FileBasedTestCase.java~\t2006-07-13 23:44:13.000000000 -0700\n+++ src/test/org/apache/commons/io/testtools/FileBasedTestCase.java\t2006-07-13 23:44:20.000000000 -0700\n@@ -167,18 +171,22 @@\n         throws IOException\n     {\n         Reader ir \u003d new java.io.FileReader( file );\n\ntry \n{\n-            char[] c1 \u003d new char[ c0.length ];\n-            int numRead \u003d ir.read( c1 );\n-            assertTrue( \"Different number of bytes\", numRead \u003d\u003d c0.length );\n-            for( int i \u003d 0;\n-                 i \u003c numRead;\n-                 assertTrue( \"Byte \" + i + \" differs (\" + c0[ i ] + \" !\u003d \" + c1[ i ] + \")\", \n-                    c0[ i ] \u003d\u003d c1[ i ] ), i++\n-                );\n-        }\n finally \n{\n-            ir.close();\n-        }\n+\tint count \u003d 0, numRead \u003d 0;\n+\tchar[] c1 \u003d new char[ c0.length ];\n+\ttry \nUnknown macro: {+\t  while (count \u003c c0.length)+\t    {\n+\t      numRead \u003d ir.read( c1, count, c0.length);\n+\t      for( int i \u003d count;\n+\t\t   i \u003c count+numRead;\n+\t\t   assertTrue( \"Byte \" + i + \" differs (\" + c0[ i ] + \" !\u003d \" + c1[ i ] + \")\", \n+\t\t\t       c0[ i ] \u003d\u003d c1[ i ] ), i++\n+\t\t   );\n+\t      count +\u003d numRead;\n+\t    }+\t} \n finally \n{\n+\t  ir.close();\n+\t}\n     }\n\n     protected void checkWrite(OutputStream output) throws Exception {","creation_date":"2006-10-11T16:22:58.000-05:00","resolution_date":"2006-10-11T16:30:49.000-05:00","fixed_files":["org.apache.commons.io.testtools.FileBasedTestCase"]}
{"key":"IO-84","title":"Many classes are limited to length of stream \u003c 2 GB, and behave incorrectly on larger streams","description":"java int.MAX_VALUE is 2 GB. Classes that handle streams larger than 2 GB will behave incorrectly.\nFor example, see \nhttp://svn.apache.org/viewvc/jakarta/commons/proper/io/trunk/src/java/org/apache/commons/io/IOUtils.java?view\u003dmarkup\nMethod: int copy(InputStream input, OutputStream output).\nThe correct method would be: long copy(InputStream input, OutputStream output).\nThis issue may affect many classes and routines.","creation_date":"2006-07-14T16:31:49.000-05:00","resolution_date":"2006-10-13T04:55:09.000-05:00","fixed_files":["org.apache.commons.io.IOUtils","org.apache.commons.io.IOUtilsCopyTestCase","org.apache.commons.io.input.CountingInputStreamTest","org.apache.commons.io.output.CountingOutputStreamTest","org.apache.commons.io.input.CountingInputStream","org.apache.commons.io.output.CountingOutputStream"]}
{"key":"IO-100","title":"FileUtils.touch should raise an IOException if I may not modify the file","description":"The documentation states, that FileUtils.touch implements the UNIX-touch command. However I may successfully FileUtils.touch files like /etc/passwd, which is not allowed on the shell as normal user. \nLooking at the implementation, you should propably raise an IOException if the returnvalue of `file.setLastModified(System.currentTimeMillis());` is `false`.","creation_date":"2006-11-28T15:01:00.000-06:00","resolution_date":"2006-12-04T23:36:44.000-06:00","fixed_files":["org.apache.commons.io.FileUtils"]}
{"key":"IO-101","title":"The method EndianUtils.writeSwappedDouble() and EndianUtils.readSwappedDouble() do not match!","description":"Code:\npublic static void main(String[] args) {\n\t\tdouble[] tests \u003d new double[] \n{34.345, -345.5645, 545.12, 10.043, 7.123456789123}\n;\n\t\tfor (int i \u003d 0; i\u003c tests.length ;i++) \n{\n\t\t\tbyte[] buffer \u003d new byte[8];\t\t\t\n\t\t\tEndianUtils.writeSwappedDouble(buffer, 0, tests[i]);\n\t\t\tdouble val \u003d EndianUtils.readSwappedDouble(buffer, 0);\n\t\t\tSystem.out.println(val);\t\n\t\t}\n\n}\nResult:\n34.344969482421874\n-345.5645\n545.11951171875\n10.043\n7.123456789123\nNote:\nIn my opinion the values shouldn\u0027t be changed at all.","creation_date":"2006-12-04T20:49:18.000-06:00","resolution_date":"2006-12-09T00:32:26.000-06:00","fixed_files":["org.apache.commons.io.EndianUtils","org.apache.commons.io.EndianUtilsTest"]}
{"key":"IO-99","title":"FileCleaner thread never ends and cause memory leak in AS","description":"FileCleaner opens a thread and no solution is given to the user to end it. So when an application is undeployed\nin an Application Server, a thread is still alive. The WebApp can\u0027t be undeployed and this results in a classloader\nleak that will cause an OutOfMemoryError.\nI think the API should be extended so that a user can end the thread. A better way would be to provide a class that\ncleans everything for commons IO.","creation_date":"2006-11-16T18:11:09.000-06:00","resolution_date":"2006-12-29T13:12:17.000-06:00","fixed_files":["org.apache.commons.io.FileCleanerTestCase","org.apache.commons.io.FileCleaner"]}
{"key":"IO-187","title":"FileSystemUtils.freeSpaceKb doesn\u0027t work with relative paths on Linux","description":"Calling FileSystemUtils.freeSpaceKb with \".\", \"./\", \"../\", \"../foo\" etc. will result in an empty string being passed to df.\nfreeSpaceKb calls FileNameUtils.normalize on the path which destroys relative paths.\nI don\u0027t see any need to normalize the path so the fix is simply to remove that call.","creation_date":"2008-12-15T16:19:26.000-06:00","resolution_date":"2010-03-06T01:59:21.000-06:00","fixed_files":["org.apache.commons.io.FileSystemUtils"]}
