{"key":"78634","title":"ImageData.getTransparencyMask - incorrect javadoc or implementation wrong","description":"The implementation of getTransparencyMask appears to return a fully opaque mask when the image has no transparency. The javadoc seems to infer that it would return null in that case.          public ImageData getTransparencyMask()"}
{"key":"78854","title":"Memory leak in ClipboardProxy.getFunc()","description":"At the end of ClipboardProxy.getFunc() OS.gtk_selection_data_set() function is used. However this function copies data so tdata.pValue should be freed using OS.g_free(). ClipboardProxy.getFunc()  OS.gtk_selection_data_set()  OS.g_free()"}
{"key":"81264","title":"Table fails to setTopIndex after new items are added to the table","description":"Table.setTopIndex fails to position to the correct table item if new items are added to the table after the shell is opened. The first call to setTopIndex succeeds. The table is correctly positioned at item 20. After adding new table items to the table, calling setTopTable(40) has no effect. Calling getTopIndex continues to return 20.  Calling setTopIndex(40) should move table item #40 to the top of the table. Calling getTopIndex after should return 40.   public static void main(String[] args) {\n\t\tfinal Display display \u003d new Display();\n\t\tShell shell \u003d new Shell(display);\n\t\tshell.setBounds(10,10,200,200);\n\t\tfinal Table table \u003d new Table(shell, SWT.NONE);\n\t\ttable.setBounds(10,10,100,100);\n\t\tfor (int i \u003d 0; i \u003c 99; i++) {\n\t\t\tnew TableItem(table, SWT.NONE).setText(\"item \" + i);\n\t\t}\n\t\t\n\t\ttable.setTopIndex(20);\n\n\t\tshell.open();\n\n\t\tSystem.out.println(\"top visible index: \" + table.getTopIndex());\n\t\t\n\t\tfor (int i \u003d 0; i \u003c 5; i++) {\n\t\t\tnew TableItem(table, SWT.NONE).setText(\"item \" + i);\n\t\t}\n\n\t\ttable.setTopIndex(40);\n\t\tSystem.out.println(\"top visible index: \" + table.getTopIndex());\n\t\t\n\t\twhile (!shell.isDisposed()) {\n\t\t\tif (!display.readAndDispatch()) display.sleep();\n\t\t}\n\t\tdisplay.dispose();\n\t}\n\n setTopTable(40)  setTopIndex(40)"}
{"key":"86000","title":"ImageLoader Save - produces invalid JPEG images","description":"The ImageLoader Save function appears to be producing bad JPG images.   Many files were tested and the majority \n did produced the proper JPG images as expected.          \n \n \npackage com.ibm.test.image;\n\nimport org.eclipse.swt.*;\nimport org.eclipse.swt.graphics.*;\n\npublic class ImageLoaderTest {\n\t\t\n\tpublic static void main(String[] args) {\n\t\tImageLoader loader;\n\t\tString dir\u003d\"c:\\\\image-problems\\\\\";\n\t\tString files[]\u003d{\n\t\t\t\t\"s34i3p04\",\n\t\t\t\t\"s34n3p04\",\n\t\t\t\t\"s35i3p04\",\n\t\t\t\t\"s35n3p04\",\n\t\t\t\t\"s36i3p04\",\n\t\t\t\t\"s36n3p04\",\n\t\t\t\t\"s37i3p04\",\n\t\t\t\t\"s37n3p04\",\n\t\t\t\t\"s38i3p04\",\n\t\t\t\t\"s38n3p04\",\n\t\t\t\t\"s39i3p04\",\n\t\t\t\t\"s39n3p04\"\n\t\t};\n\t\t\n\t\ttry {\n\t\t\tfor (int i\u003d0; i\u003cfiles.length; i++) {\n\t\t\tString filein  \u003d dir+files[i]+\".png\";\n\t\t\tString fileout \u003d dir+files[i]+\".jpg\";\n\t\t\t\n\t\t\tloader \u003d new ImageLoader();\n\t\t\tloader.load(filein);\n\t\t\tloader.save(fileout,SWT.IMAGE_JPEG);\n\t\t\t}\n\t\t} catch (SWTException e) {\n\t\t  e.printStackTrace();\n\t\t}\n\t}\n}"}
{"key":"87460","title":"StyledText: Caret location not updated when line style is used","description":"In the line style listener, a bold font style is set, changing the width of the rendered text. I would have expected the on-screen caret location (not the offset) to be adjusted to the change. However, this does not happen.                                             \n\nimport org.eclipse.swt.*;\nimport org.eclipse.swt.custom.*;\nimport org.eclipse.swt.graphics.*;\nimport org.eclipse.swt.layout.*;\nimport org.eclipse.swt.widgets.*;\n\npublic class LineStyleCaretTest {\n  public static void main(String[] args) {\n    Display display \u003d new Display();\n    \n    Shell shell \u003d new Shell(display);\n    shell.setLayout(new FillLayout());\n    \n    Font font \u003d new Font(display, \"Arial\", 12, SWT.NORMAL);\n      \n    final StyledText text \u003d new StyledText(shell, SWT.MULTI);\n    text.setFont(font);\n    text.setText(\"Standard Widget Toolkit\");\n    text.setCaretOffset(text.getText().length());\n    \n    text.addLineStyleListener(new LineStyleListener() {\n      public void lineGetStyle(LineStyleEvent event) {\n        StyleRange[] styles \u003d new StyleRange[1];\n        \n        styles[0] \u003d new StyleRange();\n        styles[0].start  \u003d 0;\n        styles[0].length \u003d text.getText().length();\n        styles[0].fontStyle \u003d SWT.BOLD;\n        \n        event.styles \u003d styles;\n      }\n    });\n    \n    shell.setSize(300, 100);\n    shell.open();\n    \n    while (!shell.isDisposed()) {\n      if (!display.readAndDispatch()) {\n        display.sleep();\n      }\n    }\n    \n    font.dispose();\n    display.dispose();\n  }\n}"}
{"key":"88829","title":"Table.setColumnOrder() may not fire enough Move events","description":"- SWT.Move events are fired for columns 0 and 4 because they swapped positions -\u003e but Move should have been fired for all of the columns since the width of the first displayed column changed, and therefore all of the other columns are auto-shifted accordingly Table.setColumnOrder(new int[] {4,1,2,3,0});"}
{"key":"102794","title":"GridLayout has change behaviour between 3.0.2 and 3.1","description":"Basically on 3.0.2 the window that appears has a label of about 80 pixels wide and a textbox of 400 pixels wide. With 3.1 the label is about 400 pixels wide, with the text box being about 2000 pixels wide.     The effect I\u0027m trying to achieve is that labels are 1 column wide then text boxes are either 2 or 5 columns wide (so some rows get two labels and text boxes)  The scrolled composite is needed because in the real app the forms are actually within a TabItem, so I need the ability to scroll. public static void main(String[] args) {\n        Display display \u003d new Display();\n\n        Shell shell \u003d new Shell(display);\n\n        shell.setLayout(new FillLayout());\n\n        ScrolledComposite sc1 \u003d new ScrolledComposite(shell, SWT.H_SCROLL\n                | SWT.V_SCROLL);\n        Composite editor \u003d new Composite(sc1, SWT.SHADOW_NONE);\n        sc1.setContent(editor);\n        sc1.setLayout(new FillLayout());\n\n        GridLayout layout \u003d new GridLayout();\n\n        layout.numColumns \u003d 6;\n        layout.makeColumnsEqualWidth \u003d true;\n        editor.setLayout(layout);\n\n        Label boxLabel \u003d new Label(editor, SWT.NONE);\n        boxLabel.setText(\"My label\");\n\n        Text textBox \u003d new Text(editor, SWT.H_SCROLL | SWT.V_SCROLL | SWT.MULTI\n                | SWT.BORDER);\n        textBox.setText(\"Some text for the text box\\nAlso with a new line\");\n\n        // do layout bits\n        GridData labelData \u003d new GridData(SWT.RIGHT, SWT.TOP, false, false);\n        boxLabel.setLayoutData(labelData);\n\n        GridData textBoxData \u003d new GridData(SWT.FILL, SWT.CENTER, true, false,\n                5, 1);\n        textBoxData.widthHint \u003d 400;\n        textBox.setLayoutData(textBoxData);\n\n        sc1.setExpandHorizontal(true);\n        sc1.setExpandVertical(true);\n        sc1.setMinSize(editor.computeSize(SWT.DEFAULT, SWT.DEFAULT));\n\n        shell.pack();\n        shell.open();\n\n        while (!shell.isDisposed()) {\n            if (!display.readAndDispatch())\n                display.sleep();\n        }\n        display.dispose();\n    }"}
{"key":"93724","title":"Drag-and-drop creates signal names every time","description":"Rather than converting the names for the signals every time, these signal names should be defined in OS.java so that they can be only created once. byte[] buffer \u003d Converter.wcsToMbcs(null, \"drag_data_get\", true);\nOS.g_signal_connect(control.handle, buffer, DragGetData.getAddress(), 0);\t\nbuffer \u003d Converter.wcsToMbcs(null, \"drag_end\", true);\nOS.g_signal_connect(control.handle, buffer, DragEnd.getAddress(), 0);\nbuffer \u003d Converter.wcsToMbcs(null, \"drag_data_delete\", true);\nOS.g_signal_connect(control.handle, buffer, DragDataDelete.getAddress(), 0);"}
{"key":"104150","title":"[Patch] Table cursor separated from table selection when clicking on grid lines or empty space","description":"When using a table cursor, there are two kinds of table regions that have the potential to separate the table cursor from the table selection when clicked on: 1) grid lines (table.getLinesVisible() \u003d\u003d true) 2) empty space to the left of the first cell of each row (SWT.FULL_SELECTION)  No matter which part of the table the user clicks on, the table cursor should follow the table selection as closely as possible if the selection is changed as a result of the click.  table.getLinesVisible()  table.setLinesVisible(true)"}
{"key":"104545","title":"Make default size of empty composites smaller","description":"Could the following two constants in Widget.java be changed to something smaller?   Anything less than or equal to 16 would work for us, 0 would be OK too.  Background: When you write an RCP app and enable the cool bar, the cool bar will initially be empty, but 64x64 pixels in size. On Windows, you cannot see the border of the empty coolbar so the user gets a big empty space at the top of their window and might be confused.  static final int DEFAULT_WIDTH\t\u003d 64;\n static final int DEFAULT_HEIGHT\t\u003d 64;"}
{"key":"97651","title":"tree insert mark cheese","description":"-\u003e problem 1: this makes most of the insert line go away, except for its pointy ends. This line should not go away because it belongs to the \"root\" item, not to the \"child\" item, but if it really wants to go away, then its end tips should not be left - press the button to the right of the Table: this does a Tree.redraw(), and note that the insert line reappears, so I guess it never really meant to go away -\u003e problem 2: now expand the root item again and its insert mark gets copied to below the child item in addition to its initial location. This is cheese, as can be seen by damaging part of this line with another window                       Tree.redraw() public static void main(String[] args) {\n\tfinal Display display \u003d new Display();\n\tfinal Shell shell \u003d new Shell(display);\n\tshell.setBounds(10, 10, 300, 300);\n\tfinal Tree tree \u003d new Tree(shell, SWT.NONE);\n\ttree.setBounds(10, 10, 200, 200);\n\tnew TreeItem(tree, SWT.NONE).setText(\"pre-root\");\n\tTreeItem root1 \u003d new TreeItem(tree, SWT.NONE);\n\troot1.setText(\"root\");\n\tTreeItem child \u003d new TreeItem(root1, SWT.NONE);\n\tchild.setText(\"child\");\n\tButton button \u003d new Button(shell, SWT.PUSH);\n\tbutton.setBounds(230,10,30,30);\n\tbutton.addSelectionListener(new SelectionAdapter() {\n\t\tpublic void widgetSelected(SelectionEvent e) {\n\t\t\ttree.redraw();\n\t\t}\n\t});\n\troot1.setExpanded(true);\n\ttree.setInsertMark(root1, false);\n\tshell.open();\n\twhile (!shell.isDisposed()) {\n\t\tif (!display.readAndDispatch()) display.sleep();\n\t}\n\tdisplay.dispose();\n}"}
