{"codeSnippets": [], "creation_date": "2013-01-17T11:07:47.000-06:00", "description": "configurationutil configur util filefromurl file url url creat file url contain enoc sign work code apach common differ work isn't apach common directli", "fixed_files": ["org.apache.commons.configuration.ConfigurationUtils", "org.apache.commons.configuration.TestConfigurationUtils"], "key": "CONFIGURATION-521", "original_text": "fileFromUrl: decoding of encoded % character does not work If ConfigurationUtils.fileFromUrl(URL) should create a file from a URL containing an enoced % sign (%25), then it does not work.\nI saw that the code apache.commons.io now is really different, but seems to work. Why isn't apache.commons.io directly used?", "resolution_date": "2013-01-23T20:50:49.000-06:00", "stackTraces": [], "title": "filefromurl file url decod encod charact work"}
{"codeSnippets": [], "creation_date": "2013-02-14T19:35:14.000-06:00", "description": "exampl helloworld hello world properti hello world comment preserv", "fixed_files": ["org.apache.commons.configuration.TestPropertiesConfiguration", "org.apache.commons.configuration.PropertiesConfigurationLayout", "org.apache.commons.configuration.PropertiesConfiguration", "org.apache.commons.configuration.TestPropertiesConfigurationLayout"], "key": "CONFIGURATION-525", "original_text": "PropertiesConfigurationLayout does not preserve comments at bottom of a file Example:\nhelloWorld.properties\nhello = world\n#this comments would not be preserved", "resolution_date": "2013-03-16T17:54:43.000-05:00", "stackTraces": [], "title": "propertiesconfigurationlayout properti configur layout preserv comment bottom file"}
{"codeSnippets": [], "creation_date": "2013-03-16T20:28:18.000-05:00", "description": "propertiesconfigur properti configur properti control file allow properti set method set automat base path set scenario make sens support file specifi fulli qualifi file name uri retriev standard lookup mechan set method make sens set properti file contain properti file refer propabl load method properti control file inclus conform java bean specif start prefix", "fixed_files": ["org.apache.commons.configuration.TestPropertiesConfiguration", "org.apache.commons.configuration.PropertiesConfiguration"], "key": "CONFIGURATION-534", "original_text": "PropertyConfiguration's handling of includes depends on the existence of a base path PropertiesConfiguration has a property which controls whether include files are allowed. This property does not have a set method, it is set to true automatically if a base path is set. There may be scenarios in which it makes sense to support include files anyway, e.g. if they are specified as fully qualified file names or URIs or can be retrieved by the standard lookup mechanism.\nSo the set method should be public, and it makes sense to set this property to true per default. If a file contains an include property, the files it refers to should propably be loaded.\nAlso the get method for the property which controls file inclusion does not conform to the Java Beans specification; returning a boolean, it should start with the prefix is.", "resolution_date": "2013-03-17T18:12:06.000-05:00", "stackTraces": [], "title": "propertyconfiguration properti configuration handl includ depend exist base path"}
{"codeSnippets": [], "creation_date": "2013-03-24T16:19:53.000-05:00", "description": "configurationfactori configur factori deprec seri version remov", "fixed_files": ["org.apache.commons.configuration.ConfigurationFactory", "org.apache.commons.configuration.TestConfigurationFactory", "org.apache.commons.configuration.TestSubsetConfiguration", "org.apache.commons.configuration.TestEqualBehaviour"], "key": "CONFIGURATION-537", "original_text": "Remove deprecated ConfigurationFactory class ConfigurationFactory has been deprecated in the 1.x series. In version 2.0, this class can be removed.", "resolution_date": "2013-03-24T20:28:06.000-05:00", "stackTraces": [], "title": "remov deprec configurationfactori configur factori"}
{"codeSnippets": [], "creation_date": "2012-11-20T15:44:19.000-06:00", "description": "add properti valu contain quot charact back file result valu modifi unecessari escap quot charact reason propertiesconfig properti config call stringescapeutil string escap util escapejavastylestr escap java style string escap quot correct propertiesfil http doc oracl com javas doc api java util properti html load java reader say escap necessari singl quot test test shouldnotescapequotesintheresult escap quot result configurationexcept configur ioexcept string valu djava tmpdir test temp dir propertiesconfigur properti configur testconfig test config propertiesconfigur properti configur testconfig test config addproperti add properti testkey1 test key1 valu file testfil test file file temptestdir temp test dir getpath path prop quot properti testconfig test config testfil test file string testfilecont test file content fileutil file util readfiletostr read file string testfil test file asserttru testfilecont test file content contain valu", "fixed_files": ["org.apache.commons.configuration.TestPropertiesConfiguration", "org.apache.commons.configuration.PropertiesConfiguration"], "key": "CONFIGURATION-516", "original_text": "PropertiesConfiguration.save escapes double qoutes \" unecessary Add a property with a value containing \" (double quote character) and saving it back to file will result in the value being modified and unecessary escaping of the quote character.\nThe reason is that PropertiesConfig calls into the StringEscapeUtils#escapeJavaStyleString that escapes quotes. This is not correct for propertiesfiles. http://docs.oracle.com/javase/7/docs/api/java/util/Properties.html#load(java.io.Reader) says \"Escapes are not necessary for single and double quotes\"\nHere is a test case:\n@Test\npublic void shouldNotEscapeQuotesInTheResult() throws ConfigurationException, IOException {\n    final String value = \"-Djava.io.tmpdir=\\\"$\n{TEST_TEMP_DIR}\n\\\"\";\n    PropertiesConfiguration testConfig = new PropertiesConfiguration();\n    testConfig.addProperty(\"testKey1\", value);\n    File testFile = new File(tempTestDir.getPath() + \"prop-with-quotes.properties\");\n    testConfig.save(testFile) ;\n    String testFileContent = FileUtils.readFileToString(testFile);\n    Assert.assertTrue(testFileContent.contains(value));\n}", "resolution_date": "2013-04-05T13:12:22.000-05:00", "stackTraces": [], "title": "propertiesconfigur properti configur escap qout unecessari"}
{"codeSnippets": [], "creation_date": "2013-08-12T09:54:02.000-05:00", "description": "comment end properti file drop call", "fixed_files": ["org.apache.commons.configuration.TestPropertiesConfiguration", "org.apache.commons.configuration.PropertiesConfigurationLayout", "org.apache.commons.configuration.PropertiesConfiguration", "org.apache.commons.configuration.TestPropertiesConfigurationLayout"], "key": "CONFIGURATION-552", "original_text": "save() causes trailing comments to be deleted If there are comments at the end of a properties file, they are dropped when save is called.", "resolution_date": "2013-08-12T20:26:57.000-05:00", "stackTraces": [], "title": "caus trail comment delet"}
{"codeSnippets": [], "creation_date": "2013-09-24T23:14:48.000-05:00", "description": "give configur test xml space preserv test preserv whitespac current node space xml space preserv test test space preserv abl turn whitespac preserv current node chang path node test valu print valu retriev getlist list method", "fixed_files": ["org.apache.commons.configuration.XMLConfiguration", "org.apache.commons.configuration.TestXMLConfiguration"], "key": "CONFIGURATION-555", "original_text": "XMLConfiguration doesn't seem to be preserving whitespace for the current node where xml:space=\"preserve\" is set. if I give this in the configuration:\n<test xml:space=\"preserve\"> a b c </test>\nIt does not seem to preserve the whitespace on the current node.  However, if I do\n<space xml:space=\"preserve>\n   <test> a b c </test>\n</space>\nit does preserve it. I would like to be able to turn on whitespace preservation on the current node without changing the path to my node.\nI tested my values by printing out values retrieved from getList() method.", "resolution_date": "2013-09-29T20:20:08.000-05:00", "stackTraces": [], "title": "xmlconfigur xml configur preserv whitespac current node xml space preserv set"}
{"codeSnippets": [], "creation_date": "2008-02-19T10:57:14.000-06:00", "description": "configurationbuild configur builder provid equival altern configurationfactori configur factori remov longer depend digest", "fixed_files": ["org.apache.commons.configuration.ConfigurationFactory", "org.apache.commons.configuration.TestConfigurationFactory", "org.apache.commons.configuration.TestSubsetConfiguration", "org.apache.commons.configuration.TestEqualBehaviour"], "key": "CONFIGURATION-310", "original_text": "Remove ConfigurationFactory ConfigurationBuilder provides an equivalent alternative to ConfigurationFactory and can be removed. Without this class we no longer depend on Digester.", "resolution_date": "2014-09-13T19:10:54.000-05:00", "stackTraces": [], "title": "remov configurationfactori configur factori"}
