{"key":"AMQP-170","title":"","description":"Trying to read a value from the header of a message I get that this value is of com.rabbitmq.client.impl.LongStringHelper.ByteArrayLongString type, when it was supposed to be String."}
{"key":"AMQP-290","title":"","description":"I think both way should work. XSD documentation says: ref \u003d The bean name of the Map to pass to the broker when this component is declared."}
{"key":"AMQP-340","title":"","description":"It would be nice to have a notification (exception) about wrong credentials right away (there is a comprehensive rabbit client exception that gets swallowed in SimpleMessageListenerContainer.run())"}
{"key":"AMQP-434","title":"","description":"This exception should be either added to the throws clause OR caught and wrapped in convertMessageIfNecessary()"}
{"key":"AMQP-516","title":"","description":"Making them exclusive and auto delete by default when using a random name seems like a good idea, but it should probably be changed to something like:"}
{"key":"AMQP-633","title":"","description":"We should never return the resourceHolder if the resourceFactory.isSynchedLocalTransactionAllowed() is false."}
{"key":"AMQP-122","title":"","description":"Starting up with no broker can happen of course and so it would be reasonable to have a warning logged just once until the broker becomes available."}
