{"key":"WFCORE-1578","title":"","description":"If there is a problem for those resources to have same names I would welcome that names are checked during the add operation already regarding to all resources in socket-binding and {remote|local}-destination-outbound-socket-binding."}
{"key":"WFCORE-1027","title":"","description":"master-monitor should behave the same as slave-maintainer."}
{"key":"WFCORE-229","title":"","description":"Any operations on server children with the same names that server-config operations (:start, :stop, :restart, :kill) are executed instead of being rejected because the actual resources at the operation address does not define them."}
{"key":"WFCORE-1309","title":"","description":"The message should be more explicit as to where there is no space so that the user knows which drive to check."}
{"key":"WFCORE-1908","title":"","description":"CLI should not suggest writing attributes that are not writable."}
{"key":"WFCORE-763","title":"","description":"e.g. if I persist an empty list to xml, and read it back again, using the default parser/marshaller, I should get back an empty list."}
{"key":"WFCORE-1062","title":"","description":"Expected results: The cached deplpyments folder should never be removed from the HostController\u0027s domain/data/content folder."}
{"key":"WFCORE-1607","title":"","description":"It should rather finish with failure to indicate that nothing was removed."}
{"key":"WFCORE-1354","title":"","description":"I\u0027m not sure how to deal with this; some sort of marker is needed to disable \u0027describing\u0027 that placeholder resource."}
{"key":"WFCORE-604","title":"","description":"- The deployment information which created when deploy was failed should be removed if the deploy is failed."}
{"key":"WFCORE-1915","title":"","description":"So, the type conversion this method does should not be allowed to produce failures."}
{"key":"WFCORE-754","title":"","description":"No errors"}
{"key":"WFCORE-1120","title":"","description":"And testsuite should use this option with IPv6 profile."}
{"key":"WFCORE-1481","title":"","description":"Executing list-add operation on login-modules results in the modules being replaced instead of appending new module."}
{"key":"WFCORE-815","title":"","description":"No errors."}
{"key":"WFCORE-1552","title":"Slaves should report the master\u0027s version in the domain model","description":"product-name, product-version, release-codename and release-version on the slave should be the same as the master values."}
{"key":"WFCORE-626","title":"","description":"The expected result of #4 is \"test\"."}
{"key":"WFCORE-1212","title":"","description":"Once remove() does its current work it should walk up the filesystem tree until it gets to the file returned by getModulesDir(). For each level in the tree it should check if that file is a dir with no children and if it is it should remove the dir."}
{"key":"WFCORE-1715","title":"","description":"The doReload() method of the ReloadContext should restore it. This ensures the ServerInventoryService.stop() only uses the value set by HostProcessReloadHandler once, for that one reload.   But if we restore the default value of restartMode, that is null, and null ! \u003d RestartMode.SERVERS. So the \"\"shutdownServers\" logic will no longer kick in."}
{"key":"WFCORE-687","title":"patches with duplicate element patch-id values should be rejected","description":"Current implementation should reject patches with duplicate element patch-id values (unless the value is \u0027base\u0027)."}
{"key":"WFCORE-1028","title":"","description":"The op should fail because the role doesn\u0027t exist, but there is no failure-description."}
{"key":"WFCORE-1936","title":"","description":"fixed-port attribute of socket-binding and fixed-source-port attributes of *-destination-outbound-socket-binding define in its description that there is not necessary to do reload or restart for any of them."}
{"key":"WFCORE-1007","title":"","description":"I think that the migration operation should not show those warnings."}
{"key":"WFCORE-172","title":"","description":"It\u0027s not allowed to use space in the value, because the space is a header field separator in syslog messages."}
{"key":"WFCORE-1756","title":"Adding content to an exploded deployment with overwrite to false should fail if file already exists","description":"If overwrite is set to false then adding the file should fail."}
{"key":"WFCORE-1210","title":"","description":"The transformer framework should use the same logic as AliasStepHandler to map the alias to the real address and the transform that."}
{"key":"WFCORE-1572","title":"","description":"war --all-server-groups --headers\u003d{rollout id\u003dfoo}) and if user hits tab after the whitespace, suggestions are generated based on the command, rather than the current argument\u0027s name."}
{"key":"WFCORE-2008","title":"","description":"File system paths should be allowed as arguments for /core-service\u003dpatching:patch(input-stream-index\u003d)"}
{"key":"WFCORE-1714","title":"","description":"expected"}
{"key":"WFCORE-1570","title":"","description":"Yes, this is really minor issue, but I think that these two attributes used in aforementioned commands should be unified (preferably to name instead of id) as user might be confused when using it."}
{"key":"WFCORE-1657","title":"","description":"however correct module name is org.jboss.as.controller"}
{"key":"WFCORE-2021","title":"\"ls /socket-binding-group\u003d*\" should print proper error message","description":"\"ls /socket-binding-group\u003d\" should print proper error message."}
{"key":"WFCORE-1595","title":"","description":"expected"}
{"key":"WFCORE-2083","title":"Reduce number of object allocations and memory footprint","description":"There are also cases where inner classes should be static to prevent capturing object reference to be kept and many other cases."}
{"key":"WFCORE-1864","title":"","description":"The module name in dependencies should be stripped of leading and trailing whitespaces."}
