{"key":"DERBY-5424","title":"","description":"testConnectWrongSubprotocolWithSystemProperty(org.apache.derbyTesting.functionTests.tests.tools.ConnectWrongSubprotocolTest) testConnectWrongSubprotoctestolWithoutSystemProperty(org.apache.derbyTesting.functionTests.tests.tools.ConnectWrongSubprotocolTest) String ijResult \u003d runIjScript(ijScript, useSystemProperties);       \n                assertTrue(ijResult.indexOf(\"08001\") \u003e -1);"}
{"key":"DERBY-6073","title":"","description":"StatementPoolingTest.testPoolingEnabledByCheckingImplementationDetails()  testCacheOverflow() If testPoolingEnabledByCheckingImplementationDetails()  testPoolingEnabledByCheckingImplementationDetails()"}
{"key":"DERBY-6089","title":"","description":"registerOutParameter(int parameterIndex,\nint sqlType, String typeName)"}
{"key":"DERBY-5663","title":"","description":"patch(DERBY5663_patch1.txt)"}
{"key":"DERBY-6092","title":"","description":"testPositionAgressive(org.apache.derbyTesting.functionTests.tests.jdbcapi.BlobClob4BlobTest)"}
{"key":"DERBY-5816","title":"","description":"testSevicePropertiesFileWithBackup(org.apache.derbyTesting.functionTests.tests.store.ServicePropertiesFileTest) testSevicePropertiesFileCorruptedWithBackup(org.apache.derbyTesting.functionTests.tests.store.ServicePropertiesFileTe\nst) {```\n@    @    k@   }"}
{"key":"DERBY-6150","title":"","description":"openDefaultConnection()  tearDown()"}
{"key":"DERBY-5912","title":"","description":"isValid()  testIsValidImplemented(org.apache.derbyTesting.functionTests.tests.jdbc4.ConnectionTest) assertTrue(getConnection().isValid(1));"}
{"key":"DERBY-5951","title":"","description":"db;create\u003dtrue; varchar( 32672 )  clobTable( a )  makeClob( \u0027a\u0027 )  varchar( 32672 )  clobTable( a )  makeClob( \u0027a\u0027 )  Ljava/sql/Clob;Lorg/apache/derby/iapi/types/StringDataValue; Ljava/sql/Clob;Lorg/apache/derby/iapi/types/StringDataValue; clobTable( a )  makeClob( \u0027a\u0027 )"}
