{"key":"DATACMNS-157","title":"@Query in extending interface is not picked up correctly","description":"I try to define an interface method in a super repository interface and \u0027implement\u0027 this in an extending interface with @Query.  Tested in the latest nightly build:           Results in                                    It looks like Spring Data does not use the @Query annotation in the sub interface."}
{"key":"DATACMNS-160","title":"","description":"A repository which only defines delete methods is not created by the Spring Data code with the exception:                                                                       I attach a sample Maven project to reproduce the issue"}
{"key":"DATACMNS-176","title":"StackOverflowError when inserted object is a CGLIB proxy","description":"When trying to persist an object [to MongoDB (spring-data-mongodb v1.1.0. M1)] that is in \"session\" scope and using a CGLIB proxy (ie: \"@Scope(value\u003d\"session\", proxyMode \u003d ScopedProxyMode.TARGET_CLASS)\") I receive a StackOverflowError."}
