{"codeSnippets": [], "creation_date": "2016-04-08T11:27:11.000-05:00", "description": "pretti sure compress read empti archiv entri call getnextentri entri entri content code jump block line sevenzfil seven file clear deferredblockstream defer block stream call entri read illegalstateexcept illeg state current entri call getnextentri entri thrown imho check entri getsiz size work correctli", "fixed_files": ["org.apache.commons.compress.archivers.sevenz.SevenZFile", "org.apache.commons.compress.archivers.sevenz.SevenZFileTest"], "key": "COMPRESS-348", "original_text": "Calling SevenZFile.read() on empty SevenZArchiveEntry throws IllegalStateException I'm pretty sure COMPRESS-340 breaks reading empty archive entries. When calling getNextEntry() and that entry has no content, the code jumps into the first block at line 830 (SevenZFile.class), clearing the deferredBlockStreams. When calling entry.read(...) afterwards an IllegalStateException (\"No current 7z entry (call getNextEntry() first).\") is thrown. IMHO, there should be another check for entry.getSize() == 0.\nThis worked correctly up until 1.10.", "resolution_date": "2016-05-16T04:26:21.000-05:00", "stackTraces": [], "title": "call sevenzfil seven file read empti sevenzarchiveentri seven archiv entri illegalstateexcept illeg state"}
{"codeSnippets": [], "creation_date": "2016-05-18T20:48:08.000-05:00", "description": "tararchiveinputstream tar archiv input stream parsepaxhead pars pax header method fail negativearraysizeexcept neg array size empti line end header inner loop start read length newlin end subtract result neg length blow attempt alloc rest array say check loop npm pack sdk gener tarbal issu", "fixed_files": ["org.apache.commons.compress.archivers.tar.TarArchiveInputStream", "org.apache.commons.compress.archivers.tar.TarArchiveInputStreamTest"], "key": "COMPRESS-355", "original_text": "Parsing PAX headers fails with NegativeArraySizeException The TarArchiveInputStream.parsePaxHeaders method fails with a NegativeArraySizeException when there is an empty line at the end of the headers.\nThe inner loop starts reading the length, but it gets a newline (10) and ends up subtracting '0' (48) from it; the result is a negative length that blows up an attempt to allocate the rest array.\nI would say that a check to see if ch is less the '0' and break the loop if it is.\nI used npm pack aws-sdk@2.2.16 to generate a tarball with this issue.", "resolution_date": "2016-05-20T16:22:32.000-05:00", "stackTraces": [], "title": "pars pax header fail negativearraysizeexcept neg array size"}
{"codeSnippets": [], "creation_date": "2016-05-19T03:22:41.000-05:00", "description": "problem pax header entri link flag name end tararchiveentri tar archiv entri isdirectori directori check end trail slash mean content read entri pax header pars effect find stream advanc leav stream bad state entry header actual read header content name modifi remov trail slash link flag indic pax header work fine potenti fix parsetarhead pars tar header chang isdirectori directori ispaxhead pax header trail check probabl fix issu can't verifi debugg chang name docker imag contain yum databas exampl docker pull cento latest docker cento latest tar layer tar produc least layer tar exhibit issu come smaller tar test attach", "fixed_files": ["org.apache.commons.compress.archivers.tar.TarArchiveInputStreamTest", "org.apache.commons.compress.archivers.tar.TarArchiveEntry"], "key": "COMPRESS-356", "original_text": "PAX header entry name ending with / causes problems There seems to be a problem when a PAX header entry (link flag is 'x') has a name ending with \"/\". The TarArchiveEntry.isDirectory() check ends up returning true because of the trailing slash which means no content can be read from the entry. PAX header parsing effectively finds nothing and the stream is not advanced; this leaves the stream in a bad state as the next entry's header is actually read from the header contents.\nIf the name is modified to remove the trailing slash when the link flag indicates a PAX header everything seems to work fine. That would be one potential fix in parseTarHeader. Changing isDirectory to return false if isPaxHeader is true (before the trailing \"/\" check) would probably also fix the issue (though I can't verify that in the debugger like I can with changing the name).\nSo far I have only seen this when using Docker to save images that contain a yum database. For example:\n\ndocker pull centos:latest && docker save centos:latest | tar x --include \"*/layer.tar\"\n\n\n\nWill produce at least one \"layer.tar\" that exhibits this issue. If I come across a smaller TAR for testing I will attach it.", "resolution_date": "2016-05-20T16:45:41.000-05:00", "stackTraces": [], "title": "pax header entri name end caus problem"}
{"codeSnippets": [], "creation_date": "2016-04-14T15:43:47.000-05:00", "description": "truncat zip file produc java eofexcept eof conatin hugh amount data error messag lead beep crippel workload potenti consol logger", "fixed_files": ["org.apache.commons.compress.archivers.cpio.CpioArchiveInputStream", "org.apache.commons.compress.ArchiveUtilsTest", "org.apache.commons.compress.utils.ArchiveUtils", "org.apache.commons.compress.archivers.zip.ZipArchiveInputStreamTest", "org.apache.commons.compress.archivers.zip.ZipArchiveInputStream"], "key": "COMPRESS-351", "original_text": "Defective .zip-archive produces problematic error message A truncated .zip-File produces an java.io.EOFException conatining a hughe amount of byte[]-data in the error-message - leading to beeps and crippeling workload in an potential console-logger.\n", "resolution_date": "2016-06-07T16:47:27.000-05:00", "stackTraces": [], "title": "defect zip archiv produc problemat error messag"}
