{"key":"COMPRESS-64","title":"Are the public finish() methods ArchiveOutputStream implementations necessary and safe?","description":"Some of the ArchiveOutputStream implementations have public finish() methods. These are currently only called from the close() methods.\nSeems to me that there is no need to allow the finish() methods to be called externally, and the user can corrupt the output if they do.\nSurely the close() method is all that is needed?","creation_date":"2009-03-28T14:12:07.000-05:00","resolution_date":"2009-04-23T05:34:24.000-05:00","fixed_files":["org.apache.commons.compress.archivers.cpio.CpioArchiveOutputStream","org.apache.commons.compress.archivers.jar.JarArchiveOutputStreamTest","org.apache.commons.compress.archivers.zip.ZipArchiveOutputStream","org.apache.commons.compress.archivers.CpioTestCase","org.apache.commons.compress.changes.ChangeSetPerformer","org.apache.commons.compress.archivers.tar.TarArchiveOutputStream","org.apache.commons.compress.AbstractTestCase","org.apache.commons.compress.archivers.zip.UTF8ZipFilesTest","org.apache.commons.compress.archivers.ArchiveOutputStream","org.apache.commons.compress.archivers.ar.ArArchiveOutputStream","org.apache.commons.compress.IOMethodsTest"]}
{"key":"COMPRESS-70","title":"Unused field: ZipArchiveInputStream.useUnicodeExtraFields","description":"ZipArchiveInputStream.useUnicodeExtraFields is currently unused. Decide if this field is necessary and how to use it.","creation_date":"2009-04-27T18:01:50.000-05:00","resolution_date":"2009-04-28T08:31:38.000-05:00","fixed_files":["org.apache.commons.compress.archivers.zip.ZipArchiveInputStream"]}
{"key":"COMPRESS-81","title":"TarOutputStream can leave garbage at the end of the archive","description":"when the last block of the tar archive is incomplete it will contain two EOF blocks potentially followed by partial contents of the next-to-last block.  This causes problems with some \"bad\" untar implementations that read past the EOF blocks.\nhttps://issues.apache.org/bugzilla/show_bug.cgi?id\u003d47421\nhttps://issues.apache.org/bugzilla/show_bug.cgi?id\u003d40195\n","creation_date":"2009-06-30T07:02:54.000-05:00","resolution_date":"2009-06-30T07:26:28.000-05:00","fixed_files":["org.apache.commons.compress.archivers.tar.TarBuffer"]}
{"key":"COMPRESS-86","title":"tar entries don\u0027t set \"magic\" value properly for \"oldgnu\" longname entries","description":"When using the GNU longfile mode the tar classes create special archive entries containing the file name if the original name was longer than 100 characters.\nEach tar entry header holds a \"magic\" value indicating the format.\nFor the special entries containing the file name the magic value should be \"ustar  \" indicating the \"oldgnu\" format.\nSee also https://issues.apache.org/bugzilla/show_bug.cgi?id\u003d47653 and http://sunsite.ualberta.ca/Documentation/Gnu/tar-1.13/html_chapter/tar_8.html#SEC126","creation_date":"2009-10-08T11:33:58.000-05:00","resolution_date":"2009-10-08T12:09:53.000-05:00","fixed_files":["org.apache.commons.compress.archivers.tar.TarArchiveEntry"]}
{"key":"COMPRESS-87","title":"ZipArchiveInputStream doesn\u0027t report the end of a truncated archive","description":"If a Zip archive is truncated, (e.g. because it is the first volume in a multi-volume archive) the ZipArchiveInputStream.read() method will not detect that fact. All calls to read() will return 0 bytes read. They will not return -1 (end of stream), nor will they throw any exception (which would seem like a good idea to me because the archive is truncated).\nI have tracked this problem to ZipArchiveInputStream.java, line 239. It contains a check\nif (read \u003d\u003d 0 \u0026\u0026 inf.finished()) \n{\n\n    return -1;\n\n}\n\nFor truncated archives the read is always zero but the inf is never finished(). I suggest adding two lines below:\n\nif (read \u003d\u003d 0 \u0026\u0026 inf.finished()) {\n    return -1;\n}\n else if (read \u003d\u003d 0 \u0026\u0026 lengthOfLastRead \u003d\u003d -1) \n{\n\n\tthrow new IOException(\"Truncated ZIP file\");\n\n}\n\nThis solves the problem in my tests.","creation_date":"2009-10-24T21:28:02.000-05:00","resolution_date":"2009-10-30T05:30:55.000-05:00","fixed_files":["org.apache.commons.compress.archivers.zip.ZipArchiveInputStream"]}
{"key":"COMPRESS-94","title":"Creating zip files with many entries will ocassionally produce corrupted output","description":"Our application produces large numbers of zip files, often with 1000\u0027s of similarly named files contained within the zip. \nWhen we switched from the standard JDK zip classes to those in commons compress, we would ocassionally produce a zip file that had corrupted index entries and would fail to unzip successfully using 7-zip, winzip, etc.\nDebugging the zip creation showed that the the wrong offsets were being returned from the hashmap in ZipOutputStream for the entries that were being corrupted.  Further analysis revealed that this occurred when the filenames being added had a hash collision with another entry in the same output zip (which appears to happen quite frequently for us).\nThe issue appears to stem from the fact that ZipArchiveEntry can store the entry name either in its superclass if passed in on the ctor or in its own member attribute if set later via setName().  Not sure whether this functionality is really required?  Regardless, the root cause of the bug is that the equals() and hashCode() methods in ZipArchiveEntry do not always use the same filename value in their comparisons.  In fact if the filename of the entry is set in the ctor it will always treat two ZipArchiveEntries as equal.  This will break the offset hashmap whenever there is a hash collision as it will overwrite the previous entry, believeing it to be equal.\nPatch to follow.\n","creation_date":"2010-01-06T22:33:15.000-06:00","resolution_date":"2010-01-26T05:25:02.000-06:00","fixed_files":["org.apache.commons.compress.archivers.zip.ZipArchiveEntry","org.apache.commons.compress.archivers.zip.ZipArchiveEntryTest"]}
{"key":"COMPRESS-96","title":"Corrupt zip files can cause infinite loop","description":"I have a corrupt .zip file (in my Download directory) that causes ZipArchiveInputStream to enter an infinite loop on the second call to getEntry().  This was discovered while testing a Tika/Lucene based search application.  Obviously, it would be preferable to detect and throw an exception.  The short explanation is that closeEntry() calls skip(Long.MAX_VALUE).  skip() calls read() which returns 0 and inf.finished() remains false, so no progress is made and skip() spins.\nIf it helps, entry.getSize() returns -1 for the first entry.  I can provide the file to repro (775800 bytes).\nUPDATE: I just hit he same error scanning a truncated commons-compress-1.0-bin.zip (437687 bytes) with this code.\npackage main;\nimport org.apache.commons.compress.archivers.ArchiveEntry;\nimport org.apache.commons.compress.archivers.zip.ZipArchiveInputStream;\nimport java.io.File;\nimport java.io.FileInputStream;\nimport java.io.IOException;\npublic class Main\n{\n    public static void main(String[] args) throws IOException\n    {\n        File f \u003d new File(args[0]);\n        FileInputStream fis \u003d new FileInputStream(f);\n        ZipArchiveInputStream zip \u003d new ZipArchiveInputStream(fis);\n        ArchiveEntry entry;\n        entry \u003d zip.getNextEntry();\n        while (null !\u003d entry)\n        {\n\n            if (entry.isDirectory())\n\n                System.out.printf(\"%s/\\n\", entry.getName());\n\n            else\n\n                System.out.printf(\"%s %d\\n\", entry.getName(), entry.getSize());\n\n            entry \u003d zip.getNextEntry();\n\n        }\n        System.out.print(\"DONE\\n\");\n    }\n}\n","creation_date":"2010-02-11T01:52:09.000-06:00","resolution_date":"2010-02-12T10:11:50.000-06:00","fixed_files":["org.apache.commons.compress.archivers.zip.ZipArchiveInputStream"]}
{"key":"COMPRESS-73","title":"ZipArchiveInputStream cannot handle some valid files","description":"See COMPRESS-62","creation_date":"2009-06-04T10:59:07.000-05:00","resolution_date":"2010-02-16T13:59:21.000-06:00","fixed_files":["org.apache.commons.compress.archivers.zip.ZipArchiveEntry","org.apache.commons.compress.archivers.zip.ZipUtil","org.apache.commons.compress.archivers.zip.ExtraFieldUtilsTest","org.apache.commons.compress.archivers.zip.UnrecognizedExtraField","org.apache.commons.compress.archivers.zip.ExtraFieldUtils"]}
{"key":"COMPRESS-85","title":"cpio archive final entry corrupt","description":"The code below is called with an array of 4 file names. The cpio archive archive.cpio is created with no error messages, but when I then run the Unix command \"cpio -ivct \u003carchive.cpio\" it reports the error \"Can\u0027t read input\" on the last file in the archive. If I run \"cpio -ivcBmu \u003carchive.cpio\" the last file is incomplete, but the other files are extracted correctly. Same result in AIX and Linux.\n{{\n  private void createArchive(String[] outFiles)\n  throws FileNotFoundException, IOException, ArchiveException {\n    short format \u003d CpioArchiveOutputStream.FORMAT_OLD_ASCII;\n    final OutputStream out \u003d new FileOutputStream(\"archive.cpio\");\n    ArchiveOutputStream os \u003d new CpioArchiveOutputStream(out, format);\n    for (int j \u003d 0; j \u003c outFiles.length; j++) \n{\n\n      System.out.println(\"Entry \u003d \" + outFiles[j]);\n\n      File f \u003d new File(outFiles[j]);\n\n      CpioArchiveEntry entry \u003d new CpioArchiveEntry(format);\n\n      entry.setName(outFiles[j]);\n\n      entry.setSize(f.length());\n\n      os.putArchiveEntry(entry);\n\n      IOUtils.copy(new FileInputStream(outFiles[j]), os);\n\n      os.closeArchiveEntry();\n\n    }\n    os.finish();\n    os.close();\n  }\n}}","creation_date":"2009-09-30T14:58:58.000-05:00","resolution_date":"2010-02-18T14:56:20.000-06:00","fixed_files":["org.apache.commons.compress.archivers.cpio.CpioArchiveEntry","org.apache.commons.compress.archivers.cpio.CpioArchiveOutputStream","org.apache.commons.compress.archivers.cpio.CpioConstants"]}
{"key":"COMPRESS-74","title":"ZipArchiveInputStream fails to update count of bytes read","description":"ZipArchiveInputStream fails to call count() in some cases where it reads (or puts back) data from the input stream.\nNot quite sure how to handle put-back yet, as a count of -1 is currently ignored, so how does one count a single byte that is put back?\nEasy enough to hack this in - count(1);count(-2); - but that\u0027s rather messy.","creation_date":"2009-06-04T11:04:43.000-05:00","resolution_date":"2010-02-18T16:11:35.000-06:00","fixed_files":["org.apache.commons.compress.archivers.zip.ZipArchiveInputStream"]}
{"key":"COMPRESS-101","title":"ZipArchiveInputStream doesn\u0027t handle data descriptors without signatures","description":"from http://www.pkware.com/documents/casestudies/APPNOTE.TXT :\n\n      Although not originally assigned a signature, the value \n      0x08074b50 has commonly been adopted as a signature value \n      for the data descriptor record.  Implementers should be \n      aware that ZIP files may be encountered with or without this \n      signature marking data descriptors and should account for\n      either case when reading ZIP files to ensure compatibility.\n      When writing ZIP files, it is recommended to include the\n      signature value marking the data descriptor record.  When\n      the signature is used, the fields currently defined for\n      the data descriptor record will immediately follow the\n      signature.\nThe current code skips over 16 bytes while the descriptor may be using only 12 bytes.","creation_date":"2010-03-12T15:13:16.000-06:00","resolution_date":"2010-03-12T15:36:21.000-06:00","fixed_files":["org.apache.commons.compress.archivers.zip.ZipArchiveInputStream","org.apache.commons.compress.archivers.zip.ZipLong","org.apache.commons.compress.archivers.zip.ZipArchiveOutputStream"]}
{"key":"COMPRESS-100","title":"ZipArchiveInputStream should throw an exception if a data descriptor is used for STORED entries","description":"There is no reliable way to determine the end of data when the method is STORE and in fact the current code relies on the method to be DEFLATE in that case.\nI propose to make this figure into the canReadEntryData method and to throw an exception if any attempt is made\nto read the data.","creation_date":"2010-03-12T15:09:25.000-06:00","resolution_date":"2010-03-12T16:07:47.000-06:00","fixed_files":["org.apache.commons.compress.archivers.zip.ZipUtil","org.apache.commons.compress.archivers.zip.ZipFile","org.apache.commons.compress.archivers.zip.ZipArchiveInputStream","org.apache.commons.compress.archivers.zip.ZipArchiveEntry"]}
{"key":"COMPRESS-105","title":"While Archiving the empty directories are not archived to the archive.","description":"I am trying to create a zip archive. I am having a empty directory \"test\" . When i try to create it to archive . The archive created but the test folder is created as file. And also I got the below exception.\nTemp file created at C:\\Users\\Soundar\\AppData\\Local\\Temp\\sample5278197872513888977.zip\nException in thread \"main\" java.io.IOException: This archives contains unclosed entries.\n\tat org.apache.commons.compress.archivers.zip.ZipArchiveOutputStream.finish(ZipArchiveOutputStream.java:343)\n\tat org.apache.commons.compress.archivers.zip.ZipArchiveOutputStream.close(ZipArchiveOutputStream.java:550)\n\tat com.tcs.tools.archive.test.ArchiveTest.createArchive(ArchiveTest.java:64)\n\tat com.tcs.tools.archive.test.ArchiveTest.main(ArchiveTest.java:119)\nCode used\n-------------\n\tprotected File createArchive(String archivename) throws Exception {\n\t\tArchiveOutputStream out \u003d null;\n\t\tOutputStream stream \u003d null;\n\t\tArchiveStreamFactory factory \u003d new ArchiveStreamFactory();\n\t\ttry \n{\n\n\t\t\tFile archive \u003d File.createTempFile(\"sample\", \".\" + archivename);\n\n\t\t\tSystem.out.println(\"Temp file created at \" + archive.getAbsolutePath());\n\n\t\t\tList archiveList \u003d new ArrayList();\n\n\n\n\t\t\tstream \u003d new FileOutputStream(archive);\n\n\t\t\tout \u003d factory.createArchiveOutputStream(archivename, stream);\n\n\t\t\tfinal File file7 \u003d new File(\"C:\\\\Users\\\\Soundar\\\\Desktop\\\\test\");\n\n\n\n\t\t\taddArchiveEntry(out, \"test\", file7);\n\n\t\t\tSystem.out.println(\"Going to process directory\");\n\n\t\t\tSystem.out.println(\"Directory Name \u003d\" + file7.getName());\n\n\t\t\tArchiveEntry entry \u003d out.createArchiveEntry(file7, \"test\");\n\n\t\t\tout.putArchiveEntry(entry);\n\n\t\t\tIOUtils.copy(new FileInputStream(file7), out);\n\n\t\t\tout.closeArchiveEntry();\n\n\n\n\t\t\tout.finish();\n\n\t\t\treturn archive;\n\n\t\t}\n finally {\n\t\t\tif (out !\u003d null) \n{\n\n\t\t\t\tout.close();\n\n\t\t\t}\n else if (stream !\u003d null) \n{\n\n\t\t\t\tstream.close();\n\n\t\t\t}\n\t\t}\n\t}\nNote\n------\nI tried the same archiving using the compressed zip of Windows Vista default feature. It creates the Sample.zip which contains the empty test folder as archived.\nI know there is a work around  using java.util.zip.zipEntry. But is there a  work around in our Compress itself?","creation_date":"2010-04-17T14:39:44.000-05:00","resolution_date":"2010-04-19T16:17:06.000-05:00","fixed_files":["org.apache.commons.compress.archivers.zip.ZipArchiveEntry","org.apache.commons.compress.archivers.zip.ZipArchiveOutputStream"]}
{"key":"COMPRESS-110","title":"Tar fails to handle ustar \"prefix\" field","description":"Tar fails to handle the ustar \"prefix\" field, which is used when file paths are longer than 100 (but no longer than 256) characters.","creation_date":"2010-05-09T20:37:52.000-05:00","resolution_date":"2010-05-09T20:41:57.000-05:00","fixed_files":["org.apache.commons.compress.archivers.tar.TarArchiveEntry","org.apache.commons.compress.archivers.tar.TarConstants"]}
{"key":"COMPRESS-107","title":"ArchiveStreamFactory does not recognise tar files created by Ant","description":"ArchiveStreamFactory does not recognise tar files created by Ant.\nThese appear to have magic of  \"ustar\\0\" (i.e. same as MAGIC_POSIX) followed by \"\\0\\0\".\nNote that Compress can process the files OK.\nPatch to follow after checking what Ant writes as the signature.","creation_date":"2010-05-08T15:34:15.000-05:00","resolution_date":"2010-05-10T14:41:14.000-05:00","fixed_files":["org.apache.commons.compress.archivers.tar.TarArchiveInputStream"]}
{"key":"COMPRESS-114","title":"TarUtils.parseName does not properly handle characters outside the range 0-127","description":"if a tarfile contains files with special characters, the names of the tar entries are wrong.\nexample:\ncorrect name: 0302-0601-3F06W220ZBLALALACANDC04060302MOE.model\nname resolved by TarUtils.parseName: 0302-0101-3F06W220ZBHECKMODULECEDC07060302DOERN.model\nplease use: \nresult.append(new String(new byte[] \n{ buffer[i] }\n));\ninstead of: \nresult.append((char) buffer[i]);\nto solve this encoding problem.","creation_date":"2010-05-17T12:05:11.000-05:00","resolution_date":"2010-05-17T15:10:06.000-05:00","fixed_files":["org.apache.commons.compress.archivers.tar.TarUtilsTest","org.apache.commons.compress.archivers.tar.TarUtils"]}
{"key":"COMPRESS-75","title":"ZipArchiveInputStream does not show location in file where a problem occurred","description":"See COMPRESS-62 - if ExtraFieldUtils.parse() detects an error, it only shows the offset within the local buffer, which is fairly useless in tracking down a problem.\nSomehow the current location in the file needs to be determined and added to the Exception message.\nThe count/bytesRead field would help, but that actually points to the next available byte, i.e. after the problem area.\nAlso, the internal data may have been expanded.","creation_date":"2009-06-04T11:12:41.000-05:00","resolution_date":"2010-05-31T10:07:06.000-05:00","fixed_files":["org.apache.commons.compress.archivers.zip.ZipArchiveEntry"]}
{"key":"COMPRESS-113","title":"TarArchiveEntry.parseTarHeader() includes the trailing space/NUL when parsing the octal size","description":"TarArchiveEntry.parseTarHeader() includes the trailing space/NUL when parsing the octal size.\nAlthough the size field in the header is 12 bytes, the last byte is supposed to be space or NUL - i.e. only 11 octal digits are allowed for the size.","creation_date":"2010-05-13T15:30:40.000-05:00","resolution_date":"2010-06-02T11:02:35.000-05:00","fixed_files":["org.apache.commons.compress.archivers.tar.TarUtilsTest","org.apache.commons.compress.archivers.tar.TarUtils"]}
{"key":"COMPRESS-206","title":"TarArchiveOutputStream sometimes writes garbage beyond the end of the archive","description":"For some combinations of file lengths, the archive created by TarArchiveOutputStream writes garbage beyond the end of the TAR stream. TarArchiveInputStream can still read the stream without problems, but it does not read beyond the garbage. This is problematic for my use case because I write a checksum after the TAR content. If I then try to read the checksum back, I read garbage instead.\nFunctional impact:\n\nTarArchiveInputStream is asymmetrical with respect to TarArchiveOutputStream, in the sense that TarArchiveInputStream does not read everything that was written by TarArchiveOutputStream.\nThe content is unnecessarily large. The garbage is totally unnecessarily large: ~10K overhead compared to Linux command-line tar.\n\nThis symptom is remarkably similar to #COMPRESS-81, which is supposedly fixed since 1.1. Except for the fact that this issue still exists... I\u0027ve tested this with 1.0 and 1.4.1.","creation_date":"2012-10-24T10:09:02.000-05:00","resolution_date":"2013-01-20T19:11:58.000-06:00","fixed_files":["org.apache.commons.compress.archivers.tar.TarArchiveInputStream","org.apache.commons.compress.archivers.tar.TarBuffer"]}
