{"key":"DATAMONGO-505","title":"","description":"Assume you have the following scenario:               class Entity {\n\n\n\n\n\n\n\n\n\n  Long id;\n\n\n\n\n  @DBRef\n\n\n\n\n  Property property;\n\n\n\n\n}\n\n\n\n\n\n\n\n\n\n class Property {\n\n\n\n\n  Long id;\n\n\n\n\n}\n\n\n\n\n\n\n\n\n\n interface EntityRepository extends Repository\u003cEntity, Long\u003e {\n\n\n\n\n\n\n\n\n\n  Entity findByPropertyIn(Property... property);\n\n\n\n\n}\n\n\n\n\n\n\n findByProperty()"}
{"key":"DATAMONGO-523","title":"","description":"When using the AbstractMongoConfiguration without any further modifications regarding the converter (afterMappingMongoConverterCreation) the @TypeAlias annotation is not used when writing the _class property.   @TypeAlias @Document @TypeAlias"}
{"key":"DATAMONGO-585","title":"","description":"Specifically what can be used for a test case is use a ThreadPoolExecutor, set a minpool and maxpool value of 5, add 25 objects to be executed. Those objects are a class which implements Runnable. Those objects each then perform a bunch of inserts into mongoDB using a DocumentDao which calls mongoOperations.insert.  class which implements Runnable.  \nThose"}
