{"key":"DATACMNS-157","title":"","description":"I try to define an interface method in a super repository interface and \u0027implement\u0027 this in an extending interface with @Query.  Tested in the latest nightly build:                                                @Query @NoRepositoryBean\n\n\n\n\npublic interface EntityRepository\u003cT\u003e extends JpaRepository\u003cT, Long\u003e {\n\n\n\n\n\n\n\n\n\n\tT findByDealer(Dealer dealer);\n\n\n\n\n}\n\n\n\n\n\n\n\n\n\n public interface CarRepository extends EntityRepository\u003cPersonalSiteVehicle\u003e {\n\n\n\n\n\n\n\n\n\n\t@Override\n\n\n\n\n\t@Query(\"select p from PersonalSiteVehicle p join p.detail d join d.enrichable e where e.dealer \u003d ?1\")\n\n\n\n\n\tPersonalSiteVehicle findByDealer(Dealer dealer);\n\n\n\n\n}\n\n\n\n\n\n\n @Query"}
{"key":"DATACMNS-160","title":"","description":"I attach a sample Maven project to reproduce the issue  public interface DeleteOnlyRepository\u003cT, ID extends Serializable\u003e extends Repository\u003cT, ID\u003e{\n\n\n\n\n\n\n\n\n\n    public void delete(ID paramID);\n\n\n\n\n\n\n\n\n\n    public void delete(T paramT);\n\n\n\n\n\n\n\n\n\n    public void delete(Iterable\u003c? extends T\u003e paramIterable);\n\n\n\n\n\n\n\n\n\n    public void deleteAll();\n\n\n\n\n\n\n\n\n\n}"}
{"key":"DATACMNS-176","title":"","description":"When trying to persist an object [to MongoDB (spring-data-mongodb v1.1.0. M1)] that is in \"session\" scope and using a CGLIB proxy (ie: \"@Scope(value\u003d\"session\", proxyMode \u003d ScopedProxyMode.TARGET_CLASS)\") I receive a StackOverflowError.                  @Scope(value\u003d\"session\", proxyMode \u003d ScopedProxyMode.TARGET_CLASS)"}
