{"key":"MAHOUT-1301","title":"","description":"Example: \nConsider following sparse vector\n{code:java}\nVector v \u003d new SequentialAccessSparseVector(capacity);\nv.set(1, 0.1);\nv.set(3, 0.3);\n{code}\nIn 0.7 v.toString() returns following string:\n{code:java}\n{1:0.1,3:0.3}\n{code}\nbut in 0.8 it returns\n{code:java}\n{1:0.1,3:0.3,}\n{code}\nAs you can see, there is extra comma at the end of the string. SequentialAccessSparseVector toString()  toString()  {code:java}\n Vector v \u003d new SequentialAccessSparseVector(capacity);\nv.set(1, 0.1);\nv.set(3, 0.3);\n{code}\n v.toString()  {code:java}\n {1:0.1,3:0.3}\n {code}\n {code:java}\n {1:0.1,3:0.3,}\n {code}"}
{"key":"MAHOUT-1349","title":"","description":"I had a repository of 500K documents, for which I generated the input vectors and a dictionary using some custom code (not seq2sparse etc). I hashed the features with max size 5M (because I didn\u0027t know how many features were in the dataset and wanted to minimize collisions). The kmeans ran fine and generate sensible looking results, but when I tried to run ClusterDumper I got the following error:                                         OpenObjectIntHashMap dict \u003d new OpenObjectIntHashMap();\n//...\n  String [] dictionary \u003d new String[dict.size()];"}
{"key":"MAHOUT-1358","title":"","description":"Running StreamingKMeans Clustering with REDUCE_STREAMING_KMEANS \u003d true and when no estimatedDistanceCutoff is specified, throws the following error                   {Code}\n\n\n {Code}\n\n\n StreamingKMeansThread.call()\n\n\n {Code}\n     Iterator\u003cCentroid\u003e datapointsIterator \u003d datapoints.iterator();\n    if (estimateDistanceCutoff \u003d\u003d StreamingKMeansDriver.INVALID_DISTANCE_CUTOFF) {\n      List\u003cCentroid\u003e estimatePoints \u003d Lists.newArrayListWithExpectedSize(NUM_ESTIMATE_POINTS);\n      while (datapointsIterator.hasNext() \u0026\u0026 estimatePoints.size() \u003c NUM_ESTIMATE_POINTS) {\n        estimatePoints.add(datapointsIterator.next());\n      }\n      estimateDistanceCutoff \u003d ClusteringUtils.estimateDistanceCutoff(estimatePoints, searcher.getDistanceMeasure());\n    }\n\n\n    StreamingKMeans clusterer \u003d new StreamingKMeans(searcher, numClusters, estimateDistanceCutoff);\n    while (datapointsIterator.hasNext()) {\n      clusterer.cluster(datapointsIterator.next());\n    }\n{Code}"}
{"key":"MAHOUT-1314","title":"","description":"when REDUCE_STREAMING_KMEANS option is set to true (-rskm) the reducer fails with NullPointerException.                 it happens every time the REDUCE_STREAMING_KMEANS is set to true. return input.getCentroid();  input.getCentroid() clone();"}
