{"id":102,"bug_id":"MAHOUT-1261","text":"TasteHadoopUtils.idToIndex can return an int that has size Integer.MAX_VALUE. Longs.hashCode(id)","method_goldset":["org.apache.mahout.cf.taste.hadoop.TasteHadoopUtils:idToIndex(long)","org.apache.mahout.cf.taste.hadoop.TasteHadoopUtils:readID(String, boolean)"],"creation_date":"2013-6-13 10:09:15","resolution_date":"2013-11-28 08:47:19"}
{"id":104,"bug_id":"MAHOUT-1301","text":"toString() method of SequentialAccessSparseVector has excess comma at the end. SequentialAccessSparseVector toString()  toString()  {code:java}\n Vector v \u003d new SequentialAccessSparseVector(capacity);\nv.set(1, 0.1);\nv.set(3, 0.3);\n{code}\n v.toString()  {code:java}\n {1:0.1,3:0.3}\n {code}\n {code:java}\n {1:0.1,3:0.3,}\n {code}","method_goldset":["org.apache.mahout.math.RandomAccessSparseVector:toString()","org.apache.mahout.math.SequentialAccessSparseVector:toString()"],"creation_date":"2013-8-1 09:31:21","resolution_date":"2013-8-1 16:48:06"}
{"id":105,"bug_id":"MAHOUT-1308","text":"Cannot extend CandidateItemsStrategy due to restricted visibility. {{AbstractCandidateItemsStrategy}} doGetCandidateItems()","method_goldset":["org.apache.mahout.cf.taste.impl.recommender.AbstractCandidateItemsStrategy:doGetCandidateItems(long[], DataModel)","org.apache.mahout.cf.taste.impl.recommender.AbstractCandidateItemsStrategy:refresh(Collection\u003cRefreshable\u003e)"],"creation_date":"2013-8-9 05:12:20","resolution_date":"2013-11-21 18:16:58"}
{"id":106,"bug_id":"MAHOUT-1314","text":"StreamingKMeansReducer throws NullPointerException when REDUCE_STREAMING_KMEANS is set to true. return input.getCentroid();  input.getCentroid() clone();","method_goldset":["org.apache.mahout.clustering.streaming.mapreduce.StreamingKMeansReducer:reduce(IntWritable, Iterable\u003cCentroidWritable\u003e, Context)","org.apache.mahout.clustering.streaming.mapreduce.StreamingKMeansReducer:getBestCentroids(List\u003cCentroid\u003e, Configuration)"],"creation_date":"2013-8-18 09:07:48","resolution_date":"2013-11-18 01:53:51"}
{"id":107,"bug_id":"MAHOUT-1317","text":"Clarify some of the messages in Preconditions.checkArgument. Preconditions.checkArgument(maxSimilaritiesPerRow \u003e 0, \"Incorrect maximum number of similarities per row!\");","method_goldset":["org.apache.mahout.cf.taste.impl.common.SamplingLongPrimitiveIterator:SamplingLongPrimitiveIterator(RandomWrapper, LongPrimitiveIterator, double)","org.apache.mahout.cf.taste.impl.common.WeightedRunningAverage:changeDatum(double, double)","org.apache.mahout.cf.taste.impl.similarity.GenericItemSimilarity.ItemItemSimilarity:ItemItemSimilarity(long, long, double)","org.apache.mahout.cf.taste.impl.similarity.GenericUserSimilarity.UserUserSimilarity:UserUserSimilarity(long, long, double)","org.apache.mahout.classifier.df.data.DataLoader:parseString(Attribute[], Set\u003cString\u003e[], CharSequence, boolean)","org.apache.mahout.classifier.df.data.Dataset:valueOf(int, String)","org.apache.mahout.classifier.df.mapreduce.partial.TreeID:treeId()","org.apache.mahout.classifier.df.mapreduce.partial.TreeID:TreeID(int, int)","org.apache.mahout.classifier.naivebayes.training.WeightsMapper:setup(Context)","org.apache.mahout.math.neighborhood.BruteSearch:search(Vector, int)","org.apache.mahout.math.neighborhood.FastProjectionSearch:FastProjectionSearch(DistanceMeasure, int, int)","org.apache.mahout.math.neighborhood.ProjectionSearch:ProjectionSearch(DistanceMeasure, int, int)","org.apache.mahout.math.neighborhood.SearchQualityTest.StripWeight:apply(WeightedThing\u003cVector\u003e)","org.apache.mahout.cf.taste.example.kddcup.KDDCupDataModel:KDDCupDataModel(File, boolean, double)","org.apache.mahout.cf.taste.impl.model.cassandra.CassandraDataModel:CassandraDataModel(String, int, String)","org.apache.mahout.utils.SplitInput:validate()","org.apache.mahout.math.als.AlternatingLeastSquaresSolver:addLambdaTimesNuiTimesE(Matrix, double, int)","org.apache.mahout.math.als.AlternatingLeastSquaresSolver:createRiIiMaybeTransposed(Vector)","org.apache.mahout.math.als.AlternatingLeastSquaresSolver:solve(Iterable\u003cVector\u003e, Vector, double, int)","org.apache.mahout.math.random.ChineseRestaurant:ChineseRestaurant(double, double)"],"creation_date":"2013-8-23 13:05:58","resolution_date":"2013-11-22 14:56:55"}
{"id":109,"bug_id":"MAHOUT-1320","text":"BallKMeansTest.testClustering is unstable. {noformat}\n testClustering(org.apache.mahout.clustering.streaming.cluster.BallKMeansTest)   {noformat}\n\n\n\n {noformat}\n testClustering(org.apache.mahout.clustering.streaming.cluster.BallKMeansTest)   {noformat}","method_goldset":["org.apache.mahout.clustering.streaming.cluster.BallKMeansTest:testClusteringMultipleRuns()"],"creation_date":"2013-8-29 04:07:09","resolution_date":"2013-9-17 13:36:11"}
{"id":110,"bug_id":"MAHOUT-1336","text":"HighDFWordsPrunerTest is failing silently. {noformat}\n {noformat}","method_goldset":["org.apache.mahout.vectorizer.HighDFWordsPrunerTest:validateVectors(Path, int[], boolean)"],"creation_date":"2013-9-16 23:35:54","resolution_date":"2013-9-17 00:48:18"}
{"id":112,"bug_id":"MAHOUT-1349","text":"Clusterdumper/loadTermDictionary crashes when highest index in (sparse) dictionary vector is larger than dictionary vector size?. OpenObjectIntHashMap dict \u003d new OpenObjectIntHashMap();\n//...\n  String [] dictionary \u003d new String[dict.size()];","method_goldset":["org.apache.mahout.utils.vectors.VectorHelper:loadTermDictionary(Configuration, String)","org.apache.mahout.utils.vectors.VectorHelperTest:testJsonFormatting()"],"creation_date":"2013-11-1 07:59:17","resolution_date":"2013-12-8 17:35:34"}
{"id":113,"bug_id":"MAHOUT-1358","text":"StreamingKMeansThread throws IllegalArgumentException when REDUCE_STREAMING_KMEANS is set to true. {Code}\n\n\n {Code}\n\n\n StreamingKMeansThread.call()\n\n\n {Code}\n     Iterator\u003cCentroid\u003e datapointsIterator \u003d datapoints.iterator();\n    if (estimateDistanceCutoff \u003d\u003d StreamingKMeansDriver.INVALID_DISTANCE_CUTOFF) {\n      List\u003cCentroid\u003e estimatePoints \u003d Lists.newArrayListWithExpectedSize(NUM_ESTIMATE_POINTS);\n      while (datapointsIterator.hasNext() \u0026\u0026 estimatePoints.size() \u003c NUM_ESTIMATE_POINTS) {\n        estimatePoints.add(datapointsIterator.next());\n      }\n      estimateDistanceCutoff \u003d ClusteringUtils.estimateDistanceCutoff(estimatePoints, searcher.getDistanceMeasure());\n    }\n\n\n    StreamingKMeans clusterer \u003d new StreamingKMeans(searcher, numClusters, estimateDistanceCutoff);\n    while (datapointsIterator.hasNext()) {\n      clusterer.cluster(datapointsIterator.next());\n    }\n{Code}","method_goldset":["org.apache.mahout.clustering.streaming.mapreduce.StreamingKMeansThread:StreamingKMeansThread(Iterable\u003cCentroid\u003e, Configuration)","org.apache.mahout.clustering.streaming.mapreduce.StreamingKMeansThread:StreamingKMeansThread(Path, Configuration)"],"creation_date":"2013-11-18 01:58:22","resolution_date":"2013-11-18 11:55:25"}
