{"key":"COMPRESS-309","title":"","description":"It seems like a pretty stupid thing to do - but I\u0027m getting this when trying to use Kryo serialization (which is probably a bug on their part, too), so it does occur and has negative affects. Here\u0027s a JUnit test that shows the problem specifically:                             BZip2CompressorInputStream.read(buffer, offset, length)  @Test\n\n\tpublic void testApacheCommonsBZipUncompression () throws Exception {\n\n\t\t// Create a big random piece of data\n\n\t\tbyte[] rawData \u003d new byte[1048576];\n\n\t\tfor (int i\u003d0; i\u003crawData.length; ++i) {\n\n\t\t\trawData[i] \u003d (byte) Math.floor(Math.random()*256);\n\n\t\t}\n\n\n\n\t\t// Compress it\n\n\t\tByteArrayOutputStream baos \u003d new ByteArrayOutputStream();\n\n\t\tBZip2CompressorOutputStream bzipOut \u003d new BZip2CompressorOutputStream(baos);\n\n\t\tbzipOut.write(rawData);\n\n\t\tbzipOut.flush();\n\n\t\tbzipOut.close();\n\n\t\tbaos.flush();\n\n\t\tbaos.close();\n\n\n\n\t\t// Try to read it back in\n\n\t\tByteArrayInputStream bais \u003d new ByteArrayInputStream(baos.toByteArray());\n\n\t\tBZip2CompressorInputStream bzipIn \u003d new BZip2CompressorInputStream(bais);\n\n\t\tbyte[] buffer \u003d new byte[1024];\n\n\t\t// Works fine\n\n\t\tAssert.assertEquals(1024, bzipIn.read(buffer, 0, 1024));\n\n\t\t// Fails, returns -1 (indicating the stream is complete rather than that the buffer \n\n\t\t// was full)\n\n\t\tAssert.assertEquals(0, bzipIn.read(buffer, 1024, 0));\n\n\t\t// But if you change the above expected value to -1, the following line still works\n\n\t\tAssert.assertEquals(1024, bzipIn.read(buffer, 0, 1024));\n\n\t\tbzipIn.close();\n\n\t}"}
{"key":"COMPRESS-131","title":"","description":"Decompressing a bz2 file generated by bzip2 utility throws an ArrayIndexOutOfBounds at method recvDecodingTables() line 469.  recvDecodingTables()"}
{"key":"COMPRESS-189","title":"","description":"When the following code is run an error \"Underlying input stream returned zero bytes\" is produced.   The zip file used to produce this behavious is available at http://wwmm.ch.cam.ac.uk/~dl387/test.ZIP                   ZipFile zipFile \u003d new ZipFile(\"C:/test.ZIP\");\n    for (Enumeration\u003cZipArchiveEntry\u003e iterator \u003d zipFile.getEntries(); iterator.hasMoreElements(); ) {\n      ZipArchiveEntry entry \u003d iterator.nextElement();\n      InputStream is \u003d new BufferedInputStream(zipFile.getInputStream(entry));\n      ZipArchiveInputStream zipInput \u003d new ZipArchiveInputStream(is);\n      ZipArchiveEntry innerEntry;\n      while ((innerEntry \u003d zipInput.getNextZipEntry()) !\u003d null){\n        if (innerEntry.getName().endsWith(\"XML\"))\n{\n\n          //zipInput.read();\n\n          System.out.println(IOUtils.toString(zipInput));\n\n        }\n      }\n    }"}
{"key":"COMPRESS-273","title":"","description":"The attachment contains a number of similar test cases that show the same issue in a couple of classes. An example:   org.apache.commons.compress.archivers.zip.UnicodeCommentExtraField var0 \u003d new org.apache.commons.compress.archivers.zip.UnicodeCommentExtraField();\n    org.apache.commons.compress.archivers.zip.ZipShort var1 \u003d var0.getLocalFileDataLength();"}
{"key":"COMPRESS-278","title":"","description":"Some test code you can run to verify it:                                                           \n\n\n\npackage TestBed;\n\n\n\nimport java.io.File;\n\nimport java.io.FileInputStream;\n\nimport java.io.FileNotFoundException;\n\nimport java.io.IOException;\n\n\n\nimport org.apache.commons.compress.archivers.tar.TarArchiveEntry;\n\nimport org.apache.commons.compress.archivers.tar.TarArchiveInputStream;\n\nimport org.apache.commons.compress.compressors.gzip.GzipCompressorInputStream;\n\nimport org.junit.Test;\n\n\n\n/**\n\n * Unit test for simple App.\n\n */\n\npublic class AppTest\n\n{\n\n\n\n    @Test\n\n    public void extractNoFileOwner()\n\n    {\n\n        TarArchiveInputStream tarInputStream \u003d null;\n\n\n\n        try\n\n        {\n\n            tarInputStream \u003d\n\n                new TarArchiveInputStream( new GzipCompressorInputStream( new FileInputStream( new File(\n\n                    \"/home/pknobel/redis-dist-2.8.3_1-linux.tar.gz\" ) ) ) );\n\n            TarArchiveEntry entry;\n\n            while ( ( entry \u003d tarInputStream.getNextTarEntry() ) !\u003d null )\n\n            {\n\n                System.out.println( entry.getName() );\n\n                System.out.println(entry.getUserName()+\"/\"+entry.getGroupName());\n\n            }\n\n\n\n        }\n\n        catch ( FileNotFoundException e )\n\n        {\n\n            e.printStackTrace();\n\n        }\n\n        catch ( IOException e )\n\n        {\n\n            e.printStackTrace();\n\n        }\n\n    }\n\n\n\n}"}
