{"key":"CONFIGURATION-214","title":"","description":"Try this in a BeanShell:           bsh % p \u003d new org.apache.commons.configuration.PropertiesConfiguration();\nbsh % p.setProperty(\"foo\", 6);\nbsh % p.getLong(\"foo\");\n// Error: // Uncaught Exception: Method Invocation p.getLong : at Line: 3 : in file: \u003cunknown file\u003e : p .getLong ( \"foo\" )\n PropertyConverter.toLong()"}
{"key":"CONFIGURATION-241","title":"","description":"I am loading configuration information from multiple sources and have registered a listener with the resulting configuration object.    Below is a watered down version of what I am doing (note, my configuration file simply pulls in a property file containing this property: name.first\u003dMike):            clearProperty() ConfigurationFactory configurationFactory \u003d new ConfigurationFactory();\n configurationFactory.setConfigurationURL(configFileURL);\nConfiguration configuration \u003d ConfigurationFactory.getConfiguration();\nconfiguration.addConfigurationListener(new ConfigurationListener() {\n    public void configurationChanged(ConfigurationEvent e) \n{\n        System.out.println(e.getPropertyName() + \": \" + e.getPropertyValue());\n    }\n});\nSystem.out.println(configuration.getProperty(\"name.first\")); // prints \"Mike\"\n configuration.claerProperty(\"name.first\") ; // no output whatsoever\nSystem.out.println(configuration.getProperty(\"name.first\")); // prints \"null\""}
{"key":"CONFIGURATION-259","title":"","description":"I am trying to merge two Configuration using the ConfigurationFactory and the additional tag.  In particular, after creating a particular subset from a loaded configuration, the subset is empty.  So when initializing the configuration as follows, I get the following error:                 URL configURL \u003d getClass().getResource(configFile);\nConfigurationFactory factory \u003d new ConfigurationFactory();\nfactory.setConfigurationURL(configURL);\nmyConfig \u003d factory.getConfiguration();\n DefaultConfigurationBuilder builder \u003d new DefaultConfigurationBuilder();\n            builder.setURL(configURL);\n            myConfig \u003d builder.getConfiguration();"}
{"key":"CONFIGURATION-332","title":"","description":"The following test fails on the last assertion :                public void testSaveWithDataConfiguration() throws ConfigurationException\n{\n    File file \u003d new File(\"target/testsave.properties\");\n    if (file.exists()) {\n        assertTrue(file.delete());\n    }\n\n    PropertiesConfiguration config \u003d new PropertiesConfiguration(file);\n\n    DataConfiguration dataConfig \u003d new DataConfiguration(config);\n\n    dataConfig.setProperty(\"foo\", \"bar\");\n    assertEquals(\"bar\", config.getProperty(\"foo\"));\n    config.save();\n\n    // reload the file\n    PropertiesConfiguration config2 \u003d new PropertiesConfiguration(file);\n    assertFalse(\"empty configuration\", config2.isEmpty());\n}"}
{"key":"CONFIGURATION-347","title":"Iterating over the keys of a file-based configuration can cause a ConcurrentModificationException","description":"getKeys()"}
{"key":"CONFIGURATION-408","title":"When I save a URL as a property value, the forward slashes are getting escaped","description":"Example Code :          public static void main(String[] args)\n  {\n    try\n    {\n\n      PropertiesConfiguration config \u003d new PropertiesConfiguration();     \n\n      File newProps \u003d new File(\"foo.properties\");\n\n      config.setProperty(\"foo\", \"http://www.google.com/\");     \n\n      config.save(newProps);\n\n      \n\n    }\n    catch (Exception e){}\n  }"}
{"key":"CONFIGURATION-481","title":"","description":"With Commons Configuration 1.6, I was able to declare a variable in a properties file, and then reference it in a XML file using the ${myvar} syntax. For example:              When I try to retrieve the value, like so:      {myvar}  combinedConfig.getConfiguration(\"test\") configurationAt(\"products/product[@name\u003d\u0027abc\u0027]\", true) getString(\"desc\")\n\n {myvar}"}
{"key":"CONFIGURATION-627","title":"","description":"Creating an XMLConfiguration from a file with a builder:                                        builder \u003d\n\n        new FileBasedConfigurationBuilder\u003cXMLConfiguration\u003e(\n\n                XMLConfiguration.class)\n\n                        .configure(params.xml()\n\n                                .setFileName(\n\n                                        propsFile.getCanonicalPath())\n\n                                .setValidating(false));\n\n\n\nconfig \u003d builder.getConfiguration();\n\n\n\n private static boolean isPropertyWriteable(Object bean, String propName)  org.apache.commons.configuration2.AbstractConfiguration.setProperty(java.lang.String,java.lang.Object)"}
