{"key":"DATAMONGO-938","title":"Exception when creating geo within Criteria using MapReduce","description":"I am getting an IllegalArgumentException when I try to query a MongoDB collection using a Criteria.within and a Box.     Criteria.where(\"location\") within(new Box(lowerLeft, upperRight));"}
{"key":"DATAMONGO-1263","title":"","description":"Given:  When defining a class Catalog with a list of \"wrapped\" books:     class Book  class AbstractProduct  class ProductWrapper  class Catalog"}
{"key":"DATAMONGO-467","title":"","description":"Using this entity (@Document) definition with a String as the declared ID:    and the following query    @Document @Id String id;\n\n\n\n\n\n\n QUser.id.eq(\"4f43b6a384aea4e77d403709\")"}
{"key":"DATAMONGO-952","title":"","description":"If you are using repository based queries and try to use @Query annotation to limit the fetched fields, it has zero effect. For example repository query:    If you are using @Query with value attribute to define the query, then the fields limitation is applied though. @Query @Query(fields \u003d \"{ \u0027email\u0027 : 1 }\")\n\n\n\n\nUser findByEmail(String email)\n\n\n\n\n\n\n @Query"}
{"key":"DATAMONGO-1290","title":"","description":"Please find an example project with test attached! Optional\u003cSampleDomainObject\u003e findBySampleData(byte[] sampleDate) @Query(\"{ \u0027sampleData\u0027 : ?0 }\")\n\n\n\n\nOptional\u003cSampleDomainObject\u003e findBySampleDateWithAnnotation(byte[] sampleData)"}
{"key":"DATAMONGO-505","title":"","description":"Assume you have the following scenario:               class Entity {\n\n\n\n\n\n\n\n\n\n  Long id;\n\n\n\n\n  @DBRef\n\n\n\n\n  Property property;\n\n\n\n\n}\n\n\n\n\n\n\n\n\n\n class Property {\n\n\n\n\n  Long id;\n\n\n\n\n}\n\n\n\n\n\n\n\n\n\n interface EntityRepository extends Repository\u003cEntity, Long\u003e {\n\n\n\n\n\n\n\n\n\n  Entity findByPropertyIn(Property... property);\n\n\n\n\n}\n\n\n\n\n\n\n findByProperty()"}
{"key":"DATAMONGO-987","title":"Problem with lazy loading in @DBRef when getting data using MongoTemplate","description":"The situation is simple: if we reference on an entity class another entity (both annotated with @Document) called Parent and Child. Here is the code:                      // Than we try to load this same entity from the database          @Document @Document\n\n\n\n\nclass Parent {\n\n\n\n\n     @Id\n\n\n\n\n     private String id;\n\n\n\n\n     private String name;\n\n\n\n\n     @DBref(lazy\u003dtrue)\n\n\n\n\n     private Child child;\n\n\n\n\n\n\n\n\n\n    // getters and setters ommited\n\n\n\n\n}\n\n\n\n\n\n\n @Document\n\n\n\n\nclass Child {\n\n\n\n\n      @Id\n\n\n\n\n       private String id;\n\n\n\n\n       private String name;\n\n\n\n\n      //getters and setters ommited\n\n\n\n\n}\n\n\n\n\n\n\n Parent parent \u003d new Parent();\n\n\n\n\nparent.setName(\"Daddy\");\n\n\n\n\nmongoTemplate.save(parent); //ok, it is persisted like we expected.\n\n\n\n\n// Than we try to load this same entity from the database\n\n\n\n\nCriteria criteria \u003d Criteria.where(\"_id\").is(parent.getId());\n\n\n\n\nParent persisted \u003d mongoTemplate.findOne(new Query(criteria), Parent.class);\n\n\n\n\n// The child attribute should be null, right?\n\n\n\n\nassertNull(persisted.getChild()); // it fails"}
{"key":"DATAMONGO-523","title":"","description":"When using the AbstractMongoConfiguration without any further modifications regarding the converter (afterMappingMongoConverterCreation) the @TypeAlias annotation is not used when writing the _class property.   @TypeAlias @Document @TypeAlias"}
{"key":"DATAMONGO-1289","title":"NullPointerException when saving an object with no \"id\" field or @Id annotation","description":"Instead of this, I\u0027m seeing a NullPointerException when attempting to save an object that doesn\u0027t have an \"id\" field or an @Id annotated field.  @Id"}
{"key":"DATAMONGO-1068","title":"","description":"There is an entity like this:     I need to issue a criteria to fetch all documents in which none of elements of occupied falls into a specified date range. The query JSON is:           Then, I tried on                  public class Room {\n\n\n\n\n\t\tprivate String name;\n\n\n\n\n\t\tprivate List\u003cDate\u003e occupied;\n\n\n\n\n\t}\n\n\n\n\n\n\n {\n\n\n\n\n\t\toccupied : {\n\n\n\n\n\t\t\t$not : {\n\n\n\n\n\t\t\t\t$elemMatch : {\n\n\n\n\n\t\t\t\t\t$gte : start,\n\n\n\n\n\t\t\t\t\t$lte : end\n\n\n\n\n\t\t\t\t}\n\n\n\n\n\t\t\t}\n\n\n\n\n\t\t}\n\n\n\n\n\t}\n\n\n\n\n\n\n Criteria c1 \u003d new Criteria().gte(start).lte(end);\n\n\n\n\n\tCriteria c \u003d Criteria.where(\"occupied\").not().elemMatch(c1);\n\n\n\n\n\n\n {\n\n\n\n\n\toccupied : {\n\n\n\n\n\t\t$not : {\n\n\n\n\n\t\t\t$elemMatch : {\n\n\n\n\n\t\t\t}\n\n\n\n\n\t\t}\n\n\n\n\n\t}\n\n\n\n\n}\n\n\n\n\n\n\n elemMatch(Criteria)"}
{"key":"DATAMONGO-585","title":"","description":"Specifically what can be used for a test case is use a ThreadPoolExecutor, set a minpool and maxpool value of 5, add 25 objects to be executed. Those objects are a class which implements Runnable. Those objects each then perform a bunch of inserts into mongoDB using a DocumentDao which calls mongoOperations.insert.  class which implements Runnable.  \nThose"}
{"key":"DATAMONGO-1360","title":"","description":"I have a MongoDb document I successfully store using Spring Data MongoDb. It looks like this:       When I create a custom Criteria query that looks like this:               query.addCriteria(where(\"createdDate\").lte(LocalDateTime.now()));"}
{"key":"DATAMONGO-1050","title":"","description":"E.g.                class A {\n\n\n\n\n private String id; //stored in mongo as \"id\"\n\n\n\n\n private String name;\n\n\n\n\n}\n\n\n\n\n\n\n\n\n\n class B {\n\n\n\n\n  private String id; // stored in mongo as \"_id\"\n\n\n\n\n  private List\u003cA\u003e innerDocs;\n\n\n\n\n}\n\n\n\n\n\n\n @Data @NoArgsConstructor"}
{"key":"DATAMONGO-1288","title":"","description":"For example, if you pass in an AtomicInteger, the update fails to execute, as the generated json isn\u0027t correct. org.springframework.data.mongodb.core.query.Update.inc(String, Number)"}
{"key":"DATAMONGO-629","title":"","description":"Assume we have following query:                                      Query q \u003d query {\n\n\n\n\n\t\t\"id\" : /zzz/\n\n\n\n\n\t} {\n\n\n\n\n\t\t\"count\" : \"test\",\n\n\n\n\n\t\t\"query\" : {\n\n\n\n\n\t\t\t\"_id\" : /zzz/\n\n\n\n\n\t\t}\n\n\n\n\n\t find()  count()"}
{"key":"DATAMONGO-1078","title":"","description":"Therefore annotated queries like:       @Query(\"{\u0027_id\u0027: {$in: ?0}}\")\n\n\n\n\nList\u003cUser\u003e findByUserIds(Collection\u003cMyUserId\u003e userIds) {$in: [ {_class:\"com.sampleuser.MyUserId\", userId:\"....\", sampleId:\"....\"}"}
{"key":"DATAMONGO-1438","title":"","description":"When I start my Spring Boot 1.3.5 application with no custom conversions and with Spring Data MongoDB Release Train Hopper-SR1 I get following warning in my logs:     I have alle my Domain classes they are saved in MongoDB annotated with @Document (see DATAMONGO-1413) @Document"}
{"key":"DATAMONGO-571","title":"","description":"1. Domain class is loaded from mongodb using CrudRepository.findOne() method. 2. The loaded instances any non id nor @Version annotated field is set to null. 3. The loaded instance is saved to same mongodb using CrudRepository.save() method. 4. The field that has been set to null doesnt write to database, its unchanged.  Scenario CrudRepository.findOne()  @Version CrudRepository.save()  @Version"}
{"key":"DATAMONGO-1088","title":"","description":"Following method on repository        I attached test project demonstrating this bug.  @Query(value \u003d \"{ embedded : { $in : ?0} }\")\n\n\n\n\n\tList\u003cFoo\u003e findByEmbeddedIn2(Collection\u003cEmbeddedObject\u003e c)"}
{"key":"DATAMONGO-413","title":"","description":"This:                     List\u003cUser\u003e findByEmailOrAlias(String email, String alias) List\u003cUser\u003e findByEmailAndAlias(String email, String alias)"}
{"key":"DATAMONGO-688","title":"","description":"If you have a domain class with an attribute named \"id\", even if you annotate a DIFFERENT field with \"@Id\", spring-data-mongo errors trying to map 2 things to the id.    @Id"}
{"key":"DATAMONGO-1394","title":"","description":"Trying to use eq on reference\u0027s $id, with no luck. This is an example code:                Doing:      or:   public class Book {\n\n\n\n\n     @DBRef\n\n\n\n\n     private Library library;\n\n\n\n\n} \n\n\n\n\n\n\n\n\n\n\n\n\n public class Library {\n\n\n\n\n     @Id\n\n\n\n\n     private String id;\n\n\n\n\n}\n\n\n\n\n\n\n\n\n\n\n\n\n ;\n\n\n\n\nQBook book \u003d QBook.book;\n\n\n\n\nBooleanExpression exp \u003d book.library.id.eq(library_id);\n\n\n\n\n    \n\n\n\n\nList\u003cBook\u003e list \u003d bookRepository.findAll(exp);  // EMPTY\n\n\n\n\n\n\n Library library \u003d libraryRepository.findById(library_id);\n\n\n\n\nQBook book \u003d QBook.book;\n\n\n\n\nBooleanExpression exp \u003d book.library.eq(library);\n\n\n\n\n\n\n\n\n\nList\u003cBook\u003e list \u003d bookRepository.findAll(exp);  // EXPECTED ITEMS\n\n\n\n\n\n\n List\u003cBook\u003e list \u003d bookRepository.findByLibraryId(library_id) // EXPECTED ITEMS"}
{"key":"DATAMONGO-1123","title":"","description":"I have the following query:              public GeoResults\u003cMyObject\u003e findByTypeAndLocationNear(MyObjectType type, Point p, Distance distance) {\n\n\n\n\n   final NearQuery nearQuery \u003d NearQuery.near(p).maxDistance(distance);\n\n\n\n\n   log.info(\"{}\",nearQuery.toDBObject());\n\n\n\n\n   return mongoTemplate.geoNear(nearQuery, MyObject.class);\n\n\n\n\n}\n\n\n\n\n\n\n {@link GeoResults}  {@link NearQuery}"}
{"key":"DATAMONGO-423","title":"","description":"If you try:              while this does not:    c.find( new BasicDBObject( \"x\" ,\n\n\n\n\n                new BasicDBObject(\"$not\", new BasicDBObject(\"$regex\", \"b\") ) ) );\n\n\n\n\n\n\n c.find( new BasicDBObject( \"x\" ,\n\n\n\n\n                new BasicDBObject(\"$not\", Pattern.compile( \"b\" , Pattern.CASE_INSENSITIVE ) ) ) );"}
{"key":"DATAMONGO-392","title":"","description":"I\u0027m using quite complex domain model, that consist of instantiable domain classes as well as of abstract ones.          MappingMongoConverter.writeInternal(...)  addCustomTypeIfNecessary(...)  convertToMongoType(...)  removeTypeInfoRecursively(...)"}
{"key":"DATAMONGO-1406","title":"","description":"we have a document class;                  In MongoTemplate.java, the call to :        The query submitted to mongo after getMappedObject is called:   Note: The query input to getMappedObject is:      ;\n\n\n\n\n\n\n@Document(collection \u003d \"Computer\")\n\n\n\n\npublic class Computer\n\n\n\n\n{\n\n\n\n\n   @Id\n\n\n\n\n   private String _id;\n\n\n\n\n\n\n\n\n\n   private String batchId;\n\n\n\n\n\n\n\n\n\n  @Field(\"stat\")\n\n\n\n\n   private String status;\n\n\n\n\n\n\n\n\n\n   @Field(\"disp\")\n\n\n\n\n   private List\u003cMonitor\u003e displays;\n\n\n\n\n\n\n\n\n\n   //setters and getters\n\n\n\n\n}\n\n\n\n\n\n\n\n\n\npublic class Monitor {\n\n\n\n\n   @Field(\"res\")\n\n\n\n\n   private String resolution;\n\n\n\n\n\n\n\n\n\n  // setters/getters\n\n\n\n\n}\n\n\n\n\n\n\n protected \u003cS, T\u003e List\u003cT\u003e doFind(String collectionName, DBObject query, DBObject fields, Class\u003cS\u003e entityClass,\n\n\n\n\n\t\t\tCursorPreparer preparer, DbObjectCallback\u003cT\u003e objectCallback)\n\n\n\n\n\n\n\n\n\n DBObject mappedQuery \u003d queryMapper.getMappedObject(query, entity);\n\n\n\n\n\n\n @Field @Field"}
{"key":"DATAMONGO-1126","title":"","description":"I\u0027ve been trying to use the In-keyword with identifiers and making the query pageable.  Also when you try to get any other page than 0, no results return.  Below is a strip down example I used for testing; I\u0027ve created 3 types and 10 items per those types, results in a total of 30 items.                                                 getTotalElements()  getTotalPages()  @Document\n\n\n\n\npublic class Item {\n\n\n\n\n\n\n\n\n\n    @Id\n\n\n\n\n    private String id;\n\n\n\n\n    private String type;\n\n\n\n\n}\n\n\n\n\n\n\n\n\n\n\n\n\n public interface ItemRepository extends MongoRepository\u003cItem, String\u003e {\n\n\n\n\n\n\n\n\n\n    Page\u003cItem\u003e findByIdIn(Collection ids, Pageable pageable);\n\n\n\n\n    Page\u003cItem\u003e findByTypeIn(Collection types, Pageable pageable);\n\n\n\n\n}\n\n\n\n\n\n\n\n\n\n\n\n\n @RunWith(SpringJUnit4ClassRunner.class)\n\n\n\n\n@ContextConfiguration(classes \u003d {MongoDbConfig.class})\n\n\n\n\n@TransactionConfiguration(defaultRollback \u003d false)\n\n\n\n\npublic class TestPageableIdIn {\n\n\n\n\n\n\n\n\n\n    @Autowired\n\n\n\n\n    private ItemRepository itemRepository;\n\n\n\n\n    \n\n\n\n\n    private List\u003cString\u003e allIds \u003d new LinkedList\u003c\u003e();\n\n\n\n\n\n\n\n\n\n    @Before\n\n\n\n\n    public void setUp() {\n\n\n\n\n        itemRepository.deleteAll();\n\n\n\n\n        String[] types \u003d {\"SWORD\", \"SHIELD\", \"ARMOUR\"};\n\n\n\n\n\n\n\n\n\n        // 10 items per type\n\n\n\n\n        for (String type : types) {\n\n\n\n\n            for (int i \u003d 0; i \u003c 10; i++) {\n\n\n\n\n                String id \u003d UUID.randomUUID().toString();\n\n\n\n\n                allIds.add(id);\n\n\n\n\n                itemRepository.save(new Item(id, type));\n\n\n\n\n            }\n\n\n\n\n        }\n\n\n\n\n    }\n\n\n\n\n\n\n\n\n\n    @Test\n\n\n\n\n    public void testPageableIdIn() {\n\n\n\n\n        \n\n\n\n\n        Pageable pageable \u003d new PageRequest(0, 5);\n\n\n\n\n        \n\n\n\n\n        // expect 5 Items returned, total of 10 Items(SWORDS) in 2 Pages\n\n\n\n\n        Page\u003cItem\u003e results \u003d itemRepository.findByTypeIn(Arrays.asList(\"SWORD\"), pageable);\n\n\n\n\n        Assert.assertEquals(5, results.getContent().size());\n\n\n\n\n        Assert.assertEquals(10, results.getTotalElements());\n\n\n\n\n        Assert.assertEquals(2, results.getTotalPages());\n\n\n\n\n        \n\n\n\n\n        // expect 5 Items returned, total of 30 Items in 6 Pages\n\n\n\n\n        results \u003d itemRepository.findByIdIn(allIds, pageable);\n\n\n\n\n        Assert.assertEquals(5, results.getContent().size());\n\n\n\n\n        Assert.assertEquals(30, results.getTotalElements()); // this is returning 0\n\n\n\n\n        Assert.assertEquals(6, results.getTotalPages());     // this is returning 0\n\n\n\n\n    }\n\n\n\n\n}"}
{"key":"DATAMONGO-1486","title":"","description":"We have a situation where we have a model object that looks like the following:   When we execute the following:                                                                                               Map\u003cInteger, Map\u003cPlatform, String\u003e\u003e descriptions \u003d new HashMap\u003c\u003e();\n\n\n\n\n\n\n public void setAlternateDescriptionMap(int compositeId, Map\u003cInteger, Map\u003cPlatform, String\u003e\u003e alternateDescriptionsMap) {\n\n\n\n\n\t\tQuery query \u003d new Query();\n\n\n\n\n\t\tquery.addCriteria(Criteria.where(\"_id\").is(compositeId));\n\n\n\n\n\t\tUpdate update \u003d new Update();\n\n\n\n\n\t\tupdate.set(\"alternateDescriptionMap\", alternateDescriptionsMap);\n\n\n\n\n\n\n\n\n\n\t\tcoreMongoTemplate.updateFirst(query, update, \"product\");\n\n\n\n\n\t}\n\n\n\n\n\n\n MappingMongoConverter.convertMongoType()"}
{"key":"DATAMONGO-702","title":"","description":"If Model Java POJO, is annotated with @Field, then during search with query.fields(). include(field) uning mongoTemplate it does not java property field as field parameter, rather it needs the name declared with name defined with @Field annotation. @Field query.fields() @Field"}
{"key":"DATAMONGO-1202","title":"","description":"I provide a github project with two scenarios: Employer: Very simple reflexive relation that works nicely (EmployerTest) Customer: A little more complex scenario using GenericCustomer as a base class to allow having many different kinds of customers. This scenario fails at creating the index (CustomerTest).   @Indexed"}
{"key":"DATAMONGO-717","title":"","description":"Current code:                                        @Override\n\n\n\n\n\tprotected \u003cT\u003e BasicMongoPersistentEntity\u003cT\u003e createPersistentEntity(TypeInformation\u003cT\u003e typeInformation) {\n\n\n\n\n\n\n\n\n\n\t\tBasicMongoPersistentEntity\u003cT\u003e entity \u003d new BasicMongoPersistentEntity\u003cT\u003e(typeInformation);\n\n\n\n\n\n\n\n\n\n\t\tif (context !\u003d null) {\n\n\n\n\n\t\t\tentity.setApplicationContext(context);\n\n\n\n\n\t\t}\n\n\n\n\n\n\n\n\n\n\t\treturn entity;\n\n\n\n\n\t}\n\n\n\n\n\n\n\n\n\n\t\n\n\n\n\n\t @Override\n\n\n\n\n\tpublic void setApplicationContext(ApplicationContext applicationContext) throws BeansException {\n\n\n\n\n\n\n\n\n\n\t\tthis.context \u003d applicationContext;\n\n\n\n\n\t\tsuper.setApplicationContext(applicationContext);\n\n\n\n\n\t}\n\n\n\n\n\n\n @Override\n\n\n\n\n\tpublic void setApplicationContext(ApplicationContext applicationContext) throws BeansException {\n\n\n\n\n\n\n\n\n\n\t\tthis.context \u003d applicationContext;\n\n\n\n\n\t\tsuper.setApplicationContext(applicationContext);\n\n\n\n\n                // Send the application context to ALL the PersistentEntities, not just ones created after this point\n\n\n\n\n               for (BasicMongoPersistentEntity entity : getPersistentEntities()) {\n\n\n\n\n                   entity.setApplicationContext(applicationContext);\n\n\n\n\n               }\n\n\n\n\n\t}\n\n\n\n\n\n\n testMultiTenantSave()  initialize()  @Bean\n\n\n\n\n\tpublic MongoMappingContext mongoMappingContext() throws ClassNotFoundException {\n\n\n\n\n\n\n\n\n\n\t\tMongoMappingContext mappingContext \u003d new MongoMappingContext();\n\n\n\n\n\t\tmappingContext.setInitialEntitySet(getInitialEntitySet());\n\n\n\n\n\t\tmappingContext.setSimpleTypeHolder(customConversions().getSimpleTypeHolder());\n\n\n\n\n\t\tmappingContext.initialize(); // \u003c----\n\n\n\n\n\n\n\n\n\n\t\treturn mappingContext;\n\n\n\n\n\t}"}
{"key":"DATAMONGO-1250","title":"","description":"I have a custom (de)serialiser for an enumerated type, and it works perfectly when saving and loading a @Document annotated POJO.  However when used in an Update, it is either ignored, or called in situations where it shouldn\u0027t. Please clone https://github.com/patrickherrera/converter_test.git for a full test application. In brief there is a POJO and for the purposes of the test it has a static enum with the desired converters:                                                 There is a unit test that drives a few scenarios:                                                           @Document @Document\n\n\n\n\npublic class MyPersistantObject  public Allocation allocation;\n\n\n\n\n     public BigDecimal value;\n\n\n\n\n\n\n\n\n\n     private final String code;\n\n\n\n\n\n\n\n\n\n         Allocation(String code) {\n\n\n\n\n            this.code \u003d code;\n\n\n\n\n        }\n\n\n\n\n\n\n\n\n\n         public static Converter\u003cAllocation, String\u003e writer() {\n\n\n\n\n            return new Converter\u003cAllocation, String\u003e() {\n\n\n\n\n                public String convert(Allocation allocation) {\n\n\n\n\n                    return allocation.getCode();\n\n\n\n\n                }\n\n\n\n\n            };\n\n\n\n\n        }\n\n\n\n\n\n\n\n\n\n         public static Converter\u003cString, Allocation\u003e reader() {\n\n\n\n\n            return new Converter\u003cString, Allocation\u003e() {\n\n\n\n\n                public Allocation convert(String source) {\n\n\n\n\n                    return Allocation.getByCode(source);\n\n\n\n\n                }\n\n\n\n\n            };\n\n\n\n\n        }\n\n\n\n\n\n\n\n\n\n         public static Allocation getByCode(String code)  return AVAILABLE;\n\n\n\n\n                 return ALLOCATED;\n\n\n\n\n             throw new IllegalArgumentException(\"Unable to get Allocation from: \" + code);\n\n\n\n\n         public String getCode() {\n\n\n\n\n            return code;\n\n\n\n\n        }\n\n\n\n\n     @Bean\n\n\n\n\n    public CustomConversions customConversions() {\n\n\n\n\n        return new CustomConversions(Arrays.asList(\n\n\n\n\n                MyPersistantObject.Allocation.reader(),\n\n\n\n\n                MyPersistantObject.Allocation.writer()\n\n\n\n\n        ));\n\n\n\n\n    }\n\n\n\n\n\n\n @Test\n\n\n\n\n    public void testConversion() {\n\n\n\n\n        Update update;\n\n\n\n\n        Query query;\n\n\n\n\n        MyPersistantObject returned;\n\n\n\n\n        MyPersistantObject myPersistantObject \u003d new MyPersistantObject();\n\n\n\n\n        myPersistantObject.allocation \u003d AVAILABLE;\n\n\n\n\n        myPersistantObject.value \u003d new BigDecimal(1234567);\n\n\n\n\n\n\n\n\n\n        mongoTemplate.save(myPersistantObject);\n\n\n\n\n\n\n\n\n\n        // Check it was saved correctly - first with invalid allocation to confirm conversion in query\n\n\n\n\n        query \u003d query(where(\"allocation\").is(ALLOCATED));\n\n\n\n\n        assertThat(mongoTemplate.findOne(query, MyPersistantObject.class), is(nullValue()));\n\n\n\n\n\n\n\n\n\n        // Check it was saved correctly - now with valid allocation to confirm conversion in query\n\n\n\n\n        query \u003d query(where(\"allocation\").is(AVAILABLE));\n\n\n\n\n        returned \u003d mongoTemplate.findOne(query, MyPersistantObject.class);\n\n\n\n\n        assertThat(returned.allocation, is(AVAILABLE));\n\n\n\n\n        assertThat(returned.value.longValue(), is(1234567L));\n\n\n\n\n\n\n\n\n\n        try {\n\n\n\n\n            // Update allocation from constant - will fail\n\n\n\n\n            update \u003d update(\"allocation\", ALLOCATED);\n\n\n\n\n            mongoTemplate.updateMulti(query, update, MyPersistantObject.class);\n\n\n\n\n        } catch (Exception e) {\n\n\n\n\n            System.err.println(\"failed to convert allocation: java.lang.IllegalArgumentException: can\u0027t serialize class converter_test.MyPersistantObject$Allocation\");\n\n\n\n\n        }\n\n\n\n\n\n\n\n\n\n        // Update allocation from string value - succeeds\n\n\n\n\n        update \u003d update(\"allocation\", ALLOCATED.getCode());\n\n\n\n\n        mongoTemplate.updateMulti(query, update, MyPersistantObject.class);\n\n\n\n\n        // Check allocation update\n\n\n\n\n        query \u003d query(where(\"allocation\").is(ALLOCATED));\n\n\n\n\n        returned \u003d mongoTemplate.findOne(query, MyPersistantObject.class);\n\n\n\n\n        assertThat(returned.allocation, is(ALLOCATED));\n\n\n\n\n\n\n\n\n\n        // Update value only - will fail: Caused by: java.lang.IllegalArgumentException: Unable to get MyPersistantObject.Allocation from: 54321\n\n\n\n\n        // Tries to use MyPersistantObject.Allocation converter to String\n\n\n\n\n        update \u003d update(\"value\", new BigDecimal(54321));\n\n\n\n\n        mongoTemplate.updateMulti(query, update, MyPersistantObject.class);\n\n\n\n\n        // Check value update\n\n\n\n\n        returned \u003d mongoTemplate.findAll(MyPersistantObject.class).get(0);\n\n\n\n\n        assertThat(returned.value.longValue(), is(54321L));\n\n\n\n\n    }"}
{"key":"DATAMONGO-721","title":"","description":"Here is our situation: we have an entity which have an attribute which is a list of another kind of entity, like the code below.   When using MongoTemplate class with code such as below, the _class attribute is not inserted on the embedded document, so, if one of the items of the list attribute is a subclass of ChildClass, and ChildClass is an abstract class, we begin to face instantiation problems. Here is one example of usage of MongoTemplate in which we found a problem.    @Document\npublic class ParentClass {\n   private List\u003cChildClass\u003e list;\n}\n @Document mongoTemplate.updateFirst(Query.query(criteria), \n  new Update().push(\"list\", child));"}
{"key":"DATAMONGO-602","title":"Querying with $in operator on the id field of type BigInteger returns zero results","description":"There is a problem when trying to query for documents with id field is in a given list of BigInteger values.  For example, these lines will work only if given id list contains only one item.            List\u003cBigInteger\u003e profileIds \u003d findProfileIds();\n\n\n\n\nPredicate predicate \u003d QProfileDocument.profileDocument.id.in(profileIds);\n\n\n\n\nIterable\u003cProfileDocument\u003e profiles \u003d profileRepository.findAll(predicate);"}
{"key":"DATAMONGO-805","title":"Excluding DBRef field in a query causes a MappingException","description":"Excluding a field in a query where the field is a DBRef as below throws a MappingException.                                              I\u0027ve attached a simple test case that throws the MappingException.  Query query \u003d new Query(Criteria.where(\"parentField\").is(\"test\"));\n        query.fields().exclude(\"children\");\n        ParentClass parentClass \u003d mongoOperations.findOne(query, ParentClass.class);"}
{"key":"DATAMONGO-897","title":"","description":"NullPointerException is thrown when using MongoTemplate.findAndModify(...) with @DbRef and interface as @DbRef target.     MongoTemplate.findAndModify(...)  @DbRef @DbRef"}
{"key":"DATAMONGO-892","title":"","description":"The sample config which worked in the 1.1.1 version, but doesn\u0027t work now:               parserContext.isNested()"}
{"key":"DATAMONGO-647","title":"","description":"I created a method using the \"query by method name\" approach: Inside my Answer object, I have a field called \"Score\" that is annotated with    When the query is run, the database attempts to sort the results by \"score\" rather than my \"sr\" field name. @Field(\"sr\")\n List\u003cAnswer\u003e findByQuestionIdOrderByScoreDesc(String questionId)"}
{"key":"DATAMONGO-745","title":"","description":"Hi If I used MongoRepository and anotation Quary and Pageable in response I get true result but getTotalElements \u003d\u003d 0             @Query(\"{\u0027snapshotId\u0027 : ?0 ,\u0027defects.id\u0027:{ $in:?1}}\")\nPage\u003cTest\u003e findBySnapshotIdAndDefects(ObjectId snapshotId, List\u003cInteger\u003e defectIds, Pageable pageable) {5225a5ece4b0a01629fce9c6\u003d{ \"_id\" : \n{ \"$oid\" : \"5225a5ece4b0a01629fce9c6\"}"}
