{"key":"DATAMONGO-505","title":"","description":"Assume you have the following scenario:              We need to unwrap the elements and convert them into DBRef instances one by one."}
{"key":"DATAMONGO-987","title":"Problem with lazy loading in @DBRef when getting data using MongoTemplate","description":"The situation is simple: if we reference on an entity class another entity (both annotated with @Document) called Parent and Child. Here is the code:                  The following situation should never happen:   mongoTemplate.save(parent); //ok, it is persisted like we expected. // Than we try to load this same entity from the database    // The child attribute should be null, right?"}
{"key":"DATAMONGO-1263","title":"","description":"Given:  When defining a class Catalog with a list of \"wrapped\" books:   Spring Data MongoDB should be able to infer type information from the list declaration ( List\u003cProductWrapper\u003cBook\u003e\u003e ), becoming aware that Catalog contains a list of Books, hence indexes defined on Book should be created."}
{"key":"DATAMONGO-1290","title":"","description":"In a repository, these finders should be equivalent:      Please find an example project with test attached!"}
{"key":"DATAMONGO-1078","title":"","description":"Therefore annotated queries like:      So we need to check for the presence of typeKey when converting id properties."}
{"key":"DATAMONGO-392","title":"","description":"I\u0027m using quite complex domain model, that consist of instantiable domain classes as well as of abstract ones.         The second point is that there should be a way to persist the type information inferred from runtime along the persisted object and not just the class definition."}
{"key":"DATAMONGO-423","title":"Criteria.regex should use java.util.Pattern instead of $regex","description":"If you try:              while this does not:"}
{"key":"DATAMONGO-1088","title":"","description":"Following method on repository      Query should be without _class property e.g.:  I attached test project demonstrating this bug."}
{"key":"DATAMONGO-1289","title":"NullPointerException when saving an object with no \"id\" field or @Id annotation","description":"If no field or property specified above is present in the Java class then an implicit \u0027_id\u0027 file will be generated by the driver but not mapped to a property or field of the Java class. Instead of this, I\u0027m seeing a NullPointerException when attempting to save an object that doesn\u0027t have an \"id\" field or an @Id annotated field."}
{"key":"DATAMONGO-1123","title":"","description":"I have the following query:         I expect 1000 \"matching\" documents But i only get 100."}
{"key":"DATAMONGO-647","title":"","description":"I created a method using the \"query by method name\" approach: Inside my Answer object, I have a field called \"Score\" that is annotated with    When the query is run, the database attempts to sort the results by \"score\" rather than my \"sr\" field name."}
{"key":"DATAMONGO-1126","title":"","description":"I\u0027ve been trying to use the In-keyword with identifiers and making the query pageable.  Also when you try to get any other page than 0, no results return.  Below is a strip down example I used for testing; I\u0027ve created 3 types and 10 items per those types, results in a total of 30 items.                                   // expect 5 Items returned, total of 10 Items(SWORDS) in 2 Pages      // expect 5 Items returned, total of 30 Items in 6 Pages"}
{"key":"DATAMONGO-1406","title":"","description":"we have a document class;                  In MongoTemplate.java, the call to :        The query submitted to mongo after getMappedObject is called:   Note: The query input to getMappedObject is:   The correct query from getMappedObject should be:"}
{"key":"DATAMONGO-1232","title":"IgnoreCase should escape queries","description":"In my case, I\u0027m trying to perform a case-insensitive find on an e-mail address with the + sign, a legal character, but the regex interprets this as 1.   The query generator needs to properly escape regex-special characters."}
{"key":"DATAMONGO-1236","title":"","description":"When a map of type LinkedHashMap\u003cString, Object\u003e  is updated via MongoOperations findAndModify or updateFirst, the _class field is not saved for the map values. Therefore, later reads of the data do not convert the value to the correct type, instead leaving it as LinkedHashMap. Please see attached maven project for test illustrating the problem."}
