{"key":"WFCORE-1027","title":"","description":"Setting up host scoped roles as follows https://gist.github.com/heiko-braun/0dc810ed04db8739defd there are inconsistent results in the filtering.                                                                                                                                               master-monitor should behave the same as slave-maintainer."}
{"key":"WFCORE-1578","title":"","description":"Lets have some /socket-binding-group\u003dstandard-sockets/socket-binding with particular name. Then when I create some /socket-binding-group\u003dstandard-sockets/remote-destination-outbound-socket-binding or /socket-binding-group\u003dstandard-sockets/local-destination-outbound-socket-binding using same name as of already existing socket-binding resource, add operation is successful but when I perform server reload, it crashes as it is not able to parse configuration.  Start EAP and log to CLI create your own socket-binding resource and {remote|local}-destination-outbound-socket-binding resource with same names and perform reload                                          If there is a problem for those resources to have same names I would welcome that names are checked during the add operation already regarding to all resources in socket-binding and {remote|local}-destination-outbound-socket-binding."}
{"key":"WFCORE-763","title":"","description":"e.g. if I persist an empty list to xml, and read it back again, using the default parser/marshaller, I should get back an empty list."}
{"key":"WFCORE-1908","title":"","description":"Example    On attempt to write metric attribute, for example message-count, non writable error is printed       CLI should not suggest writing attributes that are not writable."}
{"key":"WFCORE-1062","title":"","description":"1. Setup domaincontroller 2. Setup hostcontroller 3. Start domaincontroller 4. Start hostcontroller with --backup option. 5. deploy an application using cli or admin console     7. Wait for approximately 10 minutes       9. After restarting the Host Controller, the deployment is restored and the cached deployment can now be seen under the Host Controller\u0027s domain/data/content folder.  Expected results: The cached deplpyments folder should never be removed from the HostController\u0027s domain/data/content folder."}
{"key":"WFCORE-229","title":"","description":"Start a regular domain Any operations on server children with the same names that server-config operations (:start, :stop, :restart, :kill) are executed instead of being rejected because the actual resources at the operation address does not define them. Examples:"}
{"key":"WFCORE-1936","title":"","description":"fixed-port attribute of socket-binding and fixed-source-port attributes of *-destination-outbound-socket-binding define in its description that there is not necessary to do reload or restart for any of them.  If you tries to change such attributes you are informed that reload is necessary."}
{"key":"WFCORE-1756","title":"Adding content to an exploded deployment with overwrite to false should fail if file already exists","description":"If overwrite is set to false then adding the file should fail."}
{"key":"WFCORE-1572","title":"","description":"When an argument value contains a space (eg. deploy /path/to/test-application. war --all-server-groups --headers\u003d{rollout id\u003dfoo}) and if user hits tab after the whitespace, suggestions are generated based on the command, rather than the current argument\u0027s name."}
{"key":"WFCORE-1714","title":"","description":"reproduce      expected"}
{"key":"WFCORE-604","title":"","description":"1. Fail to deploy application via jboss-cli 2. Find deployment info in JBOSS_HOME/{standalone|domaine}/data/content, but there are no standalone.xml in \u003cdeployments\u003e tag. 3. Fix deployment and success to deploy. 4. Find \"new\" deployment info in JBOSS_HOME/{standalone|domaine}/data/content, and the old deployment info will be still there.       - The deployment information which created when deploy was failed should be removed if the deploy is failed."}
{"key":"WFCORE-754","title":"","description":"EAP fails to start with -bmanagement\u003d option. IPv4 address is used in this option.          Example on dev98 machine:                                          No errors"}
{"key":"WFCORE-1570","title":"","description":"When using rollout plans for EAP deployment scenarios I can create my own named rollout-plan for ease of use. I can then apply rollout command later on, referring with name of my own rollout plan that should be used.  When I create rollout-plan, I use command like:   When I then refer to it I use following command:    Yes, this is really minor issue, but I think that these two attributes used in aforementioned commands should be unified (preferably to name instead of id) as user might be confused when using it."}
{"key":"WFCORE-815","title":"","description":"get fresh EAP             No errors."}
{"key":"WFCORE-1657","title":"","description":"Using tab completion for adding a module dependencies with module add command could lead to invalid module.xml as CLI prompt user to use module name with \"system.layers.base\" prefix, which is not a part of module name.  Add a new module via module add command, use tab-completion for dependencies             however correct module name is org.jboss.as.controller"}
{"key":"WFCORE-626","title":"","description":"Consider the following sequence of operations:      The expected result of #4 is \"test\"."}
{"key":"WFCORE-1864","title":"","description":"Running module add --name\u003dfoo.bar --resources\u003dfoo.jar --dependencies\u003d[org.a, org.b ] will result in following dependencies in module.xml         The module name in dependencies should be stripped of leading and trailing whitespaces."}
{"key":"WFCORE-1007","title":"","description":"When I use migration operation the console log is filled with warning messages of type   If I do the sequence of operation                                                                                                                                         I think that the migration operation should not show those warnings."}
