{"key":"DATAMONGO-938","title":"Exception when creating geo within Criteria using MapReduce","description":"I am getting an IllegalArgumentException when I try to query a MongoDB collection using a Criteria.within and a Box. Criteria.where(\"location\"). within(new Box(lowerLeft, upperRight)); The exception reads: java.lang.IllegalArgumentException: can\u0027t serialize class org.springframework.data.mongodb.core.query.GeoCommand"}
{"key":"DATAMONGO-969","title":"String @id field is not mapped to ObjectId when using QueryDSL .id.in(Collection\u003cString\u003e)","description":"This is similar to DATAMONGO-467 which was resolved a while back. But in this case instead of . eq() I am using . in(). @Document public class User { @Id String id; } Collection\u003cString\u003e collection \u003d new ArrayList\u003c\u003e(); collection.add(\"abcdef.....\"); Iterable\u003cUser\u003e user \u003d userRepository.findAll(QUser.user.id.in(collection)); This is translating to $in clause with empty collection"}
{"key":"DATAMONGO-987","title":"Problem with lazy loading in @DBRef when getting data using MongoTemplate","description":"The situation is simple: if we reference on an entity class another entity (both annotated with @Document) called Parent and Child. Here is the code: @Document class Parent { @Id private String id; private String name; @DBref(lazy\u003dtrue) private Child child; // getters and setters ommited } and the Child class @Document class Child { @Id private String id; private String name; //getters and setters ommited } The following situation should never happen: Parent parent \u003d new Parent(); parent.setName(\"Daddy\"); mongoTemplate.save(parent); //ok, it is persisted like we expected. // Than we try to load this same entity from the database Criteria criteria \u003d Criteria.where(\"_id\"). is(parent.getId()); Parent persisted \u003d mongoTemplate.findOne(new Query(criteria), Parent.class); // The child attribute should be null, right? assertNull(persisted.getChild()); // it fails The null attribute is actually an enhanced class generated by CGLib. It should not be. This brings a lot of problems when you, by accident, persist the same entity. I attached a project with the JUnit test which reproduces the problem for you."}
