{"key":"DATAMONGO-663","title":"org.springframework.data.mongodb.core.query.Field needs an equals method","description":"The above class Field does not has an equals() method. But org.springframework.data.mongodb.core.query.Query has an equals method which is using the equals method of the Field class. boolean fieldsEqual \u003d this.fieldSpec \u003d\u003d null ? that.fieldSpec \u003d\u003d null : this.fieldSpec.equals(that.fieldSpec); Please implement an equals on the Field method. Purpose: For unit testing the equals method is needed."}
{"key":"DATAMONGO-688","title":"There is no precedence between @Id annotation and field named \"id\" - both are attempted to be used","description":"If you have a domain class with an attribute named \"id\", even if you annotate a DIFFERENT field with \"@Id\", spring-data-mongo errors trying to map 2 things to the id. While the error is correct in that you can\u0027t have 2, it surprises me that one doesn\u0027t take precedence over the other. I tried (in vain) to find this issue listed in jira, having read about it from a post in the forums after hitting the same issue myself, so apologies if this is a duplicate. Original forum post here: http://forum.springsource.org/showthread.php?120188-_id-mapping"}
{"key":"DATAMONGO-702","title":"Spring Data MongoDB projection search, is not properly configured with respective Java Pojo","description":"If Model Java POJO, is annotated with @Field, then during search with query.fields(). include(field) uning mongoTemplate it does not java property field as field parameter, rather it needs the name declared with name defined with @Field annotation."}
{"key":"DATAMONGO-717","title":"Application context is not properly distributed to persistent entities","description":"The MongoMappingContext does not properly distribute the application context when set to persistent entities that have already been added. Current code: MongoMappingContext.java @Override protected \u003cT\u003e BasicMongoPersistentEntity\u003cT\u003e createPersistentEntity(TypeInformation\u003cT\u003e typeInformation) { BasicMongoPersistentEntity\u003cT\u003e entity \u003d new BasicMongoPersistentEntity\u003cT\u003e(typeInformation); if (context ! \u003d null) { entity.setApplicationContext(context); } return entity; } @Override public void setApplicationContext(ApplicationContext applicationContext) throws BeansException { this.context \u003d applicationContext; super.setApplicationContext(applicationContext); } Possible fix: MongoMappingContext.java @Override public void setApplicationContext(ApplicationContext applicationContext) throws BeansException { this.context \u003d applicationContext; super.setApplicationContext(applicationContext); // Send the application context to ALL the PersistentEntities, not just ones created after this point for (BasicMongoPersistentEntity entity : getPersistentEntities()) { entity.setApplicationContext(applicationContext); } } See referenced URL PoC, no_indexes branch, test: MultiTenantTest::testMultiTenantSave() for example. UPDATE: AbstractMongoConfiguration is calling initialize() on MongoMappingContext before it returns the object. AbstractMongoConfiguration @Bean public MongoMappingContext mongoMappingContext() throws ClassNotFoundException { MongoMappingContext mappingContext \u003d new MongoMappingContext(); mappingContext.setInitialEntitySet(getInitialEntitySet()); mappingContext.setSimpleTypeHolder(customConversions(). getSimpleTypeHolder()); mappingContext.initialize(); // \u003c---- return mappingContext; }"}
{"key":"DATAMONGO-721","title":"Polymorphic attribute type not persisted on update operations","description":"We found a problem with Spring Data for Mongo DB. Here is our situation: we have an entity which have an attribute which is a list of another kind of entity, like the code below. @Document public class ParentClass { private List\u003cChildClass\u003e list; } the ChildClass is annotated with @Document too, but we want to store it\u0027s content as an embed document of ParentClass. When using MongoTemplate class with code such as below, the _class attribute is not inserted on the embedded document, so, if one of the items of the list attribute is a subclass of ChildClass, and ChildClass is an abstract class, we begin to face instantiation problems. Here is one example of usage of MongoTemplate in which we found a problem. mongoTemplate.updateFirst(Query.query(criteria), new Update(). push(\"list\", child)); If child is a subclass of ChildClass, the _class attribute is not added to the embedded document."}
