{"key":"WFCORE-1552","title":"Slaves should report the master\u0027s version in the domain model","description":"Setting up the mixed domain tests for an EAP7 slave, I get the following error : SimpleMixedDomain700TestCase\u003eSimpleMixedDomainTest.test00002_Versioning:139 expected:\u003c{ \"management-major-version\" \u003d\u003e 4, \"management-micro-version\" \u003d\u003e 0, \"management-minor-version\" \u003d\u003e 1, \"name\" \u003d\u003e \"Unnamed Domain\", \"namespaces\" \u003d\u003e [], \"product-name\" \u003d\u003e \"WildFly Full\", \"product-version\" \u003d\u003e \"10.1.0.Final-SNAPSHOT\", \"release-codename\" \u003d\u003e \"Kenny\", \"release-version\" \u003d\u003e \"2.2.0. CR2\", \"schema-locations\" \u003d\u003e [] }\u003e but was:\u003c{ \"management-major-version\" \u003d\u003e 4, \"management-micro-version\" \u003d\u003e 0, \"management-minor-version\" \u003d\u003e 1, \"name\" \u003d\u003e \"Unnamed Domain\", \"namespaces\" \u003d\u003e [], \"product-name\" \u003d\u003e \"JBoss EAP\", \"product-version\" \u003d\u003e \"7.0.0. GA\", \"release-codename\" \u003d\u003e \"Kenny\", \"release-version\" \u003d\u003e \"2.1.2.Final-redhat-1\", \"schema-locations\" \u003d\u003e [] }\u003e The \u0027expected\u0027 is the WildFly master values, while the \u0027actual\u0027 are the slave values. product-name, product-version, release-codename and release-version on the slave should be the same as the master values. Once we upgrade to Wildfly Core 3.0.0 we should also check that the management-[major/minor/micro]-version attributes on the slave are the same as the DC\u0027s values as well (i.e 5.0.0 rather than 4.0.1) This is similar to WFLY-3228 back in the day. This is probably caused by the SyncXXX handlers for pushing the domain config as operations (WFCORE-401)"}
{"key":"WFCORE-1715","title":"HostProcessReloadHandler does not reset the HostRunningModeControl\u0027s restartMode","description":"The ReloadContext created by HostProcessReloadHandler sets the HostRunningModeControl\u0027s restartMode but then it never gets restored to the default value. The doReload() method of the ReloadContext should restore it. This ensures the ServerInventoryService.stop() only uses the value set by HostProcessReloadHandler once, for that one reload. A concern here is that ServerInventoryService only goes into its \"shutdownServers\" logic if the restartMode \u003d\u003d RestartMode.SERVERS. Which, due to this bug, it will be following any HC reload. But if we restore the default value of restartMode, that is null, and null ! \u003d RestartMode.SERVERS. So the \"\"shutdownServers\" logic will no longer kick in. But should it? Should the default value of restartMode be \"null\"? Or should it be RestartMode.SERVERS? If we change the default from null, then the behavior when no reload has happened will change. Basically we need to decide whether the \"shutdownServers\" logic should happen by default."}
{"key":"WFCORE-1546","title":"Whitespaces in the middle of the value are siletly ignored","description":"Whitespace in the middle of value (e.g. adding a system property with a value like \"my property\") is silently ignored. Going to the history, this behaviour changed was introduced in EAP 6.0.1 6.0.0 /subsystem\u003dlogging/console-handler\u003dCONSOLE:write-attribute(name\u003dlevel, value\u003d   I   N   F   O) { \"outcome\" \u003d\u003e \"failed\", \"failure-description\" \u003d\u003e \"JBAS011539: Log level I   N   F   O is invalid.\" , \"rolled-back\" \u003d\u003e true } /system-property\u003dtest:add(value\u003dha ha ha) /system-property\u003dtest:read-attribute(name\u003dvalue) { \"outcome\" \u003d\u003e \"success\", \"result\" \u003d\u003e \"ha ha ha\" } 6.0.1 up to 7.0.0 /subsystem\u003dlogging/console-handler\u003dCONSOLE:write-attribute(name\u003dlevel, value\u003d   I   N   F   O) /subsystem\u003dlogging/console-handler\u003dCONSOLE:read-attribute(name\u003dlevel) { \"outcome\" \u003d\u003e \"success\", \"result\" \u003d\u003e \"INFO\" } /system-property\u003dtest:add(value\u003dha ha ha) /system-property\u003dtest:read-attribute(name\u003dvalue) { \"outcome\" \u003d\u003e \"success\", \"result\" \u003d\u003e \"hahaha\" } Main concern here is whether it is a correct behaviour to silently ignore the whitespace in the middle."}
{"key":"WFCORE-1657","title":"Confusing tab completion for adding a module dependencies","description":"Using tab completion for adding a module dependencies with module add command could lead to invalid module.xml as CLI prompt user to use module name with \"system.layers.base\" prefix, which is not a part of module name. reproduce Add a new module via module add command, use tab-completion for dependencies module add --name\u003d\u003cname\u003e --resources\u003d\u003cpath_to_jar\u003e --dependencies\u003d\u003cTAB\u003e module add --name\u003d\u003cname\u003e --resources\u003d\u003cpath_to_jar\u003e --dependencies\u003dsystem. \u003cTAB\u003e module add --name\u003d\u003cname\u003e --resources\u003d\u003cpath_to_jar\u003e --dependencies\u003dsystem.layers. \u003cTAB\u003e module add --name\u003d\u003cname\u003e --resources\u003d\u003cpath_to_jar\u003e --dependencies\u003dsystem.layers.base. \u003cTAB\u003e asm  ch  com  gnu  ibm  io  javaee  javax  net  nu  org  sun this way something like following is generated in module.xml file \u003cdependencies\u003e \u003cmodule name\u003d\"system.layers.base.org.jboss.as.controller\"/\u003e \u003c/dependencies\u003e however correct module name is org.jboss.as.controller"}
