{"key":"WFCORE-1188","title":"Exiting CLI requires stty sane command to be issued on Linux","description":"The PR https://github.com/wildfly/wildfly-core/pull/1268/ seemed to have introduced a regression where some times (seems to be most in my case) stty sane is required to get a shell back to normal. My guess is it\u0027s the aesh upgrade, but I\u0027m not certain on that so I\u0027ll start the JIRA here and it can be moved to AESH if necessary."}
{"key":"WFCORE-1214","title":"Operation headers not propagated to domain servers when \u0027composite\u0027 op is used","description":"When the user adds request headers to an op, they are not propagated to the servers during domain rollout if the \u0027composite\u0027 op is involved. For example, if I add some stdout printing of what the headers are on the various processes and invoke this: [domain@localhost:9990 /] deploy ~/tmp/helloworld. war --headers\u003d{blocking-timeout\u003d5;rollback-on-runtime-failure\u003dfalse} --all-server-groups Then on a HC with two servers, this is logged: [Host Controller] 10:53:40,697 INFO  [stdout] (management-handler-thread - 3) \"composite\" headers: { [Host Controller] 10:53:40,697 INFO  [stdout] (management-handler-thread - 3)     \"blocking-timeout\" \u003d\u003e \"5\", [Host Controller] 10:53:40,698 INFO  [stdout] (management-handler-thread - 3)     \"rollback-on-runtime-failure\" \u003d\u003e \"false\", [Host Controller] 10:53:40,698 INFO  [stdout] (management-handler-thread - 3)     \"caller-type\" \u003d\u003e \"user\", [Host Controller] 10:53:40,698 INFO  [stdout] (management-handler-thread - 3)     \"access-mechanism\" \u003d\u003e \"NATIVE\" [Host Controller] 10:53:40,698 INFO  [stdout] (management-handler-thread - 3) } [Host Controller] 10:53:40,727 INFO  [org.jboss.as.repository] (management-handler-thread - 3) WFLYDR0001: Content added at location /Users/bstansberry/dev/wildfly/wildfly-core/dist/target/wildfly-core-2.0.5. Final-SNAPSHOT/domain/data/content/6f/cd9eae343ed6d5aa9fffa83012d155b1ef911c/content [Server:server-one] 10:53:40,772 INFO  [stdout] (ServerService Thread Pool  11) \"composite\" headers: null [Server:server-two] 10:53:40,772 INFO  [stdout] (ServerService Thread Pool  11) \"composite\" headers: null The HC logs, then the servers report. The user-specified headers are not included. Invoke the same op without the batch and this is logged: [Host Controller] 10:43:50,400 INFO  [stdout] (management-handler-thread - 4) \"composite\" headers: { [Host Controller] 10:43:50,401 INFO  [stdout] (management-handler-thread - 4)     \"blocking-timeout\" \u003d\u003e \"5\", [Host Controller] 10:43:50,401 INFO  [stdout] (management-handler-thread - 4)     \"rollback-on-runtime-failure\" \u003d\u003e \"false\", [Host Controller] 10:43:50,401 INFO  [stdout] (management-handler-thread - 4)     \"caller-type\" \u003d\u003e \"user\", [Host Controller] 10:43:50,401 INFO  [stdout] (management-handler-thread - 4)     \"access-mechanism\" \u003d\u003e \"NATIVE\" [Host Controller] 10:43:50,401 INFO  [stdout] (management-handler-thread - 4) } [Host Controller] 10:43:50,425 INFO  [org.jboss.as.repository] (management-handler-thread - 4) WFLYDR0001: Content added at location /Users/bstansberry/dev/wildfly/wildfly-core/dist/target/wildfly-core-2.0.5. Final-SNAPSHOT/domain/data/content/6f/cd9eae343ed6d5aa9fffa83012d155b1ef911c/content [Server:server-two] 10:43:50,464 INFO  [stdout] (ServerService Thread Pool -- 11) \"composite\" headers: { [Server:server-two] 10:43:50,464 INFO  [stdout] (ServerService Thread Pool -- 11)     \"blocking-timeout\" \u003d\u003e \"5\", [Server:server-two] 10:43:50,464 INFO  [stdout] (ServerService Thread Pool -- 11)     \"rollback-on-runtime-failure\" \u003d\u003e \"false\", [Server:server-one] 10:43:50,464 INFO  [stdout] (ServerService Thread Pool -- 11) \"composite\" headers: { [Server:server-two] 10:43:50,464 INFO  [stdout] (ServerService Thread Pool -- 11)     \"access-mechanism\" \u003d\u003e \"NATIVE\", [Server:server-one] 10:43:50,465 INFO  [stdout] (ServerService Thread Pool -- 11)     \"blocking-timeout\" \u003d\u003e \"5\", [Server:server-two] 10:43:50,465 INFO  [stdout] (ServerService Thread Pool -- 11)     \"domain-uuid\" \u003d\u003e \"216d2e99-dba5-4c89-8020-b0c16bd553c5\" [Server:server-one] 10:43:50,465 INFO  [stdout] (ServerService Thread Pool -- 11)     \"rollback-on-runtime-failure\" \u003d\u003e \"false\", [Server:server-two] 10:43:50,465 INFO  [stdout] (ServerService Thread Pool -- 11) } [Server:server-one] 10:43:50,465 INFO  [stdout] (ServerService Thread Pool -- 11)     \"access-mechanism\" \u003d\u003e \"NATIVE\", [Server:server-one] 10:43:50,465 INFO  [stdout] (ServerService Thread Pool -- 11)     \"domain-uuid\" \u003d\u003e \"216d2e99-dba5-4c89-8020-b0c16bd553c5\" [Server:server-one] 10:43:50,465 INFO  [stdout] (ServerService Thread Pool -- 11) } Expected headers are present. Note the CLI \u0027deploy\u0027 is far from the only time the \u0027composite\u0027 op is used. Among other places, the high level CLI \u0027batch\u0027 command in a domain involves use of \u0027composite\u0027."}
{"key":"WFCORE-1212","title":"TestModule does not clean up after itself properly","description":"TestModule.create() calls mkdirs() to create its filesystem structure, but remove() only removes the dir above \u0027main\u0027 and below, leaving behind intermediate dirs. The result of this is if you run the full testsuite with -Dts.basic, the dist/target/wildflyxxx/modules dir ends up with child dir \u0027test\u0027 in addition to the proper \u0027system\u0027. I\u0027m not sure why this spurious dir doesn\u0027t end up in the final dists we publish. Perhaps its just luck due to the release process not running the testsuite when the final build with the \u0027deploy\u0027 target is invoked. I know my process for releasing WildFly Core doesn\u0027t re-run tests in that step. Once remove() does its current work it should walk up the filesystem tree until it gets to the file returned by getModulesDir(). For each level in the tree it should check if that file is a dir with no children and if it is it should remove the dir. https://issues.jboss.org/browse/JBEAP-2374"}
{"key":"WFCORE-1210","title":"Transformations are not triggered for aliases","description":"Currently only operations passed in to the controller by the client are passed over to the transformers. So if you have an alias /an\u003dalias mapping to /some\u003dresource, and a transformer mapped for /some\u003dresource: /some\u003dresource:add gets transformed /an\u003dalias:add does not get transformed. Behind the scenes /an\u003dalias:add ends up in AliasStepHandler, which adds the step to invoke the real /some\u003dresource:add. Unfortunately the /some\u003dresource:add does not get passed to the transformers. The transformer framework should use the same logic as AliasStepHandler to map the alias to the real address and the transform that."}
{"key":"WFCORE-1198","title":"CLI does not resolve multiple properties if one property is undefined","description":"https://bugzilla.redhat.com/show_bug.cgi?id\u003d1289316 description: Multiple property substitution is working with EAP 6.4.3+, however, if a variable amongst the multiple variables is empty or has no value, then the subsequent property in the CLI command is not substituted. For example : cat props.properties ----------------------------------------- PROFILE-NAME\u003dTestProfile SERVER-INSTANCE-NUMBER\u003dTestInstance APP-VERSION\u003d VAR\u003dtest ----------------------------------------- cat test.cli : --------------------------------------- /host\u003dmaster/server-config\u003d${PROFILE-NAME}${APP-VERSION}${SERVER-INSTANCE-NUMBER}${VAR}:add(auto-start\u003dtrue, group\u003d\"${PROFILE-NAME}${APP-VERSION}-server-group\") --------------------------------------- and if I execute \". /jboss-cli.sh --connect --file\u003dtest.cli --properties\u003dprops.properties\" then I have the following in the host.xml \": ---------- ... \u003cserver name\u003d\"TestProfile${SERVER-INSTANCE-NUMBER}test\" group\u003d\"TestProfile-server-group\" auto-start\u003d\"true\"/\u003e ... ----------- Note APP-VERSION had no value, and so the subsequent SERVER-INSTANCE-NUMBER was not properly resolved"}
