{"key":"WFCORE-1611","title":"CLI could stuck if SIGINT is send during authentication dialogue","description":"Interruption a CLI session with Ctrl+C during authentication dialogue could get CLI into unresponsive state. reproduce Either use a remote server, --no-local-auth cli script arg or remove a local element from ManagementRealm configuration \u003csecurity-realms\u003e \u003csecurity-realm name\u003d\"ManagementRealm\"\u003e \u003cauthentication\u003e -                    \u003clocal default-user\u003d\"$local\" skip-group-loading\u003d\"true\"/\u003e start a standalone server and launch a CLI [pkremens@localhost] $ . /standalone.sh \u0026 [pkremens@localhost] $ . /jboss-cli.sh [disconnected /] connect Authenticating against security realm: ManagementRealm Username: \u003cPress Ctrl+C here\u003e Could not connect message is printed, but process is not terminated and stuck at this point. The controller is not available at localhost:9990: java.net.ConnectException: WFLYPRT0023: Could not connect to http-remoting://localhost:9990. The connection timed out: WFLYPRT0023: Could not connect to http-remoting://localhost:9990. The connection timed out Only way to recover the terminal is to SIGKILL the CLI process."}
{"key":"WFCORE-1908","title":"Tab completion suggest writing attribute which has access type metric and is not writable","description":"CLI tab completion suggests attributes that are not writable and their access-type is metric Example /subsystem\u003dmessaging-activemq/server\u003ddefault/jms-queue\u003dDLQ:write-attribute(name\u003d\u003cTAB\u003e consumer-count  delivering-count  entries  legacy-entries  message-count  messages-added  scheduled-count From executing :read-resource-description we can see, attributes consumer-count, delivering-count, message-count, messages-added, scheduled-count are of type metric. On attempt to write metric attribute, for example message-count, non writable error is printed [standalone@localhost:9990 jms-queue\u003dq] :write-attribute(name\u003dmessage-count, value\u003d5) { \"outcome\" \u003d\u003e \"failed\", \"failure-description\" \u003d\u003e \"WFLYCTL0048: Attribute message-count is not writable\", \"rolled-back\" \u003d\u003e true } CLI should not suggest writing attributes that are not writable."}
{"key":"WFCORE-1578","title":"Better check of names of existing resources when adding \u0027{local|remote-destination-outbound-socket-binding\u0027","description":"Lets have some /socket-binding-group\u003dstandard-sockets/socket-binding with particular name. Then when I create some /socket-binding-group\u003dstandard-sockets/remote-destination-outbound-socket-binding or /socket-binding-group\u003dstandard-sockets/local-destination-outbound-socket-binding using same name as of already existing socket-binding resource, add operation is successful but when I perform server reload, it crashes as it is not able to parse configuration. See: Start EAP and log to CLI create your own socket-binding resource and {remote|local}-destination-outbound-socket-binding resource with same names and perform reload /socket-binding-group\u003dstandard-sockets/socket-binding\u003dmyBinding:add() /socket-binding-group\u003dstandard-sockets/remote-destination-outbound-socket-binding\u003dmyBinding:add(host\u003dlocalhost,port\u003d8765) or /socket-binding-group\u003dstandard-sockets/local-destination-outbound-socket-binding\u003dmyBinding:add(socket-binding-ref\u003dhttp) reload server crashes with following stacktrace in console log: 17:31:40,447 INFO  [org.jboss.as.connector.deployers.jdbc] (MSC service thread 1-7) WFLYJCA0019: Stopped Driver service with driver-name \u003d h2 17:31:40,453 INFO  [org.wildfly.extension.undertow] (MSC service thread 1-8) WFLYUT0008: Undertow HTTP listener default suspending 17:31:40,454 INFO  [org.wildfly.extension.undertow] (MSC service thread 1-8) WFLYUT0007: Undertow HTTP listener default stopped, was bound to 127.0.0.1:8080 17:31:40,454 INFO  [org.wildfly.extension.undertow] (MSC service thread 1-3) WFLYUT0004: Undertow 1.3.21.Final-redhat-1 stopping 17:31:40,458 INFO  [org.jboss.as.mail.extension] (MSC service thread 1-7) WFLYMAIL0002: Unbound mail session [java:jboss/mail/Default] 17:31:40,461 INFO  [org.jboss.as] (MSC service thread 1-5) WFLYSRV0050: JBoss EAP 7.0.0. GA (WildFly Core 2.1.2.Final-redhat-1) stopped in 22ms 17:31:40,461 INFO  [org.jboss.as] (MSC service thread 1-5) WFLYSRV0049: JBoss EAP 7.0.0. GA (WildFly Core 2.1.2.Final-redhat-1) starting 17:31:40,489 ERROR [org.jboss.as.server] (Controller Boot Thread) WFLYSRV0055: Caught exception during boot: org.jboss.as.controller.persistence.ConfigurationPersistenceException: WFLYCTL0085: Failed to parse configuration \tat org.jboss.as.controller.persistence.XmlConfigurationPersister.load(XmlConfigurationPersister.java:131) \tat org.jboss.as.server.ServerService.boot(ServerService.java:356) \tat org.jboss.as.controller.AbstractControllerService$1.run(AbstractControllerService.java:299) \tat java.lang.Thread.run(Thread.java:745) Caused by: javax.xml.stream.XMLStreamException: ParseError at [row,col]:[410,9] Message: WFLYCTL0042: A socket-binding or a outbound-socket-binding myBinding already declared has already been declared in socket-binding-group standard-sockets at org.jboss.as.server.parsing.StandaloneXml_4. parseSocketBindingGroup(StandaloneXml_4.java:518) at org.jboss.as.server.parsing.StandaloneXml_4. readServerElement(StandaloneXml_4.java:254) at org.jboss.as.server.parsing.StandaloneXml_4. readElement(StandaloneXml_4.java:141) \tat org.jboss.as.server.parsing.StandaloneXml.readElement(StandaloneXml.java:103) \tat org.jboss.as.server.parsing.StandaloneXml.readElement(StandaloneXml.java:49) \tat org.jboss.staxmapper.XMLMapperImpl.processNested(XMLMapperImpl.java:110) \tat org.jboss.staxmapper.XMLMapperImpl.parseDocument(XMLMapperImpl.java:69) \tat org.jboss.as.controller.persistence.XmlConfigurationPersister.load(XmlConfigurationPersister.java:123) \t... 3 more 17:31:40,490 FATAL [org.jboss.as.server] (Controller Boot Thread) WFLYSRV0056: Server boot has failed in an unrecoverable manner; exiting. See previous messages for details. 17:31:40,491 INFO  [org.jboss.as.server] (Thread-2) WFLYSRV0220: Server shutdown has been requested. 17:31:40,496 INFO  [org.jboss.as] (MSC service thread 1-2) WFLYSRV0050: JBoss EAP 7.0.0. GA (WildFly Core 2.1.2.Final-redhat-1) stopped in 3ms After this occurs, one needs to fix . /standalone/configuration/standalone.xml manually by removing duplicate resources. If there is a problem for those resources to have same names I would welcome that names are checked during the add operation already regarding to all resources in socket-binding and {remote|local}-destination-outbound-socket-binding. Note: not sure whether CLI component is appropriate, please change if there is better component for this."}
{"key":"WFCORE-1915","title":"ParseUtils.parseAttributeValue should not fail due to DMR type conversions","description":"The task of ParseUtils.parseAttributeValue is to convert a string into a ModelNode. The type of the ModelNode is not particularly important, as later code will do type conversion. And, it is not the job of this method to do validation; there is other code that does that. So, the type conversion this method does should not be allowed to produce failures. Continuing to try the conversion is ok, although not required, but if a conversion can\u0027t succeed the pre-conversion ModelType.STRING node should be returned."}
{"key":"WFCORE-1936","title":"Value of parameters \"restart-required\" for fixed-*port attributes does not match reality for socket-binding and *-destination-outbound-socket-binding in CLI","description":"fixed-port attribute of socket-binding and fixed-source-port attributes of *-destination-outbound-socket-binding define in its description that there is not necessary to do reload or restart for any of them. But reality is different. If you tries to change such attributes you are informed that reload is necessary. The attributes are defined as \"restart-required\" \u003d\u003e \"no-services\", see /socket-binding-group\u003dstandard-sockets:read-resource-description(recursive\u003dtrue)"}
{"key":"WFCORE-1635","title":"Write attribute on a new deployment scanner fails in batch","description":"Creating a new deployment-scanner and altering it\u0027s attribute fails if done in single batch. Running the commands without batch or running batch on CLI embed-server works fine. reproduce batch /subsystem\u003ddeployment-scanner/scanner\u003dscan:add(path\u003dlog, relative-to\u003d\"jboss.server.base.dir\", auto-deploy-exploded\u003dfalse, scan-enabled\u003dfalse) /subsystem\u003ddeployment-scanner/scanner\u003dscan:write-attribute(name\u003dscan-interval, value\u003d6000) run-batch fails with 08:09:19,076 ERROR [org.jboss.as.controller.management-operation] (management-handler-thread - 4) WFLYCTL0013: Operation (\"write-attribute\") failed - address: ([ (\"subsystem\" \u003d\u003e \"deployment-scanner\"), (\"scanner\" \u003d\u003e \"scan\") ]): java.lang.IllegalStateException \tat org.jboss.as.server.deployment.scanner.DeploymentScannerService.getValue(DeploymentScannerService.java:234) \tat org.jboss.as.server.deployment.scanner.DeploymentScannerService.getValue(DeploymentScannerService.java:62) \tat org.jboss.msc.service.ServiceControllerImpl.getValue(ServiceControllerImpl.java:1158) \tat org.jboss.as.controller.OperationContextImpl$OperationContextServiceController.getValue(OperationContextImpl.java:2282) \tat org.jboss.as.server.deployment.scanner.AbstractWriteAttributeHandler.applyUpdateToRuntime(AbstractWriteAttributeHandler.java:58) \tat org.jboss.as.controller.AbstractWriteAttributeHandler$1.execute(AbstractWriteAttributeHandler.java:104) \tat org.jboss.as.controller.AbstractOperationContext.executeStep(AbstractOperationContext.java:890) \tat org.jboss.as.controller.AbstractOperationContext.processStages(AbstractOperationContext.java:659) \tat org.jboss.as.controller.AbstractOperationContext.executeOperation(AbstractOperationContext.java:370) \tat org.jboss.as.controller.OperationContextImpl.executeOperation(OperationContextImpl.java:1344) \tat org.jboss.as.controller.ModelControllerImpl.internalExecute(ModelControllerImpl.java:392) \tat org.jboss.as.controller.ModelControllerImpl.execute(ModelControllerImpl.java:217) \tat org.jboss.as.controller.remote.ModelControllerClientOperationHandler$ExecuteRequestHandler.doExecute(ModelControllerClientOperationHandler.java:208) \tat org.jboss.as.controller.remote.ModelControllerClientOperationHandler$ExecuteRequestHandler.access$300(ModelControllerClientOperationHandler.java:130) \tat org.jboss.as.controller.remote.ModelControllerClientOperationHandler$ExecuteRequestHandler$1$1.run(ModelControllerClientOperationHandler.java:152) \tat org.jboss.as.controller.remote.ModelControllerClientOperationHandler$ExecuteRequestHandler$1$1.run(ModelControllerClientOperationHandler.java:148) \tat java.security.AccessController.doPrivileged(AccessController.java:686) \tat javax.security.auth.Subject.doAs(Subject.java:569) \tat org.jboss.as.controller.AccessAuditContext.doAs(AccessAuditContext.java:92) \tat org.jboss.as.controller.remote.ModelControllerClientOperationHandler$ExecuteRequestHandler$1.execute(ModelControllerClientOperationHandler.java:148) \tat org.jboss.as.protocol.mgmt.AbstractMessageHandler$ManagementRequestContextImpl$1.doExecute(AbstractMessageHandler.java:363) \tat org.jboss.as.protocol.mgmt.AbstractMessageHandler$AsyncTaskRunner.run(AbstractMessageHandler.java:472) \tat java.util.concurrent.ThreadPoolExecutor.runWorker(ThreadPoolExecutor.java:1153) \tat java.util.concurrent.ThreadPoolExecutor$Worker.run(ThreadPoolExecutor.java:628) \tat java.lang.Thread.run(Thread.java:785) \tat org.jboss.threads.JBossThread.run(JBossThread.java:320) using the embed server works embed-server batch /subsystem\u003ddeployment-scanner/scanner\u003dscan:add(path\u003dlog, relative-to\u003d\"jboss.server.base.dir\", auto-deploy-exploded\u003dfalse, scan-enabled\u003dfalse) /subsystem\u003ddeployment-scanner/scanner\u003dscan:write-attribute(name\u003dscan-interval, value\u003d6000) run-batch Setting only as minor as there is no real use case behind this (scan-interval can be set while adding a new scanner) - run into it quite accidentally. No regression against previous release."}
{"key":"WFCORE-1896","title":"Deployment operation browse-content(archive\u003dtrue) does not return archives in archived deployments","description":"Deployment operation browse-content(archive\u003dtrue) does not return archives in archived deployments: [standalone@localhost:9990 /] /deployment\u003djboss-kitchensink-ear. ear:browse-content() { \"outcome\" \u003d\u003e \"success\", \"result\" \u003d\u003e [ { \"path\" \u003d\u003e \"jboss-kitchensink-ear-web. war\", \"directory\" \u003d\u003e false, \"file-size\" \u003d\u003e 63190L }, { \"path\" \u003d\u003e \"jboss-kitchensink-ear-ejb.jar\", \"directory\" \u003d\u003e false, \"file-size\" \u003d\u003e 12256L }, { \"path\" \u003d\u003e \"META-INF/maven/org.jboss.quickstarts.eap/jboss-kitchensink-ear-ear/pom.xml\", \"directory\" \u003d\u003e false, \"file-size\" \u003d\u003e 5582L }, { \"path\" \u003d\u003e \"META-INF/maven/org. jboss.quickstarts.eap/jboss-kitchensink-ear-ear/pom.properties\", \"directory\" \u003d\u003e false, \"file-size\" \u003d\u003e 143L }, { \"path\" \u003d\u003e \"META-INF/maven/org. jboss.quickstarts.eap/jboss-kitchensink-ear-ear/\", \"directory\" \u003d\u003e true }, { \"path\" \u003d\u003e \"META-INF/maven/org. jboss.quickstarts.eap/\", \"directory\" \u003d\u003e true }, { \"path\" \u003d\u003e \"META-INF/maven/\", \"directory\" \u003d\u003e true }, { \"path\" \u003d\u003e \"META-INF/MANIFEST. MF\", \"directory\" \u003d\u003e false, \"file-size\" \u003d\u003e 130L }, { \"path\" \u003d\u003e \"META-INF/application.xml\", \"directory\" \u003d\u003e false, \"file-size\" \u003d\u003e 802L }, { \"path\" \u003d\u003e \"META-INF/kitchensink-ear-quickstart-ds.xml\", \"directory\" \u003d\u003e false, \"file-size\" \u003d\u003e 1955L }, { \"path\" \u003d\u003e \"META-INF/\", \"directory\" \u003d\u003e true } ] } [standalone@localhost:9990 /] /deployment\u003djboss-kitchensink-ear. ear:browse-content(archive\u003dtrue) {\"outcome\" \u003d\u003e \"success\"} It works correctly with exploded deployments: [standalone@localhost:9990 /] /deployment\u003djboss-kitchensink-ear. ear:undeploy {\"outcome\" \u003d\u003e \"success\"} [standalone@localhost:9990 /] /deployment\u003djboss-kitchensink-ear. ear:explode {\"outcome\" \u003d\u003e \"success\"} [standalone@localhost:9990 /] /deployment\u003djboss-kitchensink-ear. ear:deploy {\"outcome\" \u003d\u003e \"success\"} [standalone@localhost:9990 /] /deployment\u003djboss-kitchensink-ear. ear:browse-content(archive\u003dtrue) { \"outcome\" \u003d\u003e \"success\", \"result\" \u003d\u003e [ { \"path\" \u003d\u003e \"jboss-kitchensink-ear-web. war\", \"directory\" \u003d\u003e false, \"file-size\" \u003d\u003e 63190L }, { \"path\" \u003d\u003e \"jboss-kitchensink-ear-ejb.jar\", \"directory\" \u003d\u003e false, \"file-size\" \u003d\u003e 12256L } ] }"}
{"key":"WFCORE-1959","title":"Deploying an empty managed exploded deployment to server group in domain fails","description":"Deploying an empty exploded deployment created on domain controller fails with the following: [domain@localhost:9990 /] /deployment\u003dempty-deployment.jar:add(content\u003d[{empty\u003dtrue}]) { \"outcome\" \u003d\u003e \"success\", \"result\" \u003d\u003e undefined, \"server-groups\" \u003d\u003e undefined } [domain@localhost:9990 /] /server-group\u003dmain-server-group/deployment\u003dempty-deployment.jar:add() { \"outcome\" \u003d\u003e \"failed\", \"result\" \u003d\u003e undefined, \"failure-description\" \u003d\u003e {\"WFLYDC0074: Operation failed or was rolled back on all servers. Server failures:\" \u003d\u003e {\"server-group\" \u003d\u003e {\"main-server-group\" \u003d\u003e {\"host\" \u003d\u003e {\"master\" \u003d\u003e { \"server-one\" \u003d\u003e \"WFLYSRV0201: Cannot have more than one of [bytes, input-stream-index, hash, url, empty]\", \"server-two\" \u003d\u003e \"WFLYSRV0201: Cannot have more than one of [bytes, input-stream-index, hash, url, empty]\" }}}}}}, \"rolled-back\" \u003d\u003e true, \"server-groups\" \u003d\u003e {\"main-server-group\" \u003d\u003e {\"host\" \u003d\u003e {\"master\" \u003d\u003e { \"server-one\" \u003d\u003e {\"response\" \u003d\u003e { \"outcome\" \u003d\u003e \"failed\", \"failure-description\" \u003d\u003e \"WFLYSRV0201: Cannot have more than one of [bytes, input-stream-index, hash, url, empty]\", \"rolled-back\" \u003d\u003e true }}, \"server-two\" \u003d\u003e {\"response\" \u003d\u003e { \"outcome\" \u003d\u003e \"failed\", \"failure-description\" \u003d\u003e \"WFLYSRV0201: Cannot have more than one of [bytes, input-stream-index, hash, url, empty]\", \"rolled-back\" \u003d\u003e true }} }}}} }"}
{"key":"WFCORE-1590","title":"Default parameter length validating ignores setMinSize(0)","description":"With the following attribute definition: - static final SimpleAttributeDefinition REPLACEMENT \u003d new SimpleAttributeDefinitionBuilder(ElytronDescriptionConstants.REPLACEMENT, ModelType.STRING, false) . setAllowExpression(true) . setMinSize(0) . setFlags(AttributeAccess.Flag.RESTART_RESOURCE_SERVICES) . build(); The following error is reported if an empty string is used as a parameter: - [standalone@localhost:9990 /] . /subsystem\u003delytron/regex-name-rewriter\u003dstrip-realm:add(pattern\u003d\"@ELYTRON. ORG\", replacement\u003d\"\", replace-all\u003dtrue) { \"outcome\" \u003d\u003e \"failed\", \"failure-description\" \u003d\u003e \"WFLYCTL0113: \u0027\u0027 is an invalid value for parameter replacement. Values must have a minimum length of 1 characters\", \"rolled-back\" \u003d\u003e true }"}
{"key":"WFCORE-1980","title":"Property file passed via CLI does not resolve expressions with relative path value in vault attributes","description":"Property file passed via CLI with --properties option does not resolve expressions in EAP 7, where in EAP 6 it works fine."}
{"key":"WFCORE-1710","title":"WFCORE-1106 work ignores fact that HostCapabilityScope exists","description":"The WFCORE-1106 work for checking the runtime status of a capability assumes that only CapabilityScope.GLOBAL should be relevant when the check is performed. But this omits HostCapabilityScope which comes into play when host controller subsystems are used."}
{"key":"WFCORE-1992","title":"CLI inconsistently parse {} in another object as UNDEFINED","description":"CLI interprets {} as blank object in resource attribute (correct), but as UNDEFINED in object attribute. (in model parameter of performRuntime of ADD operation) /subsystem\u003delytron/properties-realm\u003drealm:add(users-properties\u003d{path\u003d$SOME_PATH},groups-properties\u003d{}) \u003d\u003e groups-properties \u003d OBJECT {} /subsystem\u003delytron/ldap-realm\u003dldap-realm8:add(dir-context\u003dlocal-ldap,identity-mapping\u003d{rdn-identifier\u003duid,otp-credential-mapper\u003d{}}) \u003d\u003e otp-credential-mapper\u003dUNDEFINED"}
{"key":"WFCORE-1687","title":"WFLYCTL0357 warning upon undeploying any deployment","description":"EAP produces following warning upon undeployment: WARN  [org.jboss.as.controller] (management-handler-thread - 4) WFLYCTL0357: Notification of type deployment-undeployed is not described for the resource at the address [] The warning is produced for both managed and unmanaged deployments."}
{"key":"WFCORE-2013","title":"Unable to access http management interface secured by legacy ldap realm","description":"When http management interface is secured with legacy security realm using ldap, user is not prompted to provide credentials as should be in case of BASIC http authentication mechanism. Instead 403 http status is returned directly. Users won\u0027t be able to migrate their current (6.4, 7.0) configuration to 7.1 without change."}
{"key":"WFCORE-1115","title":"Intermittent failures of CompositeOperationTestCase \u0026 CoreResourceManagementTestCase","description":"org.jboss.as.test.integration.domain.suites.CompositeOperationTestCase and org.jboss.as.test.integration.domain.suites.CoreResourceManagementTestCase from wildfly-core testsuite domain module starts to intermittently fail since 7.0.0. DR13 (2.0.0. CR8). Tests fails only once I run the whole Domain Mode Integration Tests module, running only these two tests in isolation never fails. Reproducer job which starts the tests in testsuite/domain module: - 2.0.0. CR6 - intermittent failures of HcExtensionAndSubsystemManagementTestCase JBEAP-1598 - 2.0.0. CR7 - intermittent failures of HcExtensionAndSubsystemManagementTestCase JBEAP-1598 - 2.0.0. CR8 - no more HcExtensionAndSubsystemManagementTestCase failures, CompositeOperationTestCase and CoreResourceManagementTestCase starts failing - 3.0.0.Alpha1-SNAPSHOT - CompositeOperationTestCase and CoreResourceManagementTestCase intermittent fails Attaching surefire reports."}
{"key":"WFCORE-1718","title":"Handlers within Audit Logger are not removed properly when Audit Logger is removed","description":"If Audit Logger is removed, destination handlers (i.e. its child nodes) are not removed properly. They are not present in the config file. They seem to be not removed \"internally\" though. This leads to a couple of issues: 1. It is not possible to remove referenced File/Syslog handlers. If user tries to remove them the NullPointerException is given as a result. Try following commands: /core-service\u003dmanagement/access\u003daudit/file-handler\u003dfile:remove() /core-service\u003dmanagement/access\u003daudit/syslog-handler\u003dmy-syslog-handler:remove() Their output is: { \"outcome\" \u003d\u003e \"failed\", \"failure-description\" \u003d\u003e \"WFLYCTL0158: Operation handler failed: java.lang.NullPointerException\", \"rolled-back\" \u003d\u003e true } 2. AuditLog continues to send auditable events to previously referenced File/Syslog handlers. Create auditable event (e.g. /subsystem\u003dlogging/logger\u003dcom.arjuna:write-attribute(name\u003dlevel,value\u003dDEBUG)) See log in the file (WILDFLY_HOME/standalone/data/audit-log.log) See log in the syslog (/var/log/messages)"}
{"key":"WFCORE-2008","title":"Unable to use path in input-stream-index argument in /core-service\u003dpatching:patch","description":"File system paths should be allowed as arguments for /core-service\u003dpatching:patch(input-stream-index\u003d)"}
{"key":"WFCORE-2021","title":"\"ls /socket-binding-group\u003d*\" should print proper error message","description":"\"ls /socket-binding-group\u003d\" should print proper error message. Similar operation \"ls /subsystem\u003d\" print good error message. [standalone@localhost:9990 /] ls /subsystem\u003d* {\"WFLYCTL0062: Composite operation failed and was rolled back. Steps that failed:\" \u003d\u003e {\"Operation step-1\" \u003d\u003e \"WFLYCTL0030: No resource definition is registered for address [(\\\"subsystem\\\" \u003d\u003e \\\"*\\\")]\"}} [standalone@localhost:9990 /] ls /socket-binding-group\u003d* Exception for ls /socket-binding-group\u003d*: java.lang.IllegalArgumentException [standalone@localhost:9990 /]"}
{"key":"WFCORE-1642","title":"Fix domain mode for configuration changes","description":"The configuration changes feature is broken in domain mode: the propagation to managed servers / slaves HC doesn\u0027t work properly. Once set it will fail on restarting the DC. So we need a clean refactoring of the feature to have a usable domain mode."}
{"key":"WFCORE-2083","title":"Reduce number of object allocations and memory footprint","description":"Profiler shows that we lots of duplicate object allocations with empty arrays It also shows that lots of our builder objects are kept in memory even after builder did its job and created the object. There are also cases where inner classes should be static to prevent capturing object reference to be kept and many other cases."}
{"key":"WFCORE-1708","title":"ReconnectSyslogServerTestCase from wf-core fails intermittently","description":"Description of problem: ReconnectSyslogServerTestCase from wf-core fails intermittently. How reproducible: 2% Actual results: Stacktrace: java.lang.AssertionError: No message was logged into the TCP syslog after second syslog server restart \tat org.junit.Assert.fail(Assert.java:88) \tat org.junit.Assert.assertTrue(Assert.java:41) \tat org.junit.Assert.assertNotNull(Assert.java:712) \tat org.jboss.as.test.manualmode.logging.ReconnectSyslogServerTestCase.testReconnectSyslogServer(ReconnectSyslogServerTestCase.java:118) Standard Output: 10:59:13,639 INFO  [org.wildfly.core.testrunner.Server] (main) Starting container with: /qa/tools/opt/x86_64/jdk1.8.0_91/jre/bin/java -D[Standalone] -javaagent:/mnt/hudson_workspace/workspace/eap-7x-as-testsuite-test-core/0728bde1/eap-local-maven-repository/org/jboss/byteman/byteman/3.0.3/byteman-3.0.3.jar\u003dport:9091,boot:/mnt/hudson_workspace/workspace/eap-7x-as-testsuite-test-core/0728bde1/eap-local-maven-repository/org/jboss/byteman/byteman/3.0.3/byteman-3.0.3.jar,sys:/mnt/hudson_workspace/workspace/eap-7x-as-testsuite-test-core/0728bde1/testsuite/shared/target/wildfly-core-testsuite-shared-3.0.0.Alpha4-redhat-1.jar -Dorg.jboss.byteman.transform.all -Dorg.jboss.byteman.verbose\u003dtrue -Dmaven.repo.local\u003d/mnt/hudson_workspace/workspace/eap-7x-as-testsuite-test-core/0728bde1/eap-local-maven-repository -Xmx512m -XX:MaxMetaspaceSize\u003d256m -Djboss.dist\u003d/mnt/hudson_workspace/workspace/eap-7x-as-testsuite-test-core/0728bde1/testsuite/manualmode/target/wildfly-core -Djava.net.preferIPv4Stack\u003dtrue -Djava.net.preferIPv6Addresses\u003dfalse -server -Dts.timeout.factor\u003d100 -Djbossas.ts.dir\u003d/mnt/hudson_workspace/workspace/eap-7x-as-testsuite-test-core/0728bde1/testsuite/manualmode -ea -Dorg.jboss.boot.log.file\u003d/mnt/hudson_workspace/workspace/eap-7x-as-testsuite-test-core/0728bde1/testsuite/manualmode/target/wildfly-core/standalone/log/server.log -Dlogging.configuration\u003dfile:/mnt/hudson_workspace/workspace/eap-7x-as-testsuite-test-core/0728bde1/testsuite/manualmode/target/wildfly-core/standalone/configuration/logging. properties -jar /mnt/hudson_workspace/workspace/eap-7x-as-testsuite-test-core/0728bde1/testsuite/manualmode/target/wildfly-core/jboss-modules.jar -mp /mnt/hudson_workspace/workspace/eap-7x-as-testsuite-test-core/0728bde1/testsuite/manualmode/target/wildfly-core/modules org.jboss.as.standalone -Djboss.home.dir\u003d/mnt/hudson_workspace/workspace/eap-7x-as-testsuite-test-core/0728bde1/testsuite/manualmode/target/wildfly-core -Djboss.server.base.dir\u003d/mnt/hudson_workspace/workspace/eap-7x-as-testsuite-test-core/0728bde1/testsuite/manualmode/target/wildfly-core/standalone -Djboss.server.log.dir\u003d/mnt/hudson_workspace/workspace/eap-7x-as-testsuite-test-core/0728bde1/testsuite/manualmode/target/wildfly-core/standalone/log -Djboss.server.config.dir\u003d/mnt/hudson_workspace/workspace/eap-7x-as-testsuite-test-core/0728bde1/testsuite/manualmode/target/wildfly-core/standalone/configuration -c\u003dstandalone.xml -bmanagement\u003d10.16.180.146 -Djboss.http.port\u003d8080 -Djboss.bind.address\u003d10.16.180.146 10:59:13,849 INFO  [org.xnio] (main) XNIO version 3.4.0. Beta2 10:59:13,950 INFO  [org.xnio.nio] (main) XNIO NIO Implementation Version 3.4.0. Beta2 TransformListener() : accepting requests on localhost:9091 10:59:14,238 INFO  [org.jboss.remoting] (main) JBoss Remoting version 4.0.21.Final-redhat-1 \u0026amp#27;[0m10:59:15,448 INFO  [org.jboss.modules] (main) JBoss Modules version 1.5.2.Final-redhat-1 \u0026amp#27;[0m\u0026amp#27;[0m10:59:16,071 INFO  [org.jboss.msc] (main) JBoss MSC version 1.2.6.Final-redhat-1 \u0026amp#27;[0m\u0026amp#27;[0m10:59:16,385 INFO  [org.jboss.as] (MSC service thread 1-2) WFLYSRV0049: WildFly Core 3.0.0.Alpha4-redhat-1 \"Kenny\" starting \u0026amp#27;[0m\u0026amp#27;[0m10:59:17,878 INFO  [org.jboss.as.server] (Controller Boot Thread) WFLYSRV0039: Creating http management service using socket-binding (management-http) \u0026amp#27;[0m\u0026amp#27;[0m10:59:17,983 INFO  [org.xnio] (MSC service thread 1-2) XNIO version 3.4.0. Beta2 \u0026amp#27;[0m\u0026amp#27;[0m10:59:18,004 INFO  [org.xnio.nio] (MSC service thread 1-2) XNIO NIO Implementation Version 3.4.0. Beta2 \u0026amp#27;[0m\u0026amp#27;[0m10:59:18,144 INFO  [org.jboss.as.patching] (MSC service thread 1-1) WFLYPAT0050: WildFly cumulative patch ID is: base, one-off patches include: none \u0026amp#27;[0m\u0026amp#27;[0m10:59:18,180 INFO  [org.jboss.remoting] (MSC service thread 1-2) JBoss Remoting version 4.0.21.Final-redhat-1 \u0026amp#27;[0m\u0026amp#27;[33m10:59:18,208 WARN  [org.jboss.as.domain.management.security] (MSC service thread 1-1) WFLYDM0111: Keystore /mnt/hudson_workspace/workspace/eap-7x-as-testsuite-test-core/0728bde1/testsuite/manualmode/target/wildfly-core/standalone/configuration/application. keystore not found, it will be auto generated on first use with a self signed certificate for host localhost \u0026amp#27;[0m\u0026amp#27;[33m10:59:18,352 WARN  [org.jboss.as.domain.http.api.undertow] (MSC service thread 1-1) WFLYDMHTTP0003: Unable to load console module for slot main, disabling console \u0026amp#27;[0m\u0026amp#27;[0m10:59:18,924 INFO  [org.jboss.as] (Controller Boot Thread) WFLYSRV0060: Http management interface listening on http://10.16.180.146:9990/management \u0026amp#27;[0m\u0026amp#27;[0m10:59:18,925 INFO  [org.jboss.as] (Controller Boot Thread) WFLYSRV0051: Admin console listening on http://10.16.180.146:9990 \u0026amp#27;[0m\u0026amp#27;[0m10:59:18,925 INFO  [org.jboss.as] (Controller Boot Thread) WFLYSRV0025: WildFly Core 3.0.0.Alpha4-redhat-1 \"Kenny\" started in 4551ms - Started 59 of 62 services (20 services are lazy, passive or on-demand) \u0026amp#27;[0m\u0026amp#27;[0m10:59:19,841 INFO  [org.jboss.as.repository] (management-handler-thread - 2) WFLYDR0001: Content added at location /mnt/hudson_workspace/workspace/eap-7x-as-testsuite-test-core/0728bde1/testsuite/manualmode/target/wildfly-core/standalone/data/content/b6/795345f1851ba393f4f56dcd0e08328efcc090/content \u0026amp#27;[0m\u0026amp#27;[0m10:59:19,880 INFO  [org.jboss.as.server.deployment] (MSC service thread 1-1) WFLYSRV0027: Starting deployment of \"logging-test.jar\" (runtime-name: \"logging-test.jar\") \u0026amp#27;[0m\u0026amp#27;[0m10:59:20,076 INFO  [org.wildfly.test.undertow.UndertowService] (MSC service thread 1-2) Started Undertow on 10.16.180.146:8080 \u0026amp#27;[0m\u0026amp#27;[0m10:59:20,131 INFO  [org.jboss.as.server] (management-handler-thread - 2) WFLYSRV0010: Deployed \"logging-test.jar\" (runtime-name : \"logging-test.jar\") \u0026amp#27;[0m\u0026amp#27;[0m10:59:27,185 INFO  [org.jboss.as.test.manualmode.logging.LoggingServiceActivator] (XNIO-1 I/O-1) someLogMessage \u0026amp#27;[0m10:59:27,739 WARN  [org.jboss.as.test.syslogserver.UDPSyslogServer] (SyslogServer: udp) SocketException occurred: java.net.SocketException: Socket closed \tat java.net.PlainDatagramSocketImpl.receive0(Native Method) \tat java.net.AbstractPlainDatagramSocketImpl.receive(AbstractPlainDatagramSocketImpl.java:143) \tat java.net.DatagramSocket.receive(DatagramSocket.java:812) \tat org.jboss.as.test.syslogserver.UDPSyslogServer.run(UDPSyslogServer.java:62) \tat java.lang.Thread.run(Thread.java:745) 10:59:28,239 ERROR [org.jboss.as.test.syslogserver.TCPSyslogServer] (SyslogServer: tcp) IOException occurred.: java.net.SocketException: Socket closed \tat java.net.PlainSocketImpl.socketAccept(Native Method) \tat java.net.AbstractPlainSocketImpl.accept(AbstractPlainSocketImpl.java:409) \tat java.net.ServerSocket.implAccept(ServerSocket.java:545) \tat java.net.ServerSocket.accept(ServerSocket.java:513) \tat org.jboss.as.test.syslogserver.TCPSyslogServer.run(TCPSyslogServer.java:55) \tat java.lang.Thread.run(Thread.java:745) 10:59:28,241 WARN  [org.jboss.as.test.syslogserver.TCPSyslogSocketHandler] (Thread-6) IOException occurred: java.net.SocketException: Socket closed \tat java.net.SocketInputStream.socketRead0(Native Method) \tat java.net.SocketInputStream.socketRead(SocketInputStream.java:116) \tat java.net.SocketInputStream.read(SocketInputStream.java:170) \tat java.net.SocketInputStream.read(SocketInputStream.java:141) \tat java.io.BufferedInputStream.fill(BufferedInputStream.java:246) \tat java.io.BufferedInputStream.read(BufferedInputStream.java:265) \tat org.jboss.as.test.syslogserver.TCPSyslogSocketHandler.run(TCPSyslogSocketHandler.java:73) \tat java.lang.Thread.run(Thread.java:745) \u0026amp#27;[0m10:59:28,255 INFO  [org.jboss.as.test.manualmode.logging.LoggingServiceActivator] (XNIO-1 I/O-1) someLogMessage \u0026amp#27;[0mLogManager error of type WRITE_FAILURE: Error writing to TCP stream java.net.SocketException: Broken pipe \tat java.net.SocketOutputStream.socketWrite0(Native Method) \tat java.net.SocketOutputStream.socketWrite(SocketOutputStream.java:109) \tat java.net.SocketOutputStream.write(SocketOutputStream.java:153) \tat org.jboss.logmanager.handlers.TcpOutputStream.write(TcpOutputStream.java:182) \tat org.jboss.logmanager.handlers.TcpOutputStream.write(TcpOutputStream.java:173) \tat org.jboss.logmanager.handlers.SyslogHandler.sendMessage(SyslogHandler.java:579) \tat org.jboss.logmanager.handlers.SyslogHandler.doPublish(SyslogHandler.java:540) \tat org.jboss.logmanager.ExtHandler.publish(ExtHandler.java:76) \tat org.jboss.logmanager.LoggerNode.publish(LoggerNode.java:314) \tat org.jboss.logmanager.LoggerNode.publish(LoggerNode.java:322) \tat org.jboss.logmanager.Logger.logRaw(Logger.java:850) \tat org.jboss.logmanager.Logger.log(Logger.java:802) \tat org.jboss.logmanager.Logger.log(Logger.java:814) \tat org.jboss.logging.JBossLogManagerLogger.doLog(JBossLogManagerLogger.java:42) \tat org.jboss.logging.Logger.info(Logger.java:955) \tat org.jboss.as.test.manualmode.logging.LoggingServiceActivator$1.handleRequest(LoggingServiceActivator.java:50) \tat io.undertow.server.Connectors.executeRootHandler(Connectors.java:202) \tat io.undertow.server.protocol.http.HttpReadListener.handleEventWithNoRunningRequest(HttpReadListener.java:233) \tat io.undertow.server.protocol.http.HttpReadListener.handleEvent(HttpReadListener.java:131) \tat io.undertow.server.protocol.http.HttpReadListener.handleEvent(HttpReadListener.java:57) \tat org.xnio.ChannelListeners.invokeChannelListener(ChannelListeners.java:92) \tat org.xnio.conduits.ReadReadyHandler$ChannelListenerHandler.readReady(ReadReadyHandler.java:66) \tat org.xnio.nio.NioSocketConduit.handleReady(NioSocketConduit.java:89) \tat org.xnio.nio.WorkerThread.run(WorkerThread.java:565) \u0026amp#27;[0m10:59:28,263 INFO  [org.jboss.as.test.manualmode.logging.LoggingServiceActivator] (XNIO-1 I/O-2) someLogMessage \u0026amp#27;[0m\u0026amp#27;[0m10:59:36,291 INFO  [org.jboss.as.test.manualmode.logging.LoggingServiceActivator] (XNIO-1 I/O-1) someLogMessage \u0026amp#27;[0m10:59:36,794 WARN  [org.jboss.as.test.syslogserver.UDPSyslogServer] (SyslogServer: udp) SocketException occurred: java.net.SocketException: Socket closed \tat java.net.PlainDatagramSocketImpl.receive0(Native Method) \tat java.net.AbstractPlainDatagramSocketImpl.receive(AbstractPlainDatagramSocketImpl.java:143) \tat java.net.DatagramSocket.receive(DatagramSocket.java:812) \tat org.jboss.as.test.syslogserver.UDPSyslogServer.run(UDPSyslogServer.java:62) \tat java.lang.Thread.run(Thread.java:745) 10:59:37,295 ERROR [org.jboss.as.test.syslogserver.TCPSyslogServer] (SyslogServer: tcp) IOException occurred.: java.net.SocketException: Socket closed \tat java.net.PlainSocketImpl.socketAccept(Native Method) \tat java.net.AbstractPlainSocketImpl.accept(AbstractPlainSocketImpl.java:409) \tat java.net.ServerSocket.implAccept(ServerSocket.java:545) \tat java.net.ServerSocket.accept(ServerSocket.java:513) \tat org.jboss.as.test.syslogserver.TCPSyslogServer.run(TCPSyslogServer.java:55) \tat java.lang.Thread.run(Thread.java:745) \u0026amp#27;[0m10:59:37,298 INFO  [org.jboss.as.test.manualmode.logging.LoggingServiceActivator] (XNIO-1 I/O-2) someLogMessage \u0026amp#27;[0m\u0026amp#27;[0m10:59:37,310 INFO  [org.jboss.as.test.manualmode.logging.LoggingServiceActivator] (XNIO-1 I/O-1) someLogMessage \u0026amp#27;[0m10:59:37,313 ERROR [org.jboss.as.test.syslogserver.Rfc5424SyslogEvent] (Thread-9) Can\u0027t parse priority 10:59:37,313 WARN  [org.jboss.as.test.syslogserver.TCPSyslogSocketHandler] (Thread-9) IOException occurred: java.net.SocketException: Socket closed \tat java.net.SocketInputStream.socketRead0(Native Method) \tat java.net.SocketInputStream.socketRead(SocketInputStream.java:116) \tat java.net.SocketInputStream.read(SocketInputStream.java:170) \tat java.net.SocketInputStream.read(SocketInputStream.java:141) \tat java.io.BufferedInputStream.fill(BufferedInputStream.java:246) \tat java.io.BufferedInputStream.read(BufferedInputStream.java:265) \tat org.jboss.as.test.syslogserver.TCPSyslogSocketHandler.run(TCPSyslogSocketHandler.java:73) \tat java.lang.Thread.run(Thread.java:745) \u0026amp#27;[0m10:59:45,316 INFO  [org.jboss.as.test.manualmode.logging.LoggingServiceActivator] (XNIO-1 I/O-2) someLogMessage \u0026amp#27;[0m10:59:50,955 WARN  [org.jboss.as.test.syslogserver.UDPSyslogServer] (SyslogServer: udp) SocketException occurred: java.net.SocketException: Socket closed \tat java.net.PlainDatagramSocketImpl.receive0(Native Method) \tat java.net.AbstractPlainDatagramSocketImpl.receive(AbstractPlainDatagramSocketImpl.java:143) \tat java.net.DatagramSocket.receive(DatagramSocket.java:812) \tat org.jboss.as.test.syslogserver.UDPSyslogServer.run(UDPSyslogServer.java:62) \tat java.lang.Thread.run(Thread.java:745) 10:59:51,456 ERROR [org.jboss.as.test.syslogserver.TCPSyslogServer] (SyslogServer: tcp) IOException occurred.: java.net.SocketException: Socket closed \tat java.net.PlainSocketImpl.socketAccept(Native Method) \tat java.net.AbstractPlainSocketImpl.accept(AbstractPlainSocketImpl.java:409) \tat java.net.ServerSocket.implAccept(ServerSocket.java:545) \tat java.net.ServerSocket.accept(ServerSocket.java:513) \tat org.jboss.as.test.syslogserver.TCPSyslogServer.run(TCPSyslogServer.java:55) \tat java.lang.Thread.run(Thread.java:745) \u0026amp#27;[0m10:59:51,517 INFO  [org.jboss.as.server.deployment] (MSC service thread 1-2) WFLYSRV0028: Stopped deployment logging-test.jar (runtime-name: logging-test.jar) in 17ms \u0026amp#27;[0m\u0026amp#27;[33m10:59:51,525 WARN  [org.jboss.as.controller] (management-handler-thread - 1) WFLYCTL0357: Notification of type deployment-undeployed is not described for the resource at the address [] \u0026amp#27;[0m\u0026amp#27;[0m10:59:51,527 INFO  [org.jboss.as.repository] (management-handler-thread - 1) WFLYDR0002: Content removed from location /mnt/hudson_workspace/workspace/eap-7x-as-testsuite-test-core/0728bde1/testsuite/manualmode/target/wildfly-core/standalone/data/content/b6/795345f1851ba393f4f56dcd0e08328efcc090/content \u0026amp#27;[0m\u0026amp#27;[0m10:59:51,528 INFO  [org.jboss.as.server] (management-handler-thread - 1) WFLYSRV0009: Undeployed \"logging-test.jar\" (runtime-name: \"logging-test.jar\") \u0026amp#27;[0m\u0026amp#27;[0m10:59:51,549 INFO  [org.jboss.as.server] (management-handler-thread - 2) WFLYSRV0236: Suspending server with no timeout. \u0026amp#27;[0m\u0026amp#27;[0m10:59:51,552 INFO  [org.jboss.as.server] (Management Triggered Shutdown) WFLYSRV0241: Shutting down in response to management operation \u0027shutdown\u0027 \u0026amp#27;[0m\u0026amp#27;[0m10:59:51,704 INFO  [org.jboss.as] (MSC service thread 1-2) WFLYSRV0050: WildFly Core 3.0.0.Alpha4-redhat-1 \"Kenny\" stopped in 97ms \u0026amp#27;[0m Standard Error Output: Exception in thread \"Thread-13\" java.lang.NullPointerException \tat org.wildfly.core.testrunner.Server.lambda$stop$0(Server.java:184) \tat java.lang.Thread.run(Thread.java:745) Expected results: No errors Additional info: Links to jenkins reports: https://jenkins.mw.lab.eng.bos.redhat.com/hudson/view/EAP7/view/EAP7-AS-Testsuite/view/EAP7-AS-Testsuite-Jobs/job/eap-7x-as-testsuite-test-core/40/testReport/ https://jenkins.mw.lab.eng.bos.redhat.com/hudson/job/eap-7x-as-testsuite-test-core-solaris/jdk\u003djava18_default,label_exp\u003ddev139-01-solaris10-sparc\u0026\u0026eap-sustaining\u0026\u0026solaris10\u0026\u0026sparc/41/testReport/"}
{"key":"WFCORE-1756","title":"Adding content to an exploded deployment with overwrite to false should fail if file already exists","description":"If overwrite is set to false then adding the file should fail."}
{"key":"WFCORE-1714","title":"Tab completion doesn\u0027t offer more options once prefix match some value","description":"Tab completion for CLI variables doesn\u0027t offer more values once the variable to be completed match some value. reproduce set foo\u003d/subsystem\u003dlogging set foobar\u003d/subsystem\u003dlogging/console-handler\u003dCONSOLE actual $foo\u003cTAB\u003e /  : expected $foo\u003cTAB\u003e /  :  foo  foobar"}
{"key":"WFCORE-1572","title":"Suggestion list for argument value is not generated if the value contains a whitespace","description":"When an argument value contains a space (eg. deploy /path/to/test-application. war --all-server-groups --headers\u003d{rollout id\u003dfoo}) and if user hits tab after the whitespace, suggestions are generated based on the command, rather than the current argument\u0027s name."}
{"key":"WFCORE-172","title":"Wrong application name used for Syslog logging","description":"The auditlog code uses \"WildFly Full\" value as an application name (APP-NAME header field) for syslog logging. It\u0027s not allowed to use space in the value, because the space is a header field separator in syslog messages. Look at syslog message format - http://tools.ietf.org/html/rfc5424#section-6"}
{"key":"WFCORE-1793","title":"add-content operation fails to overwrite existing content with overwrite\u003dtrue set when passing content by file path","description":"Upon overwriting content in managed exploded deployments on wildfly-core, the following errors are produced: CLI [standalone@localhost:9990 /] deploy /home/mjurc/testing/eap7-204/jboss-kitchensink-ear. ear [standalone@localhost:9990 /] /deployment\u003djboss-kitchensink-ear. ear:undeploy {\"outcome\" \u003d\u003e \"success\"} [standalone@localhost:9990 /] /deployment\u003djboss-kitchensink-ear. ear:explode {\"outcome\" \u003d\u003e \"success\"} [standalone@localhost:9990 /] /deployment\u003djboss-kitchensink-ear. ear:deploy {\"outcome\" \u003d\u003e \"success\"} [standalone@localhost:9990 /] /deployment\u003djboss-kitchensink-ear. ear:add-content(content\u003d[{path\u003d/home/mjurc/testing/eap7-204/test.txt, target-path\u003dtest.txt}], overwrite\u003dtrue) { \"outcome\" \u003d\u003e \"failed\", \"failure-description\" \u003d\u003e \"org.jboss.as.repository.ExplodedContentException: WFLYDR0021: Error updating content of exploded deployment\", \"rolled-back\" \u003d\u003e true } [standalone@localhost:9990 /] /deployment\u003djboss-kitchensink-ear. ear:add-content(content\u003d[{path\u003d/home/mjurc/testing/eap7-204/test.txt, target-path\u003dtest.txt}], overwrite\u003dfalse) { \"outcome\" \u003d\u003e \"failed\", \"failure-description\" \u003d\u003e \"org.jboss.as.repository.ExplodedContentException: WFLYDR0021: Error updating content of exploded deployment\", \"rolled-back\" \u003d\u003e true } [standalone@localhost:9990 /] /deployment\u003djboss-kitchensink-ear. ear:add-content(content\u003d[{path\u003d/home/mjurc/testing/eap7-204/test.txt, target-path\u003dtest.txt}]) { \"outcome\" \u003d\u003e \"failed\", \"failure-description\" \u003d\u003e \"org.jboss.as.repository.ExplodedContentException: WFLYDR0021: Error updating content of exploded deployment\", \"rolled-back\" \u003d\u003e true } Server 09:41:36,029 WARN  [org.jboss.as.repository] (management-handler-thread - 5) java.nio.file.FileAlreadyExistsException: /home/mjurc/testing/wildfly-core/build/target/wildfly-core-3.0.0. Alpha8-SNAPSHOT/standalone/data/content/content7797527203290314566/content/test.txt 09:45:27,505 WARN  [org.jboss.as.repository] (management-handler-thread - 12) java.nio.file.FileAlreadyExistsException: /home/mjurc/testing/wildfly-core/build/target/wildfly-core-3.0.0. Alpha8-SNAPSHOT/standalone/data/content/content721393778736298367/content/test.txt 09:45:36,352 WARN  [org.jboss.as.repository] (management-handler-thread - 10) java.nio.file.FileAlreadyExistsException: /home/mjurc/testing/wildfly-core/build/target/wildfly-core-3.0.0. Alpha8-SNAPSHOT/standalone/data/content/content344811471223714239/content/test.txt This issue does not seem to arise when the content is passed to the server by input stream index."}
{"key":"WFCORE-1570","title":"Saved rollout-plan \u0027name\u0027 or \u0027id\u0027 attribute discrepancy","description":"When using rollout plans for EAP deployment scenarios I can create my own named rollout-plan for ease of use. I can then apply rollout command later on, referring with name of my own rollout plan that should be used. There is minor discrepancy in the way I create and use such rollout plan though. When I create rollout-plan, I use command like: rollout-plan add --name\u003dmy-rollout-plan --content\u003d{rollout main-server-group(rolling-to-servers\u003dfalse,max-failed-servers\u003d1),other-server-group(rolling-to-servers\u003dtrue,max-failure-percentage\u003d20) rollback-across-groups\u003dtrue} see --name attribute given to name my rollout plan When I then refer to it I use following command: deploy /path/to/test-application. war --all-server-groups --headers\u003d{rollout id\u003dmy-rollout-plan} see id attribute given to rollout header operation Yes, this is really minor issue, but I think that these two attributes used in aforementioned commands should be unified (preferably to name instead of id) as user might be confused when using it. Note: examples are used from our documentation. Note: I do not know whether I am missing something but I was not able to retrieve more info how to use rollout header operation in deploy command directly in CLI."}
{"key":"WFCORE-1815","title":"It\u0027s not possible to re-add extension ","description":"[standalone@localhost:9990 /] /subsystem\u003dejb3:remove { \"outcome\" \u003d\u003e \"success\", \"response-headers\" \u003d\u003e { \"operation-requires-reload\" \u003d\u003e true, \"process-state\" \u003d\u003e \"reload-required\" } } [standalone@localhost:9990 /] reload [standalone@localhost:9990 /] /extension\u003dorg.jboss.as.ejb3:remove {\"outcome\" \u003d\u003e \"success\"} [standalone@localhost:9990 /] /extension\u003dorg.jboss.as.ejb3:add { \"outcome\" \u003d\u003e \"failed\", \"failure-description\" \u003d\u003e \"WFLYCTL0158: Operation handler failed: java.lang.IllegalArgumentException: WFLYCTL0218: A node is already registered at \u0027/deployment\u003d*/subdeployment\u003d*/subsystem\u003dejb3\u0027\", \"rolled-back\" \u003d\u003e true } 13:46:48,278 ERROR [org.jboss.as.controller.management-operation] (management-handler-thread - 2) WFLYCTL0013: Operation (\"add\") failed - address: ([(\"extension\" \u003d\u003e \"org.jboss.as.ejb3\")]): java.lang.IllegalArgumentException: WFLYCTL0218: A node is already registered at \u0027/deployment\u003d*/subdeployment\u003d*/subsystem\u003dejb3\u0027         at org.jboss.as.controller.registry.ConcreteResourceRegistration.registerSubModel(ConcreteResourceRegistration.java:222)         at org.jboss.as.controller.extension.ExtensionRegistry$DeploymentManagementResourceRegistration.registerSubModel(ExtensionRegistry.java:922)         at org.jboss.as.controller.extension.ExtensionRegistry$SubsystemRegistrationImpl.registerDeploymentModel(ExtensionRegistry.java:700)         at org.jboss.as.ejb3.subsystem.EJB3Extension.initialize(EJB3Extension.java:91)         at org.jboss.as.controller.extension.ExtensionAddHandler.initializeExtension(ExtensionAddHandler.java:131)         at org.jboss.as.controller.extension.ExtensionAddHandler.execute(ExtensionAddHandler.java:83)         at org.jboss.as.controller.AbstractOperationContext.executeStep(AbstractOperationContext.java:940)         at org.jboss.as.controller.AbstractOperationContext.processStages(AbstractOperationContext.java:683)         at org.jboss.as.controller.AbstractOperationContext.executeOperation(AbstractOperationContext.java:382)         at org.jboss.as.controller.OperationContextImpl.executeOperation(OperationContextImpl.java:1363)         at org.jboss.as.controller.ModelControllerImpl.internalExecute(ModelControllerImpl.java:410)         at org.jboss.as.controller.ModelControllerImpl.execute(ModelControllerImpl.java:232)         at org.jboss.as.controller.remote.ModelControllerClientOperationHandler$ExecuteRequestHandler.doExecute(ModelControllerClientOperationHandler.java:213)         at org.jboss.as.controller.remote.ModelControllerClientOperationHandler$ExecuteRequestHandler.access$300(ModelControllerClientOperationHandler.java:136)         at org.jboss.as.controller.remote.ModelControllerClientOperationHandler$ExecuteRequestHandler$1$1.run(ModelControllerClientOperationHandler.java:157)         at org.jboss.as.controller.remote.ModelControllerClientOperationHandler$ExecuteRequestHandler$1$1.run(ModelControllerClientOperationHandler.java:153)         at java.security.AccessController.doPrivileged(Native Method)         at javax.security.auth.Subject.doAs(Subject.java:422)         at org.jboss.as.controller.AccessAuditContext.doAs(AccessAuditContext.java:149)         at org.jboss.as.controller.remote.ModelControllerClientOperationHandler$ExecuteRequestHandler$1.execute(ModelControllerClientOperationHandler.java:153)         at org.jboss.as.protocol.mgmt.ManagementRequestContextImpl$1.doExecute(ManagementRequestContextImpl.java:70)         at org.jboss.as.protocol.mgmt.ManagementRequestContextImpl$AsyncTaskRunner.run(ManagementRequestContextImpl.java:160)         at java.util.concurrent.ThreadPoolExecutor.runWorker(ThreadPoolExecutor.java:1142)         at java.util.concurrent.ThreadPoolExecutor$Worker.run(ThreadPoolExecutor.java:617)         at java.lang.Thread.run(Thread.java:745)         at org.jboss.threads.JBossThread.run(JBossThread.java:320) the error with logging subsystem, I didn\u0027t try other subsystems reload after extension:remove helps"}
{"key":"WFCORE-1595","title":"CLI doesn\u0027t autocomplete for unalias command","description":"Tab completion for CLI unalias commend doesn\u0027t seem to work. CLI will suggest available option, but doesn\u0027t autocomplete. actual [standalone@localhost:9990 /] unalias read_\u003cTAB\u003e read_undertow [standalone@localhost:9990 /] unalias read_\u003cTAB\u003e read_undertow expected [standalone@localhost:9990 /] unalias read_\u003cTAB\u003e [standalone@localhost:9990 /] unalias read_undertow"}
{"key":"WFCORE-1479","title":"Jar sub deployment has as first dependency parent ear","description":"Jar file included in ear main directory is resolved as sub deployment with parent ear as first dependency. Therefore jar files contained in ear/lib directory have priority before implicit modules when class is created inside jar file."}
{"key":"WFCORE-1851","title":"Inconsistent behaviour with browse-content(depth\u003d1) operation between archived and exploded deployments","description":"/deployment\u003djboss-kitchensink-ear. ear:browse-content(depth\u003d1) operation returns inconsistent result depending on whether the deployment is exploded or not. Deployment attached. Archived: { \"outcome\" \u003d\u003e \"success\", \"result\" \u003d\u003e [ { \"path\" \u003d\u003e \"jboss-kitchensink-ear-web. war\", \"directory\" \u003d\u003e false, \"file-size\" \u003d\u003e 63190L }, { \"path\" \u003d\u003e \"jboss-kitchensink-ear-ejb.jar\", \"directory\" \u003d\u003e false, \"file-size\" \u003d\u003e 12256L }, { \"path\" \u003d\u003e \"META-INF/\", \"directory\" \u003d\u003e true } ] } Exploded: { \"outcome\" \u003d\u003e \"success\", \"result\" \u003d\u003e [ { \"path\" \u003d\u003e \"META-INF/\", \"directory\" \u003d\u003e true }, { \"path\" \u003d\u003e \"META-INF/MANIFEST. MF\", \"directory\" \u003d\u003e false, \"file-size\" \u003d\u003e 130L }, { \"path\" \u003d\u003e \"jboss-kitchensink-ear-web. war\", \"directory\" \u003d\u003e false, \"file-size\" \u003d\u003e 63190L }, { \"path\" \u003d\u003e \"jboss-kitchensink-ear-ejb.jar\", \"directory\" \u003d\u003e false, \"file-size\" \u003d\u003e 12256L }, { \"path\" \u003d\u003e \"META-INF/application.xml\", \"directory\" \u003d\u003e false, \"file-size\" \u003d\u003e 802L }, { \"path\" \u003d\u003e \"META-INF/kitchensink-ear-quickstart-ds.xml\", \"directory\" \u003d\u003e false, \"file-size\" \u003d\u003e 1955L }, { \"path\" \u003d\u003e \"META-INF/maven/org.jboss.quickstarts.eap/jboss-kitchensink-ear-ear/pom.xml\", \"directory\" \u003d\u003e false, \"file-size\" \u003d\u003e 5582L }, { \"path\" \u003d\u003e \"META-INF/maven/org. jboss.quickstarts.eap/jboss-kitchensink-ear-ear/pom.properties\", \"directory\" \u003d\u003e false, \"file-size\" \u003d\u003e 143L } ] }"}
{"key":"WFCORE-1864","title":"Whitespaces are not removed from dependencies in module add command","description":"Running module add --name\u003dfoo.bar --resources\u003dfoo.jar --dependencies\u003d[org.a, org.b ] will result in following dependencies in module.xml {{ ... \u003cdependencies\u003e \u003cmodule name\u003d\"org.a\"/\u003e \u003cmodule name\u003d\" org.b \"/\u003e \u003c/dependencies\u003e ... }} The module name in dependencies should be stripped of leading and trailing whitespaces."}
