{"key":"WFCORE-1309","title":"Applying patch - \"no space available\" not specific enough","description":"Copy of https://bugzilla.redhat.com/show_bug.cgi?id\u003d1299160: Patch apply can fail if there is not enough free space, however the message does not indicate what device does not have any free space. Users assume there is not enough free space on the drive where the JBoss install they are applying the patch to, however it appears this may or may not be the case. Patch apply uses tmp space and if there is not enough tmp space it will fail with this message as well. The message should be more explicit as to where there is no space so that the user knows which drive to check. [disconnected /] patch apply /path/to/jboss-eap-6.2.4-patch.zip java.io.IOException: No space left on device"}
{"key":"WFCORE-1333","title":"Editing of default deployment scanner\u0027s relative-to attribute can cause server crash","description":"Setting value of relative-to attribute of default deployment scanner on standalone server to a path which does not exists in file system causes server crash."}
{"key":"WFCORE-1311","title":"WFCORE-893 Fix breaks mixed-domain","description":"The WFCORE-893 fix breaks mixed-domain use cases by adding subsystem\u003dio if its not present. That\u0027s ok for standalone, but in a domain it means a subsystem not understood by legacy slaves will get added into profiles used by those slaves. Which will fail. I\u0027ve considered doing some sort of transformer trick to discard this subsystem if its config is default, but I suspect it\u0027s better to just not do the WFCORE-893 thing on the DC. Discarding might be ok if we just do a resource transformer discard but reject all ops thereafter. Idea being that if the io config is default, matching what legacy slaves did, then we let the slave boot. Then any subsequent op must be either pointless or moving away from default, and must be rejected. But still, just not doing the WFCORE-893 thing on the DC is probably better. Or at least simpler right now."}
