{"key":"1709449","title":"Clicking a DOI from context menu fails","description":"Now: Clicking the DOI icon fails, since the default DOI server is not prepended, i.e. Firefox says"}
{"key":"1711135","title":"BibTeX export error; missing space before line breaks","description":"In JabRef, I type in the author field:"}
{"key":"2207462","title":"Web search results hidden behind JabRef window","description":"When searching for a string with the \"Web Search \u003e Search ACM Digital Library\" function, the following happens \\(e.g. searching \"sql injection\" in The Guide\\):    \\* Hitting ok: Message box closes, but the result window stays in the background \\(invisible\\)."}
{"key":"2904968","title":"Entry Editor does not open","description":"I have just noticed that in JabRef 6.2Beta2 \\(rev 3140\\), this does not always work \\(in fact, nothing happens after a double-click\\)."}
{"key":"2938562","title":"Move of files turns relative filenames to absolute ones","description":"The \"general\"-tab provides the management of files attached to a bib entry. The context-menu of files in this list provides to move/rename functions. Using this turns relative filenames \\(relative to the doc-folder of the database settings\\) to absolute filenames."}
{"key":"1436014","title":"No comma added to separate keywords","description":"When adding a keyword via the content selector, no comma is added before the keyword. I have set \"When adding/removing keywords separate them by:\" to \", \" in the Preferences \u003e Groups panel."}
{"key":"1503956","title":"Help text instead of Help icon","description":"In Options -\u003e Preferences -\u003e Entry preview, the help button contains the text \"help\" instead of the usual help icon"}
{"key":"1538769","title":"Freezes when exiting Import dialog box by Cancel button","description":"Jabref freezes with status string \"Starting import\"\nwhen closing the Import dialog box without opening a file. Steps to reproduce: Choose File|Import into new database|Autodetect format. Press the Cancel button"}
{"key":"1553552","title":"Not properly detecting changes to flag as changed","description":"Since JabRef doesn\u0027t recognize that any changes were made the user has to actually deliberately change to a different field before any save operations; if you don\u0027t change fields but still hit save then quit, you\u0027ve just lost all changes you made to that last field."}
{"key":"1601651","title":"PDF subdirectory - missing first character","description":"The \\`Options \u003e Preferences \u003e Use regular expression\u0027 is ticked and set to the default     The \\`Options \u003e Preferences \u003e Main PDF Dir\u0027  is set to:"}
{"key":"1631548","title":"\"Open last edited DB at startup\" depends on the working dir","description":"Example:"}
