{"key":"2218621","title":"FileBrowser: Directory of current buffer","description":"When I type \"-\" \\(minus\\) in FileBrowser\u0027s Path dropdown and press enter, minus is appended to the path instead of changing path to current buffer. When I choose \"Directory of current buffer\" from commands menu, it works ok."}
{"key":"1599709","title":"NPE with JEditBuffer and new indenting","description":"To reproduce: Save an empty buffer as test.php. Type: \\--------------- \u0026lt;? php $foo \u003d \u0027\u0026lt;ENTER\u0026gt; \\--------------- When pressing ENTER, after the \"\u0027\", the following exception gets thrown:"}
{"key":"2220033","title":"Relative position in status bar is inaccurate","description":"1\\. open a file larger than is visible all at once\n2\\. using the down arrow key, scroll down through the file\n3\\. notice that the relative position displays \"BOT\" well before the bottom of the file\n4\\. continue to scroll completely to the bottom of the file\n5\\. using the up arrow key, scroll up through the file\n6\\. notice that the relative position continues to say \"BOT\" well up from the bottom of the file"}
{"key":"1600401","title":"StringIndexOutOfBoundsException in TokenMarker","description":"After pressing ENTER in a rather long line in a ."}
{"key":"2781716","title":"Line numbers in Hypersearch Results are wrongly highlighted","description":"Reproduction recipe:\nPut \"1\" for an empty buffer, and do hypersearch for \"1\"."}
{"key":"1658252","title":"C mode: incorrect bracket matching in multi-line defines","description":"Try this define:"}
{"key":"2824045","title":"Toggle FullScreen Mode: Window ends up under others","description":"Sometimes when I toggle fullscreen mode, the jEdit window appears behind other windows \\(such as my desktop panel\\)."}
{"key":"1663617","title":"Spaces in URL paths bug (xml/errorlist)","description":"Hi, when an xml file is in a folder that contains spaces in it\u0027s name, if there is an error in the xml that is displayed in ErrorList, when clicking on it, the ErrorList will open another buffer."}
{"key":"950961","title":"Folding: handling newlines at the start of closed folds","description":"Here is the example text folded using explicit folding:\n1| //\\{\\{\\{\n2| Folding\n3| Test\n4| Case\n5| //\\}\\}\\}\n6| Other text  By placing the caret after the last brace and pressing \nreturn we get the\nfollowing result:\n1| //\\{\\{\\{\n2| New text entered\n7| Other text  To display the \ncontents of the fold you have to close the fold and open \nit again which then would display the expected text:\n1| //\\{\\{\\{\n2| New text entered\n3| Folding\n4| Test\n5| Case\n6| //\\}\\}\\}\n7| Other text  Secondly, with explict folding only, \nplacing the caret between the braces that make up the \nstart of the fold whilst folded and pressing return causes \nthe fold to be \u0027lost\u0027."}
{"key":"1668893","title":"Wrong conversion to UTF-16 (with BOM)","description":"Recently I mentioned, that when changing encoding to UTF-16, then saving file and reopening it a BOM appears at the end of each line \\(in my case it is FF FE\\) before \\n"}
{"key":"1724940","title":"typing in multiple select","description":"If I highlight multiple selections of text in the text area and then begin typing, only the first character of what I type is inserted in the selected areas \\(except for where the cursor ended up after making the selection\\). For example if I have the text:  and I highlight both p\u0027s in the \u0026lt;p\u0026gt; tags and then type \"div\" I end up with:"}
{"key":"1193683","title":"folding bug, text is in a black hole","description":"Hi, when you have some folded text \\(folding closed\\)   Close it you\u0027ll get  Delete one \\{"}
{"key":"1382388","title":"Incorrect Python code indentation ","description":"Example:\nBefore:\nif \\(row +1\\) \u0026gt; self.grid.GetNumberRows\\(\\):\nself.table.data.append\\(obj\\)\nself.grid.AppendRows\\(1, True\\)\nelse:\nself.grid.SetCellValue\\(row, 0, fileName\\)\nself.table.data.append\\(obj\\)\nself.grid.AutoSizeColumn\\(0, True\\)"}
{"key":"1739675","title":"Error in jedit svn revision 9820+","description":"After compile and update my jedit to pre10 \\(revision 9820+\\) i got some erros trying to use c+i with python files."}
{"key":"1768638","title":"File status checking after buffer switch doesn\u0027t always work","description":"1\\. Open a clean jEdit session, i.e. rename your . jedit settings directory to something else 2\\. Start jEdit 3\\. Open Global Options and select General 4\\. Set option \u0027if open files are changed on disk\u0027 to \u0027prompt\u0027 5\\. Set option \u0027Check for file change upon\u0027 to \u0027visiting or saving the buffer\u0027 6\\. Create two buffers and save them, e.g. f1 and f2 7\\. Select buffer f1 8\\. Overwrite buffer f2 from the command line, e.g. echo Hello \u0026gt; f2 9\\. Switch back to jEdit 10\\. Switch to buffer f2 with the buffer switcher    Switch focus to another window and back to jEdit again.     Install the RecentBufferSwitcher 15\\. Open the Global options and select a shortcut for Open Buffers command, e.g. C+TAB. 16\\. Select the f1 buffer again 17\\. Overwrite the f2 buffer from command line again 18\\. Switch back to jEdit 19\\. Switch buffer with C+TAB"}
{"key":"1520774","title":"\u0027/\u0027 + enter in VFSFileChooser File: field","description":"If I type \u0027/\u0027 + enter in the File-Browser I get the\nfile list in the attatched screen shot.   In 4.2 Final, just typeing \u0027/\u0027 took me to the root\ndirectory \"/\"."}
{"key":"1834620","title":"Regex capturing groups above $9 can\u0027t be accessed","description":"For example..."}
{"key":"1536064","title":"focus in filesystembrowser NOT in filenamefield","description":"When I try to open a file \\(Ctrl-O\\) the focus in the filesystembrowser is on the Commands menu instead of the filename field."}
{"key":"1866836","title":"After completion column cursor should be kept","description":"Hi, when typing in a column cursor, after using the completion popup it would be better if the cursor would still be column cursor"}
{"key":"1538051","title":"Memory used reported inconsistent","description":"When I double click on the memory gauge \\(bottom right\\)\nthe GC runs and then a dialog appears that reports\nnumbers that have nothing to do with the numbers I can\nsee on the bottom right."}
{"key":"1869978","title":"untitled buffer not closed with 2 views","description":"When jEdit has only one buffer open, which name is untitled-x and which is empty and not dirty, it is closed automatically when another buffer is opened."}
{"key":"1538743","title":"While editing ToolBar, the category should be remembered","description":"While editing ToolBar, the category of actions should \nbe remembered when adding actions to the toolbar."}
{"key":"1906288","title":"Bug in scrollLine calculation with soft-wrapped lines","description":"Open jEdit and take a clean buffer. Let the TextArea has 8 visible lines. Write 3 empty lines. Now write one line, that spans at least 3 screenlines. Now write some empty lines below the last line, so that the scrollbar is shown on the right side. Now delete the line above the one, that spans several lines and look at the scrollbar. it\u0027s getting smaller each time you delete the line above the long one.   Open jEdit and take a clean buffer. Let the TextArea has 8 visible lines. Be sure, that the last line is not partially visible. Write something into the first line so that it spans two screenlines. Now write 9 further short lines so that you have 10 physical lines in total - 2 more than visible. Now select the whole first line \\(Selection from the very beginning of the first screenline until the very beginning of the third screenline\\) and remove it \\(Ctrl-X\\). You see that, for no reason, the scrollbar disappears. Now scroll down  \\(with Array-Down-Key\\) to the very last line of the buffer. You will get the following exception:"}
{"key":"1542026","title":"Keyboard navigation through menubar inserts char into buffer","description":"Using the keyboard \\(characters, or space for \ncheckboxes \\[return for checkboxes works correctly\\]\\) \nto navigate through the menubar inserts the pressed \ncharacters literally in the current buffer if the \nchoice is not a sub-/menu, but an action, even if the \npressed character is not anything choosable \\(e. g. \nAlt+p -\u0026gt; a\\)"}
{"key":"1913979","title":"HistoryTextField: array out of bounds when no history","description":"Try to search for something."}
{"key":"1549282","title":"Saving of a file with r/o flag.","description":"I trying to cancel the file saving procedure of r/o file."}
{"key":"1942313","title":"Expanding a fold twice moves caret unexpectedly","description":"Create the following file, and save it as test.cpp:     Change the folding mode \\(if necessary\\) to \\`indent\u0027. Move the caret to the \\`hij\u0027 line. Press Alt+Backspace to contract the fold.  Press Alt+Enter to expand the fold.  Press Alt+Enter a second time."}
{"key":"1571752","title":"\u0027Add Explicit Fold\u0027  in PHP mode - wrong comments","description":"Before \u0027Add Explicit fold\u0027 the content of buffer looks like this \\(\u0027X\u0027 means selection boundaries\\):"}
{"key":"1984000","title":"Untitled buffer is lost after C+n","description":"When I\u0027m editing an untitled buffer and call File \u0026gt; New, the edited buffer is lost from the buffer list."}
{"key":"1575505","title":"C+j bug","description":"Enter this text:  Select the word \\(solid\\). Press C+j."}
{"key":"1999448","title":"Unnecesarry fold expantion when folded lines are edited","description":"\\(Quoted from Matthieu\u0027s comment for patch \\#1999448\\)\nif I use explicit fold, with this buffer     I remove one \"l\" from hello."}
{"key":"1584436","title":"soft wrap, cut and null-pointer exception","description":"I edit larger texts with soft wrap turned on. If I cut\na text fragment that is larger then the text view, and\nthen move back to the beginning of the text buffer by\nusing the cursor keys, Page-Up or Ctrl-Home, I usually\nget a NullPointerException. Steps to reproduce: \\- load http://www.jedit.org/users-guide/starting.html \\- set buffer line wrap \u003d soft, wrap at 80 characters \\- cut lines 5 to 45 \\- press Ctrl-Home"}
{"key":"2015210","title":"IllegalArgumentException","description":"1\\)Utilites-\u0026gt;Global Options-\u0026gt;Appearance Inputing negative number in \"History text field entries to remember\u0027\u0027 will result in thrown of IllegalArgumentException. Similarly\n2\\)Utilites-\u0026gt;Global Options-\u0026gt;Autosave \u0026 Backup"}
{"key":"1593359","title":"JEditTextArea processes keyboard input that is not for it","description":"e. g. if focus is on Activity Log Dockable or Java Insight Dockable, pressing Del-key deletes characters from the buffer."}
{"key":"2017514","title":"Context menu and \u0027Select All\u0027","description":"Summary: Select all \\(Ctrl+A\\), then right-click in the selection \\(as if to copy, or cut\\)."}
{"key":"1593523","title":"\"Toggle Tree View\" broken","description":"If doing \"Toggle Tree View\" in HyperSearch Results \nwindow context menu, it doesn\u0027t switch properly, \nmeans if switching back to show the path and filename \nin one line, the path is missing."}
{"key":"2129419","title":"NPE in EditPane.setBuffer when quitting jEdit","description":"When trying to quit jEdit, I get the following Null-Pointer-Exception, which is probably related to some files being changed/deleted \\(due to a \"cvs up\" in the background\\)."}
{"key":"2173112","title":"4.3pre16: regex \u0027$\u0027 does not match last line in selection","description":"In a new buffer, make 10 empty lines. \\(NOTE: they don\u0027t have to be empty\\) Select any five lines \\(i.e. a text selection\\) Search for $ \\(with hypersearch, selection, and regular expressions turned on\\)   Now search for $ and replace with z"}
