{"key":"PIG-3267","title":"HCatStorer fail in limit query","description":"The following query fail:"}
{"key":"PIG-3292","title":"Logical plan invalid state: duplicate uid in schema during self-join to get cross product","description":"The problem:\nWe want to do self join to get cross-product\n{code}\na \u003d load \u0027/input\u0027 as (key, x);"}
{"key":"PIG-3310","title":"ImplicitSplitInserter does not generate new uids for nested schema fields, leading to miscomputations","description":"Consider the following example       On input data:\n{code}\n1       1001    101\n1       1002    103\n1       1003    102\n1       1004    102\n2       1005    101\n2       1003    101\n2       1002    123\n3       1042    101\n3       1005    101\n3       1002    133\n{code}"}
{"key":"PIG-3316","title":"Pig failed to interpret DateTime values in some special cases","description":"For the query  with input data 1 1970-01-01 2 1970-01"}
{"key":"PIG-3329","title":"RANK operator failed when working with SPLIT ","description":"input.txt:\n1 2 3\n4 5 6\n7 8 9 script:\na \u003d load \u0027input.txt\u0027 using PigStorage(\u0027 \u0027) as (a:int, b:int, c:int);\nSPLIT a into b if a \u003e 0, c if a \u003e 5;\nd \u003d RANK b;\ndump d;"}
{"key":"PIG-3355","title":"ColumnMapKeyPrune bug with distinct operator","description":"We came across a bug that happens when you have a distinct operator immediately followed by a union where the result of the union has at least one column that will be pruned by ColumnMapKeyPrune. There\u0027s a test showing an example script in the submitted patch."}
{"key":"PIG-3379","title":"Alias reuse in nested foreach causes PIG script to fail","description":"The following script fails:"}
{"key":"PIG-2767","title":"Pig creates wrong schema after dereferencing nested tuple fields","description":"The following script fails:"}
{"key":"PIG-3424","title":"Package import list should consider class name as is first even if -Dudf.import.list is passed","description":"Currently if -Dudf.import.list is passed it adds them to the beginning of the list and \"\" (class name as is) which is defined by default always is pushed to end of list."}
{"key":"PIG-2828","title":"Handle nulls in DataType.compare","description":"While using TOP, and if the DataBag contains null value to compare, it will generate the following exception:"}
{"key":"PIG-3495","title":"Streaming udf e2e tests failures on Windows","description":"Register a jython script with an absolute path fail. For Example:\n{code}\nregister \u0027D:\\scriptingudf.py\u0027 using jython as myfuncs;\na \u003d load \u0027studenttab10k\u0027 using PigStorage() as (name, age:int, gpa:double);\nb \u003d foreach a generate myfuncs.square(age);\ndump b;\n{code}"}
{"key":"PIG-3114","title":"Duplicated macro name error when using pigunit","description":"I\u0027m using PigUnit to test a pig script within which a macro is defined.                                            Pig script which is failing :"}
{"key":"PIG-3510","title":"New filter extractor fails with more than one filter statement","description":"Here is an example that demonstrates the problem:\n{code:title\u003dtwo filters}\nb \u003d FILTER a BY (dateint \u003e\u003d 20130901 AND dateint \u003c\u003d 20131001);\nc \u003d FILTER b BY (event_id \u003d\u003d 419 OR event_id \u003d\u003d 418);\n{code}\n{code:title\u003done filter}\nb \u003d FILTER a BY (dateint \u003e\u003d 20130901 AND dateint \u003c\u003d 20131001) AND (event_id \u003d\u003d 419 OR event_id \u003d\u003d 418);\n{code}\nBoth dateint and event_id are partition columns."}
