{"id":218,"bug_id":"MAHOUT-1285","text":"Arff loader can misparse string data as double. Have successfully loaded numerous ARFF files with Mahout (originally generated via WEKA).  For a specific random seed, the following exception is thrown:","class_goldset":["integration.src.main.java.org.apache.mahout.utils.vectors.arff.ARFFVectorIterable","integration.src.main.java.org.apache.mahout.utils.vectors.arff.MapBackedARFFModel"],"file_goldset":["integration.src.main.java.org.apache.mahout.utils.vectors.arff.ARFFVectorIterable","integration.src.main.java.org.apache.mahout.utils.vectors.arff.MapBackedARFFModel"],"creation_date":"2013-07-15T21:31:28.000+0000","resolution_date":"2013-11-29T19:06:34.000+0000"}
{"id":219,"bug_id":"MAHOUT-1314","text":"StreamingKMeansReducer throws NullPointerException when REDUCE_STREAMING_KMEANS is set to true. when REDUCE_STREAMING_KMEANS option is set to true (-rskm) the reducer fails with NullPointerException.     full stack trace:             it happens every time the REDUCE_STREAMING_KMEANS is set to true.","class_goldset":["core.src.main.java.org.apache.mahout.clustering.streaming.mapreduce.StreamingKMeansReducer"],"file_goldset":["core.src.main.java.org.apache.mahout.clustering.streaming.mapreduce.StreamingKMeansReducer"],"creation_date":"2013-08-18T14:07:48.000+0000","resolution_date":"2013-11-18T07:53:51.000+0000"}
{"id":224,"bug_id":"MAHOUT-1349","text":"Clusterdumper/loadTermDictionary crashes when highest index in (sparse) dictionary vector is larger than dictionary vector size?. I hashed the features with max size 5M (because I didn\u0027t know how many\nfeatures were in the dataset and wanted to minimize collisions). The kmeans ran fine and generate sensible looking results, but when I tried\nto run ClusterDumper I got the following error:                                       It worked fine when I reduced the hash size to be \u003c\u003d than the total number\nof features, but this is not desirable in general (for me) since I don\u0027t\nknow the number of features before I run the job (and if I guess too high\nthen ClusterDumper crashes)","class_goldset":["integration.src.main.java.org.apache.mahout.utils.vectors.VectorHelper"],"file_goldset":["integration.src.main.java.org.apache.mahout.utils.vectors.VectorHelper"],"creation_date":"2013-11-01T12:59:17.000+0000","resolution_date":"2013-12-08T23:35:34.000+0000"}
{"id":225,"bug_id":"MAHOUT-1358","text":"StreamingKMeansThread throws IllegalArgumentException when REDUCE_STREAMING_KMEANS is set to true. Running StreamingKMeans Clustering with REDUCE_STREAMING_KMEANS \u003d true and when no estimatedDistanceCutoff is specified, throws the following error               The issue is caused by the following code in StreamingKMeansThread.call()","class_goldset":["core.src.main.java.org.apache.mahout.clustering.streaming.mapreduce.StreamingKMeansThread"],"file_goldset":["core.src.main.java.org.apache.mahout.clustering.streaming.mapreduce.StreamingKMeansThread"],"creation_date":"2013-11-18T07:58:22.000+0000","resolution_date":"2013-11-18T17:55:25.000+0000"}
