{"id":258,"bug_id":"PIG-2767","text":"Pig creates wrong schema after dereferencing nested tuple fields. The following script fails:         DESCRIBE thinks it is {f1: int, f2: int} instead. When dump is\nused, the data is actually in form of the correct schema however, ex.     Because the schema is incorrect,\nthe reference to \"nested_tuple\" in the \"uses_dereferenced\" statement is\nconsidered to be invalid, and the script fails to run. The error is:","class_goldset":["src.org.apache.pig.newplan.logical.expression.DereferenceExpression","test.org.apache.pig.test.TestPigServer"],"file_goldset":["src.org.apache.pig.newplan.logical.expression.DereferenceExpression","test.org.apache.pig.test.TestPigServer"],"creation_date":"2012-06-25T14:11:20.000+0000","resolution_date":"2013-04-22T20:13:20.000+0000"}
{"id":259,"bug_id":"PIG-2828","text":"Handle nulls in DataType.compare. While using TOP, and if the DataBag contains null value to compare, it will generate the following exception:                 The reason is that if the typeFound is true , and the dataType is not null, and field1 is null, the script failed.","class_goldset":["src.org.apache.pig.builtin.TOP","src.org.apache.pig.data.DataType","test.org.apache.pig.test.TestNull"],"file_goldset":["src.org.apache.pig.builtin.TOP","src.org.apache.pig.data.DataType","test.org.apache.pig.test.TestNull"],"creation_date":"2012-07-19T10:03:16.000+0000","resolution_date":"2013-06-04T07:02:17.000+0000"}
{"id":263,"bug_id":"PIG-3114","text":"Duplicated macro name error when using pigunit. I\u0027m using PigUnit to test a pig script within which a macro is defined. Pig runs fine on cluster but getting parsing error with pigunit.                                           Pig script which is failing :","class_goldset":["src.org.apache.pig.PigServer","test.org.apache.pig.pigunit.PigTest","test.org.apache.pig.pigunit.pig.PigServer","test.org.apache.pig.test.pigunit.TestPigTest"],"file_goldset":["src.org.apache.pig.PigServer","test.org.apache.pig.pigunit.PigTest","test.org.apache.pig.pigunit.pig.PigServer","test.org.apache.pig.test.pigunit.TestPigTest"],"creation_date":"2013-01-04T01:49:42.000+0000","resolution_date":"2013-09-27T20:40:04.000+0000"}
{"id":265,"bug_id":"PIG-3267","text":"HCatStorer fail in limit query. The following query fail:  Error happens before launching the second job. Error message:","class_goldset":["src.org.apache.pig.backend.hadoop.executionengine.physicalLayer.relationalOperators.POStore","test.org.apache.pig.test.TestMRCompiler"],"file_goldset":["src.org.apache.pig.backend.hadoop.executionengine.physicalLayer.relationalOperators.POStore","test.org.apache.pig.test.TestMRCompiler"],"creation_date":"2013-04-03T21:14:30.000+0000","resolution_date":"2013-04-12T00:30:56.000+0000"}
{"id":267,"bug_id":"PIG-3292","text":"Logical plan invalid state: duplicate uid in schema during self-join to get cross product. The problem:\nWe want to do self join to get cross-product\n{code}\na \u003d load \u0027/input\u0027 as (key, x);   And an error:\n{code}\nERROR org.apache.pig.tools.grunt.Grunt - ERROR 2270: Logical plan invalid state: duplicate uid in schema : 1-7::x#16:bytearray,y::x#16:bytearray\n{code}","class_goldset":["src.org.apache.pig.newplan.logical.relational.LOCross","test.org.apache.pig.test.TestEvalPipelineLocal"],"file_goldset":["src.org.apache.pig.newplan.logical.relational.LOCross","test.org.apache.pig.test.TestEvalPipelineLocal"],"creation_date":"2013-04-24T08:06:41.000+0000","resolution_date":"2013-10-01T17:53:45.000+0000"}
{"id":268,"bug_id":"PIG-3310","text":"ImplicitSplitInserter does not generate new uids for nested schema fields, leading to miscomputations. Consider the following example       On input data:\n{code}\n1       1001    101\n1       1002    103\n1       1003    102\n1       1004    102\n2       1005    101\n2       1003    101\n2       1002    123\n3       1042    101\n3       1005    101\n3       1002    133\n{code} This will give a wrongful output like . . {code} (1 1001,1001) (1 1002,1002) (1 1002,1002) (1 1002,1002) {code}","class_goldset":["src.org.apache.pig.newplan.logical.relational.LOSplitOutput"],"file_goldset":["src.org.apache.pig.newplan.logical.relational.LOSplitOutput"],"creation_date":"2013-05-03T07:59:57.000+0000","resolution_date":"2013-05-30T18:57:12.000+0000"}
{"id":269,"bug_id":"PIG-3316","text":"Pig failed to interpret DateTime values in some special cases. For the query  with input data 1 1970-01-01 2 1970-01 pig generates the following output (1 1970-01-01T00:00:00.000-01:00) (2 1970-01-01T00:00:00.000-01:00) which seemingly incorrectly interprets the day or month part as time zone.","class_goldset":["src.org.apache.pig.builtin.ToDate","test.org.apache.pig.test.TestDefaultDateTimeZone"],"file_goldset":["src.org.apache.pig.builtin.ToDate","test.org.apache.pig.test.TestDefaultDateTimeZone"],"creation_date":"2013-05-08T19:01:36.000+0000","resolution_date":"2013-05-10T20:46:39.000+0000"}
{"id":270,"bug_id":"PIG-3329","text":"RANK operator failed when working with SPLIT . input.txt:\n1 2 3\n4 5 6\n7 8 9 script:\na \u003d load \u0027input.txt\u0027 using PigStorage(\u0027 \u0027) as (a:int, b:int, c:int);\nSPLIT a into b if a \u003e 0, c if a \u003e 5;\nd \u003d RANK b;\ndump d; job will fail with error message:","class_goldset":["src.org.apache.pig.backend.hadoop.executionengine.mapReduceLayer.MRCompiler","src.org.apache.pig.backend.hadoop.executionengine.mapReduceLayer.MapReduceOper"],"file_goldset":["src.org.apache.pig.backend.hadoop.executionengine.mapReduceLayer.MRCompiler","src.org.apache.pig.backend.hadoop.executionengine.mapReduceLayer.MapReduceOper"],"creation_date":"2013-05-17T03:44:41.000+0000","resolution_date":"2013-06-09T22:13:00.000+0000"}
{"id":273,"bug_id":"PIG-3379","text":"Alias reuse in nested foreach causes PIG script to fail. The following script fails:","class_goldset":["src.org.apache.pig.PigServer","src.org.apache.pig.newplan.logical.expression.ProjectExpression","src.org.apache.pig.newplan.logical.relational.LOInnerLoad","src.org.apache.pig.parser.LogicalPlanBuilder","test.org.apache.pig.test.TestEvalPipeline2"],"file_goldset":["src.org.apache.pig.PigServer","src.org.apache.pig.newplan.logical.expression.ProjectExpression","src.org.apache.pig.newplan.logical.relational.LOInnerLoad","src.org.apache.pig.parser.LogicalPlanBuilder","test.org.apache.pig.test.TestEvalPipeline2"],"creation_date":"2013-07-16T18:37:26.000+0000","resolution_date":"2013-08-23T21:07:12.000+0000"}
{"id":274,"bug_id":"PIG-3424","text":"Package import list should consider class name as is first even if -Dudf.import.list is passed. Currently if -Dudf.import.list is passed it adds them to the beginning of the list and \"\" (class name as is) which is defined by default always is pushed to end of list. In cases where the pig deployment itself contains predefined -Dudf.import.list, class resolution tries all of that before trying the fully qualified class name defined in LOAD as is.","class_goldset":["src.org.apache.pig.impl.PigContext","test.org.apache.pig.test.TestPigContext"],"file_goldset":["src.org.apache.pig.impl.PigContext","test.org.apache.pig.test.TestPigContext"],"creation_date":"2013-08-15T14:56:20.000+0000","resolution_date":"2013-08-19T00:56:41.000+0000"}
{"id":276,"bug_id":"PIG-3495","text":"Streaming udf e2e tests failures on Windows. Register a jython script with an absolute path fail. For Example:\n{code}\nregister \u0027D:\\scriptingudf.py\u0027 using jython as myfuncs;\na \u003d load \u0027studenttab10k\u0027 using PigStorage() as (name, age:int, gpa:double);\nb \u003d foreach a generate myfuncs.square(age);\ndump b;\n{code}","class_goldset":["src.org.apache.pig.scripting.ScriptEngine"],"file_goldset":["src.org.apache.pig.scripting.ScriptEngine"],"creation_date":"2013-10-02T21:40:25.000+0000","resolution_date":"2013-10-03T18:06:35.000+0000"}
{"id":277,"bug_id":"PIG-3510","text":"New filter extractor fails with more than one filter statement. Here is an example that demonstrates the problem:\n{code:title\u003dtwo filters}\nb \u003d FILTER a BY (dateint \u003e\u003d 20130901 AND dateint \u003c\u003d 20131001);\nc \u003d FILTER b BY (event_id \u003d\u003d 419 OR event_id \u003d\u003d 418);\n{code}\n{code:title\u003done filter}\nb \u003d FILTER a BY (dateint \u003e\u003d 20130901 AND dateint \u003c\u003d 20131001) AND (event_id \u003d\u003d 419 OR event_id \u003d\u003d 418);\n{code}\nBoth dateint and event_id are partition columns. For the 1 filter case, the whole expression is pushed down whereas for the 2 filter case, only (event_id \u003d\u003d 419 OR event_id \u003d\u003d 418) is pushed down.","class_goldset":["src.org.apache.pig.newplan.logical.optimizer.LogicalPlanOptimizer"],"file_goldset":["src.org.apache.pig.newplan.logical.optimizer.LogicalPlanOptimizer"],"creation_date":"2013-10-09T23:02:45.000+0000","resolution_date":"2013-10-10T20:14:03.000+0000"}
