{"key":"DATAMONGO-816","title":"Unable to execute query with DocumentCallbackHandler when query contains Criteria with enums.","description":"spring-data-mongodb - 1.3.3.RELEASE\nmongo-java-driver - 2.11.3\nUnable to execute query using void org.springframework.data.mongodb.core.MongoTemplate.executeQuery(Query query, String collectionName, DocumentCallbackHandler dch)\nwith queries which contain Criteries with Enums.\n\n\n\n\n\n\nStack trace\n\n\n\n\n\n\n:\n\n\n\n\njava.lang.IllegalArgumentException: can\u0027t serialize class Day\n\n\n\n\n\tat org.bson.BasicBSONEncoder._putObjectField(BasicBSONEncoder.java:273)\n\n\n\n\n\tat org.bson.BasicBSONEncoder.putIterable(BasicBSONEncoder.java:298)\n\n\n\n\n\tat org.bson.BasicBSONEncoder._putObjectField(BasicBSONEncoder.java:237)\n\n\n\n\n\tat org.bson.BasicBSONEncoder.putObject(BasicBSONEncoder.java:174)\n\n\n\n\n\tat org.bson.BasicBSONEncoder._putObjectField(BasicBSONEncoder.java:229)\n\n\n\n\n\tat org.bson.BasicBSONEncoder.putObject(BasicBSONEncoder.java:174)\n\n\n\n\n\tat org.bson.BasicBSONEncoder.putObject(BasicBSONEncoder.java:120)\n\n\n\n\n\tat com.mongodb.DefaultDBEncoder.writeObject(DefaultDBEncoder.java:27)\n\n\n\n\n\tat com.mongodb.OutMessage.putObject(OutMessage.java:289)\n\n\n\n\n\tat com.mongodb.OutMessage.writeQuery(OutMessage.java:211)\n\n\n\n\n\tat com.mongodb.OutMessage.query(OutMessage.java:84)\n\n\n\n\n\tat com.mongodb.DBApiLayer$MyCollection.__find(DBApiLayer.java:285)\n\n\n\n\n\tat com.mongodb.DBApiLayer$MyCollection.__find(DBApiLayer.java:273)\n\n\n\n\n\tat com.mongodb.DBCursor._check(DBCursor.java:368)\n\n\n\n\n\tat com.mongodb.DBCursor._hasNext(DBCursor.java:459)\n\n\n\n\n\tat com.mongodb.DBCursor.hasNext(DBCursor.java:484)\n\n\n\n\n\tat org.springframework.data.mongodb.core.MongoTemplate.executeQueryInternal(MongoTemplate.java:1701)\n\n\n\n\n\tat org.springframework.data.mongodb.core.MongoTemplate.executeQuery(MongoTemplate.java:377)\n\n\n\n\n\tat org.springframework.data.mongodb.core.MongoTemplate.executeQuery(MongoTemplate.java:350)\n\n\n\n\n\n\nPlease find little unit test in attachment","creation_date":"2013-12-18T00:36:29.000-06:00","resolution_date":"2014-01-14T06:02:15.000-06:00","fixed_files":["org.springframework.data.mongodb.core.MongoTemplateTests","org.springframework.data.mongodb.core.MongoTemplate"]}
{"key":"DATAMONGO-830","title":"NPE during cache warmup in CustomConversions","description":"The cache seems not to be able to handle heavy load during its warmup phase.\nWe use 42 threads in parallel in performance test scenario (a lot of database operations in each thread) and got the NPE in one of five runs.\nUsing a ConcurrentHashMap solves the problem.\n\n\n\n\n\n\njava.lang.NullPointerException\n\n\n\n\n     at org.springframework.data.mongodb.core.convert.CustomConversions.getCustomReadTarget(CustomConversions.java:329)\n\n\n\n\n     at org.springframework.data.mongodb.core.convert.CustomConversions.hasCustomReadTarget(CustomConversions.java:283)\n\n\n\n\n     at org.springframework.data.mongodb.core.convert.MappingMongoConverter.read(MappingMongoConverter.java:200)\n\n\n\n\n     at org.springframework.data.mongodb.core.convert.MappingMongoConverter.read(MappingMongoConverter.java:187)\n\n\n\n\n     at org.springframework.data.mongodb.core.convert.MappingMongoConverter.read(MappingMongoConverter.java:183)\n\n\n\n\n     at org.springframework.data.mongodb.core.convert.MappingMongoConverter.read(MappingMongoConverter.java:77)\n\n\n\n\n     at org.springframework.data.mongodb.core.MongoTemplate$ReadDbObjectCallback.doWith(MongoTemplate.java:1975)\n\n\n\n\n     at org.springframework.data.mongodb.core.MongoTemplate.executeFindOneInternal(MongoTemplate.java:1626)\n\n\n\n\n     at org.springframework.data.mongodb.core.MongoTemplate.doFindOne(MongoTemplate.java:1446)\n\n\n\n\n     at org.springframework.data.mongodb.core.MongoTemplate.findById(MongoTemplate.java:539)\n\n\n\n\n     at org.springframework.data.mongodb.repository.support.SimpleMongoRepository.findOne(SimpleMongoRepository.java:100)\n\n\n\n\n     at sun.reflect.NativeMethodAccessorImpl.invoke0(Native Method)\n\n\n\n\n     at sun.reflect.NativeMethodAccessorImpl.invoke(NativeMethodAccessorImpl.java:57)\n\n\n\n\n     at sun.reflect.DelegatingMethodAccessorImpl.invoke(DelegatingMethodAccessorImpl.java:43)\n\n\n\n\n     at java.lang.reflect.Method.invoke(Method.java:606)\n\n\n\n\n     at org.springframework.data.repository.core.support.RepositoryFactorySupport$QueryExecutorMethodInterceptor.executeMethodOn(RepositoryFactorySupport.java:358)\n\n\n\n\n     at org.springframework.data.repository.core.support.RepositoryFactorySupport$QueryExecutorMethodInterceptor.invoke(RepositoryFactorySupport.java:343)\n\n\n\n\n     at org.springframework.aop.framework.ReflectiveMethodInvocation.proceed(ReflectiveMethodInvocation.java:172)\n\n\n\n\n     at org.springframework.aop.framework.JdkDynamicAopProxy.invoke(JdkDynamicAopProxy.java:204)\n\n\n\n\n     at com.sun.proxy.$Proxy26.findOne(Unknown Source)\n\n\n\n\n     at de.is24.offer.mongodb.evaluation.ReadYourOwnDataRightTask.countNumberOfInvalidResults(ReadYourOwnDataRightTask.java:34)\n\n\n\n\n     at de.is24.offer.mongodb.evaluation.ReadYourOwnDataRightTask$$FastClassByCGLIB$$2b453a69.invoke(\u003cgenerated\u003e)\n\n\n\n\n     at org.springframework.cglib.proxy.MethodProxy.invoke(MethodProxy.java:204)\n\n\n\n\n     at org.springframework.aop.framework.CglibAopProxy$CglibMethodInvocation.invokeJoinpoint(CglibAopProxy.java:698)\n\n\n\n\n     at org.springframework.aop.framework.ReflectiveMethodInvocation.proceed(ReflectiveMethodInvocation.java:150)\n\n\n\n\n     at org.springframework.aop.interceptor.AsyncExecutionInterceptor$1.call(AsyncExecutionInterceptor.java:95)\n\n\n\n\n     at java.util.concurrent.FutureTask.run(FutureTask.java:262)\n\n\n\n\n     at java.lang.Thread.run(Thread.java:744)\n\n\n\n\n\n","creation_date":"2014-01-23T08:09:40.000-06:00","resolution_date":"2014-02-11T05:56:17.000-06:00","fixed_files":["org.springframework.data.mongodb.core.convert.CustomConversions"]}
{"key":"DATAMONGO-833","title":"EnumSet is not handled correctly","description":"Using EnumSet as collection for enums caused exception when BasicDBList from database is mapped back to EnumSet.\nStack trace when version org.springframework.data:spring-data-mongodb:1.3.3.RELEASE is used:\n\n\n\n\n\n\njava.lang.IllegalArgumentException: Could not instantiate Collection type: java.util.EnumSet\n\n\n\n\n\tat org.springframework.core.CollectionFactory.createCollection(CollectionFactory.java:258)\n\n\n\n\n\tat org.springframework.data.mongodb.core.convert.MappingMongoConverter.readCollectionOrArray(MappingMongoConverter.java:778)\n\n\n\n\n\tat org.springframework.data.mongodb.core.convert.MappingMongoConverter.readValue(MappingMongoConverter.java:1048)\n\n\n\n\n\tat org.springframework.data.mongodb.core.convert.MappingMongoConverter.access$100(MappingMongoConverter.java:77)\n\n\n\n\n\tat org.springframework.data.mongodb.core.convert.MappingMongoConverter$MongoDbPropertyValueProvider.getPropertyValue(MappingMongoConverter.java:999)\n\n\n\n\n\tat org.springframework.data.mongodb.core.convert.MappingMongoConverter.getValueInternal(MappingMongoConverter.java:755)\n\n\n\n\n\tat org.springframework.data.mongodb.core.convert.MappingMongoConverter$1.doWithPersistentProperty(MappingMongoConverter.java:256)\n\n\n\n\n\tat org.springframework.data.mongodb.core.convert.MappingMongoConverter$1.doWithPersistentProperty(MappingMongoConverter.java:249)\n\n\n\n\n\tat org.springframework.data.mapping.model.BasicPersistentEntity.doWithProperties(BasicPersistentEntity.java:257)\n\n\n\n\n\tat org.springframework.data.mongodb.core.convert.MappingMongoConverter.read(MappingMongoConverter.java:249)\n\n\n\n\n\tat org.springframework.data.mongodb.core.convert.MappingMongoConverter.read(MappingMongoConverter.java:223)\n\n\n\n\n\tat org.springframework.data.mongodb.core.convert.MappingMongoConverter.read(MappingMongoConverter.java:187)\n\n\n\n\n\tat org.springframework.data.mongodb.core.convert.MappingMongoConverter.read(MappingMongoConverter.java:183)\n\n\n\n\n\tat org.springframework.data.mongodb.core.convert.MappingMongoConverter.read(MappingMongoConverter.java:77)\n\n\n\n\n\tat org.springframework.data.mongodb.core.MongoTemplate$ReadDbObjectCallback.doWith(MongoTemplate.java:1975)\n\n\n\n\n\tat org.springframework.data.mongodb.core.MongoTemplate.executeFindMultiInternal(MongoTemplate.java:1671)\n\n\n\n\n\tat org.springframework.data.mongodb.core.MongoTemplate.doFind(MongoTemplate.java:1496)\n\n\n\n\n\tat org.springframework.data.mongodb.core.MongoTemplate.doFind(MongoTemplate.java:1480)\n\n\n\n\n\tat org.springframework.data.mongodb.core.MongoTemplate.find(MongoTemplate.java:527)\n\n\n\n\n\tat org.springframework.data.mongodb.core.MongoTemplate.find(MongoTemplate.java:518)\n\n\n\n\n\t...\n\n\n\n\nCaused by: java.lang.InstantiationException: java.util.EnumSet\n\n\n\n\n\tat java.lang.Class.newInstance0(Class.java:342)\n\n\n\n\n\tat java.lang.Class.newInstance(Class.java:310)\n\n\n\n\n\tat org.springframework.core.CollectionFactory.createCollection(CollectionFactory.java:255)\n\n\n\n\n\t...\n\n\n\n\n\n","creation_date":"2014-01-24T02:52:54.000-06:00","resolution_date":"2014-02-25T21:03:24.000-06:00","fixed_files":["org.springframework.data.mongodb.core.convert.MappingMongoConverterUnitTests","org.springframework.data.mongodb.core.convert.MappingMongoConverter"]}
{"key":"DATAMONGO-821","title":"MappingException for $size queries on subcollections containing dbrefs","description":"For repository method definition like below:\n\n\n\n\n\n\n@Query(\"{meanings: {$not: {$size: 0}}}\")\n\n\n\n\nPage\u003cEntry\u003e findAllWithMeanings(Pageable pageable);\n\n\n\n\n\n\nEntry documents contain meanings field which is a list of @DBRef s. When I remove @DBRef annotation it works ok, but otherwise I get the following exception:\n\n\n\n\n\n\nException in thread \"main\" org.springframework.data.mapping.model.MappingException: No mapping metadata found for class com.mongodb.BasicDBObject\n\n\n\n\n\tat org.springframework.data.mongodb.core.convert.MappingMongoConverter.createDBRef(MappingMongoConverter.java:729)\n\n\n\n\n\tat org.springframework.data.mongodb.core.convert.MappingMongoConverter.toDBRef(MappingMongoConverter.java:288)\n\n\n\n\n\tat org.springframework.data.mongodb.core.convert.QueryMapper.convertAssociation(QueryMapper.java:273)\n\n\n\n\n\tat org.springframework.data.mongodb.core.convert.QueryMapper.getMappedKeyword(QueryMapper.java:158)\n\n\n\n\n\tat org.springframework.data.mongodb.core.convert.QueryMapper.getMappedObject(QueryMapper.java:111)\n\n\n\n\n\tat org.springframework.data.mongodb.core.MongoTemplate.doFind(MongoTemplate.java:1489)\n\n\n\n\n\tat org.springframework.data.mongodb.core.MongoTemplate.doFind(MongoTemplate.java:1480)\n\n\n\n\n\tat org.springframework.data.mongodb.core.MongoTemplate.find(MongoTemplate.java:527)\n\n\n\n\n\tat org.springframework.data.mongodb.repository.query.AbstractMongoQuery$PagedExecution.execute(AbstractMongoQuery.java:205)\n\n\n\n\n\tat org.springframework.data.mongodb.repository.query.AbstractMongoQuery.execute(AbstractMongoQuery.java:93)\n\n\n\n\n\tat org.springframework.data.repository.core.support.RepositoryFactorySupport$QueryExecutorMethodInterceptor.invoke(RepositoryFactorySupport.java:337)\n\n\n\n\n\tat org.springframework.aop.framework.ReflectiveMethodInvocation.proceed(ReflectiveMethodInvocation.java:172)\n\n\n\n\n\tat org.springframework.aop.framework.JdkDynamicAopProxy.invoke(JdkDynamicAopProxy.java:204)\n\n\n\n\n\n\n\n\n\n\n","creation_date":"2014-01-08T15:11:31.000-06:00","resolution_date":"2014-03-06T02:38:20.000-06:00","fixed_files":["org.springframework.data.mongodb.core.convert.QueryMapper","org.springframework.data.mongodb.repository.query.StringBasedMongoQueryUnitTests","org.springframework.data.mongodb.core.convert.QueryMapperUnitTests","org.springframework.data.mongodb.repository.AbstractPersonRepositoryIntegrationTests","org.springframework.data.mongodb.repository.PersonRepository"]}
