{"id":1010,"bug_id":"DATAMONGO-1088","text":"Query should be without _class property e.g.:","file_goldset":["org.springframework.data.mongodb.core.MongoTemplate","org.springframework.data.mongodb.core.convert.MappingMongoConverter"],"creation_date":"2014-11-07T03:08:58.000-06:00","resolution_date":"2014-11-12T23:11:42.000-06:00"}
{"id":1011,"bug_id":"DATAMONGO-1123","text":"I expect 1000 \"matching\" documents But i only get 100.","file_goldset":["org.springframework.data.mongodb.core.MongoOperations"],"creation_date":"2014-12-17T09:39:36.000-06:00","resolution_date":"2015-01-07T06:15:01.000-06:00"}
{"id":1012,"bug_id":"DATAMONGO-1126","text":"// expect 5 Items returned, total of 10 Items(SWORDS) in 2 Pages      // expect 5 Items returned, total of 30 Items in 6 Pages","file_goldset":["org.springframework.data.mongodb.repository.query.AbstractMongoQueryUnitTests","org.springframework.data.mongodb.repository.query.AbstractMongoQuery","org.springframework.data.mongodb.core.MongoOperations","org.springframework.data.mongodb.core.MongoTemplate","org.springframework.data.mongodb.repository.Person"],"creation_date":"2014-12-21T06:03:21.000-06:00","resolution_date":"2015-01-20T08:04:31.000-06:00"}
{"id":1013,"bug_id":"DATAMONGO-1133","text":"the aggretation uses the property name of a class rather than the name designated in @Field.","file_goldset":["org.springframework.data.mongodb.core.aggregation.AggregationTests","org.springframework.data.mongodb.core.aggregation.TypeBasedAggregationOperationContextUnitTests"],"creation_date":"2015-01-07T00:20:51.000-06:00","resolution_date":"2015-05-25T05:03:59.000-05:00"}
