{"id":1087,"bug_id":"WFCORE-1027","text":"master-monitor should behave the same as slave-maintainer.","file_goldset":["org.jboss.as.test.integration.domain.rbac.ListRoleNamesTestCase","org.jboss.as.test.integration.domain.rbac.WildcardReadsTestCase","org.jboss.as.test.integration.domain.rbac.JmxRBACProviderHostScopedRolesTestCase","org.jboss.as.test.integration.domain.rbac.RBACProviderHostScopedRolesTestCase","org.jboss.as.test.integration.domain.rbac.AbstractHostScopedRolesTestCase","org.jboss.as.controller.operations.global.GlobalOperationHandlers"],"creation_date":"2015-10-01T18:16:10.000-05:00","resolution_date":"2015-10-06T16:00:01.000-05:00"}
{"id":1088,"bug_id":"WFCORE-1062","text":"Expected results: The cached deplpyments folder should never be removed from the HostController\u0027s domain/data/content folder.","file_goldset":["org.jboss.as.domain.controller.resources.DomainDeploymentResourceDefinition","org.jboss.as.domain.controller.operations.deployment.DeploymentAddHandler","org.jboss.as.controller.persistence.FilePersistenceUtils","org.jboss.as.server.deployment.ContentCleanerService","org.jboss.as.repository.ContentRepository"],"creation_date":"2015-10-20T09:33:46.000-05:00","resolution_date":"2015-10-22T13:43:41.000-05:00"}
{"id":1089,"bug_id":"WFCORE-815","text":"No errors.","file_goldset":["org.jboss.as.host.controller.logging.HostControllerLogger","org.jboss.as.domain.controller.operations.SocketBindingGroupIncludesHandlerTestCase","org.jboss.as.domain.controller.operations.ProfileIncludesHandlerTestCase"],"creation_date":"2015-07-13T07:57:45.000-05:00","resolution_date":"2015-07-15T13:34:32.000-05:00"}
{"id":1090,"bug_id":"WFCORE-1028","text":"The op should fail because the role doesn\u0027t exist, but there is no failure-description.","file_goldset":["org.jboss.as.controller.logging.ControllerLogger","org.jboss.as.controller.operations.global.GlobalOperationHandlers","org.jboss.as.test.integration.domain.ServerManagementTestCase","org.jboss.as.controller.access.rbac.RoleMapper"],"creation_date":"2015-10-01T19:12:08.000-05:00","resolution_date":"2016-04-16T11:14:27.000-05:00"}
{"id":1091,"bug_id":"WFCORE-1007","text":"I think that the migration operation should not show those warnings.","file_goldset":["org.jboss.as.controller.logging.ControllerLogger","org.jboss.as.controller.AbstractOperationContext"],"creation_date":"2015-09-24T06:45:11.000-05:00","resolution_date":"2015-09-25T15:39:44.000-05:00"}
