{"id":1066,"bug_id":"WFCORE-1578","text":"If there is a problem for those resources to have same names I would welcome that names are checked during the add operation already regarding to all resources in socket-binding and {remote|local}-destination-outbound-socket-binding.","file_goldset":["org.jboss.as.server.services.net.SocketBindingAddHandler","org.jboss.as.controller.logging.ControllerLogger","org.jboss.as.server.services.net.RemoteDestinationOutboundSocketBindingAddHandler","org.jboss.as.server.services.net.LocalDestinationOutboundSocketBindingAddHandler"],"creation_date":"2016-06-07T05:13:13.000-05:00","resolution_date":"2016-06-30T22:42:01.000-05:00"}
{"id":1067,"bug_id":"WFCORE-1908","text":"CLI should not suggest writing attributes that are not writable.","file_goldset":["org.jboss.as.cli.Util","org.jboss.as.cli.impl.AttributeNamePathCompleter","org.jboss.as.cli.parsing.test.AttributeNamePathCompletionTestCase"],"creation_date":"2016-10-31T08:13:57.000-05:00","resolution_date":"2016-11-02T21:27:51.000-05:00"}
{"id":1068,"bug_id":"WFCORE-1915","text":"So, the type conversion this method does should not be allowed to produce failures.","file_goldset":["org.jboss.as.controller.parsing.ParseUtils"],"creation_date":"2016-10-31T19:24:55.000-05:00","resolution_date":"2016-11-04T22:18:10.000-05:00"}
{"id":1069,"bug_id":"WFCORE-1936","text":"fixed-port attribute of socket-binding and fixed-source-port attributes of *-destination-outbound-socket-binding define in its description that there is not necessary to do reload or restart for any of them.","file_goldset":["org.jboss.as.server.services.net.OutboundSocketBindingResourceDefinition","org.jboss.as.controller.resource.AbstractSocketBindingResourceDefinition"],"creation_date":"2016-11-04T10:57:06.000-05:00","resolution_date":"2016-11-07T18:40:35.000-06:00"}
{"id":1070,"bug_id":"WFCORE-172","text":"It\u0027s not allowed to use space in the value, because the space is a header field separator in syslog messages.","file_goldset":["org.jboss.as.controller.audit.SyslogAuditLogHandler"],"creation_date":"2014-10-15T08:27:13.000-05:00","resolution_date":"2015-05-21T13:09:58.000-05:00"}
{"id":1071,"bug_id":"WFCORE-1756","text":"Adding content to an exploded deployment with overwrite to false should fail if file already exists. If overwrite is set to false then adding the file should fail.","file_goldset":["org.jboss.as.repository.ContentRepositoryTest","org.jboss.as.repository.ContentRepositoryImpl"],"creation_date":"2016-08-31T14:23:41.000-05:00","resolution_date":"2016-09-01T12:11:24.000-05:00"}
{"id":1072,"bug_id":"WFCORE-1572","text":"war --all-server-groups --headers\u003d{rollout id\u003dfoo}) and if user hits tab after the whitespace, suggestions are generated based on the command, rather than the current argument\u0027s name.","file_goldset":["org.jboss.as.cli.parsing.ParserUtil","org.jboss.as.cli.parsing.test.CommandTestCase","org.jboss.as.cli.parsing.DefaultStateWithEndCharacter"],"creation_date":"2016-05-27T16:20:10.000-05:00","resolution_date":"2016-06-20T02:04:49.000-05:00"}
{"id":1073,"bug_id":"WFCORE-2008","text":"File system paths should be allowed as arguments for /core-service\u003dpatching:patch(input-stream-index\u003d)","file_goldset":["org.jboss.as.patching.management.PatchResourceDefinition"],"creation_date":"2016-11-17T14:07:57.000-06:00","resolution_date":"2016-11-18T19:40:20.000-06:00"}
{"id":1074,"bug_id":"WFCORE-1714","text":"expected","file_goldset":["org.jboss.as.cli.CommandCompleter"],"creation_date":"2016-08-15T08:26:57.000-05:00","resolution_date":"2016-09-06T22:14:31.000-05:00"}
{"id":1075,"bug_id":"WFCORE-1570","text":"Yes, this is really minor issue, but I think that these two attributes used in aforementioned commands should be unified (preferably to name instead of id) as user might be confused when using it.","file_goldset":["org.jboss.as.cli.parsing.operation.header.RolloutPlanState","org.jboss.as.cli.parsing.operation.header.RolloutPlanHeaderCallbackHandler","org.jboss.as.cli.operation.impl.RolloutPlanCompleter"],"creation_date":"2016-05-27T12:51:56.000-05:00","resolution_date":"2016-06-20T02:05:22.000-05:00"}
{"id":1076,"bug_id":"WFCORE-2021","text":"\"ls /socket-binding-group\u003d*\" should print proper error message. \"ls /socket-binding-group\u003d\" should print proper error message.","file_goldset":["org.jboss.as.cli.handlers.LsHandler"],"creation_date":"2016-11-21T08:50:23.000-06:00","resolution_date":"2016-12-06T12:06:09.000-06:00"}
{"id":1077,"bug_id":"WFCORE-1595","text":"expected","file_goldset":["org.jboss.as.cli.operation.OperationRequestCompleter"],"creation_date":"2016-06-15T10:10:43.000-05:00","resolution_date":"2016-06-24T15:28:45.000-05:00"}
{"id":1078,"bug_id":"WFCORE-2083","text":"Reduce number of object allocations and memory footprint. There are also cases where inner classes should be static to prevent capturing object reference to be kept and many other cases.","file_goldset":["org.jboss.as.controller.AttributeDefinition","org.jboss.as.controller.ResourceBuilderRoot","org.jboss.as.controller.AttributeMarshallers","org.jboss.as.controller.AbstractAttributeDefinitionBuilder","org.jboss.as.controller.SimpleOperationDefinitionBuilder","org.jboss.as.controller.registry.AbstractModelResource","org.jboss.as.controller.AttributeMarshaller","org.jboss.as.controller.SimpleResourceDefinition","org.jboss.as.controller.SimpleListAttributeDefinition","org.jboss.as.controller.SimpleOperationDefinition"],"creation_date":"2016-12-05T14:02:40.000-06:00","resolution_date":"2016-12-09T15:38:05.000-06:00"}
{"id":1079,"bug_id":"WFCORE-1864","text":"The module name in dependencies should be stripped of leading and trailing whitespaces.","file_goldset":["org.jboss.as.cli.handlers.module.ASModuleHandler","org.jboss.as.test.integration.management.cli.ModuleTestCase"],"creation_date":"2016-10-13T09:12:31.000-05:00","resolution_date":"2016-10-26T20:18:59.000-05:00"}
