{"id":1476,"bug_id":"DATAMONGO-1088","text":"@Query $in does not remove \"_class\" property on collection of embedded objects . Following method on repository      Query should be without _class property e.g.:  I attached test project demonstrating this bug.  @Query(value \u003d \"{ embedded : { $in : ?0} }\")\n\n\n\n\n\tList\u003cFoo\u003e findByEmbeddedIn2(Collection\u003cEmbeddedObject\u003e c)","file_goldset":["org.springframework.data.mongodb.core.MongoTemplate","org.springframework.data.mongodb.core.convert.MappingMongoConverter"],"creation_date":"2014-11-07T03:08:58.000-06:00","resolution_date":"2014-11-12T23:11:42.000-06:00"}
{"id":1477,"bug_id":"DATAMONGO-1123","text":"geoNear, does not return all matching elements, it returns only a max of 100 documents. I have the following query:         I expect 1000 \"matching\" documents But i only get 100.     public GeoResults\u003cMyObject\u003e findByTypeAndLocationNear(MyObjectType type, Point p, Distance distance) {\n\n\n\n\n   final NearQuery nearQuery \u003d NearQuery.near(p).maxDistance(distance);\n\n\n\n\n   log.info(\"{}\",nearQuery.toDBObject());\n\n\n\n\n   return mongoTemplate.geoNear(nearQuery, MyObject.class);\n\n\n\n\n}\n\n\n\n\n\n\n {@link GeoResults}  {@link NearQuery}","file_goldset":["org.springframework.data.mongodb.core.MongoOperations"],"creation_date":"2014-12-17T09:39:36.000-06:00","resolution_date":"2015-01-07T06:15:01.000-06:00"}
{"id":1478,"bug_id":"DATAMONGO-1126","text":"Repository keyword query findByInId with pageable not returning correctly. I\u0027ve been trying to use the In-keyword with identifiers and making the query pageable.  Also when you try to get any other page than 0, no results return.  Below is a strip down example I used for testing; I\u0027ve created 3 types and 10 items per those types, results in a total of 30 items.                                   // expect 5 Items returned, total of 10 Items(SWORDS) in 2 Pages      // expect 5 Items returned, total of 30 Items in 6 Pages        getTotalElements()  getTotalPages()  @Document\n\n\n\n\npublic class Item {\n\n\n\n\n\n\n\n\n\n    @Id\n\n\n\n\n    private String id;\n\n\n\n\n    private String type;\n\n\n\n\n}\n\n\n\n\n\n\n\n\n\n\n\n\n public interface ItemRepository extends MongoRepository\u003cItem, String\u003e {\n\n\n\n\n\n\n\n\n\n    Page\u003cItem\u003e findByIdIn(Collection ids, Pageable pageable);\n\n\n\n\n    Page\u003cItem\u003e findByTypeIn(Collection types, Pageable pageable);\n\n\n\n\n}\n\n\n\n\n\n\n\n\n\n\n\n\n @RunWith(SpringJUnit4ClassRunner.class)\n\n\n\n\n@ContextConfiguration(classes \u003d {MongoDbConfig.class})\n\n\n\n\n@TransactionConfiguration(defaultRollback \u003d false)\n\n\n\n\npublic class TestPageableIdIn {\n\n\n\n\n\n\n\n\n\n    @Autowired\n\n\n\n\n    private ItemRepository itemRepository;\n\n\n\n\n    \n\n\n\n\n    private List\u003cString\u003e allIds \u003d new LinkedList\u003c\u003e();\n\n\n\n\n\n\n\n\n\n    @Before\n\n\n\n\n    public void setUp() {\n\n\n\n\n        itemRepository.deleteAll();\n\n\n\n\n        String[] types \u003d {\"SWORD\", \"SHIELD\", \"ARMOUR\"};\n\n\n\n\n\n\n\n\n\n        // 10 items per type\n\n\n\n\n        for (String type : types) {\n\n\n\n\n            for (int i \u003d 0; i \u003c 10; i++) {\n\n\n\n\n                String id \u003d UUID.randomUUID().toString();\n\n\n\n\n                allIds.add(id);\n\n\n\n\n                itemRepository.save(new Item(id, type));\n\n\n\n\n            }\n\n\n\n\n        }\n\n\n\n\n    }\n\n\n\n\n\n\n\n\n\n    @Test\n\n\n\n\n    public void testPageableIdIn() {\n\n\n\n\n        \n\n\n\n\n        Pageable pageable \u003d new PageRequest(0, 5);\n\n\n\n\n        \n\n\n\n\n        // expect 5 Items returned, total of 10 Items(SWORDS) in 2 Pages\n\n\n\n\n        Page\u003cItem\u003e results \u003d itemRepository.findByTypeIn(Arrays.asList(\"SWORD\"), pageable);\n\n\n\n\n        Assert.assertEquals(5, results.getContent().size());\n\n\n\n\n        Assert.assertEquals(10, results.getTotalElements());\n\n\n\n\n        Assert.assertEquals(2, results.getTotalPages());\n\n\n\n\n        \n\n\n\n\n        // expect 5 Items returned, total of 30 Items in 6 Pages\n\n\n\n\n        results \u003d itemRepository.findByIdIn(allIds, pageable);\n\n\n\n\n        Assert.assertEquals(5, results.getContent().size());\n\n\n\n\n        Assert.assertEquals(30, results.getTotalElements()); // this is returning 0\n\n\n\n\n        Assert.assertEquals(6, results.getTotalPages());     // this is returning 0\n\n\n\n\n    }\n\n\n\n\n}","file_goldset":["org.springframework.data.mongodb.repository.query.AbstractMongoQueryUnitTests","org.springframework.data.mongodb.repository.query.AbstractMongoQuery","org.springframework.data.mongodb.core.MongoOperations","org.springframework.data.mongodb.core.MongoTemplate","org.springframework.data.mongodb.repository.Person"],"creation_date":"2014-12-21T06:03:21.000-06:00","resolution_date":"2015-01-20T08:04:31.000-06:00"}
