{"key":"WFCORE-1908","title":"","description":"CLI should not suggest writing attributes that are not writable. attribute(name\u003dmessage-count, value\u003d5)\n\n\n\n\n {\n\n\n\n\n    \"outcome\" \u003d\u003e \"failed\",\n\n\n\n\n    \"failure-description\" \u003d\u003e \"WFLYCTL0048: Attribute message-count is not writable\",\n\n\n\n\n    \"rolled-back\" \u003d\u003e true\n\n\n\n\n}"}
{"key":"WFCORE-1578","title":"","description":"If there is a problem for those resources to have same names I would welcome that names are checked during the add operation already regarding to all resources in socket-binding and {remote|local}-destination-outbound-socket-binding.  {remote|local} add()\n\n\n\n\n add(host\u003dlocalhost,port\u003d8765)\n\n\n\n\n add(socket-binding-ref\u003dhttp)\n\n\n\n\n {remote|local}"}
{"key":"WFCORE-1936","title":"","description":"fixed-port attribute of socket-binding and fixed-source-port attributes of *-destination-outbound-socket-binding define in its description that there is not necessary to do reload or restart for any of them.    description(recursive\u003dtrue)"}
{"key":"WFCORE-2021","title":"\"ls /socket-binding-group\u003d*\" should print proper error message","description":"\"ls /socket-binding-group\u003d\" should print proper error message.        {\"WFLYCTL0062: Composite operation failed and was rolled back. Steps that failed:\" \u003d\u003e {\"Operation step-1\" \u003d\u003e \"WFLYCTL0030: No resource definition is registered for address [(\\\"subsystem\\\" \u003d\u003e \\\"*\\\")]\"}"}
{"key":"WFCORE-1864","title":"","description":"The module name in dependencies should be stripped of leading and trailing whitespaces. {{\n...\n    \u003cdependencies\u003e\n        \u003cmodule name\u003d\"org.a\"/\u003e\n        \u003cmodule name\u003d\" org.b \"/\u003e\n    \u003c/dependencies\u003e\n...\n}}"}
{"key":"WFCORE-1572","title":"","description":"war --all-server-groups --headers\u003d{rollout id\u003dfoo}) and if user hits tab after the whitespace, suggestions are generated based on the command, rather than the current argument\u0027s name. {rollout id\u003dfoo}"}
{"key":"WFCORE-1570","title":"","description":"Yes, this is really minor issue, but I think that these two attributes used in aforementioned commands should be unified (preferably to name instead of id) as user might be confused when using it.   group(rolling-to-servers\u003dfalse,max-failed-servers\u003d1) group(rolling-to-servers\u003dtrue,max-failure-percentage\u003d20)  {rollout id\u003dmy-rollout-plan}"}
