P_EB_EXP_BEHAVIOR_MULTI;ExpBehaviorLiteralMultiSentencePM 3
P_OB_OBSERVED_BEHAVIOR_MULTI;ObsBehaviorLiteralMultiStncePM 43
P_OB_DESCRIPTION;DescriptionPM 53
P_SR_LABELED_LIST;LabeledListPM 70
P_SR_ACTIONS_MULTI_OBS_BEHAVIOR;ActionsMultiPM 72
P_SR_LABELED_PARAGRAPH;LabeledParagraphPM 73
P_SR_SIMPLE_PAST;SimplePastParagraphPM 74
P_SR_COND_SEQUENCE;ConditionalSequenceParagrahPM 75
P_SR_CONTINOUS_PRESENT_PAST;ContinuousPresentPastPM 76
P_SR_HAVE_SEQUENCE;HaveSequencePM 83
P_SR_ACTIONS_PRESENT;ActionsPresentPM 85
P_SR_ACTIONS_PAST;ActionsPastPM 86
P_SR_TO_REPRO;ToReproParagraphPM 88
P_OB_LOG_CONTAINS;LogContainsPM 118
P_OB_BECOMES;BecomesPM 131
P_OB_ERROR_TERMS_PARAGRAPH;ErrorTermsParagraphPM 132
P_SR_ACTIONS_INF;ActionsInfinitivePM 141
P_OB_COND_EXAMPLE;ConditionalExamplePM 153
P_OB_TREAT_AS;TreatAsPM 154
P_SR_COND_CODE;ConditionalCodeParagraphPM 162
P_SR_LABELED_CODE_FRAGS;LabeledCodeFragmentsPM 164
