{"key":"WFCORE-1552","title":"Slaves should report the master\u0027s version in the domain model","description":"product-name, product-version, release-codename and release-version on the slave should be the same as the master values."}
{"key":"WFCORE-1715","title":"","description":"The doReload() method of the ReloadContext should restore it. This ensures the ServerInventoryService.stop() only uses the value set by HostProcessReloadHandler once, for that one reload.   But if we restore the default value of restartMode, that is null, and null ! \u003d RestartMode.SERVERS. So the \"\"shutdownServers\" logic will no longer kick in."}
{"key":"WFCORE-1657","title":"","description":"however correct module name is org.jboss.as.controller"}
