{"id":3863,"bug_id":"DATACMNS-609","text":"Multiple usage of repository setup means (XML or annotation) creates multiple bean definitions for RepositoryInterfaceAwareBeanPostProcessor. Apparently every time the tag jpa:repositories is used in XML files, a new instance of RepositoryInterfaceAwareBeanPostProcessor is created and registered with the bean factory. This is mainly a performance problem because predictBeanType()-method is then called N times for every relevant bean. This can easily be reproduced with the version 51d1c5d of git@github.com:spring-projects/spring-data-jpa-examples.git by adding an extra stanza like \u003cjpa:repositories base-package\u003d\"org.springframework.dummy\" /\u003e to simple-repository-context.xml and running XmlConfigCachingRepositoryTests. predictBeanType()","file_goldset":["org.springframework.data.repository.config.RepositoryConfigurationExtensionSupport","org.springframework.data.repository.config.RepositoryConfigurationExtensionSupportUnitTests"],"creation_date":"2014-11-30T07:31:51.000-06:00","resolution_date":"2014-12-01T01:35:19.000-06:00"}
{"id":3864,"bug_id":"DATACMNS-68","text":"NullPointerException in AbstractPersistentProperty::getComponentType(). The following code appears to work fine:  But this fails with the NPE below:                 class TestClassSet extends TreeSet\u003cObject\u003e { }\n\n\n\n\n\n\n\n\n\n class TestClassComplex {\n\n\n\n\n    private String id;\n\n\n\n\n    private TestClassSet testClassSet;\n\n\n\n\n\n\n\n\n\n    public String getId() {\n\n\n\n\n        return id;\n\n\n\n\n    }\n\n\n\n\n\n\n\n\n\n    public TestClassSet getTestClassSet() {\n\n\n\n\n        return testClassSet;\n\n\n\n\n    }\n\n\n\n\n\n\n\n\n\n    public void setTestClassSet(TestClassSet testClassSet) {\n\n\n\n\n        this.testClassSet \u003d testClassSet;\n\n\n\n\n    }\n\n\n\n\n}\n\n\n\n\n\n\n List\u003cTestClassSet\u003e o \u003d mongoTemplate.findAll(TestClassSet.class);\n\n\n\n\n\n\n List\u003cTestClassComplex\u003e o \u003d mongoTemplate.findAll(TestClassComplex.class);","file_goldset":["org.springframework.data.util.ClassTypeInformation"],"creation_date":"2011-08-26T08:05:09.000-05:00","resolution_date":"2011-08-31T12:08:41.000-05:00"}
{"id":3865,"bug_id":"DATACMNS-114","text":"We have two repositories with a similar name suffix. Both repositories have a custom interface and implementation, also ending with a similar name suffix. When automatically scanning the repositories, and their custom implementation, the wrong custom implementation is wired to our repository bean. Resulting in the following exception:                         For example: We have a repository named ContractRepository with a custom interface ContractRepositoryCustom and an implementation ContractRepositoryImpl, all defined inside the same package. In another package we have a repository, for another entity type, named AnotherContractRepository with a custom interface AnotherContractRepositoryCustom and an implementation AnotherContractRepositoryImpl. When starting the application context, the contractRepository bean is linked to our anotherContractRepositoryImpl rather than the contractRepositoryImpl.    AbstractRepositoryConfigDefinitionParser.detectCustomImplementation(...) getImplementationClassName()","file_goldset":["org.springframework.data.repository.config.AbstractRepositoryConfigDefinitionParser"],"creation_date":"2011-12-19T03:21:41.000-06:00","resolution_date":"2011-12-20T03:35:19.000-06:00"}
{"id":3866,"bug_id":"DATACMNS-616","text":"AnnotationRevisionMetadata can\u0027t access private fields. Trying to use a custom Envers revision class:                            triggers this error:       @Entity\n\n\n\n\n@RevisionEntity(ExtendedRevisionListener.class)\n\n\n\n\n@Table(name \u003d \"revinfo\")\n\n\n\n\npublic class ExtendedRevision implements Serializable  @Id\n\n\n\n\n\t@GeneratedValue\n\n\n\n\n\t@Column(name \u003d \"REV\")\n\n\n\n\n\t@RevisionNumber\n\n\n\n\n\tprivate Integer id;\n\n\n\n\n\n\n\n\n\n\t @RevisionTimestamp\n\n\n\n\n\t@Temporal(TemporalType.TIMESTAMP)\n\n\n\n\n\t@Column(name \u003d \"REVTSTMP\", nullable \u003d false)\n\n\n\n\n\tprivate Date date;\n\n\n\n\n\n\n\n\n\n\t @Column(nullable \u003d false, length \u003d 15)\n\n\n\n\n\tprivate String username;\n\n\n\n\n\n\n\n\n\n\t public Integer getId() {\n\n\n\n\n\t\treturn id;\n\n\n\n\n\t}\n\n\n\n\n\n\n\n\n\n\t public Date getDate() {\n\n\n\n\n\t\treturn date;\n\n\n\n\n\t}\n\n\n\n\n\n\n\n\n\n\t public String getUsername() {\n\n\n\n\n\t\treturn username;\n\n\n\n\n\t}\n\n\n\n\n\n\n\n\n\n\t public void setUsername(String username) {\n\n\n\n\n\t\tthis.username \u003d username;\n\n\n\n\n\t}","file_goldset":["org.springframework.data.util.AnnotationDetectionFieldCallback"],"creation_date":"2014-12-17T02:25:54.000-06:00","resolution_date":"2014-12-17T07:20:00.000-06:00"}
{"id":3867,"bug_id":"DATACMNS-157","text":"@Query in extending interface is not picked up correctly. I try to define an interface method in a super repository interface and \u0027implement\u0027 this in an extending interface with @Query.  Tested in the latest nightly build:           Results in                                    It looks like Spring Data does not use the @Query annotation in the sub interface. @Query @NoRepositoryBean\n\n\n\n\npublic interface EntityRepository\u003cT\u003e extends JpaRepository\u003cT, Long\u003e {\n\n\n\n\n\n\n\n\n\n\tT findByDealer(Dealer dealer);\n\n\n\n\n}\n\n\n\n\n\n\n\n\n\n public interface CarRepository extends EntityRepository\u003cPersonalSiteVehicle\u003e {\n\n\n\n\n\n\n\n\n\n\t@Override\n\n\n\n\n\t@Query(\"select p from PersonalSiteVehicle p join p.detail d join d.enrichable e where e.dealer \u003d ?1\")\n\n\n\n\n\tPersonalSiteVehicle findByDealer(Dealer dealer);\n\n\n\n\n}\n\n\n\n\n\n\n @Query","file_goldset":["org.springframework.data.repository.core.support.DefaultRepositoryInformationUnitTests","org.springframework.data.repository.core.support.DefaultRepositoryInformation"],"creation_date":"2012-04-20T01:24:38.000-05:00","resolution_date":"2012-04-20T05:15:54.000-05:00"}
{"id":3868,"bug_id":"DATACMNS-160","text":"A repository which only defines delete methods is not created by the Spring Data code with the exception:                                                                       I attach a sample Maven project to reproduce the issue  public interface DeleteOnlyRepository\u003cT, ID extends Serializable\u003e extends Repository\u003cT, ID\u003e{\n\n\n\n\n\n\n\n\n\n    public void delete(ID paramID);\n\n\n\n\n\n\n\n\n\n    public void delete(T paramT);\n\n\n\n\n\n\n\n\n\n    public void delete(Iterable\u003c? extends T\u003e paramIterable);\n\n\n\n\n\n\n\n\n\n    public void deleteAll();\n\n\n\n\n\n\n\n\n\n}","file_goldset":["org.springframework.data.repository.core.support.DefaultRepositoryInformationUnitTests","org.springframework.data.repository.core.support.DefaultRepositoryInformation"],"creation_date":"2012-04-21T08:47:35.000-05:00","resolution_date":"2012-04-26T09:13:19.000-05:00"}
{"id":3869,"bug_id":"DATACMNS-176","text":"StackOverflowError when inserted object is a CGLIB proxy. When trying to persist an object [to MongoDB (spring-data-mongodb v1.1.0. M1)] that is in \"session\" scope and using a CGLIB proxy (ie: \"@Scope(value\u003d\"session\", proxyMode \u003d ScopedProxyMode.TARGET_CLASS)\") I receive a StackOverflowError.                  @Scope(value\u003d\"session\", proxyMode \u003d ScopedProxyMode.TARGET_CLASS)","file_goldset":["org.springframework.data.util.ClassTypeInformation"],"creation_date":"2012-05-21T11:47:05.000-05:00","resolution_date":"2012-09-13T10:21:33.000-05:00"}
{"id":3870,"bug_id":"DATACMNS-683","text":"Given following Java config class              , following Controller class                         and following JSP                the method post in PersonController throws the InvalidArgumentException because the person parameter is null.         \n\n\n\n\n\n\npackage be.vdab.web;\n\n\n\n\n\n\n\n\n\nimport org.springframework.context.annotation.ComponentScan;\n\n\n\n\nimport org.springframework.context.annotation.Configuration;\n\n\n\n\nimport org.springframework.data.web.config.EnableSpringDataWebSupport;\n\n\n\n\nimport org.springframework.web.servlet.config.annotation.EnableWebMvc;\n\n\n\n\nimport org.springframework.web.servlet.config.annotation.WebMvcConfigurerAdapter;\n\n\n\n\n\n\n\n\n\n// enkele imports\n\n\n\n\n@Configuration\n\n\n\n\n@EnableWebMvc\n\n\n\n\n@EnableSpringDataWebSupport\n\n\n\n\n@ComponentScan\n\n\n\n\npublic class CreateControllerBeans extends WebMvcConfigurerAdapter {\n\n\n\n\n}\n\n\n\n\n\n\n \n\n\n\n\n\n\npackage be.vdab.web;\n\n\n\n\n\n\n\n\n\nimport org.springframework.stereotype.Controller;\n\n\n\n\nimport org.springframework.web.bind.annotation.ModelAttribute;\n\n\n\n\nimport org.springframework.web.bind.annotation.RequestMapping;\n\n\n\n\nimport org.springframework.web.bind.annotation.RequestMethod;\n\n\n\n\nimport org.springframework.web.servlet.ModelAndView;\n\n\n\n\n\n\n\n\n\nimport be.vdab.entities.Person;\n\n\n\n\n\n\n\n\n\n@Controller\n\n\n\n\n@RequestMapping(value \u003d \"/\")\n\n\n\n\npublic class PersonController {\n\n\n\n\n\tprivate static final String TOEVOEGEN_VIEW \u003d \"/WEB-INF/JSP/index.jsp\";\n\n\n\n\n\n\n\n\n\n\n\n\n\n\n\t@RequestMapping(method\u003dRequestMethod.GET)\n\n\n\n\n\tModelAndView get() {\n\n\n\n\n\t\treturn new ModelAndView(TOEVOEGEN_VIEW).addObject(new Person());\n\n\n\n\n\t}\n\n\n\n\n\t\n\n\n\n\n\t@RequestMapping(method \u003d RequestMethod.POST)\n\n\n\n\n\tString post(@ModelAttribute Person person) {\n\n\n\n\n\t  if (person \u003d\u003d null) {\n\n\n\n\n\t\t  throw new IllegalArgumentException(\"person IS NULL\");\n\n\n\n\n\t  }\n\n\n\n\n\t  return \"redirect:/\";\n\n\n\n\n\t}\n\n\n\n\n\n\n\n\n\n\n\n\n\n\n\n\n\n\n\n}\n\n\n\n\n\n\n @EnableSpringDataWebSupport @ModelAttribute","file_goldset":["org.springframework.data.repository.support.DomainClassConverterUnitTests","org.springframework.data.repository.support.DomainClassConverter"],"creation_date":"2015-04-13T05:31:25.000-05:00","resolution_date":"2015-04-13T08:44:38.000-05:00"}
{"id":3871,"bug_id":"DATACMNS-233","text":"Imagine the use case where you have an Order domain class which has a ManyToOne reference to Customer. When posting a new Order where Order.customer \u003d\u003d \"\" then a converter exception is thrown:       This is the code I used:     @javax.validation.constraints.NotNull @javax.persistence.ManyToOne","file_goldset":["org.springframework.data.repository.support.DomainClassConverter","org.springframework.data.repository.support.DomainClassConverterUnitTests"],"creation_date":"2012-09-14T07:38:12.000-05:00","resolution_date":"2012-09-17T01:05:34.000-05:00"}
{"id":3872,"bug_id":"DATACMNS-257","text":"Cannot execute MongoOperations.findOne method if my model entity contains @Id field which name is uppercase, like UID. Here an example:       1) create an entity like in example code snippet in MongoDb 2) try to perform find by id operation by calling MongoOperations.findOne 3) at this step you will get an exception                                                @Id class Foo{\n\n\n\n\n  \n\n\n\n\n  @Id\n\n\n\n\n  private String UID;\n\n\n\n\n\n\n\n\n\n  //code omitted\n\n\n\n\n}","file_goldset":["org.springframework.data.mapping.PropertyPath","org.springframework.data.mapping.PropertyPathUnitTests"],"creation_date":"2012-11-29T02:29:27.000-06:00","resolution_date":"2012-12-12T23:20:27.000-06:00"}
{"id":3873,"bug_id":"DATACMNS-695","text":"Potential NullPointerException in AbstractMappingContext. The issue is triggered querying a nested generic field qualified with a custom class (not primitive). Following snippet shows the nested field we are trying to query:        The call to mongoOperations throws a NullPointerException originating from AbstractMappingContext.   public class External{\n\n\n\n\n ..\n\n\n\n\n private Optional\u003cInternal\u003e field \u003d new Optional\u003cInternal\u003e();\n\n\n\n\n ..\n\n\n\n\n}","file_goldset":["org.springframework.data.mapping.context.AbstractMappingContextUnitTests","org.springframework.data.mapping.context.AbstractMappingContext"],"creation_date":"2015-05-13T09:08:15.000-05:00","resolution_date":"2015-05-13T09:37:39.000-05:00"}
{"id":3874,"bug_id":"DATACMNS-943","text":"Redeclared save(Iterable) results in wrong method overload to be invoked eventually. But in jenkins server (on linux) with the same java version the code breaks with this exception                        The invoking call is   In linux and with the upgrade to spring boot 1.4.1 it seems the save(Iterable) method is not invoked, but the save(entity) method is invoked and causes this exception. myRepository.save(Arrays.asList(new MyEntity(1, \"foo\"), new MyEntity(2, \"bar\")));","file_goldset":["org.springframework.data.repository.core.support.DefaultRepositoryInformation","org.springframework.data.repository.core.support.DefaultRepositoryInformationUnitTests"],"creation_date":"2016-10-04T21:54:22.000-05:00","resolution_date":"2016-11-24T16:25:00.000-06:00"}
{"id":3875,"bug_id":"DATACMNS-509","text":"Since an upgrade to JPA 1.6 RC1, Spring MVC fails to properly address a NullableWrapper and this is returned, with the contents contained with the NullableWrapper. I have a MVC method that is returning:     With Spring Data JPA 1.5. , I get on the wire a set of Pos\u0027s in JSON format, i.e.,  With Spring Data JPA 1.6 RC1, I now get the NullableWrapper with Contents:  {\n\n\n\n\n    final Set\u003cPos\u003e allPos \u003d posService.findAll();\n\n\n\n\n    return ImmutableSortedSet.copyOf(allPos);\n\n\n\n\n}\n\n\n\n\n\n\n {\"name: \"pos1\"} {\"name: \"pos2\"} {\"name: \"pos1\"} {\"name: \"pos2\"}","file_goldset":["org.springframework.data.repository.core.support.RepositoryFactorySupport","org.springframework.data.repository.core.support.DummyRepositoryFactory","org.springframework.data.repository.core.support.RepositoryFactorySupportUnitTests"],"creation_date":"2014-05-08T08:39:02.000-05:00","resolution_date":"2014-05-20T07:35:26.000-05:00"}
{"id":3876,"bug_id":"DATACMNS-511","text":"AbstractMappingContext.addPersistentEntity causes infinite loop. We use quite a few abstract MappedSuperclasses that have circular references and apparently this does not work. An example:                           public class User extends AbstractTenantUser\u003cUser, Role, Permission, Tenant\u003e {\n\n\n\n\n    ...\n\n\n\n\n}\n\n\n\n\n public abstract class AbstractTenantUser\u003cUSER extends AbstractTenantUser\u003cUSER, ROLE, PERMISSION, TENANT\u003e, ROLE extends AbstractRole\u003cUSER, PERMISSION\u003e, PERMISSION extends AbstractPermission\u003cUSER\u003e, TENANT extends AbstractTenant\u003cUSER\u003e\u003e extends AbstractUser\u003cUSER, ROLE, PERMISSION\u003e implements TenantEntity\u003cTENANT\u003e {\n\n\n\n\n    ...\n\n\n\n\n}\n\n\n\n\n public abstract class AbstractUser\u003cUSER extends AbstractUser\u003cUSER, ROLE, PERMISSION\u003e, ROLE extends AbstractRole\u003cUSER, PERMISSION\u003e, PERMISSION extends AbstractPermission\u003cUSER\u003e\u003e extends AuditingDateBaseEntity\u003cUSER\u003e {\n\n\n\n\n    ...\n\n\n\n\n}\n\n\n\n\n public abstract class AbstractPermission\u003cUSER extends AbstractUser\u003cUSER, ?, ?\u003e\u003e extends AuditingDateBaseEntity\u003cUSER\u003e {\n\n\n\n\n    ...\n\n\n\n\n}\n\n\n\n\n public abstract class AuditingDateBaseEntity\u003cUSER extends AbstractUser\u003cUSER, ?, ?\u003e\u003e extends AbstractDateBaseEntity implements AuditingEntity\u003cUSER\u003e {\n\n\n\n\n    ...\n\n\n\n\n}\n\n\n\n\n public abstract class AbstractDateBaseEntity extends AbstractBaseEntity implements DateEntity {\n\n\n\n\n    ...\n\n\n\n\n}\n\n\n\n\n public abstract class AbstractBaseEntity implements BaseEntity {\n\n\n\n\n    ...\n\n\n\n\n}","file_goldset":["org.springframework.data.util.TypeVariableTypeInformation"],"creation_date":"2014-05-22T00:04:43.000-05:00","resolution_date":"2014-05-31T05:54:31.000-05:00"}
{"id":3877,"bug_id":"DATACMNS-562","text":"This is the Class of entity used to save to mongodb.                                      This is the call entry:           Exception caught as below:                                 public class ClassC extends ClassA {\n\n\n\n\n\tprivate ClassB b;\n\n\n\n\n\n\n\n\n\n\tpublic ClassB getB() {\n\n\n\n\n\t\treturn b;\n\n\n\n\n\t}\n\n\n\n\n\n\n\n\n\n\tpublic void setB(ClassB b) {\n\n\n\n\n\t\tthis.b \u003d b;\n\n\n\n\n\t}\n\n\n\n\n}\n\n\n\n\n\n\n\n\n\n class ClassA {\n\n\n\n\n\n\n\n\n\n\tprivate String name;\n\n\n\n\n\n\n\n\n\n\tprivate ClassD dObject;\n\n\n\n\n\n\n\n\n\n\tpublic String getName() {\n\n\n\n\n\t\treturn name;\n\n\n\n\n\t}\n\n\n\n\n\n\n\n\n\n\tpublic void setName(String name) {\n\n\n\n\n\t\tthis.name \u003d name;\n\n\n\n\n\t}\n\n\n\n\n\n\n\n\n\n\tpublic ClassD getdObject() {\n\n\n\n\n\t\treturn dObject;\n\n\n\n\n\t}\n\n\n\n\n\n\n\n\n\n\tpublic void setdObject(ClassD dObject) {\n\n\n\n\n\t\tthis.dObject \u003d dObject;\n\n\n\n\n\t}\n\n\n\n\n}\n\n\n\n\n\n\n\n\n\n class ClassB extends ClassA {\n\n\n\n\n}\n\n\n\n\n\n\n\n\n\n class ClassD {\n\n\n\n\n\n\n\n\n\n\tprivate TreeMap\u003cString, TreeMap\u003cString, String\u003e\u003e map \u003d new TreeMap\u003c\u003e();\n\n\n\n\n\n\n\n\n\n\tpublic TreeMap\u003cString, TreeMap\u003cString, String\u003e\u003e getMap() {\n\n\n\n\n\t\treturn map;\n\n\n\n\n\t}\n\n\n\n\n\n\n\n\n\n\tpublic void setMap(TreeMap\u003cString, TreeMap\u003cString, String\u003e\u003e map) {\n\n\n\n\n\t\tthis.map \u003d map;\n\n\n\n\n\t}\n\n\n\n\n\n\n\n\n\n}\n\n\n\n\n\n\n ClassC cObject \u003d new ClassC();\n\n\n\n\ncObject.setName(\"Jon\");\n\n\n\n\ntry {\n\n\n\n\n\tmongoTemplate.save(cObject, \"c\");\n\n\n\n\n} catch (Exception e) {\n\n\n\n\n\te.printStackTrace();\n\n\n\n\n}\n\n\n\n\n\n\n private transient EntrySet entrySet \u003d null;","file_goldset":["org.springframework.data.mapping.model.AbstractPersistentPropertyUnitTests","org.springframework.data.mapping.model.AbstractPersistentProperty"],"creation_date":"2014-08-19T01:25:20.000-05:00","resolution_date":"2014-08-19T07:50:41.000-05:00"}
