{"id":3979,"bug_id":"WFCORE-1908","text":"Tab completion suggest writing attribute which has access type metric and is not writable. CLI tab completion suggests attributes that are not writable and their access-type is metric Example    On attempt to write metric attribute, for example message-count, non writable error is printed        attribute(name\u003dmessage-count, value\u003d5)\n\n\n\n\n {\n\n\n\n\n    \"outcome\" \u003d\u003e \"failed\",\n\n\n\n\n    \"failure-description\" \u003d\u003e \"WFLYCTL0048: Attribute message-count is not writable\",\n\n\n\n\n    \"rolled-back\" \u003d\u003e true\n\n\n\n\n}","file_goldset":["org.jboss.as.cli.Util","org.jboss.as.cli.impl.AttributeNamePathCompleter","org.jboss.as.cli.parsing.test.AttributeNamePathCompletionTestCase"],"creation_date":"2016-10-31T08:13:57.000-05:00","resolution_date":"2016-11-02T21:27:51.000-05:00"}
{"id":3980,"bug_id":"WFCORE-1027","text":"Setting up host scoped roles as follows https://gist.github.com/heiko-braun/0dc810ed04db8739defd there are inconsistent results in the filtering. When using a role which only selects the master there is no access-control response header showing the filtered resources, and the slave wrongly appears in the results:                                                              When using a role that only selects the slave we get a proper access-control header                                                                                 {roles\u003dmaster-monitor}\n\n\n\n\n {\n\n\n\n\n                \"directory-grouping\" \u003d\u003e \"by-server\",\n\n\n\n\n                \"domain-controller\" \u003d\u003e {\"local\" \u003d\u003e {} {\"org.jboss.as.jmx\" \u003d\u003e undefined} {\n\n\n\n\n                    \"management\" \u003d\u003e undefined,\n\n\n\n\n                    \"public\" \u003d\u003e undefined,\n\n\n\n\n                    \"unsecure\" \u003d\u003e undefined\n\n\n\n\n                } {\"default\" \u003d\u003e undefined} {\"jmx\" \u003d\u003e undefined} {roles\u003dslave-maintainer}\n\n\n\n\n {roles\u003dslave-maintainer}\n\n\n\n\n {\"org.jboss.as.jmx\" \u003d\u003e undefined} {\n\n\n\n\n                \"management\" \u003d\u003e undefined,\n\n\n\n\n                \"public\" \u003d\u003e undefined,\n\n\n\n\n                \"unsecure\" \u003d\u003e undefined\n\n\n\n\n            } {\"default\" \u003d\u003e undefined} {\"jmx\" \u003d\u003e undefined}","file_goldset":["org.jboss.as.test.integration.domain.rbac.ListRoleNamesTestCase","org.jboss.as.test.integration.domain.rbac.WildcardReadsTestCase","org.jboss.as.test.integration.domain.rbac.JmxRBACProviderHostScopedRolesTestCase","org.jboss.as.test.integration.domain.rbac.RBACProviderHostScopedRolesTestCase","org.jboss.as.test.integration.domain.rbac.AbstractHostScopedRolesTestCase","org.jboss.as.controller.operations.global.GlobalOperationHandlers"],"creation_date":"2015-10-01T18:16:10.000-05:00","resolution_date":"2015-10-06T16:00:01.000-05:00"}
{"id":3981,"bug_id":"WFCORE-267","text":"CLI prints output twice if using cli client jar. If you are using the CLI client jar, all output is printed twice. This is because JBoss logging is not set up and by default CommandContextImpl is printing log messages to standard out. The output will look something like this:                               INFO: {\n\n\n\n\n    \"outcome\" \u003d\u003e \"success\",\n\n\n\n\n    \"result\" \u003d\u003e [\n\n\n\n\n        \"core-service\",\n\n\n\n\n        \"deployment\",\n\n\n\n\n        \"deployment-overlay\",\n\n\n\n\n        \"extension\",\n\n\n\n\n        \"interface\",\n\n\n\n\n        \"path\",\n\n\n\n\n        \"socket-binding-group\",\n\n\n\n\n        \"subsystem\",\n\n\n\n\n        \"system-property\"\n\n\n\n\n    ]\n\n\n\n\n}\n\n\n\n\n{\n\n\n\n\n    \"outcome\" \u003d\u003e \"success\",\n\n\n\n\n    \"result\" \u003d\u003e [\n\n\n\n\n        \"core-service\",\n\n\n\n\n        \"deployment\",\n\n\n\n\n        \"deployment-overlay\",\n\n\n\n\n        \"extension\",\n\n\n\n\n        \"interface\",\n\n\n\n\n        \"path\",\n\n\n\n\n        \"socket-binding-group\",\n\n\n\n\n        \"subsystem\",\n\n\n\n\n        \"system-property\"\n\n\n\n\n    ]\n\n\n\n\n}","file_goldset":["org.jboss.as.cli.CommandLineMain"],"creation_date":"2014-11-19T19:47:31.000-06:00","resolution_date":"2014-12-05T23:16:30.000-06:00"}
{"id":3982,"bug_id":"WFCORE-1578","text":"Lets have some /socket-binding-group\u003dstandard-sockets/socket-binding with particular name. Then when I create some /socket-binding-group\u003dstandard-sockets/remote-destination-outbound-socket-binding or /socket-binding-group\u003dstandard-sockets/local-destination-outbound-socket-binding using same name as of already existing socket-binding resource, add operation is successful but when I perform server reload, it crashes as it is not able to parse configuration.  Start EAP and log to CLI create your own socket-binding resource and {remote|local}-destination-outbound-socket-binding resource with same names and perform reload      server crashes with following stacktrace in console log:                                      {remote|local} add()\n\n\n\n\n add(host\u003dlocalhost,port\u003d8765)\n\n\n\n\n add(socket-binding-ref\u003dhttp)\n\n\n\n\n {remote|local}","file_goldset":["org.jboss.as.server.services.net.SocketBindingAddHandler","org.jboss.as.controller.logging.ControllerLogger","org.jboss.as.server.services.net.RemoteDestinationOutboundSocketBindingAddHandler","org.jboss.as.server.services.net.LocalDestinationOutboundSocketBindingAddHandler"],"creation_date":"2016-06-07T05:13:13.000-05:00","resolution_date":"2016-06-30T22:42:01.000-05:00"}
{"id":3983,"bug_id":"WFCORE-716","text":"Once server in reload-required state capabilities no longer checked at stage Model.. Once a server is in the state reload-required capabilities and requirements are no longer checked e.g.: -          The following command is referencing a non-existent capability: -          When I execute :reload it will fail: -       attribute(name\u003dsecurity-realm)\n\n\n\n\n {\n\n\n\n\n    \"outcome\" \u003d\u003e \"success\",\n\n\n\n\n    \"response-headers\" \u003d\u003e {\n\n\n\n\n        \"operation-requires-reload\" \u003d\u003e true,\n\n\n\n\n        \"process-state\" \u003d\u003e \"reload-required\"\n\n\n\n\n    }\n\n\n\n\n attribute(name\u003dsecurity-domain, value\u003dMgMtDom)\n\n\n\n\n {\n\n\n\n\n    \"outcome\" \u003d\u003e \"success\",\n\n\n\n\n    \"response-headers\" \u003d\u003e {\n\n\n\n\n        \"operation-requires-reload\" \u003d\u003e true,\n\n\n\n\n        \"process-state\" \u003d\u003e \"reload-required\"\n\n\n\n\n    }","file_goldset":["org.jboss.as.controller.CapabilityReferenceRecorder"],"creation_date":"2015-05-27T10:21:36.000-05:00","resolution_date":"2015-06-10T13:09:19.000-05:00"}
{"id":3984,"bug_id":"WFCORE-1936","text":"If you tries to change such attributes you are informed that reload is necessary.  description(recursive\u003dtrue)","file_goldset":["org.jboss.as.server.services.net.OutboundSocketBindingResourceDefinition","org.jboss.as.controller.resource.AbstractSocketBindingResourceDefinition"],"creation_date":"2016-11-04T10:57:06.000-05:00","resolution_date":"2016-11-07T18:40:35.000-06:00"}
{"id":3985,"bug_id":"WFCORE-1346","text":"extension remove reports sucess even if the extension does not exist. e.g.:   {\"outcome\" \u003d\u003e \"success\"}","file_goldset":["org.jboss.as.controller.extension.ExtensionRemoveHandler","org.wildfly.core.test.standalone.extension.remove.ExtensionRemoveTestCase"],"creation_date":"2016-02-02T07:24:08.000-06:00","resolution_date":"2016-03-22T01:00:41.000-05:00"}
{"id":3986,"bug_id":"WFCORE-495","text":"WFLY won\u0027t startup due to \"WFLYCTL0212: Duplicate resource [(\\\"deployment\\\" \u003d\u003e \\\"xxx.war\\\")]\". WFLY won\u0027t startup due to \"WFLYCTL0212: Duplicate resource [(\\\"deployment\\\" \u003d\u003e \\\"xxx.war\\\")]\" If you firstly deploy a . war application by CLI command, then deploy 2nd time same . war application by copying it to /depolyment directory. After server restart, it shows:          1. start wildfly and deploy a . war application by CLI. 2. copy same . war application to /deployment directory 3. restart wildfly to see the error message. This happens because step 2 does a \"full-replace-deployment\" operation which does not remove content from standalone/data/content/aa/2d0425dd53572294d591b56efdee2680539eaf/content and deployment info from configuration file(standalone.xml). Therefore, you will have xxx.war in standalone/data/content and configuration file(standalone.xml), also a xxx.war and xxx.war.deployed file inside /standalone/deployments. A second time server restart will cause a duplicate resource error. file(standalone.xml) file(standalone.xml)","file_goldset":["org.jboss.as.server.deployment.DeploymentFullReplaceHandler"],"creation_date":"2015-01-12T08:48:29.000-06:00","resolution_date":"2015-01-23T22:27:07.000-06:00"}
{"id":3987,"bug_id":"WFCORE-1635","text":"Write attribute on a new deployment scanner fails in batch. Creating a new deployment-scanner and altering it\u0027s attribute fails if done in single batch. Running the commands without batch or running batch on CLI embed-server works fine.                                             add(path\u003dlog, relative-to\u003d\"jboss.server.base.dir\", auto-deploy-exploded\u003dfalse, scan-enabled\u003dfalse)\n\n\n\n\n attribute(name\u003dscan-interval, value\u003d6000)\n\n\n\n\n add(path\u003dlog, relative-to\u003d\"jboss.server.base.dir\", auto-deploy-exploded\u003dfalse, scan-enabled\u003dfalse)\n\n\n\n\n attribute(name\u003dscan-interval, value\u003d6000)","file_goldset":["org.jboss.as.server.deployment.scanner.AbstractWriteAttributeHandler"],"creation_date":"2016-07-05T07:04:51.000-05:00","resolution_date":"2016-07-08T23:36:17.000-05:00"}
{"id":3988,"bug_id":"WFCORE-989","text":"ServerInventoryImpl.reconnectServer is registering the ProxyController for the reconnecting server with the DomainModelControllerService. The problem is that ProxyController is not yet in a state where it can forward requests to the server. That won\u0027t happen until the server calls back with a DomainServerProtocol.SERVER_RECONNECT_REQUEST and the ServerToHostProtocolHandler.ServerReconnectRequestHandler handles it. The effect is if a request for the server comes in during this window, it will fail.   Most significant logging is as follows:             The HC completes boot. Then servers main-three and other-two register. The HC sends a prepared response to a request. This is the host rollout request to the slave from the DC with the response being the ops to invoke on the servers. The HC reports sending a \"pre-prepare failed response\" to two requests. These are the requests the DC has asked it to proxy to the servers. The result of all this for the client is the following failure of a management op: Failed operation:     Response:                                The \"WFLYHC0153: Channel closed\" failure is what is produced when an attempt is made to invoke on a disconnected proxy controller. {\"server-group\" \u003d\u003e {\n\n\n\n\n        \"main-server-group\" \u003d\u003e {\"host\" \u003d\u003e {\"slave\" \u003d\u003e {\"main-three\" \u003d\u003e \"WFLYHC0153: Channel closed\"}","file_goldset":["org.jboss.as.host.controller.ServerInventoryImpl","org.jboss.as.host.controller.mgmt.ServerToHostProtocolHandler"],"creation_date":"2015-09-19T03:11:07.000-05:00","resolution_date":"2015-10-23T17:03:25.000-05:00"}
{"id":3989,"bug_id":"WFCORE-1959","text":"Deploying an empty managed exploded deployment to server group in domain fails. Deploying an empty exploded deployment created on domain controller fails with the following:                              {empty\u003dtrue} add()","file_goldset":["org.jboss.as.domain.controller.operations.coordination.ServerOperationResolver"],"creation_date":"2016-11-08T16:28:30.000-06:00","resolution_date":"2016-11-09T01:18:14.000-06:00"}
{"id":3990,"bug_id":"WFCORE-815","text":"One profile can have more ancestors with same submodules. One profile can have more ancestors with same submodules. It leads to WFLYCTL0212: Duplicate resource [(\"subsystem\" \u003d\u003e \"subsystem_name\")] .     get fresh EAP                               add(name\u003dincludes, value\u003dmail-01)\n add(name\u003dincludes, value\u003dmail-02)\n\n {\n\n\n\n\n    \"outcome\" \u003d\u003e \"failed\",\n\n\n\n\n    \"failure-description\" \u003d\u003e {\"domain-failure-description\" \u003d\u003e \"WFLYCTL0401: Profile \u0027mail-01\u0027 defines subsystem \u0027mail\u0027 which is also defined in its ancestor profile \u0027mail-02\u0027. Overriding subsystems is not supported\"} add(name\u003dincludes, value\u003dmail-01)\n add(name\u003dincludes, value\u003dmail-02)","file_goldset":["org.jboss.as.host.controller.logging.HostControllerLogger","org.jboss.as.domain.controller.operations.SocketBindingGroupIncludesHandlerTestCase","org.jboss.as.domain.controller.operations.ProfileIncludesHandlerTestCase"],"creation_date":"2015-07-13T07:57:45.000-05:00","resolution_date":"2015-07-15T13:34:32.000-05:00"}
{"id":3991,"bug_id":"WFCORE-701","text":"When a managed server fails in some way, the server status reporting is inconsistent between the /host\u003d\u003chost\u003e/server-config\u003d\u003cserver\u003e resources and the /host\u003d\u003chost\u003e/server\u003d\u003cserver\u003e resource. To reproduce, run domain.sh, find the pid of a server process, and kill -9 \u003cthepid\u003e. Then with the CLI:           attribute(name\u003dstatus)\n\n\n\n\n {\n\n\n\n\n    \"outcome\" \u003d\u003e \"success\",\n\n\n\n\n    \"result\" \u003d\u003e \"FAILED\"\n\n\n\n\n}\n\n\n\n\n attribute(name\u003dserver-state)\n\n\n\n\n {\n\n\n\n\n    \"outcome\" \u003d\u003e \"success\",\n\n\n\n\n    \"result\" \u003d\u003e \"STOPPED\"\n\n\n\n\n}","file_goldset":["org.jboss.as.host.controller.ManagedServer"],"creation_date":"2015-05-19T15:06:17.000-05:00","resolution_date":"2016-03-30T14:44:00.000-05:00"}
{"id":3992,"bug_id":"WFCORE-1214","text":"Operation headers not propagated to domain servers when \u0027composite\u0027 op is used. When the user adds request headers to an op, they are not propagated to the servers during domain rollout if the \u0027composite\u0027 op is involved. For example, if I add some stdout printing of what the headers are on the various processes and invoke this:   Then on a HC with two servers, this is logged:                                    Note the CLI \u0027deploy\u0027 is far from the only time the \u0027composite\u0027 op is used. Among other places, the high level CLI \u0027batch\u0027 command in a domain involves use of \u0027composite\u0027. {blocking-timeout\u003d5;rollback-on-runtime-failure\u003dfalse}  {\n\n[Host Controller] 10:53:40,697 INFO  [stdout] (management-handler-thread - 3)     \"blocking-timeout\" \u003d\u003e \"5\",\n\n[Host Controller] 10:53:40,698 INFO  [stdout] (management-handler-thread - 3)     \"rollback-on-runtime-failure\" \u003d\u003e \"false\",\n\n[Host Controller] 10:53:40,698 INFO  [stdout] (management-handler-thread - 3)     \"caller-type\" \u003d\u003e \"user\",\n\n[Host Controller] 10:53:40,698 INFO  [stdout] (management-handler-thread - 3)     \"access-mechanism\" \u003d\u003e \"NATIVE\"\n\n[Host Controller] 10:53:40,698 INFO  [stdout] (management-handler-thread - 3) }","file_goldset":["org.jboss.as.domain.controller.operations.coordination.OperationCoordinatorStepHandler","org.jboss.as.domain.controller.operations.coordination.DomainRolloutStepHandler"],"creation_date":"2015-12-11T23:17:45.000-06:00","resolution_date":"2015-12-16T22:48:39.000-06:00"}
{"id":3993,"bug_id":"WFCORE-955","text":"Server is not responding after attempt to set parent of profile to non-existent profile. Server is not responding after attempt to set parent of profile to non-existent profile. Server is not responding also after attempt to set parent of socket-binding-group to non-existent socket-binding-group.         Get fresh EAP        Actual results:                       Get fresh EAP        add()\n {\n\n\n\n\n    \"outcome\" \u003d\u003e \"failed\",\n\n\n\n\n    \"failure-description\" \u003d\u003e \"java.lang.NullPointerException:null\"\n\n\n\n\n}\n\n\n\n\n add()","file_goldset":["org.jboss.as.controller.logging.ControllerLogger","org.jboss.as.controller.OperationContextImpl","org.jboss.as.controller.AbstractOperationContext","org.jboss.as.controller.capability.registry.IncludingResourceCapabilityScope","org.jboss.as.controller.SocketCapabilityResolutionUnitTestCase","org.jboss.as.controller.AbstractCapabilityResolutionTestCase"],"creation_date":"2015-08-27T14:34:07.000-05:00","resolution_date":"2015-09-04T13:33:34.000-05:00"}
{"id":3994,"bug_id":"WFCORE-1198","text":"CLI does not resolve multiple properties if one property is undefined. Multiple property substitution is working with EAP 6.4.3+, however, if a variable amongst the multiple variables is empty or has no value, then the subsequent property in the CLI command is not substituted. For example :            and if I execute \".       Note APP-VERSION had no value, and so the subsequent SERVER-INSTANCE-NUMBER was not properly resolved {PROFILE-NAME} {APP-VERSION} {VAR} add(auto-start\u003dtrue, group\u003d\"${PROFILE-NAME}${APP-VERSION}-server-group\")","file_goldset":["org.jboss.as.cli.parsing.ExpressionBaseState","org.jboss.as.cli.parsing.test.PropertyReplacementTestCase"],"creation_date":"2015-12-09T09:30:00.000-06:00","resolution_date":"2015-12-23T05:08:33.000-06:00"}
{"id":3995,"bug_id":"WFCORE-1572","text":"Suggestion list for argument value is not generated if the value contains a whitespace. When an argument value contains a space (eg. deploy /path/to/test-application. war --all-server-groups --headers\u003d{rollout id\u003dfoo}) and if user hits tab after the whitespace, suggestions are generated based on the command, rather than the current argument\u0027s name. {rollout id\u003dfoo}","file_goldset":["org.jboss.as.cli.parsing.ParserUtil","org.jboss.as.cli.parsing.test.CommandTestCase","org.jboss.as.cli.parsing.DefaultStateWithEndCharacter"],"creation_date":"2016-05-27T16:20:10.000-05:00","resolution_date":"2016-06-20T02:04:49.000-05:00"}
{"id":3996,"bug_id":"WFCORE-876","text":"Reload or Shutdown inside IF statement is performed before the if/else block batch is executed. Executing a reload or shutdown inside an if/else block results in the reload or restart occurring before the other commands in the batch are executed.     This command will actually leave the server in a reload-required state. The shutdown, or reload, will occur before the write-attribute is executed. resource()","file_goldset":["org.jboss.as.cli.handlers.ifelse.IfElseControlFlow","org.jboss.as.cli.handlers.trycatch.TryCatchFinallyControlFlow","org.jboss.as.test.integration.management.cli.TryCatchFinallyTestCase","org.jboss.as.test.integration.management.cli.ifelse.NonExistingPathComparisonTestCase","org.jboss.as.test.integration.management.cli.ifelse.BasicIfElseTestCase"],"creation_date":"2015-08-12T07:52:43.000-05:00","resolution_date":"2015-09-18T13:23:39.000-05:00"}
{"id":3997,"bug_id":"WFCORE-604","text":" After failed to deploy, remain deployment information in JBOSS_HOME/{standalone|domaine}/data/content directory. - After failed to deploy, remain deployment information in JBOSS_HOME/{standalone|domaine}/data/content directory     1. Fail to deploy application via jboss-cli 2. Find deployment info in JBOSS_HOME/{standalone|domaine}/data/content, but there are no standalone.xml in \u003cdeployments\u003e tag. 3. Fix deployment and success to deploy. 4. Find \"new\" deployment info in JBOSS_HOME/{standalone|domaine}/data/content, and the old deployment info will be still there.     - The deployment information which created when deploy was failed remains in JBOSS_HOME/{standalone|domaine}/data/content.   {standalone|domaine} {standalone|domaine} {standalone|domaine} {standalone|domaine} {standalone|domaine}","file_goldset":["org.jboss.as.domain.controller.operations.deployment.DeploymentAddHandler","org.jboss.as.host.controller.mgmt.ServerToHostProtocolHandler","org.jboss.as.domain.controller.operations.ApplyRemoteMasterDomainModelHandler","org.jboss.as.host.controller.model.host.HostResourceDefinition","org.jboss.as.repository.LocalDeploymentFileRepository","org.jboss.as.domain.controller.operations.deployment.DeploymentFullReplaceHandler","org.jboss.as.host.controller.DomainModelControllerService","org.jboss.as.domain.controller.operations.deployment.DeploymentRemoveHandler","org.jboss.as.server.deploymentoverlay.DeploymentOverlayContentAdd","org.jboss.as.domain.controller.operations.deployment.ServerGroupDeploymentReplaceHandler","org.jboss.as.host.controller.RemoteDomainConnectionService","org.jboss.as.server.logging.ServerLogger","org.jboss.as.core.model.test.TestModelControllerService","org.jboss.as.server.deployment.DeploymentFullReplaceHandler","org.jboss.as.server.deployment.DeploymentAddHandlerTestCase","org.jboss.as.repository.logging.DeploymentRepositoryLogger","org.jboss.as.management.client.content.ManagedDMRContentTypeResource","org.jboss.as.core.model.test.LegacyKernelServicesImpl","org.jboss.as.domain.controller.operations.deployment.ServerGroupDeploymentAddHandler","org.jboss.as.subsystem.test.TestModelControllerService","org.jboss.as.server.controller.resources.ServerRootResourceDefinition","org.jboss.as.server.deploymentoverlay.DeploymentOverlayContentDefinition","org.jboss.as.repository.DeploymentFileRepository","org.jboss.as.server.test.InterfaceManagementUnitTestCase","org.jboss.as.host.controller.mgmt.MasterDomainControllerOperationHandlerImpl","org.jboss.as.host.controller.HostControllerService","org.jboss.as.domain.controller.operations.deployment.ServerGroupDeploymentRemoveHandler","org.jboss.as.management.client.content.ManagedDMRContentTypeAddHandler","org.jboss.as.repository.LocalFileRepository","org.jboss.as.server.ApplicationServerService","org.jboss.as.test.shared.ModelParserUtils","org.jboss.as.host.controller.ManagedServerOperationsFactory","org.jboss.as.domain.controller.resources.DomainRootDefinition","org.jboss.as.server.deployment.DeploymentRemoveHandler","org.jboss.as.domain.controller.resources.ServerGroupResourceDefinition","org.jboss.as.repository.ContentRepository","org.jboss.as.domain.controller.resources.DomainDeploymentResourceDefinition","org.jboss.as.server.mgmt.domain.RemoteFileRepositoryService","org.jboss.as.server.deployment.DeploymentReplaceHandler","org.jboss.as.server.deployment.DeploymentAddHandler"],"creation_date":"2015-03-18T09:19:35.000-05:00","resolution_date":"2015-03-25T18:39:26.000-05:00"}
{"id":3998,"bug_id":"WFCORE-1590","text":"Default parameter length validating ignores setMinSize(0). With the following attribute definition: -          The following error is reported if an empty string is used as a parameter: -          static final SimpleAttributeDefinition REPLACEMENT \u003d new SimpleAttributeDefinitionBuilder(ElytronDescriptionConstants.REPLACEMENT, ModelType.STRING, false)\n\n\n\n\n        .setAllowExpression(true)\n\n\n\n\n        .setMinSize(0)\n\n\n\n\n        .setFlags(AttributeAccess.Flag.RESTART_RESOURCE_SERVICES)\n\n\n\n\n        .build();\n\n\n\n\n\n\n add(pattern\u003d\"@ELYTRON.ORG\", replacement\u003d\"\", replace-all\u003dtrue)","file_goldset":["org.jboss.as.controller.AbstractAttributeDefinitionBuilder","org.jboss.as.controller.test.WriteAttributeOperationTestCase","org.jboss.as.controller.AttributeDefinition","org.jboss.as.controller.SimpleAttributeDefinitionUnitTestCase","org.jboss.as.controller.operations.validation.BytesValidator"],"creation_date":"2016-06-12T14:18:43.000-05:00","resolution_date":"2016-08-11T15:17:26.000-05:00"}
{"id":3999,"bug_id":"WFCORE-1570","text":"When using rollout plans for EAP deployment scenarios I can create my own named rollout-plan for ease of use. I can then apply rollout command later on, referring with name of my own rollout plan that should be used.  When I create rollout-plan, I use command like:  see --name attribute given to name my rollout plan When I then refer to it I use following command:   see id attribute given to rollout header operation    group(rolling-to-servers\u003dfalse,max-failed-servers\u003d1) group(rolling-to-servers\u003dtrue,max-failure-percentage\u003d20)  {rollout id\u003dmy-rollout-plan}","file_goldset":["org.jboss.as.cli.parsing.operation.header.RolloutPlanState","org.jboss.as.cli.parsing.operation.header.RolloutPlanHeaderCallbackHandler","org.jboss.as.cli.operation.impl.RolloutPlanCompleter"],"creation_date":"2016-05-27T12:51:56.000-05:00","resolution_date":"2016-06-20T02:05:22.000-05:00"}
{"id":4000,"bug_id":"WFCORE-949","text":"Executing /core-service\u003dmanagement/management-interface\u003dhttp-interface:remove() autocompletes but does not succeed.   remove()","file_goldset":["org.jboss.as.subsystem.test.AdditionalInitialization","org.wildfly.core.test.standalone.mgmt.HTTPSManagementInterfaceTestCase","org.jboss.as.jmx.RemotingConnectorResource","org.jboss.as.server.operations.HttpManagementRemoveHandler","org.jboss.as.host.controller.resources.NativeManagementResourceDefinition","org.jboss.as.test.integration.domain.HTTPSManagementInterfaceTestCase","org.jboss.as.server.operations.NativeRemotingManagementRemoveHandler","org.jboss.as.server.operations.NativeManagementRemoveHandler","org.jboss.as.host.controller.resources.HttpManagementResourceDefinition","org.wildfly.core.test.standalone.mgmt.HTTPSConnectionWithCLITestCase","org.jboss.as.remoting.management.ManagementRemotingServices","org.jboss.as.remoting.logging.RemotingLogger","org.jboss.as.server.mgmt.NativeManagementResourceDefinition","org.jboss.as.host.controller.operations.HttpManagementRemoveHandler","org.jboss.as.server.mgmt.HttpManagementResourceDefinition"],"creation_date":"2015-09-03T05:08:35.000-05:00","resolution_date":"2015-09-21T18:59:23.000-05:00"}
{"id":4001,"bug_id":"WFCORE-1718","text":"If Audit Logger is removed, destination handlers (i.e. its child nodes) are not removed properly. They are not present in the config file. They seem to be not removed \"internally\" though.  1. It is not possible to remove referenced File/Syslog handlers. If user tries to remove them the NullPointerException is given as a result. Try following commands:   Their output is:      2. AuditLog continues to send auditable events to previously referenced File/Syslog handlers. Create auditable event (e.g. /subsystem\u003dlogging/logger\u003dcom.arjuna:write-attribute(name\u003dlevel,value\u003dDEBUG)) See log in the file (WILDFLY_HOME/standalone/data/audit-log.log) See log in the syslog (/var/log/messages) remove()\n remove()\n {\n\n\n\n\n    \"outcome\" \u003d\u003e \"failed\",\n\n\n\n\n    \"failure-description\" \u003d\u003e \"WFLYCTL0158: Operation handler failed: java.lang.NullPointerException\",\n\n\n\n\n    \"rolled-back\" \u003d\u003e true\n\n\n\n\n}\n\n\n\n\n\n\n attribute(name\u003dlevel,value\u003dDEBUG)","file_goldset":["org.jboss.as.domain.management.audit.AccessAuditResourceDefinition","org.jboss.as.domain.management.audit.AuditLogLoggerResourceDefinition","org.jboss.as.domain.management.audit.AuditLogHandlerReferenceResourceDefinition"],"creation_date":"2016-08-16T09:49:11.000-05:00","resolution_date":"2016-08-31T21:54:29.000-05:00"}
{"id":4002,"bug_id":"WFCORE-626","text":"Global list-get operation can inadvertently create list elements. Consider the following sequence of operations:     #2 will return \u003cundefined\u003e as expected.  However, it returns \u003cundefined\u003e. This is because #2 will create the missing element at index 0 causing #3 to operate on index 1. clear(name\u003dattribute)\n get(name\u003dattribute, index\u003d0)\n add(name\u003dattribute, value\u003dtest)\n get(name\u003dattribute, index\u003d0)","file_goldset":["org.jboss.as.controller.operations.global.MapOperations","org.jboss.as.controller.operations.global.ListOperations"],"creation_date":"2015-04-06T15:53:19.000-05:00","resolution_date":"2015-04-15T13:17:29.000-05:00"}
{"id":4003,"bug_id":"WFCORE-1007","text":"Warnings about missing notification descriptions when an operation removes an extension. When I use migration operation the console log is filled with warning messages of type   If I do the sequence of operation                    then I the log looks like                                                                                                                      migrate()\n\n\n\n\n {\n\n\n\n\n    \"outcome\" \u003d\u003e \"success\",\n\n\n\n\n    \"result\" \u003d\u003e {\"migration-warnings\" \u003d\u003e []}\n\n\n\n\n migrate()\n\n\n\n\n {\n\n\n\n\n    \"outcome\" \u003d\u003e \"success\",\n\n\n\n\n    \"result\" \u003d\u003e {\"migration-warnings\" \u003d\u003e []}\n\n\n\n\n migrate()\n\n\n\n\n {\n\n\n\n\n    \"outcome\" \u003d\u003e \"success\",\n\n\n\n\n    \"result\" \u003d\u003e {\"migration-warnings\" \u003d\u003e []}","file_goldset":["org.jboss.as.controller.logging.ControllerLogger","org.jboss.as.controller.AbstractOperationContext"],"creation_date":"2015-09-24T06:45:11.000-05:00","resolution_date":"2015-09-25T15:39:44.000-05:00"}
{"id":4004,"bug_id":"WFCORE-1765","text":"unclear NullPointerException if the deployment-scanner element is removed from the configuration. If the deployment scanner element is removed from the configuration of the standalone server a NullPointerException is logged which is unclear and difficult to find as the stack does not show any hint.      Log message:            {xml}\n         {xml}","file_goldset":["org.jboss.as.controller.ParallelBootOperationStepHandler"],"creation_date":"2016-09-05T16:22:02.000-05:00","resolution_date":"2016-09-06T22:20:53.000-05:00"}
{"id":4005,"bug_id":"WFCORE-442","text":"AbstractMultiTargetHandler-based handlers do not propagate failures to the top level failure-description. An example is worth a thousand words:                                                                                                                                 One item in the set has a failure description but the overall response does not.  {read-only\u003d1} {\n\n\n\n\n                \"name\" \u003d\u003e \"jboss.server.temp.dir\",\n\n\n\n\n                \"path\" \u003d\u003e \"/Users/hbraun/dev/prj/wildfly-core/core-build/target/wildfly-core-1.0.0.Alpha14-SNAPSHOT/standalone/tmp\",\n\n\n\n\n                \"read-only\" \u003d\u003e true,\n\n\n\n\n                \"relative-to\" \u003d\u003e undefined\n\n\n\n\n            } {\n\n\n\n\n                \"name\" \u003d\u003e \"user.home\",\n\n\n\n\n                \"path\" \u003d\u003e \"/Users/hbraun\",\n\n\n\n\n                \"read-only\" \u003d\u003e true,\n\n\n\n\n                \"relative-to\" \u003d\u003e undefined\n\n\n\n\n            } {\n\n\n\n\n                \"name\" \u003d\u003e \"jboss.server.base.dir\",\n\n\n\n\n                \"path\" \u003d\u003e \"/Users/hbraun/dev/prj/wildfly-core/core-build/target/wildfly-core-1.0.0.Alpha14-SNAPSHOT/standalone\",\n\n\n\n\n                \"read-only\" \u003d\u003e true,\n\n\n\n\n                \"relative-to\" \u003d\u003e undefined\n\n\n\n\n            } {\n\n\n\n\n                \"name\" \u003d\u003e \"user.dir\",\n\n\n\n\n                \"path\" \u003d\u003e \"/Users/hbraun/dev/prj/wildfly-core/core-build/target/wildfly-core-1.0.0.Alpha14-SNAPSHOT\",\n\n\n\n\n                \"read-only\" \u003d\u003e true,\n\n\n\n\n                \"relative-to\" \u003d\u003e undefined\n\n\n\n\n            } {\n\n\n\n\n                \"name\" \u003d\u003e \"jboss.server.data.dir\",\n\n\n\n\n                \"path\" \u003d\u003e \"/Users/hbraun/dev/prj/wildfly-core/core-build/target/wildfly-core-1.0.0.Alpha14-SNAPSHOT/standalone/data\",\n\n\n\n\n                \"read-only\" \u003d\u003e true,\n\n\n\n\n                \"relative-to\" \u003d\u003e undefined\n\n\n\n\n            } {\n\n\n\n\n                \"name\" \u003d\u003e \"jboss.home.dir\",\n\n\n\n\n                \"path\" \u003d\u003e \"/Users/hbraun/dev/prj/wildfly-core/core-build/target/wildfly-core-1.0.0.Alpha14-SNAPSHOT\",\n\n\n\n\n                \"read-only\" \u003d\u003e true,\n\n\n\n\n                \"relative-to\" \u003d\u003e undefined\n\n\n\n\n            } {\n\n\n\n\n                \"name\" \u003d\u003e \"jboss.server.log.dir\",\n\n\n\n\n                \"path\" \u003d\u003e \"/Users/hbraun/dev/prj/wildfly-core/core-build/target/wildfly-core-1.0.0.Alpha14-SNAPSHOT/standalone/log\",\n\n\n\n\n                \"read-only\" \u003d\u003e true,\n\n\n\n\n                \"relative-to\" \u003d\u003e undefined\n\n\n\n\n            } {\n\n\n\n\n                \"name\" \u003d\u003e \"jboss.controller.temp.dir\",\n\n\n\n\n                \"path\" \u003d\u003e \"/Users/hbraun/dev/prj/wildfly-core/core-build/target/wildfly-core-1.0.0.Alpha14-SNAPSHOT/standalone/tmp\",\n\n\n\n\n                \"read-only\" \u003d\u003e true,\n\n\n\n\n                \"relative-to\" \u003d\u003e undefined\n\n\n\n\n            }","file_goldset":["org.jboss.as.controller.operations.global.GlobalOperationHandlers"],"creation_date":"2014-12-02T19:15:13.000-06:00","resolution_date":"2015-05-28T21:46:55.000-05:00"}
{"id":4006,"bug_id":"WFCORE-1793","text":"add-content operation fails to overwrite existing content with overwrite\u003dtrue set when passing content by file path. Upon overwriting content in managed exploded deployments on wildfly-core, the following errors are produced:                                          {\"outcome\" \u003d\u003e \"success\"}\n\n\n\n\n {\"outcome\" \u003d\u003e \"success\"}\n\n\n\n\n {\"outcome\" \u003d\u003e \"success\"}\n\n\n\n\n {path\u003d/home/mjurc/testing/eap7-204/test.txt, target-path\u003dtest.txt} {path\u003d/home/mjurc/testing/eap7-204/test.txt, target-path\u003dtest.txt} {path\u003d/home/mjurc/testing/eap7-204/test.txt, target-path\u003dtest.txt}","file_goldset":["org.jboss.as.server.deployment.ExplodedDeploymentAddContentHandler","org.jboss.as.server.controller.resources.DeploymentAttributes"],"creation_date":"2016-09-14T08:08:21.000-05:00","resolution_date":"2016-09-20T21:22:42.000-05:00"}
{"id":4007,"bug_id":"WFCORE-1864","text":"Whitespaces are not removed from dependencies in module add command. Running module add --name\u003dfoo.bar --resources\u003dfoo.jar --dependencies\u003d[org.a, org.b ] will result in following dependencies in module.xml          {{\n...\n    \u003cdependencies\u003e\n        \u003cmodule name\u003d\"org.a\"/\u003e\n        \u003cmodule name\u003d\" org.b \"/\u003e\n    \u003c/dependencies\u003e\n...\n}}","file_goldset":["org.jboss.as.cli.handlers.module.ASModuleHandler","org.jboss.as.test.integration.management.cli.ModuleTestCase"],"creation_date":"2016-10-13T09:12:31.000-05:00","resolution_date":"2016-10-26T20:18:59.000-05:00"}
